# Number of vertices:
300
# Edge list:
12,0
54,0
222,0
264,0
13,0
55,0
223,0
265,0
14,0
56,0
224,0
266,0
15,0
57,0
225,0
267,0
16,0
58,0
226,0
268,0
17,0
59,0
227,0
269,0
18,0
60,0
228,0
270,0
19,0
61,0
178,0
229,0
271,0
20,0
62,0
230,0
272,0
21,0
63,0
231,0
273,0
22,0
64,0
232,0
274,0
23,0
65,0
233,12
275,12
24,12
66,12
179,12
234,12
276,54
25,54
67,54
235,54
277,54
26,54
68,54
236,54
278,54
27,54
69,54
237,222
279,222
28,222
70,222
238,222
280,222
29,222
71,222
239,264
281,264
30,264
72,264
220,13
240,13
282,13
73,13
31,13
241,13
283,13
74,13
32,13
242,13
284,13
33,55
75,55
243,55
285,55
34,55
76,55
244,55
286,55
35,55
77,55
221,55
245,55
287,55
36,55
78,55
246,55
288,223
37,223
79,223
247,223
289,223
38,265
80,265
248,265
290,265
39,265
81,265
249,265
291,265
40,265
82,265
250,265
292,265
41,265
83,265
251,14
293,14
42,14
84,14
252,14
1,14
294,14
43,14
85,14
253,14
295,56
2,56
44,56
86,56
254,56
296,56
3,56
45,266
87,266
255,266
297,266
4,266
46,266
88,266
256,266
298,266
5,266
47,266
89,15
257,15
299,15
6,15
48,15
90,15
258,15
7,15
49,15
91,15
259,15
8,15
50,57
92,57
260,57
9,57
51,57
93,57
261,57
52,57
10,57
94,57
262,57
53,57
11,57
95,57
263,57
96,57
138,57
180,225
97,225
139,225
181,225
98,267
140,267
182,267
99,267
141,267
183,267
100,267
142,267
184,16
101,16
143,16
185,58
102,58
144,58
186,58
103,58
145,58
187,58
104,226
146,226
188,226
105,226
147,226
189,268
106,268
148,268
190,268
107,268
149,268
191,268
108,268
150,268
192,268
109,268
151,268
193,268
110,268
152,268
194,17
111,17
153,17
195,59
112,59
154,59
196,59
113,59
155,59
197,59
114,59
156,59
198,59
115,59
157,59
199,59
116,59
158,59
200,227
117,227
159,227
201,269
118,269
160,269
202,18
119,18
161,18
203,18
120,18
162,18
204,18
121,18
163,18
205,18
122,60
164,60
206,60
123,60
165,60
207,60
124,60
166,60
208,60
125,60
167,60
209,228
126,228
168,228
210,228
127,228
169,228
211,228
128,228
170,228
212,228
129,228
171,228
213,228
130,270
172,270
214,270
131,270
173,270
215,270
132,270
174,270
216,270
133,19
175,19
217,19
134,19
176,19
218,19
135,19
177,61
219,61
136,61
137,61
179,231
179,55
234,62
234,18
234,222
234,17
234,60
234,269
234,264
234,54
234,22
234,15
276,16
277,15
277,222
277,229
26,64
26,272
26,227
26,222
236,268
236,271
236,226
236,272
236,266
236,270
236,232
236,55
236,61
236,22
236,19
237,58
237,17
237,269
237,271
285,54
285,273
285,64
285,222
285,17
285,225
285,23
285,178
285,232
285,16
285,18
285,229
285,269
37,55
37,271
37,227
37,273
37,232
40,270
40,56
40,62
293,266
293,56
294,268
294,21
294,57
294,18
294,61
294,272
294,224
256,228
256,230
256,12
256,232
256,13
256,267
90,223
8,14
8,267
8,20
8,264
8,55
8,61
8,62
8,226
8,270
186,55
186,272
186,229
186,63
147,270
147,17
147,22
147,229
147,57
147,266
147,228
147,274
147,54
147,271
108,23
108,17
108,64
108,60
108,226
151,62
151,61
151,18
151,266
162,270
210,62
210,222
137,271
