# Number of vertices:
300
# Edge list:
14,0
98,0
140,0
224,0
271,0
278,0
15,0
99,0
141,0
225,0
270,0
16,0
100,0
142,0
226,0
17,0
101,0
143,0
227,0
268,0
18,0
102,0
144,14
228,14
269,14
285,14
19,14
103,14
145,14
229,14
280,14
20,14
104,14
146,14
230,14
21,14
105,14
147,14
231,98
267,98
22,98
106,98
148,98
232,98
23,98
107,98
149,98
233,98
279,98
282,140
24,224
108,224
150,224
234,271
283,271
25,271
109,271
151,271
235,271
26,278
110,278
152,278
236,278
272,15
27,15
111,15
153,15
237,15
274,15
276,15
28,15
112,15
154,15
238,15
275,99
29,99
113,141
155,141
239,141
30,141
114,141
156,141
240,141
277,141
281,141
31,141
115,141
157,141
241,141
32,141
116,141
158,141
242,225
273,225
33,225
117,270
159,270
243,270
284,270
286,270
34,270
118,270
160,270
244,270
266,270
35,16
119,16
161,16
245,16
292,16
36,100
120,100
162,100
246,100
291,100
37,100
121,100
163,100
247,100
290,100
38,142
122,142
164,142
248,142
39,142
123,142
165,142
249,142
40,142
124,142
166,142
250,142
41,142
125,142
167,142
251,142
42,142
126,226
168,226
1,226
252,226
43,226
127,226
169,226
253,17
2,17
44,17
128,17
170,17
254,17
289,17
3,17
45,17
129,17
171,17
255,17
288,17
4,101
46,101
130,101
172,101
256,101
287,101
5,101
47,101
131,143
173,143
257,143
297,143
6,143
48,143
132,143
174,143
258,143
296,143
7,143
49,143
133,143
175,227
259,227
295,227
8,227
50,227
134,227
176,227
260,227
294,227
9,227
51,227
135,227
177,227
261,268
293,268
10,268
52,268
136,268
178,18
262,18
299,18
11,18
53,18
137,18
179,18
263,18
12,18
54,18
138,18
180,18
264,18
55,18
13,102
139,102
181,102
265,102
298,102
56,102
182,102
57,102
183,102
58,144
184,144
59,144
185,144
60,144
186,144
61,144
187,144
62,144
188,144
63,144
189,144
64,228
190,228
65,228
191,269
66,269
192,269
67,269
193,269
68,269
194,269
69,269
195,269
70,269
196,269
71,285
197,285
72,285
198,285
73,285
199,285
74,285
200,285
223,285
75,285
201,285
76,285
202,285
77,285
203,285
78,19
204,19
79,19
205,19
80,19
206,19
81,19
207,19
82,19
208,19
83,19
209,103
84,103
210,103
85,103
211,103
86,103
212,103
87,145
213,145
88,145
214,145
89,229
215,229
90,229
216,229
91,229
217,229
92,229
218,229
93,229
219,229
94,229
220,229
95,229
221,229
96,229
222,229
97,229
148,14
148,99
148,268
148,225
148,16
148,18
148,142
148,227
148,141
148,101
148,140
148,278
148,270
233,102
233,226
233,268
233,15
234,17
234,278
234,227
234,143
234,102
234,270
234,268
234,14
234,18
234,141
234,98
25,14
25,224
25,18
25,270
25,98
25,17
25,16
25,140
25,278
25,227
25,101
25,141
25,226
158,142
158,224
158,270
158,14
158,101
158,225
158,227
158,99
158,271
158,100
33,18
33,98
117,225
40,140
128,143
128,142
128,102
128,226
128,99
128,18
128,16
128,271
128,268
170,268
174,101
174,268
49,225
49,98
49,270
49,141
183,225
183,15
183,143
183,226
183,227
183,142
183,14
183,268
183,101
183,100
59,28
195,29
195,232
195,41
195,114
195,124
195,48
195,244
195,121
195,56
195,126
195,22
195,260
195,113
201,31
201,157
201,236
201,49
201,272
201,33
201,181
201,123
201,155
201,173
201,110
201,273
201,21
76,275
76,244
76,269
76,131
76,159
204,41
204,228
204,263
204,9
206,273
209,274
209,12
209,33
209,122
221,121
221,273
221,22
221,294
221,176
221,279
221,139
221,153
