# Number of vertices:
300
# Edge list:
17,0
143,0
185,0
109,0
269,0
18,0
144,0
186,0
105,0
270,0
19,0
145,0
187,0
141,0
271,0
20,0
146,0
188,0
139,0
272,0
21,0
147,0
189,0
273,0
22,0
136,0
148,0
142,0
190,0
274,0
23,0
149,0
191,0
275,0
24,0
135,0
150,0
192,0
276,0
25,0
131,0
151,0
193,0
277,0
26,0
126,0
152,0
138,0
194,0
278,0
27,0
153,0
195,0
279,0
28,0
134,143
154,143
196,143
280,143
29,143
130,143
155,143
197,143
281,143
30,143
125,143
156,143
140,143
198,143
268,185
31,185
157,185
199,185
282,109
283,109
32,109
133,109
158,269
200,269
284,18
33,18
129,144
159,144
201,144
285,144
34,144
124,144
160,186
117,186
202,186
286,186
35,186
161,186
203,186
103,186
287,186
36,186
162,186
204,186
102,186
288,186
37,186
163,186
205,105
101,105
289,105
38,105
164,270
206,270
107,270
290,270
39,19
165,145
207,145
106,145
291,145
40,145
166,145
208,145
104,145
292,145
41,145
167,187
209,187
293,187
42,187
168,187
210,187
1,187
110,187
294,187
43,187
169,187
211,141
120,141
295,141
2,141
44,141
170,141
118,141
212,141
296,141
3,141
45,141
171,271
115,271
213,271
297,271
4,271
46,271
172,271
113,271
214,271
298,271
5,271
47,20
173,20
111,20
215,20
299,20
6,20
48,20
174,188
121,188
216,188
7,188
49,188
175,188
119,188
217,188
8,139
50,139
176,139
116,139
218,139
9,139
51,139
177,139
114,139
219,139
10,139
52,139
178,272
112,272
220,272
11,272
53,272
179,272
108,272
221,272
12,272
54,272
128,272
180,272
222,272
13,21
55,21
123,21
137,21
181,21
223,21
14,21
56,21
182,21
224,21
15,21
57,21
132,21
183,21
225,21
58,189
16,189
127,189
122,189
184,189
226,189
59,22
227,22
60,22
228,22
61,22
229,22
62,22
230,22
63,22
231,22
64,22
232,22
65,136
233,136
66,136
234,136
67,136
235,136
68,136
236,136
69,136
237,148
70,148
238,148
71,148
239,148
72,148
240,148
73,148
241,148
74,148
242,190
75,190
243,190
76,190
244,190
77,190
245,190
78,190
246,190
79,190
247,274
80,274
248,23
81,23
249,191
82,191
250,191
83,191
251,191
84,191
252,191
85,191
253,275
86,275
254,275
87,275
255,275
88,275
256,275
89,275
257,275
90,24
258,24
91,24
259,24
92,135
260,135
93,135
261,135
94,135
262,135
95,135
263,135
96,135
264,135
97,135
265,135
98,135
266,135
99,135
267,150
100,150
130,153
130,17
130,194
130,28
130,277
130,136
197,21
197,145
197,24
197,138
197,275
197,152
197,20
197,192
197,188
197,269
197,23
129,274
129,21
129,27
129,189
129,135
129,105
129,188
129,187
129,20
129,278
129,195
104,141
104,192
104,187
104,126
104,144
104,190
104,24
104,21
104,109
104,149
104,136
104,188
294,109
294,195
294,135
294,28
294,23
294,149
294,192
294,25
294,270
294,19
294,273
294,275
118,148
45,275
45,272
45,135
45,189
45,186
45,277
45,273
6,141
6,148
119,136
119,152
119,269
119,186
119,151
119,191
119,19
116,276
116,138
116,131
116,189
116,142
116,185
116,109
116,24
116,26
114,276
179,277
55,148
55,141
55,28
56,105
56,189
56,192
56,28
56,147
56,20
56,275
224,277
184,190
184,275
184,23
184,151
226,105
226,146
226,151
226,26
226,143
226,194
226,135
226,188
230,152
230,23
230,274
233,25
233,19
233,135
233,269
233,131
238,23
238,141
238,187
238,277
238,145
72,191
247,26
247,271
247,277
247,276
247,18
247,187
247,150
247,193
247,185
247,28
247,273
247,143
247,147
248,269
248,187
248,148
248,151
248,25
248,105
248,21
248,190
248,191
249,24
249,189
249,192
249,23
249,277
249,18
93,277
93,149
93,20
93,151
93,143
93,190
93,18
93,276
93,193
93,269
95,150
95,131
95,146
95,141
95,145
95,138
95,22
95,27
