# Number of vertices:
300
# Edge list:
9,0
135,0
177,0
219,0
10,0
136,0
178,0
220,0
11,0
137,0
179,0
221,0
12,0
138,0
180,0
222,0
13,0
139,0
181,0
223,0
14,0
140,0
182,0
224,0
15,0
141,0
183,0
225,0
16,0
142,0
184,0
226,0
17,0
143,0
185,0
227,0
18,0
144,0
186,0
228,0
19,0
145,0
187,0
229,0
20,0
146,0
188,0
230,0
21,0
147,0
189,0
231,0
22,9
148,9
190,9
232,9
23,9
149,9
191,9
233,9
24,9
150,9
192,9
234,9
25,9
151,9
193,135
235,135
26,135
152,135
194,135
236,135
27,135
153,135
195,135
237,135
28,135
154,135
196,135
238,135
29,135
155,135
197,177
239,177
30,177
156,177
198,177
240,177
31,177
157,177
199,177
241,177
32,177
158,177
200,177
242,177
33,177
159,177
201,219
243,219
34,219
160,219
202,219
244,219
35,219
161,219
203,219
245,219
36,219
162,219
204,219
246,219
37,219
163,10
205,10
247,10
38,10
164,10
206,10
248,10
39,10
165,10
207,10
249,10
40,10
166,10
208,136
250,136
41,136
167,136
209,136
251,136
42,136
168,136
210,136
1,178
252,178
43,178
169,178
211,178
253,178
2,178
44,178
170,178
212,220
254,220
3,220
45,220
171,11
213,11
255,11
4,11
46,11
172,11
214,11
256,11
5,11
47,11
173,11
215,11
257,11
6,11
48,11
174,11
216,137
258,137
49,137
7,137
175,137
217,137
259,179
50,179
8,179
176,221
218,221
260,12
133,12
51,138
93,138
261,138
52,180
94,180
262,180
53,180
95,180
263,180
54,222
96,222
264,222
55,222
97,222
134,13
265,13
56,13
98,13
266,13
57,13
99,13
267,13
58,13
100,13
268,13
59,13
101,13
269,13
60,139
102,139
270,139
61,139
103,139
271,139
62,139
104,139
272,139
63,139
105,139
273,139
64,223
106,223
274,223
65,223
107,223
275,14
66,14
108,14
276,14
67,14
109,14
277,14
68,14
110,14
278,14
69,14
111,14
279,14
70,140
112,140
280,140
71,140
113,140
281,140
72,140
114,140
282,140
73,140
115,140
283,140
74,140
116,140
284,140
75,140
117,140
285,182
76,182
118,182
286,182
77,182
119,182
287,182
78,182
120,182
288,182
79,182
121,182
289,224
80,224
122,224
290,224
81,224
123,141
291,141
82,141
124,141
292,141
83,141
125,141
293,141
84,141
126,183
294,183
85,183
127,183
295,225
86,225
128,225
296,225
87,225
129,225
297,225
88,225
130,225
298,225
89,225
131,225
299,225
90,225
132,225
91,225
92,16
149,139
149,144
149,10
149,140
149,228
234,179
234,231
234,14
234,184
234,224
234,142
234,230
234,227
25,142
25,17
25,147
25,136
239,146
239,11
239,142
239,18
239,187
240,20
240,17
240,220
240,141
241,226
241,225
241,13
241,144
241,219
241,229
241,137
241,10
241,140
241,187
241,9
241,19
245,9
245,221
245,14
245,138
245,220
245,140
245,186
245,147
245,17
245,185
36,17
36,144
36,10
36,137
36,15
36,142
36,186
36,147
205,219
205,179
205,17
205,227
205,142
38,9
164,224
164,137
164,185
164,16
164,181
164,188
164,186
164,144
164,222
168,20
168,15
168,186
168,228
214,16
214,222
214,12
214,9
214,189
214,181
214,178
214,186
214,220
217,181
217,135
217,223
217,143
217,185
217,225
93,189
93,16
93,135
264,15
264,141
264,145
56,17
56,226
267,220
267,19
267,219
58,189
58,183
58,16
58,220
58,178
58,9
58,17
58,20
58,188
58,227
58,14
58,231
58,180
269,231
269,20
269,177
269,224
269,21
269,11
269,16
269,178
110,231
110,185
110,12
110,180
113,226
113,138
113,230
113,142
113,229
113,139
113,219
113,186
113,20
113,189
113,145
113,177
74,178
74,142
74,222
74,181
74,225
74,143
74,177
74,21
284,222
284,220
284,226
284,182
284,11
284,142
284,10
284,229
284,143
286,225
286,17
286,186
286,180
289,230
289,186
289,229
289,222
289,142
289,188
289,182
289,140
289,177
293,228
293,224
293,188
293,146
293,10
293,185
293,221
293,225
128,135
128,222
128,182
128,189
128,186
128,180
128,18
128,230
128,229
