# Number of vertices:
300
# Edge list:
140,0
168,0
252,0
36,0
108,0
139,0
169,0
253,0
37,0
106,0
137,0
170,0
251,0
38,0
110,0
254,0
136,0
171,0
255,0
39,0
109,0
135,0
172,0
256,0
40,0
107,0
141,0
173,0
257,0
41,0
115,140
174,140
258,140
42,140
1,168
175,168
259,168
43,168
113,168
176,168
260,168
2,252
44,252
112,252
177,252
261,252
3,252
45,252
178,252
262,36
4,36
46,36
132,36
123,36
179,36
263,108
5,108
47,108
143,108
180,108
264,108
6,108
48,108
131,108
181,108
265,108
7,139
49,139
149,139
182,139
266,139
8,139
50,139
148,139
183,139
267,139
9,253
51,37
133,37
184,37
268,37
10,37
52,37
105,37
122,37
185,37
11,37
53,37
147,37
186,37
269,37
270,37
12,106
54,106
187,106
271,106
55,106
13,106
130,106
119,106
188,106
272,106
56,106
14,106
104,106
124,106
189,106
273,106
15,106
57,137
126,137
190,137
274,137
16,137
58,170
125,170
191,170
275,170
17,170
59,251
114,251
192,251
276,251
18,251
60,251
151,251
193,38
277,38
19,38
61,38
134,38
194,38
278,38
20,110
62,110
116,254
195,254
279,254
21,254
63,254
146,254
196,254
280,254
22,254
64,254
118,254
197,254
281,254
23,254
65,254
129,136
198,136
282,136
24,136
66,136
142,136
199,136
283,136
25,136
67,171
128,171
200,171
284,171
26,171
68,171
121,171
201,171
285,171
27,171
69,255
111,255
202,255
286,255
28,255
70,255
144,255
203,255
287,255
29,255
71,255
145,109
204,109
288,109
30,109
72,109
205,109
289,109
31,109
73,109
127,109
206,109
290,109
32,109
74,135
138,135
207,135
291,135
33,135
75,135
120,135
208,135
292,135
76,135
34,135
150,135
209,135
293,135
77,135
35,135
117,135
210,172
294,172
78,172
211,172
295,172
79,256
212,256
296,256
80,256
213,256
297,256
81,256
214,256
298,256
82,256
215,40
299,40
83,40
216,40
84,40
217,40
85,40
218,40
86,40
219,40
87,40
220,40
88,40
221,40
89,107
222,107
90,107
223,107
91,107
224,107
92,107
225,107
93,107
226,107
94,141
227,141
95,141
228,141
96,141
229,141
97,141
230,141
98,141
231,141
99,141
232,141
100,141
233,141
101,141
234,141
102,173
235,173
103,173
236,173
152,173
153,173
237,173
154,173
238,173
155,173
239,173
156,173
240,173
157,173
241,257
158,257
242,257
159,41
243,41
160,41
244,115
161,115
245,115
162,115
246,115
163,115
247,115
164,115
248,115
165,115
249,115
166,115
250,115
167,115
42,255
42,40
42,252
42,107
42,106
42,172
42,110
1,171
1,108
1,110
1,256
1,135
1,107
1,169
1,252
1,106
1,139
1,37
1,255
1,137
175,253
43,173
178,256
178,110
178,136
178,106
178,137
47,106
47,36
47,257
47,171
47,141
47,254
47,39
50,253
51,137
51,136
51,253
51,140
51,106
51,139
51,108
11,106
130,107
130,169
16,257
16,172
16,255
16,251
16,139
16,169
16,256
16,38
16,171
16,37
16,253
134,256
116,255
116,253
116,37
116,252
116,168
116,38
116,137
116,41
116,172
116,257
22,37
22,171
22,251
22,255
22,135
197,251
281,139
281,37
281,136
281,171
281,172
281,107
281,140
71,136
205,37
127,257
127,136
127,169
127,251
127,139
127,106
127,37
127,41
127,168
127,141
127,36
74,106
74,253
74,110
74,109
74,136
74,37
74,108
207,37
207,40
207,251
207,170
207,107
207,140
207,256
207,41
207,169
207,137
207,141
207,252
207,36
75,168
208,38
82,140
82,110
82,253
82,251
82,41
82,171
82,169
82,139
82,170
82,36
82,40
82,39
82,255
215,255
215,109
215,136
215,252
215,254
215,107
299,173
299,135
299,140
299,110
299,171
299,36
299,109
299,169
299,139
299,37
299,38
100,137
100,41
152,168
152,171
152,172
152,252
152,106
152,253
152,107
152,109
152,257
152,110
152,256
152,255
152,169
248,90
248,86
248,46
248,73
