# Number of vertices:
300
# Edge list:
141,0
183,0
225,0
142,0
184,0
226,0
143,0
185,0
227,0
144,0
186,0
228,0
145,0
187,0
229,0
146,0
188,0
230,0
147,0
189,0
231,0
148,0
190,0
232,0
149,0
191,0
233,0
150,0
192,0
234,0
151,0
193,0
235,0
152,0
194,0
236,0
153,0
195,0
237,0
154,0
196,0
238,0
155,0
197,0
239,0
156,0
198,0
240,0
157,0
199,0
241,0
158,0
200,0
242,0
159,0
201,0
243,141
160,141
202,141
244,141
161,183
203,183
245,183
162,183
204,183
246,183
163,183
205,183
247,183
164,183
206,183
248,183
165,183
207,183
249,183
166,183
208,183
250,225
167,225
209,225
251,225
168,225
210,225
252,225
169,225
211,225
253,225
14,225
170,225
212,225
254,225
171,225
213,142
255,142
172,142
214,142
256,142
173,142
215,142
257,142
174,142
216,142
258,142
175,142
217,184
259,184
176,184
218,184
260,184
177,184
219,184
261,184
178,226
220,226
262,226
179,226
221,226
263,226
180,226
222,226
264,226
181,226
223,226
265,143
182,143
224,143
266,143
15,143
57,143
99,143
267,143
16,143
58,143
100,143
268,143
17,143
59,143
101,143
269,185
18,185
60,185
102,185
270,185
19,185
61,185
103,185
271,185
20,185
62,227
98,227
104,227
272,227
21,227
63,227
105,227
273,227
22,227
64,144
106,144
274,144
23,144
65,144
107,144
275,144
24,144
66,144
108,144
276,144
25,186
67,186
109,186
277,186
26,186
68,186
110,228
278,228
27,228
69,228
111,228
279,228
28,228
70,228
112,228
280,228
29,145
71,145
113,145
281,145
30,145
72,145
114,145
282,145
140,145
31,145
73,145
115,145
283,145
32,145
74,145
116,187
284,187
33,187
75,187
117,187
285,187
34,187
76,187
118,187
286,187
77,187
35,187
119,187
287,187
36,187
78,187
120,187
288,229
37,229
79,146
121,146
289,146
38,146
80,146
122,146
290,146
39,146
81,146
123,146
291,146
40,146
82,146
124,146
292,146
41,146
83,146
125,188
293,188
42,188
84,188
126,188
1,188
294,188
43,188
85,188
127,188
295,188
2,188
44,188
86,188
128,188
296,230
3,230
45,230
87,230
129,230
297,230
4,230
46,230
88,230
130,230
298,230
5,230
47,230
89,230
131,230
299,147
6,147
48,147
90,147
132,147
7,189
49,189
91,189
133,189
8,189
50,189
92,189
134,189
9,189
51,189
93,231
135,231
10,231
52,231
94,231
136,231
11,231
53,231
95,231
137,231
12,231
54,231
96,231
138,231
13,231
55,148
97,148
139,148
56,148
243,158
243,154
243,233
243,193
243,239
243,230
243,184
243,188
243,231
243,242
206,193
206,235
206,149
206,185
206,240
206,237
179,154
179,192
179,195
179,153
179,199
179,158
179,186
179,238
179,235
179,159
264,152
264,232
264,237
264,239
264,146
266,157
266,147
266,158
266,241
266,226
266,194
266,155
266,183
266,196
266,146
19,184
61,144
62,197
62,236
62,201
62,228
62,158
110,158
279,225
279,238
279,195
279,193
279,230
70,234
70,146
70,148
70,149
70,232
70,153
70,195
70,231
70,185
70,150
70,196
70,151
29,234
29,190
29,196
29,193
29,232
29,146
116,196
116,197
116,233
116,232
116,146
116,143
116,227
116,154
116,240
116,234
116,141
35,193
35,237
35,235
35,190
35,147
35,225
35,143
121,190
84,143
1,195
1,158
44,198
44,196
44,194
44,186
44,154
44,193
44,199
44,146
44,159
44,233
44,200
44,155
44,184
45,235
297,150
297,198
297,147
297,240
297,187
297,195
297,143
297,227
297,183
6,242
6,151
6,144
6,190
6,153
6,231
6,201
6,189
6,238
6,230
6,192
6,145
6,195
91,195
91,144
91,238
91,156
91,157
91,201
91,149
91,230
91,147
91,231
91,153
91,143
