# Number of vertices:
300
# Edge list:
36,0
78,0
246,0
288,0
37,0
79,0
247,0
289,0
38,0
80,0
248,0
290,0
39,0
81,0
249,0
291,0
40,0
82,0
250,0
292,0
41,0
83,0
251,0
293,0
42,0
84,0
252,0
1,0
294,0
43,36
85,36
253,36
295,36
2,36
44,78
86,78
254,78
296,78
3,78
45,78
87,78
255,78
297,78
4,78
46,78
88,78
256,78
298,246
5,246
47,246
89,246
257,246
299,246
6,246
48,246
90,246
258,246
7,246
49,246
91,246
259,246
8,288
50,288
92,288
260,288
9,288
51,288
93,288
261,288
10,288
52,288
94,288
262,288
11,288
53,288
95,37
263,37
12,37
54,37
96,37
264,37
13,79
55,79
97,79
265,79
56,79
14,79
98,79
266,79
15,79
57,79
99,247
267,247
16,247
58,247
100,247
268,247
17,247
59,247
101,247
269,247
18,247
60,247
102,247
270,247
19,289
61,289
103,289
271,289
20,289
62,289
104,289
272,289
21,289
63,289
105,289
273,289
22,289
64,289
106,38
274,38
23,38
65,38
107,38
275,38
24,38
66,80
108,80
276,80
25,80
67,80
109,80
277,80
26,80
68,80
110,80
278,80
27,248
69,248
111,248
279,290
28,290
70,290
112,39
280,39
29,39
71,39
113,39
281,39
30,81
72,81
114,81
282,81
31,81
73,81
115,81
283,81
32,81
74,81
116,249
284,249
33,249
75,249
117,249
285,249
34,249
76,249
118,249
286,249
77,249
35,249
119,249
287,249
120,249
162,291
204,291
121,40
163,40
205,40
122,40
164,40
206,40
123,40
165,82
207,292
124,292
166,292
208,292
125,292
167,292
209,41
126,41
168,41
210,41
127,41
169,41
211,41
128,41
170,41
212,41
129,41
171,41
213,41
130,83
172,83
214,83
131,83
173,83
215,251
132,251
174,251
216,251
133,251
175,251
217,251
134,251
176,251
218,251
135,251
177,251
219,293
136,293
178,293
220,293
137,42
179,42
221,42
138,84
180,84
222,84
139,84
181,84
223,84
140,84
182,84
224,84
141,84
183,84
203,84
225,252
142,252
184,252
226,252
143,252
185,252
227,252
144,252
186,252
228,252
145,252
187,1
229,1
146,1
188,1
230,1
147,1
189,1
231,1
148,1
190,1
232,1
149,1
191,1
233,43
245,43
150,43
192,43
234,43
151,43
193,43
235,43
152,43
194,43
236,43
153,85
195,85
237,85
154,253
196,295
238,295
155,295
197,2
239,2
156,2
198,2
240,2
157,2
199,2
241,2
158,2
200,2
242,2
159,2
201,2
243,44
160,44
202,44
244,44
161,44
3,294
3,293
3,37
3,247
3,83
3,84
7,288
7,289
7,84
7,78
7,38
7,247
7,292
7,80
49,293
49,1
49,36
49,290
49,252
49,294
49,78
49,83
49,251
49,291
8,290
8,294
8,251
8,80
8,81
8,292
8,247
260,81
260,1
99,292
99,83
99,291
99,40
99,84
269,252
269,288
269,42
269,40
269,78
60,42
60,291
60,246
60,251
60,294
60,84
72,39
72,1
72,83
72,41
72,288
72,251
72,292
72,40
72,250
72,84
72,248
75,251
75,289
75,42
75,293
75,82
75,36
286,289
286,80
286,78
286,247
286,291
286,39
286,81
286,40
286,83
286,292
286,79
286,251
286,294
168,36
168,82
168,79
168,250
168,247
169,40
169,288
169,78
169,38
169,294
169,37
169,36
169,247
169,83
169,80
211,82
211,290
211,251
211,81
211,80
211,288
177,1
177,36
177,39
177,79
177,249
177,82
177,292
136,291
136,82
136,39
136,252
142,39
142,249
142,246
227,248
227,83
227,290
227,249
227,81
227,250
227,288
227,78
227,36
228,38
228,78
228,294
228,81
228,289
228,292
157,224
157,276
157,273
157,265
157,268
157,144
157,188
157,277
157,130
157,187
157,76
157,266
157,205
159,94
159,145
159,58
159,286
159,179
159,89
159,183
159,106
