# Number of vertices:
300
# Edge list:
30,0
72,0
114,0
156,0
198,0
240,0
31,0
73,0
115,0
157,0
199,0
241,0
32,0
74,0
116,0
158,0
200,0
242,0
33,0
75,0
117,0
159,0
201,0
243,0
34,0
76,0
118,0
160,0
202,0
244,0
35,0
77,0
119,0
161,0
203,0
245,0
36,0
78,0
120,0
162,0
204,0
246,0
37,0
79,0
121,0
163,0
205,0
247,0
38,0
80,0
122,0
164,0
206,0
248,30
39,30
81,30
123,30
165,30
207,30
249,30
40,30
82,30
124,30
166,30
208,30
250,30
41,30
83,72
125,72
167,72
209,72
251,72
42,72
84,72
126,72
168,114
210,114
252,114
43,114
85,114
127,114
169,114
211,114
253,114
44,114
86,114
128,114
170,114
212,114
254,114
45,114
87,156
129,156
171,156
213,156
255,198
46,198
88,198
130,198
172,198
214,198
256,198
47,198
89,198
131,198
173,240
215,240
257,240
48,240
90,240
132,240
174,240
216,240
258,240
49,31
91,31
133,31
175,31
217,31
259,31
50,31
92,73
134,73
176,73
218,73
260,73
51,73
93,73
135,73
177,115
219,157
261,157
52,157
94,157
136,157
178,157
220,157
262,199
53,199
95,199
137,199
179,199
221,199
263,199
54,199
96,199
138,199
180,199
222,199
264,241
55,32
97,32
139,32
181,32
223,32
265,32
56,32
98,32
140,32
182,32
224,32
266,74
57,116
99,116
141,116
183,116
225,116
267,116
58,116
100,116
142,116
184,116
226,116
268,116
59,116
101,116
143,116
185,116
227,116
269,158
60,158
102,158
144,158
186,158
228,158
270,158
61,158
103,158
145,158
187,158
229,158
271,158
62,158
104,200
146,200
188,200
230,200
272,200
63,200
105,200
147,200
189,200
231,200
273,200
64,200
106,200
148,200
190,200
232,200
274,200
65,242
107,33
149,33
191,33
233,33
275,33
66,75
108,75
150,75
192,75
234,75
276,75
67,75
109,75
151,75
193,117
235,117
277,117
68,117
110,201
152,201
194,201
236,201
278,201
69,201
111,201
153,201
195,243
237,243
279,243
70,243
112,243
154,243
196,243
238,243
280,34
71,34
113,34
155,34
197,34
239,34
281,34
282,34
283,76
284,76
285,76
286,76
287,76
288,76
289,76
290,76
291,76
292,76
293,76
294,76
1,76
295,76
2,118
296,118
3,118
297,118
4,118
298,118
5,118
299,118
6,118
7,118
8,118
9,160
10,202
11,202
12,202
13,202
14,202
15,202
16,244
17,244
18,244
19,244
20,244
21,244
22,244
23,244
24,244
25,244
26,244
27,244
28,244
29,35
39,245
40,80
40,244
40,162
40,157
40,120
40,31
40,75
40,160
40,156
210,156
210,164
210,35
210,242
210,246
210,77
210,38
210,162
210,76
210,75
210,204
210,240
86,72
86,79
86,240
86,203
86,162
170,246
254,206
254,156
254,77
254,203
254,36
254,73
254,157
254,30
254,199
254,159
254,160
254,158
130,246
130,34
130,117
130,36
130,206
130,162
130,38
130,240
130,160
256,37
90,35
90,38
90,202
90,32
90,242
135,245
135,30
135,157
135,158
135,242
135,37
135,31
135,240
135,198
135,34
135,204
135,203
52,159
54,204
54,33
55,121
55,80
55,161
55,241
55,116
55,205
55,244
55,162
97,34
97,240
97,118
97,35
97,36
97,205
141,38
141,199
141,241
141,80
225,117
225,161
225,246
225,242
100,115
100,158
226,77
186,246
186,35
186,247
146,72
146,241
146,78
146,75
146,77
146,117
146,242
146,246
146,115
146,243
188,205
188,115
188,119
188,80
188,164
272,74
272,206
272,119
272,198
272,31
272,159
272,76
69,162
281,240
281,33
281,38
281,122
281,243
281,164
281,204
284,73
1,244
1,163
1,37
1,74
1,205
1,80
1,201
1,121
1,73
2,161
2,199
2,80
2,116
2,36
2,203
2,243
2,247
2,204
2,119
21,198
