# Number of vertices:
300
# Edge list:
158,0
159,0
201,0
160,0
202,0
161,0
203,0
162,0
204,0
163,0
205,0
164,0
206,0
165,0
207,0
166,0
208,0
167,0
209,0
168,0
210,0
169,0
211,0
170,0
212,0
171,0
213,0
172,0
214,0
173,0
215,0
174,0
216,0
175,0
217,0
286,0
176,0
218,0
177,158
219,158
178,159
220,159
179,159
221,159
180,159
222,159
181,160
223,160
182,160
224,160
183,160
225,160
184,160
226,160
185,160
227,160
186,160
228,160
187,160
229,160
188,160
230,160
189,160
231,202
190,202
232,202
191,161
233,161
192,161
234,161
193,161
235,161
194,161
236,161
195,161
237,161
196,203
238,203
197,203
239,203
198,203
240,203
115,203
199,203
241,203
200,203
242,203
32,203
33,203
75,203
117,203
243,203
285,204
2,205
34,205
76,205
31,205
116,205
118,205
35,205
77,205
119,205
244,205
245,205
287,205
36,205
78,205
120,206
30,206
246,206
288,206
37,206
79,206
121,206
247,206
289,165
292,165
38,165
80,165
122,165
29,165
248,165
290,165
28,165
39,165
81,165
123,165
249,165
291,207
27,207
40,166
82,166
124,166
250,166
283,166
26,166
41,166
83,166
125,166
251,208
293,208
42,208
84,167
126,167
252,167
294,167
43,167
85,167
127,209
25,209
253,209
295,209
44,209
86,209
128,209
254,209
296,209
45,209
87,209
129,209
24,209
255,209
284,209
46,209
88,209
130,168
256,168
298,168
1,210
47,210
89,210
23,210
131,210
257,210
48,210
90,210
132,169
258,169
6,169
49,169
91,169
22,169
133,169
259,169
50,169
92,169
134,169
260,169
51,169
93,169
135,169
21,169
261,169
52,211
94,211
136,211
20,211
262,211
53,211
95,211
137,211
19,170
263,170
54,170
96,170
138,170
264,170
55,170
97,170
139,170
18,170
265,170
56,170
98,170
140,170
17,170
266,212
5,212
57,171
99,171
16,171
141,171
267,172
4,172
58,172
100,172
142,172
268,172
59,172
101,172
143,172
15,172
269,172
60,214
102,214
144,214
270,173
61,215
103,215
145,215
14,215
271,215
62,215
104,215
146,215
272,215
297,215
63,215
105,215
147,215
13,215
273,215
64,215
106,215
148,174
12,174
274,174
3,174
65,174
107,174
11,174
149,174
275,174
66,174
108,174
150,216
276,216
67,216
109,216
151,216
10,216
277,216
68,216
110,216
152,216
278,216
69,216
111,175
153,175
9,175
157,175
279,175
70,175
112,175
154,175
280,286
71,286
113,286
155,286
8,286
281,286
72,286
114,286
156,286
282,286
299,176
73,176
7,176
74,176
187,209
187,208
189,215
189,162
189,204
189,206
189,211
189,161
189,172
189,203
231,210
231,168
231,169
231,171
231,161
231,173
231,211
231,217
231,158
231,206
193,164
193,212
193,211
193,170
193,202
193,206
193,205
193,208
193,162
193,159
196,165
196,168
196,215
242,176
242,171
242,170
242,160
242,217
32,175
32,218
285,213
285,218
285,212
285,286
285,202
285,203
285,201
285,166
285,170
285,159
285,209
31,212
288,160
288,176
288,216
288,171
28,162
28,211
28,201
28,203
28,286
28,202
81,176
81,216
81,166
81,215
81,167
124,174
124,216
124,169
126,165
126,170
126,208
126,214
126,164
126,204
126,217
126,158
130,215
130,161
130,216
130,172
130,166
130,206
130,211
130,218
54,159
54,176
54,163
54,214
98,160
98,214
98,206
98,167
98,168
98,203
98,165
98,205
98,208
98,171
98,218
140,161
140,167
140,176
140,163
16,172
16,218
16,206
16,208
16,165
267,205
267,211
267,166
267,214
267,159
267,174
267,209
267,201
267,207
267,212
267,163
267,171
268,217
268,212
268,206
268,209
268,218
268,170
268,213
268,159
268,174
268,214
268,204
15,215
15,170
15,203
15,162
15,218
273,205
273,171
273,286
273,210
273,169
273,162
273,165
148,160
148,163
148,216
148,212
148,204
148,206
148,168
148,159
148,201
148,167
67,175
67,163
67,207
67,172
67,167
67,173
67,208
67,210
67,217
67,165
67,203
67,209
67,161
10,212
10,160
10,173
10,286
10,210
10,206
10,205
10,162
10,159
10,161
10,201
10,167
70,215
70,216
70,168
70,204
70,166
70,165
70,203
70,210
70,218
155,164
155,204
155,166
155,217
155,213
