# Number of vertices:
300
# Edge list:
150,0
192,0
234,0
151,0
193,0
235,0
152,0
194,0
236,0
153,0
195,0
237,0
154,0
196,0
238,0
155,0
197,0
239,0
156,0
198,0
240,0
157,0
199,0
241,0
158,0
200,0
242,150
159,150
201,150
243,150
160,150
202,150
244,150
161,150
203,150
245,150
162,150
204,150
246,192
163,192
205,192
247,192
164,192
206,192
248,192
165,192
207,192
249,192
166,192
208,192
250,192
167,234
209,234
251,151
168,151
210,151
252,151
169,151
211,151
253,151
170,193
212,193
254,235
171,235
213,235
255,235
172,152
214,152
256,152
173,152
215,152
257,152
174,152
216,152
258,152
175,152
217,152
259,152
22,152
176,152
218,152
260,152
177,194
219,194
261,236
178,236
220,153
262,153
179,153
221,153
263,153
180,153
222,153
264,153
23,153
181,153
223,153
265,153
182,195
224,195
266,195
183,195
225,195
267,195
184,237
226,237
268,237
185,237
227,237
269,154
186,154
228,154
270,154
187,154
229,154
271,154
188,154
230,154
272,154
189,154
231,154
273,154
190,154
232,154
274,196
191,196
233,238
275,238
24,238
66,238
108,238
276,238
25,238
67,238
109,238
277,238
26,238
68,155
110,155
278,155
27,155
69,155
111,155
279,155
28,155
70,155
112,155
280,197
106,197
29,197
71,197
113,197
281,197
30,156
72,156
114,156
282,156
31,156
73,156
115,156
283,156
32,156
74,156
116,198
284,198
33,198
75,198
117,240
285,240
107,240
34,240
76,240
118,240
286,240
35,240
77,157
119,157
287,157
36,157
78,157
120,157
288,157
148,157
37,157
79,157
121,157
289,157
38,157
80,157
122,157
290,157
39,157
81,199
123,199
291,199
40,199
82,199
124,199
292,199
41,199
83,199
125,199
293,199
149,199
42,199
84,199
126,199
1,199
294,199
43,241
85,241
127,241
295,241
44,241
2,241
86,241
128,158
296,200
3,200
45,200
87,200
129,200
297,200
4,200
46,200
88,200
130,200
298,200
5,242
47,242
89,242
131,242
299,242
6,242
48,242
90,201
132,201
7,201
49,201
91,201
133,201
8,201
50,201
92,243
134,243
9,243
51,243
93,243
135,243
10,243
52,243
94,243
136,243
11,160
53,160
95,160
137,160
12,160
54,160
96,160
138,160
13,160
55,160
97,160
139,160
14,202
56,202
98,244
140,244
15,244
57,161
99,161
141,161
16,161
58,161
100,161
142,161
17,203
59,203
101,203
143,203
18,203
60,203
102,203
144,203
19,203
61,203
103,245
145,245
20,245
62,245
104,162
146,162
21,162
63,162
105,162
147,204
64,204
65,246
242,239
242,194
242,193
242,238
161,192
161,153
161,238
161,197
161,152
161,157
161,151
161,240
161,156
161,241
161,154
161,195
257,234
257,150
257,156
257,197
180,239
180,198
180,196
180,241
180,195
180,150
180,156
180,152
180,158
180,194
180,155
180,237
180,200
182,196
182,235
182,194
182,192
182,157
182,240
182,158
182,199
182,150
182,197
182,155
182,152
225,234
225,199
225,154
225,150
225,237
225,236
267,194
190,150
232,200
232,199
232,240
232,152
232,241
232,196
232,198
232,239
232,235
232,151
232,194
232,238
108,192
108,235
108,151
108,234
108,198
277,193
277,240
277,156
277,199
277,236
277,239
277,155
277,195
277,152
277,196
277,237
277,241
277,200
110,238
110,195
69,197
69,195
69,154
69,157
69,239
69,194
69,158
69,156
69,199
112,157
284,196
79,193
44,236
49,296
49,180
49,190
49,291
49,283
49,261
49,126
49,121
49,39
49,171
49,106
49,271
49,168
93,188
93,29
52,206
52,245
52,22
52,280
52,77
52,278
52,67
53,117
53,285
139,249
139,169
15,84
15,129
15,126
15,76
15,125
15,204
100,242
62,26
62,71
62,162
62,298
62,225
62,123
62,191
62,226
62,35
146,281
105,117
105,130
105,127
