# Number of vertices:
300
# Edge list:
168,0
261,0
128,0
178,0
267,0
129,0
177,0
229,0
265,0
130,0
194,0
263,0
131,0
192,0
262,0
132,0
260,0
191,0
133,0
198,0
268,0
134,0
196,0
266,0
135,0
195,0
264,0
136,0
193,0
271,0
137,0
167,0
255,0
84,0
138,0
259,0
199,0
139,0
258,0
197,0
140,0
257,0
170,0
141,0
256,0
190,0
142,0
173,0
278,0
85,0
143,0
164,0
273,0
144,0
253,168
171,168
145,261
251,261
169,261
146,261
249,261
175,261
147,261
247,261
176,178
148,178
246,178
183,178
126,178
149,178
254,178
174,178
150,178
252,178
184,178
151,178
166,178
250,178
152,178
248,178
180,178
153,267
241,267
179,267
127,267
154,267
163,267
165,129
245,129
155,129
244,129
182,129
156,129
243,129
181,129
157,129
242,129
172,129
158,129
185,129
272,129
287,129
159,129
189,177
277,177
160,177
188,177
275,177
292,177
161,177
187,177
269,177
162,177
286,177
186,177
276,177
291,177
270,177
294,229
281,229
290,229
295,229
282,229
296,229
285,265
279,265
289,265
297,265
284,265
274,265
298,265
280,130
288,130
299,130
283,130
2,130
44,194
86,194
216,194
3,194
45,194
87,194
4,194
46,194
88,194
228,194
5,263
47,263
89,263
215,263
6,263
48,263
90,263
218,263
7,263
49,263
91,263
240,131
8,131
50,131
92,131
227,131
9,192
51,192
93,192
214,192
10,192
52,192
94,192
239,192
11,262
53,262
95,262
226,262
12,262
54,262
96,262
213,262
13,262
55,262
97,262
238,262
14,262
56,132
98,132
225,132
15,132
57,132
99,132
212,260
16,260
58,260
100,260
237,260
17,260
59,260
101,260
224,260
18,260
60,260
102,260
211,260
19,260
61,260
103,191
236,191
20,191
62,191
104,191
223,191
63,191
21,191
105,191
210,133
64,133
22,133
106,133
217,133
23,133
65,133
107,133
235,133
24,133
66,198
108,198
200,198
25,198
67,198
109,198
204,198
26,198
68,198
110,198
203,268
27,268
69,268
111,268
202,268
28,268
70,268
112,134
201,134
29,134
71,134
113,134
234,134
30,134
72,134
114,196
222,196
31,196
73,196
115,196
209,196
32,196
74,196
116,196
205,196
33,196
75,196
117,196
233,196
34,266
76,266
118,266
221,266
35,266
77,266
119,266
208,266
36,266
78,266
120,266
232,266
37,266
79,266
121,266
220,266
38,135
80,135
122,135
207,135
293,135
39,135
81,135
123,135
231,135
40,135
82,135
124,135
219,135
41,135
83,135
125,135
206,135
230,195
42,195
1,195
43,195
126,140
126,195
126,135
126,142
126,132
126,134
126,192
126,84
179,85
179,134
179,178
179,138
179,195
179,262
179,131
179,194
179,199
179,142
179,268
179,140
179,264
188,164
188,130
188,261
188,199
188,173
188,264
188,196
188,257
162,258
162,197
162,134
162,196
162,141
290,196
290,259
290,143
290,255
283,195
283,132
283,164
3,267
3,133
45,168
45,164
45,143
45,178
45,257
45,263
45,255
45,144
45,262
45,140
45,141
45,129
46,142
46,85
93,262
93,131
93,193
93,194
93,198
93,143
93,191
93,130
93,142
93,129
93,268
16,197
16,178
16,194
16,135
16,265
16,262
16,263
16,139
16,142
16,193
59,262
59,278
59,136
59,167
59,137
59,142
59,259
224,267
224,257
224,138
224,130
224,135
224,271
61,178
61,262
61,266
61,197
61,267
103,259
103,138
103,128
103,144
103,132
103,195
103,198
20,266
20,139
20,164
20,137
20,132
20,229
20,131
20,195
20,177
20,194
20,257
20,193
62,143
21,177
21,131
21,265
21,261
21,195
107,273
107,194
107,197
67,131
27,168
27,260
27,266
27,84
27,261
27,196
27,140
27,258
27,142
27,138
27,141
28,194
28,256
28,173
28,258
28,84
70,194
70,229
70,257
70,190
70,130
70,260
70,141
201,257
201,196
201,255
71,266
71,140
71,137
71,141
71,136
71,190
71,191
71,139
209,135
209,131
209,144
209,128
209,191
74,263
74,177
74,137
74,142
74,195
74,167
74,129
74,260
74,135
74,139
117,262
117,138
117,263
117,191
117,261
117,255
117,266
117,197
117,141
117,229
117,130
117,173
120,265
120,133
120,258
120,144
120,260
120,131
120,136
120,129
120,257
120,170
120,261
120,84
80,273
80,132
80,168
80,264
80,178
80,131
80,136
40,264
40,144
40,192
40,168
40,266
40,199
206,167
206,229
206,128
206,262
206,267
206,136
206,134
206,196
206,194
206,85
206,192
206,278
42,267
42,84
42,168
42,255
42,194
42,132
42,197
