# Number of vertices:
300
# Edge list:
48,0
132,0
216,0
258,0
49,0
133,0
217,0
259,0
50,0
134,0
218,0
260,0
51,0
135,0
219,0
261,0
52,0
136,0
220,0
262,0
53,0
137,0
221,0
263,0
54,0
138,0
222,0
264,0
55,0
139,0
223,0
265,0
56,0
140,0
224,0
266,0
57,0
141,0
225,0
267,0
58,0
142,0
226,0
268,0
59,0
143,0
227,0
269,132
60,132
144,132
228,132
270,132
61,132
145,132
229,132
271,132
62,216
146,216
230,216
272,216
63,216
147,216
231,216
273,216
64,216
148,216
232,216
274,216
65,216
149,216
233,216
275,258
66,258
150,258
234,258
276,258
67,49
151,49
235,49
277,49
68,49
152,133
236,133
278,133
69,133
153,217
237,259
279,134
70,134
154,134
238,134
280,134
71,134
155,134
239,134
281,134
72,134
156,134
240,134
282,134
73,218
157,218
241,218
283,218
74,260
158,260
242,260
284,260
75,260
159,260
243,260
285,260
76,260
160,260
244,260
286,260
77,260
161,260
245,51
287,51
78,51
162,51
246,51
288,51
79,51
163,51
130,51
247,51
289,135
80,135
164,135
248,135
290,135
81,135
165,219
249,219
291,219
82,219
166,219
250,219
292,219
83,219
167,219
251,219
293,219
84,219
168,219
131,219
1,219
252,219
294,219
85,261
169,261
253,261
295,261
2,261
86,261
170,261
254,261
296,52
3,52
87,52
171,52
255,52
297,52
4,52
88,52
172,52
256,52
298,52
5,52
89,136
173,136
257,136
299,136
6,136
90,136
174,136
7,136
91,136
175,136
8,136
92,136
176,136
9,136
93,136
177,136
10,136
94,220
178,220
11,220
95,220
179,220
12,220
96,220
180,220
13,220
97,220
181,220
214,220
14,220
98,220
182,220
15,220
99,262
183,262
16,262
100,262
184,262
17,53
101,53
185,53
18,53
102,53
186,53
215,53
19,53
103,53
187,53
20,53
104,53
188,53
21,53
105,53
189,53
22,137
106,137
190,137
23,137
107,137
191,221
24,221
108,221
192,221
25,221
109,221
193,221
26,221
110,221
194,221
27,221
111,221
195,221
28,221
112,263
196,263
29,263
113,263
197,263
30,263
114,263
198,263
31,263
115,263
199,263
32,263
116,263
200,263
33,263
117,54
201,54
34,54
118,54
202,54
35,54
119,54
203,54
36,138
120,222
204,222
37,222
121,222
205,222
38,222
122,222
206,222
39,222
123,222
207,222
40,222
124,264
208,264
41,264
125,139
209,139
42,139
126,139
210,139
43,139
127,139
211,139
44,139
128,139
212,223
45,223
129,265
213,265
46,265
47,265
269,268
269,217
269,261
269,267
269,218
269,59
269,48
269,264
269,260
269,262
269,140
269,224
269,141
229,138
229,267
229,262
229,264
229,140
229,56
229,258
229,136
229,135
229,222
229,224
229,51
62,268
62,138
62,217
62,142
62,55
62,57
62,48
62,267
62,140
62,218
230,55
230,138
230,143
230,57
230,268
231,140
231,222
231,265
231,223
231,59
231,225
231,261
69,49
69,265
69,132
69,220
69,225
69,53
69,259
153,224
153,133
153,220
153,141
153,263
153,53
153,266
153,134
153,227
153,48
153,268
157,138
157,53
157,54
157,135
157,52
157,227
157,48
74,261
74,49
74,258
74,53
74,136
162,267
162,58
288,143
288,58
288,224
288,259
288,225
288,55
288,134
288,265
288,226
250,136
250,217
250,220
250,224
292,141
292,54
292,48
292,142
292,221
292,265
292,58
292,53
292,260
292,227
292,137
251,54
251,58
251,143
251,223
251,220
251,52
251,141
251,138
251,139
251,56
251,258
251,260
251,135
293,227
293,225
293,266
293,224
293,258
293,268
293,264
85,134
85,260
85,262
85,132
85,218
85,139
85,58
85,133
85,49
85,221
85,52
85,227
85,141
172,57
172,220
172,59
172,142
172,227
172,218
172,260
172,58
172,267
172,261
172,56
298,226
298,137
298,58
298,50
298,219
298,48
298,264
298,54
298,216
298,134
298,222
299,224
299,141
299,261
299,48
299,138
299,54
299,56
299,143
176,142
176,263
176,58
176,48
176,226
176,223
176,268
176,227
104,143
104,267
104,137
104,51
104,226
104,54
104,217
104,268
104,57
104,260
104,48
104,258
189,221
189,52
189,217
189,135
189,223
189,268
25,139
25,259
25,265
25,56
25,59
25,140
27,49
27,53
27,141
27,139
27,260
27,264
27,259
111,50
28,264
28,136
28,222
28,50
28,134
28,139
29,224
29,140
29,264
29,136
29,54
29,227
29,56
29,135
29,57
29,58
29,265
115,53
115,226
115,225
115,221
115,258
115,137
33,262
33,226
33,50
33,136
33,217
33,221
33,137
33,133
33,224
33,225
33,264
33,266
33,227
35,265
204,226
204,221
204,52
206,217
206,48
206,134
124,132
212,136
