# Number of vertices:
300
# Edge list:
7,0
49,0
217,0
259,0
8,7
50,7
218,7
260,7
9,7
51,7
219,7
261,7
10,7
52,7
220,7
262,7
11,7
53,7
221,7
263,49
12,49
54,217
222,217
264,217
13,217
55,217
223,217
265,217
14,217
56,217
224,259
266,259
15,259
57,259
225,259
267,259
16,259
58,259
226,8
268,8
17,8
59,8
227,8
269,8
18,8
60,8
228,8
270,8
19,8
61,8
229,8
271,8
20,8
62,8
230,8
272,50
21,218
63,218
231,218
273,218
22,218
64,218
232,218
274,218
23,218
65,218
233,218
275,218
24,218
66,260
234,260
276,260
25,260
67,260
235,260
277,260
26,260
68,260
236,260
278,260
69,260
27,260
237,260
279,260
28,260
70,9
238,9
280,9
29,9
71,9
239,9
281,51
30,51
72,51
240,51
282,51
31,51
73,51
241,51
283,51
32,51
74,219
242,261
284,261
33,261
75,261
243,261
285,261
34,261
76,261
244,261
286,261
35,261
77,261
245,261
287,261
36,261
78,261
246,261
288,10
37,10
79,10
247,10
289,10
38,10
80,10
248,10
290,10
39,10
81,10
249,10
291,10
40,10
82,10
250,10
292,52
41,220
83,262
251,262
293,262
42,262
84,262
252,262
294,262
43,262
85,262
253,11
295,11
44,11
86,11
254,11
296,11
45,11
87,11
255,11
297,11
46,11
88,11
256,11
298,53
47,53
89,53
257,53
299,53
48,53
90,53
258,53
91,53
133,53
175,53
92,53
134,53
176,221
93,221
135,221
177,12
94,12
136,12
178,12
95,12
137,12
179,12
96,12
132,12
138,12
180,12
97,12
139,12
181,12
98,12
140,12
182,54
99,54
141,54
183,54
100,54
142,54
184,54
101,54
143,54
185,222
102,222
144,222
186,222
103,222
145,222
187,264
104,264
146,264
174,264
188,264
105,264
147,264
189,264
106,264
148,264
190,264
107,264
149,13
191,13
108,13
150,13
192,13
109,13
151,13
193,55
110,55
152,55
194,55
111,55
153,55
195,55
112,55
154,55
196,55
113,223
155,223
197,223
114,223
156,223
198,223
216,223
115,223
157,223
199,223
116,223
158,223
200,223
117,223
159,223
201,223
118,223
160,265
202,265
119,56
161,56
203,56
120,224
162,224
204,224
121,224
163,224
205,224
122,224
164,266
206,266
123,266
165,266
207,266
124,266
166,266
208,266
125,15
167,15
209,15
126,15
168,15
210,15
1,15
127,15
169,15
211,15
2,15
128,15
170,57
212,57
3,57
129,57
171,57
213,57
4,57
130,57
172,57
214,57
5,57
131,57
173,57
215,57
6,225
11,259
11,217
11,49
263,259
263,7
263,217
269,10
269,267
269,15
228,9
19,224
19,264
19,10
19,220
19,12
19,54
20,223
20,16
20,53
20,15
20,50
20,10
20,55
20,58
20,221
20,12
20,262
20,56
22,51
22,219
22,224
22,221
22,50
22,13
22,220
22,9
22,264
22,58
22,15
22,56
233,222
233,55
233,11
233,265
233,52
233,14
233,9
233,225
25,261
25,264
25,51
25,9
25,55
25,221
25,10
67,11
67,219
67,218
243,267
243,221
243,14
243,56
243,9
243,218
243,265
243,266
243,57
78,218
78,262
78,57
78,50
78,221
78,51
78,52
78,219
78,9
78,264
78,58
78,222
291,16
291,14
291,224
291,12
291,260
291,220
291,8
291,55
291,9
291,50
46,218
46,260
88,51
88,10
88,14
88,58
257,16
257,8
257,15
257,56
257,12
257,13
257,11
257,224
257,263
93,222
93,220
179,16
179,225
179,58
96,261
96,54
99,218
99,10
99,56
99,265
99,13
99,264
186,225
150,266
150,14
150,265
150,12
150,263
150,11
150,56
150,220
150,16
150,225
150,264
193,16
193,218
154,51
154,222
154,11
154,52
154,12
114,15
158,219
1,56
1,55
1,58
1,223
1,9
1,8
1,54
1,53
1,222
1,267
1,52
1,12
1,221
2,220
2,14
2,264
2,57
2,224
2,266
2,13
2,218
2,55
2,50
2,222
2,58
3,14
3,50
3,261
3,260
3,265
3,12
3,262
3,221
3,16
3,13
3,218
3,54
3,10
