# Number of vertices:
300
# Edge list:
130,0
172,0
214,0
131,0
173,0
215,0
132,0
174,0
3,0
216,0
133,0
175,0
217,0
134,0
176,0
218,0
135,0
177,0
219,0
136,0
178,0
220,0
137,0
179,0
221,0
138,0
180,0
222,0
139,0
181,0
223,0
140,0
182,0
224,0
141,0
183,0
225,0
142,0
184,0
226,0
143,0
185,0
227,0
144,0
186,0
228,0
145,0
187,0
229,130
146,130
188,130
230,130
147,172
189,172
231,214
148,214
190,214
232,214
149,214
191,214
233,214
150,214
192,214
234,214
151,214
193,214
235,214
152,214
194,214
236,214
153,214
195,131
237,131
87,131
154,131
196,131
238,131
155,131
197,131
239,131
156,131
198,131
240,131
157,131
199,131
241,215
158,215
200,215
242,215
159,215
201,215
243,215
160,215
202,215
244,215
161,215
203,215
245,132
162,132
204,132
246,132
163,132
205,132
247,132
164,132
206,132
129,132
248,132
165,132
207,132
249,132
166,132
208,132
250,174
167,174
209,174
251,174
168,174
210,3
252,3
169,3
211,3
253,3
170,3
212,3
254,216
171,216
213,216
255,216
4,216
46,216
88,216
256,216
298,133
5,133
47,133
89,133
257,133
299,175
6,175
48,175
90,175
258,175
7,175
49,175
91,175
259,175
8,175
50,217
92,217
260,217
9,217
51,217
93,217
261,217
10,217
52,176
94,176
262,176
11,176
53,176
95,176
263,176
12,176
54,176
96,176
264,176
13,176
55,176
97,218
265,218
14,218
56,135
98,135
266,135
15,135
57,135
99,135
267,135
16,135
58,135
100,135
268,135
17,135
59,135
101,135
269,135
18,219
60,219
102,219
270,219
19,219
61,219
103,219
271,136
20,136
62,136
104,178
272,178
21,178
63,178
105,178
273,178
22,178
64,178
106,178
274,178
23,178
65,178
107,178
275,178
66,178
24,178
108,220
276,220
25,220
67,220
109,220
277,220
26,220
68,220
110,220
278,220
27,220
69,137
111,137
279,137
28,137
70,137
112,137
280,137
29,137
71,137
113,179
281,179
30,179
72,179
114,179
282,179
31,179
73,221
115,138
283,138
32,138
74,138
116,138
284,138
33,138
75,138
117,138
285,138
297,138
34,138
76,138
118,138
286,138
35,180
77,180
119,180
287,180
36,222
78,222
120,222
288,222
37,222
79,139
121,139
289,139
38,139
80,139
122,139
290,181
39,181
81,181
123,181
291,181
40,181
82,223
124,140
292,140
41,140
83,182
125,182
293,182
42,182
84,182
126,182
1,182
294,182
43,182
85,182
127,182
295,182
2,224
44,224
86,224
128,224
296,224
45,224
241,182
241,220
241,138
241,178
241,140
241,224
241,131
241,180
241,134
200,224
200,173
200,220
200,218
200,226
200,225
200,135
200,216
203,186
203,216
204,185
6,220
6,133
6,216
9,139
9,222
9,173
9,132
9,130
9,228
9,224
9,181
9,184
9,137
9,140
9,134
9,214
13,137
13,145
13,144
13,217
13,218
13,178
13,225
13,228
13,181
13,133
13,174
13,139
13,223
16,220
16,225
16,174
16,219
16,172
16,132
100,144
100,226
100,139
100,224
100,179
100,181
100,133
100,227
100,222
59,141
59,219
59,175
59,176
101,141
101,224
271,183
271,179
271,133
271,144
22,220
22,130
22,144
22,221
22,223
22,181
22,131
22,216
22,134
22,218
22,172
22,227
69,181
297,177
297,143
297,145
297,221
297,136
297,180
297,227
297,224
297,178
297,185
297,225
297,181
297,141
289,141
289,219
289,186
289,172
289,185
289,145
289,143
289,175
289,132
289,228
1,225
1,137
1,222
1,223
1,3
1,185
1,228
1,140
1,220
1,141
295,178
295,176
295,142
295,180
295,214
295,179
295,139
