# Number of vertices:
300
# Edge list:
79,0
121,0
163,0
80,0
122,79
164,79
81,79
123,79
165,79
82,79
124,79
166,121
83,121
125,121
167,121
84,121
126,121
168,163
1,163
85,80
127,80
169,80
2,80
86,80
128,122
170,122
3,122
87,122
129,122
171,122
4,122
88,122
130,122
172,122
5,122
89,122
131,122
173,122
6,122
90,164
132,164
174,164
7,164
91,164
133,164
175,164
8,164
92,164
134,164
176,164
9,164
93,164
135,164
177,164
10,164
94,81
136,81
178,81
11,81
95,81
137,81
179,123
12,123
96,123
138,123
180,165
13,165
97,165
139,165
181,165
245,165
14,165
98,82
140,82
182,82
15,82
99,82
141,82
183,82
16,82
100,82
142,82
184,82
17,82
101,82
143,82
185,82
18,124
102,124
144,124
186,124
246,124
19,124
103,124
145,124
187,124
20,124
104,124
146,166
188,166
21,166
105,166
147,166
189,166
287,166
22,166
106,166
148,166
190,166
23,166
107,166
149,166
191,166
24,166
108,83
150,83
192,83
25,83
109,83
151,83
193,83
26,83
110,83
152,83
194,83
288,83
27,83
111,83
153,83
195,83
28,125
112,125
154,125
196,125
29,125
113,125
155,125
197,125
30,167
114,167
156,167
198,167
31,167
115,167
157,167
199,167
32,167
116,84
158,84
200,84
33,84
117,84
159,84
201,84
34,84
118,84
160,84
202,84
35,84
119,84
161,126
203,126
36,126
120,126
162,126
204,126
37,126
205,126
247,126
289,126
38,126
206,126
248,126
290,126
39,126
207,168
249,168
291,168
40,168
208,168
250,168
292,168
41,168
209,168
251,1
293,1
42,1
210,85
252,85
294,85
43,85
211,85
253,85
295,85
44,85
212,85
254,127
296,127
45,127
213,127
255,127
297,127
46,127
214,127
256,127
298,127
47,127
215,127
257,169
299,169
48,169
216,169
258,169
49,169
217,2
259,2
50,2
218,2
260,2
51,2
219,2
261,2
52,2
220,2
262,2
53,86
221,86
263,128
54,128
222,170
264,170
55,170
223,170
265,170
56,170
224,3
266,3
57,3
225,87
267,87
58,87
226,87
268,87
59,87
227,87
269,87
60,87
228,129
270,129
61,129
229,129
271,129
62,129
230,129
272,129
63,129
231,129
273,171
64,171
232,4
274,88
65,88
233,88
275,88
66,88
234,88
276,88
67,88
235,88
277,130
68,130
236,130
278,130
69,130
237,130
279,172
70,172
238,172
280,172
71,172
239,172
281,172
72,172
240,172
282,172
73,172
241,172
283,5
74,5
242,5
284,5
75,5
243,5
285,5
76,5
244,5
286,89
77,89
78,89
164,80
167,80
167,79
167,163
1,121
1,80
1,79
85,121
85,163
129,123
129,81
129,165
129,166
129,126
129,127
129,164
129,124
133,165
175,126
175,168
175,169
175,167
12,168
12,2
12,166
12,122
12,164
12,127
12,165
12,83
12,81
12,84
12,169
180,83
180,164
180,82
180,169
14,84
14,169
14,122
14,125
14,123
14,127
14,82
14,168
14,81
14,124
14,167
14,83
15,1
187,82
187,169
187,86
23,169
23,84
23,123
23,82
23,164
23,81
23,125
23,83
23,1
23,165
23,127
23,126
108,168
108,1
108,125
108,165
108,167
108,124
108,81
108,84
108,85
26,81
26,124
26,127
26,123
26,168
26,85
26,2
26,165
26,169
26,122
26,82
26,1
112,84
112,122
112,124
112,81
112,166
112,2
112,83
112,168
112,126
115,124
115,86
115,164
115,126
115,169
115,84
115,81
115,82
115,125
115,168
115,83
115,127
117,123
117,125
117,165
117,168
117,83
117,126
117,82
117,1
117,2
117,167
117,127
117,85
39,169
39,85
39,125
39,86
39,123
253,82
253,165
253,2
253,86
253,169
253,168
253,166
253,83
297,166
259,164
259,123
259,166
259,165
259,85
259,122
259,86
259,81
259,167
259,1
259,125
259,169
259,126
221,81
56,258
56,175
56,197
56,219
56,293
56,199
56,14
56,45
56,156
56,246
56,102
228,288
228,150
228,291
228,24
228,137
228,245
228,153
228,178
228,18
228,98
228,33
279,139
281,100
242,289
242,119
242,200
242,144
242,297
242,262
242,141
242,151
