# Number of vertices:
250
# Edge list:
120,0
162,0
204,0
121,0
163,0
205,0
122,0
164,0
206,0
123,0
165,0
207,120
124,120
166,162
208,162
125,162
167,162
209,162
126,162
168,162
210,162
127,162
169,162
211,162
128,162
170,162
212,204
129,204
171,121
213,121
130,121
172,121
214,121
131,121
173,121
215,121
132,121
174,121
216,121
133,163
175,163
217,163
134,163
176,163
218,163
135,163
177,163
219,163
136,163
178,163
220,163
137,163
179,163
221,205
138,205
180,205
222,164
139,164
181,164
223,164
140,164
182,206
224,206
141,206
183,206
225,206
142,206
184,206
226,206
143,206
185,123
227,123
144,123
186,123
228,123
145,123
187,123
229,123
146,165
188,165
230,165
147,165
189,165
231,165
148,165
190,165
232,207
34,207
149,207
191,207
233,207
150,207
192,207
234,124
151,166
193,166
235,166
152,166
194,208
236,208
153,208
195,208
237,208
35,208
154,208
196,208
238,208
155,208
197,208
239,208
156,208
198,167
240,167
157,167
199,167
241,209
158,209
200,209
242,209
159,209
201,209
243,209
160,209
202,209
244,209
161,126
203,126
245,126
36,126
78,126
246,126
37,126
79,126
247,168
38,168
80,168
248,168
39,168
81,168
249,168
40,168
82,168
118,168
41,210
83,210
42,210
84,210
1,210
43,127
85,127
2,127
44,127
86,127
3,127
45,169
87,169
119,169
4,169
46,169
88,169
5,169
47,169
89,169
6,211
48,211
90,211
7,211
49,211
91,128
8,128
50,128
92,170
9,170
51,170
93,170
10,170
52,170
94,170
11,170
53,170
95,170
12,170
54,170
96,212
55,212
13,212
97,212
56,129
14,129
98,129
15,171
57,171
99,171
16,171
58,213
100,213
17,213
59,213
101,213
18,172
60,172
102,172
19,172
61,172
103,172
20,172
62,172
104,172
21,172
63,172
105,172
22,214
64,214
106,214
23,214
65,214
107,131
24,131
66,131
108,131
25,131
67,131
109,173
26,173
68,173
110,215
27,215
69,132
111,132
28,132
70,132
112,132
29,132
71,132
113,174
30,174
72,174
114,174
31,174
73,216
115,216
32,216
74,175
116,175
33,175
75,175
117,175
76,175
77,175
207,165
212,164
212,122
212,165
212,206
212,121
212,162
171,165
171,164
171,162
171,122
171,205
215,164
215,122
215,206
217,120
217,165
217,121
217,164
217,162
217,204
135,206
135,165
135,205
135,120
139,165
139,162
223,205
223,165
223,206
223,123
140,120
140,123
140,206
140,204
140,205
140,122
140,163
140,121
140,165
141,123
147,123
231,164
231,163
190,162
190,122
190,120
190,206
190,205
190,164
190,123
190,121
190,204
156,185
156,138
156,127
156,128
156,182
82,137
82,143
82,138
82,140
82,207
82,128
46,177
46,130
46,144
46,186
46,184
46,225
46,180
46,230
46,222
46,146
88,144
5,147
5,166
47,134
47,179
47,135
47,185
47,225
47,181
7,218
7,213
7,129
7,209
7,127
7,185
7,228
7,175
7,223
92,175
92,130
92,143
92,211
92,213
66,134
71,178
71,229
71,171
71,220
