# Number of vertices:
250
# Edge list:
146,0
63,0
231,0
64,0
232,0
65,0
187,0
233,0
66,0
234,0
67,0
235,0
68,0
236,0
69,0
237,0
70,146
188,146
238,146
71,146
239,146
72,146
240,146
73,146
241,63
74,63
242,63
75,231
243,231
229,231
76,64
244,64
77,64
245,64
78,64
246,64
79,64
247,232
80,65
248,187
230,187
81,233
249,233
82,233
83,66
84,66
85,66
86,66
87,66
88,66
89,66
90,66
91,66
92,234
93,234
94,234
95,234
96,234
97,234
98,234
99,234
100,234
101,67
102,67
103,67
104,67
21,235
105,235
147,235
189,235
22,235
106,235
148,235
190,235
23,68
107,68
149,68
191,236
24,236
108,236
150,236
192,236
25,236
109,236
151,236
193,236
26,236
110,236
152,236
194,236
27,69
111,69
153,69
195,69
28,69
112,70
19,70
154,70
196,70
29,70
113,70
155,70
197,70
30,70
114,188
156,188
198,188
31,188
115,188
157,188
199,71
32,71
116,71
158,239
200,239
33,239
117,239
20,239
159,239
201,72
34,240
118,240
160,240
202,240
35,240
119,240
161,240
203,240
36,73
120,241
162,241
204,241
37,241
121,241
163,241
205,241
38,241
122,74
164,74
206,74
39,74
123,74
165,74
207,242
40,242
124,242
166,242
208,242
41,242
125,242
167,242
209,75
42,75
126,75
168,75
1,243
210,243
43,243
127,243
169,243
211,243
2,243
44,243
128,243
170,243
212,243
3,229
45,229
129,229
171,229
213,229
4,76
46,76
130,76
172,76
214,76
5,76
47,76
131,76
173,76
215,76
6,76
48,76
132,76
174,76
216,244
7,244
49,244
133,244
175,244
217,244
8,244
50,244
134,244
176,77
218,77
9,77
51,77
135,77
177,77
219,77
10,77
52,77
136,77
178,77
220,77
11,77
53,77
137,245
179,245
221,245
12,245
54,245
138,245
180,78
222,78
13,78
55,78
139,78
181,78
223,78
14,78
56,78
140,78
182,78
224,78
15,78
57,78
141,246
183,246
145,246
225,246
16,79
58,79
142,79
184,79
226,79
17,247
59,247
143,247
185,247
227,247
18,247
60,80
144,80
186,80
228,80
61,80
62,80
70,231
70,69
70,64
70,235
70,236
239,67
239,231
239,237
239,236
241,64
241,66
241,65
82,65
87,69
87,68
87,233
87,146
87,232
87,65
87,234
87,63
87,235
87,231
96,63
96,66
96,231
96,69
96,187
101,68
101,231
101,66
101,187
101,236
101,237
101,235
101,64
101,234
105,65
105,231
105,67
105,69
105,237
105,232
105,187
105,236
105,64
105,146
22,187
148,231
148,237
148,233
148,146
148,69
148,236
148,67
148,66
148,234
148,64
107,235
110,231
110,232
110,237
110,63
110,68
110,66
153,146
153,237
153,234
153,187
153,64
153,233
153,231
153,236
113,22
113,102
113,249
113,190
113,90
113,111
113,193
113,188
113,103
113,100
20,111
20,77
20,245
20,98
20,94
20,82
20,80
20,106
20,85
20,22
163,192
165,71
165,80
125,244
125,249
125,91
125,93
125,100
125,85
212,93
212,103
212,148
212,242
212,245
212,23
212,193
129,239
129,152
129,149
129,24
129,245
129,191
129,249
129,81
214,107
214,189
214,83
214,25
214,238
5,229
5,108
5,111
216,147
216,91
216,194
216,83
216,245
216,243
216,240
216,82
216,188
216,247
49,101
49,73
49,22
179,246
179,148
179,22
179,108
179,149
179,106
182,70
16,26
