# Number of vertices:
250
# Edge list:
227,0
46,0
226,0
45,0
225,0
47,0
2,0
58,0
224,0
74,0
133,0
77,0
206,0
223,0
80,0
205,0
79,0
204,0
222,0
78,0
203,0
62,0
202,227
221,227
81,227
73,227
113,227
220,46
59,46
69,46
219,46
68,46
193,46
191,226
63,226
199,226
72,226
218,226
71,226
70,226
217,45
61,225
197,225
67,225
216,225
84,225
248,225
75,225
215,225
198,225
246,225
83,225
244,225
76,47
214,47
243,47
82,47
242,47
57,47
213,47
249,47
55,47
128,47
230,47
247,47
53,47
3,2
207,2
245,2
51,2
212,2
196,2
235,2
5,2
49,2
233,2
48,58
228,58
195,58
241,58
56,58
211,58
4,58
201,58
239,58
54,58
237,58
52,58
229,58
236,58
1,224
50,224
231,74
234,74
60,74
210,74
192,74
232,74
66,133
194,133
240,133
65,133
209,133
190,133
238,133
64,133
114,133
127,133
208,77
44,77
115,77
200,77
91,77
148,77
130,77
184,77
189,223
121,223
172,80
120,80
145,80
147,80
187,80
183,80
188,80
92,80
169,80
186,205
156,205
19,205
93,205
146,205
43,205
170,204
6,204
182,204
168,204
42,204
116,204
155,204
7,204
87,204
181,204
102,222
173,222
8,222
41,222
161,222
171,222
97,222
180,222
88,222
154,222
9,222
96,222
144,222
40,78
117,78
174,78
98,78
142,78
179,78
89,78
118,78
131,78
39,203
95,203
143,203
11,203
176,203
178,203
100,203
12,203
38,203
167,203
175,62
177,62
153,202
119,202
185,202
37,202
21,202
166,202
36,202
101,202
152,202
99,202
35,202
103,202
141,202
124,202
34,221
165,221
16,221
86,221
151,81
123,81
33,81
90,81
140,81
164,81
18,81
125,81
32,73
85,73
150,73
10,73
139,73
31,73
94,113
159,113
149,59
20,59
30,59
138,59
14,59
157,59
29,59
137,59
122,59
160,59
15,59
28,59
110,59
136,59
158,69
108,68
27,68
104,68
135,68
17,68
26,193
105,193
25,193
162,193
111,193
24,193
126,193
163,193
109,193
129,193
22,191
134,191
112,191
107,191
23,191
106,191
13,191
132,191
202,62
202,45
202,47
202,74
202,224
202,226
219,204
219,226
219,2
219,227
219,79
191,79
191,74
191,204
191,222
191,45
191,205
191,80
191,47
191,133
191,223
218,2
218,204
218,58
218,224
61,47
61,224
61,74
61,80
61,227
61,2
61,206
61,58
61,133
83,62
83,45
83,77
83,133
83,58
83,203
83,222
83,2
83,79
243,203
243,77
243,78
243,223
243,46
243,204
243,45
238,204
238,203
238,78
238,45
238,46
238,224
238,79
238,222
238,62
184,47
184,205
184,227
184,78
184,223
184,206
184,74
184,2
184,204
184,62
182,223
182,62
182,206
182,58
182,226
182,80
182,79
182,47
182,225
41,2
41,224
41,80
41,205
41,203
41,225
41,74
41,133
39,62
39,223
39,222
39,225
39,79
39,74
39,45
153,114
153,96
153,182
153,57
153,161
153,102
153,172
153,97
37,186
151,57
151,170
151,155
151,169
151,64
151,210
151,215
151,184
151,117
18,182
18,161
150,130
150,98
14,196
158,246
158,48
158,231
158,73
158,247
158,93
24,182
24,72
24,148
129,83
129,161
129,176
129,142
129,172
129,180
129,6
129,40
129,197
23,68
23,52
