# Number of vertices:
250
# Edge list:
31,0
199,0
241,0
32,0
200,0
242,0
33,0
201,0
243,0
34,0
202,0
244,0
35,0
203,0
245,0
36,0
204,0
246,0
37,0
205,0
247,0
38,31
206,31
248,31
39,31
207,31
249,199
40,199
208,199
41,199
209,199
42,199
210,199
1,199
43,199
211,199
2,199
44,199
212,199
3,241
45,241
213,241
4,241
46,241
214,241
5,32
47,32
215,32
6,32
48,32
216,32
7,200
49,200
217,200
8,200
50,200
218,200
51,200
9,242
219,242
10,242
52,242
220,242
11,242
53,242
221,242
12,242
54,242
222,242
13,242
55,242
223,242
14,33
56,33
224,33
15,33
57,33
225,33
16,33
58,33
226,33
17,33
59,33
227,201
18,201
60,201
228,201
19,201
61,201
229,201
20,201
62,201
230,201
21,201
63,201
231,201
22,201
64,243
232,34
23,34
65,202
233,202
24,202
66,202
234,202
25,202
67,202
235,202
26,244
68,244
236,244
27,244
69,244
237,244
28,244
70,244
238,244
29,244
71,244
239,244
72,244
30,35
240,35
73,35
115,35
157,35
74,35
116,35
158,35
75,203
117,203
159,203
76,203
118,203
160,203
77,203
119,245
161,245
78,245
120,245
162,245
79,245
121,245
163,245
80,245
122,245
164,36
81,36
123,36
165,204
82,204
124,204
166,204
83,204
125,204
167,204
84,204
126,204
168,204
85,246
127,246
169,246
86,246
128,246
170,37
87,37
129,37
171,37
88,37
130,37
172,37
89,205
131,205
173,205
90,205
132,205
174,247
91,247
133,247
175,247
92,38
134,38
176,38
93,38
135,38
177,38
94,38
136,38
178,38
95,38
137,38
179,248
96,248
138,248
180,39
156,39
97,39
139,39
181,207
98,207
140,207
182,207
99,249
141,249
183,249
100,249
142,249
184,249
101,249
143,40
185,40
102,40
144,40
186,40
103,40
145,40
187,40
104,208
146,208
188,208
105,208
147,208
189,208
106,208
148,208
190,208
107,208
149,208
191,208
198,41
108,41
150,41
192,41
109,209
151,209
193,209
110,209
152,209
194,209
111,209
153,209
195,209
112,209
154,42
196,42
113,42
155,42
197,42
114,42
206,201
206,205
214,33
214,34
214,242
214,37
214,202
214,199
214,35
216,246
216,244
216,203
216,243
216,35
216,202
216,199
216,245
216,31
216,247
217,202
217,246
217,33
217,245
217,204
219,247
52,205
52,37
52,245
59,202
59,247
59,244
59,241
59,246
59,199
230,32
230,36
230,204
230,34
230,202
230,205
230,246
230,35
231,202
231,242
232,241
232,205
232,31
232,247
232,33
232,37
66,244
66,32
66,31
66,204
66,34
66,245
66,241
66,199
66,246
66,37
77,33
77,205
77,34
77,247
77,243
77,242
77,32
119,205
119,201
119,202
119,247
119,243
119,36
119,199
119,34
161,202
161,36
161,35
161,204
161,32
161,31
161,244
161,199
161,243
161,203
80,205
80,246
80,36
80,31
80,202
80,200
84,31
172,247
172,35
172,33
172,32
172,200
172,243
172,36
135,131
135,163
135,54
135,28
135,165
135,116
135,216
135,88
135,208
100,126
100,39
100,87
100,208
192,130
192,25
152,27
152,14
152,118
152,232
112,236
112,25
112,64
112,223
112,158
112,47
112,119
112,172
