# Number of vertices:
250
# Edge list:
100,0
145,0
141,0
187,0
101,0
139,0
188,0
113,0
189,0
143,0
190,0
140,0
191,0
138,0
192,0
112,0
193,0
144,0
194,0
133,0
195,0
196,0
111,0
197,0
128,0
198,0
126,100
199,100
125,100
200,100
110,100
131,100
201,100
202,100
129,145
203,145
127,145
204,145
109,145
205,141
124,141
132,141
206,141
207,141
130,141
208,141
108,141
209,141
119,141
210,141
115,141
211,141
123,187
1,187
212,187
107,187
213,187
2,101
120,101
214,101
3,101
117,101
215,101
4,101
116,101
216,139
5,188
106,188
217,188
6,188
122,188
186,113
218,113
7,113
121,113
219,113
8,113
118,113
220,113
9,113
105,189
221,189
10,189
114,143
222,143
11,143
142,143
223,143
12,190
137,190
224,190
13,190
136,190
225,190
14,190
135,190
226,190
15,190
134,190
103,191
227,191
16,138
58,138
102,138
228,138
17,138
59,192
104,192
229,192
18,192
60,192
185,192
230,192
19,192
61,192
157,192
231,192
20,192
62,192
184,192
232,112
21,193
63,193
158,193
233,193
22,144
64,144
165,144
183,144
234,144
23,144
65,144
235,144
24,144
66,144
182,144
236,144
25,144
67,144
237,194
26,194
68,194
181,133
238,133
27,133
69,133
239,133
28,133
70,133
159,133
180,195
240,195
29,195
71,195
146,195
241,195
30,195
72,195
156,195
179,196
242,196
31,196
73,196
147,196
243,196
32,111
74,111
163,111
178,111
244,111
33,111
75,111
245,111
34,111
76,111
164,111
177,111
246,111
77,197
35,197
247,197
36,197
78,128
176,128
248,128
37,128
79,128
154,128
249,128
38,128
80,198
175,126
39,126
81,126
155,126
40,126
82,126
162,126
174,126
41,126
83,126
42,126
84,126
153,199
173,199
43,200
85,200
44,200
86,200
172,200
98,200
45,200
87,200
152,200
46,200
88,200
171,200
47,200
89,110
48,110
90,110
160,110
170,110
49,110
91,110
161,110
99,110
50,110
92,110
169,131
51,131
93,131
149,131
52,131
94,131
151,131
168,131
53,131
95,131
150,131
54,131
96,131
148,201
167,201
55,201
97,201
56,201
166,201
57,201
207,101
208,190
208,189
208,191
208,187
208,192
208,138
208,139
208,193
210,192
210,144
210,145
210,198
211,144
211,187
211,193
211,192
211,139
211,112
211,196
211,189
114,112
114,145
114,197
114,100
114,195
114,190
114,139
114,133
142,111
16,192
16,197
104,133
104,195
230,111
230,101
61,112
61,140
61,194
61,188
61,197
61,193
61,187
61,189
61,196
61,128
21,145
21,197
21,133
21,192
21,100
21,194
21,195
21,189
235,198
235,128
235,191
235,195
235,196
26,101
26,192
26,138
26,141
159,141
159,140
159,111
179,188
179,100
179,197
179,111
179,194
179,144
179,128
177,133
177,140
177,128
177,194
177,112
177,197
177,138
36,113
36,128
36,196
36,187
36,194
36,141
36,133
36,188
78,101
38,133
38,187
38,138
80,140
171,249
171,219
171,67
169,181
169,244
169,27
169,75
169,67
169,26
169,103
169,16
169,218
