# Number of vertices:
250
# Edge list:
41,0
83,0
125,0
42,0
84,0
126,0
43,0
85,0
127,0
44,0
86,0
128,0
45,0
87,41
129,41
46,41
88,41
130,41
47,41
89,41
131,41
48,41
90,41
132,41
49,83
91,83
133,83
50,83
92,125
134,42
51,42
93,42
135,42
52,42
94,42
136,42
53,42
95,42
137,42
54,84
96,84
138,84
55,84
97,84
139,84
56,84
98,84
140,84
57,84
99,84
141,84
58,84
100,84
142,126
59,126
101,126
143,126
60,126
102,126
144,126
61,126
103,126
145,43
62,43
104,43
146,43
63,43
105,43
147,43
64,43
106,43
148,43
65,43
107,43
149,43
66,85
108,85
150,85
67,44
109,44
151,44
68,44
110,44
152,44
69,44
111,86
153,86
70,86
112,86
154,128
71,128
113,128
155,45
72,45
114,87
156,87
208,87
73,87
115,87
157,129
74,129
116,129
158,129
75,129
117,129
159,129
76,129
118,129
160,129
77,129
119,129
161,129
78,129
120,46
162,46
79,46
121,46
163,46
80,88
122,88
164,88
81,88
123,88
165,130
82,130
124,130
166,130
167,130
209,130
168,130
210,130
1,130
169,130
211,130
2,130
170,130
212,47
3,47
171,47
213,89
4,89
172,89
214,89
5,89
173,131
215,131
6,131
174,131
216,48
7,48
175,90
217,90
8,90
176,132
218,132
9,132
177,132
219,132
10,132
178,132
220,132
11,49
179,49
221,49
12,49
180,49
222,49
13,49
181,49
223,49
14,49
182,49
224,91
15,91
183,91
225,91
16,91
184,133
226,133
17,50
185,50
227,50
18,50
186,50
228,50
19,50
187,50
229,50
20,50
188,92
230,92
21,92
189,92
231,92
22,92
190,92
232,92
23,92
191,92
233,92
24,92
192,134
234,134
25,134
193,134
235,134
26,134
194,134
236,134
27,134
195,134
237,134
28,134
196,134
238,134
29,51
197,51
239,51
30,51
198,51
240,93
31,93
199,93
241,93
32,93
200,93
242,93
33,93
201,93
243,135
34,135
202,135
244,135
35,135
203,135
245,135
36,52
204,52
246,52
37,52
205,52
247,52
38,52
206,52
248,52
39,52
207,136
249,136
40,136
90,125
90,45
90,42
90,85
90,83
49,41
100,43
101,85
101,127
101,83
101,43
101,86
101,44
101,84
101,42
101,125
146,41
146,126
146,84
146,128
146,85
146,42
146,83
146,45
146,44
146,86
154,86
75,136
76,108
76,135
76,106
168,51
168,154
168,136
168,143
168,132
168,88
169,142
9,72
9,140
9,129
9,142
9,147
9,88
9,63
9,94
219,148
219,129
219,108
222,140
21,72
21,89
231,56
231,71
231,63
26,61
26,88
26,153
26,146
26,47
26,63
26,152
26,64
26,92
195,107
195,92
195,99
195,109
195,137
195,70
195,60
195,52
195,106
195,108
237,146
237,153
237,56
237,154
237,150
30,147
30,145
30,67
30,144
30,95
30,90
30,87
30,60
30,133
30,57
198,150
198,138
198,152
198,58
198,144
198,103
33,100
203,47
203,108
203,67
203,60
203,99
203,144
203,72
203,53
203,58
