# Number of vertices:
250
# Edge list:
27,0
69,0
237,0
28,0
70,0
238,0
29,0
71,0
239,0
30,0
72,237
240,237
31,237
73,237
241,28
32,28
74,70
242,238
33,238
75,238
243,238
34,238
76,238
244,238
35,238
77,238
245,29
36,29
78,29
246,29
37,29
79,29
247,29
38,29
80,29
248,29
39,29
81,71
249,71
40,71
82,239
41,239
83,239
42,239
84,30
1,30
43,30
85,30
2,30
44,72
86,72
3,240
45,240
87,240
46,240
4,240
88,240
47,31
5,31
89,31
6,31
48,31
90,31
7,31
49,31
91,31
8,31
50,31
92,73
9,73
51,73
93,73
10,73
52,73
94,73
11,73
53,73
95,73
12,241
54,241
96,74
13,74
55,74
97,74
14,74
56,74
98,242
15,242
57,33
99,33
16,33
58,33
100,33
193,33
17,33
59,33
101,33
18,33
60,33
102,33
19,75
61,75
103,75
20,75
62,75
104,75
21,75
63,243
105,243
194,243
22,243
64,243
106,243
23,243
65,243
107,243
24,34
66,34
108,34
235,76
67,76
25,76
109,244
68,244
26,244
110,244
111,244
153,244
195,244
112,244
154,244
196,244
236,244
113,35
155,35
197,35
114,35
156,35
198,35
115,35
157,35
199,35
116,35
158,35
200,35
117,77
159,245
201,36
118,36
160,36
202,36
119,36
161,36
203,36
120,36
162,36
204,36
121,36
163,36
205,36
122,78
164,78
206,78
123,78
165,78
207,78
124,78
166,78
208,78
125,78
167,78
209,78
126,246
168,246
210,246
127,246
169,246
211,246
128,246
170,246
212,246
129,246
171,246
213,37
130,37
172,37
214,79
131,79
173,79
215,79
132,79
174,79
216,38
133,38
175,38
217,38
134,38
176,38
218,38
135,80
177,80
219,80
136,80
178,80
220,80
137,248
179,248
221,248
138,248
180,39
222,39
139,39
181,39
223,39
140,39
182,39
224,39
141,39
183,39
225,39
142,39
184,81
226,81
143,81
185,81
227,81
144,81
186,81
228,81
145,249
187,249
229,249
146,249
188,249
230,249
147,249
189,249
231,40
148,82
190,82
232,82
149,82
191,82
233,82
150,82
192,82
234,82
151,82
152,82
72,29
72,69
72,238
72,28
72,70
72,30
73,69
32,237
32,27
32,71
32,239
32,70
32,69
32,238
32,29
32,30
75,69
245,69
245,30
245,70
245,239
245,71
83,28
83,238
83,237
83,29
2,71
4,73
4,246
4,75
4,77
4,41
4,244
4,39
4,31
4,243
4,36
90,81
90,32
90,36
90,83
90,2
90,77
90,41
90,248
90,35
90,85
13,85
13,240
193,85
193,81
193,43
193,83
193,39
17,77
17,242
17,241
17,243
17,42
17,35
17,75
17,43
21,72
21,40
21,33
21,79
21,78
21,76
21,35
21,80
21,73
107,34
198,83
198,31
198,43
198,246
115,248
115,79
115,37
115,82
159,39
159,77
159,2
159,43
159,75
159,40
159,74
159,37
159,80
159,85
206,39
206,75
206,34
207,246
207,32
207,38
207,74
207,73
207,83
212,81
212,74
212,240
212,40
212,73
212,37
134,33
177,36
219,1
219,241
219,249
219,42
219,84
179,75
179,245
179,35
179,74
179,76
179,249
179,243
179,247
179,37
138,83
138,242
138,240
138,80
141,41
141,32
141,245
141,34
141,248
141,43
141,78
141,85
141,76
141,82
184,75
184,78
184,80
184,40
184,247
184,43
184,243
184,2
184,41
184,38
148,240
148,77
148,79
148,33
148,72
148,73
190,83
190,32
190,241
190,85
190,74
190,80
190,247
190,246
190,84
