# Number of vertices:
250
# Edge list:
209,0
70,0
154,0
238,0
71,0
155,0
198,0
239,0
72,0
156,0
221,0
205,0
240,0
73,0
157,0
241,209
201,209
74,209
158,209
242,209
75,209
159,209
196,209
197,209
243,209
76,209
160,209
210,70
208,70
244,70
77,70
161,70
245,70
78,70
162,70
213,70
246,70
79,70
163,70
214,154
247,238
80,238
164,238
215,238
248,238
81,238
165,238
224,238
249,238
82,238
166,238
200,238
83,238
167,238
216,71
84,71
168,71
217,71
199,71
85,71
169,71
86,155
170,155
218,155
87,155
171,155
88,155
172,239
225,72
89,72
173,72
219,72
90,72
174,156
228,156
91,156
175,221
220,221
222,221
92,221
176,221
93,221
177,221
223,221
94,221
178,221
226,221
95,221
179,221
227,205
96,205
180,240
237,240
97,240
181,240
204,240
98,240
182,240
236,73
152,73
99,73
183,73
203,73
100,73
184,157
235,157
101,157
185,157
229,157
102,157
186,157
234,157
103,157
187,241
207,241
153,241
104,241
188,241
233,241
105,241
189,241
212,241
106,241
190,241
232,241
107,241
191,201
211,201
108,201
192,201
231,201
206,201
109,201
193,201
202,201
110,201
194,201
230,201
111,201
195,201
28,74
112,74
29,74
113,74
30,74
114,74
31,74
115,74
32,74
116,74
33,74
117,74
34,74
118,74
35,158
119,158
36,158
120,158
37,242
121,242
38,75
122,75
39,75
123,75
40,75
124,75
41,75
125,75
42,75
126,75
1,75
43,75
127,75
2,75
44,159
128,159
3,159
45,159
129,159
4,196
46,196
130,196
47,196
5,196
131,196
48,196
6,197
132,197
7,197
49,197
133,197
8,197
50,197
134,197
9,197
51,197
135,197
10,197
52,197
136,197
11,243
53,243
137,243
12,243
54,243
26,243
138,76
13,76
55,76
139,76
14,76
56,76
140,76
15,76
57,76
141,76
16,76
58,76
142,76
17,76
59,160
27,160
143,160
18,210
60,210
144,210
19,210
61,210
145,210
20,208
62,208
146,208
21,208
63,208
147,208
22,208
64,208
148,208
23,208
65,208
149,244
24,244
66,244
150,244
25,244
67,244
151,244
68,244
69,77
241,240
241,239
74,73
74,156
74,240
74,238
74,71
74,221
74,198
164,72
164,71
164,155
164,239
164,73
164,221
164,209
164,157
164,156
164,240
87,238
87,156
87,198
87,221
87,73
87,70
87,209
87,71
219,157
219,71
219,70
219,155
219,198
219,239
219,240
219,209
222,155
223,155
223,154
223,198
223,239
223,71
223,157
223,156
95,238
180,70
180,157
180,71
180,72
180,205
180,155
180,156
229,155
187,100
187,169
187,91
187,222
187,175
187,237
187,81
187,97
187,248
108,167
108,247
108,235
108,244
108,158
108,159
119,181
3,242
3,160
3,84
3,166
3,197
129,182
4,88
130,175
130,236
130,179
130,89
130,173
130,200
130,163
130,223
6,177
6,179
6,201
6,176
132,93
132,224
132,247
132,76
132,74
132,164
132,216
26,89
26,241
26,83
26,222
26,100
139,175
139,219
139,85
139,177
139,98
139,242
17,219
17,179
17,159
17,176
17,225
17,101
18,75
18,225
18,82
18,246
18,237
18,91
18,199
61,80
61,177
61,237
23,179
23,99
67,103
67,90
67,74
67,177
67,164
67,215
