# Number of vertices:
250
# Edge list:
9,0
93,0
177,0
10,0
94,0
178,0
11,0
95,0
179,0
12,0
96,0
180,0
13,0
97,0
181,0
14,0
98,0
182,0
15,0
99,0
183,0
16,0
100,0
184,0
17,0
101,93
185,93
18,93
102,93
186,93
19,93
103,93
187,177
20,177
104,177
188,177
21,177
105,177
189,177
22,177
106,177
190,10
23,10
107,94
191,94
24,94
108,94
192,178
25,178
109,178
193,178
26,11
110,11
194,11
27,11
111,11
195,11
28,11
112,11
196,11
29,11
113,11
197,95
30,95
114,95
198,95
31,95
115,95
199,95
32,95
116,179
200,179
33,179
117,179
201,179
34,179
118,179
202,179
35,179
119,179
92,179
203,179
36,179
120,179
204,96
37,96
121,96
205,96
38,96
122,96
206,96
39,96
123,96
207,13
40,13
124,13
208,13
41,13
125,13
209,13
42,13
126,13
210,13
43,13
127,13
211,13
44,13
128,97
212,97
45,97
129,97
213,97
46,97
130,97
214,97
47,181
131,181
215,181
48,181
132,181
216,181
49,14
133,14
217,14
50,14
134,14
218,14
51,14
135,14
219,14
52,14
136,14
220,14
53,98
137,98
176,98
221,98
54,98
138,98
222,98
55,98
139,98
223,98
56,98
140,98
224,98
57,98
141,182
225,182
58,182
142,99
226,99
59,99
143,99
227,183
60,183
144,183
228,183
61,183
145,183
229,183
62,183
146,183
230,183
63,183
147,16
231,16
64,16
148,16
232,16
65,16
149,16
233,16
66,16
150,16
234,100
67,100
151,100
235,100
68,100
152,184
236,184
69,184
153,17
237,17
70,17
154,17
238,17
71,17
155,17
239,17
72,17
156,17
240,17
73,17
157,17
241,101
74,101
158,101
242,101
75,101
159,101
243,101
76,101
160,101
244,101
77,101
161,101
245,185
78,185
162,18
246,18
79,18
163,18
247,18
80,102
164,102
248,102
81,102
165,102
249,102
82,102
166,186
83,186
167,186
84,186
168,19
1,19
85,19
169,19
2,19
86,19
170,19
3,19
87,19
171,19
4,19
88,103
172,103
5,103
89,103
173,103
6,103
90,103
174,103
7,103
91,103
175,103
8,103
186,9
186,179
186,15
186,14
186,180
186,13
186,178
186,94
187,14
187,178
187,181
107,95
107,179
107,9
107,180
107,96
107,183
107,182
107,12
107,93
25,100
109,177
109,94
109,180
109,179
109,95
109,13
109,17
109,183
198,10
50,93
50,17
50,94
50,184
50,178
136,177
136,10
136,100
136,97
136,99
220,177
220,97
220,182
220,100
220,12
220,95
220,183
220,98
220,10
142,10
142,16
142,97
146,97
146,11
146,12
146,13
146,15
146,14
146,94
146,9
146,17
149,177
149,11
149,184
149,100
149,179
68,179
68,182
68,98
68,183
68,17
68,181
154,96
154,184
154,180
154,93
74,133
74,60
74,108
249,222
249,214
249,72
249,110
249,52
249,155
249,198
249,32
249,203
249,129
168,28
168,237
168,187
168,124
168,101
168,155
168,154
168,22
168,208
168,201
85,103
85,236
85,118
85,217
85,42
85,22
85,233
85,54
173,232
173,44
173,110
173,111
173,24
173,48
173,60
173,120
173,194
173,38
91,218
91,216
91,72
91,145
91,193
91,219
91,240
91,209
91,207
91,19
