# Number of vertices:
250
# Edge list:
5,0
6,0
90,0
216,0
7,0
91,0
217,0
4,0
8,0
92,0
218,0
9,0
93,0
219,0
3,0
10,0
94,0
220,0
11,0
95,0
221,0
2,0
12,0
96,0
222,0
13,0
97,0
172,0
223,0
14,5
98,5
224,6
1,6
15,6
99,90
225,216
16,216
100,216
226,216
17,216
101,216
227,216
18,216
102,216
173,7
228,7
19,7
103,7
229,7
20,7
104,91
230,91
21,91
105,91
231,91
22,91
106,91
232,91
23,91
107,91
233,91
24,91
108,217
234,217
25,217
109,217
235,217
26,217
110,4
236,4
27,4
111,4
237,4
28,4
112,4
238,4
29,8
113,8
239,92
30,92
114,92
240,92
31,92
115,92
241,92
32,218
116,9
242,9
33,93
117,93
243,219
34,219
118,219
244,219
35,219
119,219
245,219
36,219
120,219
246,219
37,219
121,3
247,3
38,3
122,3
248,3
39,3
123,3
249,3
40,3
124,3
41,3
125,3
42,10
126,10
214,10
43,10
127,10
44,10
128,10
45,10
129,220
46,220
130,220
47,220
131,220
215,220
48,220
132,11
174,11
49,11
133,11
175,11
50,11
134,11
176,11
51,11
135,11
177,11
52,11
136,11
178,95
53,95
137,95
179,95
54,95
138,95
180,95
55,95
139,95
181,95
56,95
140,95
182,95
57,221
141,221
183,221
58,221
142,221
184,221
59,221
143,221
185,221
60,221
144,221
186,221
61,2
145,2
187,12
62,12
146,96
188,96
63,96
147,96
189,96
64,96
148,96
190,222
65,13
149,13
191,13
66,13
150,97
192,97
67,97
151,97
193,97
68,172
152,172
194,172
69,172
153,223
195,223
70,223
154,223
196,14
71,14
155,14
197,14
72,98
156,98
198,98
73,98
157,98
199,98
74,98
158,98
200,98
75,98
159,98
201,224
76,224
160,224
202,224
77,224
161,224
203,224
78,224
162,1
204,1
79,1
163,1
205,1
80,1
164,1
206,1
81,15
165,15
207,15
82,15
166,15
208,15
83,15
167,15
209,15
84,15
168,15
210,15
85,15
169,99
211,99
86,99
170,99
212,99
87,99
171,99
213,99
88,99
89,225
14,6
14,172
14,94
14,3
14,8
14,13
14,91
14,11
14,217
101,4
101,90
101,12
101,172
101,3
18,12
18,218
18,94
18,9
18,91
18,97
18,222
18,90
104,223
104,222
104,93
104,97
104,221
104,4
104,172
104,217
104,2
233,8
233,216
234,8
234,13
234,5
214,218
214,7
214,172
214,5
214,217
48,10
48,90
48,222
48,92
48,95
48,3
48,223
48,218
48,217
48,2
175,96
175,95
175,3
175,8
175,10
175,222
177,222
177,13
177,7
181,11
143,93
143,2
64,2
64,223
150,91
150,216
150,96
150,220
150,218
194,222
159,22
159,126
159,190
77,180
77,26
77,226
77,185
208,46
208,128
208,181
208,110
208,143
208,136
208,152
208,25
208,123
208,63
83,114
