# Number of vertices:
250
# Edge list:
34,0
202,0
244,0
35,0
203,0
245,0
36,0
204,0
246,0
37,0
205,0
247,0
38,0
206,0
248,0
39,0
207,0
249,0
40,0
208,0
41,34
209,34
42,34
210,34
1,34
43,34
211,34
2,34
44,202
212,202
3,202
45,202
213,202
4,202
46,202
214,202
5,202
47,202
215,244
6,244
48,244
216,35
7,35
49,35
217,35
8,35
50,35
218,35
9,35
51,35
219,35
10,35
52,35
220,35
11,35
53,203
221,203
54,203
12,203
222,203
13,203
55,203
223,203
14,203
56,203
224,203
15,203
57,245
225,245
16,245
58,245
226,245
17,245
59,245
227,245
18,245
60,245
228,245
19,245
61,204
229,204
20,204
62,204
230,204
21,204
63,204
231,204
22,204
64,204
232,246
23,246
65,246
233,246
24,246
66,246
234,246
25,246
67,246
235,246
26,246
68,246
236,37
27,37
69,37
237,37
28,37
70,37
238,205
29,205
71,205
239,247
30,247
72,38
240,38
31,38
73,38
241,38
201,38
32,38
74,38
242,38
75,38
33,38
243,38
76,38
118,206
160,206
77,248
119,39
161,39
78,39
120,39
162,39
79,39
121,39
163,39
80,39
122,39
164,39
81,207
123,207
165,207
82,207
124,207
166,249
83,249
125,249
167,249
84,249
126,249
168,249
85,40
127,40
169,40
86,40
128,40
170,40
87,40
129,40
171,40
88,40
130,40
172,40
89,208
131,208
173,208
90,41
132,41
174,41
91,41
133,41
175,41
92,41
134,41
176,41
93,41
135,41
177,41
94,209
136,209
178,209
95,209
137,209
179,209
96,209
138,209
180,209
97,209
139,209
159,209
181,42
98,42
140,42
182,42
99,42
141,42
183,42
100,42
142,42
184,42
101,42
143,42
185,210
102,210
144,1
186,1
103,1
145,1
187,1
104,1
146,43
188,43
105,43
147,43
189,43
106,43
148,43
190,211
107,211
149,211
191,211
108,211
150,2
192,2
109,2
151,2
193,44
110,44
152,44
194,212
111,212
153,212
195,212
112,212
154,212
196,212
113,212
155,212
197,212
114,212
156,212
198,212
115,212
157,3
199,3
116,3
158,3
200,3
117,3
209,36
209,244
209,205
209,40
209,248
209,203
209,208
209,35
209,246
42,35
42,203
42,244
42,246
44,248
44,249
44,39
44,206
9,38
9,205
219,202
219,208
219,39
15,206
15,244
15,208
15,34
15,247
15,36
15,202
15,38
62,245
62,34
62,38
62,35
62,36
62,207
62,206
62,247
62,40
62,39
21,249
21,206
21,202
21,207
21,40
21,244
21,34
21,37
22,206
22,35
22,249
22,247
22,246
22,34
22,207
22,205
75,40
243,203
243,249
243,246
243,207
243,35
243,248
243,208
243,247
123,34
82,34
82,247
82,36
82,206
82,246
82,203
82,208
82,249
82,244
82,248
126,247
132,210
132,160
132,66
132,123
132,52
132,171
132,10
178,224
178,122
178,51
178,120
178,80
178,30
178,14
184,26
184,49
184,74
184,127
184,118
184,17
184,30
184,65
188,13
188,42
192,56
192,166
192,69
192,127
192,50
192,215
192,63
151,62
151,123
151,212
151,88
151,166
151,171
151,209
151,71
151,242
151,238
193,68
193,70
193,10
193,226
193,242
193,29
193,66
193,230
