# Number of vertices:
250
# Edge list:
19,0
61,0
103,0
20,0
62,0
104,0
21,0
63,0
105,0
22,0
64,0
106,0
23,19
65,19
107,19
24,19
66,19
108,19
25,19
67,19
109,19
26,19
68,19
110,19
27,19
69,61
111,61
28,103
70,103
112,103
29,103
71,103
113,103
30,103
72,20
114,20
31,20
73,20
115,62
32,62
74,62
116,62
33,62
75,62
117,62
34,62
76,62
118,62
35,62
77,62
119,104
36,104
78,104
120,104
37,104
79,104
121,104
38,104
80,104
122,104
39,21
81,21
123,21
40,21
82,21
124,21
41,21
83,21
125,21
42,21
84,21
126,21
1,21
43,21
85,63
127,63
2,63
44,63
86,105
128,105
3,105
45,105
87,105
129,105
4,105
46,22
88,22
130,22
5,22
47,22
89,22
131,22
6,22
48,22
90,22
132,22
7,22
49,64
91,106
133,106
8,106
50,106
92,106
134,106
9,106
51,23
93,23
135,23
10,23
52,23
94,23
136,23
11,23
53,23
95,23
137,23
228,23
12,65
54,65
96,65
138,65
13,65
55,65
97,65
139,65
14,65
56,65
98,65
140,107
15,107
57,107
99,107
141,107
16,107
58,107
100,107
142,107
17,107
59,24
101,24
143,24
60,24
18,24
102,24
144,24
145,66
187,66
229,66
146,66
188,66
230,66
147,66
189,66
231,66
148,66
190,108
232,108
149,25
191,25
233,25
150,25
192,25
234,25
151,25
193,25
235,25
152,25
194,25
236,67
153,67
195,67
237,67
154,67
196,67
238,67
155,67
197,67
239,109
156,109
198,109
240,109
157,109
199,109
241,26
158,26
200,26
242,68
159,68
201,68
243,68
160,68
202,68
244,68
161,68
203,68
245,68
162,68
204,110
246,110
163,110
205,110
247,110
164,110
206,110
248,110
165,27
207,27
249,27
166,27
208,27
167,27
209,27
168,69
210,69
169,69
211,111
170,111
212,28
171,28
213,28
172,70
214,70
173,70
215,70
174,70
216,70
175,70
217,70
176,112
218,112
177,112
219,112
178,112
220,112
179,112
221,71
180,71
222,71
181,71
223,71
182,113
224,113
183,30
225,72
184,72
226,72
185,72
227,72
186,72
66,62
25,103
25,104
25,106
25,22
25,20
25,64
25,62
25,61
25,63
68,63
68,103
68,61
68,105
114,61
114,63
114,105
114,64
35,63
35,104
35,20
123,106
123,62
123,22
41,106
130,105
47,105
90,103
53,91
53,6
53,86
53,118
53,40
53,75
228,92
228,38
228,67
228,34
228,31
228,74
228,5
228,7
98,117
98,83
98,123
98,124
98,50
98,112
98,35
98,29
98,128
140,31
140,2
140,132
140,80
140,5
140,8
140,23
140,120
58,108
142,66
142,88
142,73
142,87
142,120
142,71
142,3
142,89
142,38
230,5
230,132
230,119
232,26
232,27
232,70
232,88
232,41
232,127
149,108
149,107
149,118
192,88
192,82
192,121
192,110
192,38
192,23
192,71
192,67
192,69
192,32
234,70
234,6
234,89
234,114
198,26
198,88
157,8
157,31
157,123
157,6
243,40
243,111
243,66
160,116
160,92
160,1
160,7
163,65
163,50
163,108
163,129
163,131
163,29
163,123
163,128
163,70
249,76
249,118
249,32
249,78
249,30
249,2
249,71
249,114
249,4
170,6
170,74
170,76
170,109
170,79
170,33
170,42
181,38
181,35
225,39
225,108
225,35
