# Number of vertices:
250
# Edge list:
78,0
120,0
162,0
204,0
79,0
121,0
163,0
205,0
80,0
122,0
164,0
206,0
81,0
123,0
165,0
207,0
82,0
124,0
166,0
208,0
83,0
125,0
167,0
209,0
84,0
126,0
168,0
1,0
210,78
85,78
127,78
169,78
211,78
2,78
86,78
128,78
170,78
212,78
3,78
87,78
129,120
171,120
213,120
4,120
88,162
130,162
172,162
214,162
5,162
89,162
131,162
173,162
215,162
6,162
90,162
132,162
174,162
216,204
7,204
91,204
133,204
175,204
217,204
8,204
92,204
134,204
176,204
218,204
9,204
93,204
135,79
177,79
219,79
10,79
94,79
136,79
178,79
220,79
11,79
95,79
137,79
179,79
221,79
12,121
96,121
138,163
180,163
222,205
13,205
97,205
139,205
181,205
223,205
14,205
98,205
140,205
182,205
224,205
15,205
99,205
141,205
183,80
225,80
16,80
100,80
142,122
184,122
226,122
17,122
101,122
143,122
185,164
227,164
18,164
102,164
144,164
186,164
228,206
19,206
103,206
145,206
187,206
229,206
20,206
104,81
146,81
188,123
230,123
21,123
105,123
147,123
189,123
231,123
22,123
106,123
148,123
190,123
232,165
23,165
107,165
149,165
191,165
233,207
24,207
108,207
150,82
192,82
234,82
25,82
109,82
151,82
193,82
235,82
26,82
110,82
152,124
194,124
236,124
27,124
111,124
153,166
195,166
237,166
28,166
112,166
154,166
196,166
238,208
29,208
113,208
155,208
197,208
239,208
30,83
114,83
156,83
198,83
240,83
31,83
115,83
157,83
199,83
241,83
32,125
116,125
158,125
200,167
242,167
33,167
117,167
159,167
201,167
243,209
34,209
118,209
160,209
202,209
244,209
35,209
119,209
161,209
203,209
245,209
36,209
246,84
37,84
247,84
38,84
248,84
39,84
249,84
40,84
41,84
42,84
43,84
44,84
45,84
46,84
47,126
48,126
49,126
50,126
51,126
52,126
53,126
54,126
55,126
56,126
57,126
58,1
59,1
60,1
61,1
62,85
63,85
64,85
65,127
66,127
67,127
68,127
69,127
70,127
71,127
72,127
73,127
74,127
75,127
76,127
77,169
5,166
215,123
215,209
215,205
215,120
215,82
91,163
91,168
91,79
91,206
91,123
91,164
92,125
92,123
10,78
10,166
10,126
136,164
96,204
96,166
96,78
96,167
96,205
96,208
16,1
16,206
16,168
16,163
16,204
16,166
142,84
142,78
142,163
142,80
104,126
104,123
104,121
104,164
104,166
104,205
104,162
104,80
231,84
231,163
231,81
231,124
231,162
149,208
149,163
149,162
149,120
149,81
149,126
24,126
24,167
24,206
24,122
24,1
24,168
24,81
24,121
24,123
196,162
196,1
196,206
196,81
196,165
196,121
196,126
196,208
196,82
197,204
197,81
197,206
197,123
197,126
197,209
197,79
197,120
197,162
197,165
30,126
30,82
30,209
30,168
30,167
241,122
241,205
241,164
241,125
241,167
241,80
241,79
241,206
202,81
202,120
202,206
202,125
202,207
202,82
202,122
202,163
202,168
202,124
119,205
37,166
37,120
37,83
37,125
37,81
37,206
37,122
37,124
70,18
70,210
70,178
70,187
70,177
74,14
74,141
74,156
74,225
75,13
75,44
75,53
75,16
75,147
76,243
76,103
76,17
76,192
76,179
76,24
76,181
76,240
76,246
76,169
