# Number of vertices:
250
# Edge list:
12,0
54,0
96,0
138,0
180,0
13,0
55,0
97,0
139,0
181,0
14,0
56,0
98,0
140,0
182,0
15,0
57,0
99,54
141,54
183,54
16,54
58,54
100,54
142,54
184,54
17,54
59,96
101,96
143,180
185,13
18,55
60,55
102,55
144,55
186,55
19,55
61,55
103,97
145,97
187,139
20,139
62,139
104,139
146,139
188,181
21,181
63,181
105,181
147,181
189,181
22,181
64,181
106,14
148,14
190,14
23,14
65,14
107,14
149,14
191,14
24,14
66,14
108,14
150,14
192,56
25,56
67,98
109,98
151,98
193,140
26,140
68,140
110,140
152,140
194,140
27,140
69,182
111,182
153,15
195,15
28,15
70,15
112,15
154,15
196,15
29,57
71,57
113,57
155,57
197,57
30,57
72,57
114,57
156,57
198,57
73,57
31,99
115,99
157,99
199,99
74,99
32,99
116,99
158,99
200,141
33,141
75,141
117,141
159,141
201,141
34,141
76,141
118,141
160,141
202,141
35,141
77,141
119,183
161,183
203,183
36,183
78,183
120,183
162,183
204,183
37,183
79,183
121,183
163,16
205,16
38,16
80,16
122,16
164,16
206,16
39,16
81,16
123,16
165,58
207,58
40,58
82,58
124,58
166,58
208,58
41,58
83,58
125,58
167,100
209,100
42,100
84,100
126,100
1,142
168,142
210,142
43,142
85,142
127,142
169,142
211,142
2,142
44,184
86,184
128,17
170,17
212,17
3,17
45,17
87,17
129,59
171,59
213,59
4,59
46,59
88,59
130,59
172,59
214,59
5,101
47,101
89,101
131,101
173,101
215,101
6,101
48,143
90,143
132,143
174,143
216,143
7,143
49,143
91,143
133,143
175,143
217,143
8,143
50,143
92,185
134,185
176,185
218,185
9,185
51,185
93,185
135,185
177,185
219,185
52,185
10,185
94,185
136,18
178,18
220,18
53,18
11,18
95,18
137,18
179,60
221,60
222,60
223,60
224,60
225,60
226,60
227,60
228,60
229,60
230,60
231,60
232,60
233,102
234,102
235,102
236,102
237,102
238,102
239,102
240,102
241,102
242,144
243,144
244,144
245,144
246,144
247,144
248,144
249,144
183,139
107,140
107,12
107,180
107,57
107,15
107,97
107,98
27,182
27,139
27,12
27,180
27,97
113,12
113,98
113,15
113,140
157,197
157,184
157,114
157,25
157,110
157,73
159,19
159,143
159,61
201,187
201,148
34,17
34,113
161,191
161,69
161,153
161,198
161,192
161,184
161,112
161,143
161,58
36,155
36,142
36,141
36,194
120,24
120,99
120,186
120,151
120,68
162,26
162,107
162,24
162,111
162,147
162,65
121,107
39,18
39,191
39,67
82,156
82,109
82,191
167,191
167,26
167,110
167,29
167,105
126,68
126,61
126,114
126,27
126,73
126,65
126,99
126,22
126,146
1,59
1,148
1,105
1,26
1,144
169,144
169,71
169,187
169,70
169,65
169,58
214,186
214,144
214,73
214,29
214,150
47,143
47,24
47,183
90,198
90,25
90,66
90,22
90,16
216,59
216,197
50,72
50,192
92,190
92,24
92,66
92,192
92,18
92,147
92,23
92,105
92,195
92,106
134,104
134,72
134,27
10,184
10,152
178,19
178,148
178,191
178,72
178,186
178,105
178,150
178,152
11,150
11,148
11,195
11,61
11,21
11,198
11,191
11,58
95,190
95,71
95,29
223,24
223,58
223,185
223,105
223,194
223,192
223,151
223,62
224,188
224,22
224,189
224,102
224,184
224,106
224,104
234,108
234,67
234,197
234,21
234,68
234,71
234,193
234,154
234,25
236,16
236,111
236,101
236,67
236,189
243,154
243,26
243,188
243,156
243,110
243,101
243,29
243,155
243,60
