# Number of vertices:
250
# Edge list:
38,0
80,0
122,0
164,0
248,0
39,0
81,0
123,0
165,38
249,38
40,38
82,38
124,38
166,38
41,38
83,38
125,38
167,38
42,38
84,38
126,38
168,38
43,80
85,80
127,80
169,80
44,80
86,80
128,80
170,80
45,80
87,80
129,80
171,122
46,122
88,122
130,122
172,122
47,122
89,122
131,122
173,122
48,122
90,122
132,122
174,122
49,248
91,248
133,248
175,248
50,248
92,248
134,248
176,248
51,39
93,39
135,39
177,39
52,39
94,39
136,39
178,39
53,39
95,81
137,81
179,81
54,123
96,123
138,123
180,123
55,165
97,165
139,165
181,165
56,165
98,249
140,40
182,40
57,40
99,40
141,40
183,40
58,40
100,40
142,40
184,82
59,82
101,82
143,82
185,82
60,82
102,82
144,82
186,124
61,124
103,124
145,124
187,166
62,166
104,166
146,166
188,166
63,166
105,166
147,166
189,166
64,166
106,166
148,166
190,41
65,41
107,41
149,41
191,41
66,83
108,83
150,125
192,125
67,125
109,125
151,125
193,125
68,125
110,125
152,125
194,125
69,125
111,125
153,125
195,167
70,167
112,167
154,167
196,167
71,167
113,167
155,167
197,167
72,167
114,42
156,42
198,42
73,42
115,42
157,84
199,84
74,84
116,84
158,84
200,84
75,84
117,84
159,84
201,84
76,84
118,84
160,84
202,84
77,126
119,126
161,126
203,126
78,126
120,126
162,126
204,126
79,126
121,126
163,126
205,126
206,126
207,126
208,168
209,168
210,168
1,168
211,168
2,168
212,168
3,168
213,168
4,168
214,168
5,168
215,43
6,43
216,43
7,43
217,43
8,43
218,43
9,43
219,43
10,43
220,43
11,43
221,85
12,85
222,85
13,85
223,85
14,85
224,85
15,85
225,85
16,85
226,85
17,127
227,127
18,127
228,127
19,127
229,169
20,169
230,44
21,44
231,44
22,44
232,44
23,44
233,44
24,44
234,44
25,44
235,44
26,86
236,128
27,128
237,128
246,128
28,128
238,128
29,128
239,128
30,128
240,128
31,128
241,128
32,170
242,45
247,45
33,45
243,45
34,87
244,87
35,87
245,87
36,87
37,87
87,39
87,164
46,123
46,248
46,38
46,80
46,81
46,39
46,164
173,81
173,123
173,38
173,39
60,90
60,178
60,41
60,48
187,169
187,96
187,175
187,53
187,130
187,95
187,126
107,176
107,51
107,48
107,131
107,133
107,42
107,93
107,169
110,82
110,40
110,249
110,50
110,171
115,49
115,48
115,89
115,40
115,126
115,52
115,165
115,180
115,90
157,165
157,46
157,130
157,50
157,43
157,40
157,177
207,168
207,125
207,85
207,42
207,135
207,82
207,180
207,52
207,178
214,50
214,87
214,49
10,175
30,82
30,50
30,127
30,136
30,126
30,124
30,177
30,171
30,166
30,49
240,44
240,53
240,173
240,249
240,133
240,51
240,87
240,42
