# Number of vertices:
250
# Edge list:
111,0
195,0
112,0
196,111
113,111
197,111
114,111
198,111
115,111
199,111
116,111
200,111
117,111
201,111
118,111
202,111
119,111
203,195
120,195
204,195
121,195
205,195
122,195
206,195
123,195
207,195
124,195
208,195
125,195
209,195
126,195
210,112
127,112
211,112
128,196
212,196
129,113
213,113
130,113
214,113
131,113
215,113
132,113
216,113
133,113
217,113
134,113
218,114
26,198
135,115
219,115
136,115
220,115
137,115
221,199
138,199
222,199
139,199
223,199
140,199
224,199
141,199
225,116
142,116
226,116
143,116
227,116
144,116
228,116
145,116
229,116
146,116
230,116
147,116
231,117
148,117
232,117
149,117
233,117
150,117
234,117
151,117
235,117
152,201
236,201
110,201
27,201
69,201
153,118
237,118
28,118
70,118
154,118
238,118
29,118
71,118
155,118
239,118
30,202
72,202
156,119
240,119
31,119
73,119
157,119
241,119
32,119
74,119
158,119
242,203
33,203
75,203
159,203
243,203
34,203
76,203
160,203
244,203
35,203
77,203
161,120
245,120
36,120
78,120
162,120
246,120
37,120
79,120
163,204
247,204
38,204
80,204
164,204
248,204
39,204
81,204
165,204
249,204
40,204
82,204
166,204
41,204
83,121
167,121
42,121
84,121
168,121
1,121
43,205
85,205
169,205
2,205
44,205
86,205
170,205
3,122
45,122
87,122
171,122
194,122
4,122
46,122
88,122
172,122
47,122
5,122
89,122
173,122
6,122
48,206
90,206
174,206
7,206
49,206
91,206
175,206
8,206
50,206
92,206
176,206
9,206
51,206
93,123
177,123
10,123
52,123
94,123
178,123
11,123
53,123
95,123
179,123
12,207
54,207
96,207
180,124
13,124
55,208
97,208
181,208
14,208
56,208
98,208
182,208
15,208
57,208
99,208
183,208
16,208
58,208
100,208
184,125
17,125
59,125
101,125
185,125
18,125
60,125
102,125
186,125
19,125
61,125
103,125
187,125
20,125
62,209
104,209
188,209
21,209
63,209
105,126
189,126
22,126
64,126
106,126
190,126
23,126
65,126
107,126
191,126
24,126
66,126
108,210
192,210
25,210
67,210
109,210
193,210
68,210
196,112
196,195
114,112
114,195
198,195
198,112
200,195
204,112
204,111
217,119
217,126
217,122
217,197
217,204
217,123
217,199
134,196
134,124
134,199
134,204
134,211
134,126
134,207
134,201
134,117
220,202
220,118
220,123
220,120
145,117
145,123
145,119
145,127
145,114
147,197
147,114
147,208
147,204
147,115
147,209
147,127
147,199
147,117
147,211
150,115
235,211
235,209
235,122
27,210
27,196
27,114
27,202
27,119
27,199
27,124
27,117
27,118
239,124
239,204
239,211
239,209
239,123
239,202
244,126
244,206
244,207
244,199
244,197
244,202
244,204
244,201
244,210
35,123
35,198
35,208
35,115
35,121
35,200
35,204
35,119
35,113
35,126
246,201
246,123
246,196
246,127
246,210
163,199
248,121
248,209
248,202
248,211
248,208
248,122
248,115
248,123
42,127
42,211
42,203
42,113
42,196
42,207
84,122
84,127
84,196
84,199
169,209
169,120
169,199
169,207
169,206
169,116
169,203
169,113
169,124
88,123
88,114
88,210
88,125
88,198
88,126
88,117
88,118
91,119
91,199
91,211
91,198
91,203
91,200
91,209
91,208
53,208
12,197
96,113
96,124
96,118
96,210
96,117
96,115
96,120
96,125
96,199
55,121
55,126
55,116
55,206
55,202
55,211
55,201
55,207
17,122
17,211
66,201
66,120
66,202
66,203
66,199
