# Number of vertices:
250
# Edge list:
50,0
134,0
218,0
51,0
135,0
219,0
52,0
136,0
220,0
53,0
137,0
221,134
54,134
138,134
222,134
55,134
139,134
223,134
56,134
140,134
224,218
57,218
141,51
225,51
58,51
142,51
226,51
59,51
143,52
227,52
60,52
144,52
228,52
61,52
145,52
229,52
62,52
146,52
230,136
63,136
147,136
231,136
64,136
148,136
232,136
65,136
149,136
233,136
66,136
150,220
234,220
67,220
151,220
235,220
68,53
152,53
236,53
69,53
153,53
237,53
70,53
154,53
238,137
71,137
155,221
239,221
72,221
156,221
240,221
73,221
157,221
241,221
74,221
158,221
242,221
75,54
159,54
243,54
76,138
160,138
244,138
77,138
161,138
245,138
78,138
162,138
246,138
79,138
163,138
247,222
80,222
164,222
248,222
81,55
165,55
249,55
82,55
166,55
83,55
167,55
84,55
168,55
1,55
85,55
169,55
2,139
86,139
170,139
3,139
87,139
171,139
4,139
88,139
172,139
5,139
89,139
173,139
6,223
90,223
174,223
7,223
91,223
175,223
8,223
92,56
176,56
9,56
93,56
177,56
10,56
94,56
178,56
11,140
95,140
179,140
12,140
96,140
180,140
13,140
97,140
181,140
14,140
98,140
182,224
15,224
99,224
183,224
16,224
100,224
184,224
17,224
101,224
185,224
18,57
102,57
186,57
19,57
103,57
187,57
20,57
104,57
188,57
21,141
105,225
133,225
189,225
22,225
106,225
190,225
23,225
107,225
191,225
24,225
108,225
192,58
25,58
109,58
193,58
26,58
110,58
194,58
27,58
111,142
195,142
28,142
112,142
196,226
29,226
113,226
197,226
30,226
114,226
198,59
31,59
115,59
199,59
32,143
116,143
200,143
33,143
117,143
201,143
34,143
118,143
202,143
35,143
119,143
203,143
36,227
120,227
204,227
37,227
121,227
205,227
38,227
122,60
206,60
39,60
123,228
207,228
217,228
40,228
124,228
208,61
41,61
125,61
209,61
42,61
126,61
210,61
43,61
127,61
211,145
44,145
128,145
212,145
45,145
129,145
213,145
46,145
130,145
214,145
47,145
131,145
215,145
48,145
132,229
216,229
49,229
224,51
145,134
145,136
146,135
146,51
146,137
146,50
146,134
146,218
146,220
148,51
148,137
148,52
148,50
148,219
233,53
235,137
235,218
235,134
235,50
235,51
236,220
236,50
236,137
236,51
158,235
158,70
158,146
242,138
242,154
242,224
242,148
242,70
242,231
242,151
242,237
242,153
242,60
76,153
76,232
76,57
160,231
160,58
160,60
160,59
160,69
160,229
160,63
160,142
160,67
160,224
78,57
78,147
166,68
166,222
167,150
167,223
167,225
95,236
95,148
95,139
95,142
95,70
95,138
95,233
95,231
188,221
188,235
188,147
188,145
188,225
188,142
191,232
191,57
191,54
191,138
191,69
191,56
191,139
26,143
26,150
26,147
26,65
26,235
26,54
26,57
26,237
26,141
26,152
110,55
110,149
110,71
110,224
110,144
110,145
110,143
27,154
27,231
27,233
27,64
27,54
27,55
27,238
27,62
27,236
119,154
206,151
129,56
129,62
129,60
129,70
215,232
215,60
216,140
216,57
216,222
216,138
216,144
216,63
216,71
216,153
