# Number of vertices:
250
# Edge list:
64,0
106,0
148,0
190,0
65,0
107,0
149,0
191,0
66,0
108,0
150,0
192,0
67,0
109,0
151,0
193,0
68,64
110,64
152,64
194,64
69,64
111,64
153,64
195,64
70,64
112,64
154,64
196,106
71,106
113,106
155,106
197,106
72,106
114,106
156,106
198,106
73,148
115,148
157,148
199,148
74,148
116,148
158,148
200,148
75,148
117,190
159,190
201,190
18,190
76,190
118,190
160,190
202,65
77,65
119,107
161,107
4,107
203,107
78,107
120,149
162,149
16,149
204,191
79,191
121,191
163,191
14,66
205,66
80,108
122,108
164,108
3,108
206,108
19,108
81,108
123,108
165,108
207,108
17,108
82,108
124,150
166,150
208,150
83,150
125,150
167,150
2,192
209,192
84,192
126,192
168,192
15,192
210,192
21,192
85,67
127,67
169,67
211,67
20,109
86,109
128,109
170,109
212,109
1,109
87,109
129,109
171,109
213,109
88,109
130,151
172,151
10,151
214,151
89,151
131,151
173,151
6,193
215,193
90,193
132,193
174,68
216,110
91,110
133,110
175,110
11,110
217,110
92,110
134,110
176,152
8,69
218,69
93,69
135,69
177,69
219,69
94,111
136,111
178,111
7,111
220,111
95,111
137,111
179,111
5,111
221,111
96,111
138,111
180,153
222,153
97,153
139,153
181,195
9,195
223,195
98,195
140,195
182,195
224,195
99,195
141,70
183,70
225,70
100,70
142,70
184,70
226,70
101,70
143,70
185,70
227,70
102,70
144,112
186,112
228,154
103,154
145,154
187,154
13,154
229,154
104,154
146,154
188,154
12,196
230,196
105,196
147,196
189,196
231,196
22,196
232,196
23,196
233,196
24,196
234,196
25,196
235,71
26,71
236,71
27,71
237,71
28,71
238,113
29,113
239,113
30,113
240,113
31,113
241,113
32,113
242,155
33,155
243,155
34,155
244,155
35,155
245,155
36,155
246,155
37,155
247,155
38,155
248,197
39,197
249,197
40,197
41,197
42,197
43,197
44,197
45,197
46,197
47,72
48,72
49,72
50,114
51,114
52,114
53,114
54,114
55,114
56,114
57,114
58,114
59,156
60,156
61,156
62,156
63,198
112,190
112,107
154,192
154,108
154,109
154,193
154,191
154,190
154,149
154,66
159,148
159,151
159,192
159,66
159,109
160,109
160,151
160,66
160,191
2,190
2,193
2,148
2,67
2,107
2,191
2,65
126,191
126,148
126,65
126,190
126,193
126,67
126,150
21,64
21,149
21,109
127,148
127,109
211,65
211,193
211,192
211,107
211,190
211,66
211,64
211,191
211,106
211,149
86,151
128,190
128,66
128,149
128,192
128,108
128,106
128,67
128,150
212,66
212,150
212,149
212,107
212,191
212,108
212,192
1,66
1,65
1,190
1,193
1,106
1,150
1,108
87,64
172,65
172,191
172,149
172,67
172,109
172,192
172,107
179,157
179,14
179,71
179,154
179,129
179,208
179,121
96,112
96,69
184,16
184,19
184,202
184,132
184,21
187,78
187,74
187,169
187,18
187,125
187,20
187,128
104,69
104,81
104,210
104,194
22,76
22,73
22,1
22,194
22,79
22,85
22,153
22,195
22,14
23,123
23,206
23,4
23,3
23,6
23,77
23,154
23,15
23,71
23,159
26,15
26,114
26,155
26,128
26,213
26,70
26,160
26,158
26,171
243,127
243,199
243,81
243,200
243,116
53,211
53,172
61,122
61,71
61,75
61,18
61,173
61,202
