# Number of vertices:
250
# Edge list:
100,0
142,0
184,100
101,100
143,100
185,100
102,100
144,142
186,142
103,142
145,184
187,184
227,184
238,184
104,184
146,184
188,184
105,184
147,184
189,184
106,101
148,101
190,101
107,101
149,101
191,143
108,143
150,143
192,143
226,143
237,143
109,143
151,143
193,143
110,185
152,185
194,185
111,185
153,185
195,185
230,185
112,185
154,185
196,102
244,102
113,102
155,102
197,102
225,102
236,102
114,102
156,102
198,102
115,102
157,102
199,144
241,144
116,144
158,144
200,144
247,144
117,144
159,186
201,186
245,145
118,145
160,187
202,187
224,187
235,187
119,187
161,187
203,227
120,227
162,227
204,227
242,227
121,227
163,227
205,227
248,227
122,227
164,238
206,238
246,238
123,238
165,238
207,104
223,146
234,146
124,146
166,146
208,146
125,188
167,188
209,188
243,188
126,188
168,188
210,188
1,188
232,188
127,188
169,188
211,105
231,105
2,105
128,147
170,147
212,147
229,147
3,147
129,147
171,147
213,147
228,147
4,189
130,189
172,189
214,189
5,189
131,189
173,189
215,189
6,189
132,106
174,106
216,106
7,106
133,106
175,106
217,106
8,106
134,106
176,106
218,106
9,148
135,148
177,190
219,190
10,190
136,107
178,107
220,107
249,107
11,107
137,149
179,149
12,149
138,149
180,149
222,149
13,149
139,149
98,149
181,149
240,149
14,149
140,149
182,149
239,191
15,191
141,191
183,191
233,191
16,191
58,191
17,108
59,108
99,108
18,150
60,150
19,150
61,150
20,150
62,150
21,150
63,150
22,150
64,150
221,226
23,226
65,226
24,226
66,226
25,226
67,226
26,226
68,226
27,226
69,226
28,226
70,226
29,226
71,237
30,237
72,237
31,237
73,237
32,237
74,237
33,237
75,109
34,109
76,109
77,109
35,109
36,109
78,109
37,109
79,151
38,151
80,151
39,110
81,110
40,110
82,110
41,110
83,110
42,110
84,110
43,110
85,110
44,110
86,152
45,152
87,152
46,152
88,152
47,152
89,152
48,152
90,152
49,152
91,152
50,152
92,152
51,152
93,194
52,194
94,194
53,194
95,194
54,194
96,194
55,194
97,194
56,111
57,111
145,185
145,101
145,143
147,102
147,185
147,186
147,103
147,144
148,184
148,103
148,144
148,143
148,102
148,186
148,185
191,185
191,186
108,186
108,185
108,184
108,144
108,103
108,102
108,101
196,184
196,143
196,144
196,185
196,186
196,101
196,103
244,184
244,143
244,101
244,103
244,144
244,185
244,186
156,186
205,156
205,241
205,151
168,187
168,105
168,155
168,108
168,191
168,159
168,244
174,226
174,105
174,116
174,111
174,147
174,107
174,145
174,117
177,112
13,113
240,198
240,106
240,191
240,225
240,105
240,192
240,113
240,114
240,157
182,230
182,187
182,194
182,158
182,189
15,201
15,117
15,159
15,236
60,194
61,115
61,105
61,236
61,152
61,194
61,146
61,106
61,226
61,190
221,149
221,112
65,154
65,237
65,195
65,236
65,156
65,117
74,108
74,200
74,153
74,196
76,113
76,105
76,116
76,200
76,111
76,146
42,225
42,151
42,156
42,117
42,149
42,191
43,145
92,112
92,108
92,111
92,187
92,188
92,151
92,153
92,244
92,230
92,199
