# Number of vertices:
250
# Edge list:
178,0
220,0
179,0
221,0
180,0
222,0
181,0
223,0
182,0
224,0
183,0
225,0
184,0
226,0
185,0
227,0
186,0
228,0
187,0
229,0
188,0
230,0
189,0
231,0
190,0
232,0
191,178
233,178
192,178
234,178
193,178
235,178
194,178
236,178
195,178
237,220
196,220
238,220
9,220
197,220
239,220
198,220
240,220
93,220
199,220
241,220
200,220
242,220
201,179
243,179
202,179
244,179
203,179
245,179
204,179
246,179
205,179
247,179
206,179
248,179
135,179
207,179
249,221
208,221
209,221
210,221
211,221
212,221
213,221
214,221
215,221
216,221
217,180
177,180
218,180
219,180
10,180
52,180
94,180
136,180
11,180
53,180
95,222
137,222
12,222
54,222
96,222
138,222
13,222
55,222
97,222
139,222
14,222
56,222
98,181
140,181
15,181
57,181
99,181
141,181
16,181
58,181
100,182
142,182
17,182
59,182
101,182
143,182
18,182
60,182
102,182
144,182
19,182
61,182
103,182
145,182
20,224
62,224
104,224
146,224
21,224
63,184
105,184
147,184
22,184
64,184
106,184
148,184
23,184
65,184
107,226
149,226
24,226
66,226
108,226
150,226
25,226
67,185
109,227
151,227
26,227
68,227
110,186
152,186
27,186
69,186
111,186
153,228
28,228
70,228
112,228
154,187
29,187
71,187
113,187
155,187
72,187
30,187
114,229
156,188
31,188
73,188
115,188
157,188
32,188
74,230
116,230
158,230
33,230
75,230
117,230
159,230
34,230
76,230
118,189
160,189
35,189
77,189
119,189
161,189
36,189
78,189
120,189
162,189
37,231
79,231
121,231
163,231
38,231
80,231
122,231
164,231
39,231
81,190
123,190
165,232
40,232
82,232
124,232
166,232
41,232
83,232
125,232
167,191
42,191
84,191
126,191
1,191
168,191
43,191
85,191
127,191
169,191
2,191
44,191
86,233
128,233
170,233
3,233
45,233
87,233
129,233
171,233
4,192
46,192
88,234
130,234
172,234
5,234
47,193
89,193
131,193
173,193
6,193
48,193
90,193
132,193
174,193
7,193
49,193
91,193
133,193
175,235
8,235
50,235
92,235
134,235
176,235
51,235
191,186
191,188
191,226
191,184
191,220
191,225
198,183
198,222
198,225
198,181
198,185
202,182
202,224
202,227
202,184
202,220
214,182
214,187
214,184
214,229
218,183
218,187
218,230
218,182
10,232
10,231
10,221
10,220
10,181
10,188
10,185
11,179
11,185
11,221
137,229
137,182
137,232
137,187
137,179
137,231
139,223
139,220
139,230
139,186
139,180
139,190
139,183
139,224
139,228
139,226
146,187
21,226
21,188
21,220
21,189
21,227
21,228
21,181
21,182
148,224
148,220
148,230
148,181
148,226
148,190
148,189
148,187
148,185
65,179
65,224
65,182
65,223
65,221
65,190
65,186
152,190
152,221
152,189
152,228
152,224
71,190
71,178
71,232
71,188
71,223
72,178
72,180
72,226
72,179
73,185
73,229
73,190
73,183
73,226
73,222
73,230
73,228
32,223
32,222
32,184
33,225
33,190
33,183
33,189
33,186
33,223
33,188
33,179
168,9
168,161
168,156
168,60
168,11
168,145
44,12
171,245
171,159
171,177
5,10
5,55
5,64
5,61
5,165
49,155
