# Number of vertices:
250
# Edge list:
42,0
84,0
210,0
1,0
43,0
85,0
211,0
2,0
44,0
86,0
212,0
3,0
45,0
87,0
213,0
4,0
46,0
88,0
214,0
5,0
47,0
89,0
215,0
6,0
48,0
90,0
216,0
7,0
49,0
91,0
217,42
8,42
50,42
92,42
218,42
9,42
51,42
93,42
219,42
10,42
52,42
94,84
220,84
11,84
53,84
95,84
221,84
12,84
54,84
96,84
222,84
13,84
55,84
97,84
223,210
14,210
56,210
98,1
224,1
15,1
57,1
99,1
225,1
16,1
58,43
100,43
226,43
17,43
59,43
101,43
227,43
18,43
60,43
102,43
228,43
61,43
19,43
103,43
229,85
62,85
20,85
104,85
230,85
21,85
63,85
105,85
231,85
22,211
64,211
106,211
232,211
23,211
65,211
107,211
233,2
24,2
66,2
108,2
234,2
25,2
67,2
109,2
235,44
26,44
68,44
110,86
236,212
27,212
69,212
111,212
237,212
28,212
70,3
112,3
238,3
29,3
71,3
113,3
239,3
30,3
72,3
114,3
240,3
31,3
73,3
115,87
241,87
32,87
74,87
116,87
242,87
33,87
75,87
117,87
243,87
34,213
76,213
118,213
244,213
35,213
77,213
119,213
245,213
36,213
78,213
120,213
246,213
37,4
79,4
121,4
247,4
38,4
80,4
122,4
248,4
39,4
81,46
123,46
249,46
40,46
82,46
124,46
41,46
83,46
125,46
126,46
168,88
127,88
169,88
128,214
170,214
129,214
171,214
130,214
172,214
131,214
173,214
132,214
174,214
133,214
175,214
134,214
176,5
135,5
177,5
136,5
178,5
137,47
179,89
138,89
180,89
139,89
181,89
140,89
182,89
141,89
183,6
142,6
184,6
143,6
185,6
144,6
186,48
145,48
187,90
146,90
188,90
147,90
189,90
148,90
190,90
149,216
191,216
150,216
192,216
151,216
193,216
152,7
194,7
153,7
195,7
154,7
196,7
155,7
197,7
156,7
198,7
157,7
199,7
208,7
158,7
200,49
159,49
201,49
160,49
202,49
161,49
203,91
162,91
204,91
209,91
163,91
205,91
164,91
206,217
165,217
207,217
166,217
167,8
52,86
52,7
52,85
52,3
220,1
220,44
220,213
220,42
220,210
220,46
220,87
220,43
220,91
95,4
54,2
54,91
54,5
14,46
14,45
59,48
59,45
59,91
59,213
59,215
59,5
240,214
240,49
240,89
240,1
240,45
240,6
240,88
240,7
115,85
115,210
32,90
32,88
32,47
32,43
32,86
32,214
32,7
76,6
76,210
76,90
76,215
126,6
154,45
154,4
154,43
154,212
154,5
208,44
159,85
159,5
159,86
159,216
159,44
159,90
204,88
204,42
204,46
163,47
163,85
163,90
163,215
163,84
163,213
163,211
163,216
163,46
163,49
