# Number of vertices:
250
# Edge list:
196,0
109,0
151,0
219,0
217,0
110,0
152,0
215,0
111,0
153,0
213,196
112,196
154,196
211,196
113,196
155,109
114,109
156,109
220,109
218,109
115,109
157,109
216,109
116,109
158,109
214,109
117,151
159,151
212,151
118,151
160,151
119,151
161,151
195,151
120,151
162,151
194,151
121,151
163,219
193,219
122,219
164,219
192,219
123,219
165,219
191,219
124,219
166,217
208,217
125,217
167,217
225,217
189,217
126,217
168,217
1,217
203,217
127,217
169,217
200,217
2,110
128,110
170,110
197,110
3,110
129,110
171,110
209,110
4,152
130,152
172,152
206,152
5,152
131,152
204,152
6,215
132,215
201,215
7,215
133,215
198,215
8,215
134,215
210,215
9,215
135,111
207,111
10,111
136,153
205,153
11,153
137,153
202,153
107,153
12,153
138,153
199,153
13,153
139,213
14,213
140,213
188,213
15,213
141,213
190,213
16,213
142,213
108,213
17,213
143,213
224,112
18,112
144,112
222,112
19,112
145,112
226,112
20,112
146,112
223,154
21,211
147,211
221,211
22,211
148,211
228,211
173,211
23,211
149,211
227,211
24,113
150,113
182,113
25,113
67,113
176,113
26,113
68,113
183,113
27,113
69,113
180,155
28,155
70,155
175,155
29,155
71,155
178,155
30,155
72,155
181,114
247,114
31,156
73,156
184,156
32,156
74,156
174,156
244,156
33,220
75,220
177,220
34,220
76,220
185,220
35,220
77,220
179,220
236,220
36,220
78,220
235,218
186,218
37,218
79,218
187,218
246,218
38,218
80,218
243,218
39,218
81,218
40,218
82,115
242,115
41,115
83,157
42,157
84,157
234,157
43,157
85,157
233,157
44,157
86,216
45,216
87,216
46,216
88,216
47,216
89,216
241,216
48,216
90,216
49,216
91,116
50,116
92,116
231,116
51,158
93,158
232,158
52,158
94,158
240,158
53,158
95,158
239,158
54,158
96,214
55,214
97,214
56,214
98,214
57,214
99,214
230,214
58,214
100,214
59,214
101,214
238,214
60,214
102,117
237,117
61,117
103,117
229,159
62,159
104,159
249,212
63,118
105,118
64,118
106,118
245,118
248,118
65,118
66,118
211,110
211,153
211,111
211,215
211,109
211,151
211,152
211,217
211,219
114,111
216,215
120,217
120,111
120,196
120,219
120,110
120,109
120,215
120,153
189,215
189,219
189,111
5,110
5,219
5,109
5,215
14,161
14,172
14,202
14,157
14,211
148,170
148,200
148,10
148,3
148,166
148,213
148,207
148,135
148,154
67,9
67,193
67,198
67,12
67,112
67,121
178,193
178,121
178,165
178,107
178,5
178,118
184,166
184,163
184,3
184,115
184,7
184,160
184,168
184,170
184,137
184,191
177,210
243,4
242,123
242,191
242,214
242,163
42,137
42,163
42,191
44,120
48,195
231,206
231,134
231,124
231,204
231,156
231,7
231,171
52,172
94,192
94,116
94,172
94,167
94,203
94,112
94,12
94,8
94,201
95,209
61,112
61,8
61,156
61,119
61,133
61,225
62,129
62,165
62,116
