# Number of vertices:
250
# Edge list:
6,0
7,0
49,0
133,0
217,0
8,0
50,0
134,0
5,0
218,0
9,0
51,0
135,0
219,0
10,0
52,0
136,0
4,0
220,0
11,0
53,0
137,0
221,0
12,0
54,0
138,0
3,0
222,0
13,0
55,0
139,6
2,6
223,6
1,6
14,6
56,6
140,6
224,6
15,6
57,6
141,6
225,6
16,7
58,7
142,7
226,7
17,49
59,49
143,49
227,49
18,49
60,49
144,49
228,49
19,49
61,49
145,49
229,49
20,133
62,133
146,133
230,133
21,133
63,133
147,133
231,217
22,217
64,217
148,217
232,8
23,50
65,50
149,50
233,50
24,50
66,50
150,50
234,50
25,50
67,50
151,134
235,134
68,134
26,134
152,134
236,134
69,134
27,134
153,134
237,134
28,134
70,134
154,5
238,5
29,5
71,218
155,218
239,218
30,218
72,218
156,218
240,218
31,218
73,218
157,51
241,51
32,51
74,51
158,51
242,51
33,51
75,51
159,51
215,135
243,135
34,135
76,135
160,135
244,135
35,135
77,135
161,219
245,219
36,219
78,219
162,10
246,10
37,10
79,10
163,10
247,10
38,10
80,10
164,10
216,10
248,10
39,52
81,52
165,52
249,52
40,52
82,52
166,52
41,52
83,52
167,52
42,52
84,52
168,52
43,136
85,136
169,136
44,136
86,4
170,4
45,4
87,4
171,4
46,4
88,4
172,4
47,4
89,4
173,4
48,4
90,4
174,4
91,220
175,220
92,220
176,220
93,220
177,220
94,220
178,220
95,220
179,220
96,220
180,220
97,11
181,53
98,53
182,53
99,53
183,53
100,53
184,53
101,53
185,53
102,137
186,137
103,137
187,137
104,137
188,137
105,137
189,137
106,137
190,137
107,221
191,12
108,12
192,12
109,12
193,12
110,12
194,12
111,12
195,12
112,54
196,138
113,138
197,138
114,138
198,138
115,138
199,138
116,138
200,138
117,138
201,3
118,3
202,3
119,3
203,3
120,3
204,3
121,3
205,3
122,3
206,3
123,222
207,222
124,222
208,222
125,13
209,13
126,13
210,13
127,55
211,139
128,139
212,139
129,139
213,2
130,2
214,2
131,2
132,2
1,13
1,134
1,10
1,136
1,55
1,219
1,54
1,218
1,53
1,221
16,11
16,9
16,138
16,55
16,218
144,10
144,8
144,55
144,134
144,220
144,219
144,137
145,138
145,50
145,136
145,134
229,9
229,7
229,4
229,218
229,52
229,222
229,51
229,10
229,133
70,49
70,217
70,222
70,12
70,52
70,138
70,9
70,3
70,50
29,133
29,12
29,6
29,3
29,218
29,8
29,135
72,6
72,133
72,51
72,137
72,221
72,5
72,136
72,217
72,3
240,135
240,133
240,51
32,137
32,220
32,221
32,135
32,5
32,55
36,51
36,52
36,220
36,10
36,9
36,135
36,49
36,136
92,219
92,10
92,9
92,50
92,217
92,133
92,136
92,54
92,135
190,55
190,133
190,135
190,6
190,9
190,3
190,5
211,74
211,121
211,207
211,155
211,153
130,185
130,127
130,199
130,204
130,78
130,139
130,247
130,112
132,195
132,71
132,208
132,46
132,114
132,164
132,234
