# Number of vertices:
250
# Edge list:
4,0
46,0
214,0
5,0
47,0
215,0
6,0
48,0
216,0
7,0
49,0
217,0
8,0
50,0
218,0
9,0
51,0
219,4
10,4
52,4
220,4
11,4
53,4
221,4
12,4
54,4
222,46
13,46
55,46
223,46
14,46
56,46
224,46
15,46
57,46
225,46
16,46
58,46
226,214
17,5
59,5
227,5
18,5
60,5
228,5
19,5
61,47
229,47
129,215
20,215
62,215
230,215
21,215
63,215
231,6
22,6
64,6
232,6
23,48
65,48
233,216
66,216
24,216
234,216
25,216
67,7
235,7
26,7
68,7
236,7
27,7
69,7
237,7
171,7
28,217
70,217
238,217
29,217
71,217
239,217
30,217
72,217
240,217
31,217
73,217
241,217
32,217
74,217
242,8
33,8
75,8
243,8
34,8
76,8
244,8
35,8
77,50
245,50
36,50
78,50
246,50
37,50
79,50
247,50
38,50
80,50
213,50
248,50
39,50
81,50
249,218
40,218
82,218
41,9
83,9
42,9
84,51
43,51
85,51
44,51
86,51
45,51
87,51
88,51
130,51
172,219
89,219
131,219
173,219
90,219
132,219
174,10
91,10
133,52
175,220
92,220
134,220
176,220
93,220
135,220
177,220
94,220
136,220
178,220
95,220
137,220
179,11
96,11
138,11
180,11
97,11
139,11
181,11
98,11
140,53
182,53
99,53
141,53
183,53
100,53
142,53
184,221
101,221
143,221
185,221
102,221
144,221
186,221
103,221
145,221
187,12
104,12
146,12
188,12
105,12
147,12
189,54
106,54
148,54
190,54
107,54
149,54
191,54
108,54
150,54
192,222
109,222
151,222
193,222
110,222
152,222
194,222
111,13
153,13
195,13
112,13
154,13
196,13
113,13
155,13
197,13
114,13
156,13
198,13
115,13
157,13
199,55
116,223
158,223
200,223
117,14
159,14
201,14
118,14
160,14
202,14
119,56
161,56
203,56
120,56
162,56
204,224
121,224
163,224
205,224
122,224
164,224
206,224
123,224
165,224
207,224
124,224
166,224
208,224
125,224
167,15
209,15
126,15
168,15
210,15
1,15
127,15
169,15
211,15
2,15
128,15
170,15
212,15
3,15
11,215
221,9
221,46
221,47
221,216
221,6
221,8
221,51
221,215
221,5
221,214
57,48
233,46
233,5
233,8
233,217
233,215
233,51
233,214
236,218
236,50
236,4
236,51
236,8
237,50
237,46
237,48
243,217
243,216
34,50
78,217
213,4
213,8
213,47
213,5
249,46
249,216
178,57
178,231
178,23
180,239
140,85
99,66
99,36
99,245
99,238
99,241
99,70
99,222
99,13
99,244
142,229
142,34
142,249
142,241
142,38
142,171
142,43
142,224
142,62
142,64
148,35
148,31
148,221
148,70
148,219
148,34
148,61
148,243
148,129
107,24
107,38
107,61
150,234
160,41
160,69
160,19
160,11
160,221
160,86
160,27
160,129
160,43
161,54
161,34
163,242
163,70
163,231
163,38
163,36
163,10
163,77
163,54
163,245
167,81
