# Number of vertices:
100
# Edge list:
10,0
95,0
11,0
12,0
13,0
14,0
15,0
16,0
17,0
18,0
19,0
94,0
20,0
96,0
21,0
22,10
97,10
23,10
98,10
24,12
99,12
25,12
26,12
27,13
28,13
29,14
30,14
31,14
32,14
33,15
34,15
35,15
36,15
37,16
38,16
39,16
40,18
41,18
42,18
1,18
43,19
2,94
44,94
3,94
45,20
4,20
46,20
5,96
47,96
6,96
48,96
7,21
49,22
50,97
8,97
51,97
9,98
52,98
53,98
54,98
55,24
56,99
57,99
58,99
59,27
60,27
61,28
62,28
63,29
64,29
65,30
66,30
67,30
68,30
69,31
70,31
71,32
72,32
73,35
74,35
75,35
76,36
77,38
78,38
79,39
80,39
81,40
82,40
83,40
84,40
85,41
86,41
87,42
88,42
89,1
90,1
91,1
92,2
93,44
28,17
31,12
31,11
31,95
31,19
31,15
55,42
55,1
66,24
70,6
70,27
70,22
70,26
78,32
78,31
78,36
78,99
80,22
89,48
