# Number of vertices:
100
# Edge list:
77,0
78,0
79,0
80,0
81,0
82,0
83,0
84,0
85,0
86,77
87,77
88,78
89,78
90,78
91,80
92,80
93,81
94,82
95,82
96,82
97,82
98,83
99,83
34,83
35,84
36,84
37,84
40,84
53,85
45,85
67,86
1,86
73,86
2,87
60,88
41,88
3,88
66,90
4,90
59,90
5,91
46,91
6,91
63,92
7,92
47,92
8,92
9,93
42,94
10,94
71,97
11,97
74,97
12,97
43,98
57,98
13,98
48,98
14,99
15,99
51,99
49,99
16,34
17,34
50,34
18,34
52,35
19,36
75,36
20,36
72,36
21,37
22,45
65,45
44,45
23,45
61,67
24,67
56,67
25,1
26,1
54,73
39,73
27,73
55,2
28,2
58,2
29,60
30,60
76,41
64,41
31,41
32,41
68,3
69,66
33,66
62,66
38,66
70,5
91,83
91,82
91,84
96,84
96,79
96,83
96,78
99,78
99,82
99,81
99,77
47,93
47,94
47,89
10,96
10,87
10,37
11,96
13,91
13,35
13,88
49,34
72,95
72,40
56,15
56,1
56,59
56,16
56,4
28,19
29,51
62,14
