# Number of vertices:
100
# Edge list:
2,0
85,0
87,0
73,0
94,0
86,0
74,0
96,0
82,0
75,2
89,2
83,2
92,2
84,85
80,85
95,73
81,73
77,73
91,94
78,94
79,86
93,86
76,86
90,86
88,74
11,74
60,74
57,74
51,82
12,82
64,89
52,89
32,89
56,89
29,83
39,83
38,92
31,92
42,92
50,84
28,84
13,80
35,80
7,95
97,95
99,95
14,81
8,81
61,81
41,81
67,91
30,91
58,78
15,78
47,78
10,78
43,79
45,79
68,79
6,79
16,93
53,93
3,93
66,76
65,76
17,76
54,76
62,90
25,88
98,88
1,11
34,11
18,11
69,60
36,60
26,60
37,60
70,57
19,57
63,57
40,51
20,12
59,52
21,52
44,52
5,56
33,56
22,56
46,56
72,29
27,29
4,39
49,39
9,39
71,39
23,38
55,38
48,38
24,31
89,86
89,85
89,96
89,87
95,86
64,80
29,12
61,83
61,75
61,77
61,78
15,75
15,60
15,83
15,90
