# Number of vertices:
100
# Edge list:
20,0
19,0
18,0
17,0
16,0
15,0
14,0
5,0
13,0
3,0
12,0
11,0
10,0
9,0
8,0
7,0
6,19
4,18
2,18
1,17
21,17
63,17
22,17
64,16
23,16
65,16
24,15
66,15
25,5
67,5
26,5
68,5
27,13
69,13
28,13
70,3
29,3
71,3
30,12
72,12
31,9
73,9
32,9
74,8
33,8
75,7
34,7
76,7
35,6
77,6
36,4
78,4
37,4
79,2
38,1
80,1
39,21
81,63
40,63
82,63
41,22
83,22
42,64
84,65
43,65
85,65
44,65
86,66
45,66
87,66
46,66
88,25
47,67
89,67
48,67
90,26
49,26
91,27
50,27
92,27
51,27
93,69
52,69
94,69
53,28
95,28
54,28
96,29
55,71
97,30
56,30
98,30
57,72
99,72
58,72
59,72
60,31
61,31
62,31
24,14
30,15
30,18
30,7
30,10
39,65
82,27
46,31
46,30
46,1
46,74
46,64
54,70
54,72
57,4
57,31
99,21
99,66
99,65
99,30
99,63
