# Number of vertices:
100
# Edge list:
23,0
65,0
24,0
66,0
25,0
67,0
26,0
68,0
27,0
69,23
28,65
70,65
29,65
71,65
30,24
72,24
31,24
73,66
32,66
74,66
33,25
75,25
34,25
76,25
35,67
77,67
36,26
78,68
37,68
79,68
38,27
80,27
39,27
81,27
40,69
82,69
41,69
83,28
42,29
84,29
1,29
43,29
85,71
2,30
44,30
86,31
3,31
45,73
87,32
4,32
46,32
88,74
5,74
47,74
89,74
6,33
48,33
90,34
7,34
49,76
91,76
8,76
50,76
92,35
9,35
51,35
93,35
10,77
52,36
94,37
11,37
53,79
95,79
12,79
54,38
96,38
13,39
55,39
97,81
14,40
56,40
98,40
15,82
57,41
99,41
16,41
58,83
17,83
59,83
18,43
60,85
19,2
61,2
20,2
62,2
63,86
21,3
64,87
22,87
79,23
39,26
39,68
39,65
41,38
47,73
47,33
47,69
7,74
7,69
7,80
7,29
96,80
96,28
96,75
96,69
96,74
55,71
