# Number of vertices:
100
# Edge list:
38,0
39,0
40,0
41,0
42,0
1,0
43,0
2,0
44,0
3,0
45,0
4,38
46,38
5,38
47,39
6,39
48,39
7,40
49,41
8,41
50,41
9,42
51,42
10,43
52,43
11,2
53,2
12,2
54,44
13,44
55,3
14,3
56,45
15,45
57,45
58,45
16,4
17,4
59,46
18,46
60,46
19,5
61,5
20,6
62,7
21,49
63,49
22,49
64,8
23,8
65,8
24,9
66,9
25,9
67,9
26,51
68,51
27,51
69,51
28,10
70,52
29,12
71,12
30,54
72,54
31,54
73,54
32,55
74,55
33,14
75,14
34,14
76,14
35,15
77,15
36,57
78,57
37,58
79,58
80,58
81,58
82,16
83,16
84,18
85,18
86,18
87,18
88,19
89,19
90,19
91,19
92,61
93,61
94,61
95,20
96,20
97,20
98,62
99,21
59,14
59,8
59,53
59,11
59,4
68,5
69,7
69,10
69,52
70,49
30,14
77,6
77,4
77,51
80,53
80,49
80,7
80,47
83,34
83,17
83,24
83,27
83,25
94,23
94,72
94,27
94,36
