# Number of vertices:
100
# Edge list:
41,0
72,0
44,0
69,0
67,0
62,0
49,0
15,0
16,0
60,0
74,0
61,0
55,0
35,0
53,0
22,41
48,44
37,44
75,44
73,44
47,67
70,62
80,62
39,62
77,49
66,15
89,15
71,60
94,74
24,74
65,74
76,61
97,61
82,55
38,55
36,35
95,22
45,22
90,22
43,22
91,48
63,48
83,37
88,37
78,75
51,75
92,75
46,73
79,73
52,80
98,80
64,80
59,39
40,66
58,71
99,71
57,71
50,94
86,94
84,94
96,94
81,24
42,24
68,65
34,65
85,65
56,65
93,76
54,76
87,76
23,97
13,97
1,97
14,97
17,82
28,82
4,82
32,38
26,38
25,38
30,36
11,36
12,90
33,90
29,90
8,90
10,43
3,43
31,91
20,91
27,63
21,63
2,63
9,63
5,83
19,83
18,83
6,83
7,88
37,53
37,60
37,67
37,72
75,49
75,15
75,67
75,61
70,53
80,44
71,49
71,62
71,35
71,67
71,15
38,15
38,16
38,67
92,22
81,94
42,37
42,76
42,22
3,23
