# Number of vertices:
100
# Edge list:
30,0
31,0
32,0
74,0
33,0
75,0
34,0
76,0
35,0
77,0
36,0
78,0
37,0
79,0
38,0
80,0
39,30
81,30
40,31
82,31
41,31
83,74
42,74
84,74
1,33
43,33
85,33
2,33
44,75
86,75
3,75
45,75
87,76
4,76
46,35
88,35
5,35
47,35
89,77
6,77
48,77
90,78
7,78
49,78
91,78
8,37
50,79
92,80
51,80
9,80
93,80
52,39
10,39
94,39
11,39
53,81
95,40
12,40
54,82
96,82
13,82
55,42
97,42
14,42
56,42
98,1
15,1
57,43
99,43
16,85
58,85
17,85
59,2
18,2
60,86
19,86
61,86
20,86
62,3
21,3
63,45
22,45
64,45
23,87
65,87
24,87
66,87
25,4
67,4
26,4
68,46
27,88
69,88
28,88
70,5
29,5
71,47
72,47
73,47
86,78
46,75
46,30
9,36
9,30
9,79
9,77
52,90
52,83
52,47
52,6
52,1
53,4
53,88
53,3
53,40
53,85
55,86
55,7
55,8
60,4
60,8
61,92
66,9
66,92
66,51
67,46
67,83
69,9
69,41
69,81
69,1
69,86
