# Number of vertices:
100
# Edge list:
1,0
88,0
2,0
3,0
4,0
5,0
89,0
6,0
48,0
90,0
7,0
49,0
91,0
8,0
50,1
92,1
9,88
51,88
93,88
10,88
52,2
94,2
11,2
53,4
95,5
12,5
54,5
96,5
13,48
55,48
97,48
14,48
56,90
98,49
15,8
57,9
99,9
16,9
58,9
17,51
59,51
18,93
60,93
19,93
61,10
20,52
62,52
21,94
63,94
22,94
64,94
23,11
65,11
24,11
66,53
67,53
25,53
68,53
26,95
27,95
69,95
28,95
70,12
29,54
71,96
30,96
72,96
31,96
73,13
32,55
74,97
33,97
75,97
34,97
76,14
35,56
77,56
36,15
78,15
37,15
79,15
38,57
80,16
39,16
81,16
40,58
82,17
41,19
83,19
42,19
84,20
43,20
85,20
44,20
86,62
45,21
87,21
46,22
47,22
94,3
95,6
95,91
95,48
55,91
14,89
14,88
14,1
14,4
14,7
60,97
62,55
62,92
30,94
30,13
30,53
30,97
30,14
31,15
31,11
31,98
31,95
76,98
76,15
76,56
76,10
76,13
35,10
35,9
81,59
85,64
85,16
47,78
47,99
47,74
47,64
47,79
