# Number of vertices:
100
# Edge list:
99,0
91,0
98,0
81,0
97,0
96,0
83,0
95,0
94,0
80,0
93,0
79,0
92,91
74,91
78,91
90,98
77,98
89,98
88,98
87,81
82,81
76,97
86,97
85,97
75,97
84,96
21,96
65,96
20,83
59,83
58,83
9,95
8,95
64,95
63,94
18,94
4,94
73,94
16,80
72,80
17,79
62,79
68,92
12,74
61,74
27,78
71,78
11,77
60,89
13,89
70,89
15,89
69,88
56,87
10,87
6,82
66,82
7,76
67,76
5,86
57,86
28,86
55,86
25,21
1,65
40,65
14,65
54,20
30,20
53,20
26,20
32,59
43,59
52,59
31,58
38,58
29,58
37,58
51,9
19,8
2,8
23,8
36,8
50,64
22,64
35,18
3,4
49,4
24,4
42,73
48,16
41,17
47,17
46,17
34,62
45,62
33,62
39,68
44,68
86,94
86,83
86,99
65,94
65,91
65,99
65,98
65,83
4,83
4,97
6,74
7,89
5,59
5,20
40,85
46,78
46,21
46,85
46,62
46,20
