# Number of vertices:
100
# Edge list:
18,0
23,0
24,0
19,0
21,0
22,0
28,18
93,24
13,24
30,24
32,19
11,19
27,19
15,22
29,22
17,22
98,22
25,28
12,28
10,28
16,93
31,93
20,93
97,93
14,13
3,13
90,30
26,32
2,32
91,32
4,32
92,11
5,11
6,11
95,11
7,27
96,27
99,27
8,27
1,15
94,29
9,29
73,29
83,17
57,98
70,98
66,10
62,10
81,10
71,10
55,16
56,16
58,16
67,16
59,31
74,31
54,31
87,97
79,97
53,14
80,3
78,3
85,26
75,26
82,91
52,91
72,6
77,6
43,95
33,95
88,7
42,7
76,7
34,96
86,96
45,96
89,96
64,99
44,99
49,99
35,8
69,8
36,8
46,8
68,94
38,9
63,83
47,57
65,57
37,66
50,62
60,62
39,62
41,62
48,71
84,71
51,55
61,55
40,56
11,22
11,24
11,18
11,21
11,23
98,18
98,21
98,19
98,23
7,13
96,17
96,32
96,30
96,29
52,14
52,7
52,90
52,95
64,6
64,95
64,20
64,91
64,3
