# Number of vertices:
100
# Edge list:
23,0
24,0
25,0
26,0
27,0
28,0
29,0
30,0
31,0
32,0
33,0
34,0
35,0
36,0
37,0
38,23
39,23
40,23
41,23
42,24
43,25
44,25
45,26
46,26
47,26
48,26
49,27
50,28
51,28
52,28
53,28
54,31
55,31
56,31
57,31
58,32
59,32
60,32
61,33
62,34
63,34
64,34
65,34
66,35
67,35
68,37
69,39
70,40
71,40
72,40
73,41
74,41
75,42
76,42
77,44
78,44
79,44
80,44
81,46
82,46
83,46
84,49
1,49
85,51
2,51
86,51
3,53
87,54
4,55
88,55
5,56
89,57
6,58
90,58
7,58
91,59
8,59
92,59
9,60
93,60
10,60
94,61
11,61
95,61
12,62
96,63
13,64
97,65
14,66
98,66
15,66
99,67
16,67
17,68
18,68
19,68
20,68
21,69
22,71
46,30
46,35
46,29
46,28
53,27
53,25
53,34
53,24
53,31
64,26
64,23
64,32
66,26
66,25
66,24
66,28
2,53
89,60
91,43
10,56
10,47
10,42
10,64
10,67
17,52
17,47
17,62
17,49
17,66
21,82
21,81
