# Number of vertices:
100
# Edge list:
1,0
43,0
85,0
2,0
44,0
86,0
3,1
45,85
87,85
4,85
46,85
88,2
5,2
47,44
89,86
6,86
48,3
90,3
7,3
49,46
91,46
8,88
50,5
92,5
9,5
51,5
93,47
10,89
52,6
94,48
11,90
53,90
95,7
12,49
54,49
96,91
13,91
55,91
97,8
14,8
56,50
98,50
15,50
57,92
99,92
16,92
58,9
17,51
59,51
18,51
60,93
19,93
61,10
20,10
62,52
63,52
21,52
22,52
64,11
23,11
65,11
24,12
66,12
25,12
67,12
26,96
68,96
27,13
69,13
28,13
70,13
29,55
71,55
30,97
72,97
31,97
73,97
32,14
74,14
33,14
75,14
34,98
76,98
35,98
77,15
36,15
78,57
37,99
79,99
38,99
80,99
39,16
81,16
40,58
82,59
84,60
41,60
83,19
42,20
89,85
89,43
91,89
91,87
91,5
91,88
50,3
50,6
50,89
50,46
93,6
55,92
55,93
55,50
55,9
97,91
97,92
97,90
97,9
61,52
61,48
75,62
75,54
75,22
34,62
36,99
36,14
36,20
36,97
36,63
82,54
41,99
41,94
41,61
