# Number of vertices:
100
# Edge list:
30,0
31,0
32,0
33,0
34,0
35,0
36,0
37,0
38,0
39,0
40,30
41,30
42,31
1,32
43,33
2,34
44,34
3,36
45,36
4,36
46,37
5,37
47,38
6,38
48,38
7,38
49,39
50,39
8,39
9,39
51,40
10,40
52,41
11,42
53,42
12,42
54,1
13,1
55,43
14,44
56,44
15,44
57,44
16,3
58,3
17,3
59,3
18,4
60,4
19,46
61,46
20,46
62,46
21,5
63,47
22,47
64,47
23,6
65,6
24,6
66,48
25,48
67,48
26,48
68,49
27,49
69,49
28,50
70,8
71,9
29,51
84,51
73,10
97,10
98,52
77,11
95,11
93,53
91,12
89,12
87,12
86,12
85,54
79,54
72,13
83,13
82,55
81,56
80,56
78,56
74,56
75,15
76,15
96,15
94,15
92,57
99,58
88,58
90,59
44,38
7,35
7,31
12,46
56,8
56,5
56,9
56,7
56,4
17,42
59,5
59,4
59,9
59,41
19,47
19,41
63,4
28,5
28,1
98,24
98,15
85,71
85,25
83,57
83,71
83,23
83,22
94,20
94,19
94,70
94,67
