# Number of vertices:
100
# Edge list:
2,0
1,0
98,0
8,0
5,2
4,1
11,98
99,98
12,98
13,8
14,5
6,4
3,11
10,99
9,99
7,99
29,12
88,12
27,12
63,13
73,13
55,6
18,6
61,3
15,3
87,3
56,3
23,10
17,10
37,10
60,10
16,7
52,7
72,27
96,27
53,63
19,73
59,73
76,73
94,73
57,55
39,55
95,18
58,18
24,61
43,61
77,15
21,15
51,87
71,87
54,56
45,56
50,56
83,56
30,23
89,23
81,17
79,17
85,17
33,17
75,37
22,37
62,37
49,60
38,60
64,16
35,16
82,16
47,16
46,52
84,52
86,52
80,72
36,72
90,96
93,96
34,96
68,96
91,19
25,19
42,19
70,59
32,59
28,59
20,59
92,76
31,94
97,94
69,94
44,94
66,57
65,57
41,39
78,39
67,39
48,39
74,95
40,95
26,95
88,5
88,99
88,4
88,11
87,6
53,6
53,27
53,10
53,73
76,29
76,88
76,27
76,10
76,6
57,17
57,18
57,96
95,17
95,76
95,61
95,23
95,37
71,37
71,23
71,53
45,17
45,53
93,17
93,61
93,19
93,15
93,53
