# Number of vertices:
100
# Edge list:
39,0
40,0
41,0
42,0
1,0
43,39
2,39
44,39
3,40
45,40
4,42
46,42
5,42
47,1
6,1
48,2
7,44
49,44
8,44
50,44
9,3
51,3
10,3
52,45
11,45
53,45
12,4
54,4
13,4
55,46
14,5
56,5
15,5
57,5
16,47
58,47
59,6
17,48
18,48
60,8
19,8
61,8
20,50
62,50
21,50
63,9
22,9
64,9
23,9
65,51
24,10
66,52
25,52
67,11
26,53
68,53
27,53
69,12
28,12
70,54
29,54
71,54
30,13
72,13
31,55
73,55
32,55
74,55
33,14
75,14
34,14
76,56
35,56
77,56
36,56
78,15
37,15
79,16
38,58
80,58
88,58
93,58
82,59
81,17
83,17
85,17
84,18
86,60
87,19
91,19
89,19
92,61
90,20
97,20
95,20
94,20
96,62
98,21
99,63
51,6
51,46
51,5
51,4
10,46
56,44
56,45
56,46
56,2
69,16
34,13
34,53
34,16
34,52
34,49
92,75
99,65
