# Number of vertices:
100
# Edge list:
48,0
56,0
74,0
57,0
49,0
73,0
55,0
53,0
80,48
54,48
5,48
68,56
66,57
4,57
88,57
65,57
64,49
63,49
84,49
3,73
85,73
86,53
82,53
83,54
71,54
77,54
2,5
78,5
79,5
69,5
72,68
70,68
1,66
67,66
87,4
59,65
60,64
58,64
51,63
81,63
62,63
75,84
61,84
76,84
52,84
50,3
47,86
25,86
15,82
23,82
26,82
24,82
17,83
16,71
12,77
98,77
21,77
6,77
8,2
10,2
29,2
99,2
46,78
18,78
45,78
19,79
44,79
20,79
43,69
22,69
42,72
7,72
9,72
41,72
40,70
11,70
39,70
13,1
38,67
37,67
93,67
36,87
28,87
35,59
90,59
97,59
14,59
34,58
89,58
96,51
27,51
33,51
32,75
95,75
92,75
94,75
31,61
30,76
91,76
66,73
86,56
86,48
86,55
86,57
71,82
78,68
78,82
50,65
25,54
15,3
15,65
15,86
16,67
18,25
18,61
45,71
45,72
11,2
11,67
11,60
11,58
30,67
30,78
