# Number of vertices:
100
# Edge list:
92,0
97,0
3,0
1,0
89,0
5,0
83,0
75,0
81,0
88,0
95,0
73,0
84,0
72,0
7,0
99,0
96,0
98,0
86,97
8,97
85,97
90,97
4,3
82,3
76,3
87,3
79,1
74,1
78,1
80,89
6,89
77,5
94,5
91,5
2,5
93,83
53,83
54,83
55,83
13,75
58,88
56,95
57,95
61,73
59,72
60,72
62,72
64,72
63,99
66,98
65,98
69,98
67,98
68,86
70,86
71,85
33,85
34,85
21,85
17,4
32,82
38,82
27,76
30,76
35,76
40,76
10,79
39,79
14,74
31,6
37,6
42,77
20,77
18,94
46,91
28,91
41,91
24,91
11,2
47,93
22,93
16,54
43,54
44,55
45,55
9,55
49,13
19,13
48,13
26,13
29,58
12,58
51,56
50,56
25,56
15,56
52,57
23,61
36,61
82,97
82,81
59,96
59,95
59,99
69,5
69,92
40,56
40,67
40,77
40,59
31,77
31,61
22,90
22,76
22,8
22,78
49,56
52,69
52,8
52,74
52,85
