# Number of vertices:
100
# Edge list:
18,0
60,0
19,0
61,0
20,0
62,0
21,0
63,0
22,0
64,0
23,0
65,0
24,0
66,0
25,18
67,18
26,18
68,60
27,60
69,60
28,19
70,61
29,61
71,61
30,61
72,20
31,20
73,20
32,20
74,62
33,62
75,62
34,62
76,63
35,63
77,64
36,64
78,64
37,23
79,23
38,23
80,23
39,24
81,24
40,24
82,24
41,25
83,25
42,25
84,67
1,67
43,67
85,68
2,27
44,27
86,27
3,27
45,69
87,69
4,70
46,29
88,29
5,29
47,71
89,71
6,30
48,30
90,72
7,72
49,72
91,72
8,31
50,31
92,31
9,31
51,73
93,73
10,74
52,74
94,74
11,33
53,75
95,75
12,75
54,75
96,34
13,34
55,34
97,76
14,76
56,76
98,76
15,77
57,36
99,78
58,78
16,37
59,37
17,37
69,65
73,66
73,63
73,61
73,21
74,65
74,63
74,61
74,18
38,20
38,22
38,24
38,19
82,18
43,29
43,26
43,81
43,38
43,37
3,82
15,70
15,69
15,78
