# Number of vertices:
100
# Edge list:
17,0
18,0
19,0
20,0
21,0
22,0
23,0
24,0
25,0
26,0
27,0
28,0
29,0
30,0
31,0
32,0
33,0
34,0
35,0
36,18
37,18
38,18
39,19
40,19
41,19
42,20
1,20
43,22
2,23
44,24
3,24
45,24
4,25
46,25
5,25
47,25
6,26
48,26
7,28
49,28
8,28
50,28
9,29
51,29
10,30
52,31
11,31
53,31
12,31
54,32
13,32
55,32
14,32
56,33
15,33
57,35
58,35
16,35
83,35
81,36
99,36
77,36
98,36
78,37
79,37
75,37
97,38
96,38
94,38
93,40
76,40
74,42
92,1
91,1
72,43
70,43
71,43
69,43
90,44
87,44
67,45
68,4
80,4
85,46
73,46
89,46
82,46
86,5
88,5
84,5
95,5
62,47
59,6
66,6
65,6
63,6
61,48
64,7
60,7
42,27
42,24
47,21
47,23
71,2
69,37
69,40
67,13
67,83
63,36
