# Number of vertices:
100
# Edge list:
21,0
22,0
23,0
65,0
24,0
66,0
25,0
67,0
26,0
68,0
27,0
69,0
28,0
70,0
29,0
71,0
30,21
72,21
31,21
73,21
32,22
74,22
33,22
75,22
34,23
76,65
35,24
77,25
36,26
78,68
37,28
79,28
38,70
80,71
39,71
81,71
40,71
82,30
41,30
83,30
42,30
84,72
1,72
43,72
85,31
2,31
44,73
86,73
3,73
45,73
87,32
4,74
46,74
88,33
5,33
47,33
89,33
6,75
48,75
90,34
7,76
49,76
91,76
8,76
50,35
92,77
9,77
51,77
93,77
10,36
52,78
94,78
11,78
53,37
95,37
12,37
54,37
96,79
13,38
55,39
97,39
14,39
56,81
98,81
15,40
57,40
99,40
16,82
58,41
17,41
59,41
18,83
60,83
19,83
61,42
20,84
62,1
63,1
64,43
77,70
77,22
77,65
36,23
39,68
83,80
83,40
83,77
43,81
43,34
12,35
12,75
97,33
15,33
15,37
15,30
15,31
15,34
58,96
58,54
58,46
58,92
58,8
62,41
