# Number of vertices:
100
# Edge list:
97,0
95,0
98,0
94,0
1,0
2,0
3,0
99,0
4,0
5,0
6,0
7,0
8,0
9,0
10,0
11,0
12,0
13,95
14,95
15,95
16,98
17,98
18,98
19,98
20,94
96,94
21,94
22,94
23,3
24,3
25,3
67,3
91,99
26,99
68,99
92,99
27,4
69,4
93,5
28,6
70,6
87,6
29,6
71,7
86,7
30,7
72,8
90,8
31,8
73,9
89,9
32,9
74,9
88,10
33,10
75,10
34,11
76,11
35,12
77,12
36,13
78,13
37,14
79,14
38,14
80,15
39,16
81,16
40,16
82,16
41,17
83,17
42,18
84,21
43,21
85,21
44,22
45,22
46,22
47,22
48,23
49,23
50,24
51,67
52,67
53,91
54,91
55,91
56,26
57,26
58,26
59,68
60,68
61,68
62,68
63,92
64,92
65,27
66,27
19,95
19,3
19,94
19,8
19,6
73,11
74,94
74,1
74,12
77,94
77,8
77,2
77,5
37,35
37,25
47,88
50,25
50,23
50,92
54,68
