# Number of vertices:
100
# Edge list:
1,0
2,0
3,0
4,0
5,0
6,0
7,0
8,0
9,0
10,0
11,0
12,1
13,1
14,1
15,1
16,2
17,3
18,4
19,4
20,4
62,5
21,8
63,8
22,8
64,8
23,10
65,10
24,10
66,11
25,11
67,11
26,13
68,13
27,13
69,15
28,15
70,15
29,15
71,16
30,16
72,17
31,17
73,17
32,18
74,18
33,19
75,19
34,20
76,62
35,21
77,63
36,22
78,22
37,22
79,64
38,64
80,23
39,23
81,23
40,23
82,65
41,65
83,24
42,66
84,66
43,66
85,66
44,67
86,26
45,26
87,26
46,68
88,68
47,68
89,27
48,27
90,27
49,69
91,70
50,70
92,71
51,71
93,71
52,71
94,30
53,72
95,31
54,31
96,31
55,31
97,73
56,73
98,73
57,32
99,32
58,74
59,74
60,74
61,33
64,3
64,9
64,4
64,10
25,1
25,4
25,7
25,3
68,23
68,20
76,20
82,12
82,19
82,20
42,63
42,25
42,20
87,29
90,78
90,44
90,42
91,34
91,81
91,41
