# Number of vertices:
100
# Edge list:
29,0
71,0
30,0
72,0
31,0
73,0
32,0
74,0
33,0
75,0
34,0
76,0
35,0
77,0
36,0
78,0
37,0
79,0
38,29
80,71
39,30
81,30
40,72
82,72
41,72
83,72
42,31
84,31
1,31
43,31
85,73
2,73
44,32
86,32
3,32
45,32
87,74
4,74
46,33
88,33
5,33
47,33
28,75
89,75
6,75
48,35
90,35
49,35
7,35
91,36
8,78
50,37
92,79
9,38
51,38
93,38
10,80
52,80
94,39
11,39
53,39
95,81
12,40
54,40
96,40
13,40
55,82
97,82
14,82
56,41
98,41
15,83
57,83
99,42
16,42
58,42
17,42
59,84
18,84
60,84
19,84
61,43
20,43
62,43
21,85
63,85
22,85
64,2
23,2
65,2
24,44
66,44
25,44
67,44
26,86
68,86
27,86
69,86
70,3
2,34
2,29
2,76
2,72
7,30
7,32
7,78
7,75
7,37
52,91
52,83
52,46
96,92
56,39
56,1
99,87
17,84
17,90
17,40
17,2
17,7
18,47
18,83
18,91
18,28
18,1
63,28
68,88
68,42
68,90
68,81
