# Number of vertices:
100
# Edge list:
9,0
93,0
10,0
94,0
11,0
95,0
12,0
96,9
13,9
97,10
14,94
98,95
15,95
99,12
16,12
17,12
18,96
19,97
20,98
21,98
22,98
23,15
24,15
25,15
26,16
27,17
28,17
29,19
30,21
31,22
32,22
33,23
34,23
35,23
36,23
37,24
38,25
39,25
40,27
41,27
42,27
43,28
91,28
44,29
45,30
46,30
47,30
48,33
92,33
49,35
50,35
51,35
52,36
53,36
54,38
55,38
56,38
57,38
58,39
59,91
60,91
61,91
62,45
63,45
64,45
65,45
66,46
67,46
68,46
69,47
70,48
71,48
72,48
73,48
74,92
75,49
76,49
77,50
78,51
79,52
80,52
81,52
82,53
83,55
84,56
1,56
85,57
2,57
86,57
3,57
87,58
4,58
88,59
5,59
89,59
6,59
90,60
7,60
8,61
98,10
20,13
20,99
20,17
34,26
49,38
49,30
49,31
49,41
64,49
64,50
64,44
64,55
80,46
80,48
80,60
87,53
6,49
