# Number of vertices:
100
# Edge list:
21,0
22,0
23,0
24,0
25,0
26,0
27,0
28,0
29,0
30,0
31,0
32,0
33,0
34,0
35,0
36,0
37,0
38,0
39,21
40,23
41,23
42,23
1,24
43,25
2,25
44,25
3,26
45,26
4,29
46,29
5,29
47,30
6,30
48,30
7,30
49,32
8,32
50,32
9,33
51,35
10,35
52,35
11,35
53,37
12,37
54,37
13,37
55,38
14,38
56,38
15,38
57,39
16,39
58,40
17,40
59,40
18,40
60,41
19,42
61,42
62,42
20,1
93,43
65,44
63,44
64,44
81,44
75,3
99,3
69,3
98,3
97,45
96,45
95,45
94,4
92,4
91,4
90,4
89,46
88,46
87,46
86,46
85,5
84,5
83,5
82,5
80,47
79,48
78,48
77,48
76,8
74,50
73,50
72,50
71,9
70,9
68,9
67,9
66,51
40,35
40,25
40,38
40,29
40,37
41,37
41,26
41,38
41,36
3,31
3,30
46,27
46,38
11,22
11,31
11,21
11,29
13,23
59,11
62,6
62,11
81,3
81,9
81,12
81,51
81,4
67,43
67,49
