# Number of vertices:
100
# Edge list:
11,0
10,0
64,0
77,0
9,0
67,0
52,0
66,0
8,0
75,0
7,0
31,0
51,0
22,0
49,0
38,0
3,0
6,0
27,0
53,11
5,10
35,64
68,64
24,64
63,64
4,77
2,77
41,77
69,9
45,9
65,9
1,9
43,67
42,67
23,67
46,52
50,52
59,66
26,66
13,66
74,66
34,8
58,8
25,75
44,75
56,7
37,7
70,7
60,31
15,31
55,31
17,31
29,51
76,51
97,38
78,38
36,38
57,3
16,6
99,6
12,27
61,53
28,53
32,5
14,5
19,5
73,35
30,35
39,68
98,24
20,24
33,63
21,63
62,63
40,4
72,4
71,2
18,2
79,41
54,41
47,41
48,41
94,69
82,69
89,69
80,65
81,65
85,65
92,1
95,1
90,1
84,1
83,42
88,42
87,42
91,23
93,23
86,46
96,46
24,3
4,64
2,11
2,51
69,49
50,3
50,10
50,64
50,67
50,51
17,67
17,52
76,38
78,11
78,66
78,64
78,3
78,22
16,22
12,49
12,67
12,22
12,77
61,2
72,55
82,29
82,13
82,56
82,34
84,56
