# Number of vertices:
100
# Edge list:
15,0
57,0
99,0
16,0
58,0
17,0
59,0
18,0
60,0
19,0
61,0
20,0
62,57
21,57
63,57
22,57
64,99
23,99
65,99
24,58
66,58
25,58
67,17
26,59
68,59
27,18
69,60
28,60
70,60
29,60
71,19
30,19
72,61
31,61
73,61
32,62
74,62
33,62
75,62
34,21
76,22
77,22
35,64
36,23
78,23
37,65
79,65
38,65
80,65
39,24
81,24
40,24
82,24
41,25
83,25
42,67
84,26
1,26
43,68
85,68
2,68
44,27
86,27
3,69
45,69
87,69
4,69
46,28
88,29
5,29
47,71
89,30
6,30
48,30
90,72
7,72
49,72
91,31
8,31
50,31
92,31
9,73
51,32
93,32
10,74
52,74
94,74
11,33
53,33
95,33
12,33
54,75
96,75
13,75
55,34
97,34
56,76
14,76
98,76
26,18
26,19
27,58
27,19
27,59
27,15
69,57
69,18
69,61
69,58
69,17
28,17
28,99
28,57
28,18
28,20
70,18
70,15
70,59
32,31
32,29
32,24
32,69
77,65
77,71
40,31
40,64
47,66
47,24
47,29
47,72
10,34
52,7
52,6
52,48
52,40
52,87
11,50
11,83
11,38
11,90
