# Number of vertices:
100
# Edge list:
30,0
13,0
85,0
14,0
29,0
11,30
74,30
33,30
12,85
9,29
47,33
75,33
28,33
10,33
51,12
78,12
32,12
83,12
25,9
87,9
27,47
8,47
80,47
31,47
67,75
20,75
23,75
69,28
22,28
21,10
86,10
18,10
65,32
79,32
17,32
66,83
16,25
19,25
88,25
94,87
26,8
7,8
24,8
89,31
98,31
96,31
15,67
6,67
90,67
92,20
91,20
76,20
34,23
99,23
5,23
95,69
81,69
4,69
48,69
77,22
52,22
54,21
3,86
50,18
84,18
49,18
70,18
2,65
93,65
72,65
97,65
68,79
1,17
71,17
53,66
73,19
82,19
55,19
57,88
60,88
61,94
62,94
56,26
59,26
64,7
58,7
63,24
38,24
37,24
36,24
40,89
39,89
41,89
44,89
46,98
45,98
42,98
35,98
43,15
10,11
69,25
69,83
69,87
22,83
4,18
77,67
77,80
