# Number of vertices:
100
# Edge list:
51,0
48,0
1,0
2,0
3,0
4,0
5,0
6,0
7,0
8,0
9,0
10,0
11,0
44,0
12,0
43,0
13,0
42,0
39,0
45,51
14,51
15,48
16,48
17,48
18,1
19,1
20,1
85,1
21,2
22,2
99,2
23,2
49,5
24,8
92,9
98,11
25,11
91,44
26,43
97,43
27,43
50,13
28,13
90,13
96,13
29,39
30,39
89,45
95,45
31,45
47,45
32,14
88,15
94,15
33,15
41,15
87,16
37,16
34,16
38,17
93,18
35,18
86,18
46,18
40,19
36,19
83,19
82,20
63,21
62,22
59,22
81,22
80,99
79,99
78,99
60,99
61,23
58,49
77,49
76,49
74,98
70,98
73,98
72,98
71,25
69,25
68,25
67,25
55,91
65,91
66,91
52,91
53,26
57,26
56,97
54,27
84,28
75,28
64,90
19,12
19,9
19,4
19,43
19,13
27,4
89,26
67,14
67,29
67,91
67,20
65,27
