# Number of vertices:
100
# Edge list:
11,0
95,0
12,0
96,0
13,0
97,0
14,0
98,0
15,0
99,11
16,11
17,11
18,11
19,12
20,12
21,13
22,13
23,97
24,97
25,14
26,14
93,14
27,14
28,98
29,98
30,15
31,16
94,16
32,16
33,16
34,17
35,18
36,19
37,19
38,20
39,20
40,20
41,22
42,22
43,23
44,23
45,24
46,25
47,25
48,25
49,25
50,26
51,26
52,26
53,27
54,27
55,27
56,28
57,28
58,28
59,28
60,29
61,29
62,29
63,29
64,30
65,30
66,30
67,30
68,94
69,94
70,94
71,32
72,32
73,32
74,32
75,33
76,33
77,33
78,33
79,34
80,34
81,34
82,35
83,35
84,35
1,35
85,37
2,38
86,39
3,39
87,39
4,41
88,41
5,41
89,41
6,42
90,43
7,43
91,43
8,43
92,44
9,44
10,45
20,95
20,14
20,13
94,25
94,18
42,19
42,27
42,26
47,28
75,49
75,43
75,37
75,47
75,34
76,56
76,50
76,48
76,49
76,66
77,45
77,59
77,51
77,38
80,57
10,39
