# Number of vertices:
100
# Edge list:
43,0
83,0
84,0
79,0
76,0
85,43
86,83
74,79
87,76
72,85
70,85
88,86
68,86
89,86
66,87
90,87
64,72
91,72
62,70
92,70
60,70
93,88
58,88
94,88
56,88
95,89
54,89
96,90
52,90
97,90
50,90
98,64
48,64
99,64
46,64
44,62
41,92
82,92
49,92
80,92
77,60
75,60
73,93
71,93
69,58
67,58
65,58
63,94
61,94
59,94
57,94
55,95
53,95
51,95
47,54
45,54
42,54
78,96
81,96
1,96
2,96
3,52
4,52
5,97
6,50
7,50
8,50
9,98
10,48
11,48
12,48
13,48
14,44
15,44
16,44
17,41
18,41
19,41
20,41
21,82
22,82
23,82
24,82
25,49
26,49
27,80
28,80
29,80
30,77
31,77
32,77
33,77
34,75
35,75
36,71
37,71
38,67
39,67
40,65
41,54
41,93
41,52
69,60
69,93
69,92
69,91
65,50
65,97
65,94
65,60
63,95
3,94
3,91
3,64
3,56
3,62
6,94
11,67
12,49
12,8
12,53
12,63
22,63
22,2
22,48
22,4
