# Number of vertices:
100
# Edge list:
91,0
7,0
8,0
50,0
92,0
9,0
51,0
93,0
10,0
52,0
94,0
11,0
53,0
95,0
12,0
54,0
96,0
13,0
55,0
97,0
14,7
56,7
98,7
15,8
57,8
99,50
16,50
58,50
17,50
59,9
18,9
60,51
19,93
61,10
20,10
62,52
21,52
63,52
22,94
64,94
23,94
65,94
24,53
66,53
25,53
67,95
26,95
68,12
27,12
69,12
70,12
28,54
29,55
71,97
30,14
72,14
31,14
73,14
32,56
74,56
33,98
75,98
34,15
76,57
35,57
77,57
36,99
78,99
37,99
79,99
38,58
80,58
39,58
81,58
40,17
82,17
41,17
83,59
42,59
84,59
1,59
43,60
85,60
2,61
44,61
86,62
3,62
45,62
87,62
4,63
46,63
88,63
5,63
47,64
89,64
6,64
48,64
90,23
49,23
17,8
17,10
59,13
64,93
64,52
64,95
64,13
64,92
70,55
70,50
70,52
75,66
34,17
34,22
34,67
34,64
34,57
39,98
39,24
39,66
39,69
39,59
82,57
82,29
82,63
82,20
82,28
1,63
1,64
1,60
1,18
85,99
88,17
88,14
88,71
5,58
