# Number of vertices:
100
# Edge list:
12,0
28,0
70,0
29,0
71,0
18,28
30,28
72,71
31,71
73,71
32,71
74,18
16,18
33,18
75,30
11,72
34,31
76,31
17,31
35,73
77,73
27,32
36,32
78,74
9,16
37,16
79,16
10,16
38,33
80,33
26,33
39,33
81,75
40,75
82,75
15,75
41,11
83,11
8,11
42,11
84,34
14,76
43,76
85,76
25,17
44,17
86,17
45,17
87,35
7,77
46,77
88,77
13,77
47,27
89,27
6,27
48,36
90,36
5,36
49,78
91,9
50,9
92,37
51,37
93,37
3,37
52,79
94,79
4,10
53,10
95,10
24,10
54,38
96,38
23,38
55,38
97,80
22,80
56,80
98,39
57,39
99,39
2,40
58,40
21,40
59,82
60,82
61,15
62,15
63,41
1,41
64,83
20,83
65,83
66,8
19,8
67,8
68,8
69,42
30,71
30,29
48,34
4,39
4,79
4,43
98,47
58,39
58,6
58,7
61,84
61,86
61,47
61,81
