# Number of vertices:
100
# Edge list:
89,0
88,0
87,0
99,89
74,89
95,88
92,99
96,99
94,99
93,99
98,74
97,95
30,92
91,92
86,92
90,92
31,96
85,96
80,96
76,94
84,94
75,98
83,97
77,97
82,30
79,30
81,30
78,91
32,91
33,91
34,91
35,90
36,90
37,90
38,31
39,31
40,85
41,76
42,76
1,76
43,84
2,84
44,75
3,75
45,75
4,83
46,83
5,83
47,77
6,77
48,77
7,77
49,82
8,82
50,79
51,81
9,81
52,81
10,81
11,32
53,32
12,32
54,32
13,33
55,33
14,34
56,34
15,34
57,34
16,35
58,35
17,36
59,36
18,39
60,39
19,40
61,40
20,41
62,41
21,41
63,42
22,42
64,42
23,1
65,1
24,43
66,2
25,2
67,2
26,2
68,44
27,44
69,3
28,3
70,45
29,45
71,45
72,46
73,46
95,87
95,89
92,95
80,97
80,92
80,93
84,93
84,97
84,96
49,78
49,6
49,44
49,35
49,36
20,43
20,3
20,81
20,45
20,78
22,3
24,2
24,78
25,82
25,81
25,78
