# Number of vertices:
100
# Edge list:
68,0
69,0
70,0
71,0
72,0
73,0
74,0
75,0
76,0
77,0
78,0
79,0
80,0
81,0
82,0
83,0
84,0
85,0
86,68
87,68
88,68
89,68
90,69
91,69
92,69
93,70
94,71
95,71
96,71
97,72
98,73
99,73
24,73
25,74
26,75
27,75
28,75
29,76
30,76
31,76
32,77
33,78
34,79
35,79
36,79
37,81
38,81
39,81
40,81
41,82
42,83
1,83
43,84
2,86
44,87
45,88
3,91
46,91
4,91
5,91
47,92
6,93
48,93
7,93
49,94
8,95
50,95
9,97
51,97
10,98
52,98
11,99
53,24
12,25
54,25
13,26
55,26
14,26
56,26
15,27
57,27
16,28
58,28
17,29
59,29
18,29
60,29
19,30
61,30
20,30
62,30
21,31
63,31
22,31
64,32
23,32
65,32
66,33
67,33
86,70
86,77
86,72
89,83
89,78
89,70
89,81
25,85
30,69
30,79
30,73
30,84
30,81
31,69
31,80
31,74
35,68
35,69
35,82
45,30
45,27
45,34
45,43
45,98
47,89
66,35
66,91
