# Number of vertices:
150
# Edge list:
24,0
46,0
95,24
50,24
96,24
48,24
97,46
45,46
98,46
43,46
99,46
52,46
100,46
51,46
101,46
49,95
102,95
47,95
103,95
44,95
104,95
42,95
105,95
22,50
106,50
20,50
107,96
19,96
108,96
18,96
109,96
17,96
110,96
23,96
111,96
21,48
112,48
16,48
113,48
38,48
114,48
37,48
115,48
41,48
116,48
40,97
117,97
39,97
118,97
32,98
119,98
120,98
36,98
121,98
35,98
122,98
34,43
123,99
33,99
124,52
31,52
125,52
25,52
126,52
13,100
127,100
12,100
128,100
129,100
14,51
26,51
130,101
27,101
131,101
132,101
15,101
30,101
133,101
29,49
134,49
28,102
135,102
11,102
136,47
53,47
54,103
55,103
56,103
57,103
58,44
59,44
60,44
61,44
147,104
62,104
145,104
63,104
64,104
65,104
149,104
66,104
148,42
67,105
146,105
68,105
69,22
70,22
142,22
71,22
144,106
72,106
143,106
73,106
74,20
75,20
76,20
77,20
78,20
79,20
80,19
140,19
81,19
141,19
82,108
139,108
83,108
138,108
84,108
137,108
93,18
1,18
85,18
2,18
86,18
3,109
87,109
4,109
88,109
5,109
89,109
94,109
6,109
90,109
7,109
91,17
8,17
92,17
9,17
10,110
110,97
126,51
126,48
126,95
126,50
126,98
126,43
126,97
60,112
149,35
149,116
67,12
67,16
67,122
67,114
67,41
67,123
67,124
77,107
77,26
77,122
141,132
141,47
141,124
141,22
141,20
141,15
141,122
141,118
82,103
82,106
138,39
138,38
138,15
138,26
88,123
88,35
88,127
88,30
91,115
8,20
8,105
