# Number of vertices:
150
# Edge list:
64,0
65,0
66,0
67,0
68,0
69,0
70,0
71,0
72,0
73,0
74,0
75,0
76,0
77,0
78,0
79,0
80,0
81,64
82,64
83,64
84,64
85,64
86,64
87,64
88,64
89,65
90,65
146,65
91,65
92,65
93,65
94,65
95,65
147,65
96,67
97,67
98,67
99,67
100,67
101,67
102,67
103,67
104,67
105,67
22,68
106,69
148,69
23,69
107,70
149,70
24,70
108,70
25,71
109,71
26,71
110,71
27,71
111,71
28,71
112,71
29,71
113,72
30,73
114,73
31,73
115,73
32,73
116,73
33,73
117,73
34,73
118,73
35,74
119,75
36,75
120,75
37,75
121,75
38,75
122,75
39,75
123,76
40,76
124,76
41,76
125,76
42,76
126,76
1,77
43,78
127,79
2,80
44,80
128,80
3,80
45,80
129,80
4,80
46,80
130,80
5,80
47,81
131,82
6,82
48,82
132,82
7,82
49,82
133,82
8,82
50,83
134,84
9,84
51,84
135,85
10,85
52,85
136,85
11,86
53,86
137,86
12,86
54,86
138,86
13,86
55,86
139,87
14,87
56,87
20,87
140,87
15,88
57,88
141,88
16,88
58,88
142,88
17,88
59,88
143,89
18,89
60,89
144,89
19,89
61,89
21,89
145,89
62,90
63,90
82,75
82,69
82,79
82,66
83,68
83,70
83,77
83,78
83,65
83,76
83,75
83,80
147,80
100,68
100,79
100,65
100,76
100,80
100,72
100,64
100,69
104,77
104,65
24,80
24,77
24,66
24,67
24,69
24,79
24,71
111,70
111,67
111,66
111,75
111,79
111,72
112,80
112,78
112,76
115,78
38,78
38,77
38,74
4,78
8,110
8,39
8,123
8,85
8,149
8,92
12,91
12,113
15,112
15,114
15,116
15,108
15,41
60,95
60,86
60,149
60,81
60,46
