# Number of vertices:
150
# Edge list:
111,0
112,0
113,0
114,0
115,112
116,112
117,112
118,113
119,113
120,113
121,113
122,113
90,113
123,113
63,113
124,115
89,115
68,115
125,116
126,116
88,116
64,116
127,116
128,116
87,116
129,116
130,117
86,117
60,117
131,117
132,117
85,117
70,117
133,117
134,118
84,119
69,119
135,119
65,119
136,119
83,119
137,119
67,119
138,120
82,120
139,120
66,120
140,120
81,120
62,120
141,120
61,121
142,122
80,122
143,90
144,90
79,123
78,63
145,124
71,124
146,89
147,89
77,68
148,68
76,125
149,125
75,125
74,125
73,125
72,125
57,125
103,126
58,126
7,126
59,126
6,126
47,126
110,126
5,126
46,126
45,126
101,88
49,88
109,88
104,88
48,64
44,64
42,64
14,64
43,64
13,64
40,64
41,64
100,64
102,64
39,128
36,128
98,128
35,128
105,128
10,128
17,128
38,128
3,128
37,128
56,87
107,87
99,87
9,87
31,87
30,87
29,87
15,87
92,87
11,87
34,129
91,129
33,129
4,129
32,129
106,129
53,129
97,129
54,130
108,130
12,130
55,130
95,130
2,130
52,86
50,86
1,86
93,60
51,131
96,131
8,132
19,85
16,70
28,70
94,70
18,70
27,70
22,70
26,70
25,70
21,70
20,133
24,133
23,133
131,115
131,116
131,120
131,90
132,120
132,116
132,90
132,119
132,122
132,123
132,63
133,122
66,123
66,115
66,90
66,118
66,121
66,119
66,63
99,88
99,134
99,89
99,85
99,67
99,138
9,137
9,131
9,141
9,80
9,138
9,69
9,84
9,130
25,78
25,129
25,79
25,87
25,68
25,135
21,139
21,132
21,136
21,129
21,67
21,86
21,128
21,64
