# Number of vertices:
150
# Edge list:
1,0
2,0
3,0
4,0
127,0
17,0
93,0
13,0
64,0
114,0
23,0
45,0
85,1
148,1
40,1
117,1
46,1
119,1
47,1
27,2
141,2
145,2
31,3
111,3
129,3
43,3
126,3
18,3
101,3
149,3
26,4
104,4
30,4
110,127
65,17
130,17
16,17
133,17
8,17
28,17
42,17
83,17
24,17
32,17
84,93
15,93
51,93
107,13
21,13
118,13
120,64
6,114
58,114
11,114
33,114
100,114
146,114
38,114
88,114
94,23
144,23
44,23
103,23
137,23
50,23
112,23
66,23
132,23
20,45
54,45
90,45
143,45
59,45
113,45
116,85
128,85
63,85
91,85
123,85
61,85
139,85
67,85
121,85
95,148
14,148
37,148
136,148
48,148
99,148
131,148
35,148
86,148
71,148
124,40
41,40
142,40
62,117
89,117
5,117
72,117
92,117
73,117
12,46
49,119
87,47
34,47
81,47
147,47
57,47
109,47
78,47
106,47
135,27
22,27
56,27
69,141
10,141
108,141
138,141
25,141
115,141
134,141
36,141
75,141
122,141
60,145
77,145
55,145
74,31
98,31
39,31
105,31
53,31
79,31
96,31
9,31
52,31
80,31
97,111
102,111
125,111
19,111
29,111
82,111
7,111
68,111
140,129
76,129
70,129
27,45
27,17
27,3
27,93
27,64
27,23
31,13
31,23
43,1
43,13
43,4
43,45
43,93
43,114
43,64
16,1
16,114
133,127
133,4
133,2
15,4
15,127
15,13
21,17
21,127
21,93
6,3
6,2
6,93
6,17
6,4
6,127
6,1
128,110
128,120
128,137
128,143
128,54
128,141
128,31
128,103
136,111
136,31
136,50
136,146
99,113
99,145
34,148
34,130
34,103
135,50
135,16
135,47
135,104
135,51
135,94
22,21
22,24
22,6
22,94
22,107
22,133
22,11
138,15
138,18
138,51
138,8
138,20
138,83
36,88
36,8
36,40
36,66
36,54
36,129
105,146
105,149
105,6
105,84
105,126
105,40
105,110
105,43
29,30
29,100
29,107
29,31
82,110
82,50
82,11
