# Number of vertices:
150
# Edge list:
72,0
149,0
74,0
96,0
78,0
77,0
98,0
73,0
68,0
81,0
87,0
106,0
95,0
84,0
69,0
82,0
71,72
76,72
67,72
83,72
80,72
1,149
85,149
2,149
3,149
97,149
4,149
70,149
5,149
79,149
102,149
6,74
92,74
7,74
75,74
100,74
8,74
9,96
91,96
90,96
10,96
65,96
11,96
99,96
12,77
66,77
13,77
93,77
103,77
14,98
101,98
15,98
89,98
16,73
17,73
105,73
94,73
18,73
86,73
19,73
88,73
20,73
21,73
104,68
22,68
107,68
23,68
145,68
121,68
24,68
25,68
144,68
123,81
26,81
27,87
148,87
28,87
134,87
29,87
142,87
30,87
125,87
31,87
146,106
124,106
32,106
33,106
143,106
140,106
34,106
110,106
126,106
35,84
114,84
127,84
36,84
37,69
38,69
113,69
39,69
115,69
135,69
40,69
112,82
41,71
128,71
42,71
111,71
43,71
116,71
136,71
44,71
45,76
129,76
46,76
47,76
147,76
48,67
137,83
49,83
117,83
130,83
50,80
109,80
131,80
51,80
139,80
52,80
53,80
54,80
118,80
55,80
138,1
56,1
57,1
108,1
58,1
132,1
59,1
119,85
60,3
141,3
61,3
120,3
62,3
122,3
133,3
63,3
64,3
9,106
12,98
12,149
16,98
16,69
16,78
18,72
18,106
18,87
20,84
20,72
20,87
20,149
121,81
121,95
26,69
26,82
26,74
30,69
125,78
115,96
115,78
115,81
115,68
40,78
40,95
40,149
45,16
45,39
45,65
45,86
45,13
45,8
45,134
119,32
119,33
