# Number of vertices:
150
# Edge list:
9,0
51,0
93,0
10,0
52,0
94,0
11,0
53,0
95,0
12,0
54,0
96,0
13,0
55,0
97,0
14,9
56,9
98,9
15,9
57,9
99,9
16,9
58,9
100,9
17,9
59,51
101,51
18,51
60,51
102,51
19,93
61,93
103,10
20,10
62,10
104,10
21,10
63,94
105,11
22,11
64,11
106,11
23,53
65,53
107,53
24,95
66,95
108,95
25,95
67,95
109,95
26,95
68,95
110,95
27,12
69,12
111,12
70,12
28,12
112,54
71,54
29,54
113,54
30,96
72,96
114,96
31,96
73,96
115,96
32,13
74,13
116,55
33,55
75,55
117,55
34,55
76,55
118,55
35,55
77,55
119,97
36,97
78,97
120,14
37,15
79,15
121,15
38,15
80,15
122,15
39,15
81,57
123,57
40,57
82,57
124,57
41,57
83,57
125,99
42,16
84,16
126,16
43,16
85,58
127,100
44,100
86,100
128,100
45,100
87,100
129,100
46,100
88,17
130,17
47,17
89,17
131,17
48,17
90,17
132,17
49,17
91,59
133,59
50,59
92,59
134,59
135,59
136,59
137,59
138,59
139,101
140,101
141,101
142,101
143,101
144,101
145,101
146,18
147,18
148,18
149,18
1,18
2,60
3,60
4,60
5,60
6,60
7,60
8,60
14,13
14,97
15,10
15,11
15,51
15,55
15,93
15,54
15,95
21,95
64,51
109,97
109,13
109,9
109,93
109,10
110,54
110,51
110,13
115,13
115,95
115,9
115,52
115,12
115,54
37,61
37,32
37,30
37,20
37,114
37,36
38,103
38,19
38,118
38,61
38,69
38,119
38,59
40,115
40,111
40,15
40,70
40,16
42,68
87,59
87,32
87,17
87,24
46,28
46,15
46,23
46,32
46,19
46,69
134,57
138,29
142,67
142,62
142,31
142,16
142,119
142,27
142,17
148,110
149,118
149,15
149,74
149,57
1,103
