# Number of vertices:
150
# Edge list:
1,0
2,0
126,0
3,0
4,0
5,1
6,1
7,2
8,2
9,2
10,2
11,2
12,2
13,126
14,126
15,126
16,126
17,126
18,126
19,126
20,126
21,126
22,126
23,3
24,3
25,3
26,3
27,3
28,3
29,3
30,3
31,4
32,4
33,4
34,4
35,4
36,4
37,4
38,4
39,4
40,6
41,6
42,6
43,6
85,6
127,6
44,7
86,7
128,7
45,7
87,8
129,8
46,10
88,10
130,10
47,10
89,10
131,10
48,10
90,10
132,10
49,10
91,11
133,11
50,11
92,11
134,11
51,11
93,11
135,11
52,11
94,12
136,12
53,12
95,13
137,13
54,13
96,16
138,16
55,16
97,16
139,16
56,16
98,16
140,16
57,16
99,17
141,17
58,17
100,17
142,17
59,17
101,18
143,18
60,18
102,18
144,19
61,19
103,19
145,19
62,19
104,19
146,19
63,19
105,19
147,20
64,20
106,20
148,20
65,20
107,20
149,21
66,21
108,22
67,22
109,22
68,22
110,22
69,22
111,22
70,22
112,22
71,22
113,23
72,23
114,23
73,24
115,24
74,24
116,24
75,25
117,25
76,26
118,26
77,26
119,26
78,26
120,27
79,27
121,28
80,28
122,28
81,28
123,28
82,28
124,28
125,28
83,29
84,29
5,2
5,126
5,3
5,4
10,4
10,3
10,1
10,126
41,29
41,28
41,26
41,16
130,6
130,36
92,39
92,28
92,14
92,9
92,38
92,34
92,7
92,32
94,24
94,15
94,39
94,22
99,33
99,24
101,24
107,33
107,8
107,11
107,19
107,29
107,9
107,31
107,6
114,29
116,8
116,17
116,28
116,20
116,29
116,31
116,27
75,38
75,12
75,11
75,21
76,14
76,32
76,7
76,17
76,38
120,9
79,22
79,12
79,38
