# Number of vertices:
150
# Edge list:
149,0
1,0
2,0
3,0
4,0
5,149
6,149
7,149
8,149
9,149
10,149
11,149
12,149
13,1
14,1
15,1
16,1
17,1
18,1
19,1
20,2
21,2
22,2
105,2
23,2
65,3
107,3
24,3
66,3
108,3
25,3
67,3
109,3
26,3
68,3
110,4
27,4
69,4
106,4
111,4
28,4
70,5
112,6
29,6
71,7
113,7
30,7
72,7
114,7
147,7
31,7
73,7
115,7
32,8
74,8
116,8
33,8
75,8
117,10
34,10
76,10
118,10
35,11
77,11
119,11
148,11
36,11
78,11
120,11
37,11
79,11
121,12
38,12
80,12
122,13
39,14
81,14
123,14
40,14
82,15
124,15
41,15
83,15
125,15
42,15
84,15
126,15
43,15
85,15
127,16
44,16
86,16
128,16
45,16
87,17
129,17
46,17
88,17
130,17
47,17
89,17
131,17
48,17
90,17
132,18
49,18
91,18
133,18
50,18
92,19
134,19
51,19
93,19
135,20
52,20
94,20
136,20
53,20
95,20
137,20
54,20
96,20
138,22
55,22
97,22
139,22
56,22
98,22
140,22
57,23
99,23
141,23
58,23
100,23
142,23
59,23
101,23
143,23
60,65
102,107
144,107
61,107
103,107
145,107
62,107
104,24
146,66
63,66
64,66
6,4
21,3
21,1
21,4
21,149
112,18
112,107
112,26
112,106
112,21
117,110
117,16
117,21
117,26
117,65
117,19
117,66
117,22
121,105
121,18
121,17
121,14
121,67
121,109
121,69
80,110
80,27
80,67
80,106
80,10
80,6
44,19
44,67
44,109
44,27
44,105
129,8
129,105
129,67
89,20
89,110
89,109
89,7
48,105
48,7
48,20
48,107
50,107
50,110
95,65
95,16
95,26
95,17
61,22
61,67
61,10
61,110
103,108
103,26
103,109
103,5
103,13
103,10
146,14
146,111
