# Number of vertices:
150
# Edge list:
40,0
82,0
41,40
83,40
42,40
84,40
43,40
85,40
44,40
86,82
45,82
87,82
46,82
88,82
47,82
89,82
48,82
90,82
49,41
91,41
50,83
92,83
51,42
93,42
52,42
94,42
53,42
95,42
54,42
96,42
55,42
97,42
56,84
98,84
57,84
99,84
58,84
100,84
59,84
101,84
60,84
102,85
61,85
103,86
62,86
104,86
63,86
105,86
64,86
106,86
65,86
107,86
66,86
108,45
67,45
109,45
68,87
110,87
69,87
111,87
70,87
112,87
71,87
113,87
72,87
114,87
73,46
115,46
74,46
116,46
75,46
117,46
76,46
118,88
77,88
119,88
78,88
120,88
79,88
121,88
80,47
122,47
81,47
123,47
4,47
124,89
39,89
125,89
126,89
2,89
127,89
128,89
7,48
129,48
38,48
130,48
1,48
131,90
9,90
37,91
132,91
36,91
133,50
35,50
134,50
34,92
135,92
136,92
14,92
33,92
137,92
32,51
138,51
139,51
31,51
140,51
30,93
141,93
21,93
142,93
29,93
143,93
28,93
144,52
27,52
145,52
146,52
10,52
3,94
147,94
148,94
11,94
5,53
149,53
18,53
17,53
16,53
20,53
19,53
26,53
12,53
13,53
25,54
6,54
24,54
23,54
8,54
15,54
22,54
49,85
49,87
49,89
49,47
49,43
49,48
92,41
92,48
92,43
92,45
92,90
92,87
92,46
54,84
100,89
100,44
100,90
100,46
63,45
63,90
63,84
63,41
63,83
69,83
69,85
69,41
69,43
69,90
69,44
69,86
73,86
73,88
73,42
73,44
73,43
73,83
73,41
119,47
119,87
119,44
119,45
119,85
78,42
78,41
78,48
78,46
123,43
123,46
123,41
123,86
123,89
123,83
123,45
38,86
140,119
140,81
140,38
140,50
30,102
30,123
30,115
141,106
143,72
143,69
27,115
17,119
17,9
17,80
17,126
20,69
22,7
