# Number of vertices:
150
# Edge list:
11,0
53,0
95,0
12,0
54,0
96,0
13,0
55,11
97,11
14,11
56,53
98,95
15,95
57,95
99,95
16,95
58,95
100,95
17,95
59,95
101,12
18,12
60,12
102,12
19,12
61,12
103,12
20,12
62,96
104,13
21,13
63,13
105,13
22,13
64,55
106,55
23,55
65,55
107,55
24,55
66,55
108,97
25,97
67,97
109,14
26,14
68,14
110,14
27,14
69,14
111,14
28,56
70,56
112,56
29,56
71,56
113,56
30,56
72,56
114,98
73,98
31,98
115,15
32,15
74,15
116,15
33,15
75,15
117,15
34,57
76,57
118,99
35,99
77,99
119,99
36,99
78,99
120,99
37,99
79,99
121,99
38,16
80,58
122,58
39,100
81,100
123,100
40,17
82,17
124,17
41,17
83,17
125,17
42,17
84,17
126,59
1,59
43,101
85,101
127,101
2,18
44,18
86,18
128,18
3,18
45,18
87,60
129,60
4,60
46,60
88,60
130,60
5,60
47,60
89,102
131,102
6,102
48,102
90,102
132,19
7,19
49,61
91,61
133,61
8,61
50,61
92,61
134,61
9,103
51,103
93,103
135,103
52,103
10,103
94,20
136,20
137,20
138,20
139,20
140,20
141,62
142,62
143,62
144,104
145,104
146,104
147,104
148,21
149,21
56,11
100,12
100,53
100,96
100,54
100,13
100,11
102,13
102,54
102,96
102,53
63,54
111,15
111,62
115,20
33,104
33,101
33,57
33,22
33,100
33,20
117,55
117,56
117,20
117,16
117,58
117,61
117,22
34,61
34,105
34,104
34,62
34,56
34,20
34,16
77,60
127,59
86,17
86,21
86,57
86,103
86,100
88,55
130,63
130,61
130,16
130,62
130,99
130,58
5,16
5,59
5,56
136,61
136,56
136,14
136,63
