# Number of vertices:
150
# Edge list:
42,0
1,0
111,0
43,0
110,0
2,42
44,42
109,1
3,1
45,1
108,1
4,1
46,1
5,1
47,1
107,1
112,111
6,111
48,111
98,111
7,111
49,111
104,111
103,111
8,111
50,43
102,43
9,43
51,110
101,110
10,110
52,110
145,110
11,110
53,2
106,2
149,2
12,2
54,44
105,44
90,44
148,44
13,44
55,44
147,44
95,44
14,44
56,109
146,109
93,109
15,109
57,3
140,3
100,3
16,3
58,3
144,3
99,3
17,3
59,45
143,45
97,45
18,108
60,108
142,108
96,108
19,108
61,108
141,108
94,108
62,108
20,108
81,4
21,4
63,4
92,4
22,4
64,4
139,4
91,46
23,46
65,46
138,46
116,46
24,5
66,5
137,5
84,5
25,5
67,5
82,5
26,47
68,47
88,47
27,47
69,47
87,47
28,47
70,107
86,107
29,112
71,6
85,6
30,6
72,6
83,6
31,6
73,6
89,6
32,6
74,6
79,48
33,48
75,48
117,48
34,48
76,48
115,48
35,48
78,98
36,98
77,98
37,98
80,98
38,98
39,7
40,7
114,7
41,7
113,7
132,7
125,7
135,7
123,7
133,7
124,104
128,104
118,104
134,103
129,103
122,103
127,103
131,8
130,8
120,8
119,8
136,8
126,8
121,8
48,42
106,98
106,10
106,50
106,46
148,104
148,46
148,45
148,102
95,5
95,104
95,52
95,7
16,107
16,9
16,49
16,101
16,4
16,104
59,44
59,46
59,3
59,11
59,48
59,98
64,45
64,46
64,10
64,48
139,102
139,145
139,10
139,101
23,104
29,46
29,109
29,45
34,6
34,44
34,7
34,10
34,9
34,101
34,98
34,11
77,4
77,145
41,3
41,107
131,145
131,107
131,7
