# Number of vertices:
150
# Edge list:
24,0
78,0
25,0
109,0
26,0
110,0
108,0
27,0
77,0
111,0
28,0
76,0
112,0
107,0
29,0
75,0
113,24
30,78
74,78
114,78
106,78
31,25
115,25
32,25
116,25
105,25
33,25
104,25
117,109
34,109
103,109
118,109
35,109
102,109
119,109
36,109
101,109
120,109
37,26
121,26
38,26
73,110
122,110
100,108
39,108
123,108
40,108
124,108
99,108
41,108
72,27
125,27
42,27
126,77
1,77
98,77
43,77
127,77
97,77
2,111
44,28
128,28
96,28
71,28
45,28
3,28
95,76
129,76
4,76
46,112
130,107
5,107
47,107
131,107
94,107
6,107
48,107
132,107
93,29
7,29
49,29
133,29
92,29
8,29
50,29
67,75
91,75
134,75
9,75
51,75
68,113
135,113
10,113
52,113
136,113
90,113
11,113
53,113
70,113
89,113
137,30
12,30
54,30
88,74
138,74
13,74
55,74
139,74
14,74
56,74
140,74
87,74
15,74
57,114
79,114
141,114
16,114
58,114
142,114
86,114
17,114
59,114
143,106
85,106
18,106
60,106
144,106
84,106
19,31
61,31
145,31
83,31
20,31
62,31
146,31
82,115
21,115
63,115
147,115
81,115
22,115
64,115
69,115
148,115
23,115
65,105
149,105
80,105
66,105
30,76
106,25
106,77
106,29
106,110
106,27
106,112
106,109
37,76
37,110
37,28
37,24
37,109
38,111
38,28
38,112
38,75
123,110
123,112
123,77
123,76
123,78
127,25
127,109
96,110
96,25
96,29
96,109
71,25
129,25
129,110
129,29
129,27
129,111
129,109
129,28
133,76
133,28
133,26
133,109
133,25
133,78
133,108
51,24
70,93
88,8
88,41
88,99
88,3
88,42
88,104
88,2
140,9
60,3
60,45
60,38
60,131
60,93
60,124
60,115
60,36
144,104
144,36
144,45
144,6
144,31
144,132
144,2
