# Number of vertices:
150
# Edge list:
16,0
142,0
17,0
143,0
18,0
144,0
19,16
145,142
20,142
146,142
21,142
147,142
22,142
148,142
23,142
149,17
24,17
25,17
26,17
27,17
28,17
29,17
30,17
31,17
32,17
33,18
34,18
35,144
36,19
37,19
38,19
39,19
40,19
41,19
42,145
1,145
43,145
2,145
44,145
3,145
45,145
4,145
46,145
5,145
47,20
6,20
48,20
7,21
49,21
8,21
50,21
9,21
51,21
10,147
52,147
11,147
53,147
12,147
54,147
13,22
55,22
14,22
56,22
57,22
15,22
58,22
100,22
59,22
101,22
60,148
102,23
61,23
103,23
62,149
104,149
63,149
105,24
64,24
106,24
65,24
107,24
66,25
108,25
67,25
109,25
68,25
110,25
69,25
111,26
70,26
112,26
71,26
113,26
141,26
72,26
114,26
73,26
115,26
74,27
116,27
75,28
117,28
76,28
118,28
77,28
119,29
78,29
120,30
79,30
121,30
80,30
122,30
81,30
123,30
82,30
124,31
83,31
125,31
84,31
126,31
85,31
127,31
86,31
128,32
87,32
129,33
88,33
130,33
89,33
131,33
90,34
132,34
91,34
133,34
92,34
134,34
93,34
135,34
94,34
136,35
95,35
137,35
96,35
138,36
97,36
139,36
98,36
140,36
99,36
28,16
28,143
28,144
28,142
28,18
36,33
36,25
36,146
36,26
43,20
43,147
43,148
43,31
4,24
4,34
4,20
4,32
4,21
4,28
4,30
4,31
105,23
105,31
105,145
108,22
108,30
108,148
108,24
108,145
111,27
111,149
114,21
114,24
114,28
114,23
116,28
116,34
128,149
128,35
128,19
128,31
128,26
87,34
129,22
129,19
131,21
131,24
131,146
131,27
133,145
133,30
133,27
133,25
133,35
133,32
133,28
135,149
135,148
95,30
