# Number of vertices:
150
# Edge list:
146,0
147,0
148,0
149,0
144,146
145,146
1,146
2,146
3,146
4,147
5,147
6,147
7,147
8,147
9,147
10,147
11,147
12,147
13,148
14,149
15,149
16,149
17,144
18,144
19,144
20,144
62,144
104,145
21,145
63,145
105,145
22,145
64,145
106,145
23,145
65,145
107,145
24,1
66,1
108,2
25,2
67,2
109,2
26,2
68,2
110,2
27,2
69,3
111,3
28,3
70,3
112,3
29,3
71,3
113,3
30,3
72,3
114,4
31,4
73,4
115,4
32,5
74,5
116,6
33,6
75,6
117,6
34,6
76,7
118,7
35,7
77,7
119,7
36,7
78,8
120,8
37,8
79,8
121,8
38,9
80,9
122,9
39,9
81,9
123,9
40,10
82,10
124,10
41,10
83,10
125,10
42,10
84,11
126,11
43,11
85,11
127,11
44,11
86,11
128,11
45,12
87,12
129,12
46,12
88,12
130,12
47,12
89,13
131,13
48,13
90,13
132,13
49,13
91,13
133,13
50,13
92,14
134,14
51,14
93,16
102,16
135,16
52,16
94,16
136,17
53,18
95,18
137,18
54,18
96,18
138,19
55,19
97,19
139,19
56,20
98,20
103,20
140,20
57,20
99,20
141,20
58,62
100,62
142,62
59,62
101,62
143,62
60,62
61,62
3,147
13,147
13,149
70,2
70,8
70,6
112,14
112,16
35,145
35,14
35,12
35,5
35,6
130,1
130,11
130,13
51,8
51,10
51,9
51,2
51,12
51,7
53,26
53,67
96,111
55,66
55,32
55,41
55,108
55,29
55,17
55,87
55,128
97,85
97,109
97,123
97,91
97,125
103,40
103,80
60,85
