# Number of vertices:
150
# Edge list:
12,0
96,0
13,0
97,0
14,96
98,96
15,96
99,96
16,96
100,13
17,13
101,13
18,13
102,97
19,97
103,97
20,97
104,97
21,97
105,14
22,14
106,14
23,14
107,14
24,14
108,14
25,98
109,98
26,98
110,15
27,15
111,15
28,15
112,99
29,99
113,99
30,16
114,16
31,100
115,100
32,100
116,100
94,17
33,17
117,17
34,17
118,17
35,101
119,101
36,101
120,101
37,102
121,102
95,102
38,102
122,102
39,102
123,102
40,102
124,19
41,19
125,19
42,19
126,19
43,19
127,103
44,103
128,103
45,103
129,20
46,20
130,20
47,20
131,104
48,104
132,104
49,104
133,104
50,104
134,104
51,104
135,104
52,104
136,21
53,21
137,21
54,105
138,22
55,22
139,106
56,106
140,106
57,106
141,106
58,106
142,106
59,107
143,107
60,107
144,107
61,107
145,107
62,107
146,24
63,108
147,108
64,108
148,108
65,108
149,25
66,109
67,109
68,109
69,109
70,109
71,109
72,109
73,109
74,110
75,110
76,110
77,110
78,110
79,27
80,27
81,27
82,27
83,27
84,27
1,27
85,27
2,111
86,111
3,111
87,111
4,111
88,111
5,111
89,111
6,28
90,112
7,112
91,112
8,112
92,29
9,29
93,29
10,29
11,29
25,15
25,104
25,21
110,100
110,104
27,103
27,104
118,98
118,18
118,100
118,20
39,16
39,17
39,15
40,99
40,20
40,101
40,18
40,16
40,14
40,21
40,100
42,18
42,100
42,103
42,20
42,98
139,42
57,132
70,121
70,25
7,123
7,108
93,128
93,24
93,25
93,30
93,39
