# Number of vertices:
150
# Edge list:
59,0
101,0
143,0
60,0
102,0
144,0
61,0
103,0
145,0
62,0
104,0
146,0
63,0
105,0
147,0
64,0
106,0
148,0
65,0
107,59
149,59
66,59
108,59
67,101
109,101
68,143
110,60
69,60
111,60
70,60
112,102
71,102
113,102
72,102
114,144
73,144
115,144
74,144
116,61
75,61
117,61
76,61
118,61
77,61
119,103
78,103
120,145
79,145
121,145
80,145
122,145
81,62
123,62
82,62
124,62
83,104
125,104
84,104
126,104
1,104
85,146
127,146
2,146
86,146
128,146
3,146
87,63
129,63
4,63
88,63
130,63
5,63
89,105
131,105
6,105
90,147
132,147
7,64
91,64
133,64
8,64
92,64
134,106
9,148
93,148
135,148
10,148
94,148
136,148
11,148
95,65
137,65
12,65
96,65
138,65
13,65
97,65
139,107
14,149
98,149
140,149
15,149
99,149
141,149
16,149
100,149
142,66
17,66
18,66
19,66
20,66
21,108
22,108
23,108
24,108
25,108
26,108
27,108
28,108
29,67
30,67
31,67
32,109
33,109
34,68
35,68
36,68
37,110
38,110
39,110
40,110
41,110
42,110
43,110
44,110
45,110
46,69
47,69
48,69
49,69
50,111
51,70
52,70
53,70
54,70
55,70
56,112
57,112
58,112
149,61
149,146
149,104
149,60
149,106
149,143
149,145
149,103
66,147
66,64
66,65
66,62
66,144
66,106
66,145
66,143
70,105
83,60
83,63
83,101
83,64
83,105
7,101
7,60
7,145
7,61
7,144
7,102
8,148
8,143
8,102
8,144
8,61
8,147
8,59
8,105
11,62
11,143
11,60
11,61
11,64
11,59
11,147
11,144
96,148
13,102
13,148
13,145
13,103
13,63
13,101
13,62
27,128
27,82
27,81
27,149
30,130
30,91
30,93
30,149
30,89
30,83
33,121
33,4
33,120
35,6
35,67
35,12
35,2
35,117
41,79
41,127
41,3
41,118
