# Number of vertices:
150
# Edge list:
34,0
35,0
36,0
37,0
38,0
39,0
40,0
41,0
42,0
1,34
43,34
2,35
44,35
3,35
45,35
4,35
46,35
5,35
47,35
6,35
48,36
7,36
49,36
8,36
50,36
9,36
51,36
10,36
52,37
53,37
11,37
54,37
12,37
13,37
55,37
14,37
56,37
15,38
57,38
16,38
58,38
17,38
59,40
18,40
60,40
19,40
61,41
20,41
62,42
21,42
63,42
22,42
64,42
23,42
65,43
24,43
66,43
25,43
67,43
26,43
68,43
27,43
69,2
28,44
70,44
29,44
71,44
30,44
72,44
31,44
73,3
32,3
74,3
75,45
33,45
76,45
118,45
77,45
119,45
78,45
120,45
79,45
121,4
80,5
122,5
81,5
123,5
82,5
124,5
83,5
125,47
84,47
126,47
85,47
127,6
86,48
128,48
87,7
129,7
88,7
130,7
89,7
131,7
90,49
132,49
91,49
133,49
92,49
134,49
93,49
135,49
94,49
136,8
95,8
137,8
96,8
138,50
97,50
139,50
98,50
140,50
99,50
141,50
100,50
142,50
101,50
143,9
102,51
144,10
103,53
145,53
104,54
146,54
105,54
147,54
106,54
148,54
107,54
149,54
108,12
109,12
110,12
111,12
112,12
113,12
114,12
115,12
116,13
117,55
13,40
13,34
13,39
56,42
56,35
56,34
56,40
56,38
56,36
15,35
15,34
15,37
15,41
15,40
59,42
59,34
61,36
61,42
66,63
66,53
66,6
66,4
66,59
66,18
66,3
66,50
68,46
68,52
68,13
68,23
81,14
81,16
81,44
81,17
81,8
81,19
81,2
83,59
126,23
87,3
87,5
87,64
136,4
136,63
97,62
97,59
97,16
97,44
97,45
97,64
97,46
142,57
142,5
142,59
142,15
142,45
142,19
142,47
104,46
104,51
104,22
104,50
111,45
111,22
111,52
111,47
111,18
111,4
115,64
115,52
115,43
115,57
115,15
115,21
115,59
115,9
