# Number of vertices:
150
# Edge list:
7,0
133,0
8,0
134,0
9,0
135,0
10,0
136,0
11,0
137,0
12,0
138,0
13,0
139,0
14,7
140,133
91,133
15,133
141,133
16,8
142,8
118,8
17,134
143,134
18,9
144,9
19,9
145,9
20,9
146,9
21,9
147,9
22,9
148,135
23,135
149,10
24,10
25,10
26,10
27,10
28,136
29,11
30,11
31,11
32,11
33,11
34,11
35,137
36,137
37,137
38,137
39,137
40,137
41,137
42,12
43,12
44,12
45,12
46,12
47,12
48,12
60,12
132,138
80,138
104,138
88,138
92,138
93,138
50,13
87,13
103,13
49,13
94,13
62,13
95,13
102,13
82,13
96,13
101,139
68,139
83,139
100,139
55,139
99,139
79,139
98,139
63,139
64,139
97,14
81,14
117,14
131,14
70,14
105,14
77,14
65,140
116,140
130,140
51,140
129,140
69,140
53,140
115,140
128,140
57,91
86,91
90,91
127,91
67,91
113,91
114,91
126,15
59,15
112,15
125,15
61,15
111,15
110,15
52,15
124,141
89,141
75,141
109,141
58,141
123,141
66,141
56,141
73,141
54,141
122,142
84,142
108,118
6,118
74,118
76,118
121,17
1,17
78,17
120,17
2,143
107,143
3,143
119,143
4,143
106,18
72,18
5,18
85,18
71,18
27,8
27,7
27,137
28,11
28,9
28,12
28,8
28,7
28,134
40,135
40,9
40,139
40,12
40,133
48,134
48,138
103,137
103,139
103,7
103,11
103,8
103,134
103,136
103,9
101,11
101,9
101,135
101,133
101,136
79,8
79,137
90,102
111,103
111,101
111,83
111,17
111,25
111,41
111,93
66,60
66,88
66,149
122,92
122,64
122,35
122,31
122,33
122,101
84,93
84,22
84,35
2,31
85,104
85,87
85,38
85,143
