# Number of vertices:
150
# Edge list:
74,0
116,0
75,0
117,0
76,0
118,0
77,0
119,0
78,0
120,0
79,0
121,0
80,0
122,0
81,0
123,0
82,0
124,0
83,0
125,74
84,74
126,74
85,74
127,74
86,74
128,116
87,116
129,116
88,116
130,116
89,75
131,75
90,75
132,117
91,117
133,117
92,117
134,117
93,118
135,118
94,118
136,118
95,118
137,118
96,118
138,77
97,77
139,77
98,77
140,77
99,77
141,77
100,77
142,119
101,119
143,119
102,119
144,78
103,78
145,78
104,78
146,79
105,79
147,79
106,79
148,79
107,79
149,79
108,79
109,121
110,121
111,121
112,121
113,121
114,80
115,80
32,80
33,122
34,122
35,81
36,123
37,123
38,123
39,123
30,82
40,124
41,124
42,124
1,124
43,124
2,124
44,124
31,83
3,84
45,84
4,84
46,126
5,126
47,126
6,126
48,126
7,126
49,126
8,85
50,127
51,127
9,127
52,127
10,127
11,127
53,86
12,86
54,86
13,86
55,86
14,86
56,86
15,86
57,86
16,86
58,128
17,128
59,128
18,128
60,128
19,128
61,128
20,128
62,128
21,128
63,87
22,87
64,87
23,87
65,87
24,87
66,87
25,87
67,129
26,129
68,88
27,88
69,88
28,88
70,88
29,88
71,88
72,88
73,88
125,116
125,122
125,82
125,119
125,117
125,123
87,77
87,75
87,118
87,120
87,117
87,83
87,82
87,80
130,74
130,122
130,83
130,77
130,82
130,76
130,79
130,123
134,78
134,120
146,81
146,122
146,78
146,80
146,123
34,75
34,119
34,76
34,77
34,74
34,123
34,80
39,80
39,124
39,83
39,121
39,81
1,118
1,117
1,122
1,120
1,80
1,123
2,117
2,120
2,122
2,119
2,80
44,82
44,120
44,76
44,81
44,78
44,123
44,79
5,146
50,147
17,97
17,138
17,30
17,108
59,133
62,93
62,96
62,32
62,89
67,106
67,109
