# Number of vertices:
150
# Edge list:
97,0
98,0
96,0
99,0
100,0
101,0
102,0
103,0
104,0
105,98
106,98
107,98
108,98
109,98
110,98
111,98
112,98
113,98
114,98
115,96
116,96
117,96
118,99
119,99
120,99
121,99
122,99
123,99
124,99
125,99
126,100
1,100
127,100
2,101
128,101
3,101
129,101
4,101
130,101
5,101
131,102
6,102
132,102
7,102
133,102
8,102
134,102
9,102
135,102
10,102
136,103
11,103
137,103
12,103
138,103
13,103
55,103
139,104
14,104
56,104
140,105
15,105
57,105
141,105
16,105
58,105
142,105
17,105
59,105
143,105
18,106
60,106
144,106
19,106
61,106
145,106
20,107
62,107
146,107
21,107
63,107
147,107
22,107
64,107
148,107
23,108
65,108
149,108
24,108
66,108
25,108
67,108
26,108
68,109
27,109
69,109
28,109
70,109
29,109
71,109
30,109
72,110
31,110
73,110
74,110
32,110
75,110
33,110
34,111
76,111
35,111
77,111
36,111
78,111
37,111
79,111
38,112
80,112
39,112
81,112
40,113
82,113
41,113
83,113
42,113
84,114
43,114
85,114
44,114
86,114
45,114
87,114
46,114
88,114
47,114
89,115
48,115
90,116
49,116
91,116
50,117
92,117
51,117
93,117
52,117
94,117
95,118
53,118
54,118
111,99
113,97
113,103
113,96
113,100
113,99
113,101
113,102
114,103
114,97
114,102
114,100
114,99
123,96
123,100
1,97
1,101
1,96
1,103
1,102
62,131
62,113
62,139
62,105
62,122
62,13
62,14
62,118
30,116
30,114
30,125
30,13
31,117
31,4
31,3
31,12
31,120
94,9
94,106
94,107
94,14
94,129
94,126
94,113
