# Number of vertices:
200
# Edge list:
168,0
1,0
169,0
2,0
170,0
3,0
171,0
4,0
172,168
5,168
173,168
6,168
174,168
7,168
175,168
124,168
8,1
176,169
9,2
177,170
10,170
178,170
11,170
179,170
12,170
180,170
125,3
13,3
181,3
14,3
182,3
15,3
183,3
16,171
184,171
17,171
185,171
18,172
166,172
186,172
19,172
187,172
20,172
188,172
21,172
189,172
22,5
190,5
23,5
167,5
191,173
24,173
192,173
25,173
193,173
26,173
194,173
27,6
195,6
28,6
196,6
29,6
197,6
30,6
198,124
31,8
199,8
32,176
33,176
34,176
35,176
36,176
37,176
38,176
39,176
40,9
41,9
42,9
84,9
126,9
43,177
85,177
127,177
44,177
86,177
128,177
45,10
87,10
129,10
46,10
88,10
130,10
47,178
89,178
131,178
48,178
90,178
132,11
49,11
91,11
133,11
50,179
92,12
134,12
51,12
93,12
135,12
52,12
94,12
136,12
53,180
95,180
137,180
54,180
96,180
138,180
55,180
97,125
139,125
56,125
98,125
140,125
57,125
99,125
141,125
58,125
100,13
142,13
59,13
101,13
143,13
60,13
102,13
144,13
61,181
103,181
145,14
62,14
104,14
146,14
63,14
105,14
147,14
64,182
106,182
148,182
65,182
107,182
149,182
66,182
108,182
150,182
67,15
109,15
151,15
68,15
110,15
152,183
69,183
111,183
153,183
70,16
112,16
154,184
71,184
113,184
155,184
72,184
114,184
156,184
73,17
115,17
157,17
74,17
116,17
158,17
75,17
117,17
159,17
76,185
118,185
160,185
77,185
119,185
161,185
78,185
120,185
162,18
79,18
121,18
163,18
80,18
122,18
164,166
81,166
123,186
165,186
82,186
83,186
173,2
173,3
173,1
14,171
14,4
14,2
14,169
15,4
15,171
15,1
15,168
15,169
18,6
18,11
18,16
131,182
131,16
91,175
91,17
91,13
134,10
134,124
134,17
134,184
51,185
94,183
94,179
94,180
94,178
94,185
96,13
148,11
65,180
65,9
107,15
107,184
107,181
153,175
153,185
153,13
112,176
112,7
112,175
112,182
76,173
76,12
120,16
120,172
120,182
162,129
162,97
165,61
165,129
165,167
165,106
165,113
