# Number of vertices:
200
# Edge list:
106,0
107,0
108,0
109,0
110,0
111,0
112,0
113,106
114,106
115,106
116,106
117,106
118,106
119,106
120,106
121,107
122,107
123,107
124,107
125,107
126,107
1,107
127,108
2,108
128,108
3,108
129,108
4,108
130,108
5,109
131,109
6,109
132,110
7,110
133,110
8,110
134,110
9,110
135,111
10,111
136,111
11,111
137,111
12,111
138,112
13,112
139,112
14,112
140,113
15,113
141,113
16,113
142,113
17,113
143,113
18,113
144,113
19,114
145,114
20,114
146,114
21,115
147,115
22,115
64,116
23,116
65,116
178,116
166,116
24,116
66,116
151,116
170,118
25,118
67,118
26,118
68,118
183,118
149,118
27,119
69,119
155,119
165,119
28,119
70,119
154,120
29,120
71,120
181,120
30,120
72,120
180,120
150,121
194,121
31,121
73,121
32,121
74,121
153,121
190,122
33,123
75,123
185,123
34,123
76,123
163,123
35,123
77,124
184,124
36,124
78,124
179,124
37,124
79,124
172,124
182,124
38,125
80,125
175,126
192,126
39,126
81,126
198,126
40,126
82,126
167,126
41,1
83,1
152,1
42,1
84,1
43,1
85,127
157,127
44,127
86,127
186,127
45,127
87,127
177,127
46,127
88,2
47,2
89,2
148,2
195,2
48,2
90,2
169,2
49,128
91,128
162,128
50,3
92,3
199,3
174,3
51,3
93,3
171,3
159,3
52,3
94,130
189,130
53,130
95,5
156,5
164,5
191,5
54,5
96,5
176,5
55,5
97,5
188,131
161,131
56,131
98,131
197,6
168,6
57,6
99,6
158,6
58,6
100,6
173,132
59,132
101,132
60,132
102,132
193,132
61,132
103,7
187,7
105,7
62,7
104,7
160,7
196,133
63,133
123,111
123,108
126,108
126,106
132,106
132,112
132,108
132,111
132,107
137,112
137,110
137,106
170,138
170,113
170,130
170,131
31,118
31,139
31,114
34,126
77,10
77,129
77,117
77,114
184,6
36,120
186,129
186,123
186,131
186,121
87,128
164,9
54,132
97,128
97,115
97,132
97,3
101,114
60,127
60,117
