# Number of vertices:
200
# Edge list:
65,0
149,0
66,0
150,0
67,0
151,0
68,0
152,0
69,65
153,65
70,149
154,66
71,66
155,66
72,66
156,66
73,150
74,150
75,150
76,150
77,150
78,150
79,150
80,67
81,67
82,67
83,67
193,151
84,151
85,68
86,152
87,152
88,152
89,152
90,152
91,152
92,152
93,152
94,69
95,69
96,69
97,69
98,69
99,69
100,69
101,69
22,69
102,153
103,153
104,153
105,153
106,153
23,153
107,153
24,153
108,153
175,70
180,154
25,71
109,71
170,72
26,156
110,73
174,73
191,73
27,73
111,73
173,74
28,75
112,75
192,75
29,75
113,75
172,75
30,75
114,75
190,75
31,76
115,76
171,76
32,77
116,77
189,77
33,77
117,77
187,78
34,78
118,78
35,78
119,78
179,78
169,78
36,78
120,80
165,80
37,80
121,80
168,80
38,80
122,80
188,80
39,80
123,81
167,81
40,81
124,81
186,81
41,81
125,81
166,81
42,82
126,82
1,82
185,82
43,82
127,82
2,82
44,83
128,83
184,83
3,83
45,83
129,83
164,83
4,84
46,84
130,85
161,85
148,85
5,85
47,85
131,87
163,87
176,87
6,87
48,87
132,87
198,88
7,88
49,88
133,88
162,88
177,88
8,88
50,89
134,89
9,89
51,91
135,91
158,91
178,91
199,91
10,91
52,91
136,92
197,92
11,92
53,92
137,92
160,92
12,92
54,92
138,94
196,94
13,94
55,94
139,94
159,95
14,95
56,95
140,96
195,96
15,96
57,96
141,97
16,97
58,97
142,97
183,97
17,97
59,97
143,97
157,98
18,98
60,98
144,98
182,98
19,98
61,98
145,98
181,99
20,99
62,99
146,99
194,100
21,100
63,100
147,100
64,100
154,67
154,150
154,151
154,68
154,152
82,66
82,150
82,151
82,152
83,65
83,68
83,152
93,67
93,65
93,66
93,150
93,151
172,84
115,193
115,85
171,88
169,89
169,93
169,83
169,92
36,83
37,92
37,84
121,75
124,89
124,71
148,77
148,91
148,153
148,82
48,154
48,74
48,76
48,155
198,79
133,81
133,83
133,90
133,87
133,89
51,87
51,75
51,80
199,156
199,79
199,76
199,81
195,94
195,163
195,100
62,165
62,126
