# Number of vertices:
200
# Edge list:
50,0
102,0
176,0
51,0
177,0
133,0
52,0
93,50
178,50
53,50
179,50
132,50
54,50
92,50
180,50
55,50
103,102
181,102
131,102
56,102
182,102
57,102
183,102
130,102
58,176
184,176
59,176
98,51
185,51
129,51
60,51
100,51
175,51
186,51
61,52
187,52
128,52
62,52
188,52
127,52
63,52
99,52
189,52
64,93
106,93
190,93
126,93
65,93
191,178
66,178
107,178
192,178
125,178
67,178
193,53
68,53
194,179
7,179
124,179
69,179
97,179
195,132
123,132
70,132
122,54
196,54
71,54
197,54
72,54
96,54
198,54
121,54
73,54
199,180
74,180
120,180
75,180
119,180
76,180
77,180
95,180
118,180
78,55
79,55
117,55
80,55
104,55
81,55
105,55
116,103
82,103
115,103
83,103
114,103
84,103
101,103
85,103
113,103
86,181
94,181
112,181
87,181
88,181
111,181
89,181
110,131
90,131
109,131
91,131
108,131
8,131
134,131
9,57
135,183
10,183
136,183
11,183
137,183
12,183
138,183
13,130
139,130
14,130
140,130
15,130
141,130
16,130
142,58
17,58
143,184
18,184
144,59
19,59
145,98
20,98
146,98
21,98
147,98
22,185
148,129
23,129
149,129
24,129
150,129
25,60
151,100
26,100
152,100
27,100
153,100
28,100
154,175
29,175
155,175
30,175
156,175
31,175
157,175
32,175
158,175
33,186
159,186
34,186
160,61
35,61
161,61
36,187
162,187
37,187
163,187
38,187
164,128
39,128
165,128
40,128
166,128
41,62
167,62
42,62
168,62
1,188
43,188
169,188
2,127
44,127
170,63
3,63
45,63
171,63
4,99
46,99
172,99
5,99
47,99
173,189
6,189
48,189
174,189
49,64
187,102
187,177
187,176
187,51
187,50
188,176
125,132
125,62
125,93
125,58
125,98
97,185
195,178
96,185
96,189
96,59
96,183
75,53
75,181
75,131
8,98
8,184
13,179
13,181
13,180
139,63
139,188
139,131
139,57
139,56
146,182
146,183
150,130
150,188
150,92
150,99
152,179
33,181
33,98
38,178
171,181
171,127
171,61
171,130
171,179
46,54
47,54
47,56
47,128
47,180
173,127
173,55
