# Number of vertices:
200
# Edge list:
138,0
180,0
139,0
181,0
11,0
140,0
182,0
141,0
183,0
142,0
184,0
143,0
185,0
144,0
186,0
145,0
187,0
146,0
188,0
147,138
189,138
148,138
190,138
149,138
191,138
150,138
192,139
151,139
193,139
152,139
194,11
153,11
195,140
154,140
196,140
155,140
197,140
156,182
198,141
157,141
199,141
158,141
159,141
160,141
161,141
162,183
163,183
164,142
165,142
166,142
167,142
168,142
169,142
170,142
171,142
172,142
173,184
174,184
175,184
176,143
177,143
178,143
179,143
94,143
12,143
54,185
96,185
13,185
55,185
97,185
14,185
56,185
98,185
15,144
57,144
99,144
16,144
58,144
95,144
100,144
17,144
59,144
101,145
18,145
60,145
102,145
19,145
61,145
103,187
20,187
62,187
104,187
21,187
63,187
105,187
22,187
64,146
106,146
23,146
65,146
107,188
24,188
66,188
108,188
25,188
67,188
109,188
26,147
68,147
110,147
27,147
69,147
111,189
28,189
70,189
112,148
29,148
71,148
113,148
30,190
72,190
114,190
136,190
73,190
31,190
115,190
74,190
32,190
116,149
33,149
75,149
117,191
34,191
76,191
118,191
35,150
77,150
119,150
137,150
36,192
78,151
120,151
37,193
79,193
121,193
38,193
80,193
122,193
39,152
81,152
123,152
40,152
82,152
124,152
41,194
83,194
125,194
42,194
84,194
126,153
1,153
43,153
85,195
127,195
2,154
44,197
86,197
128,197
3,197
45,197
87,198
129,198
4,198
46,199
88,199
130,158
5,159
47,160
89,160
131,160
6,160
48,160
90,161
132,161
7,161
49,161
91,161
133,162
8,162
50,164
92,164
134,164
9,164
51,164
10,164
93,164
135,164
52,165
53,165
191,185
191,140
191,144
191,187
150,146
164,186
167,141
167,181
167,182
167,140
98,138
98,181
98,145
98,186
98,180
102,182
102,141
102,139
102,183
105,140
105,139
105,138
106,143
106,141
106,185
111,60
111,173
111,196
111,164
111,197
39,19
39,17
3,174
3,161
3,175
3,61
3,177
87,173
89,152
89,97
89,104
89,62
89,198
92,66
92,63
92,176
