# Number of vertices:
200
# Edge list:
79,0
163,0
80,0
164,0
81,0
165,0
82,0
166,0
83,0
167,0
84,0
168,0
85,0
169,0
86,0
170,0
87,0
171,0
88,0
172,0
89,79
173,79
90,79
174,79
91,79
175,80
92,80
176,80
93,164
177,164
94,164
178,164
95,164
179,164
96,164
180,164
97,164
181,165
98,82
182,82
99,82
183,82
100,82
184,82
101,82
185,166
102,166
186,166
103,166
187,166
104,166
188,166
105,166
189,83
106,83
190,167
107,167
191,167
108,84
192,84
109,168
193,168
110,168
194,168
111,168
195,85
112,85
196,85
113,169
197,169
114,169
198,169
115,169
199,169
116,170
117,170
118,170
119,170
120,170
37,170
121,170
38,170
122,170
39,87
123,87
40,87
124,87
41,171
125,171
42,171
126,171
1,171
43,171
127,88
2,88
44,88
128,88
3,88
45,88
129,88
4,88
46,173
130,173
5,173
47,173
78,173
131,173
6,173
48,173
132,173
7,90
49,90
133,90
8,90
50,90
134,174
9,174
51,91
135,91
10,91
52,91
136,175
11,175
53,175
137,175
12,92
54,92
138,92
13,92
55,92
139,92
14,92
56,92
140,176
57,176
15,176
141,176
16,93
58,93
142,93
17,93
59,93
143,177
18,177
60,177
144,177
19,177
61,94
145,94
20,94
62,94
146,94
21,94
63,94
147,178
22,178
64,178
148,178
23,178
65,178
149,178
24,178
66,178
150,95
162,95
25,95
67,179
151,179
26,179
68,179
152,179
27,179
69,179
153,96
28,96
70,96
154,96
29,96
71,180
155,180
30,180
72,180
156,180
31,180
73,180
157,180
32,97
74,97
158,98
33,98
75,98
159,98
34,98
76,182
160,182
35,182
77,99
161,99
36,99
173,170
173,88
173,167
101,167
108,81
108,80
108,170
108,83
116,165
116,88
116,168
116,82
37,168
47,113
47,108
47,125
47,102
47,118
131,194
131,188
131,125
131,92
48,178
48,97
48,106
48,120
134,112
12,185
12,110
12,118
14,117
14,196
14,97
14,193
14,199
16,4
16,127
16,191
58,106
153,108
153,122
153,111
153,94
157,120
157,3
