# Number of vertices:
200
# Edge list:
144,0
143,0
154,0
142,0
153,0
141,0
163,0
151,0
140,0
197,0
152,0
139,144
134,144
196,143
138,143
193,143
162,142
189,153
137,153
160,153
136,153
167,153
195,153
194,153
164,153
135,141
192,141
161,141
191,141
124,163
188,163
190,163
148,163
133,163
171,151
187,151
150,140
132,140
186,140
149,140
185,140
131,140
130,140
184,140
159,140
183,197
157,152
182,152
198,152
145,152
181,152
129,152
170,139
180,139
169,134
1,134
147,134
128,134
179,138
2,138
178,138
146,138
3,138
127,138
177,138
4,138
155,193
176,193
5,162
126,162
83,162
6,162
158,162
175,162
125,189
168,189
199,189
156,137
174,137
173,160
172,160
28,160
77,160
20,160
54,136
118,136
46,136
53,136
86,136
19,167
52,167
92,167
45,167
51,167
116,167
18,167
63,194
115,164
47,164
76,164
117,164
17,164
75,164
114,164
43,135
57,135
88,135
16,135
74,135
121,192
14,191
59,191
120,191
15,191
55,124
90,124
44,124
50,188
119,188
73,188
112,188
25,188
72,188
85,190
24,190
60,190
111,190
13,190
56,190
93,190
27,190
89,190
26,148
80,148
61,133
110,133
31,133
12,133
71,133
87,133
49,171
7,187
91,187
67,187
41,187
104,187
29,187
70,187
108,150
30,150
69,150
107,132
33,132
68,132
106,132
34,132
105,186
81,186
35,186
122,186
79,186
42,186
109,186
78,186
11,186
48,149
123,149
39,149
58,149
113,149
38,131
65,131
102,131
40,131
64,131
101,131
36,130
66,130
100,130
23,130
62,130
103,130
8,184
98,184
9,184
99,184
32,184
97,184
165,184
37,184
94,159
166,159
22,183
95,183
96,183
21,183
84,183
10,183
82,183
134,143
136,152
136,154
136,144
136,142
136,143
132,197
132,143
132,142
131,154
131,144
179,198
179,135
179,194
179,188
175,192
175,195
175,131
175,182
92,182
45,157
45,195
45,189
45,136
14,182
14,183
14,187
55,185
55,182
55,157
25,184
25,129
25,148
25,171
87,181
67,130
70,186
78,136
78,184
78,131
78,193
78,133
100,135
100,184
100,139
94,189
94,191
94,160
94,184
