# Number of vertices:
200
# Edge list:
196,0
149,0
197,0
153,0
117,0
198,0
199,0
152,0
151,0
133,0
131,0
150,0
148,0
147,0
146,0
112,0
145,0
1,0
144,0
143,0
2,0
142,196
3,196
141,196
4,196
113,196
140,196
5,196
139,196
6,196
138,149
7,149
137,149
8,149
136,149
9,149
135,149
10,197
115,197
11,197
134,197
12,197
13,117
132,117
14,117
130,198
15,198
129,198
16,198
128,198
17,198
127,198
18,199
126,199
19,199
125,199
20,199
124,199
21,199
123,199
22,199
116,152
122,152
23,151
121,151
24,151
114,151
25,151
120,151
26,151
119,133
27,133
118,133
28,133
70,133
154,133
29,131
71,131
155,131
30,131
72,131
156,150
31,150
73,150
157,150
32,150
74,150
158,150
33,150
75,148
159,148
34,147
76,147
160,147
35,147
77,147
161,147
36,147
78,147
162,147
37,146
79,146
163,112
38,112
80,112
164,112
39,112
81,112
165,145
40,1
82,1
166,1
41,1
83,1
167,1
42,1
84,143
168,143
43,143
85,143
169,143
44,143
86,143
170,143
45,142
87,142
171,142
46,142
88,142
172,142
47,142
89,3
173,3
48,3
90,3
174,141
49,141
91,141
175,141
50,141
92,4
176,4
51,4
93,4
177,4
52,4
94,4
178,113
53,113
95,113
179,140
54,140
96,140
111,5
180,5
55,5
97,5
181,5
56,5
98,139
182,139
57,139
99,139
183,139
58,139
100,6
184,6
59,6
101,6
185,7
60,7
102,7
186,7
61,7
103,7
187,7
62,137
104,137
188,137
195,137
63,137
105,137
189,137
64,137
106,137
190,8
65,8
107,136
191,136
66,136
108,136
192,9
67,9
109,9
193,9
68,9
110,9
194,9
69,9
142,144
142,112
142,150
140,1
140,145
140,131
6,144
130,148
130,151
130,150
130,147
17,131
116,150
116,148
116,143
116,1
116,153
33,112
163,146
38,153
167,149
167,133
167,145
85,196
85,131
85,1
85,198
85,144
88,37
88,41
88,138
88,83
88,13
47,138
89,31
89,116
91,160
91,29
91,154
91,82
91,12
175,136
175,75
175,27
175,157
92,38
92,22
52,139
181,164
181,37
56,128
56,29
56,163
56,157
182,29
60,28
60,16
60,25
195,22
63,19
63,78
64,165
64,36
