# Number of vertices:
200
# Edge list:
57,0
141,0
58,0
142,0
59,0
143,0
60,0
144,0
61,0
145,0
62,0
146,0
63,0
147,57
64,141
148,141
65,141
149,141
66,58
150,58
67,58
151,58
68,58
152,58
69,58
153,58
70,58
154,142
71,142
155,142
72,142
156,142
73,59
157,59
74,59
158,59
75,59
159,59
76,59
160,143
77,60
161,60
78,60
162,60
79,60
163,60
80,60
164,60
81,60
165,144
82,144
166,61
83,146
167,146
84,146
168,146
1,146
85,146
169,146
2,146
86,147
170,147
3,147
87,147
171,147
4,147
88,64
172,64
5,64
89,64
173,64
6,148
90,65
174,65
7,65
91,65
175,65
8,65
92,65
176,65
9,149
93,149
177,149
10,149
94,149
178,149
11,149
95,67
179,67
12,151
96,151
180,151
13,151
97,151
181,151
14,151
98,68
182,68
15,152
99,152
183,152
16,153
100,153
184,153
17,153
101,153
140,70
185,70
18,70
102,70
186,70
19,70
103,70
187,70
20,154
104,71
188,71
21,71
105,71
189,71
22,71
106,71
190,71
23,71
107,155
191,155
24,155
108,155
192,155
25,155
109,72
193,72
26,72
110,72
194,72
27,156
111,156
195,156
28,156
112,156
196,156
29,73
113,73
197,73
30,73
114,73
198,73
31,157
115,74
199,74
32,158
116,158
33,158
117,158
34,158
118,158
35,158
119,75
36,75
120,159
37,159
121,159
38,159
122,159
39,159
123,159
40,159
124,76
41,76
125,76
42,76
126,76
43,76
127,160
44,77
128,77
45,77
129,77
46,77
130,78
47,78
131,162
48,162
132,79
49,79
133,79
50,79
134,79
51,79
135,79
52,163
136,163
53,80
137,80
54,80
138,80
55,80
139,80
56,80
153,144
153,60
72,141
72,57
72,145
156,59
77,141
79,146
79,59
163,58
163,57
163,141
163,146
3,1
3,162
3,164
3,169
3,69
174,70
174,163
174,81
92,83
13,164
13,68
13,76
13,152
13,168
97,169
97,147
97,148
97,81
15,77
15,72
15,83
189,163
189,149
189,77
22,152
22,158
22,77
22,156
191,80
191,156
191,73
123,168
123,167
123,64
131,159
134,1
134,152
134,158
134,72
134,167
