# Number of vertices:
200
# Edge list:
27,0
80,0
122,0
166,0
30,0
81,0
123,0
165,0
29,0
82,0
124,0
28,0
83,0
125,0
33,0
84,0
126,0
35,0
85,0
127,27
164,27
34,27
86,27
128,27
36,80
24,80
87,80
129,80
181,80
23,80
88,80
130,122
22,122
89,122
131,122
173,122
25,122
48,166
90,166
72,166
132,166
199,166
91,166
133,30
198,30
39,30
26,30
52,81
92,81
71,81
134,81
197,81
93,81
135,81
196,81
31,123
47,123
94,123
136,123
38,123
70,123
95,165
137,165
172,165
32,165
195,165
96,165
138,165
194,165
40,29
69,29
53,29
97,29
139,29
37,29
98,29
140,82
68,82
193,82
99,82
141,82
171,124
21,124
100,124
142,124
67,124
192,124
101,124
143,124
4,124
191,28
20,28
46,83
102,83
10,83
66,83
144,83
51,83
103,83
145,83
170,83
19,125
104,125
146,125
65,125
189,125
105,125
147,125
3,33
18,84
45,84
106,126
2,126
64,126
148,126
54,126
107,35
149,35
169,35
187,35
188,35
17,35
108,35
150,35
5,85
63,85
168,85
41,85
109,85
151,85
1,85
186,85
16,85
110,127
152,127
9,127
62,127
185,127
111,127
153,127
7,164
184,164
15,164
50,164
112,164
61,164
154,164
183,164
44,164
113,34
155,34
8,34
182,34
14,34
49,34
114,86
60,86
156,86
180,128
43,128
115,128
157,128
190,128
13,128
116,128
158,128
59,36
167,36
179,36
55,36
117,36
159,36
178,36
12,36
118,24
160,24
6,24
58,87
177,87
119,87
161,87
176,87
42,129
11,129
120,129
57,181
162,181
175,181
56,181
121,181
163,88
174,88
73,88
74,88
75,88
76,88
77,88
78,130
79,130
131,126
131,165
131,84
131,29
31,85
31,29
95,85
95,123
95,29
195,85
195,124
192,165
192,83
101,28
101,125
101,81
101,166
101,122
143,122
143,125
143,27
4,122
104,123
104,28
104,82
104,81
5,83
5,33
62,129
111,89
111,96
111,86
111,173
153,89
153,181
153,34
114,31
190,187
190,22
190,93
190,64
190,141
116,130
116,105
116,89
55,102
178,134
177,39
177,3
177,45
177,131
177,168
75,139
75,142
75,127
75,145
