# Number of vertices:
200
# Edge list:
111,0
112,0
25,0
113,0
114,0
115,0
116,0
117,0
26,0
118,0
119,0
120,0
121,0
122,0
123,0
124,0
125,0
126,0
127,0
128,0
129,0
130,0
131,0
132,0
133,0
134,0
135,0
136,0
137,0
138,111
139,112
140,112
141,112
142,112
143,112
144,112
145,25
146,25
147,25
148,25
149,25
150,25
151,25
152,113
27,113
69,113
153,113
195,113
28,113
70,113
154,113
196,113
29,114
71,114
155,114
193,114
197,114
30,114
72,114
156,114
198,115
31,115
73,115
157,115
199,115
32,115
74,115
158,115
33,116
75,116
159,116
34,116
76,116
160,117
194,117
35,117
77,117
161,117
36,117
78,117
162,117
37,26
79,26
163,26
38,26
80,118
164,119
39,119
81,119
165,119
40,120
82,120
166,120
41,120
83,120
167,121
42,121
84,121
168,121
1,121
43,121
85,121
169,122
2,122
44,122
86,122
170,122
3,122
45,122
87,123
109,124
171,124
46,124
4,124
88,125
172,125
47,125
5,125
89,126
173,126
6,126
48,126
90,126
174,126
7,127
49,127
91,127
175,127
8,127
50,127
92,127
110,127
176,128
9,128
51,128
93,128
177,128
10,128
52,128
94,128
178,129
11,130
53,130
95,131
179,131
12,131
54,132
96,135
180,135
13,135
55,135
97,135
181,136
14,136
56,136
98,136
182,137
15,138
57,138
99,138
183,138
16,138
58,139
100,139
184,140
17,140
59,141
101,141
185,141
18,141
60,142
102,143
186,143
19,143
61,143
103,143
187,143
20,143
62,144
104,144
188,144
21,145
63,145
105,145
189,145
22,146
64,146
106,146
190,146
23,146
65,146
107,146
191,147
24,147
66,147
108,147
192,147
67,147
68,147
153,117
153,130
153,128
71,135
71,122
71,116
71,118
71,132
30,131
40,133
40,121
40,25
46,121
46,136
46,113
46,125
4,114
4,120
4,123
172,136
5,129
5,135
5,121
55,26
55,122
181,121
181,123
181,127
182,25
182,26
182,132
100,96
100,80
100,149
100,79
103,197
103,173
103,159
103,33
67,80
