# Number of vertices:
200
# Edge list:
76,0
160,0
77,0
161,76
78,76
162,76
79,76
163,76
80,76
164,160
81,160
165,160
82,160
166,160
83,160
167,160
84,160
168,161
85,161
169,78
86,78
170,78
87,78
171,162
88,162
172,79
89,79
173,79
90,79
174,79
91,163
175,163
92,163
176,80
93,80
177,164
94,164
178,164
95,164
179,81
96,81
180,81
97,81
181,165
98,165
182,165
99,165
183,165
100,165
184,82
101,82
185,82
102,166
186,166
103,166
187,166
104,166
188,166
105,167
189,167
106,167
190,84
107,84
191,84
108,84
192,84
109,84
193,168
110,168
194,168
111,168
195,168
112,168
196,168
113,168
197,85
114,85
198,86
115,86
199,86
116,86
117,86
71,86
118,170
70,170
119,170
35,170
120,170
69,170
121,170
68,170
122,170
62,87
123,87
60,87
124,87
59,88
125,88
58,88
126,88
1,88
34,88
127,88
2,88
61,88
128,172
3,172
74,172
129,172
4,172
56,172
130,172
5,172
48,89
131,89
6,89
73,89
132,89
7,89
65,89
133,89
33,89
8,173
57,173
134,90
9,90
54,90
135,90
10,174
53,174
136,174
11,174
52,174
137,174
51,174
12,174
138,174
13,91
46,91
139,91
14,91
45,91
140,175
15,92
44,92
141,92
16,93
43,93
142,93
17,93
42,93
143,93
18,93
66,177
144,177
159,177
19,177
50,177
145,177
20,177
41,177
146,94
21,94
47,94
147,178
22,178
40,178
148,178
23,178
38,95
149,95
24,95
39,95
150,95
25,95
37,95
151,95
26,95
75,179
152,179
27,179
72,179
153,179
28,179
55,179
154,179
29,96
67,96
155,96
30,96
64,180
156,180
31,97
49,97
157,97
32,97
36,97
158,97
63,97
82,76
82,77
166,76
166,77
83,77
83,76
85,78
85,81
85,79
85,83
85,167
170,165
87,162
87,81
102,84
188,81
193,86
193,181
112,191
112,108
112,181
112,105
198,105
198,187
198,95
68,91
1,95
1,85
1,177
34,173
34,86
34,170
3,100
3,109
3,98
74,101
74,189
74,86
74,191
12,99
12,107
12,192
12,105
43,172
43,168
43,171
43,109
47,92
38,180
38,176
38,85
39,94
151,168
151,96
151,191
151,176
152,88
152,185
152,93
152,104
152,108
29,92
49,175
49,173
49,99
49,102
