# Number of vertices:
200
# Edge list:
39,0
81,0
165,0
40,0
82,0
166,0
41,0
83,0
167,0
42,0
84,0
168,0
43,0
85,0
169,0
44,0
86,0
170,0
45,0
87,0
171,0
46,0
88,0
172,39
164,39
47,81
89,81
173,81
48,81
90,81
174,81
49,81
91,81
175,81
50,165
92,165
176,165
51,165
93,165
177,165
52,165
94,40
178,40
53,40
95,40
179,40
54,40
96,82
180,82
55,82
97,82
181,82
56,166
98,166
182,166
57,83
99,83
183,83
58,83
100,83
184,83
59,83
101,83
185,83
60,167
102,167
186,167
61,167
103,42
187,42
62,42
104,42
188,42
63,84
105,84
189,84
64,84
106,84
190,84
65,84
107,168
191,168
66,168
108,168
192,168
67,168
109,43
193,43
68,43
110,43
194,43
69,43
111,85
195,85
70,85
112,169
196,169
71,169
113,169
197,44
72,44
114,44
198,44
73,44
115,44
199,44
74,86
116,86
75,86
117,170
76,170
118,170
77,170
119,170
78,170
120,170
79,170
121,170
80,45
122,45
123,45
124,45
125,45
126,45
1,45
127,45
2,45
128,87
3,87
129,87
4,171
130,171
5,46
131,46
6,46
132,46
7,46
133,88
8,88
134,88
9,88
135,88
10,88
136,172
11,172
137,172
12,172
138,172
13,172
139,164
14,47
140,47
15,47
141,89
16,89
142,89
17,89
143,89
18,89
144,89
19,89
145,89
20,173
146,173
21,173
147,48
22,49
148,49
23,49
149,49
24,49
150,49
25,91
151,91
26,175
152,175
27,175
153,175
28,175
154,175
29,175
155,175
30,50
156,50
31,50
157,50
32,50
158,50
33,50
159,50
34,50
160,92
35,92
161,92
36,176
162,51
37,51
163,51
38,51
178,45
178,86
55,42
101,43
63,46
108,88
108,171
108,45
108,40
108,166
70,87
70,82
70,165
70,40
70,88
112,165
79,39
2,86
16,67
16,188
16,198
16,127
16,55
143,129
144,115
19,66
19,63
19,48
19,189
147,123
147,175
147,188
147,106
22,114
22,120
22,54
22,116
28,58
28,185
28,105
28,50
28,75
154,10
154,64
154,176
154,192
35,65
