# Number of vertices:
200
# Edge list:
85,0
127,0
169,0
86,0
128,0
170,0
87,0
129,0
171,85
88,85
130,85
172,85
89,85
131,85
173,127
90,127
132,127
174,127
91,127
133,127
175,127
92,127
134,169
176,169
93,169
135,169
177,169
94,169
136,169
178,86
95,86
137,86
179,128
96,128
138,128
180,128
97,128
139,128
181,128
98,128
140,170
182,170
99,170
141,170
183,170
100,170
142,170
184,170
101,87
143,87
185,87
102,87
144,129
186,129
103,129
145,129
187,129
104,171
146,88
188,172
105,172
147,172
189,172
106,172
148,172
190,89
107,131
149,131
191,131
108,131
150,131
83,131
192,131
109,173
151,173
193,173
110,173
152,173
194,173
111,173
153,173
195,90
112,90
154,90
196,90
113,90
155,132
84,132
197,132
114,132
156,132
198,132
115,132
157,91
199,91
116,133
158,133
117,133
159,133
118,133
160,133
119,133
161,133
120,133
162,175
121,92
163,92
122,92
164,92
123,134
165,134
124,134
166,134
125,134
167,134
126,134
168,134
1,134
43,176
2,176
44,176
3,176
45,176
4,176
46,176
5,176
47,93
6,93
48,93
7,93
49,93
8,93
50,93
9,93
51,93
10,135
52,135
11,135
53,135
12,135
54,135
13,135
55,135
14,135
56,177
15,177
57,177
16,177
58,177
17,177
59,94
18,94
60,136
19,136
61,136
62,178
20,178
63,178
21,178
22,178
64,178
23,178
65,95
24,95
66,95
25,95
67,95
26,95
68,95
27,95
69,95
28,137
70,137
29,137
71,137
30,137
72,137
31,137
73,137
32,179
74,179
33,179
75,179
34,179
76,179
35,179
77,179
36,96
78,96
37,96
79,96
38,96
80,138
39,180
81,180
40,180
82,180
41,180
42,180
89,128
92,87
92,170
92,169
92,128
95,169
95,87
95,85
95,128
95,127
141,169
141,85
143,169
143,170
143,86
147,182
147,137
147,138
153,135
156,185
199,93
199,101
199,143
199,102
199,98
117,173
117,98
117,142
117,134
161,100
6,142
6,171
6,92
7,183
7,181
19,144
66,98
81,133
81,138
81,175
81,142
81,89
40,135
40,101
40,185
40,176
40,181
