# Number of vertices:
200
# Edge list:
33,0
75,0
159,0
34,0
76,0
160,0
35,33
77,33
161,75
36,75
78,75
162,75
37,75
79,75
163,159
38,159
80,159
164,159
39,34
81,34
165,76
40,76
82,160
166,160
41,35
83,35
167,35
42,35
84,35
168,35
43,77
85,77
169,77
44,77
86,77
170,77
45,77
87,77
171,77
46,161
88,36
172,36
47,36
89,36
173,78
48,78
90,78
174,78
49,78
91,78
175,78
50,162
92,162
176,37
51,37
93,37
177,79
52,79
94,79
178,79
53,79
95,79
179,79
54,79
96,163
180,163
55,163
97,163
181,163
56,163
98,163
182,163
57,38
99,38
183,38
58,80
100,80
184,80
59,80
101,80
185,164
60,164
102,164
186,81
61,81
103,81
187,165
62,165
104,165
188,165
63,165
105,165
189,165
64,40
106,40
190,82
65,82
107,82
191,82
66,82
108,166
192,166
67,166
109,166
193,166
68,166
110,41
194,41
69,167
111,167
195,167
70,42
112,42
196,42
71,42
113,42
197,84
72,84
114,84
198,168
73,168
115,43
199,43
74,43
116,85
117,169
118,169
119,44
120,44
121,44
122,44
123,44
124,44
125,86
126,86
1,170
127,170
158,170
2,170
128,170
3,170
129,170
4,170
130,170
5,45
131,45
6,45
132,45
7,45
133,45
8,171
134,171
9,171
135,171
10,46
136,88
11,88
137,88
12,88
138,172
13,172
139,172
14,172
140,172
15,47
141,47
16,47
142,47
17,47
143,47
18,47
144,47
19,47
145,89
20,89
146,89
21,89
147,89
22,173
148,173
23,173
149,173
24,173
150,173
25,48
151,48
26,90
152,90
27,90
153,90
28,90
154,49
29,49
155,49
30,49
156,49
31,91
157,175
32,175
163,160
163,34
81,160
81,33
81,159
86,38
86,37
171,79
55,78
55,162
184,162
184,40
184,77
184,79
184,39
191,164
191,165
70,61
70,172
70,92
70,68
131,96
131,61
131,59
131,105
131,188
8,175
8,108
8,101
8,95
8,86
14,107
149,191
149,63
149,55
157,43
