# Number of vertices:
200
# Edge list:
148,0
93,0
191,0
99,0
115,148
192,148
104,148
193,148
194,148
118,148
195,148
111,93
196,191
6,191
98,191
110,191
197,191
198,99
7,115
126,115
199,192
105,192
106,192
125,192
9,192
116,104
97,193
121,193
101,193
94,193
120,193
109,193
112,193
3,193
113,194
8,194
108,194
1,194
102,194
107,194
103,118
128,118
4,118
127,118
95,118
114,118
96,118
123,111
117,111
119,111
5,6
122,6
100,6
124,6
129,6
2,6
50,6
74,6
144,98
13,98
149,98
27,98
87,98
150,98
34,110
151,197
10,197
78,197
152,197
23,197
153,197
62,198
131,198
41,198
57,198
140,7
83,7
154,7
52,7
155,7
19,126
60,126
49,126
156,126
59,199
136,199
157,199
141,199
24,105
67,105
158,105
55,105
142,105
44,105
159,105
189,105
51,106
25,106
53,106
134,106
84,106
160,106
86,106
138,106
161,106
21,125
162,125
11,125
163,125
130,125
18,125
89,125
164,125
29,125
190,9
165,9
15,9
61,9
22,9
166,9
30,9
167,9
36,9
168,116
64,116
46,116
79,116
169,116
72,97
48,97
71,97
170,97
91,97
171,97
39,97
68,97
70,121
139,121
172,121
17,101
173,101
75,101
45,101
174,94
42,94
65,94
90,94
175,94
40,94
73,94
82,94
176,120
137,120
12,120
92,120
177,120
77,120
37,120
178,120
32,109
179,109
133,109
16,109
180,109
76,109
28,3
81,3
181,3
20,3
54,3
85,3
182,113
43,113
183,113
47,113
80,113
14,113
184,113
38,113
69,108
185,108
35,108
88,108
147,108
186,108
63,108
145,108
187,1
33,102
31,102
58,102
132,102
66,102
143,102
146,107
56,107
188,107
26,103
135,103
115,99
115,93
115,191
194,191
194,99
194,93
6,148
6,99
6,93
108,104
123,196
123,115
123,6
123,195
123,193
5,194
5,111
13,110
149,6
149,111
149,118
149,197
149,104
151,98
151,104
136,5
136,109
136,4
136,116
136,97
84,144
84,127
130,117
130,34
130,27
130,96
130,129
79,2
79,120
79,105
79,109
79,95
171,34
70,106
70,4
173,95
173,2
40,107
40,120
32,2
47,100
47,102
47,112
145,7
58,144
58,112
58,97
58,27
58,34
