# Number of vertices:
200
# Edge list:
182,0
140,0
160,0
14,0
47,0
88,0
126,0
159,0
43,0
87,0
125,0
158,0
180,0
48,0
86,0
124,0
46,0
75,0
123,0
179,0
83,0
157,0
80,0
133,0
24,0
131,0
178,0
23,182
85,140
132,140
21,140
84,140
150,140
82,140
129,140
177,160
22,160
156,160
198,160
81,160
128,14
18,14
66,14
134,14
176,47
17,47
79,47
130,88
20,88
78,88
122,88
175,88
19,88
155,126
77,126
121,126
181,126
1,126
15,126
76,126
120,126
174,126
16,43
154,87
2,87
119,87
36,87
3,87
56,87
71,87
33,87
118,87
173,125
4,125
70,125
135,125
27,125
153,125
5,158
69,158
116,158
30,158
152,180
172,48
6,48
68,48
117,48
52,48
67,86
7,124
115,124
34,46
151,46
171,46
72,46
8,75
127,75
50,75
65,75
9,75
137,75
170,75
41,75
74,179
192,179
10,179
139,179
54,179
73,80
191,80
11,80
136,133
169,133
26,133
62,133
149,133
12,133
138,133
51,133
64,24
148,24
13,24
168,24
53,24
92,24
114,131
193,178
38,178
61,23
147,85
101,85
167,85
190,85
55,85
63,132
113,132
195,132
196,132
29,132
89,132
189,132
105,84
166,84
197,84
35,84
91,84
112,84
100,150
146,150
185,150
49,82
95,82
145,82
165,82
37,82
199,82
39,129
96,177
111,177
194,177
31,177
93,177
104,177
164,22
32,22
90,22
110,22
44,22
99,22
58,156
144,198
45,198
103,198
163,198
94,198
109,198
142,198
188,198
25,81
97,81
143,81
162,81
184,81
42,81
108,81
187,81
183,81
28,128
60,128
141,128
98,128
161,128
40,18
59,18
107,18
106,18
186,18
57,66
102,66
84,124
130,24
130,133
130,87
130,157
130,131
173,180
173,47
173,80
173,158
172,14
172,124
172,75
172,178
92,125
61,51
61,81
61,120
167,41
113,22
113,73
113,135
113,2
35,74
35,130
35,11
35,8
31,13
60,56
40,120
40,8
40,10
