# Number of vertices:
200
# Edge list:
17,0
59,0
18,0
60,0
19,0
61,0
20,0
62,17
21,17
63,17
22,17
64,17
23,17
65,17
24,59
66,59
25,59
67,60
26,60
68,19
27,19
69,19
28,19
70,19
29,61
71,61
30,61
72,61
31,20
73,62
32,62
74,21
184,21
33,21
75,21
34,21
76,21
35,21
77,21
36,21
78,63
37,63
79,63
38,63
80,63
39,63
81,63
40,63
82,63
41,22
83,22
42,22
84,64
1,64
43,64
85,23
2,23
44,23
86,23
3,23
45,65
87,24
4,66
46,66
88,66
5,66
47,66
89,66
6,66
48,66
90,66
7,25
49,25
91,25
8,67
50,67
92,67
9,67
51,67
93,67
10,67
52,67
94,67
11,26
53,26
95,26
12,26
54,26
96,26
13,26
55,68
97,68
14,68
56,68
98,68
15,68
57,68
99,68
58,68
16,27
100,27
101,27
143,27
185,27
102,27
144,27
186,69
103,28
145,28
187,70
104,70
146,29
188,29
105,29
147,29
189,29
106,29
148,71
190,71
107,71
149,71
191,71
108,30
150,30
192,30
109,30
151,30
193,30
110,30
152,72
194,72
111,31
153,31
195,31
112,31
154,31
196,31
113,31
155,31
197,73
114,32
156,32
198,32
115,32
157,32
199,32
116,32
158,74
117,74
159,74
118,74
160,74
119,74
161,74
120,74
162,74
121,184
163,184
122,184
164,184
123,184
165,184
124,184
166,33
125,33
167,33
126,33
168,33
127,33
169,33
128,33
170,75
129,34
171,34
130,34
172,34
131,76
173,76
132,76
174,76
133,76
175,76
134,76
176,35
135,35
177,35
136,35
178,77
137,77
179,77
138,77
180,77
139,77
181,77
140,77
182,36
141,36
183,36
142,36
23,59
69,17
69,61
69,60
69,20
69,18
30,19
30,17
30,60
30,18
72,60
72,59
72,18
72,17
72,19
73,29
73,64
73,70
73,30
74,65
74,30
74,71
75,71
75,22
7,22
7,24
7,64
7,23
9,29
9,65
9,64
189,28
189,70
109,28
199,112
162,154
162,145
122,1
122,10
122,82
122,145
122,8
125,111
125,53
125,113
125,189
125,3
177,113
177,146
137,15
137,143
137,5
