# Number of vertices:
200
# Edge list:
133,0
175,0
134,0
176,0
135,0
177,0
136,0
178,0
137,0
179,0
138,0
180,0
139,0
181,0
140,0
182,0
141,0
183,0
142,0
184,0
143,0
185,133
144,133
186,133
145,133
187,133
146,133
188,134
147,134
189,134
148,134
190,134
149,134
191,134
150,134
192,134
151,176
193,176
152,176
194,135
153,135
195,135
154,135
196,135
155,177
197,177
156,177
198,177
157,136
199,136
158,136
159,136
160,136
161,136
162,136
163,178
164,178
165,178
166,178
167,178
168,137
169,137
170,137
171,137
172,137
173,137
174,137
6,137
7,137
49,179
91,179
8,138
50,138
92,138
9,138
51,180
93,180
10,139
52,139
94,139
11,139
53,181
95,181
12,181
54,140
96,140
13,140
55,140
97,182
14,182
56,182
98,182
15,182
57,182
99,182
16,141
58,141
100,141
17,141
59,183
101,183
18,183
60,184
102,184
19,143
61,143
103,143
20,143
62,143
104,143
21,143
63,143
105,185
22,185
64,144
106,144
23,144
65,186
107,186
24,186
66,186
108,145
25,145
67,145
90,145
109,145
26,187
68,187
110,187
69,187
27,187
111,187
28,187
70,146
112,147
29,147
71,147
113,147
30,147
72,189
114,189
31,189
73,189
115,189
32,189
74,189
116,189
33,189
75,148
117,148
34,148
76,148
118,148
35,148
77,190
119,190
36,190
78,190
120,190
132,190
37,190
79,149
121,149
38,191
80,150
122,150
39,150
81,150
123,150
40,150
82,150
124,150
41,192
83,192
125,192
42,192
84,192
126,192
1,192
43,151
85,151
127,151
2,151
44,151
86,151
128,151
3,193
45,193
87,193
129,193
4,193
46,193
88,193
130,152
5,152
47,152
89,152
131,152
48,152
191,141
191,178
191,142
191,181
191,143
150,180
150,143
150,136
150,184
10,183
10,184
10,138
10,135
12,134
12,177
16,137
16,139
58,182
65,99
65,54
65,159
107,91
107,150
107,163
107,146
107,99
24,14
24,17
24,144
24,199
24,191
111,18
111,191
111,14
111,193
28,103
28,63
28,57
28,60
28,51
30,195
30,14
30,15
30,59
30,51
36,59
122,145
81,158
41,54
127,51
127,195
127,157
129,98
129,151
129,144
130,144
