# Number of vertices:
200
# Edge list:
33,0
113,0
175,0
34,0
110,0
178,0
116,0
35,0
109,0
183,0
36,0
111,0
180,0
115,0
37,0
181,0
38,0
185,0
114,0
39,33
100,33
173,33
40,33
112,33
177,33
41,33
92,113
179,113
42,113
174,113
1,175
43,34
82,34
184,34
2,34
44,110
131,110
176,178
3,178
45,178
182,178
108,178
4,178
46,116
79,35
130,35
5,35
47,35
107,35
6,35
48,109
78,109
106,183
129,183
7,183
49,36
8,36
50,36
77,36
105,36
128,111
9,111
51,111
104,111
10,111
52,111
76,111
127,111
53,111
11,180
80,180
103,180
12,180
54,180
126,180
13,180
55,115
102,115
14,115
56,115
125,115
101,115
15,115
57,115
75,115
16,37
58,37
124,37
99,181
17,181
59,181
98,38
18,38
60,38
123,38
97,38
19,38
61,38
96,185
20,185
62,185
122,185
95,185
21,185
63,185
94,114
22,114
64,114
121,39
93,39
23,39
65,100
91,100
24,100
66,100
90,100
25,100
67,173
89,173
120,173
26,173
68,173
88,173
27,173
69,173
87,40
28,40
70,112
86,112
117,112
119,112
29,112
71,112
85,112
30,112
72,112
84,41
31,41
73,41
118,41
83,92
74,92
32,179
81,179
149,179
162,179
148,179
160,179
147,42
163,174
146,1
161,1
141,1
145,1
154,1
144,1
156,1
143,1
155,1
142,43
189,43
132,43
157,43
199,82
169,82
140,82
197,82
168,82
196,82
139,82
170,184
186,184
138,184
195,184
134,2
152,2
137,2
187,2
194,44
153,44
136,44
151,44
192,44
135,131
193,131
150,131
172,131
188,131
133,131
198,176
171,176
164,3
191,3
159,3
158,45
167,45
190,45
166,45
165,45
130,175
130,183
47,183
47,114
6,115
77,183
51,113
52,35
52,109
52,114
52,115
53,33
53,36
53,110
65,62
65,45
67,58
26,79
26,123
68,54
68,16
117,3
85,77
85,41
118,82
118,130
160,95
160,128
160,1
160,43
142,44
142,21
142,64
142,2
172,19
172,39
171,51
158,96
158,176
158,76
158,128
158,54
