# Number of vertices:
200
# Edge list:
76,0
77,0
78,0
88,0
101,0
100,0
91,0
90,0
89,0
87,0
92,0
97,0
72,0
71,0
73,0
74,0
64,76
98,76
96,76
95,76
94,76
93,77
99,77
75,77
82,77
62,78
1,78
61,78
2,78
63,78
3,88
60,88
4,88
83,88
5,88
80,100
6,100
79,100
7,100
86,100
8,100
85,91
9,91
84,91
10,91
81,90
11,90
12,89
65,89
13,89
70,87
14,87
69,87
15,87
68,92
16,92
67,97
66,97
17,97
18,97
102,97
144,71
186,71
19,71
103,71
145,71
187,71
20,71
104,71
146,71
188,73
21,73
105,74
147,64
189,64
22,64
106,64
148,64
190,64
23,64
107,64
149,64
191,98
24,98
108,96
150,96
192,96
25,96
109,96
151,95
193,95
26,95
110,95
152,95
194,95
27,95
111,93
153,93
195,93
28,93
112,93
154,93
196,93
29,93
113,93
155,99
197,99
30,99
114,99
156,99
198,75
31,75
115,75
157,75
199,75
32,82
116,82
158,82
33,82
117,82
159,82
34,62
118,62
160,1
35,1
119,1
161,1
36,61
120,61
162,61
37,61
121,61
163,61
38,2
122,2
164,2
39,2
123,2
165,2
40,2
124,2
166,63
41,63
125,63
167,63
184,63
42,3
126,3
168,3
43,3
127,3
169,3
44,60
128,60
170,60
45,60
129,60
171,60
46,60
130,60
172,4
185,4
47,4
131,83
173,83
48,83
132,83
174,83
49,83
133,5
175,5
50,5
134,5
176,5
51,5
135,5
177,80
52,80
136,80
142,6
178,6
53,6
137,6
179,6
54,6
138,79
180,79
55,79
139,79
181,79
56,79
140,79
182,79
57,79
141,7
143,86
183,86
58,86
59,86
62,72
5,72
5,74
5,100
5,97
5,101
14,101
14,90
14,92
69,100
103,78
103,76
103,73
103,97
105,76
105,101
105,87
189,82
22,75
22,1
22,144
190,62
190,79
24,19
154,12
154,19
198,102
198,4
198,81
117,19
117,10
117,6
117,84
117,15
160,99
160,96
160,187
35,3
35,12
37,3
37,9
169,16
169,105
169,5
132,5
132,65
132,186
52,68
52,64
55,85
139,82
140,95
140,8
140,83
140,81
