# Number of vertices:
200
# Edge list:
198,0
1,0
2,0
199,198
3,198
4,1
5,1
6,1
7,1
8,1
9,1
10,1
11,1
12,1
13,2
14,199
15,199
16,3
17,3
18,3
19,3
20,4
21,4
22,5
23,6
24,6
25,6
26,6
27,6
28,6
29,7
30,7
31,7
32,7
74,7
158,7
142,7
33,7
75,8
159,8
141,8
34,8
76,8
160,8
140,8
35,9
77,9
161,9
36,9
78,11
139,11
162,11
37,14
79,15
137,15
163,16
38,16
80,16
135,16
164,16
39,16
81,17
133,17
165,17
40,17
82,17
132,17
166,17
41,17
83,19
131,19
167,19
42,19
84,20
114,20
138,20
168,20
43,20
85,21
136,21
169,21
44,21
86,22
134,22
170,22
45,23
87,23
156,23
171,23
46,23
88,24
154,24
172,24
47,24
89,24
115,24
153,24
173,24
48,24
90,25
155,25
174,25
49,25
91,25
148,25
175,25
50,26
92,26
147,26
176,26
51,26
93,26
151,26
177,28
52,28
94,28
150,28
178,28
53,28
95,28
146,28
179,29
54,30
96,30
152,30
180,30
55,30
97,30
145,30
181,30
56,31
98,31
126,31
182,31
57,31
99,31
124,31
183,32
58,32
100,74
130,74
184,74
59,74
101,74
129,74
185,74
60,158
102,158
128,158
186,142
144,142
61,142
103,142
127,142
187,142
62,142
104,33
125,33
188,33
63,33
105,75
123,75
189,75
64,75
106,75
119,75
190,159
65,159
107,159
121,159
191,159
116,159
66,141
108,141
120,141
192,141
67,141
109,34
118,34
193,34
68,34
110,34
117,34
194,34
69,34
111,76
122,76
195,76
70,76
112,76
157,160
196,160
71,140
113,140
149,140
197,140
72,140
143,35
73,35
14,13
14,10
14,8
14,6
20,13
20,9
33,8
33,6
33,4
33,3
33,11
34,13
37,139
37,140
133,33
40,15
40,158
40,28
132,158
89,29
89,78
89,15
91,16
91,33
91,19
91,141
54,31
54,161
54,75
54,139
98,21
98,159
98,33
98,36
98,27
184,34
59,18
62,19
122,161
122,28
122,34
122,139
122,21
