# Number of vertices:
200
# Edge list:
169,0
170,0
168,0
171,0
172,0
173,0
174,0
175,0
176,0
83,0
177,0
178,0
179,0
180,0
181,0
84,0
182,169
183,170
184,170
185,170
186,170
187,170
188,170
189,170
190,170
191,170
192,168
193,168
194,168
195,168
196,168
197,168
198,168
199,168
1,168
43,171
85,171
127,171
2,171
44,171
86,171
128,171
3,171
45,171
87,172
129,172
4,172
46,172
88,172
130,172
5,172
47,174
89,174
131,174
6,175
48,175
90,175
132,175
7,175
49,176
91,176
133,176
8,176
50,176
92,176
134,176
9,83
51,177
93,177
135,178
10,178
52,178
94,178
136,178
11,178
53,178
95,179
137,179
12,179
54,179
96,179
138,179
13,179
55,179
97,179
139,180
14,180
56,180
98,181
140,181
15,181
57,181
99,181
141,181
16,181
58,181
100,181
142,84
17,84
59,84
101,84
143,84
18,84
60,84
102,182
144,182
19,182
61,183
103,183
145,184
62,184
20,185
104,185
146,185
63,185
21,185
105,185
147,185
22,185
64,186
106,187
148,187
23,187
65,187
107,187
149,187
24,187
66,187
108,187
150,188
25,188
67,188
109,188
151,188
26,188
68,188
110,188
152,188
27,189
69,189
111,189
125,191
153,191
28,192
70,192
112,192
154,192
29,192
71,192
113,192
155,193
30,193
72,193
114,194
156,194
31,194
73,194
115,194
157,194
32,194
74,195
116,195
126,195
158,195
33,196
75,196
117,197
159,197
34,197
76,199
118,199
160,199
35,1
77,1
119,1
161,1
36,1
78,1
120,1
162,43
37,43
79,43
121,43
163,43
38,85
80,85
122,85
164,127
39,127
81,127
123,127
165,127
40,127
82,2
124,44
166,86
167,128
41,128
42,128
199,84
199,83
199,171
93,172
94,173
55,177
55,169
55,172
55,176
55,171
57,170
57,180
57,172
57,178
101,177
19,137
19,139
62,142
20,54
20,189
20,57
20,182
105,53
147,99
106,142
106,186
106,57
110,10
154,94
154,135
154,55
30,101
30,197
30,89
30,50
30,141
118,14
118,92
118,127
118,85
118,197
121,86
121,87
121,54
121,57
121,134
38,185
