# Number of vertices:
200
# Edge list:
79,0
121,0
163,0
80,0
122,0
164,0
81,0
123,0
165,0
82,0
124,0
166,0
83,0
125,0
167,0
84,79
126,79
168,79
85,79
127,79
169,79
86,79
128,121
170,121
87,121
129,121
171,121
88,121
130,121
172,121
89,163
131,163
173,163
90,163
132,163
174,163
91,163
133,163
175,80
92,80
134,80
176,80
93,122
135,122
177,122
94,122
136,122
178,122
95,164
137,164
179,164
96,164
138,81
180,123
97,123
139,165
181,165
98,165
140,165
182,165
99,165
141,165
183,165
100,82
142,124
184,124
101,166
143,166
185,166
102,166
144,166
186,166
103,166
145,166
187,83
104,83
146,83
188,83
105,83
147,83
189,83
106,83
148,83
190,167
107,167
149,84
191,84
108,84
150,84
192,84
109,84
151,126
193,126
110,126
152,126
194,126
78,126
111,168
153,168
195,168
112,168
154,85
196,169
113,128
155,128
197,128
114,128
156,128
198,170
115,170
157,170
199,170
116,170
158,170
117,170
159,170
118,170
160,87
119,87
161,87
120,87
162,87
37,129
38,129
39,129
40,129
41,129
42,129
1,129
43,129
2,171
44,88
3,88
45,130
4,130
46,130
5,130
47,130
6,130
48,130
7,130
49,130
8,172
50,172
9,172
51,172
10,172
52,172
11,172
53,172
12,89
54,89
13,89
55,89
14,89
56,89
57,131
15,131
16,131
58,131
17,131
59,173
18,173
60,90
19,90
61,90
20,132
62,132
21,132
63,132
22,132
64,132
23,132
65,132
24,132
66,174
25,174
67,174
26,174
68,174
27,91
69,91
28,91
70,91
29,91
71,91
30,91
72,133
31,133
73,133
32,133
74,133
33,133
75,175
34,175
76,175
35,175
77,175
36,175
88,82
88,83
132,79
132,165
132,83
132,82
183,166
142,164
101,79
101,124
101,80
101,122
101,82
186,79
186,124
186,163
186,165
105,165
105,122
115,91
115,146
115,95
115,177
115,179
38,87
48,183
48,88
48,186
48,100
48,174
53,178
53,136
53,129
53,137
53,188
59,177
59,135
59,89
59,189
23,128
23,133
23,183
23,171
23,95
27,174
27,86
27,181
27,105
27,88
72,136
76,141
76,129
35,88
35,174
35,148
35,131
