# Number of vertices:
200
# Edge list:
9,0
93,0
135,0
10,0
94,0
136,0
11,0
95,0
137,0
12,0
96,0
138,0
13,0
97,0
139,0
14,9
98,9
140,9
15,9
99,9
141,9
16,93
100,93
142,93
17,93
101,135
143,10
18,10
102,94
144,94
19,11
103,11
145,11
20,11
104,11
146,11
21,137
105,137
147,137
22,137
106,137
148,137
23,96
107,96
149,96
24,96
108,138
150,138
25,138
109,138
151,138
26,138
110,13
152,13
27,139
111,139
153,139
28,14
112,14
154,14
29,14
113,14
155,14
30,98
114,98
156,98
31,140
115,140
157,140
32,140
116,140
158,15
33,15
117,15
159,15
34,99
118,99
160,99
35,99
119,99
161,99
36,99
120,141
162,100
37,100
121,100
163,100
38,100
122,142
164,142
39,17
123,17
165,17
40,17
124,17
166,17
41,17
125,17
167,101
42,101
126,101
168,101
43,101
127,101
169,101
44,101
128,101
170,143
45,102
129,102
171,102
46,102
130,102
172,102
47,102
131,144
173,144
48,144
132,19
174,19
49,103
133,145
175,145
50,145
134,20
176,20
72,20
177,104
71,104
83,146
178,146
179,146
75,146
180,21
81,105
181,105
51,105
182,105
74,105
183,147
82,147
184,147
79,147
185,147
63,147
58,147
186,147
187,147
57,22
188,22
70,106
189,106
64,106
190,106
59,106
191,106
69,23
192,23
66,23
193,23
61,23
194,23
195,149
54,24
196,24
60,24
55,24
197,25
198,25
84,25
86,109
199,109
76,109
53,109
65,109
92,109
80,109
77,151
87,151
52,151
90,151
91,151
62,110
1,110
85,110
2,110
67,110
56,110
3,110
68,152
4,27
89,27
5,27
6,27
78,27
88,27
7,27
73,27
8,111
17,9
17,95
17,137
102,11
102,97
102,93
19,95
19,94
103,93
103,96
103,139
103,95
103,13
145,138
104,96
104,137
104,10
104,13
106,9
106,95
106,135
106,11
149,136
149,93
149,10
149,135
149,12
24,137
24,13
24,95
24,94
24,138
32,143
32,150
33,21
33,107
33,22
33,103
162,98
162,14
162,15
162,107
132,27
132,17
132,14
132,106
132,148
83,14
58,105
58,17
76,108
76,18
76,106
76,19
52,18
52,98
52,145
52,140
2,25
2,106
2,19
2,15
2,150
88,25
88,151
