# Number of vertices:
200
# Edge list:
99,0
141,0
183,0
100,0
142,0
184,0
101,0
143,0
98,0
185,0
102,0
144,0
186,0
103,0
145,0
187,0
104,0
146,0
188,0
105,99
147,99
189,99
106,141
148,141
190,141
107,141
149,141
191,141
108,183
150,100
192,142
109,142
151,142
193,142
110,142
152,142
194,184
111,184
153,101
195,101
112,101
154,101
196,101
113,101
155,143
197,143
114,143
156,143
198,143
115,143
157,143
199,143
116,143
158,98
117,102
159,102
118,144
160,144
119,144
161,144
120,144
162,144
121,145
163,145
122,145
164,145
123,145
165,187
124,187
166,187
125,187
167,104
126,104
168,104
127,104
169,188
128,188
170,188
129,188
171,188
130,188
172,188
131,105
173,105
132,105
174,105
133,147
175,147
134,147
176,147
135,147
177,147
136,147
178,189
137,189
179,189
138,189
180,189
139,189
181,106
140,148
182,148
15,148
57,148
16,148
58,148
17,148
59,148
18,190
60,190
19,190
61,190
20,190
62,190
21,107
63,107
22,107
64,107
23,107
65,149
24,149
66,149
25,191
67,191
26,191
68,191
27,150
69,150
28,150
70,192
29,192
71,192
30,192
72,192
31,192
73,109
32,109
74,151
33,151
75,193
34,193
76,193
77,193
35,193
36,193
78,110
37,110
79,110
38,152
80,152
39,152
81,152
40,194
82,194
41,194
83,111
14,111
42,111
84,111
1,111
43,111
85,111
2,111
44,195
86,195
3,195
45,195
87,112
4,112
46,112
88,112
5,154
47,154
89,154
6,154
48,154
90,154
7,154
49,154
91,196
8,196
50,196
92,196
9,196
51,196
93,113
10,113
52,113
94,155
11,197
53,197
95,114
12,156
54,156
96,198
13,198
55,198
97,198
56,198
149,183
149,98
111,144
111,145
111,186
111,104
122,183
122,185
122,187
122,102
170,146
174,190
175,160
175,127
181,191
181,198
181,167
15,194
62,169
77,106
77,160
77,171
78,167
78,111
79,196
79,163
79,172
79,193
79,195
14,150
44,106
44,191
44,150
44,130
44,119
46,168
46,153
46,107
90,164
92,162
92,155
92,128
92,197
9,114
9,117
