# Number of vertices:
200
# Edge list:
80,0
81,0
40,0
82,0
155,0
139,0
166,0
41,0
83,0
167,0
124,0
42,0
84,80
122,80
1,80
168,80
43,80
85,80
159,80
169,80
2,81
44,40
86,40
158,40
170,40
3,40
45,40
87,40
138,40
154,40
171,82
4,82
46,155
88,155
172,155
5,166
47,166
89,166
123,166
143,41
144,41
6,41
48,41
90,41
137,41
174,83
7,83
49,83
91,167
125,167
175,167
8,167
50,167
92,167
176,124
9,124
51,124
93,124
146,124
177,124
10,42
52,42
94,42
126,84
145,84
178,84
11,84
53,84
95,84
165,84
179,84
12,84
54,122
96,122
136,122
164,122
180,122
13,122
55,1
97,1
181,1
14,1
56,168
98,168
153,168
182,168
15,43
57,43
99,43
135,43
163,43
183,43
16,43
58,43
100,159
184,159
59,159
17,159
101,159
162,169
185,169
60,169
18,169
102,169
134,2
152,2
186,2
19,2
61,2
103,2
187,2
20,2
62,2
104,44
141,44
188,44
21,44
63,44
105,86
147,86
156,86
189,86
22,158
64,158
106,158
133,158
151,170
190,170
23,170
65,170
107,3
173,45
191,45
24,45
66,45
108,87
157,87
192,87
25,87
67,87
109,138
132,138
150,154
193,154
26,171
68,171
110,171
194,171
27,171
69,171
111,46
140,46
195,46
28,88
70,88
112,172
131,172
196,172
29,172
71,172
113,5
127,5
197,5
30,5
72,5
114,5
142,47
198,47
31,47
73,47
115,89
199,123
32,123
74,123
116,123
130,123
149,143
33,143
75,143
117,144
128,144
34,144
76,144
118,144
161,6
35,6
77,6
119,6
129,6
148,6
36,6
78,6
120,48
37,90
79,90
121,90
160,90
38,90
39,90
138,167
138,124
138,155
138,41
89,124
89,139
143,155
143,83
143,42
143,167
143,40
125,139
125,41
125,80
125,83
51,80
51,83
179,94
179,169
179,176
179,172
135,89
183,1
183,52
183,92
18,46
105,87
105,169
105,176
105,137
22,137
22,154
22,84
151,175
191,46
24,5
24,48
25,84
25,9
25,175
25,5
150,2
114,93
114,43
114,91
160,52
160,43
160,87
160,3
160,46
