# Number of vertices:
200
# Edge list:
98,0
148,0
161,0
75,0
147,0
157,0
93,0
156,0
108,0
68,0
155,0
92,0
111,98
154,98
106,98
124,98
77,98
158,98
127,98
74,98
160,148
91,148
126,148
168,148
125,148
167,148
90,148
109,148
166,161
112,161
151,161
96,161
128,75
150,75
94,75
146,75
159,75
103,147
144,147
165,147
89,147
145,147
153,157
100,157
115,157
152,157
130,157
162,157
102,157
129,157
163,157
101,93
116,156
76,156
164,156
88,156
143,156
169,108
97,108
139,108
149,108
110,108
79,108
87,68
113,155
7,155
95,155
142,155
11,155
141,155
25,155
105,155
140,92
24,92
86,92
123,92
9,92
99,111
78,106
122,106
8,106
85,106
71,106
133,106
12,106
23,124
72,124
138,124
84,124
22,124
120,77
21,77
69,77
137,77
83,77
20,77
135,77
132,77
14,158
82,158
131,158
13,158
19,158
70,158
134,127
107,127
18,127
121,127
6,74
81,74
17,160
136,160
16,160
73,160
119,160
80,160
117,160
10,160
104,91
118,91
15,126
114,126
30,126
180,126
54,126
29,126
178,168
53,168
28,168
52,168
48,168
65,125
179,125
60,125
188,125
51,125
50,125
67,167
187,167
64,167
59,167
49,167
173,167
47,167
186,90
61,90
62,109
175,109
58,109
26,109
199,109
46,166
55,166
198,166
57,166
170,166
56,112
197,112
45,112
176,112
44,112
196,151
1,151
32,151
185,151
177,151
2,96
43,96
195,96
27,96
184,96
3,96
4,128
42,128
194,128
172,128
5,128
41,128
193,150
31,150
183,150
40,150
192,150
34,94
39,146
191,146
33,146
171,146
38,146
190,146
35,159
182,159
174,159
37,159
189,159
36,103
181,103
66,103
63,144
154,75
154,156
151,108
151,155
151,98
151,147
102,155
102,108
102,156
102,161
102,93
87,161
87,98
141,148
141,161
105,93
138,7
135,7
135,95
135,90
132,95
73,86
117,100
30,115
30,130
30,166
30,169
54,163
54,77
54,89
54,159
54,125
52,77
59,126
59,116
49,105
49,128
49,127
177,11
2,101
2,113
184,158
184,153
184,149
184,169
3,102
3,106
3,116
3,142
3,158
38,125
37,128
37,145
37,153
