# Number of vertices:
200
# Edge list:
45,0
129,0
171,0
108,0
46,0
130,0
172,0
47,0
124,0
131,0
126,0
173,0
48,0
132,0
174,0
105,0
49,0
133,0
175,0
92,0
50,0
123,0
134,0
104,0
176,0
51,0
135,45
177,129
106,129
52,129
136,129
178,129
109,129
53,129
137,171
179,171
97,171
54,171
138,171
180,171
55,171
139,108
181,108
101,108
56,108
140,46
182,46
119,46
57,130
141,130
183,130
98,130
58,130
142,130
184,130
90,172
59,172
143,172
185,47
91,47
60,47
144,47
186,47
121,47
61,47
145,47
187,124
100,131
62,131
146,131
188,131
117,131
63,131
147,131
189,131
102,126
64,126
148,126
190,126
96,126
65,126
149,126
191,126
113,173
66,48
150,48
192,48
120,48
67,48
151,48
193,48
99,48
68,48
152,132
194,132
115,132
69,132
153,132
195,174
122,174
70,105
154,105
196,105
125,105
71,105
155,105
197,105
127,49
72,49
156,49
198,49
107,49
73,49
157,133
199,133
111,133
74,133
158,133
93,133
75,133
159,133
114,175
76,175
160,175
87,175
77,175
161,175
112,175
78,92
162,92
118,92
79,50
163,50
110,50
80,50
164,50
94,123
81,123
165,123
88,123
82,134
166,134
89,134
83,134
167,134
103,134
84,134
168,104
116,104
85,176
169,176
128,51
86,51
170,51
95,51
2,51
3,135
4,135
5,135
6,135
7,135
8,135
9,135
10,135
11,135
12,177
13,177
14,177
15,177
16,106
17,106
18,106
19,106
20,52
21,52
22,52
23,52
24,52
25,52
26,136
27,178
28,178
29,178
30,178
31,178
32,178
33,178
34,109
35,53
36,53
1,53
37,53
38,137
39,137
40,137
41,137
42,137
43,137
44,137
178,172
178,176
178,126
178,171
178,132
137,92
184,172
184,108
184,49
184,105
184,45
185,130
187,105
187,175
147,175
147,45
147,126
147,47
147,46
99,132
152,123
152,49
69,173
69,131
69,134
199,126
158,132
87,176
87,130
87,49
87,124
87,131
94,124
94,172
94,132
83,172
83,131
83,50
103,171
103,176
103,108
103,51
103,123
116,48
116,130
116,176
116,123
116,175
128,49
4,149
9,96
15,165
15,71
15,119
15,168
15,112
39,52
39,115
39,188
39,87
39,140
