# Number of vertices:
250
# Edge list:
113,0
155,0
197,0
114,0
156,0
198,0
115,0
157,0
199,113
116,113
158,113
200,113
117,113
159,155
201,155
118,155
160,155
202,155
119,155
161,197
203,197
120,197
162,197
204,197
121,197
163,197
205,197
122,114
164,114
206,114
123,114
165,114
207,156
124,156
166,156
208,156
125,156
167,156
209,156
126,156
168,156
210,156
127,156
169,198
211,198
128,198
170,198
27,198
212,198
129,198
171,198
213,198
130,198
172,115
214,115
131,115
173,115
215,115
132,115
174,115
216,115
133,115
175,157
28,157
217,157
134,157
176,157
218,157
135,157
177,157
219,199
136,199
178,199
220,199
137,199
179,199
221,199
138,116
180,116
222,116
139,116
181,116
223,116
140,116
182,116
224,116
141,116
183,158
225,200
142,200
184,200
226,200
143,200
185,200
227,117
144,117
186,159
228,159
145,159
187,201
229,201
146,201
188,201
230,201
111,201
147,201
189,201
231,201
148,201
190,201
232,118
149,118
191,118
233,118
150,118
192,118
234,118
151,118
193,118
235,118
112,118
152,118
194,118
236,160
153,160
195,160
237,160
154,160
196,160
238,160
29,160
71,160
239,160
30,160
72,160
240,119
31,119
73,119
241,119
32,119
74,119
242,119
33,119
75,119
243,119
34,119
76,119
244,119
35,161
77,161
245,203
36,203
78,203
246,203
37,203
79,203
247,203
38,203
80,203
248,203
39,120
81,120
249,120
40,162
82,162
41,162
83,162
42,162
84,162
1,162
43,162
85,162
2,162
44,162
86,162
3,204
45,204
87,204
4,204
46,204
88,204
5,204
47,204
89,204
48,204
6,121
90,121
49,121
7,121
91,121
8,121
50,121
92,121
9,121
51,121
93,121
10,121
52,121
94,121
11,163
53,163
95,163
12,163
54,205
96,205
13,205
55,205
97,205
14,205
56,205
98,205
15,205
57,205
99,164
16,164
58,164
100,164
17,164
59,164
101,164
18,206
60,206
102,206
19,206
61,206
103,206
20,123
62,123
104,123
21,123
63,123
105,123
22,123
64,123
106,165
23,165
65,165
107,165
24,165
66,165
108,165
25,165
67,165
109,165
26,165
68,165
110,124
69,166
70,166
160,157
203,155
120,157
120,114
120,155
120,198
120,115
120,113
120,156
204,157
204,113
204,156
204,155
204,198
204,114
204,115
165,156
165,157
165,197
165,115
165,113
165,155
165,198
207,155
207,113
207,198
207,197
207,115
207,157
209,114
209,157
209,155
209,113
209,198
209,197
209,115
210,157
210,155
210,114
214,114
214,198
214,157
131,157
131,155
131,197
131,156
131,114
131,198
131,113
133,155
133,157
133,198
133,113
133,197
133,114
133,156
28,113
28,155
28,114
28,198
28,115
28,156
28,197
219,159
219,213
219,214
179,124
179,116
179,135
179,122
179,204
179,120
179,163
221,215
221,175
221,202
224,134
224,201
224,170
224,171
224,164
224,204
224,205
227,218
227,127
227,214
227,212
227,166
227,123
147,165
147,123
147,168
147,162
147,119
147,122
149,211
149,206
149,208
149,209
149,199
149,172
149,177
149,201
149,167
151,126
151,167
151,211
151,212
151,204
151,124
151,27
112,174
112,212
112,203
196,162
196,202
248,173
248,172
248,166
248,125
248,120
248,212
248,164
82,174
82,116
82,130
82,208
82,164
84,210
84,212
84,135
84,202
88,159
88,203
88,170
88,200
88,120
88,167
88,28
88,118
88,166
88,131
47,131
47,205
47,203
47,218
47,161
47,214
47,201
89,176
89,177
89,132
89,200
89,174
89,171
89,158
89,172
51,212
51,117
51,122
51,167
11,170
11,211
12,120
12,126
12,122
12,167
12,203
12,135
12,161
12,124
12,117
15,120
15,27
15,167
15,135
15,209
15,217
15,165
15,176
15,134
15,123
59,217
59,119
59,162
59,209
59,177
59,28
59,167
59,126
69,122
69,209
69,213
69,132
69,170
69,202
69,175
69,133
69,169
