# Number of vertices:
250
# Edge list:
29,0
113,0
197,0
30,0
114,0
198,0
31,0
115,0
199,0
32,0
116,0
200,29
33,29
117,29
201,29
34,29
118,29
202,29
35,197
119,197
203,197
36,197
120,197
204,197
37,197
121,30
205,30
38,30
122,30
206,30
39,30
123,30
207,30
40,30
124,30
208,30
41,114
125,114
209,114
42,114
126,114
210,114
43,114
127,114
211,114
44,114
128,114
212,114
45,198
129,198
213,31
46,31
130,31
214,115
47,115
131,115
215,115
48,115
132,115
216,199
49,32
133,32
217,32
50,32
134,116
218,116
51,116
135,116
219,116
52,116
136,200
220,200
53,200
137,200
221,200
54,200
138,200
222,200
55,200
139,200
223,200
56,200
140,200
224,33
57,33
141,33
225,33
58,33
142,33
226,33
59,33
143,33
227,33
60,33
144,33
228,33
61,33
145,117
229,117
62,117
146,34
230,34
63,34
147,34
231,34
64,34
148,34
232,34
65,34
149,34
233,34
66,118
112,202
150,202
234,202
67,202
151,202
235,202
68,202
152,202
236,202
69,202
153,202
237,202
70,202
154,202
238,35
71,119
155,119
239,119
72,119
156,119
240,119
73,119
157,119
241,119
74,119
158,119
242,36
75,36
159,36
243,120
76,120
160,204
244,204
77,204
161,204
245,204
78,204
162,204
246,204
79,37
163,37
247,37
80,37
164,37
248,37
81,37
165,37
249,37
82,37
166,37
83,37
167,37
84,121
168,121
196,121
1,121
85,121
169,205
2,38
86,38
170,38
3,38
87,38
171,38
4,38
88,38
172,122
5,122
89,122
173,122
6,122
90,122
174,206
7,206
91,206
175,206
8,206
92,206
176,206
9,206
93,39
177,39
10,39
94,39
178,39
11,39
95,39
179,39
12,39
96,123
180,123
13,123
97,123
181,123
14,123
98,123
182,123
15,123
99,123
183,123
16,123
100,123
184,123
17,207
101,207
185,207
18,207
102,207
186,207
19,207
103,207
187,40
20,40
104,40
188,124
21,124
105,208
189,208
22,208
106,208
190,208
23,208
107,208
191,208
24,208
108,208
192,208
25,208
109,208
193,41
26,41
110,41
194,41
27,41
111,41
195,41
28,41
200,116
119,30
203,113
203,198
203,116
203,31
203,29
203,30
203,32
203,199
203,115
122,32
39,32
39,197
39,114
39,29
39,113
39,199
39,116
39,115
39,198
124,198
124,116
124,115
124,113
124,31
124,197
126,115
126,31
126,197
126,113
127,197
127,116
127,29
127,198
127,199
127,32
127,30
127,115
132,198
132,32
132,114
132,197
132,116
132,29
135,31
135,29
135,113
52,113
137,205
137,39
231,47
231,117
232,122
232,214
232,41
232,129
112,208
112,119
112,132
153,46
241,33
241,217
241,39
241,203
241,118
241,49
241,214
241,45
241,125
241,47
242,34
242,217
242,35
242,209
242,39
242,219
242,210
242,118
242,49
161,45
82,128
82,34
82,214
82,35
82,122
87,216
87,45
87,34
174,50
174,41
174,35
174,135
9,134
9,130
9,35
94,128
94,129
94,117
94,50
94,214
94,201
94,130
11,120
11,44
13,121
13,120
13,205
13,201
13,130
13,211
13,134
13,35
13,119
13,132
185,126
185,216
185,39
185,51
18,219
18,201
18,39
18,122
18,48
18,206
18,133
18,49
20,128
192,129
192,38
192,206
194,128
194,218
194,215
194,45
194,206
194,208
194,127
194,33
194,200
194,201
