# Number of vertices:
250
# Edge list:
91,0
133,0
234,0
92,0
134,0
226,0
93,0
135,0
233,91
94,91
136,91
232,91
95,91
137,91
231,91
96,91
138,91
230,133
97,133
139,133
225,133
98,133
140,133
215,133
99,133
141,133
242,133
100,133
142,133
101,133
143,234
224,234
102,234
144,234
103,234
145,234
216,234
241,234
104,234
146,234
105,234
147,234
223,234
106,134
148,134
107,134
149,134
240,134
108,134
150,134
109,134
151,134
222,134
244,226
110,226
152,226
243,226
111,226
153,93
239,135
112,135
154,135
113,135
155,135
221,135
246,135
114,135
156,135
245,135
115,233
157,233
238,233
116,233
158,233
117,233
159,233
235,233
118,233
160,94
220,94
119,94
161,94
229,94
120,94
162,136
228,136
121,232
163,232
227,232
122,232
164,232
219,232
123,232
165,232
249,232
124,95
166,137
237,137
125,137
167,137
126,137
168,137
218,231
1,231
127,231
169,231
248,231
2,231
128,231
170,231
236,96
3,96
129,138
171,138
4,138
130,138
172,230
217,97
5,139
131,139
173,139
247,139
6,139
132,139
174,139
90,139
7,139
175,139
8,139
62,139
176,139
89,139
9,225
63,225
177,225
10,225
178,225
88,225
11,225
87,225
179,225
12,225
180,225
13,225
60,98
181,98
86,98
14,98
61,98
182,140
15,140
56,215
183,215
85,215
16,215
184,215
17,215
185,215
84,215
18,215
55,215
186,99
19,99
187,99
83,99
20,99
188,99
82,99
21,242
189,242
81,242
22,242
190,242
80,242
23,242
191,242
79,242
24,242
192,242
78,242
25,242
193,242
77,100
26,100
194,100
76,100
27,100
195,100
28,100
54,100
196,100
75,100
29,100
197,142
30,142
198,142
74,101
31,101
53,101
199,101
32,143
59,143
200,143
73,143
33,143
201,143
34,143
202,224
72,224
35,224
49,224
203,224
36,224
51,224
204,224
71,224
37,224
52,224
205,224
38,224
50,102
47,102
70,102
206,102
39,102
69,102
207,102
40,102
68,144
208,144
41,144
67,144
209,144
42,144
66,144
210,144
43,144
65,144
211,144
44,103
212,103
45,103
213,103
64,103
46,103
58,103
214,103
57,103
48,103
215,91
215,134
215,135
215,93
215,92
141,135
141,234
216,92
216,93
216,134
216,91
216,226
216,135
223,92
223,133
223,226
223,91
223,135
223,134
223,93
240,93
240,135
240,234
240,133
240,92
240,91
240,226
221,133
221,93
221,91
160,151
160,243
160,97
160,137
160,108
160,154
220,242
220,95
220,100
121,154
121,156
163,136
163,112
163,141
237,148
237,154
237,107
237,216
127,94
248,99
248,114
248,148
175,106
8,104
8,221
8,110
8,105
8,231
8,244
8,142
8,138
8,146
8,106
86,139
86,241
83,239
83,242
83,143
83,149
83,147
83,156
82,108
82,105
82,243
82,216
82,152
82,95
82,245
82,110
25,153
25,107
25,233
25,111
25,114
25,113
25,156
196,242
196,150
196,155
196,96
196,142
196,136
196,239
196,225
196,151
198,153
198,141
198,99
198,112
198,241
198,154
198,221
34,147
34,106
34,153
34,240
34,114
34,241
34,154
