# Number of vertices:
250
# Edge list:
56,0
140,0
224,0
57,0
141,0
225,0
58,0
142,0
226,0
59,0
143,0
227,0
60,0
144,0
228,0
61,0
145,0
229,0
62,140
146,140
230,140
63,224
147,224
231,224
64,224
148,224
232,224
65,224
149,224
233,224
66,224
150,224
234,224
67,57
151,57
235,57
68,57
152,57
236,57
69,57
153,57
237,57
70,57
154,57
238,141
71,141
155,141
222,141
239,141
72,58
156,58
240,58
73,58
157,58
241,58
74,58
12,58
158,58
242,58
75,58
159,58
243,58
76,142
160,142
223,142
244,226
77,226
161,226
245,226
78,226
162,226
246,226
13,226
79,226
163,226
247,59
80,59
164,59
248,59
81,59
165,59
249,59
82,59
166,59
83,59
167,143
84,143
168,143
85,143
169,143
86,143
170,227
87,227
171,227
88,227
172,227
89,144
173,144
90,144
174,144
91,144
175,228
92,228
176,228
93,61
177,61
94,61
178,61
95,145
179,145
96,145
180,145
97,145
181,229
14,229
98,229
182,229
15,62
99,62
183,62
16,62
100,62
184,62
17,62
101,146
185,146
18,146
102,146
186,146
19,146
103,146
187,146
20,230
104,230
188,230
21,230
105,230
189,230
22,230
106,230
190,230
23,63
107,63
191,63
24,63
108,63
192,63
25,63
109,63
193,63
26,63
110,63
194,147
27,147
111,231
195,231
28,231
112,231
196,231
29,231
113,231
197,231
30,231
114,231
198,231
31,231
115,64
199,64
32,148
116,148
200,148
33,148
117,148
201,148
34,148
118,148
202,148
35,148
119,232
203,232
36,232
120,232
204,232
37,232
121,232
205,65
38,65
122,65
206,65
39,65
123,65
207,65
40,65
124,65
208,149
41,149
125,149
209,149
42,149
126,149
210,149
1,149
43,149
127,149
211,66
2,66
44,66
128,150
212,150
3,150
45,150
129,150
138,150
213,150
4,150
46,150
130,234
214,234
5,234
47,234
131,234
215,234
6,234
48,234
132,234
216,234
7,234
49,234
133,234
217,67
8,67
50,67
134,67
139,67
218,67
9,67
51,67
135,67
219,67
10,67
52,67
136,67
220,151
11,151
53,151
137,151
221,151
54,151
55,151
63,58
63,229
63,227
63,228
147,140
149,225
233,143
233,60
233,57
233,58
152,228
152,56
160,229
160,225
160,140
160,58
161,224
161,141
161,57
163,140
163,144
163,225
163,229
163,143
248,58
248,144
248,229
248,145
171,60
171,224
93,57
93,229
93,143
94,57
94,59
94,56
94,228
94,144
94,141
94,58
94,142
94,225
94,145
96,143
182,224
182,61
182,56
183,164
183,83
183,146
16,176
16,84
16,82
16,159
16,233
16,79
16,179
100,164
100,150
102,178
102,243
104,67
104,241
104,155
104,232
104,80
104,147
104,231
104,169
188,74
21,69
21,12
21,14
21,232
21,223
21,86
21,181
21,174
21,240
22,168
22,74
22,232
22,249
22,173
192,12
192,231
192,240
192,146
192,159
28,233
28,67
28,230
28,222
28,182
28,78
28,153
28,164
115,66
115,233
115,78
115,181
115,89
115,90
115,82
115,249
115,223
33,232
33,237
35,95
35,63
36,160
36,242
36,147
36,245
36,167
36,87
36,148
36,12
121,176
121,236
121,173
121,179
121,67
121,89
121,151
121,170
121,223
121,168
38,85
38,69
38,166
38,234
38,12
38,90
38,150
38,247
38,152
38,74
125,153
210,93
210,162
210,146
210,170
210,148
210,75
210,165
210,223
210,172
210,239
1,96
1,181
1,171
1,246
1,241
1,82
1,71
127,156
127,234
127,76
127,163
127,232
127,168
127,241
127,66
212,244
212,78
212,91
212,180
212,13
212,158
212,182
212,80
3,148
3,179
47,241
47,178
47,88
47,149
47,177
47,166
47,223
47,237
47,78
219,148
219,178
219,80
219,152
219,173
219,63
