# Number of vertices:
250
# Edge list:
32,0
74,0
200,0
181,0
242,0
33,0
75,0
201,0
243,0
34,0
76,0
174,0
202,0
244,74
35,74
77,74
178,74
203,74
245,74
36,74
78,74
177,200
182,200
204,200
246,200
37,200
79,200
205,200
247,200
38,200
80,200
173,200
180,200
206,200
248,181
39,181
81,181
207,181
249,181
40,242
82,33
179,33
208,33
41,33
83,33
165,33
209,75
42,75
84,75
166,201
210,201
43,201
85,201
163,201
211,201
44,201
86,201
161,201
212,243
45,243
87,243
160,243
213,243
46,243
88,243
159,243
214,243
47,243
89,34
158,76
215,76
48,76
90,76
164,76
216,76
49,76
91,76
162,76
217,76
50,76
92,76
172,76
218,76
51,174
93,174
199,174
193,202
219,202
52,202
94,202
220,202
188,202
53,202
95,202
221,202
54,244
96,244
171,244
222,244
55,244
97,35
198,35
192,35
223,35
56,35
98,35
224,35
187,35
57,35
99,35
225,35
58,35
100,77
170,77
226,77
59,77
101,77
197,178
191,178
227,178
60,178
102,178
228,178
186,178
61,178
103,178
229,178
62,178
104,178
169,203
185,203
230,203
63,203
105,245
176,36
231,36
64,36
106,78
175,78
194,78
232,78
65,78
107,78
233,177
66,182
108,182
168,182
234,182
67,182
109,182
196,182
190,182
235,204
68,204
110,204
236,204
184,204
69,204
111,204
237,204
70,204
112,204
167,204
238,204
71,246
113,37
195,37
189,37
239,37
72,37
114,37
240,37
183,37
73,37
115,37
241,37
116,37
117,37
118,79
119,79
120,79
121,205
122,205
123,205
124,205
125,205
126,205
156,205
1,205
127,205
2,205
128,205
3,247
129,247
4,247
130,247
5,247
131,247
157,247
6,247
132,247
7,247
133,38
8,38
134,38
9,38
135,38
10,38
136,38
11,80
137,80
12,80
138,80
13,180
139,180
14,206
140,206
15,206
141,206
16,248
142,248
17,248
143,248
18,248
144,248
19,248
145,248
20,248
146,248
21,248
147,248
22,248
148,248
23,39
149,39
24,39
150,39
25,39
151,39
26,39
152,39
27,39
153,39
28,81
154,81
29,207
155,207
30,207
31,207
244,34
77,75
77,174
77,200
77,76
177,242
177,202
177,32
177,74
177,201
204,32
80,34
80,33
80,181
80,242
80,243
173,201
173,202
173,76
173,33
173,181
212,202
212,201
212,181
212,34
212,74
212,75
212,33
212,200
212,76
96,205
96,212
96,50
96,49
96,52
96,160
191,89
62,214
62,209
62,161
235,172
235,43
235,42
235,44
235,83
235,205
235,161
69,218
69,80
69,52
69,208
69,213
156,41
156,48
156,46
7,88
7,43
11,214
11,44
11,179
11,50
139,88
140,209
140,212
140,41
140,245
140,247
140,79
140,47
140,46
17,38
17,160
17,204
17,188
146,177
146,84
146,52
146,38
146,178
148,39
148,221
148,207
148,188
148,218
148,220
148,206
148,36
148,35
148,79
153,188
153,216
153,245
153,94
153,217
