# Number of vertices:
250
# Edge list:
38,0
122,0
206,0
39,38
123,38
207,38
40,38
124,38
208,38
41,38
125,38
209,38
42,38
126,38
210,122
43,122
127,122
211,122
44,122
128,122
212,122
45,39
129,39
213,39
46,39
130,39
214,123
47,123
131,123
215,123
48,123
132,123
205,123
216,207
49,207
133,207
217,207
50,207
134,207
218,207
51,207
135,207
219,207
52,207
136,207
220,40
53,40
137,40
221,40
54,40
138,40
222,208
55,208
139,208
223,208
56,208
140,208
224,208
57,208
141,208
225,41
58,41
142,41
226,41
59,41
143,41
227,41
60,41
144,41
228,125
61,125
145,125
229,125
62,125
146,125
230,125
63,125
147,209
231,209
64,209
148,42
232,42
65,42
149,42
233,42
66,42
150,42
234,42
67,42
151,42
235,42
68,42
152,210
236,210
69,210
153,210
237,210
70,43
154,43
238,43
71,43
155,43
239,43
72,43
156,43
240,43
73,43
157,43
241,43
74,127
158,127
242,127
75,127
159,127
243,127
76,127
160,127
244,127
77,127
161,127
245,127
78,44
162,44
246,44
79,44
163,44
247,44
80,44
164,44
248,44
81,44
165,44
249,44
82,44
166,128
83,128
167,128
84,128
168,128
1,128
85,128
169,128
2,128
86,128
170,212
3,212
87,212
171,212
4,45
88,45
172,45
5,45
89,45
173,45
6,45
90,45
174,45
7,45
91,45
175,129
8,129
92,213
176,213
9,213
93,213
177,213
10,213
94,213
178,213
11,213
95,213
179,213
12,213
96,213
180,213
13,46
97,46
181,46
14,46
98,46
182,46
15,46
99,46
183,46
16,46
100,46
184,46
17,46
101,130
185,130
18,130
102,130
186,130
19,130
103,130
187,130
20,214
104,214
188,47
21,47
105,47
189,47
22,47
106,47
190,47
23,47
107,47
191,47
24,47
108,47
192,47
25,131
109,131
193,131
26,131
110,215
194,215
27,215
111,215
195,215
28,215
112,215
196,215
29,215
113,215
197,215
30,215
114,215
121,48
198,48
31,48
115,48
199,48
32,48
116,48
200,48
33,48
117,48
201,48
34,132
118,132
202,132
35,132
119,132
203,132
36,205
120,205
204,205
37,205
208,122
208,206
211,206
137,44
137,39
137,127
137,41
137,126
137,212
137,209
137,207
221,42
221,44
221,210
66,212
66,210
66,128
66,126
66,123
69,42
156,127
156,126
156,42
156,209
156,208
74,209
243,212
243,211
243,44
243,210
243,126
243,123
243,39
243,40
243,41
160,128
160,124
160,39
162,126
162,212
162,123
162,42
162,211
162,128
162,127
162,43
162,125
162,39
164,123
164,207
164,41
164,125
164,39
164,126
164,211
165,40
165,39
165,211
165,212
249,128
171,40
171,123
171,207
171,125
171,127
171,209
171,41
12,216
12,133
12,76
109,247
109,166
109,57
109,152
109,160
109,77
109,59
109,73
109,132
109,70
121,239
121,155
121,219
121,231
121,60
33,166
33,217
33,214
33,141
33,63
203,136
