# Number of vertices:
250
# Edge list:
58,0
142,0
226,0
59,0
143,58
227,58
60,58
144,58
228,58
61,58
145,58
229,58
62,226
146,226
230,226
63,226
147,226
231,226
64,226
148,226
232,226
65,226
149,59
233,59
66,59
150,59
234,59
67,59
151,59
235,59
68,59
152,59
236,59
69,59
153,59
237,143
70,143
154,143
238,143
71,143
155,227
239,227
72,60
156,60
240,60
73,60
157,60
241,60
74,144
158,144
242,144
75,144
159,144
243,144
76,144
160,144
244,144
77,144
161,228
245,61
78,145
162,145
246,145
79,145
163,145
247,145
80,145
164,229
248,229
81,229
165,62
249,62
82,62
166,62
83,146
167,146
84,146
168,146
1,146
85,146
169,146
2,146
86,146
170,230
3,230
87,230
171,230
4,230
88,63
172,63
5,147
89,147
173,147
6,147
90,147
174,147
7,147
91,147
175,231
8,231
92,231
176,231
9,231
93,231
177,231
10,231
94,64
178,64
11,64
95,64
179,64
12,64
96,64
180,64
13,64
97,148
140,148
181,148
14,148
98,148
182,148
15,232
99,232
183,232
16,232
100,232
184,232
17,65
101,65
185,65
141,65
18,65
102,65
186,65
19,65
103,65
187,65
20,65
104,65
188,233
21,233
105,233
189,66
22,66
106,66
190,66
23,66
107,66
191,66
24,66
108,66
192,66
25,150
109,234
193,234
26,234
110,67
194,67
27,67
111,67
195,67
28,151
112,151
196,151
29,151
113,151
197,235
30,235
114,235
198,235
31,235
115,235
199,235
224,235
32,235
116,235
200,68
33,68
117,68
201,68
34,68
118,68
202,68
35,68
119,68
203,68
36,68
120,68
204,68
225,152
37,152
121,152
205,152
38,152
122,152
206,152
39,152
123,152
207,152
40,152
124,236
208,236
41,236
125,236
209,236
42,236
126,236
210,236
43,236
127,69
211,69
44,69
128,69
212,69
45,69
129,69
213,69
46,69
130,69
214,69
47,69
131,69
215,69
48,153
132,153
216,153
49,153
133,153
217,153
50,153
134,237
218,237
51,237
135,70
219,70
52,70
136,70
220,70
53,70
137,70
221,70
54,70
138,70
222,70
55,154
139,154
223,154
56,154
57,154
61,226
61,142
229,59
229,226
229,142
146,59
146,142
146,58
68,58
68,142
68,226
155,148
155,67
155,143
155,236
155,231
155,69
155,151
242,65
242,228
242,235
242,69
242,68
242,63
161,69
161,62
161,147
161,145
161,231
161,151
161,60
161,144
161,61
245,233
245,231
245,69
245,235
245,145
245,151
245,228
245,60
245,68
86,153
86,66
86,67
170,60
170,144
173,68
6,61
95,230
95,66
95,236
95,234
95,229
95,147
95,152
95,63
95,65
181,236
181,144
181,229
181,65
181,143
181,149
181,234
181,152
181,60
99,145
99,230
99,69
18,63
24,229
29,144
29,62
29,235
224,236
224,152
224,153
224,229
224,65
224,146
224,61
200,144
200,62
204,62
209,150
209,148
209,230
209,231
209,145
209,234
133,231
133,150
133,66
218,50
135,32
135,181
135,87
135,106
135,192
135,195
135,109
135,191
53,186
53,80
53,114
53,215
139,8
56,180
56,123
56,92
56,38
