# Number of vertices:
250
# Edge list:
146,0
230,0
78,0
68,0
147,0
231,146
71,146
148,146
145,78
232,78
62,78
149,78
233,78
76,78
150,68
234,68
64,68
151,68
235,68
67,68
152,68
236,68
69,68
153,147
237,231
154,231
238,231
81,231
155,231
239,231
80,231
156,231
240,231
79,231
157,231
241,231
84,231
158,231
242,71
83,71
70,71
159,71
243,71
160,71
244,71
74,148
73,148
161,148
245,148
162,148
246,145
75,145
72,145
163,145
247,145
164,145
248,232
82,232
92,232
165,232
249,232
91,232
166,232
103,62
167,62
88,62
168,62
102,62
87,62
169,62
170,62
101,62
171,62
172,62
100,62
63,62
173,149
174,149
99,149
175,149
229,149
90,149
176,149
98,149
177,233
86,233
178,76
97,76
85,76
179,76
180,76
96,76
77,76
181,76
89,76
182,76
95,150
183,150
184,150
94,150
66,150
185,150
186,150
93,150
65,150
187,234
20,234
104,234
188,234
21,234
105,234
189,234
22,234
106,234
19,64
190,64
23,64
107,64
191,151
24,151
108,151
192,151
25,151
109,151
193,151
26,151
110,151
194,151
27,151
111,151
195,151
28,235
112,235
196,235
29,235
113,235
197,235
30,235
114,235
198,235
31,235
115,235
199,67
32,67
116,67
200,67
33,67
117,67
201,67
34,152
118,152
202,152
35,152
119,152
203,152
36,152
120,152
204,152
37,152
121,152
205,236
38,236
122,236
206,236
39,236
123,236
207,236
40,236
124,236
208,236
41,236
125,236
209,236
42,69
126,69
210,69
1,69
43,69
127,69
211,69
2,69
44,69
128,69
212,69
3,69
45,153
129,153
213,153
4,153
46,153
130,153
214,153
5,153
47,237
131,154
215,154
6,154
48,154
132,154
216,154
7,154
49,154
133,154
217,154
8,154
50,154
134,238
218,238
9,238
51,238
135,238
219,238
10,238
52,81
136,81
220,81
11,81
53,81
137,81
221,239
12,239
54,239
138,239
222,239
13,80
55,80
139,156
223,156
14,156
56,156
140,156
224,156
15,156
57,156
141,156
225,156
16,156
58,156
142,240
226,240
17,240
59,240
143,240
227,240
18,240
60,240
144,240
228,79
61,79
67,147
67,78
67,230
67,146
157,152
157,145
157,235
241,235
241,150
241,152
241,233
241,149
241,234
241,71
241,151
84,149
84,145
164,152
164,235
92,236
92,71
92,67
92,62
92,151
92,235
92,150
92,153
102,153
102,69
102,151
102,148
102,234
102,64
102,149
102,231
102,71
176,148
176,150
176,151
176,69
176,152
176,62
176,232
194,64
194,233
194,145
194,231
194,148
194,149
194,62
194,69
194,71
194,236
112,67
112,153
112,152
112,234
112,148
31,149
31,71
31,231
31,76
31,153
31,148
31,150
32,150
32,153
118,236
118,231
118,153
118,64
210,148
1,236
1,231
1,67
1,235
1,71
1,145
1,62
1,152
1,149
2,150
2,234
45,235
45,145
4,231
4,149
4,236
4,235
4,151
47,127
47,246
47,238
47,200
47,101
47,167
47,87
47,75
47,123
47,81
15,32
15,38
15,119
15,111
58,29
58,229
58,193
58,70
58,182
58,46
58,119
58,73
