# Number of vertices:
250
# Edge list:
4,0
46,0
214,0
5,0
47,0
215,0
6,0
48,0
216,0
7,0
49,0
217,0
8,0
50,0
218,0
9,0
51,0
219,0
10,0
52,0
220,0
11,0
53,0
221,0
12,0
54,0
222,0
13,0
55,4
223,4
14,4
56,4
224,4
15,4
57,46
225,46
16,214
58,214
226,214
17,214
59,214
227,214
18,214
60,5
228,5
19,5
61,5
229,5
20,5
62,5
230,5
21,5
63,5
231,5
22,5
64,5
232,5
23,47
65,47
233,47
66,47
24,47
234,215
25,215
67,215
235,6
26,6
68,6
236,6
27,6
69,48
237,48
28,48
70,48
238,48
29,48
71,48
239,48
30,48
72,48
240,48
31,48
73,48
241,48
32,216
74,216
242,216
33,216
75,216
243,216
34,216
76,7
244,7
35,7
77,7
245,7
36,7
78,7
246,49
37,49
79,49
247,49
38,49
80,49
248,49
39,49
81,49
249,49
40,49
82,217
41,217
83,217
171,217
42,217
84,217
1,217
43,217
85,217
2,217
44,8
86,8
45,8
3,8
87,218
88,218
130,218
172,218
89,218
131,9
173,9
90,9
132,9
174,9
213,9
91,9
133,9
175,51
92,51
134,51
176,219
93,219
135,219
177,219
94,219
136,219
178,219
95,10
137,10
179,10
96,10
138,10
180,10
97,10
139,10
181,220
98,220
140,220
182,11
99,53
141,53
183,53
100,53
142,53
184,53
101,53
143,53
185,221
102,221
144,221
186,221
103,221
145,221
187,221
104,221
146,221
188,221
105,221
147,221
189,221
106,12
148,54
190,54
107,54
149,54
191,54
108,54
150,54
192,54
109,54
151,54
193,54
110,54
152,54
194,54
111,222
153,222
195,222
112,222
154,222
196,222
113,222
155,222
197,222
114,222
156,222
198,222
115,222
157,13
199,13
116,13
158,13
200,13
117,13
159,55
201,55
118,55
160,55
202,55
119,55
161,55
203,55
120,14
162,14
204,14
121,14
163,14
205,14
122,14
164,14
206,14
123,14
165,14
207,56
124,56
166,56
208,56
125,56
167,224
209,224
126,224
168,224
210,224
127,224
169,224
211,224
128,224
170,224
212,15
129,15
60,218
60,51
60,48
60,49
60,216
60,221
60,11
61,215
61,221
61,10
61,51
61,214
61,9
61,47
61,218
61,222
61,50
64,219
245,216
246,215
171,214
171,222
171,53
171,13
171,11
171,12
171,8
171,221
43,50
43,53
43,13
2,50
2,222
2,12
2,54
2,220
2,5
2,214
130,12
130,221
130,51
130,215
130,13
130,50
93,215
177,12
177,53
177,221
98,221
98,8
98,214
98,218
98,215
99,51
99,47
184,5
184,52
184,11
184,216
184,10
184,7
102,12
102,217
102,54
102,48
115,8
115,219
115,46
115,48
115,6
115,4
115,10
115,12
115,5
115,13
199,220
199,215
200,8
200,218
200,50
200,47
200,48
118,131
118,65
118,96
118,67
118,189
202,81
122,191
122,189
122,40
122,158
