# Number of vertices:
250
# Edge list:
162,0
120,0
164,0
80,0
165,0
119,0
166,0
94,162
167,162
92,162
168,162
163,162
118,162
169,120
93,120
170,120
117,120
171,120
172,80
82,80
173,80
85,80
174,80
84,80
175,80
83,80
176,80
86,80
81,80
177,80
116,80
178,165
107,165
179,165
101,165
180,165
115,165
181,165
106,165
182,165
100,165
183,165
114,165
184,165
185,119
87,119
186,119
95,119
113,119
187,119
105,119
188,119
99,119
189,166
112,166
190,166
104,166
191,94
98,94
192,167
111,167
193,167
103,167
194,167
97,167
195,167
110,167
196,92
102,92
197,92
96,92
198,92
246,92
121,168
199,168
109,168
200,168
91,168
201,168
108,168
202,168
90,168
203,168
247,168
78,163
89,163
204,163
88,118
205,118
38,118
122,169
206,169
248,169
39,93
123,93
207,93
249,93
79,93
40,93
124,93
208,93
41,170
125,170
209,170
42,170
126,170
210,170
1,170
43,170
127,117
211,117
2,171
44,171
128,171
212,172
3,172
45,172
129,172
213,172
4,172
46,172
130,172
214,172
5,172
47,172
131,172
215,172
6,82
48,82
132,82
216,82
7,82
49,82
133,82
217,82
8,82
50,82
134,82
218,82
9,82
51,173
135,173
219,173
10,173
52,173
136,85
220,85
11,85
53,85
137,85
221,85
12,85
54,85
138,85
222,85
13,85
55,85
139,174
223,174
14,174
56,174
140,174
224,174
57,174
15,174
141,83
225,83
58,83
16,83
142,83
226,83
17,176
59,176
143,176
227,176
18,176
60,176
144,176
228,176
19,176
61,176
145,176
229,176
20,176
62,176
146,86
230,86
21,86
63,86
147,86
231,81
22,81
64,81
148,81
232,177
23,177
65,177
149,177
233,177
24,177
66,177
150,177
234,177
25,177
67,116
151,116
235,178
26,107
68,107
152,107
236,107
27,107
69,179
153,179
237,179
28,179
70,179
154,179
238,101
29,101
71,101
155,101
239,101
30,101
72,101
156,101
240,115
31,115
73,181
157,181
241,181
32,106
74,106
158,106
242,106
33,106
75,106
159,182
243,182
34,182
76,182
160,182
244,182
35,182
77,100
161,100
245,100
36,100
37,183
117,162
117,119
117,80
117,164
117,166
101,119
101,162
101,80
101,120
101,166
101,164
114,164
114,120
114,119
114,80
114,166
114,162
95,166
95,80
95,165
95,164
95,162
95,120
105,162
105,120
190,120
192,84
192,190
192,95
192,112
192,105
192,179
192,163
201,100
201,99
201,94
201,104
201,101
201,171
201,180
201,173
123,107
124,82
124,118
124,114
7,173
7,170
7,101
7,113
7,163
7,92
53,171
53,184
53,173
53,107
53,101
53,86
53,82
138,104
138,178
138,181
138,117
138,179
138,169
138,115
138,81
138,101
138,99
222,117
223,93
223,100
223,180
223,81
223,175
223,177
223,168
223,181
223,105
223,117
149,169
149,172
149,100
149,117
149,174
233,105
233,83
233,174
233,87
233,92
233,173
233,185
240,95
