# Number of vertices:
250
# Edge list:
62,0
22,0
105,0
147,0
189,0
231,0
21,0
106,0
148,0
61,0
190,0
232,0
107,0
149,0
191,0
233,0
108,0
150,0
192,0
60,0
234,0
30,0
109,0
151,0
193,62
235,62
110,62
152,22
194,22
59,22
236,22
32,22
111,105
153,105
195,105
237,105
112,147
154,147
196,147
58,147
238,147
31,147
113,147
155,147
197,147
239,147
114,147
156,189
198,189
57,189
240,189
115,189
157,189
199,189
241,189
27,189
116,189
158,231
56,231
200,231
242,231
28,231
117,231
159,231
201,231
243,231
29,231
118,231
160,231
55,231
202,231
244,21
119,21
161,21
203,21
245,21
38,21
120,21
162,21
54,21
204,106
246,106
121,106
163,106
205,106
247,106
39,106
122,106
164,106
53,148
206,148
248,148
25,148
123,148
165,148
207,61
249,61
26,61
124,61
166,61
52,232
208,232
125,232
167,232
209,232
126,232
168,107
210,107
1,107
51,149
50,149
127,149
169,149
211,149
2,149
33,149
128,149
170,149
212,149
3,149
129,191
171,191
49,191
213,191
4,191
37,191
130,233
172,233
214,233
5,233
36,233
131,108
48,108
173,108
215,108
6,108
132,108
174,108
216,108
7,150
133,150
175,150
47,150
217,192
8,192
134,192
176,192
218,192
9,192
24,192
135,192
46,192
177,192
219,192
10,192
35,192
136,192
178,60
220,60
11,60
137,60
179,60
45,234
221,234
12,234
138,234
180,234
222,234
13,30
23,30
139,109
44,109
181,109
223,109
14,151
43,151
140,151
182,151
224,151
15,151
42,151
141,151
183,151
225,151
16,151
41,151
142,193
184,193
226,193
17,193
34,193
143,193
185,193
227,193
18,193
144,193
186,193
40,193
228,193
19,235
145,235
187,235
229,235
20,235
146,235
188,152
230,152
63,152
64,194
65,194
66,194
67,194
68,194
69,194
70,194
71,194
72,194
73,194
74,194
75,194
76,59
77,59
78,59
79,59
80,59
81,59
82,236
83,32
84,32
85,32
86,32
87,32
88,32
89,153
90,153
91,153
92,195
93,195
94,195
95,195
96,195
97,195
98,195
99,195
100,195
101,195
102,195
103,195
104,112
236,189
236,149
236,232
236,106
236,30
236,61
236,234
236,62
112,21
112,231
31,61
31,151
31,192
31,233
31,22
31,21
31,109
31,106
31,191
117,106
117,61
117,30
117,148
117,107
117,192
117,108
117,233
160,150
160,189
120,150
120,234
120,190
120,148
120,147
120,233
120,232
120,61
120,30
120,189
165,189
133,147
133,189
133,231
217,191
217,232
217,108
217,148
218,189
218,105
218,109
218,60
218,30
218,62
218,106
218,61
10,147
10,231
10,107
10,30
10,60
10,190
10,62
10,191
10,151
136,149
136,105
136,190
136,30
136,231
136,61
136,109
220,109
220,105
220,150
220,107
220,190
13,147
13,106
13,231
13,60
183,232
183,108
34,138
34,115
34,157
34,24
34,53
34,44
20,202
64,52
64,238
91,197
91,54
91,112
91,248
91,239
91,211
91,51
97,8
97,206
97,26
97,163
