# Number of vertices:
250
# Edge list:
4,0
88,0
172,0
5,0
89,0
173,4
6,4
90,4
174,4
7,4
91,4
175,88
8,88
92,88
176,88
9,88
93,88
177,88
10,88
94,172
178,172
11,172
95,172
179,172
12,172
96,172
180,172
13,172
97,172
181,172
14,172
98,172
182,5
15,89
99,89
183,89
16,89
100,89
184,89
17,89
101,89
185,89
18,89
102,89
186,89
19,89
103,173
187,173
20,173
104,173
188,173
21,173
105,173
189,173
22,173
106,173
190,173
23,173
107,173
191,173
24,6
108,6
192,6
25,6
109,6
193,90
26,90
110,90
194,90
27,90
111,90
195,90
28,90
112,90
196,90
29,90
113,90
197,90
30,90
114,174
198,174
31,174
115,174
199,174
32,174
116,174
200,174
33,174
117,174
201,174
34,7
118,7
202,7
35,7
119,7
203,7
36,7
120,7
204,7
37,91
121,91
205,91
38,91
122,91
206,91
39,91
123,91
207,91
40,91
124,91
208,91
41,91
125,175
209,175
42,175
126,175
210,175
1,175
43,175
127,175
211,175
44,175
2,175
128,175
212,175
45,175
3,8
129,8
213,8
170,8
46,8
130,8
214,8
47,92
131,92
215,176
48,176
132,176
216,176
49,176
133,9
217,9
50,9
134,9
171,9
218,9
51,9
135,9
219,9
52,9
136,9
220,9
53,9
137,9
221,93
54,93
138,93
222,93
55,93
139,93
223,177
56,177
140,10
224,10
57,10
141,10
225,10
58,10
142,10
226,10
59,94
143,94
227,94
60,94
144,94
228,178
61,178
145,178
229,178
62,178
146,178
230,178
63,11
147,11
231,11
64,11
148,11
232,95
65,95
149,95
233,95
66,95
150,95
234,95
67,95
151,95
235,95
68,95
152,95
236,95
69,95
153,179
237,12
70,12
154,12
238,96
71,96
155,96
239,96
72,180
156,180
240,180
73,180
157,180
241,180
74,180
158,180
242,180
75,180
159,180
243,180
76,180
160,13
244,13
77,13
161,13
245,13
78,13
162,97
246,97
79,14
163,14
247,14
80,14
164,14
248,14
81,14
165,14
249,14
82,14
166,14
83,98
167,98
84,98
168,98
85,98
169,98
86,98
87,182
7,172
7,89
7,5
7,88
9,172
9,89
9,4
9,5
179,88
179,4
97,5
182,4
182,89
182,88
182,172
22,99
22,94
22,184
22,9
22,182
22,181
22,17
22,14
118,94
36,18
36,99
36,98
36,94
36,12
36,90
36,19
131,97
131,174
131,102
131,91
131,16
131,10
131,96
131,185
131,9
131,17
48,102
48,99
48,96
48,185
48,95
48,9
50,19
50,173
50,175
50,13
50,93
50,8
50,15
136,19
136,18
136,16
136,184
136,7
136,186
136,95
136,96
136,6
136,173
224,97
224,176
224,96
224,185
224,175
224,173
57,182
57,13
57,92
57,93
57,18
141,175
141,186
141,96
141,9
59,8
59,16
59,178
59,177
59,13
59,181
59,11
146,181
146,15
146,6
146,176
146,100
146,91
146,14
148,178
148,182
148,8
148,100
148,98
148,174
148,99
148,176
148,91
148,184
236,181
236,91
236,182
236,18
236,186
153,99
153,175
153,178
153,101
153,91
153,183
153,10
153,181
153,8
71,8
71,6
71,176
71,99
71,98
71,18
71,100
71,184
74,178
74,185
74,174
74,184
74,95
74,9
74,94
74,177
74,19
164,173
164,179
164,90
164,6
164,12
164,97
164,13
164,181
164,183
164,95
249,91
167,96
167,175
167,182
167,19
167,11
