# Number of vertices:
250
# Edge list:
205,0
80,0
122,0
248,0
81,0
123,0
166,0
204,0
79,0
249,0
82,0
124,0
83,0
125,0
167,0
203,0
84,0
126,0
165,0
85,0
127,205
202,205
86,205
128,205
87,205
129,205
164,205
201,205
88,80
130,80
200,80
89,80
131,80
199,80
90,80
132,80
198,80
91,80
133,80
197,80
92,122
134,122
196,122
93,122
135,122
195,122
94,122
136,122
194,122
95,122
137,248
193,248
96,248
138,81
192,81
97,81
139,81
191,81
98,81
140,81
190,81
99,81
141,123
189,123
100,123
142,166
188,166
101,166
143,166
187,204
102,204
144,204
186,204
103,204
145,204
185,204
104,204
146,204
184,204
105,204
147,204
183,79
106,79
148,79
182,79
107,79
149,79
108,79
150,79
181,79
109,79
151,79
180,79
110,79
152,249
179,249
111,249
153,249
178,249
112,249
154,249
177,249
113,249
155,249
176,249
114,249
156,82
175,82
115,82
157,82
174,82
116,82
158,82
173,82
117,82
159,82
172,82
118,82
160,82
171,124
119,124
161,124
170,124
120,124
162,124
169,124
121,124
163,124
168,124
38,124
206,124
39,124
207,83
40,83
208,83
246,83
41,83
209,83
42,125
210,125
1,125
43,125
211,125
2,125
44,167
212,167
3,167
45,167
213,203
247,203
4,203
46,203
214,84
5,84
47,84
215,84
6,84
48,84
216,84
7,84
49,84
217,84
8,84
50,84
218,84
9,84
51,126
219,126
10,126
52,126
220,126
11,126
53,126
221,126
12,126
54,126
222,126
13,126
55,126
223,126
14,165
56,165
224,165
57,165
15,165
225,165
58,165
16,165
226,165
17,165
59,85
227,85
18,85
60,85
228,85
19,85
61,85
229,85
20,85
62,85
230,85
21,127
63,127
231,127
22,127
64,127
232,127
23,127
65,127
233,127
24,127
66,127
234,127
25,127
67,86
235,86
26,86
68,86
236,86
27,86
69,86
237,86
28,86
70,86
238,86
29,128
71,128
239,128
30,128
72,128
240,128
31,128
73,128
241,128
32,128
74,128
242,128
33,128
75,128
243,87
34,87
76,87
244,87
35,87
77,87
78,87
245,87
36,87
37,87
198,124
135,205
135,203
135,81
135,84
135,165
135,248
94,167
94,126
94,79
94,165
94,85
94,205
94,81
94,82
94,83
146,166
146,123
146,79
146,80
146,167
146,81
146,84
180,248
180,249
154,123
154,165
154,126
154,203
154,204
154,84
154,81
113,125
113,123
113,165
155,81
158,81
158,79
158,167
158,123
158,249
158,205
117,122
117,124
117,166
117,79
117,249
117,84
117,204
119,79
119,82
119,205
119,248
119,203
119,83
209,167
209,205
209,248
209,204
218,82
218,166
218,122
51,203
51,204
51,166
51,85
219,123
219,83
219,165
219,80
219,167
219,248
219,125
219,166
228,83
235,152
235,247
235,96
235,62
235,102
235,210
235,198
235,206
29,6
245,138
245,172
245,53
245,5
245,186
245,219
245,170
245,8
245,7
245,145
