# Number of vertices:
250
# Edge list:
29,0
71,0
197,0
239,0
30,0
72,0
198,0
240,0
31,0
73,0
199,0
241,0
32,0
74,0
200,0
242,0
33,0
75,0
201,0
243,0
34,29
76,29
202,29
244,29
35,29
77,29
203,29
245,29
36,29
78,71
204,71
246,71
37,71
79,71
205,71
247,71
38,197
80,197
206,197
248,197
39,197
81,197
207,239
249,239
40,239
82,239
208,239
41,239
83,239
209,239
42,239
84,239
210,239
1,239
43,30
85,30
211,30
2,30
44,30
86,30
212,30
3,30
45,30
87,30
213,72
4,72
46,72
88,72
214,72
5,72
47,72
89,72
196,72
215,72
6,72
48,72
90,72
216,240
49,240
7,240
91,240
217,240
8,240
50,240
92,240
218,240
9,240
51,240
93,240
219,31
10,73
52,73
94,73
220,73
11,73
53,73
95,73
221,73
12,73
54,73
96,73
222,73
13,73
55,199
97,199
223,199
14,199
56,199
98,199
224,199
15,199
57,199
99,199
225,199
16,199
58,199
100,199
226,32
17,74
59,74
101,74
227,74
18,74
60,74
102,74
228,74
19,74
61,200
103,200
229,200
20,200
62,200
104,200
230,200
21,200
63,200
105,200
231,200
22,200
64,200
106,242
232,242
23,33
65,33
107,33
233,33
24,33
66,33
108,33
234,33
25,33
67,33
109,33
235,75
26,75
68,75
110,75
236,75
27,75
69,75
111,75
237,75
70,75
28,75
112,75
238,75
113,201
155,201
114,201
156,201
115,201
157,201
116,201
158,201
117,201
159,201
118,201
160,243
119,243
161,243
120,243
162,243
121,243
163,243
122,243
164,243
123,243
165,243
124,243
166,243
125,243
167,34
126,34
168,34
127,34
169,34
128,76
170,76
129,76
171,76
130,76
172,76
131,76
173,76
132,76
174,76
133,76
175,76
134,202
176,202
135,202
177,202
136,202
178,202
137,202
179,202
138,202
180,244
139,244
181,244
140,244
182,244
141,244
183,244
142,35
184,35
143,35
185,35
144,35
186,35
145,35
187,35
146,35
188,77
147,77
189,77
148,77
190,203
149,203
191,203
150,203
192,203
151,203
193,36
152,36
194,36
153,36
195,36
154,36
202,32
202,73
202,201
202,243
202,71
202,239
202,240
35,201
203,71
203,72
203,243
203,32
203,33
203,31
203,200
203,239
203,198
203,201
246,197
246,32
246,31
246,199
246,198
246,29
246,73
2,241
2,199
2,33
2,242
2,72
2,197
2,73
2,198
3,243
3,239
3,31
3,29
3,33
89,31
89,29
89,201
89,240
49,75
49,242
49,32
49,31
49,239
49,199
91,199
50,241
50,200
50,71
221,200
221,33
221,243
221,31
101,73
101,241
101,33
101,201
101,243
101,199
229,32
229,74
229,73
229,31
229,72
229,75
230,199
230,239
230,198
230,74
230,241
230,197
232,71
232,200
232,29
232,32
232,30
232,239
232,33
232,243
232,31
65,240
65,32
65,241
65,73
65,29
65,199
65,242
65,200
65,74
65,71
110,74
110,73
110,197
110,29
110,30
110,71
238,30
238,200
238,197
238,74
238,73
115,241
115,197
115,198
115,32
115,199
115,72
118,71
118,73
118,197
118,242
118,198
177,46
177,77
177,211
138,86
187,18
187,124
