# Number of vertices:
250
# Edge list:
24,0
66,0
150,0
234,0
25,0
67,0
151,0
235,0
26,0
68,0
152,0
236,0
27,0
69,0
153,0
237,0
28,0
70,0
154,0
238,0
29,0
71,66
155,66
239,66
30,150
72,150
156,234
240,234
31,234
73,234
157,234
241,234
32,25
74,25
158,25
242,25
33,67
75,67
159,67
243,67
34,151
76,151
160,151
244,151
35,151
77,151
161,151
245,151
36,151
78,26
162,26
246,26
37,26
79,68
163,68
247,68
38,68
80,68
164,68
248,68
39,68
81,68
165,68
249,152
40,152
82,152
166,152
41,152
83,152
167,152
42,152
84,152
168,152
43,236
85,236
169,236
44,236
86,236
170,236
45,236
87,236
171,236
46,236
88,236
172,236
47,27
89,27
173,27
48,27
90,69
174,69
49,69
91,69
175,69
50,69
92,69
176,69
51,69
93,69
177,153
52,153
94,237
178,237
53,237
95,237
179,237
54,237
96,237
180,237
55,237
97,237
181,237
56,237
98,28
182,70
57,70
99,154
183,154
58,154
100,154
184,154
59,154
101,154
185,154
60,154
102,154
186,154
61,238
103,238
187,238
62,238
104,238
188,238
63,238
105,238
189,238
64,238
106,238
190,29
65,71
107,71
191,71
108,71
192,71
109,71
193,71
110,71
194,71
111,71
195,71
112,71
196,71
113,155
197,155
114,155
198,155
115,155
199,155
116,155
200,155
117,155
201,239
118,239
202,239
119,239
203,239
120,239
204,239
121,239
205,239
122,239
206,239
123,30
207,30
124,30
208,30
125,30
209,30
126,30
210,30
1,30
127,30
211,30
2,30
128,30
212,30
3,72
129,72
213,72
4,72
130,72
214,72
5,72
131,72
215,72
6,72
132,72
216,72
7,156
133,156
217,156
8,156
134,156
218,156
233,156
9,156
135,240
219,240
10,240
136,240
220,240
11,240
137,240
149,240
221,240
12,240
138,240
222,240
13,240
139,31
223,31
14,31
140,31
224,31
15,31
141,31
225,31
16,31
142,157
226,157
17,241
143,241
227,241
18,241
144,241
228,241
19,241
145,241
229,241
20,241
146,32
230,32
21,32
147,32
231,74
22,74
148,74
232,74
23,74
71,153
71,237
71,154
71,28
71,29
30,234
30,24
30,26
32,69
32,237
161,234
161,238
161,24
161,68
161,235
161,26
161,237
161,152
78,152
78,28
78,151
78,68
78,69
78,70
39,236
39,26
46,28
46,235
46,70
49,235
49,150
49,154
49,237
178,66
178,235
55,67
181,24
182,237
182,25
182,235
182,236
182,67
182,24
182,69
182,68
57,153
57,24
57,25
57,67
57,28
57,66
111,100
111,240
111,87
111,63
121,93
121,175
121,240
121,172
121,87
121,74
121,184
121,168
121,55
121,63
207,35
207,79
207,239
207,169
208,92
208,173
208,171
208,102
208,64
208,165
208,163
208,177
5,40
5,101
5,52
5,241
5,86
5,46
5,163
5,62
5,242
5,82
10,56
10,99
10,245
10,177
10,182
10,163
10,174
10,155
10,73
16,155
16,104
16,92
16,72
16,156
16,86
16,60
16,77
227,160
227,161
227,171
227,63
227,176
227,242
144,58
144,83
144,243
144,103
144,239
144,47
145,177
145,93
231,77
231,170
231,63
231,179
231,249
148,80
148,181
148,84
148,167
