# Number of vertices:
250
# Edge list:
120,0
25,0
67,0
193,0
121,0
26,0
68,0
133,0
194,0
27,0
69,0
195,0
147,0
28,0
70,0
196,0
146,0
29,0
71,0
134,0
197,0
30,120
72,120
198,120
127,25
31,67
73,67
199,67
149,67
32,67
74,67
200,67
148,67
33,67
75,67
201,67
150,67
34,67
76,67
118,193
202,193
35,193
77,193
203,193
126,193
36,193
78,193
204,193
143,193
37,193
79,193
205,121
142,121
38,121
80,121
132,121
206,121
39,121
81,121
207,121
125,121
40,121
82,121
208,121
145,121
41,26
83,26
209,26
144,26
42,26
84,26
131,26
1,26
210,26
43,68
85,68
130,68
211,68
44,68
2,68
86,68
119,133
212,133
45,133
3,133
87,133
117,133
213,133
4,133
46,133
88,133
115,133
214,133
5,133
47,133
89,194
124,194
215,194
6,194
48,194
90,194
137,194
216,69
7,69
49,69
91,195
136,195
217,195
8,195
50,195
92,195
129,147
218,147
9,147
51,147
93,147
123,147
219,147
10,147
52,147
94,28
139,28
220,28
11,28
53,28
95,28
138,28
221,28
12,28
54,70
96,70
128,70
222,70
13,70
55,70
97,70
122,70
223,71
14,71
56,71
98,71
141,134
224,134
15,134
57,134
99,134
140,134
225,134
16,134
58,134
100,134
135,134
226,134
17,197
59,197
101,197
112,197
227,197
18,197
60,197
102,197
110,197
228,197
19,197
61,30
103,30
109,30
229,30
20,30
62,30
104,72
116,72
230,72
21,72
63,72
105,72
114,72
231,72
22,72
64,198
106,198
113,198
232,198
65,198
23,198
107,198
111,198
233,127
66,127
24,127
108,127
234,127
190,127
179,127
235,127
236,127
192,127
178,127
237,127
238,127
191,127
177,31
239,31
163,31
240,31
165,31
241,31
164,31
162,31
242,31
159,31
243,31
184,31
244,31
176,73
245,73
187,73
246,73
175,73
247,73
185,73
248,199
174,199
249,199
170,199
189,149
186,149
173,149
169,149
188,149
183,149
160,149
161,149
153,149
182,149
172,149
168,149
167,149
154,149
152,32
158,32
157,74
156,74
155,74
151,74
180,74
181,74
171,74
166,74
198,27
198,193
198,28
198,133
198,196
198,195
198,197
198,194
31,133
149,195
149,194
149,26
149,196
149,121
149,147
149,29
149,69
149,70
43,133
43,70
43,67
43,26
43,121
43,196
43,27
43,197
44,26
44,134
44,25
44,29
44,133
86,120
86,196
86,121
86,197
86,147
86,146
137,68
137,26
137,28
137,121
137,67
137,195
137,133
137,25
7,133
7,120
7,29
7,146
217,29
217,28
217,146
217,194
217,25
217,134
14,121
14,195
14,67
14,147
14,134
14,68
14,26
14,120
227,70
227,26
227,67
227,27
227,120
227,196
227,193
227,146
227,71
227,29
61,115
61,7
61,77
61,139
61,150
61,225
61,14
61,3
61,42
105,207
105,216
105,208
105,119
105,15
231,219
231,95
231,37
231,221
231,130
231,144
23,228
23,80
23,3
23,4
23,125
23,143
23,118
23,122
23,94
23,110
108,47
108,30
108,49
108,89
108,115
234,198
234,12
234,85
234,89
234,207
234,145
234,83
234,9
234,142
234,126
237,203
160,46
182,228
168,208
167,124
