# Number of vertices:
250
# Edge list:
26,0
110,0
194,0
27,0
111,0
195,0
28,0
112,0
196,0
29,0
113,0
197,0
30,0
114,0
198,0
31,0
115,0
199,26
32,26
116,26
200,26
33,26
117,26
201,26
34,110
118,110
202,110
35,110
119,110
203,110
36,110
120,110
204,110
37,194
121,194
205,27
38,27
122,27
206,27
39,27
123,111
207,111
40,111
124,111
208,111
41,111
125,195
209,195
42,195
126,195
210,195
1,195
43,195
127,195
211,195
2,28
44,28
128,28
212,28
3,28
45,28
129,112
213,112
46,112
4,112
130,112
214,112
5,112
47,112
131,112
215,112
6,112
48,112
132,112
216,196
7,196
49,196
133,196
217,196
8,29
50,29
134,29
218,29
9,29
51,29
135,29
219,29
10,29
52,29
136,29
220,29
11,113
53,113
137,113
221,113
12,113
54,113
138,113
222,113
13,113
55,197
139,197
223,197
14,197
56,197
140,197
224,197
15,197
57,197
141,197
225,197
16,197
58,30
142,30
226,114
17,114
59,114
143,114
227,114
18,114
60,114
144,114
228,114
19,198
61,31
145,31
229,31
20,31
62,31
146,31
230,115
21,115
63,115
147,115
231,115
22,115
64,115
148,199
232,199
23,199
65,199
149,199
233,199
193,32
24,32
66,32
150,32
234,32
67,32
25,32
151,32
235,32
68,32
152,32
236,116
69,116
153,116
237,116
70,116
154,116
238,116
71,116
155,200
239,200
72,200
156,200
240,200
73,200
157,33
241,33
74,33
158,33
242,33
75,33
159,33
243,33
76,33
160,33
244,33
77,33
161,33
245,117
78,117
162,117
246,117
79,117
163,117
247,117
80,117
164,117
248,117
81,201
165,201
249,201
82,201
166,201
83,201
167,201
84,201
168,201
85,201
169,201
86,201
170,201
87,201
171,34
88,34
172,34
89,34
173,34
90,118
174,118
91,118
175,118
92,118
176,118
93,118
177,118
94,202
178,202
95,202
179,202
96,202
180,202
97,202
181,202
98,202
182,202
99,35
183,35
100,35
184,35
101,35
185,35
102,35
186,35
103,35
187,35
104,35
188,35
105,35
189,35
106,119
190,119
107,119
191,119
108,119
192,119
109,119
124,28
124,196
124,26
124,194
124,27
125,110
126,30
126,194
4,197
4,194
216,111
216,197
216,195
216,112
216,27
216,194
216,28
216,114
56,28
56,194
56,26
56,27
56,115
56,110
56,31
56,196
225,115
225,114
225,27
225,113
225,28
226,195
226,115
226,26
226,30
226,197
24,1
24,146
24,211
24,219
24,127
24,202
66,15
66,131
66,201
66,214
66,137
66,16
66,215
66,124
66,45
150,207
150,17
150,46
150,60
150,229
150,215
150,225
150,6
150,131
150,13
235,135
235,126
235,63
235,139
237,199
237,202
237,205
237,53
237,50
237,218
237,208
237,147
237,46
157,5
157,21
157,9
157,43
242,61
242,58
242,60
242,39
242,204
242,57
242,117
242,36
242,147
161,60
161,10
161,217
161,216
161,43
89,224
89,124
89,217
89,136
89,218
89,206
186,222
186,224
186,44
104,222
104,214
104,205
104,202
104,217
104,55
108,20
