# Number of vertices:
250
# Edge list:
35,0
77,0
203,0
36,0
78,0
204,0
37,0
79,0
205,0
38,0
80,0
206,35
39,35
81,35
207,35
201,35
40,35
82,35
208,35
41,35
83,35
209,35
42,35
84,35
159,35
210,77
43,77
85,77
211,203
44,203
86,36
212,78
202,78
45,78
87,78
213,78
46,78
88,78
214,78
47,78
89,78
160,78
215,204
48,204
90,204
216,204
49,204
91,204
217,204
50,204
92,204
218,204
51,204
93,204
219,204
52,79
94,205
220,205
53,205
95,205
221,205
54,205
96,205
222,80
55,80
97,80
223,80
56,80
98,80
224,80
57,206
99,206
225,39
58,39
100,39
226,39
59,39
101,39
227,81
60,81
102,81
228,81
61,81
103,81
229,81
62,81
104,81
230,81
63,81
105,207
231,207
64,207
106,207
232,207
65,207
107,207
233,207
66,207
108,207
234,207
67,207
109,201
235,201
68,201
110,201
236,201
69,201
111,40
237,40
70,40
112,40
238,40
71,40
113,40
239,40
72,40
114,40
240,40
73,40
115,40
241,40
74,82
116,82
242,82
75,82
117,82
243,82
76,82
118,82
244,82
119,82
161,82
245,208
120,208
162,208
246,208
121,208
163,41
247,41
122,41
164,41
248,41
123,83
165,209
249,209
124,209
166,209
125,209
167,209
126,209
168,209
1,209
127,209
169,209
2,209
128,209
170,209
3,42
129,42
171,42
4,42
130,42
172,42
5,42
131,42
173,42
6,42
132,42
174,84
7,84
133,84
175,84
8,84
134,84
176,84
9,84
135,84
177,84
10,84
136,84
178,159
11,159
137,159
179,159
12,159
138,159
180,210
13,210
139,210
181,210
14,210
140,210
182,210
15,43
141,43
183,43
16,43
142,43
184,43
17,43
143,43
185,85
18,211
144,44
186,44
19,44
145,44
187,44
20,44
146,44
188,44
21,44
147,44
189,44
22,44
148,86
190,86
23,86
149,212
191,212
24,212
150,212
192,212
25,212
151,212
193,212
26,212
152,212
194,212
27,202
153,202
195,202
28,202
154,202
196,202
29,202
155,202
197,202
30,202
156,202
198,202
31,202
157,45
199,45
32,45
158,45
200,45
33,45
34,45
207,38
207,78
207,79
207,36
207,205
207,37
207,77
207,204
207,203
86,38
91,79
91,78
91,35
91,77
51,80
51,36
51,77
51,37
51,79
51,205
51,78
51,35
51,203
53,78
53,77
53,79
53,204
53,203
53,80
53,37
96,38
96,37
229,82
229,214
229,212
229,207
229,216
229,87
230,209
230,202
230,54
230,96
230,55
230,87
230,216
230,98
230,46
238,212
238,53
238,49
238,81
238,217
238,88
114,209
114,42
114,50
114,90
114,89
114,55
114,41
75,159
75,45
75,50
76,47
76,217
76,44
76,208
76,92
76,42
120,39
128,93
128,83
128,218
128,86
128,160
128,87
131,222
131,40
131,217
131,210
173,208
173,206
173,89
173,96
173,50
140,44
15,95
15,213
15,39
15,83
15,218
15,98
15,209
19,85
19,207
19,56
19,224
191,218
191,52
191,210
191,47
191,97
191,53
191,46
191,82
192,208
192,83
192,54
192,84
192,94
192,93
192,224
26,40
