# Number of vertices:
250
# Edge list:
104,0
146,0
188,0
105,0
147,0
189,0
106,0
148,0
190,0
107,0
149,0
191,0
108,0
150,0
192,104
109,104
151,104
193,104
110,104
152,146
194,146
111,146
153,146
195,146
112,146
154,146
196,146
113,146
155,146
197,146
114,146
156,146
198,146
115,188
157,188
199,188
116,188
158,188
200,188
117,188
159,188
201,188
118,188
160,188
202,188
119,188
161,188
203,147
120,147
162,147
204,147
121,147
163,106
205,106
122,106
164,148
206,148
123,148
165,190
207,107
124,107
166,107
208,107
125,149
167,149
209,149
126,149
168,191
210,191
1,191
127,191
169,191
211,191
2,191
128,108
170,108
212,108
3,108
129,108
171,108
213,108
4,108
130,150
172,150
214,150
5,150
131,150
173,150
215,150
6,150
132,150
174,150
216,150
7,150
133,150
175,150
217,192
8,192
134,192
176,192
218,192
9,192
135,192
177,192
219,192
10,192
136,109
178,109
220,109
11,109
137,109
179,109
221,109
12,151
138,151
180,151
222,151
13,151
139,151
181,151
223,151
14,151
140,151
182,193
224,193
15,193
141,193
183,193
225,193
16,193
142,193
184,110
226,110
17,152
143,152
185,194
227,194
18,194
144,194
186,194
228,194
19,194
145,194
187,194
229,194
20,111
62,111
230,111
21,111
63,111
231,111
22,111
64,111
232,111
23,111
65,153
233,153
24,153
66,153
234,153
25,153
67,195
235,195
26,195
68,195
236,195
27,195
69,195
237,195
28,195
70,195
238,195
29,195
71,154
239,154
30,154
72,196
102,113
240,113
31,113
73,113
241,113
32,113
74,113
242,113
33,155
75,155
243,155
34,155
76,155
244,197
35,197
77,197
103,197
245,197
36,197
78,197
246,197
37,197
79,197
247,114
38,114
80,114
248,114
39,114
81,114
249,114
40,114
82,114
41,114
83,114
42,114
84,114
43,156
85,156
44,156
86,156
45,156
87,156
46,198
88,198
47,198
89,198
48,115
90,115
49,115
91,115
50,115
92,115
51,115
93,115
52,115
94,157
53,157
95,157
54,157
96,157
55,157
97,157
56,157
98,199
57,199
99,199
58,199
100,199
59,199
101,199
60,199
61,199
151,146
196,107
196,108
196,104
196,150
196,106
196,191
196,105
196,188
196,190
161,108
161,190
123,190
123,106
123,105
123,188
123,147
123,191
123,104
123,108
123,107
123,150
168,147
168,188
168,189
168,105
168,107
168,104
168,190
168,108
1,148
1,149
1,150
128,146
131,147
132,108
132,107
132,148
132,188
132,105
132,191
132,189
7,146
7,190
7,148
133,107
133,191
133,104
133,146
133,105
133,189
133,106
133,147
133,148
133,149
175,108
175,149
175,105
175,107
175,191
220,170
220,2
181,214
181,170
181,192
181,5
181,115
181,212
235,118
235,7
235,121
235,206
235,3
235,153
235,117
235,109
235,1
235,112
241,163
241,119
241,120
241,133
241,212
241,2
241,112
241,117
32,156
32,160
32,203
32,207
32,121
246,122
246,174
246,196
246,212
42,113
85,204
85,216
85,168
85,153
85,214
55,132
55,110
57,164
57,152
57,169
57,208
57,157
59,157
59,209
59,215
59,153
59,131
59,172
59,169
59,110
59,125
