# Number of vertices:
250
# Edge list:
13,0
55,0
223,0
14,0
56,0
224,0
15,0
57,0
225,0
16,0
58,0
226,13
17,13
59,13
227,13
18,13
60,13
228,13
19,13
61,13
229,13
20,13
62,13
230,55
222,55
21,55
63,55
231,223
22,223
64,223
232,223
23,223
65,223
233,14
24,14
66,56
234,56
25,56
67,56
235,56
26,56
68,56
236,56
27,56
69,56
237,56
28,56
70,56
238,224
29,224
71,224
239,224
30,15
72,15
240,15
31,57
73,57
241,57
32,57
74,57
242,57
75,57
33,57
243,57
34,57
76,225
244,225
35,225
77,225
245,225
36,225
78,225
246,225
37,225
79,16
247,16
38,16
80,58
248,58
39,58
81,58
249,58
40,58
82,58
41,58
83,58
42,58
84,58
1,226
43,226
85,226
2,17
44,17
86,17
3,17
45,17
87,17
4,17
46,17
88,17
5,17
47,17
89,17
6,59
48,59
90,59
7,59
49,59
91,59
8,59
50,59
92,59
9,59
51,59
93,59
10,227
52,227
94,227
11,227
53,227
95,227
54,227
12,227
96,227
97,227
139,227
181,227
98,227
140,227
182,18
99,18
141,18
183,18
100,18
142,18
184,18
101,18
143,60
185,60
102,60
144,60
186,60
103,60
145,60
187,60
104,60
146,60
188,60
105,60
147,228
189,228
106,228
148,228
190,228
107,228
149,228
191,228
108,228
150,228
192,19
109,19
151,61
193,61
110,20
152,20
194,20
111,20
153,20
195,20
112,20
154,20
196,20
113,20
155,62
197,62
114,62
156,62
198,230
115,230
157,230
199,230
116,230
158,230
200,222
117,222
159,222
201,222
118,222
160,222
202,222
119,222
161,222
203,222
120,222
162,222
204,222
121,21
163,21
205,21
122,21
164,21
206,21
123,21
165,21
207,63
124,63
166,63
208,63
125,63
167,63
209,63
126,63
168,63
210,63
127,231
169,22
211,22
128,22
170,64
212,64
129,64
171,64
213,64
130,64
172,64
214,64
131,232
173,232
215,232
132,232
174,232
216,232
133,232
175,232
217,232
134,232
176,232
218,23
135,23
177,23
219,23
136,23
178,23
220,23
180,23
137,23
179,23
221,23
138,65
228,56
228,57
228,15
228,14
23,224
23,13
23,15
241,55
241,15
77,57
77,58
77,13
77,223
77,55
77,16
77,224
77,56
77,15
80,223
80,13
80,16
80,225
80,14
80,55
80,15
80,57
80,56
80,224
40,57
40,56
40,224
40,16
40,15
40,225
40,13
40,14
40,55
40,223
82,56
82,57
82,13
82,15
82,223
82,14
82,224
82,16
86,232
86,78
86,39
86,245
86,42
86,73
9,230
9,241
9,238
9,239
9,28
9,29
9,242
9,237
9,41
52,19
52,21
52,29
52,81
52,68
52,66
52,61
139,241
139,19
139,236
139,74
139,67
139,79
139,35
139,30
98,35
98,18
143,21
143,76
143,42
143,234
143,239
143,29
143,75
143,19
104,233
104,63
104,241
104,80
104,19
104,70
104,64
104,31
104,40
188,78
188,72
188,30
188,42
188,35
188,245
188,40
188,17
150,34
150,19
114,39
114,25
114,76
114,38
114,32
114,73
114,36
114,80
114,237
114,20
158,249
121,81
121,230
121,241
121,77
121,75
121,65
121,71
121,239
164,80
164,25
164,232
164,41
164,34
164,42
164,245
206,248
206,24
206,22
206,78
211,23
211,65
211,240
211,78
211,238
211,242
221,25
221,247
221,226
221,29
221,228
