# Number of vertices:
250
# Edge list:
211,0
212,0
125,0
213,0
214,0
215,0
216,0
217,0
126,0
218,0
209,0
219,0
220,0
221,0
222,0
223,0
210,0
224,0
225,0
226,0
227,0
228,0
167,0
229,0
230,0
231,0
232,0
233,0
168,0
234,0
235,211
236,211
237,211
238,211
239,211
240,211
241,211
242,212
243,125
244,125
245,125
246,125
247,125
1,213
43,214
85,214
127,214
169,214
249,214
2,214
44,214
86,214
128,215
170,215
3,215
45,215
87,216
129,216
171,216
4,216
46,217
88,126
130,126
172,218
5,218
47,218
89,218
131,218
173,209
6,209
48,219
90,219
132,219
174,219
7,219
49,219
91,220
133,220
175,220
8,220
50,220
92,220
134,220
176,220
9,220
51,221
93,221
135,221
177,221
10,222
52,222
94,222
136,222
178,222
11,222
53,223
95,223
137,223
179,223
12,210
54,210
96,210
138,210
180,210
13,210
55,210
97,210
139,210
181,210
14,224
56,224
98,224
140,224
182,224
15,224
57,224
99,224
141,224
183,224
16,224
58,224
100,225
142,225
184,225
17,225
59,225
101,225
143,225
185,225
18,226
60,226
102,226
144,226
186,226
19,226
61,226
103,226
145,226
187,226
62,226
20,226
104,226
146,227
188,227
63,227
21,227
105,227
147,227
189,227
22,227
64,227
106,227
148,228
190,228
23,228
65,228
107,167
149,167
191,167
24,167
66,167
108,167
150,167
192,167
25,229
67,229
109,229
151,229
193,229
26,229
68,229
110,229
152,229
194,229
248,229
27,231
69,231
111,231
153,231
195,231
28,231
70,231
112,231
154,231
196,231
29,231
71,231
113,232
155,233
83,233
197,233
30,233
72,233
114,168
156,168
198,168
31,168
73,168
115,234
157,235
199,235
32,235
74,236
116,236
158,236
200,236
33,236
75,236
117,236
159,236
201,237
34,237
76,237
118,237
160,237
84,237
202,237
35,237
77,237
119,238
161,238
203,238
36,238
78,238
120,238
162,238
204,239
37,240
79,240
121,240
163,240
205,240
38,240
80,240
122,240
164,240
206,240
39,240
81,240
123,240
165,240
207,241
40,241
82,241
124,241
166,241
208,241
41,241
42,241
241,209
241,231
241,230
241,222
241,228
241,214
241,229
241,220
241,233
242,232
128,231
128,209
128,234
128,222
128,225
128,224
128,228
170,224
170,217
170,125
170,232
3,126
4,167
4,228
4,220
4,223
4,211
4,233
4,218
4,232
92,217
92,232
92,126
92,216
92,210
92,215
53,126
53,232
53,220
53,225
53,234
53,233
13,218
13,212
13,219
13,234
13,220
98,214
186,233
186,222
186,214
186,224
186,228
186,211
186,219
186,209
61,228
61,222
61,227
61,233
61,217
61,230
61,167
61,213
61,231
103,217
103,210
103,213
103,234
62,211
62,225
62,168
62,214
20,210
20,125
20,232
20,231
20,126
20,228
20,167
20,225
20,219
22,125
22,223
22,229
22,222
22,217
22,168
22,221
22,212
64,231
64,224
64,230
64,229
64,223
64,209
64,215
64,234
108,234
108,216
108,222
151,223
151,209
111,232
111,230
111,223
111,234
111,210
111,222
111,214
111,167
111,228
111,224
30,217
156,209
156,215
156,232
156,226
156,227
156,228
156,125
159,131
159,45
159,95
160,177
160,146
160,63
160,85
160,169
35,86
35,2
35,28
35,106
35,5
35,235
35,109
35,72
35,174
35,150
122,27
122,53
122,241
122,63
