# Number of vertices:
250
# Edge list:
169,0
167,0
152,0
179,169
170,169
180,169
183,169
153,169
182,169
154,169
168,169
1,169
177,169
176,169
2,169
175,169
3,169
174,167
4,167
173,167
5,167
148,167
6,167
145,167
7,167
144,167
8,167
143,167
9,167
142,167
10,179
151,179
11,179
165,179
12,179
164,179
13,179
163,179
14,179
162,170
15,170
161,170
16,170
147,170
17,170
181,170
18,170
178,170
19,170
156,180
20,180
155,180
21,180
160,180
22,183
159,183
23,183
158,183
24,183
104,183
157,183
25,183
172,183
26,153
150,153
27,153
171,153
28,153
166,153
29,153
124,153
149,153
83,153
30,153
146,153
31,153
184,153
97,182
123,182
218,182
32,182
74,182
99,182
219,182
33,182
75,182
84,168
122,168
129,1
220,1
34,1
76,1
87,1
221,1
35,1
77,1
86,1
121,1
128,177
222,177
36,177
78,177
96,177
223,177
37,176
79,176
130,176
100,176
141,176
224,176
38,176
80,176
98,176
225,176
39,2
81,2
92,2
101,2
226,2
40,2
82,2
90,2
102,2
136,2
227,2
41,175
88,175
120,175
186,175
228,175
42,175
85,175
140,175
187,3
229,3
43,3
94,3
119,3
188,3
230,3
44,3
93,3
139,3
189,3
231,3
45,3
91,174
118,174
190,174
232,174
46,174
89,174
138,174
191,174
233,174
47,174
95,174
117,4
192,4
234,4
48,4
137,4
193,5
235,5
49,5
116,5
194,5
236,5
50,5
195,5
237,148
51,148
115,148
196,148
238,148
52,148
135,148
197,145
239,145
53,145
114,145
198,145
240,145
54,145
134,145
199,145
241,145
55,145
113,145
200,7
242,144
56,144
133,144
201,144
243,144
57,144
112,144
202,144
244,144
58,144
132,144
203,144
245,144
59,144
111,8
204,8
246,143
60,143
131,143
205,143
247,143
61,143
110,143
206,143
248,143
62,143
207,143
249,143
63,143
125,143
109,9
208,9
64,9
209,9
65,9
126,9
210,9
66,9
127,9
185,9
105,9
211,142
67,142
212,142
68,142
103,142
213,10
69,10
108,10
214,10
70,10
107,10
215,10
71,10
106,10
216,10
72,10
217,10
73,10
153,167
153,152
5,152
5,169
165,176
165,142
165,182
165,170
165,154
163,173
163,142
163,170
163,182
163,143
21,182
21,3
21,148
21,170
76,168
76,3
76,5
76,179
76,175
76,6
79,142
79,177
79,175
79,154
79,153
79,168
79,8
79,182
79,183
79,9
80,3
80,148
80,154
80,173
80,183
80,6
80,170
80,4
39,9
39,142
39,180
39,183
88,1
88,2
88,3
88,180
88,179
139,2
139,168
139,142
139,7
139,182
139,9
139,170
139,144
139,174
139,6
231,142
231,145
231,183
231,174
231,148
231,5
231,144
231,182
231,173
118,148
118,175
49,176
133,4
133,170
133,176
133,145
133,1
133,5
204,143
208,148
208,182
208,176
208,7
208,183
208,144
208,143
208,3
208,168
208,5
185,7
72,18
