# Number of vertices:
250
# Edge list:
174,0
49,0
175,0
217,0
50,0
176,0
218,0
51,0
177,0
219,0
52,0
178,174
220,174
53,49
179,175
221,175
54,175
180,175
222,175
55,175
181,175
223,175
56,175
182,175
224,175
57,175
183,217
225,217
58,217
184,217
226,50
59,50
185,50
227,50
60,50
186,50
228,50
61,50
187,50
229,50
62,50
188,50
230,50
63,176
189,176
231,176
64,176
190,176
232,176
65,176
191,176
233,176
66,218
192,218
234,218
67,218
193,218
235,218
68,218
194,218
236,218
69,218
195,218
237,218
70,218
196,177
238,177
71,219
197,219
239,219
72,219
198,219
131,219
240,219
73,219
199,219
241,219
5,219
74,219
200,219
242,219
75,220
201,220
243,220
3,220
76,53
202,53
244,53
77,53
203,53
132,53
6,221
245,221
78,221
204,221
246,221
4,221
79,221
205,221
247,221
80,221
206,54
248,54
81,54
207,54
249,54
82,54
208,54
83,54
209,54
2,54
1,54
84,54
210,54
85,54
211,180
86,222
212,222
87,222
213,222
88,222
214,222
89,222
215,222
90,222
216,222
7,222
91,222
133,55
8,55
92,55
134,55
9,55
93,55
135,55
10,55
94,55
136,55
11,55
95,55
137,55
12,181
96,181
138,181
13,223
97,223
139,223
14,223
98,223
140,223
15,56
99,56
141,56
16,56
100,56
142,182
17,182
101,224
143,57
18,57
102,57
144,57
19,57
103,57
145,57
20,57
104,57
146,57
21,57
105,57
147,57
22,183
106,183
148,183
23,183
107,183
149,183
24,225
108,225
150,225
25,225
109,225
151,225
26,225
110,225
152,225
27,225
111,225
153,225
28,225
112,58
154,58
29,58
113,58
155,58
30,58
114,58
156,58
31,58
115,58
157,58
32,58
116,58
158,184
33,184
117,184
159,184
34,184
118,184
160,184
35,184
119,184
161,184
36,184
120,184
162,184
37,184
121,226
163,226
38,226
122,226
164,226
39,226
123,226
165,226
40,226
124,226
166,226
41,226
125,59
167,59
42,59
126,59
168,59
43,59
127,185
169,185
173,185
44,185
128,185
170,185
45,227
129,227
171,227
46,227
130,227
172,227
47,227
48,227
194,217
194,175
194,174
236,174
236,52
236,49
236,50
236,51
236,175
236,219
236,176
236,217
196,49
196,51
196,52
196,219
196,218
196,174
196,217
196,50
196,176
196,175
131,175
131,217
131,176
131,50
131,177
131,52
240,174
240,52
240,217
240,218
240,177
240,49
199,50
199,174
199,49
199,176
241,52
241,51
241,177
241,218
241,175
241,50
241,174
241,49
75,238
75,239
75,54
205,194
205,188
205,72
205,185
205,241
205,238
205,239
205,66
80,226
248,229
248,220
248,227
248,194
248,238
248,183
248,184
133,241
133,227
133,67
133,64
133,65
133,190
133,235
10,233
138,178
138,194
138,226
138,179
138,72
138,238
99,189
99,235
99,68
99,71
21,192
21,68
21,131
21,72
21,54
23,224
28,190
28,74
28,56
28,198
28,238
28,228
28,58
29,181
29,200
29,226
29,238
29,227
115,222
115,200
115,238
115,73
115,196
115,60
115,70
162,234
162,68
162,232
162,226
162,238
162,242
162,199
37,59
37,191
37,179
37,223
37,236
37,53
37,185
37,222
37,189
122,61
122,230
122,60
122,197
122,62
122,189
122,180
122,53
122,55
122,178
126,65
129,60
129,240
129,186
129,64
129,231
129,232
129,181
129,236
129,242
129,55
