# Number of vertices:
250
# Edge list:
1,0
43,0
127,0
203,0
211,0
2,0
44,0
128,1
198,1
212,1
3,1
45,1
129,1
196,1
213,1
4,1
46,1
130,1
170,43
214,43
5,127
47,127
131,127
186,127
215,127
6,127
48,127
132,127
190,127
216,127
7,127
49,2
133,2
169,2
217,2
8,2
50,44
134,44
184,44
187,128
218,128
9,128
51,198
135,198
182,198
219,198
10,212
52,212
136,212
220,212
11,212
53,212
137,212
191,212
221,212
12,212
54,212
138,3
189,3
222,3
13,3
55,3
139,3
185,3
188,3
223,3
14,3
56,45
140,45
183,45
224,45
15,45
57,45
141,45
171,45
225,129
16,129
58,196
142,196
207,213
226,213
17,213
59,213
143,213
202,213
227,213
18,213
60,213
144,213
209,213
228,4
19,4
61,4
145,4
194,4
229,4
62,4
20,4
146,4
206,4
230,130
63,130
21,130
147,130
201,130
231,130
22,130
64,130
148,130
192,130
232,130
23,130
65,130
149,130
210,170
233,170
24,214
66,214
150,214
205,214
234,214
25,214
67,214
151,214
173,214
235,214
26,214
68,214
152,214
181,214
236,5
27,5
69,5
153,5
179,5
237,5
28,5
70,47
154,131
177,131
238,131
29,131
71,131
155,131
175,131
239,131
30,131
72,131
156,131
174,131
240,131
31,131
73,186
157,186
172,215
241,215
32,215
74,215
158,6
180,6
242,48
33,48
75,48
159,48
178,48
243,48
34,48
76,132
160,132
176,132
244,132
35,132
77,132
161,132
245,132
36,190
78,190
162,190
200,190
246,216
37,216
79,216
163,216
197,216
247,216
38,216
80,216
164,216
195,216
248,216
39,7
81,7
165,7
208,7
249,7
40,49
82,49
166,49
204,133
41,133
83,133
167,133
199,133
42,133
84,133
168,133
193,133
85,133
86,133
87,133
88,169
89,169
90,217
91,217
92,217
93,217
94,217
95,217
96,217
97,217
98,217
99,217
100,217
101,217
102,217
103,8
104,8
105,50
106,50
107,50
108,50
109,50
110,50
111,50
112,50
113,50
114,50
115,134
116,134
117,184
118,184
119,184
120,184
121,184
122,184
123,184
124,184
125,184
126,184
212,127
212,44
212,43
212,2
212,203
212,211
196,127
196,43
196,44
196,2
196,203
196,211
5,44
133,1
133,203
133,43
133,211
133,44
133,127
134,211
134,1
134,43
134,203
134,2
134,127
51,132
51,134
10,186
10,198
11,214
137,214
137,7
137,50
137,169
137,4
12,216
12,133
12,48
12,7
13,186
55,186
226,170
226,198
59,130
59,49
59,4
59,196
59,186
59,3
59,134
59,212
18,6
18,5
18,198
18,216
18,48
18,212
18,196
60,215
60,3
145,131
145,212
148,213
148,128
148,48
148,133
148,198
148,190
148,134
148,8
148,6
192,5
192,169
192,212
192,190
192,7
192,132
192,214
192,4
192,6
192,198
149,6
24,213
24,46
24,190
24,131
25,186
235,6
235,212
235,49
235,215
235,186
235,4
235,128
235,217
235,3
235,213
71,134
71,212
71,169
71,47
71,215
71,46
71,49
71,130
158,198
158,8
158,216
158,184
158,3
34,4
34,5
34,186
34,184
34,214
34,7
34,196
34,213
244,217
244,186
244,213
244,196
244,190
244,50
162,186
162,8
162,131
162,128
162,47
162,7
162,213
162,215
162,134
162,170
195,50
195,46
90,130
90,5
90,216
90,129
90,184
90,3
90,186
90,50
104,49
104,133
104,45
104,5
104,190
104,198
116,131
116,212
116,5
116,186
