# Number of vertices:
250
# Edge list:
3,0
45,0
87,0
129,0
213,0
4,3
46,3
88,3
130,3
214,45
5,45
47,45
89,45
131,45
215,45
6,45
48,45
90,45
132,87
216,87
7,87
49,87
91,87
133,129
217,129
8,129
50,129
92,129
134,129
218,129
9,129
51,213
93,213
135,213
219,213
10,213
52,213
94,4
136,4
220,4
11,4
53,4
95,4
137,4
221,4
12,4
54,4
96,4
138,46
222,46
13,46
55,46
97,46
139,46
223,46
14,46
56,88
98,88
140,88
224,88
15,88
57,88
99,88
141,88
225,88
16,88
58,130
100,130
142,130
226,130
17,130
59,130
101,5
143,5
227,5
18,5
60,5
102,5
144,5
228,5
19,5
61,47
103,47
145,47
229,47
20,47
62,47
104,47
146,47
230,47
21,47
63,47
105,47
147,47
231,89
64,89
22,89
106,89
148,89
232,89
65,89
23,89
107,89
149,89
233,131
24,131
66,131
108,131
150,215
234,215
25,215
67,6
109,6
151,6
235,48
26,48
68,48
110,48
152,48
236,48
27,48
69,48
111,48
153,48
237,48
28,48
70,90
112,90
154,90
238,90
29,90
71,132
113,132
155,132
239,132
30,132
72,132
114,132
156,132
240,132
31,132
73,216
115,216
157,216
241,216
32,216
74,216
116,216
158,216
242,216
33,7
75,7
117,7
159,7
243,7
34,49
76,49
118,49
160,49
244,91
35,91
77,91
119,91
161,91
245,91
36,91
78,91
120,133
162,133
246,133
37,133
79,217
121,217
163,217
247,217
38,217
80,217
122,8
164,8
248,8
39,8
81,8
123,8
165,8
249,8
40,8
82,8
124,8
166,50
41,50
83,50
125,50
167,50
42,50
84,92
126,134
168,134
43,134
85,134
127,134
169,134
44,218
86,218
128,218
170,9
171,9
172,9
173,9
174,9
175,9
176,9
177,9
178,9
179,9
180,9
181,9
182,9
183,9
184,51
185,51
186,51
2,51
187,51
188,51
189,93
190,93
191,93
192,93
193,93
194,93
195,93
196,93
197,135
198,135
199,135
200,135
201,135
202,135
203,135
204,219
205,219
206,10
207,10
1,10
208,10
209,10
210,10
211,10
212,10
49,129
49,45
49,213
49,3
51,45
51,3
51,87
51,129
10,3
10,129
94,49
136,216
137,89
137,48
137,51
137,219
137,91
137,9
12,217
223,90
223,4
223,218
223,135
223,5
223,91
223,48
223,216
223,52
14,8
14,10
14,49
14,133
142,10
142,131
142,89
142,7
142,133
142,91
142,132
142,49
142,214
17,9
17,132
17,4
17,50
17,216
17,88
17,5
17,48
17,92
230,4
230,92
230,9
230,134
230,218
230,132
231,88
231,52
68,132
68,135
68,6
154,215
154,88
154,10
154,46
154,131
154,217
154,8
154,218
154,91
154,47
75,50
75,6
75,218
75,133
75,134
246,4
246,135
246,88
246,91
246,130
246,46
163,6
80,92
249,130
249,6
249,9
249,90
249,133
249,48
249,52
249,91
170,218
170,135
170,91
170,130
170,8
176,218
177,217
177,46
177,219
177,214
177,89
177,7
177,215
2,89
2,88
2,214
2,133
2,219
2,93
2,6
2,218
189,52
189,90
189,49
193,48
193,8
193,92
193,218
193,90
193,51
193,47
202,4
202,133
202,218
202,217
202,219
202,91
202,49
206,92
206,46
206,133
206,51
206,217
