# Number of vertices:
250
# Edge list:
241,0
161,0
201,0
236,0
2,0
165,0
229,0
244,241
167,241
227,161
242,161
163,201
200,201
237,201
170,236
226,236
181,236
231,236
166,236
199,236
178,236
228,236
188,2
230,2
189,2
198,229
158,229
218,229
180,229
217,229
159,229
197,229
246,229
154,229
216,229
249,244
169,244
215,244
243,244
174,244
196,244
238,244
173,244
204,244
157,244
207,244
239,244
177,244
195,244
153,167
205,167
248,167
160,167
203,167
240,167
176,167
194,167
171,227
208,227
247,227
48,227
183,227
206,242
175,242
193,242
55,242
190,242
61,242
209,242
184,242
59,242
210,242
172,163
192,200
51,200
245,200
152,237
50,237
223,237
187,237
233,237
49,237
221,237
164,170
60,170
220,226
179,226
234,226
7,226
65,226
225,226
185,226
235,226
8,226
53,226
224,226
156,226
52,181
222,181
11,181
162,181
58,181
202,181
4,181
151,181
57,181
168,181
213,231
9,231
12,231
56,166
3,166
155,166
214,166
5,166
64,166
186,166
212,166
63,166
182,199
211,199
62,199
219,199
54,199
10,199
232,199
6,199
191,178
66,228
142,228
13,228
132,228
150,228
14,188
83,188
82,188
135,188
149,188
15,188
93,188
131,188
148,188
16,188
92,188
134,188
147,230
17,230
96,230
129,230
146,230
18,230
112,230
139,230
81,230
19,230
138,189
95,189
128,189
141,189
20,189
111,189
94,189
144,189
21,198
80,198
127,198
143,198
22,198
87,198
133,198
23,198
86,198
130,198
140,198
24,198
109,158
145,158
25,158
84,158
126,158
26,158
108,158
27,158
79,158
1,158
70,158
125,158
28,158
78,218
110,180
77,180
29,180
85,180
124,180
30,180
76,180
31,180
98,180
32,180
123,217
71,217
105,217
75,217
33,217
91,217
34,217
122,217
90,217
35,217
89,217
97,217
36,217
121,217
69,197
37,197
38,197
74,197
120,197
73,197
101,197
39,246
67,154
100,154
40,154
119,216
68,216
99,216
41,216
72,216
88,216
42,216
118,216
43,216
103,216
44,216
117,216
107,249
45,169
102,169
46,169
116,215
47,215
137,215
106,215
115,215
136,215
114,215
104,215
113,215
231,241
231,165
231,161
231,201
231,2
231,229
154,201
154,161
154,2
154,236
154,165
154,241
249,158
249,218
249,163
249,170
249,231
249,242
249,200
243,200
243,154
243,170
243,163
243,237
243,227
243,159
243,228
243,166
243,198
248,178
248,189
248,228
248,200
248,170
248,237
248,163
248,158
248,230
248,188
152,226
152,163
152,242
152,158
152,180
152,230
152,181
179,246
179,227
179,181
179,154
179,230
5,197
62,178
62,242
62,237
62,226
62,180
62,228
135,163
135,154
135,231
135,181
135,218
135,158
135,170
93,244
93,230
93,178
94,170
94,198
94,197
94,246
94,199
94,244
94,166
98,228
98,188
98,217
98,242
123,244
123,163
75,181
75,228
75,231
75,170
75,198
121,189
121,216
121,237
121,170
121,163
121,200
121,244
101,200
101,167
101,228
101,237
101,181
101,166
101,217
101,154
101,227
44,158
44,166
44,181
44,170
44,244
106,148
