# Number of vertices:
250
# Edge list:
87,0
88,0
164,0
171,0
183,0
89,0
163,0
180,0
90,0
162,0
35,0
177,0
36,0
91,0
161,0
172,0
92,0
170,0
34,0
160,0
173,0
3,0
93,0
156,0
181,87
94,87
33,87
184,164
95,164
159,164
182,164
96,164
167,164
32,164
154,164
178,164
10,164
175,171
169,171
31,171
174,171
165,171
179,171
158,171
30,171
6,171
168,171
212,171
155,183
211,183
29,183
28,89
157,89
210,89
214,89
27,89
166,89
209,89
208,163
9,163
207,180
26,180
206,90
5,90
205,90
25,90
204,90
203,90
24,90
2,90
176,90
202,90
23,90
201,90
22,90
8,162
185,162
21,162
1,162
104,162
200,162
103,162
199,162
20,162
19,162
109,162
198,35
18,35
108,177
197,177
17,177
99,177
196,177
98,177
195,177
4,177
106,177
194,177
16,177
105,36
193,36
112,36
192,36
15,36
110,36
191,91
111,91
190,91
14,91
97,91
102,91
189,91
13,91
101,91
188,161
12,161
100,161
187,161
11,161
7,161
107,161
186,172
150,172
223,172
46,172
153,172
47,172
149,172
242,172
48,172
126,172
147,172
241,172
49,172
125,172
213,92
50,92
146,170
240,170
51,170
243,170
52,170
127,170
145,34
222,34
53,34
130,34
54,34
229,34
144,34
55,34
121,34
226,34
56,34
152,34
57,34
148,34
227,173
58,173
151,173
248,173
59,173
129,173
244,173
60,173
143,173
61,173
124,3
239,3
62,3
238,3
142,3
63,3
123,3
237,3
64,3
236,3
141,3
65,3
122,3
235,93
66,93
225,93
140,93
246,93
67,93
115,93
68,93
69,93
139,93
247,93
70,156
245,156
71,156
138,156
72,156
224,156
128,156
217,156
73,181
137,181
230,181
74,94
233,94
75,94
136,94
232,94
116,94
76,94
231,94
113,94
77,94
135,94
228,94
114,33
78,33
234,33
249,33
37,33
79,33
134,33
119,33
221,184
38,184
80,184
118,184
215,184
39,184
81,184
133,184
220,184
40,184
82,95
120,95
86,95
41,95
83,159
132,159
219,159
42,159
84,159
117,159
216,159
43,159
85,159
131,159
218,182
44,182
45,182
158,180
158,164
158,172
158,161
158,177
158,162
158,160
158,36
168,160
212,161
212,36
212,163
212,90
212,180
212,34
212,93
27,87
27,35
27,160
27,91
27,170
27,164
27,172
27,90
27,162
209,91
209,88
209,173
209,87
209,172
209,164
209,156
209,93
209,34
209,92
26,162
26,177
26,183
26,87
26,172
26,171
26,34
26,160
26,163
206,3
206,177
206,89
206,161
206,35
206,87
206,164
206,34
206,160
103,156
103,172
103,177
106,90
106,161
106,3
106,35
192,160
192,162
191,180
223,183
223,177
223,173
223,35
223,156
223,3
223,91
223,92
50,3
50,172
50,171
50,87
50,160
51,90
51,91
51,163
127,88
56,160
56,164
56,170
56,36
56,177
56,87
56,162
56,183
123,91
123,173
123,160
123,162
123,89
123,163
123,171
225,3
225,90
225,177
115,170
115,89
115,164
115,88
115,90
115,161
115,171
115,36
138,90
138,35
138,3
138,88
138,91
138,180
138,164
138,161
233,21
233,155
233,145
233,124
233,239
232,149
232,8
232,111
232,104
228,27
228,209
228,52
228,58
228,185
228,165
228,197
228,217
