# Number of vertices:
300
# Edge list:
64,0
148,0
232,0
65,0
149,0
233,0
66,64
150,64
234,64
67,64
151,64
235,148
68,232
152,232
236,232
69,232
153,232
237,232
70,232
154,232
238,232
71,232
155,232
239,65
147,65
72,65
156,65
240,65
73,65
157,149
241,149
74,149
158,149
242,149
75,149
159,149
243,149
76,149
160,149
244,233
77,233
161,233
245,233
78,233
162,233
246,233
79,150
163,150
247,150
80,150
164,234
248,234
81,234
165,234
249,234
82,234
166,234
250,234
83,234
167,234
251,234
84,234
168,234
252,234
1,234
85,67
169,67
253,67
2,67
86,67
170,67
254,67
3,67
87,67
171,67
255,67
4,67
88,151
172,151
256,151
5,151
89,151
173,151
257,151
6,151
90,151
174,151
231,151
258,235
7,235
91,235
175,235
259,235
8,235
92,152
176,152
260,236
9,236
93,236
177,236
261,69
10,69
94,153
178,153
262,153
11,153
95,237
179,237
263,237
12,237
96,237
180,237
264,237
13,237
97,237
181,237
265,70
14,70
98,70
182,70
266,70
15,70
99,70
183,154
267,154
16,154
100,154
184,154
268,154
17,154
101,154
185,154
269,238
18,238
102,238
186,238
270,238
19,238
103,238
187,238
271,238
20,238
104,238
188,238
272,238
21,238
105,238
189,71
273,71
22,71
106,71
190,71
274,71
23,155
107,155
191,155
275,155
24,155
108,155
192,155
276,155
25,155
109,155
193,239
277,239
26,239
110,239
194,239
278,239
27,239
111,239
195,147
279,147
28,147
112,147
196,147
280,147
29,147
113,147
197,147
281,147
30,147
114,147
198,147
282,147
31,147
115,147
199,72
283,72
32,72
116,72
200,72
284,72
33,72
117,156
201,156
285,156
34,156
118,156
202,240
286,240
35,240
119,240
203,240
287,240
36,240
120,240
204,240
288,240
37,240
121,240
205,240
289,240
38,240
122,240
206,73
290,73
39,73
123,73
207,73
291,73
40,73
124,73
208,73
292,73
41,73
125,73
209,157
293,157
42,157
126,157
210,157
294,157
43,157
127,157
211,157
295,157
44,157
128,157
212,157
296,157
45,241
129,74
213,74
297,74
46,74
130,74
214,74
298,74
47,74
131,74
215,74
299,74
48,74
132,74
216,74
49,74
133,158
217,158
50,158
134,158
218,158
51,242
135,242
219,242
52,75
136,75
220,75
53,75
137,75
221,75
54,75
138,75
222,75
55,75
139,159
223,159
56,159
140,159
224,159
57,159
141,159
225,159
58,159
142,243
226,243
59,243
143,243
227,243
60,243
144,243
228,243
61,243
145,76
229,76
62,76
146,76
230,76
63,76
234,148
157,65
157,64
157,233
157,232
157,148
250,147
250,235
250,156
169,154
169,243
4,237
4,245
173,245
260,237
260,151
260,76
260,147
260,74
260,77
260,158
260,234
260,240
179,241
183,155
183,66
183,69
183,77
183,244
183,239
16,71
16,77
16,150
16,243
268,156
103,242
103,77
103,69
103,239
103,234
103,147
103,162
103,150
24,238
24,158
24,243
24,245
24,71
24,236
24,68
24,156
24,150
24,235
24,154
24,72
24,151
109,160
109,72
109,156
109,237
109,74
109,157
109,158
109,241
109,159
109,242
109,69
109,244
109,73
194,162
194,237
194,245
29,68
29,75
29,235
29,70
29,152
29,234
198,240
198,242
198,241
198,243
198,156
198,244
198,162
35,76
35,244
35,236
35,72
287,160
287,242
287,155
287,66
287,70
287,241
287,236
287,69
287,71
287,68
287,234
287,159
39,239
39,72
39,160
39,242
39,77
39,74
39,245
39,158
39,241
39,76
39,71
210,238
210,161
210,159
210,160
210,236
296,159
131,235
131,242
131,162
131,246
131,151
131,155
131,236
53,244
53,78
53,71
53,152
138,157
138,154
138,155
138,239
138,69
138,237
138,66
138,161
138,236
57,69
57,160
57,239
57,241
57,155
57,237
57,77
57,156
57,245
57,162
141,237
225,236
225,71
225,76
59,159
59,237
59,152
59,68
59,78
59,66
59,70
59,239
59,246
59,69
60,236
