# Number of vertices:
300
# Edge list:
23,0
149,0
191,0
275,0
34,0
150,0
192,0
276,0
26,0
274,0
151,0
193,0
277,0
33,0
152,0
194,0
278,0
27,0
153,0
195,0
279,0
32,0
154,0
196,0
280,0
31,0
155,0
197,0
281,0
29,0
156,0
198,0
282,0
25,0
157,0
199,0
283,0
28,0
158,0
200,0
284,0
24,0
159,0
201,0
285,0
22,0
160,0
202,0
286,0
30,0
161,0
203,0
287,0
162,0
204,0
288,0
163,23
205,23
289,23
21,23
6,23
164,23
206,23
290,23
165,23
207,23
291,23
20,23
1,23
166,23
208,149
292,149
167,149
209,191
293,191
19,191
168,275
210,275
294,275
169,275
211,275
295,275
18,275
170,275
212,275
296,275
108,275
107,34
171,34
213,34
17,34
297,34
172,192
214,192
298,192
109,192
173,192
215,192
16,192
117,192
299,192
174,192
216,276
105,276
175,276
217,276
15,276
114,26
176,26
218,26
113,26
177,26
219,26
14,26
5,26
178,26
220,26
179,26
221,26
13,26
115,26
111,26
180,26
222,274
4,274
103,274
181,274
12,274
116,274
223,274
3,274
182,274
224,193
102,193
183,193
225,193
11,193
100,193
184,193
226,193
110,193
7,193
106,193
185,193
10,193
227,193
104,193
186,277
228,277
118,277
187,277
229,277
9,277
112,277
101,277
188,277
230,277
99,33
189,152
231,152
8,152
2,152
190,278
232,278
48,278
233,278
98,278
47,278
234,278
46,278
235,27
45,27
236,27
237,27
44,27
50,27
238,27
74,27
71,153
239,195
54,195
240,195
73,195
241,195
70,195
119,195
242,195
53,195
120,195
243,195
244,195
76,195
69,195
245,195
52,195
93,279
246,279
72,279
121,279
247,279
68,279
122,279
248,279
51,279
85,279
123,279
79,279
249,32
124,32
250,32
75,32
67,32
83,32
125,32
81,32
251,32
126,32
252,32
94,32
64,32
127,32
253,32
147,32
66,32
92,196
128,196
91,196
254,196
49,196
90,196
129,196
255,196
65,196
89,196
130,196
88,196
96,196
256,196
131,280
257,280
42,280
97,280
132,280
258,280
41,280
82,280
148,280
133,280
259,280
43,280
87,280
63,280
77,31
134,31
80,31
260,31
86,31
135,31
261,31
62,31
84,31
78,31
136,31
262,31
95,31
39,31
137,31
263,31
55,155
38,155
138,155
264,155
139,155
265,155
59,197
140,197
266,197
40,197
141,281
267,281
57,281
142,281
268,281
56,281
143,281
269,281
61,281
144,281
270,281
60,281
145,281
271,281
58,281
146,29
272,29
273,29
35,29
37,29
36,29
206,195
206,201
206,32
206,202
206,287
206,198
206,22
206,280
206,279
206,162
206,282
206,203
294,285
294,155
294,280
294,29
294,193
294,22
294,202
294,277
294,197
294,33
17,158
17,31
17,200
17,274
17,279
17,160
17,152
17,277
17,198
17,288
17,204
297,283
297,204
297,196
297,282
297,192
297,201
299,278
299,25
299,152
299,154
299,285
299,274
299,151
299,204
299,275
299,31
299,191
299,26
176,285
218,152
218,159
218,197
218,288
218,158
218,280
218,151
218,23
218,149
218,284
4,33
4,26
239,198
239,281
239,150
239,196
239,280
52,202
52,280
52,159
52,25
52,288
52,274
52,155
52,197
52,28
52,196
52,278
68,23
81,287
81,282
88,156
88,152
88,283
257,196
257,202
42,149
86,149
135,33
135,277
135,193
84,288
84,203
84,195
84,156
84,278
84,150
84,194
84,193
84,149
262,274
262,26
262,154
262,151
262,153
262,204
262,25
262,281
55,284
264,284
264,157
57,198
57,283
57,34
57,33
57,275
57,274
58,200
58,158
58,155
58,282
58,286
58,152
58,285
