# Number of vertices:
300
# Edge list:
58,0
100,0
142,0
59,0
101,0
143,0
60,0
102,0
144,0
61,0
103,0
145,0
62,0
104,0
146,0
63,0
105,0
147,0
64,0
106,0
148,0
65,0
107,0
149,58
66,58
108,58
150,58
67,58
109,58
151,58
68,100
110,100
152,100
69,100
111,100
153,100
70,100
112,100
154,100
71,100
113,100
155,100
72,100
114,100
156,100
73,100
115,142
157,142
74,142
116,142
158,142
75,142
117,142
159,59
76,59
118,101
160,101
77,101
119,101
161,101
78,101
120,101
162,101
79,143
121,143
163,143
80,143
122,143
164,143
81,143
123,143
165,143
82,143
124,143
166,143
83,143
125,60
167,60
84,60
126,60
168,60
1,60
85,60
127,60
169,60
2,60
86,60
128,60
170,60
3,60
87,60
129,60
171,102
4,102
88,102
130,144
172,61
5,61
89,61
131,61
173,61
6,61
90,61
132,61
174,61
7,61
91,61
133,61
175,103
8,103
92,103
134,103
176,103
9,145
93,145
135,145
177,145
10,145
94,145
136,145
178,145
11,145
95,145
137,145
179,145
12,145
96,145
138,62
180,62
13,62
97,62
139,104
181,104
14,104
98,104
140,104
182,104
15,104
99,104
141,104
183,104
16,104
184,104
226,104
268,104
17,104
185,146
227,146
269,146
18,146
186,146
228,146
270,146
19,146
187,146
229,146
271,146
20,146
188,146
230,146
272,146
21,63
189,63
231,63
273,63
22,63
190,105
232,105
274,105
23,105
191,105
233,105
275,105
24,105
192,105
234,105
276,147
25,147
193,147
235,147
277,147
26,147
194,147
236,147
278,147
27,147
195,147
237,147
279,147
28,64
196,64
238,64
280,64
29,64
197,64
239,64
281,64
30,64
198,64
240,106
282,106
31,106
199,148
241,148
283,148
32,65
200,65
242,65
284,65
33,65
201,65
243,65
285,65
34,65
202,65
225,65
244,65
286,107
35,107
203,107
245,149
287,149
36,149
204,149
246,149
288,66
37,66
205,108
247,108
289,108
38,108
206,108
248,108
290,108
39,108
207,108
249,108
291,150
40,150
208,67
250,67
292,67
41,109
209,109
251,109
293,109
42,109
210,109
252,109
294,109
43,109
211,109
253,109
295,109
44,109
212,109
254,109
296,109
45,151
213,151
255,151
267,151
297,151
46,151
214,151
256,151
298,151
47,151
215,151
257,68
299,68
48,68
216,68
258,68
49,68
217,68
259,68
50,68
218,68
260,68
51,68
219,68
261,68
52,68
220,68
262,68
53,110
221,110
263,110
54,110
222,110
264,110
55,110
223,110
265,110
56,110
224,110
266,110
57,110
67,104
67,143
67,144
67,61
67,147
67,63
67,107
67,106
151,65
78,65
78,144
78,102
78,100
78,58
162,64
162,142
162,147
162,59
162,144
162,60
167,146
167,147
167,61
167,144
167,104
167,106
167,102
167,101
167,142
167,145
167,107
167,100
167,58
169,64
169,104
169,63
169,146
169,147
169,106
169,100
169,65
169,143
169,103
172,59
89,59
89,64
89,106
89,144
89,147
89,107
89,65
89,100
89,105
89,63
89,103
89,102
89,143
131,102
131,101
131,142
131,104
131,105
131,144
131,106
92,106
92,105
92,65
92,145
92,107
92,143
10,63
10,106
10,142
10,101
10,146
10,60
10,59
10,104
10,107
10,103
10,62
10,58
270,142
270,102
270,64
270,144
270,59
270,100
270,65
270,143
270,60
270,145
20,58
20,59
20,101
20,60
20,63
20,142
20,105
188,147
188,100
188,63
188,61
272,62
272,106
231,106
231,145
231,61
231,143
231,144
231,60
231,107
231,147
231,105
231,58
231,100
231,146
237,148
237,103
237,65
237,143
237,58
237,59
279,148
196,60
196,65
196,143
196,100
196,106
196,102
196,145
196,144
196,63
196,59
196,142
29,100
201,106
35,147
35,104
35,64
288,273
288,20
288,141
288,119
289,191
289,178
38,3
38,162
38,29
206,183
206,231
206,124
206,168
206,69
206,22
206,120
209,178
209,121
209,73
209,153
209,108
209,227
209,13
251,80
251,11
251,277
251,130
251,173
251,29
251,270
251,93
251,189
251,19
294,74
294,275
294,17
294,152
294,85
294,228
294,24
294,81
294,80
294,34
294,268
294,185
255,9
255,171
255,68
255,226
255,165
255,184
216,275
216,191
216,163
216,114
216,4
216,73
216,75
216,121
216,90
221,21
221,66
221,18
221,155
221,282
264,112
264,160
