# Number of vertices:
300
# Edge list:
99,0
142,0
184,0
226,0
143,0
185,0
227,0
144,0
186,0
228,0
145,0
187,0
229,0
146,0
188,0
230,0
147,0
189,0
231,0
148,0
190,0
232,0
149,99
191,99
233,99
141,99
150,99
192,99
234,99
151,99
193,99
235,99
152,99
194,99
236,99
153,99
195,99
237,99
154,142
196,142
238,142
155,142
197,142
239,142
156,142
198,142
240,142
157,184
199,184
241,184
158,184
200,184
242,184
159,184
201,184
243,184
160,184
202,184
244,184
161,184
203,143
245,143
162,143
204,143
246,185
163,185
205,185
247,185
164,185
206,227
248,227
165,144
207,144
249,144
166,144
208,144
250,144
167,186
209,186
251,186
168,186
210,186
252,186
169,186
211,228
253,145
170,187
212,187
254,187
171,187
213,187
255,187
172,229
214,146
256,146
173,146
215,146
257,146
174,146
216,146
258,146
175,146
217,146
259,146
176,188
218,188
260,188
177,188
219,188
261,188
178,188
220,230
262,230
179,230
221,230
263,230
180,230
222,230
264,230
181,230
223,230
265,230
182,230
224,230
266,230
183,230
225,230
267,147
16,147
58,147
100,189
268,189
17,189
59,189
101,189
269,189
18,189
60,189
102,189
270,189
19,189
61,189
103,189
271,189
20,189
62,189
104,189
272,231
21,231
63,231
105,231
273,231
22,231
64,231
106,231
274,231
23,231
65,231
107,231
275,231
24,231
66,231
108,231
276,231
25,148
67,148
109,148
277,190
26,190
68,190
110,190
278,190
27,190
69,190
111,190
279,190
28,190
70,190
112,190
280,190
29,190
71,190
113,190
281,190
30,232
72,232
114,232
282,232
31,232
73,232
115,232
283,232
32,232
74,232
116,232
284,232
33,232
75,232
117,191
285,191
34,233
76,233
118,233
286,233
35,233
77,233
119,233
287,233
36,233
78,233
120,233
288,141
37,141
15,141
79,141
121,141
289,141
38,141
80,141
122,141
290,141
39,141
81,141
123,141
291,141
40,192
82,192
124,192
292,192
41,192
83,192
125,192
293,192
42,192
84,192
126,192
1,192
294,192
43,192
85,234
127,151
295,151
2,151
44,151
86,151
128,151
296,151
3,151
45,151
87,193
129,193
297,193
4,193
46,193
88,193
130,193
298,193
5,193
47,193
89,235
131,235
299,235
6,235
48,152
90,194
132,194
7,194
49,194
91,194
133,236
8,236
50,236
92,236
134,236
9,236
51,236
93,236
135,153
10,153
52,153
94,153
136,153
11,153
53,153
95,153
137,195
12,195
54,195
96,195
138,195
13,195
55,195
97,195
139,195
14,195
56,195
98,195
140,195
57,237
200,146
200,190
200,187
200,232
200,189
200,230
245,147
251,230
251,143
251,187
251,146
170,148
170,228
170,230
170,190
170,231
170,227
170,147
170,232
170,184
170,189
170,142
218,99
218,190
218,145
218,227
218,144
219,187
219,184
219,144
261,185
261,186
261,232
261,231
261,189
261,228
261,229
261,142
261,148
261,227
261,143
261,144
61,147
61,232
61,229
61,190
61,227
61,228
61,188
61,145
61,187
272,144
272,232
272,185
272,190
272,186
272,189
272,99
272,146
272,148
272,187
272,142
272,188
64,189
64,143
64,232
64,145
64,227
64,147
64,226
64,188
64,228
24,144
277,189
277,99
277,187
277,185
26,144
26,188
26,186
68,189
68,185
68,146
68,232
68,188
68,143
68,148
68,147
68,187
282,226
282,228
282,230
284,189
284,190
284,144
284,142
284,228
284,231
284,227
284,148
284,184
284,226
34,253
34,155
34,242
34,152
34,157
34,68
34,21
34,179
34,258
286,32
286,240
286,180
286,24
286,167
286,61
77,30
77,197
77,266
77,152
77,242
77,156
77,69
77,200
77,245
77,252
80,220
80,182
80,165
80,283
80,260
80,279
80,18
80,173
294,273
294,170
294,19
294,69
294,195
294,68
294,212
294,214
294,28
294,258
296,281
296,211
296,174
296,264
296,212
5,223
5,216
5,274
5,195
5,64
89,204
89,156
89,222
89,149
90,107
90,265
90,74
90,282
90,60
91,62
91,171
91,234
91,71
134,196
134,281
134,27
134,219
134,225
134,205
51,195
51,269
51,254
51,263
51,237
51,114
51,253
51,219
51,100
51,59
51,23
51,72
52,59
52,181
52,237
52,154
52,171
52,246
