# Number of vertices:
300
# Edge list:
55,0
139,0
181,0
223,0
265,0
56,55
140,181
182,181
224,181
266,181
57,181
141,181
183,181
225,181
267,181
58,181
142,181
184,181
226,223
268,223
59,223
143,223
185,223
227,223
269,223
60,223
144,223
186,223
228,223
270,223
61,223
145,223
187,223
229,223
271,223
62,265
146,265
188,265
230,265
272,265
63,265
147,265
189,265
231,56
273,56
64,56
148,56
190,56
232,56
274,56
65,56
149,56
191,56
233,140
275,140
66,140
150,140
192,140
234,140
276,140
67,140
151,140
193,140
235,140
277,140
68,140
152,140
194,140
236,140
278,140
69,182
153,182
195,182
237,182
279,182
70,182
154,182
196,182
238,182
280,182
71,182
155,182
197,182
239,182
281,182
72,182
156,182
198,224
240,224
282,224
73,224
157,224
199,224
241,224
283,224
74,224
158,224
200,224
242,224
284,224
75,224
159,266
201,266
243,266
285,57
76,57
160,57
202,57
244,57
286,57
77,57
161,57
203,57
245,57
287,57
78,57
162,57
204,141
246,141
288,141
79,141
163,141
205,141
247,141
289,183
80,183
164,183
206,183
248,225
290,225
81,225
165,225
207,225
249,267
291,267
82,267
166,267
208,267
250,267
292,267
83,267
167,267
209,267
251,267
293,267
84,58
168,58
210,58
1,58
252,142
294,142
85,142
169,142
211,142
253,142
295,142
2,142
86,142
170,142
212,142
254,142
296,142
3,184
87,184
171,184
213,184
255,184
297,226
4,226
88,226
172,226
214,268
256,268
298,59
5,59
89,59
173,59
215,59
257,59
299,59
6,59
90,59
174,59
216,59
258,59
7,59
91,59
175,143
217,143
259,185
8,185
92,185
176,185
218,185
260,185
9,185
93,185
177,185
219,185
261,185
10,185
94,227
137,227
178,227
220,227
262,227
11,227
95,227
179,227
221,227
263,269
12,269
96,269
180,269
222,269
264,60
13,60
97,60
14,144
98,144
138,144
15,144
99,144
16,228
100,228
17,270
101,270
18,270
102,270
19,270
103,270
20,270
104,270
21,270
105,270
22,145
106,145
23,145
107,145
24,145
108,145
25,145
109,145
26,145
110,145
27,145
111,145
28,145
112,145
29,145
113,145
30,145
114,187
31,187
115,187
32,187
116,187
33,187
117,187
34,187
118,229
35,229
119,271
36,271
120,271
37,271
121,271
38,271
122,271
39,271
123,271
40,271
124,271
41,146
125,146
42,146
126,146
43,146
127,146
44,146
128,146
45,146
129,146
46,146
130,188
47,188
131,188
48,188
132,188
49,230
133,230
50,230
134,230
51,230
135,230
52,272
136,272
53,272
54,272
57,55
57,223
57,265
57,139
269,55
228,181
228,55
228,139
228,265
275,183
275,189
275,229
275,227
275,228
275,61
275,58
275,225
234,189
234,63
234,182
234,224
234,228
234,187
234,186
234,143
234,188
234,268
234,227
234,145
277,182
277,188
277,147
277,226
277,266
277,267
277,145
239,144
239,141
239,186
239,227
239,269
239,143
239,146
239,56
239,230
284,228
284,186
284,184
284,144
284,57
284,63
284,226
284,140
284,60
284,145
243,224
243,230
243,272
243,146
285,187
285,59
285,143
285,183
285,267
285,146
285,142
285,227
285,186
285,58
285,270
285,147
285,56
162,146
162,266
162,228
162,143
162,267
162,271
162,230
162,56
162,147
206,60
206,140
206,267
206,61
206,227
206,272
206,147
206,185
206,270
206,230
206,182
206,266
206,57
248,61
248,142
248,184
248,229
248,59
248,186
207,144
207,270
207,226
207,146
207,185
207,272
207,61
207,143
207,189
207,58
207,271
166,187
166,272
166,59
208,268
208,60
208,57
208,58
208,143
208,140
208,271
210,182
210,189
210,228
210,227
85,141
172,227
172,189
172,147
172,224
172,184
172,143
172,60
172,59
172,272
172,268
172,56
172,62
172,58
256,60
256,61
256,230
256,226
256,141
256,227
256,143
256,185
256,269
256,272
256,182
256,224
256,184
5,183
5,227
5,226
5,187
5,62
5,269
5,147
5,230
5,225
5,229
89,184
89,63
89,225
89,188
89,182
89,229
89,145
257,184
257,62
257,147
257,63
257,270
257,58
257,228
257,145
91,141
13,229
28,226
28,142
28,267
28,227
28,63
28,183
28,57
28,185
28,271
28,59
28,144
28,228
28,56
113,59
113,186
113,182
113,61
113,147
113,270
113,146
113,141
113,144
113,60
113,56
115,140
123,267
123,183
123,57
123,266
123,142
123,227
123,60
123,269
123,184
44,271
44,188
44,143
45,271
45,58
45,227
45,266
45,183
45,184
45,230
45,145
45,268
45,272
132,63
132,146
132,266
132,145
132,59
132,144
132,230
132,228
132,272
132,226
132,185
54,182
54,146
54,226
54,60
54,63
54,186
54,266
54,145
54,144
54,143
