# Number of vertices:
300
# Edge list:
231,0
65,0
232,0
66,0
233,0
67,0
21,0
234,0
68,0
235,0
69,0
236,0
70,0
237,0
71,0
238,0
72,0
22,0
239,0
73,0
240,0
74,0
241,0
75,0
242,0
76,0
243,0
77,0
244,0
78,0
245,0
79,0
246,0
80,0
247,0
81,0
248,0
82,0
249,0
83,0
250,0
84,0
230,0
251,0
85,0
252,0
86,0
253,0
87,0
254,0
88,0
255,0
89,231
256,231
90,231
257,231
91,231
258,231
92,231
259,231
93,231
260,65
94,65
261,232
95,232
262,232
96,232
147,232
263,232
97,232
264,232
98,232
265,232
99,232
266,232
100,232
267,66
101,66
268,66
102,66
269,66
103,66
270,66
104,66
271,66
105,66
272,66
106,233
148,233
273,233
23,233
107,233
187,233
191,233
194,233
274,233
24,233
108,233
153,233
275,233
25,67
109,67
198,67
152,234
221,234
276,234
26,234
110,234
193,234
151,234
190,234
277,68
27,68
111,68
150,235
278,235
28,235
112,235
197,235
155,69
215,69
279,69
29,69
113,69
192,69
154,69
189,69
280,69
30,69
114,69
159,69
281,69
31,69
115,69
158,69
196,236
282,236
32,236
116,236
186,236
195,236
283,236
33,70
117,237
157,237
284,237
34,237
118,71
182,238
206,238
285,238
35,238
119,238
179,238
205,238
286,238
36,238
120,72
177,72
202,72
228,72
287,72
37,72
121,72
175,72
199,72
288,72
38,72
122,72
185,72
204,72
289,72
39,22
123,22
183,22
203,22
290,239
40,239
124,239
180,239
201,239
291,239
41,239
125,239
178,239
200,239
292,239
42,239
126,239
176,239
1,239
213,239
293,239
43,73
127,73
229,73
156,73
294,73
2,73
44,73
128,73
184,73
208,73
295,73
3,73
45,73
129,73
181,73
220,240
296,240
4,240
46,240
130,74
171,241
218,241
297,241
5,241
47,241
131,241
170,241
226,241
298,241
6,241
48,241
132,241
169,75
212,75
299,75
7,75
49,75
133,75
174,75
211,75
8,75
50,75
134,75
173,75
214,242
9,242
51,242
135,242
172,242
10,242
52,242
136,242
163,242
217,242
11,242
53,242
137,242
161,242
225,242
12,242
54,242
138,76
168,76
227,76
13,76
55,76
139,76
166,76
207,76
14,76
56,76
140,76
165,76
219,76
15,76
57,76
141,76
164,243
209,243
16,243
58,243
142,243
162,243
210,243
17,243
59,243
143,243
160,243
216,245
18,245
60,245
144,245
167,245
224,245
19,245
61,245
145,245
149,245
188,245
223,245
20,245
62,245
146,79
222,79
63,79
64,79
260,248
147,74
147,78
147,81
147,69
147,83
147,73
147,241
147,255
147,68
28,83
28,22
28,87
192,80
192,81
192,248
192,85
192,84
192,79
192,246
192,70
192,237
192,82
192,244
154,68
154,21
154,72
154,85
154,74
154,70
154,245
154,86
154,254
154,232
154,73
31,249
31,85
31,67
31,68
31,73
31,78
31,236
115,246
115,81
286,255
286,251
286,248
286,73
286,69
286,230
286,81
286,239
286,76
286,241
42,255
42,82
42,65
42,246
42,234
42,84
42,230
42,69
42,235
42,237
3,244
3,88
3,233
3,67
3,248
3,70
3,234
3,72
3,252
3,236
3,253
3,80
3,251
298,74
169,86
169,70
169,255
169,250
169,243
169,74
169,68
169,87
134,238
10,72
10,82
10,240
10,252
10,71
10,247
10,236
10,88
137,250
137,84
137,239
137,70
137,249
137,243
137,21
137,246
137,236
54,245
54,241
54,79
54,230
54,87
54,252
54,84
54,246
54,243
54,231
166,86
166,240
166,233
166,230
207,249
224,84
224,238
224,22
224,248
224,76
224,231
224,86
