# Number of vertices:
300
# Edge list:
191,0
233,0
298,0
46,0
192,0
234,0
67,0
193,0
235,191
43,191
194,191
236,191
51,191
195,191
237,191
290,233
299,233
35,233
196,233
238,233
42,233
197,298
239,298
293,298
61,298
198,298
240,298
44,298
199,298
241,298
6,298
286,298
40,298
200,298
242,298
285,298
49,298
201,298
243,46
289,46
37,46
202,46
244,46
288,46
31,46
203,46
245,46
287,46
60,46
204,46
246,46
65,192
205,192
247,192
64,192
206,234
248,234
66,234
207,234
249,234
291,234
59,234
208,234
250,234
295,234
53,234
209,67
251,67
296,67
33,67
210,67
252,67
297,67
34,67
211,67
253,67
275,67
55,67
212,193
254,193
283,193
32,193
213,193
255,193
281,235
39,43
214,194
256,194
279,194
30,194
215,194
257,194
277,194
52,194
216,194
258,194
68,194
276,194
217,194
259,194
284,194
54,194
218,236
260,236
282,236
50,236
219,236
261,236
280,236
47,236
220,236
262,236
278,236
57,236
221,236
263,236
69,236
222,236
264,51
58,51
223,51
265,51
294,51
41,51
224,51
266,51
36,51
225,51
267,195
45,195
226,195
268,195
29,195
227,195
269,195
48,195
228,237
270,290
63,290
229,290
271,290
292,290
62,290
230,290
272,290
56,290
231,290
273,290
38,290
232,299
274,299
8,299
90,299
149,299
28,299
89,299
150,196
27,196
88,196
151,196
15,196
87,196
152,196
26,196
86,238
153,238
25,238
91,238
154,238
19,238
100,238
155,238
80,238
20,238
77,238
156,238
12,238
75,238
157,238
11,238
74,238
158,42
21,42
159,42
81,42
24,197
79,197
160,293
17,293
78,293
127,293
161,293
18,293
76,293
162,293
13,293
85,293
163,61
9,61
1,61
164,61
109,61
10,61
165,61
2,198
107,198
23,198
103,198
166,198
3,198
7,198
99,198
167,198
4,198
22,240
168,240
5,240
110,240
16,240
169,240
106,240
14,240
102,240
128,240
170,240
190,240
98,240
129,44
171,44
130,44
172,44
111,44
71,44
131,44
173,199
132,199
174,199
73,199
119,199
133,199
175,241
72,241
134,241
176,241
95,6
126,6
135,6
105,6
177,6
101,6
136,6
178,6
116,6
97,6
125,6
137,6
115,6
179,6
138,286
180,286
108,40
124,40
139,40
181,40
113,40
96,40
140,40
182,40
112,40
94,40
123,40
141,40
183,40
93,40
142,40
184,40
92,40
122,200
143,200
118,242
185,242
84,242
144,242
186,242
104,242
121,242
145,242
187,242
83,242
146,242
188,242
82,242
117,242
120,242
147,285
189,285
70,285
148,285
114,285
195,298
237,46
237,193
237,234
237,233
237,192
237,67
237,298
198,67
198,234
198,233
198,192
198,193
198,46
198,191
285,233
289,193
289,233
289,234
289,67
289,298
205,234
205,67
205,193
205,298
205,233
205,46
275,234
275,193
275,192
275,298
213,191
213,298
213,46
213,67
213,234
213,233
213,192
218,44
218,241
218,283
218,199
36,202
36,299
36,291
36,211
36,203
36,252
36,35
36,208
36,42
36,293
36,210
36,60
36,243
267,44
267,49
267,237
267,249
267,42
267,241
45,197
45,210
45,254
45,253
45,42
8,245
8,210
155,210
80,245
80,236
80,31
80,55
80,211
80,202
80,199
80,297
80,246
77,241
3,210
3,285
3,299
3,208
22,203
22,31
22,207
22,33
22,201
22,249
22,32
22,243
131,196
131,242
131,205
131,248
131,288
131,255
131,61
131,243
131,291
131,253
131,249
115,249
115,248
115,237
115,246
180,290
180,64
139,202
139,32
139,44
139,283
139,6
139,212
139,238
139,236
139,33
139,196
139,293
139,209
143,211
117,198
117,60
117,287
117,251
117,207
117,210
117,59
117,43
117,297
117,49
117,212
