# Number of vertices:
300
# Edge list:
86,0
178,0
177,0
288,0
107,0
285,0
125,0
184,0
269,0
85,0
191,0
174,0
283,0
282,86
124,86
183,86
287,86
94,86
195,86
123,86
170,86
286,86
91,86
168,86
281,86
202,86
89,86
277,86
182,86
87,86
169,178
273,178
200,178
95,178
176,178
274,178
93,177
280,177
181,177
92,177
175,177
284,177
251,177
90,177
194,177
263,177
88,288
185,107
261,285
96,285
192,285
267,285
118,285
189,285
266,285
122,285
173,285
265,285
114,285
179,285
264,285
120,285
197,285
262,285
119,269
289,269
196,269
113,269
172,269
270,85
97,85
171,85
291,85
121,85
278,85
187,85
292,85
180,85
109,191
276,191
190,191
108,191
186,191
268,191
293,191
102,191
188,174
272,174
101,174
193,174
110,174
279,174
106,174
112,174
275,174
98,174
271,174
290,174
103,174
255,174
104,174
111,174
254,174
1,282
116,282
253,282
2,282
99,282
252,282
3,282
117,282
257,282
4,282
126,282
256,282
5,282
105,124
260,124
6,124
115,124
259,124
7,124
100,124
258,124
210,124
294,124
8,124
50,183
163,183
211,183
295,183
9,183
51,183
162,183
212,183
296,183
10,183
52,183
148,183
213,287
297,287
11,94
53,195
160,195
214,195
298,195
12,195
54,123
139,123
215,286
299,286
13,286
55,286
84,286
164,286
216,286
14,286
56,286
155,286
217,286
15,286
57,286
144,91
218,91
16,91
58,91
156,91
219,91
17,91
59,168
136,168
220,168
18,168
60,168
161,168
221,281
19,281
61,281
157,281
222,281
20,281
62,281
146,202
209,202
223,202
21,202
63,202
152,202
224,202
22,202
64,202
166,202
225,202
23,202
65,202
138,202
226,202
24,202
66,89
137,277
227,277
25,277
67,277
158,277
228,277
26,277
68,277
154,277
229,277
69,277
27,277
167,277
230,182
70,182
28,182
153,182
231,182
29,182
71,182
165,87
232,87
30,87
72,87
149,87
233,87
31,87
73,87
141,87
234,87
32,87
74,87
129,169
235,169
33,273
75,273
127,273
236,273
34,273
76,273
134,273
237,273
35,273
77,200
132,200
238,200
36,200
78,200
131,200
239,200
37,95
79,95
130,95
240,95
38,95
80,95
128,176
241,176
39,176
81,176
135,176
242,176
40,176
82,176
133,176
243,176
41,176
83,176
143,176
244,176
42,176
145,93
203,93
245,93
43,93
151,93
204,93
246,93
44,93
147,93
205,93
247,93
45,93
142,93
206,93
248,181
46,181
198,181
159,92
201,92
207,92
47,92
199,92
249,92
140,92
208,92
250,92
48,92
150,92
49,92
170,107
170,285
170,177
170,85
170,269
170,191
89,285
89,178
89,283
89,177
89,191
89,125
89,269
89,184
176,285
251,86
251,283
251,85
263,85
172,285
188,269
188,107
101,269
101,283
101,178
2,187
2,108
2,90
2,279
2,195
2,266
2,293
2,109
2,113
252,91
252,192
252,277
252,290
252,263
252,197
252,272
252,271
252,279
252,109
252,188
3,262
257,254
257,95
257,289
257,286
257,175
257,182
257,93
257,110
257,176
257,275
257,264
257,89
257,109
260,173
260,192
260,111
260,87
260,172
260,196
100,92
9,123
9,277
9,92
9,274
9,290
9,111
162,109
11,267
11,182
11,202
11,87
11,102
214,97
56,109
56,93
56,261
56,89
15,271
17,101
17,286
17,254
136,180
136,192
136,277
136,169
136,179
136,289
157,106
157,189
157,124
157,186
157,255
157,182
157,120
157,94
157,121
157,290
157,274
222,280
222,104
222,121
152,182
152,267
166,190
154,123
154,272
154,274
154,108
154,289
154,122
154,268
154,278
72,170
72,97
72,106
72,195
72,94
72,286
72,202
72,103
72,290
73,98
73,101
73,124
234,282
234,169
234,168
234,172
234,175
234,101
234,97
234,104
234,110
235,90
235,179
235,280
235,92
235,277
235,119
235,112
235,89
235,173
235,96
235,103
235,278
75,202
75,262
75,187
75,181
75,271
75,172
75,90
76,104
76,182
76,103
36,109
36,195
36,197
36,181
36,254
37,254
37,112
37,267
37,261
37,104
37,171
37,278
37,187
37,268
37,273
37,251
246,202
246,255
246,190
246,114
246,275
246,172
246,292
246,97
249,196
150,190
150,171
150,194
150,287
150,291
150,284
49,274
