# Number of vertices:
300
# Edge list:
152,0
27,0
195,0
28,0
196,0
29,0
193,0
197,0
30,0
198,0
31,152
199,152
32,152
200,152
33,152
201,152
34,152
194,27
202,27
35,195
203,195
36,195
204,195
37,195
205,195
38,195
206,195
39,195
207,195
40,28
208,28
41,28
209,28
42,196
210,196
1,196
43,196
211,196
2,196
44,196
212,29
3,29
45,193
213,193
46,193
4,193
214,193
47,193
5,193
215,193
6,193
48,193
216,193
7,193
49,193
217,193
8,197
50,197
218,197
9,197
51,197
219,197
10,197
52,197
220,197
11,197
53,197
221,197
12,197
54,30
222,30
13,30
55,30
223,30
14,30
56,30
224,30
15,30
57,30
225,30
16,30
58,30
226,198
17,198
59,198
227,198
18,198
60,198
228,198
19,198
61,198
229,198
20,198
62,198
230,198
21,31
63,199
231,199
22,199
64,199
232,199
23,199
65,199
24,199
66,199
67,32
25,32
68,32
26,32
238,32
69,32
111,32
153,32
268,32
298,32
70,32
112,200
154,200
245,200
296,200
71,200
113,200
155,200
255,200
294,200
72,33
114,33
156,33
237,33
292,33
73,33
115,33
157,33
249,33
74,33
116,33
158,33
246,33
299,33
75,33
117,33
159,201
248,201
297,34
76,34
118,34
160,34
250,34
295,194
77,202
119,202
161,202
254,202
293,202
78,35
120,35
162,35
253,35
79,203
121,203
163,203
256,203
283,203
80,203
122,203
164,203
241,203
81,203
123,203
165,203
264,203
274,203
82,203
124,203
166,36
240,36
273,36
83,36
125,36
167,36
252,36
286,36
84,36
126,204
168,204
266,204
285,204
85,204
127,204
169,204
265,204
282,204
86,204
128,37
170,37
272,37
280,37
87,37
129,37
171,37
242,37
278,37
88,205
130,205
172,205
261,205
275,205
89,205
131,205
173,205
251,205
277,205
90,38
132,38
174,38
263,38
284,38
91,38
133,38
175,38
234,38
281,38
92,206
134,206
176,206
262,206
279,206
93,206
135,206
177,206
247,206
94,39
136,39
178,39
260,39
290,39
95,39
137,39
179,39
239,39
96,207
138,207
180,207
271,207
289,207
97,207
139,207
181,40
267,40
98,40
140,40
182,40
270,40
99,40
141,40
183,40
269,40
100,208
142,208
184,208
235,208
101,208
143,208
185,41
243,41
276,41
102,41
144,41
186,41
244,41
103,41
145,209
187,209
259,209
104,209
146,209
188,209
258,209
291,209
105,209
147,209
189,209
236,209
151,209
106,209
148,209
190,209
257,209
288,42
107,42
149,42
191,42
108,42
150,42
192,42
287,42
109,42
233,42
110,42
43,193
43,29
43,152
43,27
3,30
3,193
3,28
3,196
3,27
3,152
3,197
3,195
3,198
215,27
215,28
215,29
215,30
215,197
8,152
8,195
8,28
8,29
8,198
8,30
8,27
8,196
8,193
9,30
9,196
9,152
9,29
9,195
14,29
14,195
14,193
14,197
14,27
14,28
226,196
226,27
226,152
226,195
226,193
226,197
226,30
226,28
226,29
59,195
62,195
21,220
21,38
21,2
21,61
21,7
22,36
22,14
22,221
22,47
22,59
22,44
22,1
154,20
154,210
154,11
154,48
154,206
154,50
154,42
154,217
73,202
299,230
250,203
250,4
250,2
250,32
250,229
250,205
250,201
250,216
250,35
250,209
162,39
162,228
162,58
162,14
165,219
165,5
165,205
165,214
165,208
165,221
165,227
165,217
165,41
165,220
124,41
124,220
124,57
124,48
124,228
124,213
124,11
124,39
168,59
168,52
285,61
169,39
169,33
169,57
169,218
169,59
169,36
169,194
175,206
175,201
137,228
137,53
137,200
137,1
137,32
239,225
239,20
239,11
239,199
239,58
239,60
239,7
97,227
97,53
97,13
97,15
97,32
97,9
97,49
98,38
98,12
98,17
98,46
98,32
98,206
98,4
142,11
142,211
142,214
142,227
142,213
142,52
142,55
142,19
142,225
105,208
105,220
105,204
105,51
105,34
105,224
105,47
190,43
190,15
190,221
190,16
190,228
190,216
190,12
190,61
190,229
190,41
190,202
190,54
