# Number of vertices:
300
# Edge list:
293,0
1,0
85,0
127,0
2,0
86,0
128,0
3,0
87,293
129,293
4,293
88,293
130,1
5,1
89,1
131,1
294,1
6,1
90,1
132,1
7,1
91,1
133,1
8,1
92,1
134,1
9,1
93,1
135,85
10,85
94,127
136,127
11,127
95,127
137,127
12,127
96,127
138,127
13,127
97,127
139,127
14,2
98,2
140,2
15,2
99,2
141,2
16,2
100,2
142,2
17,2
101,86
143,86
18,86
102,86
144,128
19,128
103,128
145,128
20,128
104,87
146,87
21,87
105,87
147,87
22,87
106,87
148,87
23,87
107,87
149,87
24,87
108,87
150,4
25,4
109,4
151,4
26,4
110,4
152,4
27,88
111,88
153,88
28,88
112,88
154,88
29,88
113,88
155,88
30,130
114,130
156,130
31,130
115,130
157,130
32,130
116,130
158,130
33,5
117,5
159,5
34,5
118,5
160,5
35,5
119,5
161,5
36,5
120,5
162,5
37,5
121,89
163,89
38,89
122,89
164,89
39,89
123,89
165,89
40,89
124,131
166,131
41,131
125,131
167,131
42,131
126,131
168,131
43,131
169,131
211,131
253,131
295,131
44,131
170,131
212,131
254,131
296,294
45,294
171,294
213,294
255,6
297,6
46,6
172,6
214,90
256,90
298,90
47,90
173,90
215,90
257,90
299,90
48,132
174,132
216,132
258,132
49,132
175,91
217,91
259,91
50,91
176,91
218,91
260,91
51,91
177,91
219,91
261,91
52,91
178,91
220,91
262,91
53,133
179,133
221,8
263,8
54,8
180,8
222,8
264,8
55,8
181,8
223,8
265,8
56,8
182,8
224,8
266,8
57,92
183,92
225,134
267,134
58,134
184,134
226,134
268,9
59,9
185,9
227,9
269,9
60,9
186,9
228,9
270,93
61,93
187,93
229,93
271,93
62,93
188,93
230,93
272,93
63,93
189,93
231,93
273,135
64,10
190,10
232,10
274,10
65,10
191,10
233,10
275,10
66,10
192,10
209,10
234,10
276,10
67,10
193,10
235,94
277,94
68,94
194,94
236,94
278,94
69,94
195,94
237,94
279,94
70,94
196,94
238,94
280,94
71,94
197,94
210,94
239,136
281,136
72,136
198,136
240,136
282,136
73,136
199,136
241,136
283,136
74,136
200,136
242,136
284,136
75,136
201,11
243,11
285,11
76,11
202,11
244,11
286,11
77,11
203,11
245,11
251,11
287,11
78,11
204,11
246,11
288,95
79,95
205,95
247,95
289,95
80,95
206,95
248,95
290,95
81,137
207,137
249,137
291,137
82,137
208,137
250,137
252,137
292,137
83,137
84,137
90,127
90,293
90,3
90,86
90,128
90,85
90,2
8,293
8,86
8,3
8,85
140,3
140,293
140,85
105,103
105,11
105,10
105,129
105,98
150,13
150,12
150,99
150,6
150,17
150,101
153,101
153,131
153,10
153,98
153,144
153,142
153,6
153,143
153,12
153,135
153,130
34,132
161,142
161,92
161,130
161,9
161,8
161,18
161,145
161,87
161,139
161,16
161,99
161,94
161,93
37,94
37,8
164,143
39,10
39,139
39,96
39,95
39,91
39,143
39,144
39,133
39,134
211,136
211,13
211,87
211,10
295,20
295,13
295,137
295,10
295,6
217,101
217,95
217,4
217,142
217,12
217,102
177,8
219,142
219,129
219,93
219,97
262,17
262,87
262,13
262,20
262,6
262,134
262,142
262,18
221,294
268,137
268,91
268,7
268,96
268,20
268,132
268,138
268,143
268,103
61,141
61,4
61,10
61,5
61,139
61,100
61,20
61,12
275,4
275,132
275,18
275,89
192,7
192,130
192,4
192,139
192,90
192,9
192,100
72,13
72,144
72,4
72,140
72,138
72,12
72,20
72,7
72,5
72,131
72,99
72,88
72,95
198,132
198,17
287,100
287,88
287,87
287,17
287,89
287,94
287,15
250,130
252,93
252,92
252,138
252,8
252,5
