# Number of vertices:
300
# Edge list:
49,0
91,0
133,0
50,0
92,0
134,0
51,0
93,0
135,0
52,0
94,0
136,0
53,0
95,0
137,0
54,0
96,0
138,0
55,0
97,0
139,0
56,0
98,0
140,0
258,0
57,0
99,0
141,0
58,0
100,0
142,0
59,0
101,0
143,0
60,0
102,0
144,0
61,0
103,0
145,0
62,49
104,49
146,49
63,49
105,49
147,49
64,49
106,91
148,91
65,91
107,133
149,133
66,133
108,133
150,133
67,133
109,133
151,133
68,133
110,133
152,133
69,133
111,133
153,133
70,50
112,50
154,50
71,50
113,50
155,50
72,50
114,50
156,50
73,92
115,134
157,134
74,134
116,134
158,134
75,134
117,134
159,134
76,134
118,134
160,134
77,134
119,134
161,51
78,51
120,51
162,51
79,51
121,51
163,135
80,135
122,135
164,135
81,135
123,135
165,52
82,52
124,52
166,52
83,52
125,52
6,94
167,94
84,94
126,94
168,94
85,94
127,94
169,94
86,94
128,94
170,94
87,94
129,94
171,136
88,136
130,136
172,136
89,136
131,136
173,136
90,136
132,136
174,53
7,53
175,53
217,53
259,53
8,53
176,53
218,53
260,53
9,95
177,95
219,95
261,95
10,95
178,95
220,95
262,95
11,95
179,95
221,95
263,95
12,95
180,95
222,95
264,137
13,137
181,137
223,137
265,137
14,137
182,137
224,137
266,137
15,137
183,137
225,137
267,137
16,137
184,137
226,137
268,137
17,54
185,54
227,54
269,54
18,54
186,54
228,54
270,54
19,96
187,96
229,96
271,96
20,96
188,96
230,96
272,96
21,96
189,96
231,96
273,96
22,96
190,96
232,96
274,138
23,138
191,138
233,55
275,55
24,55
192,55
234,55
276,55
25,55
193,55
235,55
277,55
26,55
194,97
236,97
278,97
27,97
195,97
237,97
279,97
28,56
196,56
238,56
280,56
29,56
197,56
239,56
281,56
30,56
198,56
240,56
282,56
31,56
199,56
241,98
283,98
32,98
200,98
242,140
284,140
33,258
201,258
243,258
285,258
34,258
202,258
244,258
286,258
35,258
203,258
245,258
287,258
36,258
204,57
246,57
288,57
37,57
205,57
247,57
289,57
38,99
206,99
248,99
290,99
39,99
207,99
249,99
291,99
40,58
208,58
250,58
292,58
41,58
209,100
251,100
293,100
42,100
210,100
252,100
1,100
294,100
43,142
211,142
253,142
295,142
2,142
44,142
212,142
254,59
296,59
3,59
45,59
213,101
255,101
297,101
4,101
46,101
214,101
256,101
216,101
298,101
5,101
47,101
215,101
257,101
299,101
48,101
115,143
115,60
115,57
115,142
115,61
115,53
115,144
115,102
115,103
115,93
115,55
115,52
115,97
119,140
119,55
119,258
119,143
119,142
119,135
119,93
121,140
121,98
121,136
121,53
121,97
121,58
121,145
121,139
121,61
121,94
121,102
121,144
121,56
165,136
165,139
165,101
165,93
165,258
165,103
166,93
166,145
166,92
166,50
166,57
166,140
166,61
166,96
166,55
166,141
166,142
166,95
166,137
87,96
87,93
87,103
87,54
87,140
87,56
87,99
87,100
87,61
87,60
87,102
87,49
174,56
174,145
174,51
174,258
175,55
175,101
175,258
175,54
260,102
260,60
260,57
260,143
219,92
219,139
219,61
219,103
219,100
219,140
219,55
219,60
219,101
219,93
219,57
219,96
220,133
220,139
220,145
220,54
220,91
186,143
186,142
270,93
270,55
270,101
270,136
270,138
270,137
270,92
232,91
232,138
232,139
232,95
191,51
191,98
191,54
191,97
191,102
191,140
191,49
25,60
25,97
25,91
25,258
25,102
25,137
25,140
25,54
25,92
25,59
236,135
236,136
236,57
236,59
236,58
236,100
236,145
236,101
236,143
236,52
236,94
35,50
35,135
35,96
35,97
35,145
35,58
35,137
289,98
289,49
289,134
251,92
251,103
251,96
4,145
4,97
4,144
4,99
4,55
4,49
4,53
4,100
