# Number of vertices:
300
# Edge list:
76,0
244,0
286,0
77,0
245,0
287,0
78,0
246,0
288,0
79,0
247,0
289,0
80,0
248,76
290,76
81,76
249,76
291,76
82,76
250,76
292,76
83,76
251,76
293,76
84,76
252,76
294,76
85,244
253,244
295,244
86,244
254,244
296,244
87,244
255,244
297,244
88,244
256,244
298,244
32,244
89,244
257,244
299,244
90,286
258,286
91,286
259,286
92,286
260,77
93,77
261,77
33,77
94,77
262,77
95,77
263,77
96,77
264,77
97,77
265,77
98,77
266,77
99,77
267,77
100,77
268,245
101,245
269,287
102,287
270,287
103,287
271,287
104,287
272,78
105,78
273,78
106,78
274,78
107,78
275,78
108,246
276,246
109,246
277,246
110,246
278,246
111,246
279,246
112,246
280,246
113,246
281,246
114,246
282,246
115,246
283,246
116,246
284,288
117,288
285,288
158,288
34,288
118,288
160,79
202,79
35,79
119,79
161,79
203,79
36,79
120,79
162,247
204,247
37,247
121,247
163,247
205,247
38,247
122,247
159,247
164,247
206,247
39,289
123,289
165,289
207,289
40,80
124,248
166,248
208,248
41,248
125,248
167,248
200,248
209,248
42,248
126,248
168,248
1,248
210,248
43,290
127,290
169,290
211,290
2,81
44,81
128,81
170,81
212,81
3,81
45,81
129,81
171,81
213,81
4,81
46,81
130,81
172,81
201,81
214,81
5,81
47,249
131,249
173,249
215,249
6,249
48,249
132,249
174,249
216,291
7,291
49,291
133,291
175,291
217,291
8,291
50,291
134,291
176,82
218,82
9,82
51,82
135,82
177,82
219,82
10,82
52,82
136,82
178,82
220,82
242,82
53,82
11,82
137,82
179,82
221,250
54,250
12,250
138,250
180,250
222,250
13,250
55,250
139,250
181,292
223,292
14,83
56,83
140,251
182,251
224,251
15,251
57,251
141,251
183,251
225,293
243,293
16,293
58,293
142,293
184,293
226,293
17,293
59,293
143,293
185,293
227,293
18,293
60,84
144,84
186,84
228,84
19,84
61,84
145,84
187,84
229,252
20,252
62,252
146,252
188,252
230,252
21,252
63,252
147,252
189,252
231,252
22,252
64,294
148,294
190,294
232,294
23,294
65,294
149,294
191,294
233,294
24,294
66,294
150,294
192,294
234,294
25,294
67,294
151,85
193,85
235,85
26,85
68,85
152,85
194,85
236,253
27,253
69,253
153,253
195,253
237,253
28,253
70,253
154,253
196,253
238,253
29,253
71,253
155,295
197,295
239,295
30,295
72,295
156,295
198,295
240,86
31,86
73,86
157,86
199,86
241,86
74,86
75,86
255,79
255,289
255,247
255,77
255,245
255,287
255,288
297,245
297,79
297,287
297,77
297,288
88,247
88,80
259,289
259,78
259,76
259,77
259,80
259,288
259,245
259,79
259,247
259,287
259,244
259,246
95,80
95,288
268,288
274,287
281,80
281,245
281,286
281,79
114,78
117,286
117,79
117,76
117,80
117,287
117,247
117,77
117,78
158,78
158,287
158,244
34,289
202,289
202,76
202,286
202,247
202,288
202,77
202,80
202,287
202,245
202,246
202,78
202,244
166,116
166,114
166,206
166,101
166,110
166,279
166,97
166,94
166,263
166,158
166,36
129,205
129,35
129,164
129,117
129,269
129,163
129,249
129,160
213,93
5,92
5,101
5,104
5,91
5,251
5,96
215,162
215,98
215,83
215,106
215,117
215,111
215,250
215,115
215,107
215,110
216,106
216,294
216,249
216,39
216,118
216,103
216,104
216,264
216,82
216,258
216,158
216,273
52,297
52,161
227,263
227,203
227,256
227,111
227,162
66,264
66,103
66,261
66,271
66,291
66,93
66,161
66,255
66,204
66,36
66,112
68,259
68,291
68,84
68,283
68,159
68,270
68,83
68,122
68,113
68,252
