# Number of vertices:
300
# Edge list:
12,0
222,0
13,0
95,0
223,0
58,0
14,0
224,0
11,0
15,0
94,0
225,0
6,0
16,0
226,0
57,0
17,0
93,0
227,0
18,12
228,12
56,12
10,12
19,12
92,12
55,12
229,12
5,12
20,222
230,222
21,222
91,222
231,222
64,13
22,13
232,95
23,95
90,95
233,95
89,95
24,223
234,223
70,223
25,223
221,223
235,223
26,223
88,223
236,58
62,58
27,58
87,58
237,58
28,14
238,14
63,14
29,14
86,14
239,14
30,14
240,14
31,14
85,14
241,14
32,14
84,14
242,14
33,14
243,14
4,224
34,224
83,224
244,224
3,224
35,224
82,224
81,224
245,224
36,224
246,224
54,224
37,11
247,11
9,11
38,11
80,11
248,11
2,11
39,11
79,11
249,11
40,11
78,15
250,15
65,15
41,15
77,15
251,15
42,15
252,15
61,15
43,15
76,94
253,94
75,94
44,94
254,94
74,94
45,94
255,94
73,225
46,225
256,225
1,225
72,225
47,225
257,225
71,225
48,225
258,6
60,6
49,6
259,6
59,6
50,6
260,6
51,6
69,6
261,6
8,6
52,6
68,6
262,6
53,6
67,16
7,16
66,16
263,16
138,16
180,16
264,16
113,16
137,16
139,16
181,16
98,16
265,16
140,16
182,226
266,226
107,226
136,226
141,226
183,226
267,226
142,226
184,226
268,226
102,226
135,57
143,17
185,17
269,17
144,17
186,17
270,17
101,17
134,17
145,17
187,17
133,17
271,17
146,17
188,93
272,93
132,93
147,93
189,93
273,93
131,93
148,93
190,227
274,227
149,227
191,227
275,227
112,227
130,227
150,227
192,227
276,227
151,227
193,227
277,227
106,227
129,227
152,18
194,18
278,18
153,18
195,18
279,228
128,228
154,228
196,228
100,228
280,228
155,228
197,228
281,228
127,228
156,228
198,228
96,228
282,228
157,56
199,56
283,56
99,56
126,56
158,56
200,56
284,56
159,10
201,10
285,10
111,19
125,19
160,19
202,19
286,19
161,19
203,19
287,19
110,19
124,19
162,19
204,19
105,19
288,19
163,19
205,92
289,92
123,92
164,92
206,92
104,92
290,92
165,92
207,92
291,55
122,55
166,229
208,229
292,229
167,229
209,229
293,229
121,229
168,229
210,229
120,229
294,229
169,5
211,20
295,20
119,20
170,20
212,20
296,20
118,20
171,20
213,20
297,20
117,20
172,20
214,20
298,20
108,20
173,20
215,230
299,230
109,230
116,230
174,230
216,230
175,230
217,230
115,230
176,230
218,230
177,21
219,21
103,21
114,21
178,21
220,21
179,91
97,231
19,224
19,13
19,222
230,93
233,226
233,58
233,223
233,94
233,6
233,222
62,227
62,57
62,93
62,12
62,11
240,223
240,95
34,57
34,94
34,222
34,11
34,13
34,225
34,58
34,226
34,6
246,94
246,6
246,95
246,93
78,14
78,13
78,223
78,224
78,225
78,94
78,11
78,95
78,12
78,57
78,93
78,226
250,14
250,17
250,222
250,224
250,6
250,93
250,94
250,95
250,227
250,13
250,223
250,57
250,225
77,57
77,224
77,14
77,227
77,226
77,225
77,95
77,13
77,58
77,222
42,6
42,57
42,11
42,58
42,226
42,223
42,222
42,13
44,12
44,57
44,93
44,224
44,13
44,225
73,13
73,227
73,6
73,17
73,11
73,12
73,223
73,16
73,57
73,15
73,58
73,224
73,94
257,6
257,15
257,222
257,94
257,226
52,227
52,94
52,93
52,57
52,223
52,16
52,222
52,13
52,12
52,15
52,14
52,225
262,14
262,226
262,58
262,95
262,16
262,93
262,222
262,94
262,224
262,227
262,15
262,11
262,12
53,58
53,222
53,14
53,12
53,226
53,57
53,225
53,17
53,227
269,11
148,16
148,222
148,13
148,17
148,57
148,227
148,95
274,224
274,13
274,17
274,226
274,12
274,6
274,94
149,95
149,224
149,93
149,13
149,225
149,57
149,12
130,11
130,13
130,57
130,14
130,12
130,17
194,143
194,71
194,269
194,2
194,7
194,32
194,238
194,267
194,191
194,60
195,187
127,56
127,232
127,71
127,133
282,63
282,248
282,61
282,77
284,34
284,148
284,106
284,253
284,88
284,189
284,7
286,233
286,48
286,149
286,180
286,67
163,45
163,9
163,269
163,62
163,253
163,38
164,5
164,130
164,32
164,31
164,21
168,272
168,45
168,59
168,185
168,31
168,237
168,42
168,87
168,63
210,141
210,276
210,53
169,138
169,237
295,3
295,146
295,151
295,44
295,193
295,56
295,277
295,62
295,63
295,249
108,138
108,251
108,76
108,34
108,33
108,238
108,249
108,52
108,192
108,61
108,77
108,73
216,4
216,137
216,267
216,10
216,79
178,77
178,75
178,78
178,133
178,35
178,236
178,253
178,241
178,61
97,139
97,26
