# Number of vertices:
300
# Edge list:
24,0
150,0
192,0
234,0
25,0
151,0
193,0
235,0
26,0
152,0
194,0
236,0
27,0
153,0
195,0
237,0
28,0
154,0
196,0
238,0
29,0
155,0
197,0
239,0
30,0
156,0
198,24
240,24
31,24
157,24
199,24
241,24
32,24
158,24
200,24
242,24
33,24
159,24
201,24
243,150
34,150
160,150
202,150
244,150
35,150
161,192
203,192
245,192
36,192
162,192
204,192
246,192
37,192
163,192
205,192
247,192
38,192
164,192
206,192
248,192
39,234
165,234
207,234
249,234
40,234
166,234
208,234
250,25
41,25
167,25
209,25
251,25
42,25
168,25
210,25
1,25
252,25
43,25
169,25
211,25
253,25
44,25
2,151
170,151
212,193
254,193
3,193
45,193
171,193
213,193
255,193
4,193
46,193
172,193
214,193
256,193
5,193
47,193
173,235
215,235
257,235
6,235
48,235
174,235
216,235
258,235
7,26
49,26
175,26
217,26
259,26
8,26
50,26
176,26
218,26
260,26
9,26
51,152
177,152
219,152
261,152
10,152
52,152
178,152
220,152
262,152
11,152
53,152
179,152
221,152
263,152
12,152
54,194
180,194
222,236
264,236
13,236
55,236
181,236
223,236
265,236
14,236
56,27
182,27
224,27
266,27
15,27
57,27
183,27
225,153
267,153
16,153
58,153
184,153
226,153
268,153
17,153
59,153
185,153
227,153
269,153
18,195
60,195
186,195
228,195
270,195
19,195
61,195
187,237
229,237
271,237
20,237
62,237
188,237
230,28
272,28
21,154
63,154
189,154
231,154
273,154
22,154
64,154
190,154
232,154
274,154
65,154
23,154
191,154
233,154
275,196
66,196
108,196
276,196
67,196
109,196
277,196
68,196
110,196
278,196
69,196
111,196
279,196
70,196
112,196
280,238
71,238
113,238
149,238
281,238
72,238
114,238
282,238
73,238
115,238
283,238
74,238
116,238
284,238
75,238
117,238
285,29
76,29
118,29
286,29
77,29
119,29
287,29
78,29
120,29
288,29
79,29
121,29
289,155
80,155
122,155
290,155
81,155
123,197
291,197
82,197
124,197
292,197
83,197
125,197
293,197
84,197
126,197
294,197
85,197
127,197
295,197
86,197
128,197
296,197
87,239
129,239
297,239
88,239
130,239
298,239
89,239
131,239
299,239
90,239
132,30
91,30
133,30
92,30
134,30
93,30
135,156
94,156
136,156
95,156
137,156
96,156
138,156
97,156
139,156
98,156
140,156
99,198
141,198
100,198
142,198
101,198
143,198
102,198
144,198
103,198
145,198
104,198
146,198
105,198
147,198
106,198
148,198
107,240
202,27
202,193
202,29
37,195
37,29
37,236
37,196
37,237
37,194
37,235
37,150
37,197
37,151
209,152
209,29
209,155
209,28
209,30
171,151
171,237
171,30
171,194
171,197
171,150
171,28
171,27
171,156
171,24
213,197
213,153
213,237
213,25
213,151
213,196
213,24
213,192
213,27
47,192
47,237
47,195
47,194
47,24
47,30
47,29
47,28
47,153
47,151
47,156
10,153
10,236
10,24
10,196
10,238
181,151
181,156
181,24
181,234
181,197
181,152
181,192
181,195
227,27
19,239
19,154
19,197
19,152
19,26
19,24
19,196
19,194
19,193
19,155
19,238
61,25
61,192
61,197
61,27
61,234
61,239
61,237
61,156
61,194
229,151
229,28
229,194
229,150
229,192
229,30
229,24
229,236
229,197
229,25
229,238
229,239
229,154
230,154
230,194
230,27
230,152
230,234
230,197
230,151
230,236
231,195
231,193
231,156
231,238
231,28
231,153
231,26
231,197
231,194
231,234
68,25
68,192
68,194
68,26
68,150
68,235
68,195
68,30
68,154
68,197
68,24
72,30
72,192
72,153
72,194
298,195
298,238
298,192
298,151
298,27
298,29
298,237
298,30
298,24
298,25
298,197
298,152
133,153
133,236
133,235
97,194
141,218
141,84
106,65
106,254
106,257
106,251
