# Number of vertices:
300
# Edge list:
152,0
236,0
278,0
153,0
237,0
279,0
154,0
238,0
280,0
155,0
239,0
281,0
156,0
240,0
282,0
157,0
241,0
283,0
158,0
242,0
284,0
159,0
243,0
285,0
160,0
244,0
286,0
161,0
245,0
287,0
162,0
246,0
288,0
163,0
247,0
289,0
164,0
248,0
290,0
165,0
249,0
291,0
166,152
250,152
292,152
167,152
251,152
293,152
168,152
252,152
294,152
1,152
169,152
253,152
295,152
2,152
170,152
254,152
296,236
3,236
171,236
255,236
297,236
4,236
172,236
256,236
298,236
5,236
173,236
257,236
299,236
6,278
174,278
258,278
7,278
175,278
259,278
8,278
176,278
260,153
9,153
177,237
261,237
10,237
178,237
262,237
11,237
179,237
263,237
12,237
180,237
264,237
13,237
181,237
265,237
14,279
182,279
266,279
15,279
183,279
267,279
16,279
184,279
268,279
17,279
185,279
269,279
18,279
186,154
270,154
19,154
187,154
271,154
20,154
188,154
272,154
21,154
189,154
273,154
22,154
190,154
274,154
23,154
191,238
275,238
24,280
192,280
276,280
25,280
193,280
277,280
26,280
68,280
110,280
194,280
27,155
69,155
111,155
195,155
28,239
70,239
112,239
196,239
29,239
71,239
113,239
197,239
30,239
72,239
114,239
198,239
31,239
73,239
115,239
199,239
32,281
74,281
116,281
200,281
33,281
75,281
117,281
201,281
34,156
76,156
118,156
202,156
35,156
77,156
119,156
203,156
36,240
78,240
108,240
120,240
204,240
37,240
79,240
121,240
205,282
38,282
80,282
122,282
206,282
39,282
81,282
123,157
207,157
40,157
82,157
124,157
208,241
41,241
83,241
109,241
125,241
209,241
42,241
84,241
126,241
210,241
43,241
85,241
127,241
211,241
44,241
86,241
128,283
150,283
212,283
45,283
87,283
129,283
213,283
46,283
88,283
130,283
214,283
47,283
89,283
131,283
215,283
48,283
90,158
132,158
216,158
49,158
91,158
133,158
151,158
217,158
50,158
92,158
134,158
218,158
51,158
93,158
135,242
219,242
52,284
94,284
136,284
220,284
53,284
95,284
137,284
221,159
54,159
96,159
138,159
222,159
234,159
55,159
97,159
139,159
223,159
56,159
98,159
140,159
224,159
57,159
99,159
141,243
225,243
58,243
100,243
142,243
226,285
59,285
101,285
143,285
227,285
235,285
60,285
102,285
144,285
228,160
61,160
103,160
145,160
229,160
62,160
104,160
146,160
230,160
63,160
105,160
147,160
231,160
64,160
106,244
148,244
232,244
65,244
107,244
149,244
233,244
66,244
67,244
293,162
293,153
293,240
293,244
293,160
252,165
295,285
295,153
295,160
295,286
295,236
170,242
170,290
170,239
170,248
170,286
170,288
170,283
171,163
171,291
171,279
171,152
171,159
171,242
6,241
264,287
264,164
264,246
268,248
268,291
270,240
270,237
270,159
270,284
270,153
270,247
72,288
72,286
198,156
198,237
116,155
116,284
116,286
116,154
116,163
34,161
34,288
34,154
34,278
118,152
118,278
118,238
118,286
118,284
118,240
118,155
118,288
118,290
118,241
118,243
118,249
77,282
77,164
77,284
77,160
77,154
77,161
77,155
77,285
77,157
77,243
77,244
77,283
77,287
78,239
78,152
78,161
78,163
78,249
78,243
78,248
78,154
78,164
78,288
78,244
78,246
78,291
108,282
108,289
108,163
108,280
108,286
108,164
204,154
204,243
204,241
204,239
204,247
204,282
204,237
204,156
204,163
204,164
204,244
204,291
37,164
37,283
37,158
37,289
37,278
37,239
37,237
206,154
206,240
206,288
206,283
206,279
206,161
206,237
206,163
206,238
206,162
206,287
206,281
206,249
123,241
123,279
123,165
123,156
123,245
123,290
123,236
127,244
127,162
127,242
127,158
127,281
127,240
127,156
49,290
49,160
49,157
49,278
133,163
133,239
133,281
133,279
133,156
133,247
133,237
133,165
133,248
133,242
133,283
133,246
133,161
223,291
229,245
229,289
229,279
229,242
229,238
229,291
229,158
229,154
229,240
