# Number of vertices:
300
# Edge list:
23,0
107,0
191,0
233,0
275,0
24,0
108,0
192,0
234,0
276,0
25,0
109,0
193,0
235,0
277,0
26,0
110,0
194,0
236,0
278,0
27,0
111,0
195,0
237,0
105,0
279,0
28,0
112,0
196,0
238,0
280,0
29,0
113,0
197,0
239,0
281,0
30,0
114,0
198,0
240,0
282,0
31,0
115,0
199,0
241,0
283,0
32,0
116,0
200,0
242,0
106,0
284,107
33,107
117,107
201,191
243,191
285,191
34,191
118,191
202,191
244,191
286,191
35,191
119,191
203,191
245,191
287,191
36,191
120,191
204,233
246,233
288,233
37,233
121,233
205,233
247,233
289,233
38,233
122,233
206,233
248,233
290,233
39,233
123,233
207,233
249,233
291,275
40,275
124,275
208,275
250,275
292,275
41,275
125,275
209,275
251,275
293,275
42,275
126,275
210,275
252,275
294,275
43,24
127,24
211,24
253,24
295,24
44,24
128,24
212,24
254,24
296,24
45,24
129,24
213,24
255,108
297,108
46,108
130,108
214,108
256,108
298,108
47,108
131,108
215,108
257,108
299,192
48,192
132,192
216,192
258,192
49,192
133,192
217,192
259,192
50,234
134,234
218,234
260,234
51,234
135,234
219,234
261,234
52,234
136,234
220,234
262,234
53,234
137,234
221,234
263,234
54,234
138,276
222,276
264,276
55,276
139,276
223,276
265,276
56,276
140,276
224,276
266,276
57,25
141,25
225,25
267,25
58,25
142,25
226,25
268,109
59,193
143,193
227,193
269,235
60,235
144,235
228,235
270,277
61,277
145,277
229,277
271,277
62,277
146,277
230,277
272,26
63,26
147,26
231,26
273,26
64,26
148,26
232,26
274,26
65,26
149,26
66,26
150,110
67,110
151,110
68,110
152,110
69,110
153,110
70,194
154,194
71,194
155,194
72,194
156,194
73,194
157,194
74,194
158,194
75,194
159,194
76,194
160,194
77,194
161,194
189,194
78,236
162,236
79,236
163,236
80,236
164,236
81,236
165,236
82,236
166,236
190,236
83,236
167,27
84,27
168,27
1,27
85,27
169,27
2,27
86,27
170,27
3,27
87,195
171,237
4,237
88,237
172,237
5,237
89,237
173,237
6,237
90,237
174,237
7,105
91,105
175,105
8,105
92,105
176,279
9,279
93,279
177,279
10,28
94,28
178,28
11,28
95,28
179,28
12,28
96,28
180,28
13,28
97,28
181,112
14,112
98,112
182,112
15,112
99,112
183,112
16,112
100,112
184,112
17,112
101,112
185,112
18,112
102,112
186,112
19,112
103,196
187,196
20,238
104,238
188,238
21,238
22,238
201,114
201,280
201,25
201,28
201,279
120,31
290,196
290,195
290,193
290,237
290,283
290,28
124,281
292,239
292,31
292,279
292,278
292,116
292,242
292,199
251,279
251,108
42,27
42,111
42,198
211,116
211,198
211,199
211,240
211,282
211,235
211,280
211,283
256,25
215,115
215,191
215,280
215,192
258,199
258,24
258,194
258,26
258,31
260,233
260,23
260,112
260,237
260,196
260,108
260,27
135,195
135,27
135,198
135,108
262,105
262,113
264,200
264,241
264,112
264,242
264,240
264,109
264,106
264,238
264,236
264,108
265,28
265,191
265,237
265,195
265,29
265,275
265,236
265,115
265,23
225,108
225,116
225,281
225,115
225,237
225,31
225,114
225,195
225,107
58,281
58,242
58,234
61,283
61,241
61,109
62,235
62,114
62,280
62,200
62,196
62,107
62,193
63,106
63,233
63,25
63,235
63,107
63,113
63,31
63,236
63,110
63,23
63,30
63,279
153,237
153,234
153,115
153,275
153,236
153,278
153,116
153,239
153,32
153,235
71,278
71,113
71,28
162,32
162,280
162,240
162,277
162,239
162,191
162,193
162,276
162,196
165,240
165,24
165,233
165,241
165,32
6,24
6,115
6,191
6,240
6,113
6,199
6,280
