# Number of vertices:
300
# Edge list:
41,0
251,0
114,0
42,0
85,0
252,0
43,0
253,0
113,0
44,0
254,0
45,41
83,41
255,41
84,41
46,41
86,41
256,41
97,41
47,41
257,41
105,41
48,41
258,41
104,41
49,41
259,41
103,41
50,251
260,251
100,251
51,251
261,251
99,251
52,251
262,251
53,251
263,251
92,251
54,251
264,251
90,251
55,251
265,251
88,251
56,114
266,114
98,114
57,114
267,114
95,114
58,114
268,114
93,114
59,85
269,85
91,85
60,85
270,85
89,85
61,85
271,85
87,85
62,85
272,252
96,252
63,252
273,252
94,252
64,252
274,252
102,252
65,252
116,252
275,252
120,252
66,252
276,252
118,43
67,43
277,43
110,43
68,253
278,253
106,253
69,253
279,253
108,253
70,253
280,253
71,113
117,113
281,113
119,113
72,113
282,113
73,113
112,113
283,113
122,113
74,113
284,113
75,113
115,113
285,113
121,44
76,44
286,44
124,44
77,44
287,44
101,44
78,254
288,254
79,254
289,254
109,254
80,254
290,254
123,254
81,254
291,254
107,254
82,254
292,254
111,254
125,254
167,254
248,254
23,45
293,45
126,45
168,45
246,45
20,45
294,45
127,45
169,45
241,45
22,45
295,45
128,45
170,45
225,83
21,83
296,83
19,83
129,255
171,255
247,84
297,84
130,84
172,84
245,84
24,84
298,84
18,84
131,84
173,84
235,84
299,84
17,84
132,84
174,84
214,84
10,84
133,46
175,46
215,46
16,46
134,256
176,256
238,256
40,256
135,256
177,256
219,256
240,256
15,256
136,256
178,256
236,256
137,256
179,256
213,256
38,97
14,97
138,97
180,97
224,97
139,97
181,97
239,97
36,97
13,97
140,97
182,47
237,47
39,47
141,47
183,47
234,47
12,47
142,47
184,257
223,257
143,257
185,257
217,257
37,257
11,257
144,105
186,105
242,105
145,48
187,48
212,48
35,48
146,48
188,48
231,48
147,48
189,48
229,258
32,258
9,104
148,104
190,104
227,104
149,259
191,259
226,259
29,103
8,103
150,103
192,103
222,103
151,103
193,103
211,50
34,50
7,260
152,260
194,260
230,260
153,100
195,100
228,100
31,100
6,100
154,100
196,100
218,100
155,100
197,100
28,100
221,100
5,100
156,100
198,100
216,100
157,51
199,51
210,51
33,51
4,51
158,51
200,51
250,51
159,51
201,51
208,51
30,51
244,51
3,261
160,261
202,261
232,261
161,261
203,99
27,99
220,99
2,99
162,99
204,52
209,52
163,52
205,52
249,52
26,52
164,52
206,52
243,262
165,262
207,262
233,53
25,263
166,263
1,263
99,253
99,114
99,85
99,113
99,41
99,252
99,44
99,43
99,254
99,42
63,41
63,253
63,114
63,85
63,113
63,251
102,85
102,251
102,113
102,254
102,42
102,44
102,114
102,41
102,253
102,43
283,252
283,114
283,251
283,253
283,85
283,43
283,254
283,41
283,44
283,42
76,42
76,113
76,114
76,85
76,253
76,254
76,41
76,251
76,43
76,252
80,44
80,113
80,42
80,43
80,253
167,44
167,253
167,113
167,41
167,43
167,42
167,252
167,85
167,251
167,114
23,65
23,111
23,90
23,56
23,275
23,112
23,94
23,82
23,100
127,256
127,74
127,83
127,265
127,270
127,99
127,261
241,50
241,264
131,287
131,281
131,109
131,89
131,110
131,266
131,86
131,270
131,102
131,55
131,56
131,285
299,98
299,289
299,55
299,45
299,104
299,288
299,97
299,256
132,98
132,283
132,272
132,83
132,48
132,263
132,266
132,274
215,274
215,290
215,100
215,59
215,110
215,280
215,123
215,64
215,72
215,268
215,75
215,87
238,278
238,63
238,269
238,50
238,72
40,292
40,269
40,97
40,92
40,93
40,56
40,122
40,110
40,262
40,264
240,46
240,79
240,115
240,96
240,45
240,87
240,64
237,59
237,291
237,95
183,278
183,271
142,107
142,80
142,260
142,77
223,259
223,53
223,101
223,289
223,285
223,272
223,72
223,70
35,125
35,256
35,268
35,76
35,101
35,83
35,55
35,68
35,290
35,70
35,292
35,93
35,259
192,45
192,46
192,92
192,70
192,62
192,259
192,88
192,60
192,279
192,107
192,58
192,285
208,90
208,63
208,65
208,78
244,73
244,261
244,281
244,290
232,77
232,292
232,90
232,263
232,97
232,122
203,286
203,112
203,57
203,262
203,118
203,265
2,123
2,289
2,105
2,290
2,94
2,53
2,124
2,49
2,55
2,100
2,102
2,95
205,283
164,63
164,67
164,110
164,260
164,261
164,119
164,292
164,45
164,73
164,274
164,262
164,120
164,278
