# Number of vertices:
300
# Edge list:
22,0
106,0
190,0
274,0
23,0
107,0
191,0
275,0
24,0
108,0
192,0
276,0
25,0
109,0
193,0
277,0
26,0
110,0
194,0
278,0
27,0
111,0
195,0
279,0
28,0
112,0
196,0
280,0
29,0
113,0
197,0
281,0
30,0
114,0
198,0
282,0
31,0
115,0
199,0
283,0
32,0
116,0
200,0
284,0
33,0
117,22
201,22
285,22
34,22
118,22
202,22
286,22
35,106
119,106
203,106
273,106
287,106
36,106
120,106
204,106
288,106
37,106
121,106
205,190
289,190
38,190
122,274
206,274
290,274
39,107
123,107
207,107
291,107
40,191
124,191
208,191
292,191
41,191
125,191
209,191
293,191
42,191
126,191
210,191
1,191
294,191
43,191
127,191
211,24
295,24
2,24
44,108
128,108
212,108
296,108
3,192
45,192
129,192
213,192
297,192
4,192
46,192
130,192
214,192
298,192
5,192
47,192
131,192
215,192
299,192
6,276
48,276
132,276
216,276
7,276
49,276
133,276
217,25
8,25
50,25
134,25
218,25
9,109
51,109
135,109
219,109
10,109
52,109
136,109
220,109
11,109
53,109
137,193
221,193
12,193
54,193
138,193
222,193
13,277
55,277
139,277
223,277
14,277
56,277
140,277
224,26
15,26
57,26
141,26
225,26
16,110
58,110
142,110
226,110
17,110
59,110
143,110
227,110
18,110
60,194
144,194
228,194
19,194
61,194
145,194
229,194
20,194
62,194
146,194
230,194
63,194
21,194
147,194
231,194
64,278
148,278
232,278
65,278
149,27
233,27
66,27
150,27
234,27
67,27
151,27
235,27
68,27
152,27
236,27
69,27
153,111
237,111
70,195
154,195
238,195
71,195
155,195
239,195
72,195
156,195
240,195
73,195
157,195
241,279
74,279
158,279
242,279
75,279
159,279
243,279
76,279
160,28
244,28
77,28
161,28
245,28
78,28
162,28
246,28
79,28
163,28
247,280
80,280
164,280
248,29
81,29
165,29
249,29
82,29
166,29
250,29
83,29
167,29
251,29
84,29
168,29
252,29
85,113
169,113
253,113
86,113
170,113
254,113
87,113
171,113
255,113
88,113
172,113
256,197
89,197
173,197
257,281
90,281
174,281
258,281
91,281
175,281
259,281
92,281
176,30
260,30
93,30
177,30
261,30
94,30
178,30
262,114
95,114
179,114
263,114
96,114
180,114
264,114
97,114
181,114
265,114
98,114
182,114
266,114
99,114
183,114
267,114
100,114
184,198
268,198
101,198
185,198
189,198
269,198
102,198
186,198
270,198
103,198
187,282
271,282
104,282
188,282
272,282
105,282
119,277
119,27
119,30
119,281
119,26
119,280
36,192
36,190
36,284
36,28
36,108
36,196
36,27
288,108
288,28
288,193
288,200
288,107
288,278
289,32
289,26
289,195
289,114
289,278
289,197
38,32
38,110
38,22
294,194
294,111
294,32
294,23
294,275
294,110
294,199
294,284
294,196
294,198
295,284
295,112
295,109
295,33
295,23
295,276
295,198
46,197
46,116
46,276
46,193
46,31
46,281
46,107
46,108
46,191
46,196
130,200
130,279
130,106
130,27
48,281
48,114
48,112
48,193
133,192
133,113
133,115
133,32
133,283
133,280
133,28
133,284
133,193
137,282
137,28
137,108
137,283
137,33
137,275
137,26
137,106
137,197
17,113
17,27
17,191
143,116
143,284
143,106
143,281
143,283
143,198
143,277
143,274
143,196
143,195
143,29
143,276
227,23
227,113
232,198
232,108
232,192
232,195
232,191
232,194
232,279
232,28
232,112
150,30
150,280
150,106
70,115
70,279
158,23
158,197
158,192
158,22
158,106
158,276
161,24
161,275
161,279
161,33
161,29
161,196
161,191
161,107
161,111
245,192
245,29
245,115
245,198
245,110
245,25
245,196
245,281
245,276
245,284
165,193
165,190
165,284
165,278
165,24
165,25
165,28
165,109
165,279
165,23
83,107
83,280
83,279
83,275
83,195
83,27
83,199
83,111
83,112
83,32
83,23
83,192
83,114
171,274
171,30
171,278
171,197
171,277
171,106
171,195
260,193
260,283
260,196
260,278
260,32
260,195
101,283
101,281
101,32
101,106
101,282
101,276
