# Number of vertices:
300
# Edge list:
294,0
80,0
164,0
293,0
81,0
165,0
82,0
166,0
83,0
167,0
296,0
84,0
168,0
297,0
1,0
85,0
169,0
2,0
86,0
170,0
3,0
87,0
171,0
4,0
88,0
172,0
299,0
5,0
89,0
173,0
298,0
6,0
90,0
174,0
7,0
91,0
175,0
295,0
8,0
92,0
176,0
9,0
93,0
177,0
10,0
94,294
178,294
11,294
95,294
179,294
12,294
96,294
180,294
13,294
97,294
181,294
14,294
98,294
182,80
289,80
15,80
99,80
183,80
281,80
16,80
100,80
184,80
287,80
17,80
101,80
185,164
292,164
18,164
102,164
186,164
291,164
19,81
103,81
187,81
290,81
20,81
104,81
188,81
288,81
21,165
105,82
189,82
274,82
22,82
106,82
190,82
285,82
23,82
107,82
191,166
284,166
24,166
108,83
192,83
283,83
25,83
109,83
193,83
282,83
26,83
110,83
194,83
280,83
27,83
111,83
195,167
286,167
28,167
112,167
196,167
29,296
113,296
197,296
277,296
30,296
114,296
198,296
276,296
31,84
115,168
199,168
275,168
32,168
116,168
200,168
273,168
33,168
117,168
201,168
279,168
34,168
118,168
202,168
278,297
35,297
119,297
203,297
36,297
120,297
204,297
37,297
121,297
205,297
243,297
38,297
122,1
206,1
244,85
39,85
123,85
207,85
240,85
40,85
124,85
208,169
238,169
41,169
125,169
209,169
237,169
42,169
126,169
210,169
236,169
43,169
127,169
211,2
242,2
44,2
128,2
212,2
241,2
45,86
129,86
213,86
239,86
46,86
130,86
214,86
245,86
47,86
131,86
215,86
252,86
48,86
132,86
162,170
216,170
254,170
49,170
133,3
217,3
253,3
50,3
134,3
218,3
265,3
51,87
135,87
219,87
261,87
52,87
136,87
220,87
263,87
53,171
137,171
163,171
221,171
260,171
54,171
138,171
222,171
248,171
55,171
139,171
223,171
257,171
56,171
140,171
224,171
249,4
57,4
141,4
225,4
264,4
58,4
142,4
226,4
262,4
59,4
143,4
227,88
266,88
60,88
144,88
228,88
234,88
61,88
145,88
229,172
233,172
62,5
146,5
232,5
63,5
147,5
231,5
64,5
148,5
235,5
65,5
149,89
255,89
66,173
150,173
230,173
272,298
67,298
151,6
267,6
68,6
152,6
256,6
69,6
153,6
271,6
70,6
154,6
269,6
71,6
155,6
251,6
72,6
156,6
259,90
73,90
157,90
247,90
74,90
158,90
250,174
75,174
159,174
270,174
76,174
160,174
258,174
77,174
161,174
268,174
78,174
246,174
79,174
178,83
178,299
178,87
178,164
178,86
178,93
11,3
11,174
11,80
11,8
11,170
11,7
11,89
11,171
11,88
11,4
11,172
11,92
11,83
281,4
281,81
281,167
184,92
187,166
187,293
187,296
277,90
277,293
277,8
277,177
277,172
277,175
277,299
277,174
116,175
116,4
116,176
116,85
116,166
116,87
116,8
116,169
116,297
116,89
116,293
244,295
244,174
244,89
244,91
39,176
39,4
39,3
39,174
39,175
39,171
39,7
39,86
39,165
39,293
39,80
39,295
39,299
237,165
237,7
237,296
237,80
237,164
237,168
237,167
237,1
237,83
237,90
42,83
42,85
42,297
42,5
42,86
42,4
42,82
42,3
42,298
42,172
42,173
42,92
241,89
241,298
241,83
241,174
241,90
241,3
241,172
241,85
217,177
136,84
136,3
136,294
136,173
136,174
136,7
136,165
136,85
136,2
136,89
136,170
136,86
53,85
53,9
53,168
53,170
53,88
53,6
53,177
53,10
53,172
53,5
53,89
137,93
137,170
137,81
137,10
137,296
137,298
163,5
163,165
163,166
163,6
139,7
139,6
139,9
139,176
257,167
257,87
257,297
257,8
257,85
68,9
68,294
68,173
70,3
70,174
70,87
70,173
70,10
70,85
70,4
154,80
154,298
154,295
154,10
154,3
154,165
154,1
154,93
154,88
154,4
154,90
154,171
154,299
71,5
74,294
74,92
74,169
74,5
74,165
74,88
74,175
