# Number of vertices:
300
# Edge list:
31,0
73,0
241,0
283,0
32,0
74,0
242,0
284,0
33,0
75,0
243,0
285,0
34,0
76,0
244,0
286,0
35,0
77,0
245,0
287,0
36,0
78,0
156,0
246,0
288,0
37,0
79,0
247,0
289,0
38,0
80,0
248,31
290,31
39,31
81,73
249,73
291,73
40,73
82,73
250,73
292,73
41,73
83,73
251,73
293,73
42,73
84,73
252,73
294,73
43,73
85,241
253,241
295,283
44,283
86,283
198,283
254,283
296,283
45,283
87,283
255,283
297,283
46,32
88,32
256,32
298,32
47,74
89,74
257,242
299,242
48,242
90,242
258,242
49,242
91,242
259,242
50,242
92,242
260,242
51,242
93,242
261,284
52,284
94,284
262,284
53,284
95,284
263,284
54,284
96,284
264,284
240,33
55,33
97,33
265,33
56,33
98,33
266,33
57,33
99,33
267,33
58,33
100,75
268,75
59,75
101,75
269,75
60,243
102,243
270,243
61,243
103,243
271,243
62,243
104,243
272,243
63,243
105,243
273,243
64,285
106,285
274,34
65,34
107,34
275,34
66,34
108,34
276,34
67,76
109,76
277,76
68,244
110,244
278,244
69,244
111,244
279,244
70,244
112,244
280,286
71,286
113,286
281,286
72,286
114,286
282,286
115,286
157,35
199,35
116,35
158,35
200,35
117,35
159,35
201,77
118,77
160,77
202,245
119,245
161,245
203,245
120,245
162,245
204,245
121,245
163,245
205,245
122,245
164,245
206,245
123,245
165,245
207,287
124,287
166,287
208,287
125,287
167,287
209,287
126,287
168,287
210,287
1,287
127,287
169,287
211,287
2,287
128,287
170,78
212,78
3,78
129,78
171,156
213,156
4,156
130,156
172,156
214,156
5,156
131,156
173,156
215,156
6,156
132,156
174,246
216,246
7,246
133,246
175,288
217,288
8,79
134,79
176,79
218,79
9,79
135,79
177,79
219,79
10,79
136,247
178,247
220,247
11,247
137,247
179,247
221,247
12,247
138,247
180,247
222,247
13,247
139,247
181,247
223,247
14,247
140,289
182,289
224,289
15,289
141,289
183,289
225,289
16,38
142,38
184,38
226,38
17,38
143,38
185,38
227,38
18,38
144,38
186,38
228,38
19,80
145,80
187,80
229,80
20,80
146,80
188,80
230,248
21,248
147,248
189,248
231,248
22,248
148,290
190,290
232,290
23,290
149,290
191,290
233,290
24,290
150,290
192,290
234,290
25,81
151,81
193,81
235,81
26,81
152,81
194,81
236,81
27,81
153,81
195,81
237,81
28,81
154,81
196,81
238,81
29,249
155,249
197,249
239,249
30,249
290,289
290,283
290,38
290,288
290,35
290,242
290,245
295,247
295,285
295,75
295,35
295,34
295,245
295,74
295,31
295,242
295,241
87,79
87,33
87,247
87,241
87,76
87,74
87,242
87,246
87,37
87,156
87,31
87,32
49,38
49,37
49,31
49,243
49,245
49,79
49,73
49,289
261,246
261,285
261,287
261,73
261,241
261,76
261,77
261,37
261,156
261,75
261,38
261,289
56,284
98,73
98,243
98,80
103,287
274,285
67,78
67,241
67,245
113,80
113,287
113,288
113,76
115,38
115,80
115,289
115,77
115,34
204,77
204,38
204,76
204,287
204,243
204,244
204,34
204,286
204,37
204,247
122,285
122,36
122,32
122,287
122,242
122,286
122,241
122,283
122,80
209,80
209,35
209,34
209,289
209,243
209,77
209,285
209,31
126,283
126,35
126,286
126,156
126,38
126,244
126,243
126,31
126,77
126,79
130,286
130,77
130,243
130,80
130,246
130,285
130,289
130,245
130,78
130,283
130,284
5,73
5,38
5,241
5,37
5,32
136,241
136,288
136,244
136,80
136,31
136,77
136,34
136,38
136,76
136,287
136,75
220,156
220,78
220,76
220,80
220,37
220,36
220,284
220,35
220,243
11,80
11,246
11,242
11,37
11,31
11,79
11,32
11,75
182,283
182,242
182,35
182,245
143,35
19,36
230,58
230,119
230,166
230,65
230,57
190,59
190,252
190,125
192,273
192,127
192,213
192,60
192,259
192,225
234,93
234,107
234,294
234,100
234,158
25,162
25,276
25,168
236,99
236,98
236,54
236,226
236,223
236,67
236,47
236,60
236,183
236,220
236,257
236,295
236,91
239,62
239,88
239,52
239,206
239,255
239,173
239,200
239,110
239,225
30,49
30,131
30,252
30,42
30,119
