# Number of vertices:
300
# Edge list:
19,0
61,0
229,0
271,0
20,0
62,0
230,0
272,0
21,0
63,0
231,0
273,0
22,0
64,0
232,0
274,0
23,0
65,0
233,0
275,0
24,0
66,0
234,0
276,0
25,0
67,0
235,0
277,0
26,0
68,0
236,0
278,0
27,0
69,0
237,0
279,0
28,0
70,0
238,0
280,0
29,0
71,0
239,0
281,0
30,0
72,0
240,0
282,0
31,0
73,0
241,0
283,0
32,0
74,0
242,0
284,0
33,19
75,19
243,19
285,19
34,19
76,19
244,61
286,61
35,61
77,61
245,61
287,61
36,61
78,61
246,61
288,61
37,61
79,61
247,229
289,229
38,229
80,229
248,229
290,271
39,271
81,271
249,271
291,271
40,271
82,271
250,271
292,271
41,271
83,271
251,271
293,20
42,20
84,62
252,62
294,62
43,230
85,230
253,230
295,230
44,230
86,230
254,230
296,230
45,230
87,230
255,230
297,230
46,230
88,230
256,21
298,21
47,21
89,21
257,21
299,21
48,21
90,21
258,21
49,21
91,21
259,21
50,21
92,21
260,21
51,21
93,63
261,63
52,63
94,63
262,63
53,63
95,63
263,231
54,231
96,231
264,231
55,231
97,231
265,231
56,231
98,231
266,231
57,231
99,231
267,231
58,231
100,273
268,273
59,273
101,273
269,273
60,22
102,22
270,22
103,22
145,22
187,64
104,64
146,64
188,64
105,64
147,64
189,64
106,64
148,64
190,64
107,64
149,232
191,232
108,232
150,232
192,232
109,232
151,232
193,232
110,232
152,232
143,232
194,232
111,232
153,274
195,274
112,274
154,274
196,274
113,274
155,274
197,274
114,274
156,274
198,274
115,274
157,274
144,274
199,23
116,23
158,23
200,23
117,23
159,23
201,23
118,23
160,23
202,23
119,23
161,23
203,23
120,65
162,65
204,65
121,65
163,65
185,65
205,65
122,65
164,233
206,233
123,233
165,233
207,233
124,233
166,233
208,233
125,275
167,275
209,275
126,275
168,275
186,275
1,275
210,275
127,275
169,275
211,275
2,275
128,275
170,275
212,275
3,275
129,24
171,24
213,24
227,24
4,66
130,66
172,66
214,66
5,234
131,234
173,234
215,234
6,234
132,234
174,234
216,234
7,276
133,276
175,276
217,276
8,276
134,276
176,276
218,276
228,276
9,276
135,25
177,25
219,25
10,25
136,25
178,25
220,25
11,25
137,25
179,25
221,67
12,67
138,67
180,67
222,67
13,67
139,67
181,67
223,67
14,67
140,67
182,67
224,67
15,235
141,235
183,235
225,235
16,235
142,235
184,235
226,235
17,235
18,235
75,237
75,280
75,72
75,273
75,234
75,30
75,24
75,73
75,278
75,241
37,30
37,276
37,280
37,32
37,229
37,275
37,26
37,281
292,68
292,28
292,71
292,282
292,284
292,72
292,66
292,281
292,273
42,236
42,31
42,238
42,234
42,277
42,276
42,73
42,22
42,279
84,66
84,238
84,237
84,74
84,231
84,236
84,64
84,65
84,240
84,271
84,283
84,279
84,26
259,231
259,28
259,19
259,238
259,281
259,29
259,72
259,66
259,63
259,26
259,69
259,71
52,240
52,25
52,231
54,229
54,281
114,62
185,20
185,31
185,276
126,242
126,24
126,277
126,66
126,68
126,234
126,233
126,67
126,271
126,64
126,22
126,239
126,69
212,23
212,71
212,278
212,31
175,61
175,282
218,22
218,280
218,279
218,68
218,275
218,241
218,74
218,24
218,63
218,239
9,27
9,238
9,236
9,61
9,65
9,240
9,70
9,273
9,29
219,273
219,230
219,236
219,22
219,231
219,237
219,67
219,282
219,235
219,274
10,275
10,232
10,282
10,19
10,21
10,63
10,277
10,67
10,64
10,32
10,236
10,276
137,65
137,271
137,231
137,68
137,19
137,31
137,283
137,272
137,241
137,62
137,69
137,22
12,23
140,29
140,229
140,241
140,73
140,240
