# Number of vertices:
300
# Edge list:
95,0
137,0
179,0
221,0
96,0
138,0
180,0
224,0
97,0
139,0
181,0
223,0
226,0
98,0
140,0
182,0
99,0
141,0
183,0
222,0
100,0
142,0
184,0
232,0
298,0
101,0
143,0
185,0
233,0
239,0
102,0
144,0
186,0
243,0
103,0
145,0
187,0
242,0
104,0
146,0
188,0
248,0
105,0
147,0
189,0
225,0
106,0
148,0
190,0
107,0
149,0
191,0
234,0
240,0
108,95
150,95
192,95
109,95
151,95
193,137
235,179
110,179
152,179
194,179
9,221
236,221
111,221
153,221
195,221
10,221
237,221
247,221
112,221
154,221
196,221
8,221
246,221
113,221
155,221
197,221
5,221
227,96
114,96
156,96
198,96
4,96
115,96
157,96
199,96
3,96
238,96
245,96
116,96
158,96
200,96
7,96
117,96
159,138
201,138
6,138
244,138
118,138
160,138
202,138
119,138
161,180
203,180
252,180
262,180
120,180
162,224
204,224
121,224
163,224
205,97
2,97
250,97
261,97
1,97
122,97
164,97
206,97
251,97
123,139
165,139
207,139
260,139
124,139
166,181
208,181
228,181
125,181
167,181
209,181
229,223
259,223
126,223
168,223
210,223
241,223
127,223
169,223
211,223
253,223
258,223
128,223
170,223
212,223
129,223
171,223
213,226
249,226
257,226
130,226
172,226
214,226
131,226
173,226
215,226
231,226
256,226
132,226
174,98
216,98
230,98
133,98
175,98
217,98
255,98
134,98
176,98
218,98
135,98
177,98
219,98
254,98
136,98
178,98
220,140
11,140
53,140
263,140
299,140
12,182
54,182
264,182
13,182
55,182
265,182
14,182
56,182
266,182
15,182
57,182
267,182
16,182
58,99
268,99
17,99
59,99
269,99
18,99
60,99
270,99
19,99
61,99
271,141
20,141
62,141
272,141
21,141
63,141
273,141
22,141
64,141
274,141
23,141
65,141
275,183
24,183
66,183
276,183
25,183
67,183
277,183
26,183
68,183
278,222
27,222
69,222
279,222
28,222
70,222
280,222
29,222
71,222
281,222
72,222
30,100
282,100
73,100
31,100
283,100
32,100
74,100
284,100
33,100
75,100
285,100
34,100
76,100
286,100
35,100
77,100
287,142
36,142
78,142
288,142
37,142
79,142
289,142
38,142
80,142
290,142
39,142
81,142
291,142
93,142
40,142
82,142
292,184
41,184
83,184
293,184
42,184
84,184
294,184
43,184
85,232
295,232
44,232
86,232
296,232
94,232
45,232
87,232
297,232
46,101
88,101
47,101
89,101
48,101
90,101
49,101
91,101
50,143
92,143
51,185
52,185
108,143
108,182
108,147
108,239
108,187
108,186
108,188
108,185
108,181
108,101
108,224
194,147
194,188
194,180
194,233
194,186
194,189
194,107
194,140
111,223
111,187
111,190
111,242
111,104
111,105
111,186
111,226
200,226
200,221
200,239
200,180
200,101
200,100
200,186
200,233
200,224
200,182
200,141
124,143
124,248
124,240
128,146
128,243
128,96
128,191
128,147
128,298
128,182
131,142
131,298
131,95
131,239
131,187
131,97
131,182
131,143
134,181
134,223
134,102
134,243
134,298
218,146
53,240
53,243
53,225
12,97
12,232
12,144
12,222
12,223
12,185
12,148
12,248
12,145
12,224
18,106
18,149
271,222
271,103
271,182
271,191
271,183
271,96
271,248
271,180
271,224
271,181
271,139
271,98
271,226
275,144
275,298
70,223
30,102
30,146
30,149
30,188
78,145
78,239
78,101
78,186
78,225
78,189
78,224
78,222
78,191
288,97
288,226
288,234
288,223
288,298
288,222
288,242
288,233
288,100
291,143
291,189
291,187
291,106
291,105
291,104
291,145
291,182
291,233
291,221
291,147
85,243
85,222
85,137
85,191
85,102
85,226
85,189
85,97
85,240
85,234
85,181
85,142
85,225
46,188
46,239
46,189
46,104
46,98
46,96
46,147
46,95
46,221
