# Number of vertices:
35
# Edge list:
28,0
7,0
29,0
8,0
30,0
9,0
31,0
10,0
32,0
11,0
33,7
12,29
34,29
13,29
14,29
15,29
16,30
17,30
18,30
19,9
20,9
21,31
1,31
22,31
2,32
23,32
3,11
24,11
4,11
25,11
5,33
26,33
6,33
27,12
26,24
26,12
