# Number of vertices:
35
# Edge list:
17,0
14,0
27,0
8,0
19,17
3,14
22,14
4,14
16,14
6,27
20,8
2,8
18,19
28,19
9,3
5,3
15,3
29,3
30,22
25,22
31,4
24,4
32,4
13,16
7,16
33,16
1,16
10,16
21,16
34,2
26,2
12,2
23,2
11,2
15,4
29,19
29,2
