# Number of vertices:
35
# Edge list:
14,0
28,0
18,0
13,0
30,0
33,0
3,0
2,0
7,0
15,0
8,0
1,0
21,0
16,18
29,18
25,18
11,13
17,30
19,30
34,30
10,33
9,33
6,33
23,3
31,3
12,3
27,3
32,7
22,7
5,15
20,15
26,15
24,15
4,15
16,2
