# Number of vertices:
35
# Edge list:
15,0
32,0
5,0
24,0
2,0
1,0
9,0
19,0
18,0
34,0
30,0
29,15
22,15
26,15
13,15
8,15
27,32
23,32
20,32
17,32
25,32
21,5
12,5
11,5
4,24
10,24
3,24
14,24
6,24
33,24
16,2
7,1
31,9
28,9
20,5
20,34
25,9
21,18
10,18
7,34
7,2
