# Number of vertices:
35
# Edge list:
21,0
1,0
22,0
23,0
2,0
24,0
3,0
25,0
4,0
26,0
5,0
27,0
6,0
28,0
7,21
29,21
8,1
30,1
9,22
31,22
10,22
32,22
11,22
33,22
12,23
34,23
13,2
14,2
15,2
16,3
17,3
18,3
19,3
20,25
34,5
34,21
16,25
17,23
18,27
