# Number of vertices:
35
# Edge list:
31,0
10,0
32,0
11,0
33,0
12,0
34,0
13,0
14,0
15,0
16,0
17,0
18,0
19,31
20,31
21,31
1,10
22,10
2,10
23,10
3,11
24,11
4,11
25,11
5,11
26,11
6,33
27,33
7,12
28,12
8,12
29,12
9,12
30,12
26,13
27,17
