# Number of vertices:
35
# Edge list:
26,0
5,0
27,0
6,26
28,26
7,26
29,5
8,5
30,27
9,27
31,27
10,6
32,28
11,28
33,28
12,28
34,28
13,28
14,7
15,7
16,7
17,7
18,7
19,7
20,29
21,8
1,8
22,8
2,8
23,8
3,30
24,30
4,30
25,30
15,29
17,8
17,31
25,29
