# Number of vertices:
35
# Edge list:
2,0
23,0
3,0
24,0
4,2
25,23
5,3
26,3
6,3
27,3
7,3
28,24
8,24
29,24
9,25
30,25
10,25
31,5
11,5
32,26
12,26
33,26
13,26
34,26
14,6
15,6
16,6
17,6
18,6
19,6
20,27
21,27
1,27
22,27
5,24
11,4
21,26
