# Number of vertices:
35
# Edge list:
17,0
13,0
26,0
31,0
7,0
5,0
20,0
6,0
8,0
9,17
22,13
3,13
23,13
24,26
21,26
27,26
18,26
25,26
11,26
28,31
14,31
12,31
30,31
29,31
33,7
16,7
10,5
19,5
1,5
32,5
34,20
4,20
15,6
2,6
24,5
24,7
16,20
19,26
19,7
1,26
2,13
