# Number of vertices:
35
# Edge list:
17,0
18,0
19,0
20,0
21,0
1,0
22,0
23,0
2,0
24,0
3,0
25,0
4,17
26,17
5,17
27,17
6,17
28,19
7,19
29,20
8,20
30,20
9,20
31,22
10,23
32,23
11,2
33,24
12,24
34,24
13,3
14,3
15,3
16,3
