# Number of vertices:
35
# Edge list:
23,0
2,0
24,0
3,0
25,0
4,0
26,0
5,23
27,23
6,23
28,23
7,2
29,3
8,3
30,3
9,3
31,3
10,3
32,25
11,25
33,25
12,4
34,4
13,5
14,5
15,5
16,27
17,27
18,27
19,6
20,6
21,28
1,28
22,28
12,23
34,2
1,7
