# Number of vertices:
35
# Edge list:
14,0
15,0
16,0
17,0
18,0
19,0
20,0
21,0
1,0
22,0
23,0
2,14
24,14
3,14
25,14
4,14
26,15
5,15
27,17
6,17
28,17
7,17
29,17
8,18
30,18
9,19
31,19
10,19
32,19
11,19
33,19
12,20
34,20
13,21
2,21
2,23
7,15
7,19
34,16
34,14
