# Number of vertices:
35
# Edge list:
12,0
33,0
13,0
34,0
14,0
15,0
16,0
17,0
18,0
19,0
20,0
21,0
1,0
22,12
23,12
2,12
24,12
3,12
25,12
4,33
26,33
5,33
27,33
6,33
28,33
7,13
29,13
8,14
30,14
9,14
31,14
10,15
32,15
11,16
22,34
22,33
26,21
26,15
8,15
8,1
30,12
