# Number of vertices:
35
# Edge list:
21,0
1,0
22,0
2,0
23,0
3,0
24,0
4,0
25,1
5,1
26,1
6,22
27,22
7,22
28,22
8,22
29,2
9,2
30,2
10,2
31,23
11,23
32,23
12,23
33,24
13,24
34,4
14,4
15,25
16,25
17,25
18,25
19,26
20,6
6,21
6,23
29,1
29,3
12,4
12,24
14,2
14,1
