# Number of vertices:
35
# Edge list:
1,0
22,0
23,0
2,1
24,1
3,1
25,1
4,1
26,22
5,22
27,23
6,23
28,23
7,23
29,23
8,2
30,2
9,24
31,24
10,24
32,24
11,25
33,25
12,25
34,25
13,25
14,25
15,4
16,4
17,4
18,26
19,26
20,26
21,26
29,1
29,22
16,7
16,28
21,4
21,3
