# Number of vertices:
45
# Edge list:
8,0
29,0
9,8
30,8
10,8
31,8
11,9
32,9
12,9
33,9
13,9
34,9
14,30
35,30
15,30
36,30
16,30
37,10
17,10
38,10
18,10
39,10
19,10
40,11
20,11
41,11
21,11
42,11
1,12
22,12
43,12
23,12
2,33
44,33
24,33
3,33
25,33
4,33
26,34
5,14
27,14
6,14
28,14
7,14
14,9
1,13
23,33
23,36
