# Number of vertices:
45
# Edge list:
35,0
14,0
7,0
36,0
15,0
37,0
16,0
11,0
38,0
17,0
8,35
39,35
18,35
2,35
40,35
19,35
5,14
12,14
41,14
20,14
42,7
21,7
3,7
13,7
43,36
22,36
10,36
44,36
23,36
24,15
1,15
25,37
9,16
26,16
4,16
27,16
28,16
29,16
30,16
31,11
32,11
6,11
33,11
34,11
39,36
13,17
13,11
13,37
22,17
22,14
25,35
25,36
9,15
30,14
