# Number of vertices:
45
# Edge list:
18,0
39,0
19,0
40,0
20,0
41,0
21,0
42,0
1,0
22,0
43,0
23,0
2,0
44,0
24,18
3,18
25,39
4,40
26,40
5,20
27,21
6,21
28,21
7,21
29,42
8,42
30,42
9,42
31,42
10,42
32,1
11,1
33,1
12,1
34,1
13,1
35,1
14,22
36,22
15,22
37,22
16,22
38,22
17,43
25,44
8,18
8,41
37,1
16,42
16,41
16,19
