# Number of vertices:
45
# Edge list:
8,0
29,0
9,0
30,0
10,0
31,0
11,0
32,0
12,0
33,0
13,0
34,0
14,0
35,0
15,0
36,0
16,8
37,8
17,8
38,8
18,29
39,29
19,29
40,29
20,29
41,29
21,29
42,9
1,9
22,9
43,9
23,9
2,9
44,30
24,30
3,30
25,30
4,30
26,30
5,10
27,10
6,10
28,10
7,11
41,13
43,30
