# Number of vertices:
45
# Edge list:
23,0
2,0
44,0
24,0
3,23
25,2
4,2
26,44
5,44
27,44
6,44
28,3
7,3
29,3
8,3
30,3
9,25
31,25
10,25
32,25
11,25
33,4
12,4
34,4
13,4
35,4
14,4
36,26
15,26
37,26
16,26
38,26
17,5
39,27
18,27
40,6
19,6
41,6
20,6
42,6
21,28
1,28
43,28
22,28
6,2
6,23
30,6
14,27
15,25
21,14
