# Number of vertices:
45
# Edge list:
24,0
22,0
30,0
39,0
32,0
19,24
5,24
40,22
38,22
6,22
41,22
31,22
36,30
35,30
1,30
34,30
43,30
8,30
33,30
4,39
29,39
37,39
28,39
27,39
44,39
26,39
25,32
20,19
21,19
3,19
42,19
18,19
2,5
23,5
12,5
14,5
7,5
13,5
11,5
10,40
9,40
17,40
15,40
16,40
35,24
35,22
42,27
2,19
23,6
