# Number of vertices:
45
# Edge list:
12,0
33,0
13,33
34,33
14,33
35,13
15,34
36,34
16,14
37,14
17,14
38,14
18,14
39,14
19,14
40,15
20,15
41,15
21,15
42,15
1,36
22,16
43,16
23,16
2,16
44,16
24,37
3,37
25,17
4,17
26,17
5,17
27,17
6,17
28,17
7,38
29,38
8,38
30,38
9,38
31,38
10,18
32,18
11,18
17,13
31,36
