# Number of vertices:
45
# Edge list:
1,0
22,0
43,0
23,0
2,0
44,1
24,1
3,1
25,1
4,1
26,1
5,22
27,22
6,22
28,22
7,22
29,43
8,43
30,23
9,23
31,23
10,23
32,23
11,2
33,2
12,2
34,2
13,44
35,44
14,44
36,3
15,3
37,3
16,25
38,25
17,25
39,4
18,26
40,26
19,26
41,5
20,5
42,5
21,5
19,4
