# Number of vertices:
45
# Edge list:
12,0
19,0
28,19
5,19
4,19
43,19
33,19
20,28
36,5
22,4
9,4
3,4
27,4
44,4
16,4
2,4
8,43
7,43
42,43
13,43
21,33
17,33
24,33
29,33
30,33
40,20
31,20
10,20
32,20
6,9
35,9
1,9
26,9
39,3
34,27
38,27
37,44
14,44
25,44
15,44
11,16
41,16
23,16
18,16
24,4
24,43
35,3
