# Number of vertices:
45
# Edge list:
5,0
10,0
14,0
15,0
41,0
8,0
24,0
40,0
17,0
13,0
26,14
37,14
9,14
3,14
20,15
22,15
23,15
35,15
34,15
27,15
21,15
32,41
16,8
4,8
43,8
6,8
2,8
29,24
19,24
28,24
18,24
1,24
33,24
12,40
7,17
25,17
42,17
44,13
36,13
11,13
31,26
30,26
39,26
38,37
7,10
36,5
