# Number of vertices:
45
# Edge list:
43,0
24,0
18,0
37,0
26,0
7,0
32,0
36,0
25,0
9,0
21,43
11,43
39,24
28,24
42,24
23,24
30,24
44,24
22,18
2,37
35,26
10,26
41,26
14,26
20,26
17,7
1,7
8,7
13,7
6,7
27,7
16,7
40,32
12,32
31,32
34,32
19,36
5,25
38,25
4,25
15,21
3,11
33,39
29,28
42,43
2,7
17,9
19,9
