# Number of vertices:
45
# Edge list:
1,0
22,0
23,0
2,0
24,0
3,1
25,22
4,23
26,2
5,24
27,24
44,24
6,24
28,24
7,3
29,25
8,25
30,25
9,4
31,4
10,4
32,4
11,4
33,4
12,4
34,26
13,26
35,26
14,26
36,26
15,5
37,5
16,5
38,5
17,5
39,5
18,27
40,27
19,27
41,27
20,27
43,27
42,27
21,44
44,2
28,22
28,2
29,26
