# Number of vertices:
45
# Edge list:
4,0
36,0
39,0
32,0
38,0
34,0
5,0
22,0
26,0
15,4
21,4
16,4
33,4
35,4
14,36
13,36
12,36
3,36
37,36
2,39
41,39
42,39
1,39
11,32
40,32
10,32
9,32
8,32
7,38
25,38
6,38
44,38
24,38
23,38
31,34
30,34
43,34
29,34
28,5
27,5
20,5
19,22
18,22
17,22
42,5
42,4
42,34
7,4
7,5
28,39
28,32
28,38
27,22
27,4
27,32
