# Number of vertices:
45
# Edge list:
3,0
24,0
44,0
4,0
25,0
5,0
26,0
6,0
27,3
7,3
28,3
8,3
29,3
9,24
30,24
10,24
31,24
11,24
32,24
12,24
33,44
13,44
34,4
14,25
35,25
15,5
36,5
16,26
37,26
17,26
38,26
18,26
39,26
19,27
40,27
20,27
41,7
21,7
42,7
1,7
22,8
43,8
23,29
2,29
36,3
16,6
