# Number of vertices:
45
# Edge list:
11,0
39,0
18,0
43,0
12,0
10,0
41,0
1,0
13,0
23,0
34,0
30,0
6,11
29,39
7,39
44,39
19,39
16,39
21,18
25,18
33,10
9,41
8,41
4,41
22,41
36,41
17,1
31,1
32,1
3,1
15,1
2,1
28,1
40,13
26,13
5,13
24,13
14,13
38,13
42,23
37,34
27,34
20,34
35,34
9,23
