# Number of vertices:
45
# Edge list:
25,0
4,0
26,0
5,0
27,0
6,0
28,0
7,0
29,0
8,0
30,0
9,0
31,0
10,0
32,25
11,25
44,25
33,25
12,25
34,4
13,4
35,5
14,5
36,5
15,5
37,27
16,6
38,7
17,7
39,7
18,7
40,29
19,29
41,29
20,29
42,29
21,8
1,8
43,8
22,8
2,8
23,8
3,8
24,9
18,8
18,30
18,26
