# Number of vertices:
45
# Edge list:
16,0
40,0
5,0
43,0
12,0
8,0
14,0
22,0
2,0
32,0
4,0
39,0
24,0
28,0
21,0
1,0
20,16
13,16
9,16
33,16
44,16
19,16
17,16
15,40
42,40
18,40
36,40
30,40
35,40
3,40
29,43
10,43
38,12
37,12
25,8
41,14
27,14
23,14
7,14
26,14
34,14
31,22
11,2
6,2
13,21
44,12
44,28
44,21
3,43
3,8
