# Number of vertices:
45
# Edge list:
36,0
15,0
37,0
16,0
38,0
17,0
39,15
18,15
40,15
19,15
41,15
20,15
42,15
21,37
1,37
43,37
22,37
2,37
44,37
23,37
3,16
24,17
4,17
25,17
5,17
26,39
6,39
27,39
7,39
28,39
8,39
29,18
9,18
30,18
10,18
31,18
11,18
32,40
12,40
33,40
13,40
34,40
14,40
35,19
4,36
