# Number of vertices:
45
# Edge list:
35,0
29,0
21,0
6,0
40,0
28,0
31,0
33,0
42,0
32,0
1,0
19,0
3,35
11,35
41,35
18,35
37,35
27,29
34,21
5,6
38,6
44,6
7,6
12,6
43,40
2,28
10,28
9,28
39,28
15,28
13,28
17,28
26,31
25,31
36,31
8,31
30,31
22,33
14,33
4,33
20,33
23,33
24,33
16,42
3,40
3,1
3,33
44,21
44,1
44,40
22,28
