# Number of vertices:
45
# Edge list:
41,0
20,0
42,0
21,0
1,0
43,0
22,0
2,0
44,0
23,0
3,0
24,41
4,41
25,41
5,41
26,41
6,20
27,20
7,20
28,20
8,20
29,20
9,42
30,42
10,42
31,43
11,43
32,43
12,43
33,43
13,2
34,44
14,44
35,44
15,44
36,44
16,23
37,23
17,23
38,23
18,23
39,3
19,3
40,3
27,1
27,42
28,42
28,41
15,2
15,41
