# Number of vertices:
45
# Edge list:
17,0
38,0
18,0
39,0
19,0
40,17
20,17
41,17
21,38
42,38
1,38
22,38
43,38
23,18
2,18
44,39
24,39
3,39
25,40
4,40
26,40
5,40
27,40
6,40
28,40
7,20
29,20
8,41
30,41
9,21
31,21
10,21
32,21
11,21
33,21
12,1
34,1
13,1
35,22
14,22
36,22
15,22
37,22
16,43
20,38
20,39
20,19
23,39
5,3
5,44
29,2
29,21
29,22
10,1
10,42
12,3
13,41
