# Number of vertices:
45
# Edge list:
41,0
20,0
42,0
21,41
1,41
43,41
22,41
2,41
44,41
23,41
3,20
24,20
4,21
25,1
5,1
26,1
6,43
27,43
7,43
28,43
8,43
29,22
9,22
30,44
10,44
31,44
11,44
32,44
12,44
33,3
13,3
34,3
14,3
35,3
15,24
36,24
16,24
37,4
17,4
38,4
18,4
39,4
19,25
40,25
25,22
25,21
31,24
31,43
32,23
32,3
