# Number of vertices:
45
# Edge list:
5,0
26,0
6,0
27,0
7,0
28,0
8,0
29,0
9,0
30,0
10,0
31,0
11,0
32,5
12,5
33,5
13,5
34,5
14,5
35,6
15,6
36,6
16,6
37,27
17,27
38,27
18,27
39,7
19,7
40,7
20,7
41,28
21,28
42,28
1,8
22,8
43,8
23,29
2,29
44,29
24,29
3,30
25,30
4,30
13,8
13,6
13,30
16,7
19,30
20,28
20,30
20,5
4,26
