# Number of vertices:
45
# Edge list:
37,0
28,0
18,0
26,0
32,0
23,0
10,0
22,37
17,37
19,37
24,37
25,28
20,28
1,28
21,28
3,18
36,26
2,26
16,26
35,26
15,32
8,32
34,32
33,32
7,23
41,23
13,23
6,23
40,23
5,23
39,23
38,10
14,10
44,10
43,10
4,10
42,22
31,17
9,17
30,17
29,17
12,17
27,17
11,17
20,18
20,37
20,26
5,26
