# Number of vertices:
45
# Edge list:
8,0
42,0
16,0
15,8
11,8
36,8
3,42
32,42
17,16
13,16
5,15
20,15
27,15
37,15
25,15
31,15
23,15
1,11
10,11
28,11
41,36
40,36
9,36
2,3
29,3
24,3
30,3
12,3
7,32
22,32
6,32
26,32
18,32
39,17
14,17
19,17
35,17
34,17
33,17
4,20
38,20
43,20
44,20
21,20
15,16
3,8
27,3
23,13
23,3
1,32
1,13
26,15
26,17
26,3
4,25
4,23
4,22
