digraph G {
    0 [penwidth=3,label="B27"]
    1 [penwidth=3,label="B4"]
    2 [penwidth=3,label="B30"]
    3 [penwidth=3,label="B17"]
    4 [penwidth=3,label="B40"]
    5 [penwidth=3,label="B41"]
    6 [penwidth=3,label="B53"]
    7 [penwidth=3,label="B52"]
    8 [penwidth=3,label="B39"]
    9 [penwidth=3,label="B51"]
    10 [penwidth=3,label="B63"]
    11 [penwidth=3,label="B64"]
    12 [penwidth=3,label="B65"]
    13 [penwidth=3,label="B11"]
    14 [penwidth=3,label="B73"]
    15 [penwidth=3,label="B72"]
    16 [penwidth=3,label="B79"]
    17 [penwidth=3,label="B83"]
    18 [penwidth=3,label="B82"]
    19 [penwidth=3,label="B90"]
    20 [penwidth=3,label="B89"]
    21 [penwidth=3,label="B94"]
    22 [penwidth=3,label="B101"]
    23 [penwidth=3,label="B102"]
    24 [penwidth=3,label="B112"]
    25 [penwidth=3,label="B118"]
    26 [penwidth=3,label="B135"]
    27 [penwidth=3,label="B10"]
    28 [penwidth=3,label="B2"]
    29 [penwidth=3,label="B155"]
    30 [penwidth=3,label="B182"]
    31 [penwidth=3,label="B197"]
    32 [penwidth=3,label="B215"]
    33 [penwidth=3,label="B216"]
    34 [penwidth=3,label="B235"]
    35 [penwidth=3,label="B234"]
    36 [penwidth=3,label="B244"]
    37 [penwidth=3,label="B243"]
    38 [penwidth=3,label="B245"]
    39 [penwidth=3,label="B246"]
    40 [penwidth=3,label="B482"]
    41 [penwidth=3,label="B481"]
    42 [penwidth=3,label="B480"]
    43 [penwidth=3,label="B3"]
    44 [penwidth=3,label="B483"]
    45 [penwidth=3,label="B489"]
    46 [penwidth=3,label="B488"]
    47 [penwidth=3,label="B493"]
    48 [penwidth=3,label="B492"]
    49 [penwidth=3,label="B6"]
    50 [penwidth=3,label="B495"]
    51 [penwidth=3,label="B494"]
    52 [penwidth=3,label="B499"]
    53 [penwidth=3,label="B498"]
    54 [penwidth=3,label="B26"]
    55 [penwidth=3,label="B54"]
    56 [penwidth=3,label="B66"]
    57 [penwidth=3,label="B13"]
    58 [penwidth=3,label="B14"]
    59 [penwidth=3,label="B74"]
    60 [penwidth=3,label="B80"]
    61 [penwidth=3,label="B81"]
    62 [penwidth=3,label="B84"]
    63 [penwidth=3,label="B87"]
    64 [penwidth=3,label="B86"]
    65 [penwidth=3,label="B85"]
    66 [penwidth=3,label="B359"]
    67 [penwidth=3,label="B358"]
    68 [penwidth=3,label="B361"]
    69 [penwidth=3,label="B360"]
    70 [penwidth=3,label="B88"]
    71 [penwidth=3,label="B93"]
    72 [penwidth=3,label="B92"]
    73 [penwidth=3,label="B91"]
    74 [penwidth=3,label="B20"]
    75 [penwidth=3,label="B484"]
    76 [penwidth=3,label="B485"]
    77 [penwidth=3,label="B486"]
    78 [penwidth=3,label="B158"]
    79 [penwidth=3,label="B157"]
    80 [penwidth=3,label="B156"]
    81 [penwidth=3,label="B487"]
    82 [penwidth=3,label="B491"]
    83 [penwidth=3,label="B490"]
    84 [penwidth=3,label="B25"]
    85 [penwidth=3,label="B16"]
    86 [penwidth=3,label="B21"]
    87 [penwidth=3,label="B500"]
    88 [penwidth=3,label="B497"]
    89 [penwidth=3,label="B496"]
    90 [penwidth=3,label="B236"]
    91 [penwidth=3,label="B247"]
    92 [penwidth=3,label="B268"]
    93 [penwidth=3,label="B267"]
    94 [penwidth=3,label="B270"]
    95 [penwidth=3,label="B269"]
    96 [penwidth=3,label="B273"]
    97 [penwidth=3,label="B272"]
    98 [penwidth=3,label="B271"]
    99 [penwidth=3,label="B280"]
    100 [penwidth=3,label="B279"]
    101 [penwidth=3,label="B289"]
    102 [penwidth=3,label="B288"]
    103 [penwidth=3,label="B290"]
    104 [penwidth=3,label="B299"]
    105 [penwidth=3,label="B303"]
    106 [penwidth=3,label="B302"]
    107 [penwidth=3,label="B301"]
    108 [penwidth=3,label="B5"]
    109 [penwidth=3,label="B266"]
    110 [penwidth=3,label="B278"]
    111 [penwidth=3,label="B277"]
    112 [penwidth=3,label="B286"]
    113 [penwidth=3,label="B287"]
    114 [penwidth=3,label="B292"]
    115 [penwidth=3,label="B293"]
    116 [penwidth=3,label="B7"]
    117 [penwidth=3,label="B298"]
    118 [penwidth=3,label="B297"]
    119 [penwidth=3,label="B300"]
    120 [penwidth=3,label="B316"]
    121 [penwidth=3,label="B315"]
    122 [penwidth=3,label="B324"]
    123 [penwidth=3,label="B323"]
    124 [penwidth=3,label="B331"]
    125 [penwidth=3,label="B330"]
    126 [penwidth=3,label="B337"]
    127 [penwidth=3,label="B336"]
    128 [penwidth=3,label="B342"]
    129 [penwidth=3,label="B341"]
    130 [penwidth=3,label="B340"]
    131 [penwidth=3,label="B352"]
    132 [penwidth=3,label="B38"]
    133 [penwidth=3,label="B50"]
    134 [penwidth=3,label="B62"]
    135 [penwidth=3,label="B8"]
    136 [penwidth=3,label="B71"]
    137 [penwidth=3,label="B46"]
    138 [penwidth=3,label="B47"]
    139 [penwidth=3,label="B22"]
    140 [penwidth=3,label="B60"]
    141 [penwidth=3,label="B48"]
    142 [penwidth=3,label="B49"]
    143 [penwidth=3,label="B61"]
    144 [penwidth=3,label="B70"]
    145 [penwidth=3,label="B18"]
    146 [penwidth=3,label="B78"]
    147 [penwidth=3,label="B190"]
    148 [penwidth=3,label="B189"]
    149 [penwidth=3,label="B212"]
    150 [penwidth=3,label="B211"]
    151 [penwidth=3,label="B214"]
    152 [penwidth=3,label="B213"]
    153 [penwidth=3,label="B357"]
    154 [penwidth=3,label="B356"]
    155 [penwidth=3,label="B355"]
    156 [penwidth=3,label="B328"]
    157 [penwidth=3,label="B329"]
    158 [penwidth=3,label="B332"]
    159 [penwidth=3,label="B344"]
    160 [penwidth=3,label="B343"]
    161 [penwidth=3,label="B12"]
    162 [penwidth=3,label="B354"]
    163 [penwidth=3,label="B353"]
    164 [penwidth=3,label="B460"]
    165 [penwidth=3,label="B461"]
    166 [penwidth=3,label="B464"]
    167 [penwidth=3,label="B462"]
    168 [penwidth=3,label="B463"]
    169 [penwidth=3,label="B466"]
    170 [penwidth=3,label="B465"]
    171 [penwidth=3,label="B345"]
    172 [penwidth=3,label="B348"]
    173 [penwidth=3,label="B347"]
    174 [penwidth=3,label="B346"]
    175 [penwidth=3,label="B335"]
    176 [penwidth=3,label="B334"]
    177 [penwidth=3,label="B333"]
    178 [penwidth=3,label="B339"]
    179 [penwidth=3,label="B338"]
    180 [penwidth=3,label="B349"]
    181 [penwidth=3,label="B351"]
    182 [penwidth=3,label="B350"]
    183 [penwidth=3,label="B322"]
    184 [penwidth=3,label="B231"]
    185 [penwidth=3,label="B230"]
    186 [penwidth=3,label="B241"]
    187 [penwidth=3,label="B242"]
    188 [penwidth=3,label="B255"]
    189 [penwidth=3,label="B254"]
    190 [penwidth=3,label="B253"]
    191 [penwidth=3,label="B263"]
    192 [penwidth=3,label="B262"]
    193 [penwidth=3,label="B232"]
    194 [penwidth=3,label="B24"]
    195 [penwidth=3,label="B233"]
    196 [penwidth=3,label="B256"]
    197 [penwidth=3,label="B257"]
    198 [penwidth=3,label="B265"]
    199 [penwidth=3,label="B275"]
    200 [penwidth=3,label="B276"]
    201 [penwidth=3,label="B264"]
    202 [penwidth=3,label="B274"]
    203 [penwidth=3,label="B282"]
    204 [penwidth=3,label="B281"]
    205 [penwidth=3,label="B115"]
    206 [penwidth=3,label="B114"]
    207 [penwidth=3,label="B129"]
    208 [penwidth=3,label="B142"]
    209 [penwidth=3,label="B143"]
    210 [penwidth=3,label="B171"]
    211 [penwidth=3,label="B173"]
    212 [penwidth=3,label="B172"]
    213 [penwidth=3,label="B144"]
    214 [penwidth=3,label="B174"]
    215 [penwidth=3,label="B175"]
    216 [penwidth=3,label="B130"]
    217 [penwidth=3,label="B146"]
    218 [penwidth=3,label="B145"]
    219 [penwidth=3,label="B177"]
    220 [penwidth=3,label="B176"]
    221 [penwidth=3,label="B284"]
    222 [penwidth=3,label="B285"]
    223 [penwidth=3,label="B283"]
    224 [penwidth=3,label="B291"]
    225 [penwidth=3,label="B296"]
    226 [penwidth=3,label="B294"]
    227 [penwidth=3,label="B295"]
    228 [penwidth=3,label="B312"]
    229 [penwidth=3,label="B313"]
    230 [penwidth=3,label="B314"]
    231 [penwidth=3,label="B321"]
    232 [penwidth=3,label="B320"]
    233 [penwidth=3,label="B319"]
    234 [penwidth=3,label="B1"]
    235 [penwidth=3,label="B309"]
    236 [penwidth=3,label="B308"]
    237 [penwidth=3,label="B307"]
    238 [penwidth=3,label="B310"]
    239 [penwidth=3,label="B311"]
    240 [penwidth=3,label="B318"]
    241 [penwidth=3,label="B327"]
    242 [penwidth=3,label="B326"]
    243 [penwidth=3,label="B325"]
    244 [penwidth=3,label="B306"]
    245 [penwidth=3,label="B304"]
    246 [penwidth=3,label="B305"]
    247 [penwidth=3,label="B317"]
    248 [penwidth=3,label="B363"]
    249 [penwidth=3,label="B362"]
    250 [penwidth=3,label="B365"]
    251 [penwidth=3,label="B366"]
    252 [penwidth=3,label="B364"]
    253 [penwidth=3,label="B367"]
    254 [penwidth=3,label="B368"]
    255 [penwidth=3,label="B32"]
    256 [penwidth=3,label="B35"]
    257 [penwidth=3,label="B34"]
    258 [penwidth=3,label="B36"]
    259 [penwidth=3,label="B37"]
    260 [penwidth=3,label="B45"]
    261 [penwidth=3,label="B44"]
    262 [penwidth=3,label="B58"]
    263 [penwidth=3,label="B57"]
    264 [penwidth=3,label="B56"]
    265 [penwidth=3,label="B59"]
    266 [penwidth=3,label="B369"]
    267 [penwidth=3,label="B371"]
    268 [penwidth=3,label="B409"]
    269 [penwidth=3,label="B410"]
    270 [penwidth=3,label="B411"]
    271 [penwidth=3,label="B372"]
    272 [penwidth=3,label="B377"]
    273 [penwidth=3,label="B376"]
    274 [penwidth=3,label="B379"]
    275 [penwidth=3,label="B378"]
    276 [penwidth=3,label="B370"]
    277 [penwidth=3,label="B373"]
    278 [penwidth=3,label="B385"]
    279 [penwidth=3,label="B384"]
    280 [penwidth=3,label="B386"]
    281 [penwidth=3,label="B394"]
    282 [penwidth=3,label="B393"]
    283 [penwidth=3,label="B392"]
    284 [penwidth=3,label="B391"]
    285 [penwidth=3,label="B375"]
    286 [penwidth=3,label="B374"]
    287 [penwidth=3,label="B383"]
    288 [penwidth=3,label="B381"]
    289 [penwidth=3,label="B382"]
    290 [penwidth=3,label="B390"]
    291 [penwidth=3,label="B389"]
    292 [penwidth=3,label="B397"]
    293 [penwidth=3,label="B402"]
    294 [penwidth=3,label="B401"]
    295 [penwidth=3,label="B400"]
    296 [penwidth=3,label="B399"]
    297 [penwidth=3,label="B398"]
    298 [penwidth=3,label="B404"]
    299 [penwidth=3,label="B403"]
    300 [penwidth=3,label="B405"]
    301 [penwidth=3,label="B19"]
    302 [penwidth=3,label="B380"]
    303 [penwidth=3,label="B388"]
    304 [penwidth=3,label="B387"]
    305 [penwidth=3,label="B395"]
    306 [penwidth=3,label="B396"]
    307 [penwidth=3,label="B467"]
    308 [penwidth=3,label="B23"]
    309 [penwidth=3,label="B164"]
    310 [penwidth=3,label="B163"]
    311 [penwidth=3,label="B259"]
    312 [penwidth=3,label="B258"]
    313 [penwidth=3,label="B133"]
    314 [penwidth=3,label="B134"]
    315 [penwidth=3,label="B154"]
    316 [penwidth=3,label="B178"]
    317 [penwidth=3,label="B179"]
    318 [penwidth=3,label="B427"]
    319 [penwidth=3,label="B428"]
    320 [penwidth=3,label="B426"]
    321 [penwidth=3,label="B429"]
    322 [penwidth=3,label="B9"]
    323 [penwidth=3,label="B431"]
    324 [penwidth=3,label="B430"]
    325 [penwidth=3,label="B433"]
    326 [penwidth=3,label="B432"]
    327 [penwidth=3,label="B438"]
    328 [penwidth=3,label="B439"]
    329 [penwidth=3,label="B437"]
    330 [penwidth=3,label="B441"]
    331 [penwidth=3,label="B442"]
    332 [penwidth=3,label="B450"]
    333 [penwidth=3,label="B449"]
    334 [penwidth=3,label="B454"]
    335 [penwidth=3,label="B455"]
    336 [penwidth=3,label="B456"]
    337 [penwidth=3,label="B458"]
    338 [penwidth=3,label="B459"]
    339 [penwidth=3,label="B457"]
    340 [penwidth=3,label="B434"]
    341 [penwidth=3,label="B436"]
    342 [penwidth=3,label="B435"]
    343 [penwidth=3,label="B440"]
    344 [penwidth=3,label="B443"]
    345 [penwidth=3,label="B444"]
    346 [penwidth=3,label="B447"]
    347 [penwidth=3,label="B448"]
    348 [penwidth=3,label="B453"]
    349 [penwidth=3,label="B452"]
    350 [penwidth=3,label="B451"]
    351 [penwidth=3,label="B445"]
    352 [penwidth=3,label="B446"]
    353 [penwidth=3,label="B192"]
    354 [penwidth=3,label="B191"]
    355 [penwidth=3,label="B193"]
    356 [penwidth=3,label="B180"]
    357 [penwidth=3,label="B181"]
    358 [penwidth=3,label="B194"]
    359 [penwidth=3,label="B195"]
    360 [penwidth=3,label="B196"]
    361 [penwidth=3,label="B151"]
    362 [penwidth=3,label="B153"]
    363 [penwidth=3,label="B152"]
    364 [penwidth=3,label="B119"]
    365 [penwidth=3,label="B120"]
    366 [penwidth=3,label="B15"]
    367 [penwidth=3,label="B136"]
    368 [penwidth=3,label="B137"]
    369 [penwidth=3,label="B138"]
    370 [penwidth=3,label="B160"]
    371 [penwidth=3,label="B159"]
    372 [penwidth=3,label="B201"]
    373 [penwidth=3,label="B200"]
    374 [penwidth=3,label="B199"]
    375 [penwidth=3,label="B221"]
    376 [penwidth=3,label="B218"]
    377 [penwidth=3,label="B219"]
    378 [penwidth=3,label="B220"]
    379 [penwidth=3,label="B198"]
    380 [penwidth=3,label="B217"]
    381 [penwidth=3,label="B237"]
    382 [penwidth=3,label="B251"]
    383 [penwidth=3,label="B250"]
    384 [penwidth=3,label="B249"]
    385 [penwidth=3,label="B248"]
    386 [penwidth=3,label="B122"]
    387 [penwidth=3,label="B121"]
    388 [penwidth=3,label="B139"]
    389 [penwidth=3,label="B161"]
    390 [penwidth=3,label="B162"]
    391 [penwidth=3,label="B140"]
    392 [penwidth=3,label="B166"]
    393 [penwidth=3,label="B165"]
    394 [penwidth=3,label="B183"]
    395 [penwidth=3,label="B184"]
    396 [penwidth=3,label="B202"]
    397 [penwidth=3,label="B223"]
    398 [penwidth=3,label="B222"]
    399 [penwidth=3,label="B225"]
    400 [penwidth=3,label="B224"]
    401 [penwidth=3,label="B226"]
    402 [penwidth=3,label="B227"]
    403 [penwidth=3,label="B239"]
    404 [penwidth=3,label="B238"]
    405 [penwidth=3,label="B240"]
    406 [penwidth=3,label="B252"]
    407 [penwidth=3,label="B260"]
    408 [penwidth=3,label="B261"]
    409 [penwidth=3,label="B186"]
    410 [penwidth=3,label="B185"]
    411 [penwidth=3,label="B168"]
    412 [penwidth=3,label="B167"]
    413 [penwidth=3,label="B169"]
    414 [penwidth=3,label="B187"]
    415 [penwidth=3,label="B203"]
    416 [penwidth=3,label="B204"]
    417 [penwidth=3,label="B205"]
    418 [penwidth=3,label="B105"]
    419 [penwidth=3,label="B104"]
    420 [penwidth=3,label="B419"]
    421 [penwidth=3,label="B418"]
    422 [penwidth=3,label="B420"]
    423 [penwidth=3,label="B412"]
    424 [penwidth=3,label="B413"]
    425 [penwidth=3,label="B414"]
    426 [penwidth=3,label="B422"]
    427 [penwidth=3,label="B421"]
    428 [penwidth=3,label="B424"]
    429 [penwidth=3,label="B423"]
    430 [penwidth=3,label="B425"]
    431 [penwidth=3,label="B417"]
    432 [penwidth=3,label="B416"]
    433 [penwidth=3,label="B415"]
    434 [penwidth=3,label="B99"]
    435 [penwidth=3,label="B98"]
    436 [penwidth=3,label="B97"]
    437 [penwidth=3,label="B100"]
    438 [penwidth=3,label="B103"]
    439 [penwidth=3,label="B106"]
    440 [penwidth=3,label="B113"]
    441 [penwidth=3,label="B124"]
    442 [penwidth=3,label="B125"]
    443 [penwidth=3,label="B123"]
    444 [penwidth=3,label="B141"]
    445 [penwidth=3,label="B170"]
    446 [penwidth=3,label="B188"]
    447 [penwidth=3,label="B210"]
    448 [penwidth=3,label="B209"]
    449 [penwidth=3,label="B208"]
    450 [penwidth=3,label="B206"]
    451 [penwidth=3,label="B207"]
    452 [penwidth=3,label="B229"]
    453 [penwidth=3,label="B228"]
    454 [penwidth=3,label="B127"]
    455 [penwidth=3,label="B126"]
    456 [penwidth=3,label="B128"]
    457 [penwidth=3,label="B109"]
    458 [penwidth=3,label="B111"]
    459 [penwidth=3,label="B110"]
    460 [penwidth=3,label="B108"]
    461 [penwidth=3,label="B107"]
    462 [penwidth=3,label="B117"]
    463 [penwidth=3,label="B116"]
    464 [penwidth=3,label="B132"]
    465 [penwidth=3,label="B131"]
    466 [penwidth=3,label="B147"]
    467 [penwidth=3,label="B150"]
    468 [penwidth=3,label="B149"]
    469 [penwidth=3,label="B148"]
    470 [penwidth=3,label="B408"]
    471 [penwidth=3,label="B407"]
    472 [penwidth=3,label="B406"]
    473 [penwidth=3,label="B96"]
    474 [penwidth=3,label="B95"]
    475 [penwidth=3,label="B468"]
    476 [penwidth=3,label="B469"]
    477 [penwidth=3,label="B474"]
    478 [penwidth=3,label="B473"]
    479 [penwidth=3,label="B476"]
    480 [penwidth=3,label="B475"]
    481 [penwidth=3,label="B477"]
    482 [penwidth=3,label="B479"]
    483 [penwidth=3,label="B478"]
    484 [penwidth=3,label="B471"]
    485 [penwidth=3,label="B470"]
    486 [penwidth=3,label="B472"]
    487 [penwidth=3,label="B29"]
    488 [penwidth=3,label="B28"]
    489 [penwidth=3,label="B31"]
    490 [penwidth=3,label="B33"]
    491 [penwidth=3,label="B42"]
    492 [penwidth=3,label="B43"]
    493 [penwidth=3,label="B55"]
    494 [penwidth=3,label="B67"]
    495 [penwidth=3,label="B69"]
    496 [penwidth=3,label="B68"]
    497 [penwidth=3,label="B77"]
    498 [penwidth=3,label="B76"]
    499 [penwidth=3,label="B75"]
    500 [penwidth=3,label="root"]
    501 [penwidth=3,label="G18"]
    502 [penwidth=3,label="G20"]
    503 [penwidth=3,label="G26"]
    504 [penwidth=3,label="G33"]
    505 [penwidth=3,label="G40"]
    506 [penwidth=3,label="G45"]
    507 [penwidth=3,label="G25"]
    508 [penwidth=3,label="G16"]
    509 [penwidth=3,label="G17"]
    510 [penwidth=3,label="G19"]
    511 [penwidth=3,label="G23"]
    512 [penwidth=3,label="G31"]
    513 [penwidth=3,label="G38"]
    514 [penwidth=3,label="G43"]
    515 [penwidth=3,label="G253"]
    516 [penwidth=3,label="G254"]
    517 [penwidth=3,label="G255"]
    518 [penwidth=3,label="G256"]
    519 [penwidth=3,label="G257"]
    520 [penwidth=3,label="G258"]
    521 [penwidth=3,label="G46"]
    522 [penwidth=3,label="G48"]
    523 [penwidth=3,label="G51"]
    524 [penwidth=3,label="G53"]
    525 [penwidth=3,label="G55"]
    526 [penwidth=3,label="G58"]
    527 [penwidth=3,label="G62"]
    528 [penwidth=3,label="G220"]
    529 [penwidth=3,label="G69"]
    530 [penwidth=3,label="G77"]
    531 [penwidth=3,label="G88"]
    532 [penwidth=3,label="G63"]
    533 [penwidth=3,label="G57"]
    534 [penwidth=3,label="G61"]
    535 [penwidth=3,label="G66"]
    536 [penwidth=3,label="G74"]
    537 [penwidth=3,label="G73"]
    538 [penwidth=3,label="G84"]
    539 [penwidth=3,label="G95"]
    540 [penwidth=3,label="G105"]
    541 [penwidth=3,label="G114"]
    542 [penwidth=3,label="G123"]
    543 [penwidth=3,label="G115"]
    544 [penwidth=3,label="G54"]
    545 [penwidth=3,label="G3"]
    546 [penwidth=3,label="G52"]
    547 [penwidth=3,label="G56"]
    548 [penwidth=3,label="G223"]
    549 [penwidth=3,label="G224"]
    550 [penwidth=3,label="G226"]
    551 [penwidth=3,label="G227"]
    552 [penwidth=3,label="G60"]
    553 [penwidth=3,label="G225"]
    554 [penwidth=3,label="G59"]
    555 [penwidth=3,label="G65"]
    556 [penwidth=3,label="G72"]
    557 [penwidth=3,label="G83"]
    558 [penwidth=3,label="G94"]
    559 [penwidth=3,label="G104"]
    560 [penwidth=3,label="G113"]
    561 [penwidth=3,label="G93"]
    562 [penwidth=3,label="G103"]
    563 [penwidth=3,label="G102"]
    564 [penwidth=3,label="G112"]
    565 [penwidth=3,label="G122"]
    566 [penwidth=3,label="G129"]
    567 [penwidth=3,label="G136"]
    568 [penwidth=3,label="G141"]
    569 [penwidth=3,label="G121"]
    570 [penwidth=3,label="G120"]
    571 [penwidth=3,label="G82"]
    572 [penwidth=3,label="G92"]
    573 [penwidth=3,label="G71"]
    574 [penwidth=3,label="G81"]
    575 [penwidth=3,label="G91"]
    576 [penwidth=3,label="G101"]
    577 [penwidth=3,label="G109"]
    578 [penwidth=3,label="G118"]
    579 [penwidth=3,label="G128"]
    580 [penwidth=3,label="G134"]
    581 [penwidth=3,label="G135"]
    582 [penwidth=3,label="G110"]
    583 [penwidth=3,label="G119"]
    584 [penwidth=3,label="G111"]
    585 [penwidth=3,label="G80"]
    586 [penwidth=3,label="G64"]
    587 [penwidth=3,label="G70"]
    588 [penwidth=3,label="G78"]
    589 [penwidth=3,label="G89"]
    590 [penwidth=3,label="G12"]
    591 [penwidth=3,label="G100"]
    592 [penwidth=3,label="G108"]
    593 [penwidth=3,label="G107"]
    594 [penwidth=3,label="G99"]
    595 [penwidth=3,label="G106"]
    596 [penwidth=3,label="G228"]
    597 [penwidth=3,label="G229"]
    598 [penwidth=3,label="G230"]
    599 [penwidth=3,label="G232"]
    600 [penwidth=3,label="G233"]
    601 [penwidth=3,label="G235"]
    602 [penwidth=3,label="G237"]
    603 [penwidth=3,label="G241"]
    604 [penwidth=3,label="G242"]
    605 [penwidth=3,label="G245"]
    606 [penwidth=3,label="G240"]
    607 [penwidth=3,label="G234"]
    608 [penwidth=3,label="G236"]
    609 [penwidth=3,label="G239"]
    610 [penwidth=3,label="G244"]
    611 [penwidth=3,label="G247"]
    612 [penwidth=3,label="G248"]
    613 [penwidth=3,label="G246"]
    614 [penwidth=3,label="G238"]
    615 [penwidth=3,label="G243"]
    616 [penwidth=3,label="G231"]
    617 [penwidth=3,label="G79"]
    618 [penwidth=3,label="G90"]
    619 [penwidth=3,label="G14"]
    620 [penwidth=3,label="G15"]
    621 [penwidth=3,label="G117"]
    622 [penwidth=3,label="G127"]
    623 [penwidth=3,label="G133"]
    624 [penwidth=3,label="G139"]
    625 [penwidth=3,label="G138"]
    626 [penwidth=3,label="G143"]
    627 [penwidth=3,label="G194"]
    628 [penwidth=3,label="G9"]
    629 [penwidth=3,label="G252"]
    630 [penwidth=3,label="G195"]
    631 [penwidth=3,label="G196"]
    632 [penwidth=3,label="G198"]
    633 [penwidth=3,label="G199"]
    634 [penwidth=3,label="G200"]
    635 [penwidth=3,label="G203"]
    636 [penwidth=3,label="G207"]
    637 [penwidth=3,label="G210"]
    638 [penwidth=3,label="G214"]
    639 [penwidth=3,label="G213"]
    640 [penwidth=3,label="G208"]
    641 [penwidth=3,label="G211"]
    642 [penwidth=3,label="G215"]
    643 [penwidth=3,label="G217"]
    644 [penwidth=3,label="G219"]
    645 [penwidth=3,label="G216"]
    646 [penwidth=3,label="G218"]
    647 [penwidth=3,label="G205"]
    648 [penwidth=3,label="G204"]
    649 [penwidth=3,label="G209"]
    650 [penwidth=3,label="G212"]
    651 [penwidth=3,label="G202"]
    652 [penwidth=3,label="G206"]
    653 [penwidth=3,label="G201"]
    654 [penwidth=3,label="G221"]
    655 [penwidth=3,label="G222"]
    656 [penwidth=3,label="G197"]
    657 [penwidth=3,label="G6"]
    658 [penwidth=3,label="G22"]
    659 [penwidth=3,label="G27"]
    660 [penwidth=3,label="G34"]
    661 [penwidth=3,label="G21"]
    662 [penwidth=3,label="G148"]
    663 [penwidth=3,label="G153"]
    664 [penwidth=3,label="G156"]
    665 [penwidth=3,label="G159"]
    666 [penwidth=3,label="G162"]
    667 [penwidth=3,label="G165"]
    668 [penwidth=3,label="G170"]
    669 [penwidth=3,label="G167"]
    670 [penwidth=3,label="G171"]
    671 [penwidth=3,label="G175"]
    672 [penwidth=3,label="G166"]
    673 [penwidth=3,label="G168"]
    674 [penwidth=3,label="G172"]
    675 [penwidth=3,label="G152"]
    676 [penwidth=3,label="G5"]
    677 [penwidth=3,label="G68"]
    678 [penwidth=3,label="G76"]
    679 [penwidth=3,label="G87"]
    680 [penwidth=3,label="G98"]
    681 [penwidth=3,label="G75"]
    682 [penwidth=3,label="G86"]
    683 [penwidth=3,label="G97"]
    684 [penwidth=3,label="G85"]
    685 [penwidth=3,label="G96"]
    686 [penwidth=3,label="G67"]
    687 [penwidth=3,label="G144"]
    688 [penwidth=3,label="G149"]
    689 [penwidth=3,label="G140"]
    690 [penwidth=3,label="G145"]
    691 [penwidth=3,label="G150"]
    692 [penwidth=3,label="G154"]
    693 [penwidth=3,label="G157"]
    694 [penwidth=3,label="G160"]
    695 [penwidth=3,label="G163"]
    696 [penwidth=3,label="G169"]
    697 [penwidth=3,label="G173"]
    698 [penwidth=3,label="G13"]
    699 [penwidth=3,label="G125"]
    700 [penwidth=3,label="G124"]
    701 [penwidth=3,label="G130"]
    702 [penwidth=3,label="G137"]
    703 [penwidth=3,label="G142"]
    704 [penwidth=3,label="G174"]
    705 [penwidth=3,label="G176"]
    706 [penwidth=3,label="G177"]
    707 [penwidth=3,label="G180"]
    708 [penwidth=3,label="G183"]
    709 [penwidth=3,label="G187"]
    710 [penwidth=3,label="G179"]
    711 [penwidth=3,label="G182"]
    712 [penwidth=3,label="G186"]
    713 [penwidth=3,label="G185"]
    714 [penwidth=3,label="G249"]
    715 [penwidth=3,label="G250"]
    716 [penwidth=3,label="G251"]
    717 [penwidth=3,label="G189"]
    718 [penwidth=3,label="G178"]
    719 [penwidth=3,label="G181"]
    720 [penwidth=3,label="G184"]
    721 [penwidth=3,label="G188"]
    722 [penwidth=3,label="G190"]
    723 [penwidth=3,label="G191"]
    724 [penwidth=3,label="G192"]
    725 [penwidth=3,label="G8"]
    726 [penwidth=3,label="G116"]
    727 [penwidth=3,label="G11"]
    728 [penwidth=3,label="G29"]
    729 [penwidth=3,label="G36"]
    730 [penwidth=3,label="G41"]
    731 [penwidth=3,label="G7"]
    732 [penwidth=3,label="G28"]
    733 [penwidth=3,label="G35"]
    734 [penwidth=3,label="G30"]
    735 [penwidth=3,label="G37"]
    736 [penwidth=3,label="G42"]
    737 [penwidth=3,label="G147"]
    738 [penwidth=3,label="G151"]
    739 [penwidth=3,label="G155"]
    740 [penwidth=3,label="G158"]
    741 [penwidth=3,label="G161"]
    742 [penwidth=3,label="G164"]
    743 [penwidth=3,label="G146"]
    744 [penwidth=3,label="G126"]
    745 [penwidth=3,label="G132"]
    746 [penwidth=3,label="G259"]
    747 [penwidth=3,label="G260"]
    748 [penwidth=3,label="G261"]
    749 [penwidth=3,label="G263"]
    750 [penwidth=3,label="G265"]
    751 [penwidth=3,label="G269"]
    752 [penwidth=3,label="G268"]
    753 [penwidth=3,label="G271"]
    754 [penwidth=3,label="G273"]
    755 [penwidth=3,label="G272"]
    756 [penwidth=3,label="G262"]
    757 [penwidth=3,label="G2"]
    758 [penwidth=3,label="G264"]
    759 [penwidth=3,label="G267"]
    760 [penwidth=3,label="G270"]
    761 [penwidth=3,label="G274"]
    762 [penwidth=3,label="G275"]
    763 [penwidth=3,label="G10"]
    764 [penwidth=3,label="G39"]
    765 [penwidth=3,label="G44"]
    766 [penwidth=3,label="G47"]
    767 [penwidth=3,label="G50"]
    768 [penwidth=3,label="G4"]
    769 [penwidth=3,label="G49"]
    770 [penwidth=3,label="G193"]
    771 [penwidth=3,label="G266"]
    772 [penwidth=3,label="G131"]
    773 [penwidth=3,label="G24"]
    774 [penwidth=3,label="G32"]

    0 -> 500 [penwidth=2]
    509 -> 500 [penwidth=2]
    508 -> 500 [penwidth=2]
    501 -> 500 [penwidth=2]
    489 -> 501 [penwidth=2]
    502 -> 501 [penwidth=2]
    490 -> 502 [penwidth=2]
    507 -> 502 [penwidth=2]
    503 -> 502 [penwidth=2]
    492 -> 503 [penwidth=2]
    504 -> 503 [penwidth=2]
    493 -> 504 [penwidth=2]
    505 -> 504 [penwidth=2]
    494 -> 505 [penwidth=2]
    495 -> 505 [penwidth=2]
    496 -> 505 [penwidth=2]
    506 -> 505 [penwidth=2]
    497 -> 506 [penwidth=2]
    498 -> 506 [penwidth=2]
    499 -> 506 [penwidth=2]
    491 -> 507 [penwidth=2]
    763 -> 507 [penwidth=2]
    487 -> 508 [penwidth=2]
    488 -> 508 [penwidth=2]
    657 -> 508 [penwidth=2]
    1 -> 509 [penwidth=2]
    2 -> 509 [penwidth=2]
    510 -> 509 [penwidth=2]
    773 -> 510 [penwidth=2]
    511 -> 510 [penwidth=2]
    8 -> 511 [penwidth=2]
    512 -> 511 [penwidth=2]
    9 -> 512 [penwidth=2]
    513 -> 512 [penwidth=2]
    10 -> 513 [penwidth=2]
    11 -> 513 [penwidth=2]
    12 -> 513 [penwidth=2]
    514 -> 513 [penwidth=2]
    13 -> 514 [penwidth=2]
    14 -> 514 [penwidth=2]
    15 -> 514 [penwidth=2]
    521 -> 514 [penwidth=2]
    515 -> 514 [penwidth=2]
    475 -> 515 [penwidth=2]
    476 -> 515 [penwidth=2]
    516 -> 515 [penwidth=2]
    518 -> 516 [penwidth=2]
    517 -> 516 [penwidth=2]
    484 -> 517 [penwidth=2]
    485 -> 517 [penwidth=2]
    27 -> 517 [penwidth=2]
    486 -> 517 [penwidth=2]
    477 -> 518 [penwidth=2]
    478 -> 518 [penwidth=2]
    519 -> 518 [penwidth=2]
    479 -> 519 [penwidth=2]
    480 -> 519 [penwidth=2]
    481 -> 519 [penwidth=2]
    520 -> 519 [penwidth=2]
    482 -> 520 [penwidth=2]
    483 -> 520 [penwidth=2]
    16 -> 521 [penwidth=2]
    522 -> 521 [penwidth=2]
    17 -> 522 [penwidth=2]
    18 -> 522 [penwidth=2]
    545 -> 522 [penwidth=2]
    523 -> 522 [penwidth=2]
    544 -> 523 [penwidth=2]
    525 -> 523 [penwidth=2]
    524 -> 523 [penwidth=2]
    473 -> 524 [penwidth=2]
    474 -> 524 [penwidth=2]
    437 -> 525 [penwidth=2]
    533 -> 525 [penwidth=2]
    526 -> 525 [penwidth=2]
    532 -> 526 [penwidth=2]
    527 -> 526 [penwidth=2]
    676 -> 526 [penwidth=2]
    460 -> 527 [penwidth=2]
    461 -> 527 [penwidth=2]
    529 -> 527 [penwidth=2]
    528 -> 527 [penwidth=2]
    366 -> 528 [penwidth=2]
    470 -> 528 [penwidth=2]
    471 -> 528 [penwidth=2]
    472 -> 528 [penwidth=2]
    462 -> 529 [penwidth=2]
    463 -> 529 [penwidth=2]
    530 -> 529 [penwidth=2]
    74 -> 530 [penwidth=2]
    464 -> 530 [penwidth=2]
    465 -> 530 [penwidth=2]
    531 -> 530 [penwidth=2]
    466 -> 531 [penwidth=2]
    467 -> 531 [penwidth=2]
    468 -> 531 [penwidth=2]
    469 -> 531 [penwidth=2]
    457 -> 532 [penwidth=2]
    458 -> 532 [penwidth=2]
    459 -> 532 [penwidth=2]
    438 -> 533 [penwidth=2]
    534 -> 533 [penwidth=2]
    439 -> 534 [penwidth=2]
    308 -> 534 [penwidth=2]
    535 -> 534 [penwidth=2]
    440 -> 535 [penwidth=2]
    537 -> 535 [penwidth=2]
    536 -> 535 [penwidth=2]
    454 -> 536 [penwidth=2]
    455 -> 536 [penwidth=2]
    456 -> 536 [penwidth=2]
    441 -> 537 [penwidth=2]
    442 -> 537 [penwidth=2]
    443 -> 537 [penwidth=2]
    538 -> 537 [penwidth=2]
    444 -> 538 [penwidth=2]
    539 -> 538 [penwidth=2]
    445 -> 539 [penwidth=2]
    540 -> 539 [penwidth=2]
    446 -> 540 [penwidth=2]
    543 -> 540 [penwidth=2]
    541 -> 540 [penwidth=2]
    449 -> 541 [penwidth=2]
    450 -> 541 [penwidth=2]
    451 -> 541 [penwidth=2]
    542 -> 541 [penwidth=2]
    452 -> 542 [penwidth=2]
    453 -> 542 [penwidth=2]
    447 -> 543 [penwidth=2]
    448 -> 543 [penwidth=2]
    434 -> 544 [penwidth=2]
    435 -> 544 [penwidth=2]
    436 -> 544 [penwidth=2]
    19 -> 545 [penwidth=2]
    20 -> 545 [penwidth=2]
    546 -> 545 [penwidth=2]
    21 -> 546 [penwidth=2]
    547 -> 546 [penwidth=2]
    22 -> 547 [penwidth=2]
    23 -> 547 [penwidth=2]
    554 -> 547 [penwidth=2]
    552 -> 547 [penwidth=2]
    548 -> 547 [penwidth=2]
    423 -> 548 [penwidth=2]
    424 -> 548 [penwidth=2]
    425 -> 548 [penwidth=2]
    550 -> 548 [penwidth=2]
    549 -> 548 [penwidth=2]
    431 -> 549 [penwidth=2]
    135 -> 549 [penwidth=2]
    432 -> 549 [penwidth=2]
    433 -> 549 [penwidth=2]
    426 -> 550 [penwidth=2]
    427 -> 550 [penwidth=2]
    58 -> 550 [penwidth=2]
    551 -> 550 [penwidth=2]
    3 -> 551 [penwidth=2]
    428 -> 551 [penwidth=2]
    429 -> 551 [penwidth=2]
    430 -> 551 [penwidth=2]
    418 -> 552 [penwidth=2]
    419 -> 552 [penwidth=2]
    553 -> 552 [penwidth=2]
    420 -> 553 [penwidth=2]
    421 -> 553 [penwidth=2]
    422 -> 553 [penwidth=2]
    586 -> 554 [penwidth=2]
    555 -> 554 [penwidth=2]
    573 -> 555 [penwidth=2]
    556 -> 555 [penwidth=2]
    386 -> 556 [penwidth=2]
    387 -> 556 [penwidth=2]
    571 -> 556 [penwidth=2]
    557 -> 556 [penwidth=2]
    391 -> 557 [penwidth=2]
    561 -> 557 [penwidth=2]
    558 -> 557 [penwidth=2]
    411 -> 558 [penwidth=2]
    412 -> 558 [penwidth=2]
    413 -> 558 [penwidth=2]
    559 -> 558 [penwidth=2]
    414 -> 559 [penwidth=2]
    560 -> 559 [penwidth=2]
    415 -> 560 [penwidth=2]
    416 -> 560 [penwidth=2]
    417 -> 560 [penwidth=2]
    301 -> 560 [penwidth=2]
    392 -> 561 [penwidth=2]
    393 -> 561 [penwidth=2]
    563 -> 561 [penwidth=2]
    562 -> 561 [penwidth=2]
    409 -> 562 [penwidth=2]
    410 -> 562 [penwidth=2]
    394 -> 563 [penwidth=2]
    395 -> 563 [penwidth=2]
    564 -> 563 [penwidth=2]
    396 -> 564 [penwidth=2]
    570 -> 564 [penwidth=2]
    569 -> 564 [penwidth=2]
    565 -> 564 [penwidth=2]
    322 -> 565 [penwidth=2]
    401 -> 565 [penwidth=2]
    402 -> 565 [penwidth=2]
    566 -> 565 [penwidth=2]
    403 -> 566 [penwidth=2]
    404 -> 566 [penwidth=2]
    405 -> 566 [penwidth=2]
    567 -> 566 [penwidth=2]
    406 -> 567 [penwidth=2]
    568 -> 567 [penwidth=2]
    407 -> 568 [penwidth=2]
    408 -> 568 [penwidth=2]
    399 -> 569 [penwidth=2]
    400 -> 569 [penwidth=2]
    397 -> 570 [penwidth=2]
    398 -> 570 [penwidth=2]
    388 -> 571 [penwidth=2]
    572 -> 571 [penwidth=2]
    628 -> 571 [penwidth=2]
    389 -> 572 [penwidth=2]
    390 -> 572 [penwidth=2]
    364 -> 573 [penwidth=2]
    365 -> 573 [penwidth=2]
    585 -> 573 [penwidth=2]
    574 -> 573 [penwidth=2]
    368 -> 574 [penwidth=2]
    369 -> 574 [penwidth=2]
    575 -> 574 [penwidth=2]
    370 -> 575 [penwidth=2]
    371 -> 575 [penwidth=2]
    576 -> 575 [penwidth=2]
    584 -> 576 [penwidth=2]
    582 -> 576 [penwidth=2]
    577 -> 576 [penwidth=2]
    379 -> 577 [penwidth=2]
    578 -> 577 [penwidth=2]
    380 -> 578 [penwidth=2]
    579 -> 578 [penwidth=2]
    381 -> 579 [penwidth=2]
    581 -> 579 [penwidth=2]
    580 -> 579 [penwidth=2]
    384 -> 580 [penwidth=2]
    385 -> 580 [penwidth=2]
    590 -> 580 [penwidth=2]
    619 -> 580 [penwidth=2]
    382 -> 581 [penwidth=2]
    383 -> 581 [penwidth=2]
    84 -> 582 [penwidth=2]
    374 -> 582 [penwidth=2]
    583 -> 582 [penwidth=2]
    375 -> 583 [penwidth=2]
    376 -> 583 [penwidth=2]
    377 -> 583 [penwidth=2]
    378 -> 583 [penwidth=2]
    372 -> 584 [penwidth=2]
    373 -> 584 [penwidth=2]
    366 -> 585 [penwidth=2]
    367 -> 585 [penwidth=2]
    24 -> 586 [penwidth=2]
    587 -> 586 [penwidth=2]
    25 -> 587 [penwidth=2]
    617 -> 587 [penwidth=2]
    588 -> 587 [penwidth=2]
    313 -> 588 [penwidth=2]
    314 -> 588 [penwidth=2]
    590 -> 588 [penwidth=2]
    589 -> 588 [penwidth=2]
    361 -> 589 [penwidth=2]
    362 -> 589 [penwidth=2]
    363 -> 589 [penwidth=2]
    315 -> 590 [penwidth=2]
    594 -> 590 [penwidth=2]
    591 -> 590 [penwidth=2]
    356 -> 591 [penwidth=2]
    357 -> 591 [penwidth=2]
    593 -> 591 [penwidth=2]
    592 -> 591 [penwidth=2]
    359 -> 592 [penwidth=2]
    360 -> 592 [penwidth=2]
    358 -> 593 [penwidth=2]
    698 -> 593 [penwidth=2]
    316 -> 594 [penwidth=2]
    317 -> 594 [penwidth=2]
    596 -> 594 [penwidth=2]
    595 -> 594 [penwidth=2]
    353 -> 595 [penwidth=2]
    354 -> 595 [penwidth=2]
    355 -> 595 [penwidth=2]
    318 -> 596 [penwidth=2]
    319 -> 596 [penwidth=2]
    320 -> 596 [penwidth=2]
    597 -> 596 [penwidth=2]
    321 -> 597 [penwidth=2]
    322 -> 597 [penwidth=2]
    598 -> 597 [penwidth=2]
    323 -> 598 [penwidth=2]
    324 -> 598 [penwidth=2]
    616 -> 598 [penwidth=2]
    599 -> 598 [penwidth=2]
    620 -> 599 [penwidth=2]
    607 -> 599 [penwidth=2]
    600 -> 599 [penwidth=2]
    340 -> 600 [penwidth=2]
    341 -> 600 [penwidth=2]
    342 -> 600 [penwidth=2]
    601 -> 600 [penwidth=2]
    343 -> 601 [penwidth=2]
    602 -> 601 [penwidth=2]
    606 -> 602 [penwidth=2]
    604 -> 602 [penwidth=2]
    727 -> 602 [penwidth=2]
    603 -> 602 [penwidth=2]
    351 -> 603 [penwidth=2]
    352 -> 603 [penwidth=2]
    346 -> 604 [penwidth=2]
    347 -> 604 [penwidth=2]
    605 -> 604 [penwidth=2]
    731 -> 604 [penwidth=2]
    348 -> 605 [penwidth=2]
    349 -> 605 [penwidth=2]
    108 -> 605 [penwidth=2]
    350 -> 605 [penwidth=2]
    344 -> 606 [penwidth=2]
    345 -> 606 [penwidth=2]
    327 -> 607 [penwidth=2]
    328 -> 607 [penwidth=2]
    329 -> 607 [penwidth=2]
    608 -> 607 [penwidth=2]
    330 -> 608 [penwidth=2]
    234 -> 608 [penwidth=2]
    614 -> 608 [penwidth=2]
    609 -> 608 [penwidth=2]
    757 -> 609 [penwidth=2]
    768 -> 609 [penwidth=2]
    610 -> 609 [penwidth=2]
    613 -> 610 [penwidth=2]
    611 -> 610 [penwidth=2]
    336 -> 611 [penwidth=2]
    612 -> 611 [penwidth=2]
    337 -> 612 [penwidth=2]
    338 -> 612 [penwidth=2]
    339 -> 612 [penwidth=2]
    731 -> 612 [penwidth=2]
    145 -> 613 [penwidth=2]
    54 -> 613 [penwidth=2]
    334 -> 613 [penwidth=2]
    335 -> 613 [penwidth=2]
    331 -> 614 [penwidth=2]
    615 -> 614 [penwidth=2]
    332 -> 615 [penwidth=2]
    333 -> 615 [penwidth=2]
    139 -> 616 [penwidth=2]
    325 -> 616 [penwidth=2]
    326 -> 616 [penwidth=2]
    26 -> 617 [penwidth=2]
    27 -> 617 [penwidth=2]
    618 -> 617 [penwidth=2]
    757 -> 617 [penwidth=2]
    28 -> 618 [penwidth=2]
    29 -> 618 [penwidth=2]
    619 -> 618 [penwidth=2]
    30 -> 619 [penwidth=2]
    620 -> 619 [penwidth=2]
    31 -> 620 [penwidth=2]
    621 -> 620 [penwidth=2]
    32 -> 621 [penwidth=2]
    33 -> 621 [penwidth=2]
    744 -> 621 [penwidth=2]
    622 -> 621 [penwidth=2]
    90 -> 622 [penwidth=2]
    623 -> 622 [penwidth=2]
    91 -> 623 [penwidth=2]
    689 -> 623 [penwidth=2]
    625 -> 623 [penwidth=2]
    624 -> 623 [penwidth=2]
    311 -> 624 [penwidth=2]
    312 -> 624 [penwidth=2]
    196 -> 625 [penwidth=2]
    197 -> 625 [penwidth=2]
    687 -> 625 [penwidth=2]
    626 -> 625 [penwidth=2]
    201 -> 626 [penwidth=2]
    662 -> 626 [penwidth=2]
    627 -> 626 [penwidth=2]
    248 -> 627 [penwidth=2]
    249 -> 627 [penwidth=2]
    630 -> 627 [penwidth=2]
    629 -> 627 [penwidth=2]
    628 -> 627 [penwidth=2]
    309 -> 628 [penwidth=2]
    310 -> 628 [penwidth=2]
    307 -> 629 [penwidth=2]
    308 -> 629 [penwidth=2]
    250 -> 630 [penwidth=2]
    251 -> 630 [penwidth=2]
    252 -> 630 [penwidth=2]
    631 -> 630 [penwidth=2]
    253 -> 631 [penwidth=2]
    656 -> 631 [penwidth=2]
    632 -> 631 [penwidth=2]
    28 -> 632 [penwidth=2]
    633 -> 632 [penwidth=2]
    266 -> 633 [penwidth=2]
    653 -> 633 [penwidth=2]
    651 -> 633 [penwidth=2]
    634 -> 633 [penwidth=2]
    276 -> 634 [penwidth=2]
    648 -> 634 [penwidth=2]
    647 -> 634 [penwidth=2]
    635 -> 634 [penwidth=2]
    640 -> 635 [penwidth=2]
    636 -> 635 [penwidth=2]
    302 -> 636 [penwidth=2]
    637 -> 636 [penwidth=2]
    303 -> 637 [penwidth=2]
    304 -> 637 [penwidth=2]
    639 -> 637 [penwidth=2]
    638 -> 637 [penwidth=2]
    305 -> 638 [penwidth=2]
    306 -> 638 [penwidth=2]
    13 -> 639 [penwidth=2]
    727 -> 639 [penwidth=2]
    287 -> 640 [penwidth=2]
    288 -> 640 [penwidth=2]
    289 -> 640 [penwidth=2]
    641 -> 640 [penwidth=2]
    290 -> 641 [penwidth=2]
    291 -> 641 [penwidth=2]
    763 -> 641 [penwidth=2]
    642 -> 641 [penwidth=2]
    645 -> 642 [penwidth=2]
    643 -> 642 [penwidth=2]
    295 -> 643 [penwidth=2]
    296 -> 643 [penwidth=2]
    297 -> 643 [penwidth=2]
    644 -> 643 [penwidth=2]
    298 -> 644 [penwidth=2]
    299 -> 644 [penwidth=2]
    300 -> 644 [penwidth=2]
    301 -> 644 [penwidth=2]
    292 -> 645 [penwidth=2]
    646 -> 645 [penwidth=2]
    757 -> 645 [penwidth=2]
    293 -> 646 [penwidth=2]
    294 -> 646 [penwidth=2]
    285 -> 647 [penwidth=2]
    286 -> 647 [penwidth=2]
    277 -> 648 [penwidth=2]
    649 -> 648 [penwidth=2]
    278 -> 649 [penwidth=2]
    279 -> 649 [penwidth=2]
    280 -> 649 [penwidth=2]
    650 -> 649 [penwidth=2]
    281 -> 650 [penwidth=2]
    282 -> 650 [penwidth=2]
    283 -> 650 [penwidth=2]
    284 -> 650 [penwidth=2]
    271 -> 651 [penwidth=2]
    116 -> 651 [penwidth=2]
    768 -> 651 [penwidth=2]
    652 -> 651 [penwidth=2]
    272 -> 652 [penwidth=2]
    273 -> 652 [penwidth=2]
    274 -> 652 [penwidth=2]
    275 -> 652 [penwidth=2]
    194 -> 653 [penwidth=2]
    267 -> 653 [penwidth=2]
    654 -> 653 [penwidth=2]
    268 -> 654 [penwidth=2]
    655 -> 654 [penwidth=2]
    269 -> 655 [penwidth=2]
    57 -> 655 [penwidth=2]
    270 -> 655 [penwidth=2]
    254 -> 656 [penwidth=2]
    657 -> 656 [penwidth=2]
    255 -> 657 [penwidth=2]
    661 -> 657 [penwidth=2]
    727 -> 657 [penwidth=2]
    658 -> 657 [penwidth=2]
    259 -> 658 [penwidth=2]
    659 -> 658 [penwidth=2]
    260 -> 659 [penwidth=2]
    261 -> 659 [penwidth=2]
    660 -> 659 [penwidth=2]
    262 -> 660 [penwidth=2]
    263 -> 660 [penwidth=2]
    264 -> 660 [penwidth=2]
    265 -> 660 [penwidth=2]
    256 -> 661 [penwidth=2]
    257 -> 661 [penwidth=2]
    258 -> 661 [penwidth=2]
    202 -> 662 [penwidth=2]
    675 -> 662 [penwidth=2]
    663 -> 662 [penwidth=2]
    221 -> 663 [penwidth=2]
    222 -> 663 [penwidth=2]
    223 -> 663 [penwidth=2]
    664 -> 663 [penwidth=2]
    224 -> 664 [penwidth=2]
    665 -> 664 [penwidth=2]
    225 -> 665 [penwidth=2]
    226 -> 665 [penwidth=2]
    227 -> 665 [penwidth=2]
    666 -> 665 [penwidth=2]
    673 -> 666 [penwidth=2]
    672 -> 666 [penwidth=2]
    669 -> 666 [penwidth=2]
    667 -> 666 [penwidth=2]
    244 -> 667 [penwidth=2]
    245 -> 667 [penwidth=2]
    246 -> 667 [penwidth=2]
    668 -> 667 [penwidth=2]
    85 -> 668 [penwidth=2]
    247 -> 668 [penwidth=2]
    238 -> 669 [penwidth=2]
    239 -> 669 [penwidth=2]
    670 -> 669 [penwidth=2]
    240 -> 670 [penwidth=2]
    671 -> 670 [penwidth=2]
    241 -> 671 [penwidth=2]
    242 -> 671 [penwidth=2]
    243 -> 671 [penwidth=2]
    234 -> 672 [penwidth=2]
    235 -> 672 [penwidth=2]
    236 -> 672 [penwidth=2]
    237 -> 672 [penwidth=2]
    228 -> 673 [penwidth=2]
    229 -> 673 [penwidth=2]
    230 -> 673 [penwidth=2]
    674 -> 673 [penwidth=2]
    231 -> 674 [penwidth=2]
    232 -> 674 [penwidth=2]
    233 -> 674 [penwidth=2]
    203 -> 675 [penwidth=2]
    204 -> 675 [penwidth=2]
    676 -> 675 [penwidth=2]
    161 -> 676 [penwidth=2]
    686 -> 676 [penwidth=2]
    677 -> 676 [penwidth=2]
    681 -> 677 [penwidth=2]
    678 -> 677 [penwidth=2]
    216 -> 678 [penwidth=2]
    679 -> 678 [penwidth=2]
    217 -> 679 [penwidth=2]
    218 -> 679 [penwidth=2]
    680 -> 679 [penwidth=2]
    219 -> 680 [penwidth=2]
    220 -> 680 [penwidth=2]
    207 -> 681 [penwidth=2]
    684 -> 681 [penwidth=2]
    682 -> 681 [penwidth=2]
    213 -> 682 [penwidth=2]
    683 -> 682 [penwidth=2]
    214 -> 683 [penwidth=2]
    215 -> 683 [penwidth=2]
    725 -> 683 [penwidth=2]
    208 -> 684 [penwidth=2]
    209 -> 684 [penwidth=2]
    685 -> 684 [penwidth=2]
    210 -> 685 [penwidth=2]
    211 -> 685 [penwidth=2]
    212 -> 685 [penwidth=2]
    205 -> 686 [penwidth=2]
    206 -> 686 [penwidth=2]
    198 -> 687 [penwidth=2]
    688 -> 687 [penwidth=2]
    199 -> 688 [penwidth=2]
    200 -> 688 [penwidth=2]
    743 -> 689 [penwidth=2]
    737 -> 689 [penwidth=2]
    690 -> 689 [penwidth=2]
    109 -> 690 [penwidth=2]
    691 -> 690 [penwidth=2]
    110 -> 691 [penwidth=2]
    111 -> 691 [penwidth=2]
    692 -> 691 [penwidth=2]
    731 -> 691 [penwidth=2]
    112 -> 692 [penwidth=2]
    113 -> 692 [penwidth=2]
    693 -> 692 [penwidth=2]
    114 -> 693 [penwidth=2]
    115 -> 693 [penwidth=2]
    116 -> 693 [penwidth=2]
    694 -> 693 [penwidth=2]
    117 -> 694 [penwidth=2]
    118 -> 694 [penwidth=2]
    695 -> 694 [penwidth=2]
    119 -> 695 [penwidth=2]
    696 -> 695 [penwidth=2]
    120 -> 696 [penwidth=2]
    121 -> 696 [penwidth=2]
    704 -> 696 [penwidth=2]
    697 -> 696 [penwidth=2]
    183 -> 697 [penwidth=2]
    698 -> 697 [penwidth=2]
    700 -> 698 [penwidth=2]
    699 -> 698 [penwidth=2]
    193 -> 699 [penwidth=2]
    194 -> 699 [penwidth=2]
    195 -> 699 [penwidth=2]
    184 -> 700 [penwidth=2]
    185 -> 700 [penwidth=2]
    701 -> 700 [penwidth=2]
    186 -> 701 [penwidth=2]
    43 -> 701 [penwidth=2]
    187 -> 701 [penwidth=2]
    702 -> 701 [penwidth=2]
    188 -> 702 [penwidth=2]
    189 -> 702 [penwidth=2]
    190 -> 702 [penwidth=2]
    703 -> 702 [penwidth=2]
    191 -> 703 [penwidth=2]
    192 -> 703 [penwidth=2]
    49 -> 704 [penwidth=2]
    122 -> 704 [penwidth=2]
    123 -> 704 [penwidth=2]
    705 -> 704 [penwidth=2]
    718 -> 705 [penwidth=2]
    706 -> 705 [penwidth=2]
    156 -> 706 [penwidth=2]
    157 -> 706 [penwidth=2]
    710 -> 706 [penwidth=2]
    707 -> 706 [penwidth=2]
    175 -> 707 [penwidth=2]
    176 -> 707 [penwidth=2]
    177 -> 707 [penwidth=2]
    708 -> 707 [penwidth=2]
    86 -> 708 [penwidth=2]
    178 -> 708 [penwidth=2]
    179 -> 708 [penwidth=2]
    709 -> 708 [penwidth=2]
    180 -> 709 [penwidth=2]
    181 -> 709 [penwidth=2]
    182 -> 709 [penwidth=2]
    158 -> 710 [penwidth=2]
    711 -> 710 [penwidth=2]
    713 -> 711 [penwidth=2]
    712 -> 711 [penwidth=2]
    171 -> 712 [penwidth=2]
    172 -> 712 [penwidth=2]
    173 -> 712 [penwidth=2]
    174 -> 712 [penwidth=2]
    159 -> 713 [penwidth=2]
    160 -> 713 [penwidth=2]
    717 -> 713 [penwidth=2]
    714 -> 713 [penwidth=2]
    164 -> 714 [penwidth=2]
    165 -> 714 [penwidth=2]
    715 -> 714 [penwidth=2]
    166 -> 715 [penwidth=2]
    167 -> 715 [penwidth=2]
    168 -> 715 [penwidth=2]
    716 -> 715 [penwidth=2]
    169 -> 716 [penwidth=2]
    170 -> 716 [penwidth=2]
    161 -> 717 [penwidth=2]
    162 -> 717 [penwidth=2]
    163 -> 717 [penwidth=2]
    124 -> 718 [penwidth=2]
    125 -> 718 [penwidth=2]
    719 -> 718 [penwidth=2]
    126 -> 719 [penwidth=2]
    127 -> 719 [penwidth=2]
    720 -> 719 [penwidth=2]
    128 -> 720 [penwidth=2]
    129 -> 720 [penwidth=2]
    130 -> 720 [penwidth=2]
    721 -> 720 [penwidth=2]
    131 -> 721 [penwidth=2]
    722 -> 721 [penwidth=2]
    727 -> 722 [penwidth=2]
    724 -> 722 [penwidth=2]
    723 -> 722 [penwidth=2]
    153 -> 723 [penwidth=2]
    154 -> 723 [penwidth=2]
    155 -> 723 [penwidth=2]
    74 -> 724 [penwidth=2]
    725 -> 724 [penwidth=2]
    147 -> 725 [penwidth=2]
    148 -> 725 [penwidth=2]
    726 -> 725 [penwidth=2]
    149 -> 726 [penwidth=2]
    150 -> 726 [penwidth=2]
    151 -> 726 [penwidth=2]
    152 -> 726 [penwidth=2]
    132 -> 727 [penwidth=2]
    734 -> 727 [penwidth=2]
    732 -> 727 [penwidth=2]
    728 -> 727 [penwidth=2]
    141 -> 728 [penwidth=2]
    142 -> 728 [penwidth=2]
    729 -> 728 [penwidth=2]
    143 -> 729 [penwidth=2]
    730 -> 729 [penwidth=2]
    144 -> 730 [penwidth=2]
    731 -> 730 [penwidth=2]
    145 -> 731 [penwidth=2]
    146 -> 731 [penwidth=2]
    137 -> 732 [penwidth=2]
    138 -> 732 [penwidth=2]
    733 -> 732 [penwidth=2]
    139 -> 733 [penwidth=2]
    140 -> 733 [penwidth=2]
    133 -> 734 [penwidth=2]
    735 -> 734 [penwidth=2]
    134 -> 735 [penwidth=2]
    736 -> 735 [penwidth=2]
    135 -> 736 [penwidth=2]
    136 -> 736 [penwidth=2]
    96 -> 737 [penwidth=2]
    97 -> 737 [penwidth=2]
    98 -> 737 [penwidth=2]
    738 -> 737 [penwidth=2]
    54 -> 738 [penwidth=2]
    99 -> 738 [penwidth=2]
    100 -> 738 [penwidth=2]
    739 -> 738 [penwidth=2]
    101 -> 739 [penwidth=2]
    102 -> 739 [penwidth=2]
    103 -> 739 [penwidth=2]
    740 -> 739 [penwidth=2]
    757 -> 740 [penwidth=2]
    741 -> 740 [penwidth=2]
    104 -> 741 [penwidth=2]
    742 -> 741 [penwidth=2]
    105 -> 742 [penwidth=2]
    106 -> 742 [penwidth=2]
    107 -> 742 [penwidth=2]
    108 -> 742 [penwidth=2]
    92 -> 743 [penwidth=2]
    93 -> 743 [penwidth=2]
    94 -> 743 [penwidth=2]
    95 -> 743 [penwidth=2]
    34 -> 744 [penwidth=2]
    35 -> 744 [penwidth=2]
    772 -> 744 [penwidth=2]
    745 -> 744 [penwidth=2]
    38 -> 745 [penwidth=2]
    39 -> 745 [penwidth=2]
    746 -> 745 [penwidth=2]
    40 -> 746 [penwidth=2]
    41 -> 746 [penwidth=2]
    42 -> 746 [penwidth=2]
    747 -> 746 [penwidth=2]
    43 -> 747 [penwidth=2]
    748 -> 747 [penwidth=2]
    44 -> 748 [penwidth=2]
    758 -> 748 [penwidth=2]
    756 -> 748 [penwidth=2]
    749 -> 748 [penwidth=2]
    81 -> 749 [penwidth=2]
    750 -> 749 [penwidth=2]
    82 -> 750 [penwidth=2]
    83 -> 750 [penwidth=2]
    752 -> 750 [penwidth=2]
    751 -> 750 [penwidth=2]
    88 -> 751 [penwidth=2]
    89 -> 751 [penwidth=2]
    1 -> 752 [penwidth=2]
    755 -> 752 [penwidth=2]
    754 -> 752 [penwidth=2]
    753 -> 752 [penwidth=2]
    86 -> 753 [penwidth=2]
    87 -> 753 [penwidth=2]
    84 -> 754 [penwidth=2]
    85 -> 754 [penwidth=2]
    757 -> 754 [penwidth=2]
    757 -> 755 [penwidth=2]
    763 -> 755 [penwidth=2]
    75 -> 756 [penwidth=2]
    76 -> 756 [penwidth=2]
    77 -> 756 [penwidth=2]
    757 -> 756 [penwidth=2]
    78 -> 757 [penwidth=2]
    79 -> 757 [penwidth=2]
    80 -> 757 [penwidth=2]
    45 -> 758 [penwidth=2]
    46 -> 758 [penwidth=2]
    771 -> 758 [penwidth=2]
    759 -> 758 [penwidth=2]
    50 -> 759 [penwidth=2]
    51 -> 759 [penwidth=2]
    760 -> 759 [penwidth=2]
    52 -> 760 [penwidth=2]
    53 -> 760 [penwidth=2]
    762 -> 760 [penwidth=2]
    761 -> 760 [penwidth=2]
    27 -> 761 [penwidth=2]
    74 -> 761 [penwidth=2]
    54 -> 762 [penwidth=2]
    3 -> 762 [penwidth=2]
    763 -> 762 [penwidth=2]
    55 -> 763 [penwidth=2]
    764 -> 763 [penwidth=2]
    56 -> 764 [penwidth=2]
    57 -> 764 [penwidth=2]
    765 -> 764 [penwidth=2]
    58 -> 765 [penwidth=2]
    59 -> 765 [penwidth=2]
    766 -> 765 [penwidth=2]
    60 -> 766 [penwidth=2]
    61 -> 766 [penwidth=2]
    769 -> 766 [penwidth=2]
    767 -> 766 [penwidth=2]
    70 -> 767 [penwidth=2]
    768 -> 767 [penwidth=2]
    71 -> 768 [penwidth=2]
    72 -> 768 [penwidth=2]
    73 -> 768 [penwidth=2]
    62 -> 769 [penwidth=2]
    63 -> 769 [penwidth=2]
    64 -> 769 [penwidth=2]
    65 -> 769 [penwidth=2]
    770 -> 769 [penwidth=2]
    66 -> 770 [penwidth=2]
    67 -> 770 [penwidth=2]
    68 -> 770 [penwidth=2]
    69 -> 770 [penwidth=2]
    47 -> 771 [penwidth=2]
    48 -> 771 [penwidth=2]
    49 -> 771 [penwidth=2]
    36 -> 772 [penwidth=2]
    37 -> 772 [penwidth=2]
    3 -> 773 [penwidth=2]
    4 -> 773 [penwidth=2]
    5 -> 773 [penwidth=2]
    774 -> 773 [penwidth=2]
    6 -> 774 [penwidth=2]
    7 -> 774 [penwidth=2]
}