digraph G {
    0 [penwidth=3,label="B10"]
    1 [penwidth=3,label="B9"]
    2 [penwidth=3,label="B8"]
    3 [penwidth=3,label="B12"]
    4 [penwidth=3,label="B13"]
    5 [penwidth=3,label="B11"]
    6 [penwidth=3,label="B15"]
    7 [penwidth=3,label="B1"]
    8 [penwidth=3,label="B14"]
    9 [penwidth=3,label="B3"]
    10 [penwidth=3,label="B16"]
    11 [penwidth=3,label="B17"]
    12 [penwidth=3,label="B18"]
    13 [penwidth=3,label="B2"]
    14 [penwidth=3,label="B19"]
    15 [penwidth=3,label="B24"]
    16 [penwidth=3,label="B22"]
    17 [penwidth=3,label="B23"]
    18 [penwidth=3,label="B21"]
    19 [penwidth=3,label="B20"]
    20 [penwidth=3,label="B25"]
    21 [penwidth=3,label="B26"]
    22 [penwidth=3,label="B27"]
    23 [penwidth=3,label="B57"]
    24 [penwidth=3,label="B58"]
    25 [penwidth=3,label="B56"]
    26 [penwidth=3,label="B60"]
    27 [penwidth=3,label="B59"]
    28 [penwidth=3,label="B4"]
    29 [penwidth=3,label="B61"]
    30 [penwidth=3,label="B62"]
    31 [penwidth=3,label="B63"]
    32 [penwidth=3,label="B64"]
    33 [penwidth=3,label="B65"]
    34 [penwidth=3,label="B28"]
    35 [penwidth=3,label="B29"]
    36 [penwidth=3,label="B7"]
    37 [penwidth=3,label="B32"]
    38 [penwidth=3,label="B33"]
    39 [penwidth=3,label="B31"]
    40 [penwidth=3,label="B41"]
    41 [penwidth=3,label="B42"]
    42 [penwidth=3,label="B45"]
    43 [penwidth=3,label="B67"]
    44 [penwidth=3,label="B66"]
    45 [penwidth=3,label="B74"]
    46 [penwidth=3,label="B75"]
    47 [penwidth=3,label="B80"]
    48 [penwidth=3,label="B79"]
    49 [penwidth=3,label="B73"]
    50 [penwidth=3,label="B72"]
    51 [penwidth=3,label="B70"]
    52 [penwidth=3,label="B71"]
    53 [penwidth=3,label="B78"]
    54 [penwidth=3,label="B88"]
    55 [penwidth=3,label="B89"]
    56 [penwidth=3,label="B96"]
    57 [penwidth=3,label="B104"]
    58 [penwidth=3,label="B103"]
    59 [penwidth=3,label="B112"]
    60 [penwidth=3,label="B110"]
    61 [penwidth=3,label="B111"]
    62 [penwidth=3,label="B122"]
    63 [penwidth=3,label="B121"]
    64 [penwidth=3,label="B98"]
    65 [penwidth=3,label="B97"]
    66 [penwidth=3,label="B106"]
    67 [penwidth=3,label="B105"]
    68 [penwidth=3,label="B107"]
    69 [penwidth=3,label="B115"]
    70 [penwidth=3,label="B113"]
    71 [penwidth=3,label="B114"]
    72 [penwidth=3,label="B123"]
    73 [penwidth=3,label="B133"]
    74 [penwidth=3,label="B132"]
    75 [penwidth=3,label="B134"]
    76 [penwidth=3,label="B138"]
    77 [penwidth=3,label="B144"]
    78 [penwidth=3,label="B146"]
    79 [penwidth=3,label="B147"]
    80 [penwidth=3,label="B37"]
    81 [penwidth=3,label="B36"]
    82 [penwidth=3,label="B34"]
    83 [penwidth=3,label="B35"]
    84 [penwidth=3,label="B150"]
    85 [penwidth=3,label="B148"]
    86 [penwidth=3,label="B149"]
    87 [penwidth=3,label="B5"]
    88 [penwidth=3,label="B6"]
    89 [penwidth=3,label="B68"]
    90 [penwidth=3,label="B69"]
    91 [penwidth=3,label="B85"]
    92 [penwidth=3,label="B84"]
    93 [penwidth=3,label="B86"]
    94 [penwidth=3,label="B93"]
    95 [penwidth=3,label="B92"]
    96 [penwidth=3,label="B94"]
    97 [penwidth=3,label="B102"]
    98 [penwidth=3,label="B101"]
    99 [penwidth=3,label="B83"]
    100 [penwidth=3,label="B91"]
    101 [penwidth=3,label="B90"]
    102 [penwidth=3,label="B100"]
    103 [penwidth=3,label="B99"]
    104 [penwidth=3,label="B108"]
    105 [penwidth=3,label="B117"]
    106 [penwidth=3,label="B130"]
    107 [penwidth=3,label="B131"]
    108 [penwidth=3,label="B135"]
    109 [penwidth=3,label="B140"]
    110 [penwidth=3,label="B139"]
    111 [penwidth=3,label="B141"]
    112 [penwidth=3,label="B137"]
    113 [penwidth=3,label="B136"]
    114 [penwidth=3,label="B143"]
    115 [penwidth=3,label="B142"]
    116 [penwidth=3,label="B145"]
    117 [penwidth=3,label="B129"]
    118 [penwidth=3,label="B128"]
    119 [penwidth=3,label="B116"]
    120 [penwidth=3,label="B125"]
    121 [penwidth=3,label="B124"]
    122 [penwidth=3,label="B127"]
    123 [penwidth=3,label="B126"]
    124 [penwidth=3,label="B87"]
    125 [penwidth=3,label="B95"]
    126 [penwidth=3,label="B109"]
    127 [penwidth=3,label="B119"]
    128 [penwidth=3,label="B118"]
    129 [penwidth=3,label="B120"]
    130 [penwidth=3,label="B76"]
    131 [penwidth=3,label="B77"]
    132 [penwidth=3,label="B82"]
    133 [penwidth=3,label="B81"]
    134 [penwidth=3,label="B47"]
    135 [penwidth=3,label="B48"]
    136 [penwidth=3,label="B51"]
    137 [penwidth=3,label="B52"]
    138 [penwidth=3,label="B54"]
    139 [penwidth=3,label="B53"]
    140 [penwidth=3,label="B55"]
    141 [penwidth=3,label="B30"]
    142 [penwidth=3,label="B40"]
    143 [penwidth=3,label="B39"]
    144 [penwidth=3,label="B38"]
    145 [penwidth=3,label="B44"]
    146 [penwidth=3,label="B43"]
    147 [penwidth=3,label="B46"]
    148 [penwidth=3,label="B50"]
    149 [penwidth=3,label="B49"]
    150 [penwidth=3,label="root"]
    151 [penwidth=3,label="G8"]
    152 [penwidth=3,label="G10"]
    153 [penwidth=3,label="G5"]
    154 [penwidth=3,label="G12"]
    155 [penwidth=3,label="G13"]
    156 [penwidth=3,label="G15"]
    157 [penwidth=3,label="G17"]
    158 [penwidth=3,label="G19"]
    159 [penwidth=3,label="G21"]
    160 [penwidth=3,label="G23"]
    161 [penwidth=3,label="G14"]
    162 [penwidth=3,label="G16"]
    163 [penwidth=3,label="G18"]
    164 [penwidth=3,label="G20"]
    165 [penwidth=3,label="G22"]
    166 [penwidth=3,label="G24"]
    167 [penwidth=3,label="G25"]
    168 [penwidth=3,label="G30"]
    169 [penwidth=3,label="G32"]
    170 [penwidth=3,label="G35"]
    171 [penwidth=3,label="G39"]
    172 [penwidth=3,label="G36"]
    173 [penwidth=3,label="G43"]
    174 [penwidth=3,label="G47"]
    175 [penwidth=3,label="G52"]
    176 [penwidth=3,label="G56"]
    177 [penwidth=3,label="G61"]
    178 [penwidth=3,label="G40"]
    179 [penwidth=3,label="G45"]
    180 [penwidth=3,label="G50"]
    181 [penwidth=3,label="G55"]
    182 [penwidth=3,label="G59"]
    183 [penwidth=3,label="G64"]
    184 [penwidth=3,label="G60"]
    185 [penwidth=3,label="G65"]
    186 [penwidth=3,label="G66"]
    187 [penwidth=3,label="G69"]
    188 [penwidth=3,label="G72"]
    189 [penwidth=3,label="G74"]
    190 [penwidth=3,label="G68"]
    191 [penwidth=3,label="G71"]
    192 [penwidth=3,label="G42"]
    193 [penwidth=3,label="G46"]
    194 [penwidth=3,label="G51"]
    195 [penwidth=3,label="G41"]
    196 [penwidth=3,label="G31"]
    197 [penwidth=3,label="G4"]
    198 [penwidth=3,label="G37"]
    199 [penwidth=3,label="G44"]
    200 [penwidth=3,label="G49"]
    201 [penwidth=3,label="G54"]
    202 [penwidth=3,label="G58"]
    203 [penwidth=3,label="G63"]
    204 [penwidth=3,label="G67"]
    205 [penwidth=3,label="G70"]
    206 [penwidth=3,label="G73"]
    207 [penwidth=3,label="G75"]
    208 [penwidth=3,label="G76"]
    209 [penwidth=3,label="G78"]
    210 [penwidth=3,label="G82"]
    211 [penwidth=3,label="G81"]
    212 [penwidth=3,label="G84"]
    213 [penwidth=3,label="G83"]
    214 [penwidth=3,label="G85"]
    215 [penwidth=3,label="G86"]
    216 [penwidth=3,label="G77"]
    217 [penwidth=3,label="G79"]
    218 [penwidth=3,label="G80"]
    219 [penwidth=3,label="G3"]
    220 [penwidth=3,label="G48"]
    221 [penwidth=3,label="G53"]
    222 [penwidth=3,label="G57"]
    223 [penwidth=3,label="G62"]
    224 [penwidth=3,label="G33"]
    225 [penwidth=3,label="G34"]
    226 [penwidth=3,label="G38"]
    227 [penwidth=3,label="G26"]
    228 [penwidth=3,label="G27"]
    229 [penwidth=3,label="G28"]
    230 [penwidth=3,label="G29"]
    231 [penwidth=3,label="G2"]
    232 [penwidth=3,label="G11"]
    233 [penwidth=3,label="G9"]
    234 [penwidth=3,label="G6"]
    235 [penwidth=3,label="G7"]

    0 -> 150 [penwidth=2]
    1 -> 150 [penwidth=2]
    2 -> 150 [penwidth=2]
    234 -> 150 [penwidth=2]
    151 -> 150 [penwidth=2]
    10 -> 151 [penwidth=2]
    233 -> 151 [penwidth=2]
    152 -> 151 [penwidth=2]
    13 -> 152 [penwidth=2]
    14 -> 152 [penwidth=2]
    232 -> 152 [penwidth=2]
    153 -> 152 [penwidth=2]
    18 -> 153 [penwidth=2]
    19 -> 153 [penwidth=2]
    154 -> 153 [penwidth=2]
    20 -> 154 [penwidth=2]
    21 -> 154 [penwidth=2]
    22 -> 154 [penwidth=2]
    227 -> 154 [penwidth=2]
    155 -> 154 [penwidth=2]
    34 -> 155 [penwidth=2]
    161 -> 155 [penwidth=2]
    156 -> 155 [penwidth=2]
    141 -> 156 [penwidth=2]
    219 -> 156 [penwidth=2]
    157 -> 156 [penwidth=2]
    142 -> 157 [penwidth=2]
    143 -> 157 [penwidth=2]
    144 -> 157 [penwidth=2]
    158 -> 157 [penwidth=2]
    145 -> 158 [penwidth=2]
    146 -> 158 [penwidth=2]
    159 -> 158 [penwidth=2]
    147 -> 159 [penwidth=2]
    160 -> 159 [penwidth=2]
    87 -> 160 [penwidth=2]
    148 -> 160 [penwidth=2]
    149 -> 160 [penwidth=2]
    35 -> 161 [penwidth=2]
    36 -> 161 [penwidth=2]
    162 -> 161 [penwidth=2]
    37 -> 162 [penwidth=2]
    38 -> 162 [penwidth=2]
    39 -> 162 [penwidth=2]
    163 -> 162 [penwidth=2]
    40 -> 163 [penwidth=2]
    41 -> 163 [penwidth=2]
    164 -> 163 [penwidth=2]
    42 -> 164 [penwidth=2]
    168 -> 164 [penwidth=2]
    165 -> 164 [penwidth=2]
    134 -> 165 [penwidth=2]
    135 -> 165 [penwidth=2]
    166 -> 165 [penwidth=2]
    136 -> 166 [penwidth=2]
    137 -> 166 [penwidth=2]
    167 -> 166 [penwidth=2]
    138 -> 167 [penwidth=2]
    139 -> 167 [penwidth=2]
    140 -> 167 [penwidth=2]
    43 -> 168 [penwidth=2]
    44 -> 168 [penwidth=2]
    196 -> 168 [penwidth=2]
    169 -> 168 [penwidth=2]
    89 -> 169 [penwidth=2]
    90 -> 169 [penwidth=2]
    172 -> 169 [penwidth=2]
    170 -> 169 [penwidth=2]
    88 -> 170 [penwidth=2]
    130 -> 170 [penwidth=2]
    131 -> 170 [penwidth=2]
    171 -> 170 [penwidth=2]
    132 -> 171 [penwidth=2]
    133 -> 171 [penwidth=2]
    195 -> 172 [penwidth=2]
    192 -> 172 [penwidth=2]
    178 -> 172 [penwidth=2]
    173 -> 172 [penwidth=2]
    124 -> 173 [penwidth=2]
    174 -> 173 [penwidth=2]
    125 -> 174 [penwidth=2]
    175 -> 174 [penwidth=2]
    88 -> 175 [penwidth=2]
    176 -> 175 [penwidth=2]
    126 -> 176 [penwidth=2]
    177 -> 176 [penwidth=2]
    127 -> 177 [penwidth=2]
    128 -> 177 [penwidth=2]
    129 -> 177 [penwidth=2]
    99 -> 178 [penwidth=2]
    179 -> 178 [penwidth=2]
    100 -> 179 [penwidth=2]
    101 -> 179 [penwidth=2]
    180 -> 179 [penwidth=2]
    102 -> 180 [penwidth=2]
    103 -> 180 [penwidth=2]
    181 -> 180 [penwidth=2]
    231 -> 180 [penwidth=2]
    104 -> 181 [penwidth=2]
    184 -> 181 [penwidth=2]
    182 -> 181 [penwidth=2]
    119 -> 182 [penwidth=2]
    183 -> 182 [penwidth=2]
    120 -> 183 [penwidth=2]
    121 -> 183 [penwidth=2]
    122 -> 183 [penwidth=2]
    123 -> 183 [penwidth=2]
    105 -> 184 [penwidth=2]
    186 -> 184 [penwidth=2]
    185 -> 184 [penwidth=2]
    117 -> 185 [penwidth=2]
    118 -> 185 [penwidth=2]
    106 -> 186 [penwidth=2]
    107 -> 186 [penwidth=2]
    190 -> 186 [penwidth=2]
    187 -> 186 [penwidth=2]
    112 -> 187 [penwidth=2]
    113 -> 187 [penwidth=2]
    219 -> 187 [penwidth=2]
    188 -> 187 [penwidth=2]
    87 -> 188 [penwidth=2]
    114 -> 188 [penwidth=2]
    115 -> 188 [penwidth=2]
    189 -> 188 [penwidth=2]
    7 -> 189 [penwidth=2]
    9 -> 189 [penwidth=2]
    116 -> 189 [penwidth=2]
    197 -> 189 [penwidth=2]
    108 -> 190 [penwidth=2]
    191 -> 190 [penwidth=2]
    109 -> 191 [penwidth=2]
    110 -> 191 [penwidth=2]
    111 -> 191 [penwidth=2]
    93 -> 192 [penwidth=2]
    193 -> 192 [penwidth=2]
    94 -> 193 [penwidth=2]
    95 -> 193 [penwidth=2]
    96 -> 193 [penwidth=2]
    194 -> 193 [penwidth=2]
    97 -> 194 [penwidth=2]
    98 -> 194 [penwidth=2]
    91 -> 195 [penwidth=2]
    92 -> 195 [penwidth=2]
    225 -> 196 [penwidth=2]
    224 -> 196 [penwidth=2]
    197 -> 196 [penwidth=2]
    51 -> 197 [penwidth=2]
    52 -> 197 [penwidth=2]
    198 -> 197 [penwidth=2]
    53 -> 198 [penwidth=2]
    199 -> 198 [penwidth=2]
    54 -> 199 [penwidth=2]
    55 -> 199 [penwidth=2]
    220 -> 199 [penwidth=2]
    200 -> 199 [penwidth=2]
    64 -> 200 [penwidth=2]
    65 -> 200 [penwidth=2]
    201 -> 200 [penwidth=2]
    66 -> 201 [penwidth=2]
    67 -> 201 [penwidth=2]
    68 -> 201 [penwidth=2]
    202 -> 201 [penwidth=2]
    69 -> 202 [penwidth=2]
    70 -> 202 [penwidth=2]
    71 -> 202 [penwidth=2]
    203 -> 202 [penwidth=2]
    72 -> 203 [penwidth=2]
    204 -> 203 [penwidth=2]
    73 -> 204 [penwidth=2]
    74 -> 204 [penwidth=2]
    75 -> 204 [penwidth=2]
    205 -> 204 [penwidth=2]
    76 -> 205 [penwidth=2]
    28 -> 205 [penwidth=2]
    206 -> 205 [penwidth=2]
    77 -> 206 [penwidth=2]
    207 -> 206 [penwidth=2]
    78 -> 207 [penwidth=2]
    208 -> 207 [penwidth=2]
    79 -> 208 [penwidth=2]
    36 -> 208 [penwidth=2]
    216 -> 208 [penwidth=2]
    209 -> 208 [penwidth=2]
    85 -> 209 [penwidth=2]
    86 -> 209 [penwidth=2]
    211 -> 209 [penwidth=2]
    210 -> 209 [penwidth=2]
    87 -> 210 [penwidth=2]
    7 -> 210 [penwidth=2]
    36 -> 210 [penwidth=2]
    28 -> 211 [penwidth=2]
    213 -> 211 [penwidth=2]
    219 -> 211 [penwidth=2]
    212 -> 211 [penwidth=2]
    36 -> 212 [penwidth=2]
    13 -> 212 [penwidth=2]
    231 -> 212 [penwidth=2]
    87 -> 213 [penwidth=2]
    215 -> 213 [penwidth=2]
    214 -> 213 [penwidth=2]
    231 -> 213 [penwidth=2]
    88 -> 214 [penwidth=2]
    7 -> 214 [penwidth=2]
    231 -> 214 [penwidth=2]
    87 -> 215 [penwidth=2]
    13 -> 215 [penwidth=2]
    219 -> 215 [penwidth=2]
    7 -> 216 [penwidth=2]
    13 -> 216 [penwidth=2]
    218 -> 216 [penwidth=2]
    217 -> 216 [penwidth=2]
    9 -> 217 [penwidth=2]
    84 -> 217 [penwidth=2]
    219 -> 217 [penwidth=2]
    7 -> 218 [penwidth=2]
    219 -> 218 [penwidth=2]
    80 -> 219 [penwidth=2]
    81 -> 219 [penwidth=2]
    82 -> 219 [penwidth=2]
    83 -> 219 [penwidth=2]
    56 -> 220 [penwidth=2]
    221 -> 220 [penwidth=2]
    57 -> 221 [penwidth=2]
    58 -> 221 [penwidth=2]
    222 -> 221 [penwidth=2]
    59 -> 222 [penwidth=2]
    60 -> 222 [penwidth=2]
    61 -> 222 [penwidth=2]
    223 -> 222 [penwidth=2]
    62 -> 223 [penwidth=2]
    63 -> 223 [penwidth=2]
    49 -> 224 [penwidth=2]
    50 -> 224 [penwidth=2]
    45 -> 225 [penwidth=2]
    46 -> 225 [penwidth=2]
    226 -> 225 [penwidth=2]
    47 -> 226 [penwidth=2]
    48 -> 226 [penwidth=2]
    23 -> 227 [penwidth=2]
    24 -> 227 [penwidth=2]
    25 -> 227 [penwidth=2]
    228 -> 227 [penwidth=2]
    26 -> 228 [penwidth=2]
    27 -> 228 [penwidth=2]
    28 -> 228 [penwidth=2]
    229 -> 228 [penwidth=2]
    29 -> 229 [penwidth=2]
    30 -> 229 [penwidth=2]
    230 -> 229 [penwidth=2]
    31 -> 230 [penwidth=2]
    231 -> 230 [penwidth=2]
    32 -> 231 [penwidth=2]
    33 -> 231 [penwidth=2]
    15 -> 232 [penwidth=2]
    16 -> 232 [penwidth=2]
    17 -> 232 [penwidth=2]
    11 -> 233 [penwidth=2]
    12 -> 233 [penwidth=2]
    3 -> 234 [penwidth=2]
    4 -> 234 [penwidth=2]
    5 -> 234 [penwidth=2]
    235 -> 234 [penwidth=2]
    6 -> 235 [penwidth=2]
    7 -> 235 [penwidth=2]
    8 -> 235 [penwidth=2]
    9 -> 235 [penwidth=2]
}