digraph G {
    0 [penwidth=3,label="B9"]
    1 [penwidth=3,label="B4"]
    2 [penwidth=3,label="B7"]
    3 [penwidth=3,label="B8"]
    4 [penwidth=3,label="B10"]
    5 [penwidth=3,label="B11"]
    6 [penwidth=3,label="B1"]
    7 [penwidth=3,label="B14"]
    8 [penwidth=3,label="B21"]
    9 [penwidth=3,label="B20"]
    10 [penwidth=3,label="B29"]
    11 [penwidth=3,label="B28"]
    12 [penwidth=3,label="B22"]
    13 [penwidth=3,label="B23"]
    14 [penwidth=3,label="B15"]
    15 [penwidth=3,label="B16"]
    16 [penwidth=3,label="B13"]
    17 [penwidth=3,label="B12"]
    18 [penwidth=3,label="B17"]
    19 [penwidth=3,label="B18"]
    20 [penwidth=3,label="B24"]
    21 [penwidth=3,label="B25"]
    22 [penwidth=3,label="B27"]
    23 [penwidth=3,label="B26"]
    24 [penwidth=3,label="B141"]
    25 [penwidth=3,label="B139"]
    26 [penwidth=3,label="B140"]
    27 [penwidth=3,label="B142"]
    28 [penwidth=3,label="B143"]
    29 [penwidth=3,label="B144"]
    30 [penwidth=3,label="B145"]
    31 [penwidth=3,label="B147"]
    32 [penwidth=3,label="B3"]
    33 [penwidth=3,label="B146"]
    34 [penwidth=3,label="B150"]
    35 [penwidth=3,label="B149"]
    36 [penwidth=3,label="B2"]
    37 [penwidth=3,label="B148"]
    38 [penwidth=3,label="B19"]
    39 [penwidth=3,label="B5"]
    40 [penwidth=3,label="B30"]
    41 [penwidth=3,label="B31"]
    42 [penwidth=3,label="B40"]
    43 [penwidth=3,label="B6"]
    44 [penwidth=3,label="B44"]
    45 [penwidth=3,label="B45"]
    46 [penwidth=3,label="B69"]
    47 [penwidth=3,label="B68"]
    48 [penwidth=3,label="B98"]
    49 [penwidth=3,label="B97"]
    50 [penwidth=3,label="B96"]
    51 [penwidth=3,label="B70"]
    52 [penwidth=3,label="B73"]
    53 [penwidth=3,label="B72"]
    54 [penwidth=3,label="B71"]
    55 [penwidth=3,label="B41"]
    56 [penwidth=3,label="B42"]
    57 [penwidth=3,label="B46"]
    58 [penwidth=3,label="B47"]
    59 [penwidth=3,label="B56"]
    60 [penwidth=3,label="B58"]
    61 [penwidth=3,label="B57"]
    62 [penwidth=3,label="B55"]
    63 [penwidth=3,label="B54"]
    64 [penwidth=3,label="B76"]
    65 [penwidth=3,label="B74"]
    66 [penwidth=3,label="B75"]
    67 [penwidth=3,label="B117"]
    68 [penwidth=3,label="B129"]
    69 [penwidth=3,label="B130"]
    70 [penwidth=3,label="B131"]
    71 [penwidth=3,label="B77"]
    72 [penwidth=3,label="B100"]
    73 [penwidth=3,label="B99"]
    74 [penwidth=3,label="B126"]
    75 [penwidth=3,label="B125"]
    76 [penwidth=3,label="B128"]
    77 [penwidth=3,label="B127"]
    78 [penwidth=3,label="B132"]
    79 [penwidth=3,label="B133"]
    80 [penwidth=3,label="B138"]
    81 [penwidth=3,label="B137"]
    82 [penwidth=3,label="B134"]
    83 [penwidth=3,label="B136"]
    84 [penwidth=3,label="B135"]
    85 [penwidth=3,label="B66"]
    86 [penwidth=3,label="B95"]
    87 [penwidth=3,label="B94"]
    88 [penwidth=3,label="B38"]
    89 [penwidth=3,label="B37"]
    90 [penwidth=3,label="B39"]
    91 [penwidth=3,label="B36"]
    92 [penwidth=3,label="B35"]
    93 [penwidth=3,label="B50"]
    94 [penwidth=3,label="B52"]
    95 [penwidth=3,label="B51"]
    96 [penwidth=3,label="B53"]
    97 [penwidth=3,label="B93"]
    98 [penwidth=3,label="B92"]
    99 [penwidth=3,label="B90"]
    100 [penwidth=3,label="B109"]
    101 [penwidth=3,label="B110"]
    102 [penwidth=3,label="B112"]
    103 [penwidth=3,label="B111"]
    104 [penwidth=3,label="B122"]
    105 [penwidth=3,label="B124"]
    106 [penwidth=3,label="B123"]
    107 [penwidth=3,label="B114"]
    108 [penwidth=3,label="B113"]
    109 [penwidth=3,label="B91"]
    110 [penwidth=3,label="B115"]
    111 [penwidth=3,label="B116"]
    112 [penwidth=3,label="B67"]
    113 [penwidth=3,label="B33"]
    114 [penwidth=3,label="B34"]
    115 [penwidth=3,label="B32"]
    116 [penwidth=3,label="B43"]
    117 [penwidth=3,label="B48"]
    118 [penwidth=3,label="B49"]
    119 [penwidth=3,label="B64"]
    120 [penwidth=3,label="B63"]
    121 [penwidth=3,label="B83"]
    122 [penwidth=3,label="B82"]
    123 [penwidth=3,label="B81"]
    124 [penwidth=3,label="B105"]
    125 [penwidth=3,label="B104"]
    126 [penwidth=3,label="B103"]
    127 [penwidth=3,label="B80"]
    128 [penwidth=3,label="B102"]
    129 [penwidth=3,label="B101"]
    130 [penwidth=3,label="B59"]
    131 [penwidth=3,label="B65"]
    132 [penwidth=3,label="B84"]
    133 [penwidth=3,label="B85"]
    134 [penwidth=3,label="B106"]
    135 [penwidth=3,label="B107"]
    136 [penwidth=3,label="B118"]
    137 [penwidth=3,label="B119"]
    138 [penwidth=3,label="B87"]
    139 [penwidth=3,label="B86"]
    140 [penwidth=3,label="B108"]
    141 [penwidth=3,label="B121"]
    142 [penwidth=3,label="B120"]
    143 [penwidth=3,label="B89"]
    144 [penwidth=3,label="B88"]
    145 [penwidth=3,label="B60"]
    146 [penwidth=3,label="B61"]
    147 [penwidth=3,label="B62"]
    148 [penwidth=3,label="B79"]
    149 [penwidth=3,label="B78"]
    150 [penwidth=3,label="root"]
    151 [penwidth=3,label="G6"]
    152 [penwidth=3,label="G9"]
    153 [penwidth=3,label="G13"]
    154 [penwidth=3,label="G18"]
    155 [penwidth=3,label="G20"]
    156 [penwidth=3,label="G22"]
    157 [penwidth=3,label="G27"]
    158 [penwidth=3,label="G32"]
    159 [penwidth=3,label="G39"]
    160 [penwidth=3,label="G46"]
    161 [penwidth=3,label="G41"]
    162 [penwidth=3,label="G51"]
    163 [penwidth=3,label="G50"]
    164 [penwidth=3,label="G62"]
    165 [penwidth=3,label="G70"]
    166 [penwidth=3,label="G49"]
    167 [penwidth=3,label="G61"]
    168 [penwidth=3,label="G69"]
    169 [penwidth=3,label="G38"]
    170 [penwidth=3,label="G40"]
    171 [penwidth=3,label="G47"]
    172 [penwidth=3,label="G59"]
    173 [penwidth=3,label="G48"]
    174 [penwidth=3,label="G60"]
    175 [penwidth=3,label="G31"]
    176 [penwidth=3,label="G23"]
    177 [penwidth=3,label="G28"]
    178 [penwidth=3,label="G34"]
    179 [penwidth=3,label="G42"]
    180 [penwidth=3,label="G5"]
    181 [penwidth=3,label="G3"]
    182 [penwidth=3,label="G53"]
    183 [penwidth=3,label="G66"]
    184 [penwidth=3,label="G52"]
    185 [penwidth=3,label="G65"]
    186 [penwidth=3,label="G64"]
    187 [penwidth=3,label="G71"]
    188 [penwidth=3,label="G63"]
    189 [penwidth=3,label="G54"]
    190 [penwidth=3,label="G33"]
    191 [penwidth=3,label="G24"]
    192 [penwidth=3,label="G21"]
    193 [penwidth=3,label="G26"]
    194 [penwidth=3,label="G30"]
    195 [penwidth=3,label="G36"]
    196 [penwidth=3,label="G45"]
    197 [penwidth=3,label="G57"]
    198 [penwidth=3,label="G4"]
    199 [penwidth=3,label="G55"]
    200 [penwidth=3,label="G68"]
    201 [penwidth=3,label="G76"]
    202 [penwidth=3,label="G75"]
    203 [penwidth=3,label="G77"]
    204 [penwidth=3,label="G67"]
    205 [penwidth=3,label="G73"]
    206 [penwidth=3,label="G72"]
    207 [penwidth=3,label="G74"]
    208 [penwidth=3,label="G2"]
    209 [penwidth=3,label="G58"]
    210 [penwidth=3,label="G37"]
    211 [penwidth=3,label="G25"]
    212 [penwidth=3,label="G29"]
    213 [penwidth=3,label="G35"]
    214 [penwidth=3,label="G44"]
    215 [penwidth=3,label="G43"]
    216 [penwidth=3,label="G56"]
    217 [penwidth=3,label="G12"]
    218 [penwidth=3,label="G17"]
    219 [penwidth=3,label="G78"]
    220 [penwidth=3,label="G79"]
    221 [penwidth=3,label="G80"]
    222 [penwidth=3,label="G81"]
    223 [penwidth=3,label="G82"]
    224 [penwidth=3,label="G83"]
    225 [penwidth=3,label="G16"]
    226 [penwidth=3,label="G8"]
    227 [penwidth=3,label="G11"]
    228 [penwidth=3,label="G10"]
    229 [penwidth=3,label="G15"]
    230 [penwidth=3,label="G14"]
    231 [penwidth=3,label="G19"]
    232 [penwidth=3,label="G7"]

    232 -> 150 [penwidth=2]
    151 -> 150 [penwidth=2]
    2 -> 151 [penwidth=2]
    3 -> 151 [penwidth=2]
    226 -> 151 [penwidth=2]
    152 -> 151 [penwidth=2]
    16 -> 152 [penwidth=2]
    17 -> 152 [penwidth=2]
    217 -> 152 [penwidth=2]
    153 -> 152 [penwidth=2]
    38 -> 153 [penwidth=2]
    154 -> 153 [penwidth=2]
    39 -> 154 [penwidth=2]
    192 -> 154 [penwidth=2]
    155 -> 154 [penwidth=2]
    191 -> 155 [penwidth=2]
    176 -> 155 [penwidth=2]
    156 -> 155 [penwidth=2]
    113 -> 156 [penwidth=2]
    114 -> 156 [penwidth=2]
    115 -> 156 [penwidth=2]
    157 -> 156 [penwidth=2]
    116 -> 157 [penwidth=2]
    175 -> 157 [penwidth=2]
    158 -> 157 [penwidth=2]
    170 -> 158 [penwidth=2]
    169 -> 158 [penwidth=2]
    161 -> 158 [penwidth=2]
    159 -> 158 [penwidth=2]
    145 -> 159 [penwidth=2]
    146 -> 159 [penwidth=2]
    147 -> 159 [penwidth=2]
    160 -> 159 [penwidth=2]
    148 -> 160 [penwidth=2]
    149 -> 160 [penwidth=2]
    131 -> 161 [penwidth=2]
    166 -> 161 [penwidth=2]
    163 -> 161 [penwidth=2]
    162 -> 161 [penwidth=2]
    143 -> 162 [penwidth=2]
    144 -> 162 [penwidth=2]
    138 -> 163 [penwidth=2]
    139 -> 163 [penwidth=2]
    164 -> 163 [penwidth=2]
    180 -> 163 [penwidth=2]
    43 -> 164 [penwidth=2]
    140 -> 164 [penwidth=2]
    165 -> 164 [penwidth=2]
    141 -> 165 [penwidth=2]
    142 -> 165 [penwidth=2]
    132 -> 166 [penwidth=2]
    133 -> 166 [penwidth=2]
    167 -> 166 [penwidth=2]
    134 -> 167 [penwidth=2]
    135 -> 167 [penwidth=2]
    168 -> 167 [penwidth=2]
    136 -> 168 [penwidth=2]
    137 -> 168 [penwidth=2]
    181 -> 168 [penwidth=2]
    130 -> 169 [penwidth=2]
    208 -> 169 [penwidth=2]
    119 -> 170 [penwidth=2]
    120 -> 170 [penwidth=2]
    173 -> 170 [penwidth=2]
    171 -> 170 [penwidth=2]
    127 -> 171 [penwidth=2]
    172 -> 171 [penwidth=2]
    128 -> 172 [penwidth=2]
    129 -> 172 [penwidth=2]
    121 -> 173 [penwidth=2]
    122 -> 173 [penwidth=2]
    123 -> 173 [penwidth=2]
    174 -> 173 [penwidth=2]
    124 -> 174 [penwidth=2]
    125 -> 174 [penwidth=2]
    126 -> 174 [penwidth=2]
    117 -> 175 [penwidth=2]
    118 -> 175 [penwidth=2]
    91 -> 176 [penwidth=2]
    92 -> 176 [penwidth=2]
    177 -> 176 [penwidth=2]
    32 -> 177 [penwidth=2]
    190 -> 177 [penwidth=2]
    180 -> 177 [penwidth=2]
    178 -> 177 [penwidth=2]
    2 -> 178 [penwidth=2]
    179 -> 178 [penwidth=2]
    112 -> 179 [penwidth=2]
    36 -> 179 [penwidth=2]
    39 -> 180 [penwidth=2]
    96 -> 180 [penwidth=2]
    181 -> 180 [penwidth=2]
    198 -> 180 [penwidth=2]
    189 -> 181 [penwidth=2]
    184 -> 181 [penwidth=2]
    182 -> 181 [penwidth=2]
    109 -> 182 [penwidth=2]
    183 -> 182 [penwidth=2]
    110 -> 183 [penwidth=2]
    111 -> 183 [penwidth=2]
    99 -> 184 [penwidth=2]
    188 -> 184 [penwidth=2]
    186 -> 184 [penwidth=2]
    185 -> 184 [penwidth=2]
    107 -> 185 [penwidth=2]
    108 -> 185 [penwidth=2]
    102 -> 186 [penwidth=2]
    103 -> 186 [penwidth=2]
    187 -> 186 [penwidth=2]
    104 -> 187 [penwidth=2]
    105 -> 187 [penwidth=2]
    106 -> 187 [penwidth=2]
    100 -> 188 [penwidth=2]
    101 -> 188 [penwidth=2]
    97 -> 189 [penwidth=2]
    98 -> 189 [penwidth=2]
    93 -> 190 [penwidth=2]
    94 -> 190 [penwidth=2]
    95 -> 190 [penwidth=2]
    88 -> 191 [penwidth=2]
    89 -> 191 [penwidth=2]
    90 -> 191 [penwidth=2]
    40 -> 192 [penwidth=2]
    41 -> 192 [penwidth=2]
    211 -> 192 [penwidth=2]
    193 -> 192 [penwidth=2]
    36 -> 193 [penwidth=2]
    55 -> 193 [penwidth=2]
    56 -> 193 [penwidth=2]
    194 -> 193 [penwidth=2]
    57 -> 194 [penwidth=2]
    58 -> 194 [penwidth=2]
    210 -> 194 [penwidth=2]
    195 -> 194 [penwidth=2]
    62 -> 195 [penwidth=2]
    63 -> 195 [penwidth=2]
    1 -> 195 [penwidth=2]
    196 -> 195 [penwidth=2]
    64 -> 196 [penwidth=2]
    65 -> 196 [penwidth=2]
    66 -> 196 [penwidth=2]
    197 -> 196 [penwidth=2]
    204 -> 197 [penwidth=2]
    200 -> 197 [penwidth=2]
    198 -> 197 [penwidth=2]
    85 -> 198 [penwidth=2]
    199 -> 198 [penwidth=2]
    86 -> 199 [penwidth=2]
    87 -> 199 [penwidth=2]
    32 -> 200 [penwidth=2]
    202 -> 200 [penwidth=2]
    201 -> 200 [penwidth=2]
    82 -> 201 [penwidth=2]
    83 -> 201 [penwidth=2]
    84 -> 201 [penwidth=2]
    208 -> 201 [penwidth=2]
    78 -> 202 [penwidth=2]
    79 -> 202 [penwidth=2]
    203 -> 202 [penwidth=2]
    80 -> 203 [penwidth=2]
    81 -> 203 [penwidth=2]
    67 -> 204 [penwidth=2]
    207 -> 204 [penwidth=2]
    206 -> 204 [penwidth=2]
    205 -> 204 [penwidth=2]
    76 -> 205 [penwidth=2]
    1 -> 205 [penwidth=2]
    77 -> 205 [penwidth=2]
    208 -> 205 [penwidth=2]
    74 -> 206 [penwidth=2]
    75 -> 206 [penwidth=2]
    6 -> 206 [penwidth=2]
    68 -> 207 [penwidth=2]
    69 -> 207 [penwidth=2]
    70 -> 207 [penwidth=2]
    208 -> 207 [penwidth=2]
    71 -> 208 [penwidth=2]
    209 -> 208 [penwidth=2]
    72 -> 209 [penwidth=2]
    73 -> 209 [penwidth=2]
    59 -> 210 [penwidth=2]
    60 -> 210 [penwidth=2]
    61 -> 210 [penwidth=2]
    42 -> 211 [penwidth=2]
    212 -> 211 [penwidth=2]
    43 -> 212 [penwidth=2]
    44 -> 212 [penwidth=2]
    45 -> 212 [penwidth=2]
    213 -> 212 [penwidth=2]
    215 -> 213 [penwidth=2]
    214 -> 213 [penwidth=2]
    51 -> 214 [penwidth=2]
    52 -> 214 [penwidth=2]
    53 -> 214 [penwidth=2]
    54 -> 214 [penwidth=2]
    46 -> 215 [penwidth=2]
    47 -> 215 [penwidth=2]
    216 -> 215 [penwidth=2]
    48 -> 216 [penwidth=2]
    49 -> 216 [penwidth=2]
    50 -> 216 [penwidth=2]
    18 -> 217 [penwidth=2]
    19 -> 217 [penwidth=2]
    225 -> 217 [penwidth=2]
    218 -> 217 [penwidth=2]
    22 -> 218 [penwidth=2]
    23 -> 218 [penwidth=2]
    219 -> 218 [penwidth=2]
    24 -> 219 [penwidth=2]
    25 -> 219 [penwidth=2]
    26 -> 219 [penwidth=2]
    220 -> 219 [penwidth=2]
    27 -> 220 [penwidth=2]
    28 -> 220 [penwidth=2]
    221 -> 220 [penwidth=2]
    29 -> 221 [penwidth=2]
    222 -> 221 [penwidth=2]
    30 -> 222 [penwidth=2]
    223 -> 222 [penwidth=2]
    31 -> 223 [penwidth=2]
    32 -> 223 [penwidth=2]
    33 -> 223 [penwidth=2]
    224 -> 223 [penwidth=2]
    34 -> 224 [penwidth=2]
    35 -> 224 [penwidth=2]
    36 -> 224 [penwidth=2]
    37 -> 224 [penwidth=2]
    20 -> 225 [penwidth=2]
    21 -> 225 [penwidth=2]
    4 -> 226 [penwidth=2]
    5 -> 226 [penwidth=2]
    228 -> 226 [penwidth=2]
    227 -> 226 [penwidth=2]
    14 -> 227 [penwidth=2]
    15 -> 227 [penwidth=2]
    6 -> 228 [penwidth=2]
    7 -> 228 [penwidth=2]
    230 -> 228 [penwidth=2]
    229 -> 228 [penwidth=2]
    12 -> 229 [penwidth=2]
    13 -> 229 [penwidth=2]
    8 -> 230 [penwidth=2]
    9 -> 230 [penwidth=2]
    231 -> 230 [penwidth=2]
    10 -> 231 [penwidth=2]
    11 -> 231 [penwidth=2]
    0 -> 232 [penwidth=2]
    1 -> 232 [penwidth=2]
}