digraph G {
    0 [penwidth=3,label="LHF"]
    1 [penwidth=3,label="TAFfs"]
    2 [penwidth=3,label="TAFfp"]
    3 [penwidth=3,label="MLFfc"]
    4 [penwidth=3,label="MLFac"]
    5 [penwidth=3,label="MLFasb"]
    6 [penwidth=3,label="MLFap"]
    7 [penwidth=3,label="BHFfc"]
    8 [penwidth=3,label="BHFac"]
    9 [penwidth=3,label="BHFas"]
    10 [penwidth=3,label="BHFap"]
    11 [penwidth=3,label="HFship"]
    12 [penwidth=3,label="HFland"]
    13 [penwidth=3,label="BAFfcN"]
    14 [penwidth=3,label="BAFfcS"]
    15 [penwidth=3,label="BAFfcE"]
    16 [penwidth=3,label="BAFfcW"]
    17 [penwidth=3,label="BAFacN"]
    18 [penwidth=3,label="BAFacS"]
    19 [penwidth=3,label="BAFacE"]
    20 [penwidth=3,label="BAFacW"]
    21 [penwidth=3,label="BAFasbN"]
    22 [penwidth=3,label="BAFasbS"]
    23 [penwidth=3,label="BAFasbE"]
    24 [penwidth=3,label="BAFasbW"]
    25 [penwidth=3,label="BAFapN"]
    26 [penwidth=3,label="BAFapS"]
    27 [penwidth=3,label="BAFapE"]
    28 [penwidth=3,label="BAFapW"]
    29 [penwidth=3,label="System"]
    30 [penwidth=3,label="TAF"]
    31 [penwidth=3,label="BAF"]
    32 [penwidth=3,label="MLF"]
    33 [penwidth=3,label="BHF"]
    34 [penwidth=3,label="HF"]
    35 [penwidth=3,label="BAFfc"]
    36 [penwidth=3,label="BAFac"]
    37 [penwidth=3,label="BAFasb"]
    38 [penwidth=3,label="BAFap"]

    30 -> 29 [penwidth=2]
    31 -> 29 [penwidth=2]
    32 -> 29 [penwidth=2]
    33 -> 29 [penwidth=2]
    34 -> 29 [penwidth=2]
    0 -> 29 [penwidth=2]
    1 -> 30 [penwidth=2]
    2 -> 30 [penwidth=2]
    35 -> 31 [penwidth=2]
    36 -> 31 [penwidth=2]
    37 -> 31 [penwidth=2]
    38 -> 31 [penwidth=2]
    3 -> 32 [penwidth=2]
    4 -> 32 [penwidth=2]
    5 -> 32 [penwidth=2]
    6 -> 32 [penwidth=2]
    7 -> 33 [penwidth=2]
    8 -> 33 [penwidth=2]
    9 -> 33 [penwidth=2]
    10 -> 33 [penwidth=2]
    11 -> 34 [penwidth=2]
    12 -> 34 [penwidth=2]
    13 -> 35 [penwidth=2]
    14 -> 35 [penwidth=2]
    15 -> 35 [penwidth=2]
    16 -> 35 [penwidth=2]
    17 -> 36 [penwidth=2]
    18 -> 36 [penwidth=2]
    19 -> 36 [penwidth=2]
    20 -> 36 [penwidth=2]
    21 -> 37 [penwidth=2]
    22 -> 37 [penwidth=2]
    23 -> 37 [penwidth=2]
    24 -> 37 [penwidth=2]
    25 -> 38 [penwidth=2]
    26 -> 38 [penwidth=2]
    27 -> 38 [penwidth=2]
    28 -> 38 [penwidth=2]
}