digraph G {
    0 [penwidth=3,label="A16"]
    1 [penwidth=3,label="A47"]
    2 [penwidth=3,label="A19"]
    3 [penwidth=3,label="A46"]
    4 [penwidth=3,label="A50"]
    5 [penwidth=3,label="A51"]
    6 [penwidth=3,label="A52"]
    7 [penwidth=3,label="A53"]
    8 [penwidth=3,label="A22"]
    9 [penwidth=3,label="A25"]
    10 [penwidth=3,label="A28"]
    11 [penwidth=3,label="A32"]
    12 [penwidth=3,label="A33"]
    13 [penwidth=3,label="A56"]
    14 [penwidth=3,label="A29"]
    15 [penwidth=3,label="A1"]
    16 [penwidth=3,label="A83"]
    17 [penwidth=3,label="A88"]
    18 [penwidth=3,label="A94"]
    19 [penwidth=3,label="A99"]
    20 [penwidth=3,label="A4"]
    21 [penwidth=3,label="A37"]
    22 [penwidth=3,label="A48"]
    23 [penwidth=3,label="A7"]
    24 [penwidth=3,label="A36"]
    25 [penwidth=3,label="A42"]
    26 [penwidth=3,label="A10"]
    27 [penwidth=3,label="A39"]
    28 [penwidth=3,label="A49"]
    29 [penwidth=3,label="A13"]
    30 [penwidth=3,label="A38"]
    31 [penwidth=3,label="A45"]
    32 [penwidth=3,label="A40"]
    33 [penwidth=3,label="A43"]
    34 [penwidth=3,label="A84"]
    35 [penwidth=3,label="A82"]
    36 [penwidth=3,label="A89"]
    37 [penwidth=3,label="A87"]
    38 [penwidth=3,label="A95"]
    39 [penwidth=3,label="A93"]
    40 [penwidth=3,label="A100"]
    41 [penwidth=3,label="A98"]
    42 [penwidth=3,label="A61"]
    43 [penwidth=3,label="A66"]
    44 [penwidth=3,label="A72"]
    45 [penwidth=3,label="A77"]
    46 [penwidth=3,label="A62"]
    47 [penwidth=3,label="A60"]
    48 [penwidth=3,label="A67"]
    49 [penwidth=3,label="A65"]
    50 [penwidth=3,label="A73"]
    51 [penwidth=3,label="A71"]
    52 [penwidth=3,label="A78"]
    53 [penwidth=3,label="A76"]
    54 [penwidth=3,label="System"]
    55 [penwidth=3,label="A2"]
    56 [penwidth=3,label="A55"]
    57 [penwidth=3,label="A17"]
    58 [penwidth=3,label="A20"]
    59 [penwidth=3,label="A23"]
    60 [penwidth=3,label="A26"]
    61 [penwidth=3,label="A30"]
    62 [penwidth=3,label="A34"]
    63 [penwidth=3,label="A54"]
    64 [penwidth=3,label="A57"]
    65 [penwidth=3,label="A58"]
    66 [penwidth=3,label="A59"]
    67 [penwidth=3,label="A92"]
    68 [penwidth=3,label="A103"]
    69 [penwidth=3,label="A5"]
    70 [penwidth=3,label="A8"]
    71 [penwidth=3,label="A11"]
    72 [penwidth=3,label="A14"]
    73 [penwidth=3,label="A41"]
    74 [penwidth=3,label="A44"]
    75 [penwidth=3,label="A85"]
    76 [penwidth=3,label="A90"]
    77 [penwidth=3,label="A96"]
    78 [penwidth=3,label="A101"]
    79 [penwidth=3,label="A70"]
    80 [penwidth=3,label="A81"]
    81 [penwidth=3,label="A63"]
    82 [penwidth=3,label="A68"]
    83 [penwidth=3,label="A74"]
    84 [penwidth=3,label="A79"]
    85 [penwidth=3,label="A3"]
    86 [penwidth=3,label="A6"]
    87 [penwidth=3,label="A9"]
    88 [penwidth=3,label="A12"]
    89 [penwidth=3,label="A15"]
    90 [penwidth=3,label="A18"]
    91 [penwidth=3,label="A21"]
    92 [penwidth=3,label="A24"]
    93 [penwidth=3,label="A27"]
    94 [penwidth=3,label="A31"]
    95 [penwidth=3,label="A35"]
    96 [penwidth=3,label="A64"]
    97 [penwidth=3,label="A69"]
    98 [penwidth=3,label="A75"]
    99 [penwidth=3,label="A80"]
    100 [penwidth=3,label="A86"]
    101 [penwidth=3,label="A91"]
    102 [penwidth=3,label="A97"]
    103 [penwidth=3,label="A102"]

    55 -> 54 [penwidth=2]
    56 -> 54 [penwidth=2]
    57 -> 54 [penwidth=2]
    58 -> 54 [penwidth=2]
    59 -> 54 [penwidth=2]
    60 -> 54 [penwidth=2]
    61 -> 54 [penwidth=2]
    62 -> 54 [penwidth=2]
    63 -> 55 [penwidth=2]
    64 -> 56 [penwidth=2]
    65 -> 56 [penwidth=2]
    0 -> 57 [penwidth=2]
    66 -> 57 [penwidth=2]
    67 -> 57 [penwidth=2]
    1 -> 57 [penwidth=2]
    2 -> 58 [penwidth=2]
    67 -> 58 [penwidth=2]
    3 -> 58 [penwidth=2]
    4 -> 58 [penwidth=2]
    5 -> 58 [penwidth=2]
    68 -> 58 [penwidth=2]
    6 -> 58 [penwidth=2]
    7 -> 58 [penwidth=2]
    8 -> 59 [penwidth=2]
    67 -> 59 [penwidth=2]
    9 -> 60 [penwidth=2]
    10 -> 61 [penwidth=2]
    11 -> 62 [penwidth=2]
    12 -> 63 [penwidth=2]
    13 -> 63 [penwidth=2]
    14 -> 63 [penwidth=2]
    15 -> 63 [penwidth=2]
    69 -> 64 [penwidth=2]
    70 -> 64 [penwidth=2]
    71 -> 65 [penwidth=2]
    72 -> 65 [penwidth=2]
    73 -> 66 [penwidth=2]
    74 -> 66 [penwidth=2]
    16 -> 67 [penwidth=2]
    75 -> 67 [penwidth=2]
    17 -> 67 [penwidth=2]
    76 -> 67 [penwidth=2]
    18 -> 68 [penwidth=2]
    77 -> 68 [penwidth=2]
    19 -> 68 [penwidth=2]
    78 -> 68 [penwidth=2]
    20 -> 69 [penwidth=2]
    79 -> 69 [penwidth=2]
    21 -> 69 [penwidth=2]
    22 -> 69 [penwidth=2]
    68 -> 69 [penwidth=2]
    23 -> 70 [penwidth=2]
    79 -> 70 [penwidth=2]
    24 -> 70 [penwidth=2]
    25 -> 70 [penwidth=2]
    68 -> 70 [penwidth=2]
    26 -> 71 [penwidth=2]
    80 -> 71 [penwidth=2]
    27 -> 71 [penwidth=2]
    28 -> 71 [penwidth=2]
    68 -> 71 [penwidth=2]
    29 -> 72 [penwidth=2]
    80 -> 72 [penwidth=2]
    30 -> 72 [penwidth=2]
    31 -> 72 [penwidth=2]
    68 -> 72 [penwidth=2]
    32 -> 73 [penwidth=2]
    68 -> 73 [penwidth=2]
    33 -> 74 [penwidth=2]
    68 -> 74 [penwidth=2]
    34 -> 75 [penwidth=2]
    35 -> 75 [penwidth=2]
    36 -> 76 [penwidth=2]
    37 -> 76 [penwidth=2]
    38 -> 77 [penwidth=2]
    39 -> 77 [penwidth=2]
    40 -> 78 [penwidth=2]
    41 -> 78 [penwidth=2]
    42 -> 79 [penwidth=2]
    81 -> 79 [penwidth=2]
    43 -> 79 [penwidth=2]
    82 -> 79 [penwidth=2]
    44 -> 80 [penwidth=2]
    83 -> 80 [penwidth=2]
    45 -> 80 [penwidth=2]
    84 -> 80 [penwidth=2]
    46 -> 81 [penwidth=2]
    47 -> 81 [penwidth=2]
    48 -> 82 [penwidth=2]
    49 -> 82 [penwidth=2]
    50 -> 83 [penwidth=2]
    51 -> 83 [penwidth=2]
    52 -> 84 [penwidth=2]
    53 -> 84 [penwidth=2]
    55 -> 85 [penwidth=2]
    85 -> 22 [penwidth=2]
    85 -> 28 [penwidth=2]
    69 -> 86 [penwidth=2]
    86 -> 24 [penwidth=2]
    70 -> 87 [penwidth=2]
    87 -> 21 [penwidth=2]
    87 -> 32 [penwidth=2]
    71 -> 88 [penwidth=2]
    88 -> 30 [penwidth=2]
    72 -> 89 [penwidth=2]
    89 -> 27 [penwidth=2]
    89 -> 33 [penwidth=2]
    57 -> 90 [penwidth=2]
    90 -> 25 [penwidth=2]
    90 -> 31 [penwidth=2]
    90 -> 3 [penwidth=2]
    58 -> 91 [penwidth=2]
    91 -> 1 [penwidth=2]
    59 -> 92 [penwidth=2]
    92 -> 4 [penwidth=2]
    60 -> 93 [penwidth=2]
    93 -> 5 [penwidth=2]
    61 -> 94 [penwidth=2]
    94 -> 6 [penwidth=2]
    62 -> 95 [penwidth=2]
    95 -> 7 [penwidth=2]
    46 -> 47 [penwidth=2]
    47 -> 96 [penwidth=2]
    46 -> 96 [penwidth=2]
    47 -> 96 [penwidth=2]
    48 -> 49 [penwidth=2]
    49 -> 97 [penwidth=2]
    48 -> 97 [penwidth=2]
    49 -> 97 [penwidth=2]
    50 -> 51 [penwidth=2]
    51 -> 98 [penwidth=2]
    50 -> 98 [penwidth=2]
    51 -> 98 [penwidth=2]
    52 -> 53 [penwidth=2]
    53 -> 99 [penwidth=2]
    52 -> 99 [penwidth=2]
    53 -> 99 [penwidth=2]
    34 -> 35 [penwidth=2]
    35 -> 100 [penwidth=2]
    34 -> 100 [penwidth=2]
    35 -> 100 [penwidth=2]
    36 -> 37 [penwidth=2]
    37 -> 101 [penwidth=2]
    36 -> 101 [penwidth=2]
    37 -> 101 [penwidth=2]
    38 -> 39 [penwidth=2]
    39 -> 102 [penwidth=2]
    38 -> 102 [penwidth=2]
    39 -> 102 [penwidth=2]
    40 -> 41 [penwidth=2]
    41 -> 103 [penwidth=2]
    40 -> 103 [penwidth=2]
    41 -> 103 [penwidth=2]
}