digraph G {
    0 [penwidth=3,label="A22"]
    1 [penwidth=3,label="A68"]
    2 [penwidth=3,label="A25"]
    3 [penwidth=3,label="A67"]
    4 [penwidth=3,label="A72"]
    5 [penwidth=3,label="A73"]
    6 [penwidth=3,label="A74"]
    7 [penwidth=3,label="A75"]
    8 [penwidth=3,label="A76"]
    9 [penwidth=3,label="A77"]
    10 [penwidth=3,label="A81"]
    11 [penwidth=3,label="A28"]
    12 [penwidth=3,label="A31"]
    13 [penwidth=3,label="A34"]
    14 [penwidth=3,label="A37"]
    15 [penwidth=3,label="A40"]
    16 [penwidth=3,label="A43"]
    17 [penwidth=3,label="A47"]
    18 [penwidth=3,label="A83"]
    19 [penwidth=3,label="A84"]
    20 [penwidth=3,label="A85"]
    21 [penwidth=3,label="A86"]
    22 [penwidth=3,label="A87"]
    23 [penwidth=3,label="A88"]
    24 [penwidth=3,label="A89"]
    25 [penwidth=3,label="A90"]
    26 [penwidth=3,label="A146"]
    27 [penwidth=3,label="A155"]
    28 [penwidth=3,label="A4"]
    29 [penwidth=3,label="A53"]
    30 [penwidth=3,label="A69"]
    31 [penwidth=3,label="A7"]
    32 [penwidth=3,label="A52"]
    33 [penwidth=3,label="A60"]
    34 [penwidth=3,label="A58"]
    35 [penwidth=3,label="A147"]
    36 [penwidth=3,label="A145"]
    37 [penwidth=3,label="A151"]
    38 [penwidth=3,label="A150"]
    39 [penwidth=3,label="A164"]
    40 [penwidth=3,label="A169"]
    41 [penwidth=3,label="A175"]
    42 [penwidth=3,label="A180"]
    43 [penwidth=3,label="A156"]
    44 [penwidth=3,label="A154"]
    45 [penwidth=3,label="A160"]
    46 [penwidth=3,label="A159"]
    47 [penwidth=3,label="A128"]
    48 [penwidth=3,label="A137"]
    49 [penwidth=3,label="A10"]
    50 [penwidth=3,label="A55"]
    51 [penwidth=3,label="A70"]
    52 [penwidth=3,label="A13"]
    53 [penwidth=3,label="A54"]
    54 [penwidth=3,label="A63"]
    55 [penwidth=3,label="A16"]
    56 [penwidth=3,label="A57"]
    57 [penwidth=3,label="A71"]
    58 [penwidth=3,label="A19"]
    59 [penwidth=3,label="A56"]
    60 [penwidth=3,label="A66"]
    61 [penwidth=3,label="A61"]
    62 [penwidth=3,label="A64"]
    63 [penwidth=3,label="A165"]
    64 [penwidth=3,label="A163"]
    65 [penwidth=3,label="A170"]
    66 [penwidth=3,label="A168"]
    67 [penwidth=3,label="A176"]
    68 [penwidth=3,label="A174"]
    69 [penwidth=3,label="A181"]
    70 [penwidth=3,label="A179"]
    71 [penwidth=3,label="A129"]
    72 [penwidth=3,label="A127"]
    73 [penwidth=3,label="A133"]
    74 [penwidth=3,label="A132"]
    75 [penwidth=3,label="A138"]
    76 [penwidth=3,label="A136"]
    77 [penwidth=3,label="A142"]
    78 [penwidth=3,label="A141"]
    79 [penwidth=3,label="A92"]
    80 [penwidth=3,label="A101"]
    81 [penwidth=3,label="A110"]
    82 [penwidth=3,label="A119"]
    83 [penwidth=3,label="A93"]
    84 [penwidth=3,label="A91"]
    85 [penwidth=3,label="A97"]
    86 [penwidth=3,label="A96"]
    87 [penwidth=3,label="A102"]
    88 [penwidth=3,label="A100"]
    89 [penwidth=3,label="A106"]
    90 [penwidth=3,label="A105"]
    91 [penwidth=3,label="A111"]
    92 [penwidth=3,label="A109"]
    93 [penwidth=3,label="A115"]
    94 [penwidth=3,label="A114"]
    95 [penwidth=3,label="A120"]
    96 [penwidth=3,label="A118"]
    97 [penwidth=3,label="A124"]
    98 [penwidth=3,label="A123"]
    99 [penwidth=3,label="System"]
    100 [penwidth=3,label="A2"]
    101 [penwidth=3,label="A44"]
    102 [penwidth=3,label="A23"]
    103 [penwidth=3,label="A26"]
    104 [penwidth=3,label="A29"]
    105 [penwidth=3,label="A32"]
    106 [penwidth=3,label="A35"]
    107 [penwidth=3,label="A38"]
    108 [penwidth=3,label="A41"]
    109 [penwidth=3,label="A45"]
    110 [penwidth=3,label="A50"]
    111 [penwidth=3,label="A82"]
    112 [penwidth=3,label="A49"]
    113 [penwidth=3,label="A79"]
    114 [penwidth=3,label="A78"]
    115 [penwidth=3,label="A192"]
    116 [penwidth=3,label="A185"]
    117 [penwidth=3,label="A193"]
    118 [penwidth=3,label="A5"]
    119 [penwidth=3,label="A8"]
    120 [penwidth=3,label="A80"]
    121 [penwidth=3,label="A48"]
    122 [penwidth=3,label="A1"]
    123 [penwidth=3,label="A59"]
    124 [penwidth=3,label="A148"]
    125 [penwidth=3,label="A152"]
    126 [penwidth=3,label="A173"]
    127 [penwidth=3,label="A184"]
    128 [penwidth=3,label="A157"]
    129 [penwidth=3,label="A161"]
    130 [penwidth=3,label="A190"]
    131 [penwidth=3,label="A191"]
    132 [penwidth=3,label="A11"]
    133 [penwidth=3,label="A14"]
    134 [penwidth=3,label="A17"]
    135 [penwidth=3,label="A20"]
    136 [penwidth=3,label="A62"]
    137 [penwidth=3,label="A65"]
    138 [penwidth=3,label="A166"]
    139 [penwidth=3,label="A171"]
    140 [penwidth=3,label="A177"]
    141 [penwidth=3,label="A182"]
    142 [penwidth=3,label="A130"]
    143 [penwidth=3,label="A134"]
    144 [penwidth=3,label="A139"]
    145 [penwidth=3,label="A143"]
    146 [penwidth=3,label="A186"]
    147 [penwidth=3,label="A187"]
    148 [penwidth=3,label="A188"]
    149 [penwidth=3,label="A189"]
    150 [penwidth=3,label="A94"]
    151 [penwidth=3,label="A98"]
    152 [penwidth=3,label="A103"]
    153 [penwidth=3,label="A107"]
    154 [penwidth=3,label="A112"]
    155 [penwidth=3,label="A116"]
    156 [penwidth=3,label="A121"]
    157 [penwidth=3,label="A125"]
    158 [penwidth=3,label="A3"]
    159 [penwidth=3,label="A6"]
    160 [penwidth=3,label="A9"]
    161 [penwidth=3,label="A12"]
    162 [penwidth=3,label="A15"]
    163 [penwidth=3,label="A18"]
    164 [penwidth=3,label="A21"]
    165 [penwidth=3,label="A24"]
    166 [penwidth=3,label="A27"]
    167 [penwidth=3,label="A30"]
    168 [penwidth=3,label="A33"]
    169 [penwidth=3,label="A36"]
    170 [penwidth=3,label="A39"]
    171 [penwidth=3,label="A42"]
    172 [penwidth=3,label="A46"]
    173 [penwidth=3,label="A51"]
    174 [penwidth=3,label="A95"]
    175 [penwidth=3,label="A99"]
    176 [penwidth=3,label="A104"]
    177 [penwidth=3,label="A108"]
    178 [penwidth=3,label="A113"]
    179 [penwidth=3,label="A117"]
    180 [penwidth=3,label="A122"]
    181 [penwidth=3,label="A126"]
    182 [penwidth=3,label="A131"]
    183 [penwidth=3,label="A135"]
    184 [penwidth=3,label="A140"]
    185 [penwidth=3,label="A144"]
    186 [penwidth=3,label="A149"]
    187 [penwidth=3,label="A153"]
    188 [penwidth=3,label="A158"]
    189 [penwidth=3,label="A162"]
    190 [penwidth=3,label="A167"]
    191 [penwidth=3,label="A172"]
    192 [penwidth=3,label="A178"]
    193 [penwidth=3,label="A183"]

    100 -> 99 [penwidth=2]
    101 -> 99 [penwidth=2]
    102 -> 99 [penwidth=2]
    103 -> 99 [penwidth=2]
    104 -> 99 [penwidth=2]
    105 -> 99 [penwidth=2]
    106 -> 99 [penwidth=2]
    107 -> 99 [penwidth=2]
    108 -> 99 [penwidth=2]
    109 -> 99 [penwidth=2]
    110 -> 99 [penwidth=2]
    111 -> 100 [penwidth=2]
    112 -> 101 [penwidth=2]
    113 -> 101 [penwidth=2]
    0 -> 102 [penwidth=2]
    114 -> 102 [penwidth=2]
    1 -> 102 [penwidth=2]
    115 -> 102 [penwidth=2]
    2 -> 103 [penwidth=2]
    3 -> 103 [penwidth=2]
    4 -> 103 [penwidth=2]
    5 -> 103 [penwidth=2]
    6 -> 103 [penwidth=2]
    7 -> 103 [penwidth=2]
    8 -> 103 [penwidth=2]
    9 -> 103 [penwidth=2]
    10 -> 103 [penwidth=2]
    116 -> 103 [penwidth=2]
    117 -> 103 [penwidth=2]
    11 -> 104 [penwidth=2]
    12 -> 105 [penwidth=2]
    13 -> 106 [penwidth=2]
    14 -> 107 [penwidth=2]
    15 -> 108 [penwidth=2]
    16 -> 109 [penwidth=2]
    17 -> 110 [penwidth=2]
    18 -> 111 [penwidth=2]
    19 -> 111 [penwidth=2]
    20 -> 111 [penwidth=2]
    21 -> 111 [penwidth=2]
    22 -> 111 [penwidth=2]
    23 -> 111 [penwidth=2]
    24 -> 111 [penwidth=2]
    25 -> 111 [penwidth=2]
    118 -> 112 [penwidth=2]
    119 -> 112 [penwidth=2]
    120 -> 113 [penwidth=2]
    121 -> 113 [penwidth=2]
    122 -> 114 [penwidth=2]
    123 -> 114 [penwidth=2]
    26 -> 115 [penwidth=2]
    124 -> 115 [penwidth=2]
    125 -> 115 [penwidth=2]
    126 -> 116 [penwidth=2]
    127 -> 116 [penwidth=2]
    27 -> 117 [penwidth=2]
    128 -> 117 [penwidth=2]
    129 -> 117 [penwidth=2]
    28 -> 118 [penwidth=2]
    29 -> 118 [penwidth=2]
    30 -> 118 [penwidth=2]
    130 -> 118 [penwidth=2]
    31 -> 119 [penwidth=2]
    32 -> 119 [penwidth=2]
    33 -> 119 [penwidth=2]
    131 -> 119 [penwidth=2]
    132 -> 120 [penwidth=2]
    133 -> 120 [penwidth=2]
    134 -> 121 [penwidth=2]
    135 -> 121 [penwidth=2]
    136 -> 122 [penwidth=2]
    137 -> 122 [penwidth=2]
    34 -> 123 [penwidth=2]
    35 -> 124 [penwidth=2]
    36 -> 124 [penwidth=2]
    37 -> 125 [penwidth=2]
    38 -> 125 [penwidth=2]
    39 -> 126 [penwidth=2]
    138 -> 126 [penwidth=2]
    40 -> 126 [penwidth=2]
    139 -> 126 [penwidth=2]
    41 -> 127 [penwidth=2]
    140 -> 127 [penwidth=2]
    42 -> 127 [penwidth=2]
    141 -> 127 [penwidth=2]
    43 -> 128 [penwidth=2]
    44 -> 128 [penwidth=2]
    45 -> 129 [penwidth=2]
    46 -> 129 [penwidth=2]
    47 -> 130 [penwidth=2]
    142 -> 130 [penwidth=2]
    143 -> 130 [penwidth=2]
    48 -> 131 [penwidth=2]
    144 -> 131 [penwidth=2]
    145 -> 131 [penwidth=2]
    49 -> 132 [penwidth=2]
    50 -> 132 [penwidth=2]
    51 -> 132 [penwidth=2]
    146 -> 132 [penwidth=2]
    52 -> 133 [penwidth=2]
    53 -> 133 [penwidth=2]
    54 -> 133 [penwidth=2]
    147 -> 133 [penwidth=2]
    55 -> 134 [penwidth=2]
    56 -> 134 [penwidth=2]
    57 -> 134 [penwidth=2]
    148 -> 134 [penwidth=2]
    58 -> 135 [penwidth=2]
    59 -> 135 [penwidth=2]
    60 -> 135 [penwidth=2]
    149 -> 135 [penwidth=2]
    61 -> 136 [penwidth=2]
    62 -> 137 [penwidth=2]
    63 -> 138 [penwidth=2]
    64 -> 138 [penwidth=2]
    65 -> 139 [penwidth=2]
    66 -> 139 [penwidth=2]
    67 -> 140 [penwidth=2]
    68 -> 140 [penwidth=2]
    69 -> 141 [penwidth=2]
    70 -> 141 [penwidth=2]
    71 -> 142 [penwidth=2]
    72 -> 142 [penwidth=2]
    73 -> 143 [penwidth=2]
    74 -> 143 [penwidth=2]
    75 -> 144 [penwidth=2]
    76 -> 144 [penwidth=2]
    77 -> 145 [penwidth=2]
    78 -> 145 [penwidth=2]
    79 -> 146 [penwidth=2]
    150 -> 146 [penwidth=2]
    151 -> 146 [penwidth=2]
    80 -> 147 [penwidth=2]
    152 -> 147 [penwidth=2]
    153 -> 147 [penwidth=2]
    81 -> 148 [penwidth=2]
    154 -> 148 [penwidth=2]
    155 -> 148 [penwidth=2]
    82 -> 149 [penwidth=2]
    156 -> 149 [penwidth=2]
    157 -> 149 [penwidth=2]
    83 -> 150 [penwidth=2]
    84 -> 150 [penwidth=2]
    85 -> 151 [penwidth=2]
    86 -> 151 [penwidth=2]
    87 -> 152 [penwidth=2]
    88 -> 152 [penwidth=2]
    89 -> 153 [penwidth=2]
    90 -> 153 [penwidth=2]
    91 -> 154 [penwidth=2]
    92 -> 154 [penwidth=2]
    93 -> 155 [penwidth=2]
    94 -> 155 [penwidth=2]
    95 -> 156 [penwidth=2]
    96 -> 156 [penwidth=2]
    97 -> 157 [penwidth=2]
    98 -> 157 [penwidth=2]
    100 -> 158 [penwidth=2]
    158 -> 30 [penwidth=2]
    158 -> 51 [penwidth=2]
    158 -> 57 [penwidth=2]
    118 -> 159 [penwidth=2]
    159 -> 32 [penwidth=2]
    119 -> 160 [penwidth=2]
    160 -> 29 [penwidth=2]
    160 -> 34 [penwidth=2]
    132 -> 161 [penwidth=2]
    161 -> 53 [penwidth=2]
    133 -> 162 [penwidth=2]
    162 -> 50 [penwidth=2]
    162 -> 61 [penwidth=2]
    134 -> 163 [penwidth=2]
    163 -> 59 [penwidth=2]
    135 -> 164 [penwidth=2]
    164 -> 56 [penwidth=2]
    164 -> 62 [penwidth=2]
    102 -> 165 [penwidth=2]
    165 -> 33 [penwidth=2]
    165 -> 54 [penwidth=2]
    165 -> 60 [penwidth=2]
    165 -> 3 [penwidth=2]
    103 -> 166 [penwidth=2]
    166 -> 1 [penwidth=2]
    104 -> 167 [penwidth=2]
    167 -> 4 [penwidth=2]
    105 -> 168 [penwidth=2]
    168 -> 5 [penwidth=2]
    106 -> 169 [penwidth=2]
    169 -> 6 [penwidth=2]
    107 -> 170 [penwidth=2]
    170 -> 7 [penwidth=2]
    108 -> 171 [penwidth=2]
    171 -> 8 [penwidth=2]
    109 -> 172 [penwidth=2]
    172 -> 9 [penwidth=2]
    110 -> 173 [penwidth=2]
    173 -> 10 [penwidth=2]
    83 -> 84 [penwidth=2]
    84 -> 174 [penwidth=2]
    83 -> 174 [penwidth=2]
    84 -> 174 [penwidth=2]
    85 -> 86 [penwidth=2]
    86 -> 175 [penwidth=2]
    85 -> 175 [penwidth=2]
    86 -> 175 [penwidth=2]
    87 -> 88 [penwidth=2]
    88 -> 176 [penwidth=2]
    87 -> 176 [penwidth=2]
    88 -> 176 [penwidth=2]
    89 -> 90 [penwidth=2]
    90 -> 177 [penwidth=2]
    89 -> 177 [penwidth=2]
    90 -> 177 [penwidth=2]
    91 -> 92 [penwidth=2]
    92 -> 178 [penwidth=2]
    91 -> 178 [penwidth=2]
    92 -> 178 [penwidth=2]
    93 -> 94 [penwidth=2]
    94 -> 179 [penwidth=2]
    93 -> 179 [penwidth=2]
    94 -> 179 [penwidth=2]
    95 -> 96 [penwidth=2]
    96 -> 180 [penwidth=2]
    95 -> 180 [penwidth=2]
    96 -> 180 [penwidth=2]
    97 -> 98 [penwidth=2]
    98 -> 181 [penwidth=2]
    97 -> 181 [penwidth=2]
    98 -> 181 [penwidth=2]
    71 -> 72 [penwidth=2]
    72 -> 182 [penwidth=2]
    71 -> 182 [penwidth=2]
    72 -> 182 [penwidth=2]
    73 -> 74 [penwidth=2]
    74 -> 183 [penwidth=2]
    73 -> 183 [penwidth=2]
    74 -> 183 [penwidth=2]
    75 -> 76 [penwidth=2]
    76 -> 184 [penwidth=2]
    75 -> 184 [penwidth=2]
    76 -> 184 [penwidth=2]
    77 -> 78 [penwidth=2]
    78 -> 185 [penwidth=2]
    77 -> 185 [penwidth=2]
    78 -> 185 [penwidth=2]
    35 -> 36 [penwidth=2]
    36 -> 186 [penwidth=2]
    35 -> 186 [penwidth=2]
    36 -> 186 [penwidth=2]
    37 -> 38 [penwidth=2]
    38 -> 187 [penwidth=2]
    37 -> 187 [penwidth=2]
    38 -> 187 [penwidth=2]
    43 -> 44 [penwidth=2]
    44 -> 188 [penwidth=2]
    43 -> 188 [penwidth=2]
    44 -> 188 [penwidth=2]
    45 -> 46 [penwidth=2]
    46 -> 189 [penwidth=2]
    45 -> 189 [penwidth=2]
    46 -> 189 [penwidth=2]
    63 -> 64 [penwidth=2]
    64 -> 190 [penwidth=2]
    63 -> 190 [penwidth=2]
    64 -> 190 [penwidth=2]
    65 -> 66 [penwidth=2]
    66 -> 191 [penwidth=2]
    65 -> 191 [penwidth=2]
    66 -> 191 [penwidth=2]
    67 -> 68 [penwidth=2]
    68 -> 192 [penwidth=2]
    67 -> 192 [penwidth=2]
    68 -> 192 [penwidth=2]
    69 -> 70 [penwidth=2]
    70 -> 193 [penwidth=2]
    69 -> 193 [penwidth=2]
    70 -> 193 [penwidth=2]
}