digraph G {
    0 [penwidth=3,label="Source"]
    1 [penwidth=3,label="LOPressure"]
    2 [penwidth=3,label="Contaminants"]
    3 [penwidth=3,label="Threat"]
    4 [penwidth=3,label="Plastic"]
    5 [penwidth=3,label="Hydrocarbon"]
    6 [penwidth=3,label="ConducivePerm"]
    7 [penwidth=3,label="Organic"]
    8 [penwidth=3,label="Detention"]
    9 [penwidth=3,label="ConduciveBiofilm"]
    10 [penwidth=3,label="TreatmentUnits"]
    11 [penwidth=3,label="Staff"]
    12 [penwidth=3,label="PipesGaskets"]
    13 [penwidth=3,label="Maintenance"]
    14 [penwidth=3,label="CrossConnect"]
    15 [penwidth=3,label="MetallicLeach"]
    16 [penwidth=3,label="ConduciveLeach"]
    17 [penwidth=3,label="MetallicCorr"]
    18 [penwidth=3,label="ConduciveCorr"]
    19 [penwidth=3,label="PhysGeo"]
    20 [penwidth=3,label="Monitoring"]
    21 [penwidth=3,label="OrganicDBP"]
    22 [penwidth=3,label="DisinfectantConcDBP"]
    23 [penwidth=3,label="ConduciveDBP"]
    24 [penwidth=3,label="OrganicDL"]
    25 [penwidth=3,label="DisinfectantConcDL"]
    26 [penwidth=3,label="ConduciveDL"]
    27 [penwidth=3,label="System"]
    28 [penwidth=3,label="POE"]
    29 [penwidth=3,label="Treatment"]
    30 [penwidth=3,label="Deterioration"]
    31 [penwidth=3,label="Leaching"]
    32 [penwidth=3,label="Corrosion"]
    33 [penwidth=3,label="Contamination"]
    34 [penwidth=3,label="Vulnerability"]
    35 [penwidth=3,label="Permeation"]
    36 [penwidth=3,label="Biofilm"]
    37 [penwidth=3,label="Intrusion"]
    38 [penwidth=3,label="Pathway"]
    39 [penwidth=3,label="Disinfectant"]
    40 [penwidth=3,label="DBP"]
    41 [penwidth=3,label="DisinfectantLoss"]

    28 -> 27 [penwidth=2]
    30 -> 27 [penwidth=2]
    33 -> 27 [penwidth=2]
    35 -> 27 [penwidth=2]
    36 -> 27 [penwidth=2]
    37 -> 27 [penwidth=2]
    39 -> 27 [penwidth=2]
    0 -> 28 [penwidth=2]
    29 -> 28 [penwidth=2]
    10 -> 29 [penwidth=2]
    11 -> 29 [penwidth=2]
    31 -> 30 [penwidth=2]
    32 -> 30 [penwidth=2]
    15 -> 31 [penwidth=2]
    16 -> 31 [penwidth=2]
    17 -> 32 [penwidth=2]
    18 -> 32 [penwidth=2]
    3 -> 33 [penwidth=2]
    34 -> 33 [penwidth=2]
    19 -> 34 [penwidth=2]
    20 -> 34 [penwidth=2]
    4 -> 35 [penwidth=2]
    5 -> 35 [penwidth=2]
    6 -> 35 [penwidth=2]
    7 -> 36 [penwidth=2]
    8 -> 36 [penwidth=2]
    9 -> 36 [penwidth=2]
    38 -> 37 [penwidth=2]
    1 -> 37 [penwidth=2]
    2 -> 37 [penwidth=2]
    12 -> 38 [penwidth=2]
    13 -> 38 [penwidth=2]
    14 -> 38 [penwidth=2]
    40 -> 39 [penwidth=2]
    41 -> 39 [penwidth=2]
    21 -> 40 [penwidth=2]
    22 -> 40 [penwidth=2]
    23 -> 40 [penwidth=2]
    24 -> 41 [penwidth=2]
    25 -> 41 [penwidth=2]
    26 -> 41 [penwidth=2]
}