# Number of vertices:
200
# Edge list:
4,0
46,0
130,0
5,0
47,0
131,0
6,0
48,0
132,0
7,0
49,0
133,0
8,0
50,0
134,0
9,0
51,0
135,0
10,0
52,0
136,0
11,0
53,0
137,0
12,0
54,0
138,0
13,0
55,0
139,46
14,46
56,46
140,46
15,46
57,130
141,130
16,130
58,130
142,130
17,130
59,130
143,130
18,5
60,5
144,47
19,47
61,47
145,131
20,131
62,131
146,131
21,6
63,6
147,6
22,6
64,6
148,6
65,6
23,6
149,48
66,48
24,48
150,48
128,132
25,7
67,7
151,7
26,7
68,7
152,7
27,7
69,49
153,49
28,133
70,8
154,8
29,8
71,50
155,134
129,51
30,51
72,51
156,51
31,135
73,135
157,135
32,10
74,10
158,52
33,52
75,52
159,52
34,52
76,52
160,52
35,52
77,52
161,136
36,136
78,136
162,136
37,136
79,11
163,11
38,11
80,11
164,11
39,11
81,11
165,11
40,137
82,137
166,137
41,12
83,12
167,12
42,12
84,54
168,138
43,138
85,138
169,138
44,13
86,13
170,13
45,13
87,13
171,55
88,55
172,55
89,55
173,55
90,55
174,55
91,139
175,139
92,139
176,139
93,139
177,14
94,14
178,14
95,56
179,56
96,140
180,140
97,140
181,140
98,15
182,15
99,15
183,15
100,15
184,15
101,57
185,57
102,57
186,57
103,57
187,57
104,57
188,57
105,57
189,141
106,141
190,141
107,141
191,141
108,141
192,16
109,16
193,16
110,16
194,16
111,16
195,58
112,58
196,58
113,58
197,142
114,17
198,17
115,17
199,17
116,59
117,59
118,59
119,59
120,59
121,59
122,59
123,59
124,59
125,143
126,144
1,19
127,19
2,19
3,19
56,53
56,138
56,9
140,51
140,52
140,49
61,46
61,7
61,51
145,6
28,130
28,136
28,135
28,7
28,137
74,138
158,133
158,5
158,138
158,49
158,137
33,12
33,5
33,47
33,10
33,137
161,50
161,133
40,8
83,131
85,54
85,6
85,9
85,13
85,137
88,4
88,6
88,5
88,12
88,7
90,50
90,13
92,166
92,25
94,29
94,160
94,65
94,169
94,78
178,68
178,70
178,82
96,68
181,146
181,73
181,76
181,167
181,35
101,87
186,149
186,63
103,83
104,152
104,37
104,72
104,80
104,24
106,157
106,169
106,36
106,20
106,23
112,82
112,170
112,61
112,20
112,156
115,26
115,22
115,162
115,39
115,57
116,66
116,14
116,61
116,170
116,159
119,67
119,141
