# Number of vertices:
200
# Edge list:
3,0
5,0
152,3
151,3
4,3
149,5
148,5
10,152
147,151
8,151
133,151
11,151
125,4
150,4
159,4
13,149
142,149
161,149
158,149
12,149
127,149
2,149
156,148
154,148
153,148
134,148
143,10
22,10
1,10
157,10
14,10
155,10
139,10
141,147
124,147
15,8
140,8
23,8
138,133
137,133
135,133
16,133
146,133
24,133
123,11
26,11
144,125
9,125
40,150
164,150
17,150
162,159
160,159
136,159
20,159
6,159
126,13
7,142
18,142
145,142
25,142
163,142
131,142
21,142
128,161
19,161
132,161
130,158
129,158
30,158
81,158
165,158
82,158
166,158
35,12
38,12
83,127
167,127
37,127
84,127
168,127
28,2
85,2
169,2
31,2
41,2
39,2
86,2
170,2
53,2
87,156
171,156
32,156
49,156
33,156
54,154
88,154
172,154
89,154
173,154
34,154
55,153
90,153
174,153
29,153
91,153
121,153
43,153
175,153
56,153
92,134
176,134
44,134
93,134
177,134
57,134
94,134
178,134
36,134
51,143
95,143
179,143
45,22
96,22
122,22
180,22
46,22
97,22
181,22
58,22
98,22
182,1
99,1
183,1
59,1
48,157
100,157
184,157
47,157
101,14
185,155
60,155
102,155
186,155
103,155
187,139
61,139
27,139
104,139
188,139
42,139
105,141
189,141
62,141
106,141
190,124
52,124
65,124
107,124
63,15
191,15
66,15
108,15
192,15
67,15
109,15
193,140
64,140
68,140
110,140
194,23
50,23
69,23
111,23
195,138
70,137
112,137
196,137
71,135
113,16
197,16
72,146
114,146
198,24
73,24
115,24
199,24
74,24
116,24
75,24
117,24
76,123
118,123
77,123
119,123
78,123
120,123
79,123
80,26
161,152
161,151
161,4
161,148
12,148
12,152
12,4
12,151
154,151
139,133
124,154
15,154
15,11
15,133
138,156
138,127
138,147
138,154
138,13
26,156
26,154
26,12
26,147
26,10
6,8
6,154
6,11
84,12
84,150
84,161
49,10
173,10
55,161
55,2
93,11
93,153
93,142
185,20
61,162
61,56
61,146
64,174
64,1
64,28
64,89
64,126
112,124
112,170
112,85
112,155
199,7
199,28
199,19
199,6
