# Number of vertices:
200
# Edge list:
31,0
32,0
33,0
34,0
35,0
36,0
37,0
38,0
39,0
40,0
41,0
42,0
1,0
43,0
2,0
44,0
3,0
45,0
4,0
46,31
5,31
47,31
6,31
48,31
7,31
49,32
50,32
8,32
51,32
9,32
10,32
52,33
11,33
53,35
12,35
54,35
13,35
55,35
14,35
56,36
15,36
57,36
16,36
58,36
17,36
59,37
18,37
60,37
19,38
61,38
20,38
62,38
21,38
63,38
22,38
64,38
23,38
65,39
197,39
24,39
66,39
25,39
67,40
26,40
68,40
27,40
69,40
28,40
70,40
155,40
198,40
71,41
29,41
72,42
30,42
73,42
115,42
157,42
199,42
74,42
116,1
158,1
156,1
75,1
117,1
159,1
76,1
118,1
160,43
77,43
119,43
161,43
78,2
120,2
162,2
79,2
121,2
163,2
80,44
122,44
164,44
81,44
123,44
165,44
82,44
124,44
166,3
83,3
125,3
167,3
84,3
126,3
168,3
85,45
127,4
169,4
86,4
128,5
170,5
87,5
129,5
171,5
88,5
130,5
172,47
89,47
131,47
173,47
90,47
132,47
174,47
91,6
133,6
175,6
92,6
134,6
176,6
93,6
135,6
177,48
94,48
136,48
178,48
95,48
137,48
179,7
96,7
138,7
180,7
97,7
139,7
181,7
98,7
140,49
182,49
99,49
141,49
183,49
100,49
142,49
184,50
101,50
143,50
185,50
102,51
144,51
186,51
103,51
145,51
187,9
104,9
146,10
188,10
105,10
147,10
189,10
106,10
148,52
190,52
107,52
149,52
191,52
108,52
150,52
192,11
109,11
151,11
193,53
110,53
152,53
194,53
111,53
153,53
195,53
112,53
154,12
196,12
113,54
114,54
15,40
15,3
15,2
15,45
17,2
17,40
17,44
17,34
68,31
159,40
159,45
121,45
121,34
121,44
121,37
121,31
81,42
81,41
85,39
85,2
85,3
87,46
173,72
173,83
180,197
182,66
182,168
182,19
182,17
182,12
141,164
141,117
141,16
183,61
183,63
194,46
194,72
194,71
