# Number of vertices:
200
# Edge list:
21,0
63,0
105,0
147,0
22,0
64,0
106,0
148,0
23,0
65,0
107,0
149,0
24,0
66,0
108,0
150,0
25,0
67,0
109,0
151,0
26,0
68,0
110,0
152,0
27,0
69,0
111,0
153,21
28,21
70,21
112,21
154,63
29,63
71,105
113,105
155,105
30,147
72,147
114,147
156,147
31,147
73,147
115,147
157,147
32,22
74,22
116,22
158,22
33,22
75,22
117,22
159,22
34,64
76,64
118,64
160,106
35,106
77,106
119,106
161,106
36,106
78,106
120,106
162,106
37,148
79,148
121,23
163,23
38,23
80,23
122,23
164,23
39,65
81,65
123,65
165,107
40,107
82,107
124,149
166,149
41,149
83,149
125,149
167,149
42,149
84,24
126,24
1,24
168,24
43,24
85,24
127,24
169,66
2,66
44,66
86,66
128,66
170,66
3,66
45,66
87,108
129,108
171,108
4,108
46,108
88,150
130,150
172,150
5,150
47,150
89,150
131,150
173,25
6,25
48,25
90,25
132,25
174,25
7,67
49,67
91,67
133,109
175,109
8,109
50,109
92,109
134,109
176,151
9,151
51,151
93,151
135,151
177,151
10,151
52,151
94,26
136,26
178,26
11,26
53,26
95,26
137,68
179,68
12,68
54,68
96,68
138,68
180,68
13,68
55,68
97,110
139,110
181,110
14,110
56,110
98,110
140,110
182,110
15,110
57,152
99,152
141,152
183,152
16,152
58,152
100,152
142,152
184,27
17,27
59,27
101,27
143,27
185,69
18,69
60,69
102,69
144,69
186,69
61,69
19,111
103,111
145,111
187,111
62,153
20,153
104,28
146,112
188,112
189,112
190,112
191,154
192,154
193,154
194,154
195,154
196,154
197,154
198,154
199,154
30,66
120,64
80,26
80,21
165,24
165,147
165,109
85,110
85,23
85,150
89,66
89,25
131,66
91,111
91,63
175,105
96,152
96,149
13,149
55,21
55,108
55,147
55,107
101,22
20,91
104,32
104,127
189,176
