# Number of vertices:
200
# Edge list:
9,0
52,0
94,0
53,0
95,0
8,0
54,0
96,0
7,0
55,0
97,0
4,0
56,0
98,0
5,0
6,0
57,0
99,0
58,0
100,0
3,0
59,0
101,9
60,9
102,9
2,9
61,9
103,9
62,9
104,9
63,52
105,52
64,94
106,94
1,94
65,94
107,94
66,94
108,94
67,53
109,53
68,95
110,95
69,95
111,95
70,95
112,95
71,8
113,8
72,8
114,54
73,54
115,54
74,96
116,96
75,96
117,7
76,7
118,7
77,7
119,7
78,55
120,97
79,97
121,97
80,97
122,97
81,97
123,97
82,97
124,4
83,4
125,4
84,4
126,4
85,4
127,4
86,4
128,56
87,56
129,56
88,56
130,56
89,56
131,56
90,98
132,98
91,98
133,98
92,98
134,5
93,5
135,5
10,5
136,6
178,6
11,6
137,6
179,6
12,6
138,57
180,57
13,57
139,57
181,57
14,99
140,99
182,99
15,99
141,99
183,99
16,58
142,58
184,58
17,58
143,58
185,58
18,58
144,58
186,58
19,100
145,100
187,100
20,100
146,100
188,100
21,100
147,100
189,3
22,3
148,3
190,3
23,3
149,3
191,3
24,59
150,59
192,59
25,59
151,59
176,59
193,101
26,101
152,101
194,101
27,101
153,101
195,101
28,101
154,101
196,60
29,60
155,60
197,60
30,60
156,60
177,60
198,60
31,60
157,102
199,102
32,102
158,102
33,102
159,102
34,102
160,102
35,61
161,103
36,103
162,103
37,62
163,62
38,62
164,62
39,62
165,62
40,62
166,104
41,104
167,104
42,104
168,104
43,104
169,105
44,105
170,105
45,105
171,64
46,64
172,64
47,64
173,64
48,64
174,106
49,106
175,106
50,106
51,106
64,98
64,95
64,100
64,4
125,57
125,5
133,57
178,58
178,53
178,97
178,95
178,8
146,3
191,99
151,58
27,77
27,81
27,93
27,133
153,2
153,182
154,132
154,93
154,109
197,116
197,142
197,191
197,13
197,104
30,102
30,76
30,85
30,186
198,103
198,109
198,81
32,17
164,90
44,70
46,15
46,138
46,136
46,128
46,122
