# Number of vertices:
200
# Edge list:
18,0
61,0
145,0
62,0
146,0
63,61
147,61
64,145
148,145
65,145
149,145
66,145
150,145
67,145
151,62
68,146
152,146
69,146
153,146
70,63
154,63
71,147
155,147
72,147
156,147
73,147
157,147
74,147
158,64
75,64
159,64
76,64
160,148
77,148
161,148
78,148
162,148
79,65
163,65
80,65
164,65
81,65
165,65
82,65
166,65
83,65
167,149
84,149
168,150
85,150
169,150
86,67
170,67
87,67
171,67
88,67
172,151
89,151
173,151
90,151
144,151
174,151
91,151
175,68
92,68
176,68
93,68
177,68
94,68
178,68
95,152
179,152
96,153
180,153
97,153
181,153
98,153
182,153
99,70
183,70
100,70
184,70
101,70
185,70
102,70
186,70
19,70
103,154
187,154
20,154
104,154
188,154
21,154
105,71
189,71
22,71
106,71
190,72
23,72
107,72
191,72
24,72
108,72
192,156
25,73
109,73
193,73
26,73
110,73
194,157
27,157
111,157
195,157
28,157
112,157
196,74
29,74
113,74
197,74
30,74
114,74
198,74
31,74
115,74
199,158
32,158
116,158
33,158
117,158
34,158
118,158
35,158
119,75
36,75
120,75
37,75
121,75
38,75
122,75
39,76
123,76
40,76
124,76
41,77
125,77
42,77
126,77
1,161
43,161
127,161
2,161
44,161
128,162
3,162
45,162
129,162
4,162
46,79
130,79
5,79
47,79
131,79
6,79
48,79
132,79
7,79
49,163
133,163
8,163
50,163
134,163
9,163
51,163
135,163
10,80
52,80
136,80
11,164
53,164
137,164
12,164
54,164
138,164
13,81
55,81
139,81
14,81
56,81
140,81
15,81
57,165
141,165
16,165
58,82
142,82
17,82
59,82
143,82
60,82
149,61
152,18
152,62
152,145
154,147
154,64
158,66
158,67
158,147
158,152
158,149
77,68
169,151
169,64
169,67
169,153
87,148
87,152
106,84
106,177
106,155
106,165
106,163
190,165
192,168
192,87
192,72
192,86
192,180
109,71
109,181
26,154
27,94
114,97
119,176
126,84
126,74
126,157
2,157
2,166
2,177
44,156
44,70
44,74
44,95
44,94
48,166
48,94
48,173
48,90
133,173
133,71
133,180
133,88
58,84
17,74
17,94
