# Number of vertices:
200
# Edge list:
26,0
68,0
194,0
27,0
69,0
195,0
28,0
70,0
196,0
29,0
71,0
197,0
30,0
72,0
198,0
31,0
73,0
199,0
32,0
74,0
33,0
75,0
34,0
76,0
35,0
77,0
36,0
78,26
193,26
37,26
79,68
38,68
80,68
39,68
81,194
40,194
82,194
41,194
83,194
42,194
84,194
1,194
43,194
85,27
2,27
44,27
86,27
3,27
45,27
87,27
46,27
4,27
88,195
5,70
47,70
89,70
6,70
48,70
90,70
7,70
49,70
91,196
8,29
50,29
92,29
9,29
51,29
93,29
10,29
52,71
94,197
11,197
53,197
95,197
12,197
54,30
96,30
13,30
55,30
97,72
14,72
56,72
98,72
15,72
57,198
99,198
16,198
58,198
100,198
17,198
59,198
101,198
18,31
60,31
102,73
19,199
61,199
103,32
20,32
62,32
104,32
21,74
63,74
105,74
22,75
64,75
106,34
23,34
65,34
107,34
24,76
66,76
108,76
67,76
25,76
109,76
110,35
152,35
111,35
153,77
112,77
154,77
113,77
155,36
114,36
156,36
115,78
157,78
116,78
158,78
117,78
159,78
118,193
160,193
119,193
161,193
120,193
162,193
121,193
163,193
122,193
164,37
123,37
165,37
124,37
166,37
125,79
167,79
126,79
168,79
127,79
169,79
128,79
170,79
129,79
171,80
130,80
172,80
131,39
173,39
132,39
174,39
133,81
175,81
134,81
176,81
135,81
177,81
136,81
178,40
137,40
179,40
138,40
180,40
139,40
181,40
140,82
182,82
141,41
183,41
142,41
184,41
143,41
185,41
144,83
186,42
145,42
187,42
146,42
188,42
147,84
189,84
148,1
190,1
149,1
191,1
150,1
192,1
151,1
40,29
83,197
83,198
83,76
83,29
85,28
85,31
85,30
85,77
85,72
45,72
4,36
4,198
4,195
4,33
4,26
88,27
88,76
8,33
8,69
12,34
12,35
12,76
12,72
54,69
54,32
54,28
54,196
60,33
105,73
66,32
152,73
113,29
162,51
181,42
181,84
181,13
141,156
184,51
184,64
184,83
184,38
184,54
