# Number of vertices:
200
# Edge list:
175,0
176,0
133,0
134,0
189,0
1,0
2,0
3,0
4,175
5,175
6,175
7,175
8,175
9,175
51,176
93,176
135,176
10,133
52,133
94,134
136,134
11,1
53,1
95,1
137,1
180,1
12,2
54,2
96,2
138,2
183,2
13,2
55,2
97,2
139,4
14,4
56,4
98,4
140,4
182,4
15,5
57,5
99,5
141,5
16,5
58,5
100,5
142,5
181,5
17,6
59,6
101,6
143,6
18,6
60,7
102,7
144,7
19,7
61,7
103,7
145,7
20,8
62,8
104,8
146,9
21,9
63,93
105,93
147,93
22,93
64,93
106,93
148,93
23,93
65,93
107,135
149,135
24,135
66,135
108,10
150,52
187,52
25,52
67,52
109,52
151,52
179,52
26,52
68,52
110,94
152,94
27,94
69,94
111,94
153,94
70,94
28,94
112,136
154,136
71,136
29,11
113,11
155,11
30,11
72,11
114,11
156,11
31,11
73,95
115,95
157,95
32,95
74,137
116,137
158,180
33,180
75,12
117,12
159,12
199,12
34,12
76,12
118,12
160,12
35,54
77,54
119,54
161,54
198,54
36,54
78,54
120,54
162,54
197,96
37,96
79,138
121,138
163,138
91,138
193,138
38,138
80,138
122,183
164,183
196,183
39,183
81,183
123,183
165,183
191,13
195,13
40,13
82,13
124,13
166,55
194,97
41,97
83,97
125,97
167,97
178,97
42,97
84,97
126,97
168,14
92,56
177,56
43,56
85,98
127,98
169,98
44,98
86,98
128,98
170,98
192,140
45,182
87,182
129,15
171,15
188,57
46,57
88,57
130,99
172,99
186,141
47,141
89,141
131,141
173,141
184,141
190,16
48,16
90,16
132,16
174,16
49,58
185,58
50,58
93,1
137,176
55,189
55,3
55,1
55,133
55,175
98,9
98,7
98,54
98,183
140,5
140,93
140,138
16,54
143,138
62,136
111,51
111,5
111,9
156,8
156,5
156,13
31,6
77,53
77,183
77,93
77,8
77,51
78,95
78,93
80,183
80,12
196,4
196,94
196,136
196,135
125,53
125,9
125,10
126,55
126,94
126,137
87,14
87,61
87,195
129,181
129,112
129,75
129,125
129,110
172,107
89,126
89,62
89,164
89,143
89,15
173,109
190,107
190,100
190,114
