# Number of vertices:
200
# Edge list:
18,0
186,0
19,0
187,0
20,0
188,0
21,0
189,0
9,0
22,0
190,0
23,0
191,0
17,0
24,0
192,0
13,0
25,0
193,0
26,0
194,0
10,0
27,0
195,0
28,18
196,18
29,18
197,18
2,18
30,18
198,18
1,186
31,186
199,186
32,187
33,20
3,188
34,188
35,188
36,188
15,188
37,21
38,189
39,189
40,189
41,189
42,189
5,189
43,189
44,189
14,9
45,9
6,22
46,22
12,22
47,22
182,23
4,23
48,23
11,23
49,23
50,23
7,23
51,191
16,191
52,191
8,191
53,191
54,191
55,191
56,17
57,17
143,17
58,17
59,17
60,25
102,25
61,25
103,25
144,25
178,25
62,25
104,25
146,193
63,193
105,193
177,193
64,193
106,193
176,26
65,26
107,26
174,194
66,194
108,194
173,194
67,194
109,194
172,194
68,10
110,10
171,10
69,10
111,10
170,10
70,10
112,27
169,27
71,27
113,27
168,27
72,28
114,28
167,28
73,28
115,196
166,196
74,29
116,29
165,197
75,197
117,197
164,2
76,2
118,198
163,198
77,198
119,198
162,198
78,198
120,1
161,31
79,31
121,31
160,31
80,31
122,31
159,31
81,31
123,31
158,32
82,32
124,32
157,32
83,33
125,33
156,33
84,33
126,33
155,33
85,33
127,33
154,3
86,3
128,3
153,3
87,34
129,34
152,34
88,34
130,35
151,35
89,35
131,35
148,35
90,35
132,35
149,36
91,36
133,36
175,36
92,15
134,37
181,37
93,37
135,39
150,39
94,39
136,39
147,40
95,40
137,40
145,40
96,40
138,41
180,42
97,42
139,42
179,42
98,42
140,42
185,42
99,43
141,43
184,43
100,43
142,43
183,43
101,44
199,187
43,191
43,19
43,17
43,10
6,195
6,192
6,21
6,194
47,19
182,191
16,27
107,23
107,189
69,24
69,188
69,189
69,17
111,22
164,61
77,11
158,182
158,40
158,112
86,143
86,59
175,43
175,48
