# Number of vertices:
200
# Edge list:
12,0
138,0
13,0
139,0
14,0
140,0
15,0
141,0
16,0
142,0
17,0
143,0
18,0
144,0
19,0
145,0
20,0
146,0
21,12
147,12
22,12
148,12
23,12
149,12
24,138
150,13
25,13
151,13
26,13
152,139
27,139
153,14
28,140
154,140
29,140
155,140
30,15
156,15
31,15
157,15
32,141
158,141
33,141
159,16
34,16
160,16
35,16
161,16
36,16
162,16
37,16
163,16
38,142
164,142
39,142
165,143
40,143
166,143
41,143
167,143
42,143
168,143
43,143
169,18
136,18
44,18
170,18
45,18
171,18
46,18
94,144
172,144
47,144
173,144
48,19
174,145
137,145
49,20
175,20
50,146
176,21
51,21
95,21
177,147
52,147
178,147
53,147
179,147
54,147
96,22
180,22
55,22
97,22
181,22
56,22
98,23
182,149
57,149
99,149
183,149
58,149
100,24
184,24
59,24
101,24
185,24
60,150
102,150
186,150
61,150
103,150
187,150
62,150
104,150
188,150
63,25
105,25
189,25
64,151
106,151
190,26
65,26
107,26
191,26
66,26
108,152
192,152
67,152
109,152
193,27
68,27
110,27
194,27
69,153
111,153
195,153
70,153
112,28
196,28
71,28
113,28
197,28
72,28
114,28
198,154
73,154
115,154
199,154
74,154
116,154
75,30
117,30
76,156
118,156
77,156
119,156
78,156
120,156
79,156
121,156
80,31
122,31
81,31
123,31
82,31
124,31
83,31
125,31
84,157
126,157
1,157
85,32
127,32
2,32
86,158
128,158
3,158
87,158
129,158
4,158
88,33
130,33
5,159
89,159
131,159
6,159
90,159
132,159
7,159
91,34
133,34
8,34
92,34
134,34
9,34
93,34
135,35
10,35
11,35
21,143
25,141
25,15
25,17
25,138
25,142
29,143
29,20
29,146
29,145
32,144
35,17
35,142
35,138
35,141
35,139
41,141
170,139
170,13
170,140
170,138
171,14
171,19
171,142
172,13
50,144
50,138
50,139
50,15
95,49
178,41
178,173
178,161
97,94
97,26
97,31
97,36
97,23
107,44
107,147
67,41
109,24
109,155
109,32
109,46
193,34
193,33
71,151
116,153
116,47
116,28
116,137
