# Number of vertices:
200
# Edge list:
148,0
149,0
150,0
151,0
152,0
153,0
154,148
155,149
156,149
157,149
158,149
159,149
160,149
161,149
162,150
163,150
164,151
165,151
166,151
167,151
168,151
169,151
170,151
171,151
172,151
173,152
174,152
175,152
176,152
177,152
178,153
179,153
21,153
180,153
181,153
182,153
183,153
184,154
185,155
186,156
187,156
188,156
189,156
105,156
22,156
64,156
106,157
190,157
23,157
65,158
107,158
191,158
24,158
66,158
108,159
192,159
25,159
67,159
109,160
193,160
26,160
68,161
110,161
194,161
27,161
69,161
111,162
195,162
28,162
70,162
112,163
196,163
29,163
71,163
113,163
197,163
30,163
72,163
114,163
198,164
31,164
73,164
115,164
199,164
32,165
74,165
116,165
33,166
75,166
117,166
34,166
76,166
118,166
35,166
77,167
119,167
36,167
78,167
120,167
37,168
79,168
121,168
38,168
80,168
122,168
39,168
81,169
123,169
40,169
82,169
124,169
41,169
83,169
125,169
42,169
84,170
126,170
1,170
43,170
85,171
127,171
147,172
2,172
44,172
86,172
128,172
3,172
45,172
87,172
129,174
4,174
46,174
88,174
130,174
5,174
47,174
89,175
131,175
6,175
48,175
90,175
132,175
7,175
49,176
91,176
133,176
8,176
50,176
92,177
134,177
9,177
51,177
93,177
135,177
10,177
52,177
94,177
136,178
11,179
53,179
95,179
137,179
12,179
54,179
96,180
138,180
13,180
55,180
97,180
139,181
14,181
56,181
98,181
140,181
15,182
57,182
99,183
141,183
16,183
58,183
100,183
142,183
17,183
59,183
101,183
143,184
18,184
60,184
102,184
144,184
19,184
61,184
103,184
145,185
20,185
62,185
104,185
146,185
63,186
154,153
176,148
176,149
176,151
176,153
26,176
26,157
26,164
196,169
196,160
196,176
196,164
71,174
71,162
71,156
71,173
113,157
113,158
113,155
113,164
113,181
119,160
119,156
119,181
119,163
121,183
121,180
121,158
121,155
121,172
88,155
88,165
88,168
88,167
96,168
18,121
20,27
20,65
63,191
63,8
