# Number of vertices:
200
# Edge list:
55,0
139,0
56,0
140,0
57,0
141,0
58,0
142,0
59,0
143,0
60,0
144,0
61,0
145,0
62,0
146,0
63,0
147,0
64,0
148,0
65,0
149,0
66,0
150,0
67,55
151,139
68,139
152,139
69,139
153,140
70,140
154,140
71,140
155,140
72,140
156,140
73,140
157,140
74,57
158,57
75,57
159,57
76,141
160,141
77,141
161,141
78,141
162,141
79,58
163,58
80,58
164,58
81,59
165,59
82,59
166,59
83,59
167,143
84,143
168,143
1,143
85,143
169,60
2,60
86,60
170,60
3,60
87,60
171,60
4,60
88,60
172,144
5,144
89,144
173,144
6,144
90,61
174,61
7,61
91,61
175,61
8,145
92,145
176,145
9,145
93,145
177,145
10,145
94,145
178,62
11,62
95,62
179,62
12,62
96,62
180,62
13,146
97,146
181,146
14,146
98,146
182,146
15,146
99,63
183,63
16,63
100,63
184,63
17,63
101,63
185,63
137,148
18,65
102,65
186,65
19,65
103,65
187,149
20,149
104,149
188,149
21,149
105,66
189,66
22,66
106,66
190,66
138,66
23,66
107,66
191,66
24,150
108,150
192,150
25,150
109,150
193,67
26,67
110,67
194,67
27,67
111,151
195,151
28,152
112,69
196,69
29,69
113,69
197,69
30,153
114,153
198,70
31,70
115,70
199,70
32,70
116,70
33,70
117,70
34,70
118,154
35,154
119,154
36,154
120,154
37,154
121,155
38,72
122,72
39,72
123,72
40,156
124,156
41,73
125,73
42,73
126,73
43,73
127,73
44,157
128,157
45,74
129,74
46,158
130,158
47,158
131,158
48,158
132,158
49,158
133,158
50,158
134,75
51,75
135,75
52,75
136,159
53,159
54,159
71,57
156,143
81,62
81,55
83,60
83,148
83,143
168,145
90,142
182,66
182,141
137,141
137,139
137,58
22,149
22,63
22,142
22,59
190,140
190,65
190,57
23,149
112,176
112,25
112,138
198,163
198,190
198,187
31,162
115,155
115,22
120,17
120,88
120,1
120,185
120,14
42,80
42,102
47,98
132,192
132,137
132,157
