# Number of vertices:
200
# Edge list:
27,0
153,0
195,0
28,0
154,0
29,0
155,0
30,0
156,0
31,0
157,0
32,0
158,0
33,0
159,0
34,0
160,0
35,0
161,0
36,0
162,0
37,0
163,0
38,27
164,27
39,27
165,27
40,27
166,27
41,27
167,27
42,27
168,153
1,153
43,153
169,28
199,154
2,154
44,154
170,154
3,154
45,29
171,29
4,155
46,155
172,155
47,155
5,155
173,155
6,155
48,30
174,30
7,30
49,30
175,30
198,30
8,156
50,156
176,156
9,156
51,156
177,156
10,156
52,156
178,31
11,31
53,31
179,31
12,157
54,157
180,157
13,157
55,157
181,157
14,157
56,157
182,32
197,32
15,32
57,158
183,158
16,158
58,158
184,158
17,158
59,158
185,158
18,33
60,33
186,33
19,33
61,33
187,159
20,159
62,159
188,159
21,159
63,159
189,159
22,34
64,160
190,35
23,35
65,35
191,35
24,35
66,161
192,161
25,161
67,161
193,161
196,161
68,161
26,36
194,36
69,36
111,36
70,162
112,162
71,162
113,162
72,162
114,162
73,162
115,162
74,37
116,37
75,163
117,163
76,163
118,163
77,163
119,163
78,164
120,164
79,164
121,164
80,39
122,39
81,39
123,39
82,39
124,39
83,39
125,39
84,165
126,40
85,40
127,40
86,40
128,40
87,41
129,41
88,167
130,167
89,167
131,167
90,167
132,167
91,167
133,167
92,167
134,42
93,42
135,42
94,42
136,42
95,42
137,42
96,42
138,42
97,168
139,168
98,168
140,168
99,168
141,1
100,1
142,1
101,1
143,1
102,1
144,1
103,1
145,169
104,169
146,169
105,199
147,199
106,199
148,199
152,199
107,199
149,199
108,199
150,2
109,2
151,2
110,2
169,31
7,161
176,30
176,35
176,32
176,31
180,158
180,154
14,153
14,155
14,195
197,36
197,27
197,34
197,157
58,162
60,37
22,159
190,30
190,153
190,157
190,32
190,34
69,154
69,29
69,157
69,160
76,29
76,195
118,36
78,71
78,18
78,177
78,186
78,116
83,118
83,186
83,38
83,71
127,115
127,186
127,50
127,13
134,167
134,183
134,75
134,76
141,18
141,42
141,181
143,184
143,52
143,3
146,23
146,180
146,70
146,112
152,11
