# Number of vertices:
200
# Edge list:
34,0
118,0
35,0
119,0
36,0
120,0
37,0
121,0
38,0
122,0
39,0
123,0
40,0
124,0
41,0
125,0
42,0
126,0
1,0
43,0
127,34
2,34
44,34
128,34
3,34
45,118
129,118
4,35
46,35
130,36
5,36
47,36
131,36
6,36
48,36
132,36
7,36
49,120
133,120
8,120
50,120
134,120
9,120
51,120
135,120
10,120
52,37
136,37
11,121
53,121
137,121
54,121
12,121
138,38
13,122
55,122
139,122
14,122
56,122
140,122
15,39
57,39
141,39
16,39
58,39
142,39
17,39
59,39
143,39
18,123
60,123
144,123
19,123
61,123
145,123
20,123
62,123
146,40
21,40
63,40
147,40
22,40
64,40
148,40
23,40
65,40
149,124
24,124
66,41
150,41
25,41
67,41
151,41
26,125
68,125
152,125
27,125
69,125
153,125
28,125
70,125
154,42
29,42
71,42
155,126
30,126
72,126
156,126
31,126
73,1
157,1
32,1
74,1
158,1
75,1
33,1
159,1
76,43
160,43
77,127
161,127
78,127
162,127
79,127
163,127
80,127
164,44
81,44
165,44
82,44
166,44
83,3
167,3
84,3
168,3
85,3
169,3
86,3
170,3
87,45
171,45
88,45
172,45
89,45
173,45
90,45
174,129
91,129
175,129
92,4
176,4
93,4
177,4
94,4
178,4
95,46
179,46
96,46
180,46
97,46
181,46
98,46
182,46
99,46
183,130
100,130
184,5
101,5
185,5
102,5
186,47
103,47
187,47
104,47
188,131
105,131
189,131
106,131
190,131
107,6
191,6
108,6
192,6
109,48
193,48
110,48
194,48
111,132
195,132
112,132
196,132
113,132
197,132
114,7
198,7
115,7
199,7
116,49
117,49
3,1
3,42
130,124
144,41
144,39
144,126
144,38
144,37
150,121
25,37
25,1
25,122
26,36
26,40
26,121
26,1
152,121
27,35
27,1
27,120
72,118
72,36
72,119
72,122
72,120
162,22
162,132
162,148
86,17
86,7
86,152
86,31
89,71
99,60
99,17
187,129
105,58
105,15
105,159
193,68
193,139
193,129
193,12
193,75
116,61
116,139
116,157
116,67
116,138
