# Number of vertices:
200
# Edge list:
26,0
68,0
152,0
27,0
69,0
153,0
28,0
70,0
154,0
29,0
71,0
155,0
30,0
72,0
156,0
31,0
73,0
157,0
32,0
74,0
158,0
33,0
75,0
159,0
34,0
76,0
160,0
35,0
77,0
161,0
36,26
78,26
162,26
37,68
79,68
163,68
38,68
80,68
164,68
39,68
81,68
165,68
40,152
82,27
166,27
41,27
83,27
167,69
42,69
84,153
168,153
1,153
43,153
85,153
169,153
2,28
44,28
86,28
170,28
3,28
45,28
87,28
171,70
46,70
4,70
88,70
172,154
5,154
47,154
89,154
173,71
6,71
48,71
90,30
174,30
7,30
49,30
91,30
175,30
8,30
50,72
92,156
176,156
9,156
51,156
93,156
177,31
10,31
52,31
94,31
178,31
11,73
53,73
95,73
179,73
12,73
54,73
96,73
180,73
13,157
55,157
97,32
181,32
14,32
56,32
98,32
182,32
15,32
57,32
99,74
183,74
16,74
58,158
100,158
184,158
17,75
59,159
101,159
185,159
18,159
60,159
102,159
186,159
19,159
61,34
103,34
187,34
20,34
62,34
104,34
188,34
21,34
63,76
105,76
189,160
22,160
64,160
106,160
190,160
23,160
65,160
107,160
191,35
24,35
66,77
108,77
192,77
67,161
25,161
109,161
193,161
110,161
194,161
199,161
111,161
195,161
112,36
196,36
113,36
197,36
114,36
198,36
115,36
116,78
117,78
118,78
119,78
120,78
121,78
122,78
123,78
124,78
125,162
126,162
127,162
128,162
129,79
130,79
131,79
132,79
133,79
134,79
135,79
136,163
137,163
138,163
139,163
140,163
141,38
142,38
143,38
144,38
145,38
146,38
147,38
148,38
149,164
150,164
151,39
38,155
38,31
38,32
38,72
38,28
40,72
40,30
83,154
83,77
83,34
170,30
45,31
45,33
45,30
45,76
92,77
92,74
92,35
92,27
178,71
178,161
178,35
178,32
180,68
180,158
180,31
180,153
184,75
184,34
184,73
184,77
101,74
18,68
18,34
18,26
18,71
104,75
22,74
66,152
66,153
66,27
66,31
25,159
25,77
25,68
25,155
25,156
194,28
113,170
116,163
116,44
127,192
