# Number of vertices:
200
# Edge list:
28,0
70,0
112,0
154,0
196,0
29,0
71,0
113,0
155,0
197,0
30,0
72,0
114,0
156,0
198,0
31,0
73,0
115,0
157,0
199,0
32,0
74,0
116,0
158,0
33,0
75,0
117,0
159,0
34,0
76,0
118,70
160,70
35,112
77,112
119,112
161,112
36,112
78,112
120,154
162,154
37,154
79,154
121,154
163,154
38,196
80,196
122,196
164,196
39,196
81,29
123,29
165,29
40,29
82,29
124,29
166,29
41,29
83,71
125,71
167,71
42,71
84,71
126,71
1,71
168,71
43,71
85,113
127,113
169,113
2,113
44,113
86,113
128,113
170,155
3,155
45,30
87,30
129,30
171,30
4,30
46,30
88,30
130,30
172,114
5,156
47,198
89,198
131,198
173,198
48,198
6,198
90,31
132,31
174,31
7,31
49,31
91,31
133,31
175,31
8,31
50,115
92,115
134,115
176,157
9,157
51,157
93,157
135,157
177,157
10,157
52,157
94,199
136,199
178,199
11,199
53,199
95,199
137,32
179,32
12,32
54,32
96,32
138,32
180,32
13,32
55,74
97,74
139,74
181,74
14,116
56,116
98,116
140,116
182,116
15,116
57,116
99,116
141,158
183,158
16,33
58,33
100,75
142,75
184,75
17,75
59,117
101,117
143,117
185,117
18,117
60,117
102,117
144,117
186,159
19,159
61,159
103,159
145,159
187,159
20,159
62,159
104,76
146,76
188,76
21,76
63,76
105,76
147,76
189,76
22,76
64,118
106,118
148,118
190,118
23,118
65,118
107,118
149,118
191,118
24,160
66,160
108,160
150,35
192,35
25,35
67,77
109,77
151,77
193,77
26,119
68,119
110,119
152,119
194,119
69,119
27,119
111,119
153,119
195,161
119,76
78,154
78,197
78,74
78,117
37,114
122,74
122,157
84,33
84,113
84,199
84,158
86,34
86,28
86,29
86,117
128,154
3,199
90,75
90,157
174,28
174,33
174,115
8,74
134,30
134,159
134,31
51,33
51,198
53,28
53,71
53,156
54,198
54,114
54,72
54,155
181,114
181,70
181,112
181,32
56,197
56,112
56,114
56,157
17,112
17,74
19,70
19,154
19,199
19,34
19,28
187,198
187,74
187,28
187,34
21,29
21,199
105,30
105,117
105,114
189,73
189,159
194,77
194,15
194,179
69,14
69,126
69,102
