# Number of vertices:
200
# Edge list:
37,0
79,0
38,0
80,0
39,0
81,0
40,0
82,0
41,0
83,0
42,0
84,0
43,0
85,0
44,0
86,0
45,0
87,37
46,37
88,37
47,37
89,37
48,37
90,37
49,37
91,37
50,38
92,38
51,38
93,38
52,80
94,80
53,80
95,80
54,81
96,81
55,81
97,81
56,81
98,81
57,81
99,40
58,40
100,82
59,82
101,82
60,82
102,82
61,41
103,41
62,41
104,41
63,41
105,41
64,41
106,41
65,41
107,83
66,42
108,42
67,42
109,42
68,43
110,43
69,43
111,43
70,85
112,85
71,85
113,85
72,85
114,85
73,85
115,85
74,85
116,44
75,44
117,44
76,44
118,44
77,44
119,44
78,86
120,86
162,86
161,86
163,86
126,86
164,86
165,86
160,87
166,87
167,87
159,87
168,87
1,87
158,87
169,46
157,46
2,46
170,46
156,46
3,88
171,88
155,88
4,88
172,47
154,47
5,47
173,89
153,48
6,48
125,90
174,90
152,49
7,49
124,49
175,49
8,91
176,91
151,50
9,50
177,92
150,92
10,92
178,92
149,92
11,92
179,92
148,51
12,51
147,51
180,51
13,51
146,51
181,51
14,51
145,93
182,93
15,52
144,52
183,52
16,52
123,52
184,52
17,94
122,94
185,94
143,53
18,53
186,53
19,53
187,53
142,53
20,53
188,53
141,53
127,95
21,95
189,95
140,96
22,96
139,96
190,96
23,96
138,96
191,55
24,55
137,55
192,55
25,55
136,55
193,55
26,55
135,97
194,97
27,97
134,97
195,56
28,56
133,56
196,98
29,98
132,98
197,98
30,98
131,57
198,57
31,58
199,101
32,101
121,101
130,101
33,101
129,101
34,60
128,60
35,60
36,60
92,42
92,79
92,41
92,40
92,82
99,81
99,82
99,44
103,84
103,38
109,80
109,41
75,80
161,84
161,37
167,58
167,114
167,76
159,51
159,101
159,72
159,88
159,47
169,47
169,66
169,98
169,117
124,164
124,51
124,69
124,117
124,58
180,88
180,75
20,64
20,66
20,78
139,55
138,126
138,100
138,69
138,113
138,88
191,54
137,110
192,117
192,116
26,104
194,63
194,72
194,76
