# Number of vertices:
200
# Edge list:
33,0
117,0
159,0
19,0
34,0
118,0
2,33
160,33
5,33
35,33
119,159
161,159
32,19
36,34
120,34
162,34
18,34
37,34
121,34
4,34
163,118
38,118
122,118
164,118
31,118
39,118
123,2
165,2
17,2
40,2
124,2
3,2
166,2
41,160
125,5
167,5
30,5
42,5
126,35
168,35
16,35
43,35
127,35
169,35
44,35
128,35
170,35
29,119
45,119
129,119
171,119
15,161
46,161
130,161
172,32
47,32
131,32
173,32
28,36
48,36
132,36
174,36
14,36
49,36
133,36
175,36
1,36
50,120
134,120
176,162
27,162
51,162
135,162
177,162
13,162
52,162
136,18
178,18
53,18
137,37
179,37
26,37
54,121
138,121
180,4
12,4
55,4
139,4
181,4
56,4
140,163
182,163
25,163
57,163
141,163
183,163
11,38
58,38
142,38
184,38
59,38
143,38
185,38
24,38
60,122
144,122
186,122
10,122
61,122
145,164
187,164
62,31
146,31
188,31
63,31
147,123
189,123
23,123
64,123
148,123
190,123
9,123
65,123
149,165
191,165
66,165
150,165
192,165
22,165
67,165
151,165
193,17
8,17
68,17
152,17
194,17
69,17
153,17
195,124
21,3
70,3
154,166
196,166
7,166
71,166
155,166
197,41
72,41
156,41
198,41
20,125
73,167
157,167
199,167
74,167
6,167
158,167
75,167
76,167
77,30
78,30
79,30
80,30
81,30
82,30
83,30
84,30
85,42
86,42
87,42
88,42
89,42
90,42
91,42
92,42
93,42
94,126
95,126
96,126
97,126
98,126
99,168
100,168
101,168
102,168
103,168
104,168
105,168
106,16
107,16
108,16
109,16
110,43
111,43
112,43
113,43
114,43
115,127
116,127
120,159
120,117
18,118
121,118
121,117
121,33
121,159
121,19
124,119
124,162
124,163
129,161
129,2
129,120
129,4
129,35
59,2
59,161
23,173
74,53
75,173
75,144
75,63
75,134
75,168
81,47
81,54
81,180
86,131
86,14
86,142
94,127
96,29
96,43
99,45
99,173
99,144
100,28
102,12
102,11
102,30
102,176
102,59
105,40
