# Number of vertices:
200
# Edge list:
55,0
139,0
56,0
140,0
57,55
141,55
58,55
142,55
59,139
143,139
60,139
144,139
61,139
145,139
62,139
146,140
63,140
147,140
64,140
148,140
65,140
137,57
149,141
66,141
150,141
67,141
151,58
68,58
152,58
69,58
153,142
70,142
138,142
154,142
71,142
155,142
72,142
156,59
73,59
157,59
74,59
158,59
75,143
159,143
76,143
160,143
77,61
161,145
78,145
162,145
79,145
163,145
80,145
164,145
81,62
165,62
82,62
166,62
83,146
167,146
84,146
168,146
85,146
169,146
86,146
170,146
87,146
171,63
88,63
172,63
89,63
173,63
90,63
174,63
91,63
175,147
92,147
176,147
93,64
177,64
94,148
178,148
95,148
179,65
96,65
180,65
13,65
97,65
181,65
14,65
98,137
182,137
15,137
99,137
183,137
16,137
100,66
184,66
17,66
101,150
185,150
18,150
102,150
186,150
19,150
103,150
187,151
20,151
104,151
188,151
21,68
105,68
189,152
22,152
106,152
190,152
23,152
107,152
191,152
24,152
108,152
192,69
25,69
109,69
193,70
26,70
110,138
194,138
27,138
111,138
195,154
28,154
112,71
196,71
29,71
113,71
197,155
30,155
114,155
198,155
31,155
115,155
199,72
32,156
116,156
33,156
117,156
34,73
118,73
35,73
119,73
36,73
120,73
11,73
37,73
121,157
38,157
122,157
39,157
123,157
40,157
124,157
41,157
125,157
12,74
42,74
126,74
1,74
43,74
127,74
2,74
44,74
128,74
3,158
45,158
129,158
4,158
46,158
130,158
5,158
47,75
131,75
6,75
48,75
132,159
7,159
49,159
133,159
8,76
50,76
134,76
9,76
51,160
135,160
10,160
52,160
136,160
53,160
54,160
59,140
62,140
62,56
62,55
63,55
63,139
63,56
152,61
152,64
152,63
72,63
72,60
72,58
72,57
86,58
86,60
86,141
86,142
173,141
173,60
173,58
13,143
183,69
108,84
108,177
108,155
108,161
195,169
113,172
113,170
116,73
33,84
118,97
120,155
120,89
120,14
11,77
11,71
11,150
11,151
123,71
123,89
123,96
123,171
123,175
5,91
5,73
5,93
132,92
133,160
133,152
133,78
133,176
