digraph G {
    0 [penwidth=3,label="0"]
    1 [penwidth=3,label="1"]
    2 [penwidth=3,label="2"]
    3 [penwidth=3,label="3"]
    4 [penwidth=3,label="4"]
    5 [penwidth=3,label="5"]
    6 [penwidth=3,label="6"]
    7 [penwidth=3,label="7"]
    8 [penwidth=3,label="8"]
    9 [penwidth=3,label="9"]
    10 [penwidth=3,label="10"]
    11 [penwidth=3,label="11"]
    12 [penwidth=3,label="12"]
    13 [penwidth=3,label="13"]
    14 [penwidth=3,label="14"]
    15 [penwidth=3,label="15"]
    16 [penwidth=3,label="16"]
    17 [penwidth=3,label="17"]
    18 [penwidth=3,label="18"]
    19 [penwidth=3,label="19"]
    20 [penwidth=3,label="20"]
    21 [penwidth=3,label="21"]
    22 [penwidth=3,label="22"]
    23 [penwidth=3,label="23"]
    24 [penwidth=3,label="24"]
    25 [penwidth=3,label="25"]
    26 [penwidth=3,label="26"]
    27 [penwidth=3,label="27"]
    28 [penwidth=3,label="28"]
    29 [penwidth=3,label="29"]
    30 [penwidth=3,label="30"]
    31 [penwidth=3,label="31"]
    32 [penwidth=3,label="32"]
    33 [penwidth=3,label="33"]
    34 [penwidth=3,label="34"]
    35 [penwidth=3,label="35"]
    36 [penwidth=3,label="36"]
    37 [penwidth=3,label="37"]
    38 [penwidth=3,label="38"]
    39 [penwidth=3,label="39"]
    40 [penwidth=3,label="40"]
    41 [penwidth=3,label="41"]
    42 [penwidth=3,label="42"]
    43 [penwidth=3,label="43"]
    44 [penwidth=3,label="44"]
    45 [penwidth=3,label="45"]
    46 [penwidth=3,label="46"]
    47 [penwidth=3,label="47"]
    48 [penwidth=3,label="48"]
    49 [penwidth=3,label="49"]
    50 [penwidth=3,label="50"]
    51 [penwidth=3,label="51"]
    52 [penwidth=3,label="52"]
    53 [penwidth=3,label="53"]
    54 [penwidth=3,label="54"]
    55 [penwidth=3,label="55"]
    56 [penwidth=3,label="56"]
    57 [penwidth=3,label="57"]
    58 [penwidth=3,label="58"]
    59 [penwidth=3,label="59"]
    60 [penwidth=3,label="60"]
    61 [penwidth=3,label="61"]
    62 [penwidth=3,label="62"]
    63 [penwidth=3,label="63"]
    64 [penwidth=3,label="64"]
    65 [penwidth=3,label="65"]
    66 [penwidth=3,label="66"]
    67 [penwidth=3,label="67"]
    68 [penwidth=3,label="68"]
    69 [penwidth=3,label="69"]
    70 [penwidth=3,label="70"]
    71 [penwidth=3,label="71"]
    72 [penwidth=3,label="72"]
    73 [penwidth=3,label="73"]
    74 [penwidth=3,label="74"]
    75 [penwidth=3,label="75"]
    76 [penwidth=3,label="76"]
    77 [penwidth=3,label="77"]
    78 [penwidth=3,label="78"]
    79 [penwidth=3,label="79"]
    80 [penwidth=3,label="80"]
    81 [penwidth=3,label="81"]
    82 [penwidth=3,label="82"]
    83 [penwidth=3,label="83"]
    84 [penwidth=3,label="84"]
    85 [penwidth=3,label="85"]
    86 [penwidth=3,label="86"]
    87 [penwidth=3,label="87"]
    88 [penwidth=3,label="88"]
    89 [penwidth=3,label="89"]
    90 [penwidth=3,label="90"]
    91 [penwidth=3,label="91"]
    92 [penwidth=3,label="92"]
    93 [penwidth=3,label="93"]
    94 [penwidth=3,label="94"]
    95 [penwidth=3,label="95"]
    96 [penwidth=3,label="96"]
    97 [penwidth=3,label="97"]
    98 [penwidth=3,label="98"]
    99 [penwidth=3,label="99"]
    100 [penwidth=3,label="100"]
    101 [penwidth=3,label="101"]
    102 [penwidth=3,label="102"]
    103 [penwidth=3,label="103"]
    104 [penwidth=3,label="104"]
    105 [penwidth=3,label="105"]
    106 [penwidth=3,label="106"]
    107 [penwidth=3,label="107"]
    108 [penwidth=3,label="108"]
    109 [penwidth=3,label="109"]

    59 -> 0 [penwidth=2]
    60 -> 0 [penwidth=2]
    61 -> 0 [penwidth=2]
    62 -> 0 [penwidth=2]
    63 -> 0 [penwidth=2]
    64 -> 59 [penwidth=2]
    65 -> 59 [penwidth=2]
    66 -> 59 [penwidth=2]
    67 -> 59 [penwidth=2]
    68 -> 59 [penwidth=2]
    69 -> 59 [penwidth=2]
    16 -> 59 [penwidth=2]
    70 -> 59 [penwidth=2]
    71 -> 59 [penwidth=2]
    72 -> 59 [penwidth=2]
    73 -> 59 [penwidth=2]
    74 -> 59 [penwidth=2]
    75 -> 59 [penwidth=2]
    76 -> 59 [penwidth=2]
    77 -> 59 [penwidth=2]
    78 -> 60 [penwidth=2]
    79 -> 60 [penwidth=2]
    80 -> 60 [penwidth=2]
    81 -> 61 [penwidth=2]
    82 -> 61 [penwidth=2]
    83 -> 61 [penwidth=2]
    84 -> 61 [penwidth=2]
    85 -> 61 [penwidth=2]
    86 -> 61 [penwidth=2]
    87 -> 61 [penwidth=2]
    88 -> 61 [penwidth=2]
    89 -> 61 [penwidth=2]
    90 -> 61 [penwidth=2]
    91 -> 61 [penwidth=2]
    92 -> 61 [penwidth=2]
    93 -> 61 [penwidth=2]
    94 -> 61 [penwidth=2]
    95 -> 61 [penwidth=2]
    96 -> 62 [penwidth=2]
    97 -> 62 [penwidth=2]
    98 -> 62 [penwidth=2]
    99 -> 62 [penwidth=2]
    100 -> 62 [penwidth=2]
    17 -> 62 [penwidth=2]
    101 -> 62 [penwidth=2]
    18 -> 62 [penwidth=2]
    102 -> 62 [penwidth=2]
    19 -> 62 [penwidth=2]
    103 -> 62 [penwidth=2]
    20 -> 62 [penwidth=2]
    104 -> 62 [penwidth=2]
    21 -> 62 [penwidth=2]
    105 -> 62 [penwidth=2]
    22 -> 63 [penwidth=2]
    106 -> 63 [penwidth=2]
    23 -> 63 [penwidth=2]
    107 -> 63 [penwidth=2]
    24 -> 63 [penwidth=2]
    108 -> 63 [penwidth=2]
    25 -> 63 [penwidth=2]
    109 -> 63 [penwidth=2]
    26 -> 63 [penwidth=2]
    27 -> 63 [penwidth=2]
    28 -> 63 [penwidth=2]
    29 -> 63 [penwidth=2]
    30 -> 63 [penwidth=2]
    31 -> 63 [penwidth=2]
    32 -> 63 [penwidth=2]
    33 -> 63 [penwidth=2]
    34 -> 63 [penwidth=2]
    35 -> 63 [penwidth=2]
    36 -> 63 [penwidth=2]
    37 -> 63 [penwidth=2]
    38 -> 64 [penwidth=2]
    39 -> 64 [penwidth=2]
    40 -> 64 [penwidth=2]
    41 -> 64 [penwidth=2]
    42 -> 64 [penwidth=2]
    1 -> 64 [penwidth=2]
    43 -> 65 [penwidth=2]
    2 -> 65 [penwidth=2]
    44 -> 65 [penwidth=2]
    3 -> 65 [penwidth=2]
    45 -> 65 [penwidth=2]
    4 -> 65 [penwidth=2]
    46 -> 65 [penwidth=2]
    5 -> 65 [penwidth=2]
    47 -> 65 [penwidth=2]
    6 -> 65 [penwidth=2]
    48 -> 65 [penwidth=2]
    7 -> 65 [penwidth=2]
    49 -> 65 [penwidth=2]
    8 -> 65 [penwidth=2]
    50 -> 65 [penwidth=2]
    9 -> 66 [penwidth=2]
    51 -> 66 [penwidth=2]
    10 -> 66 [penwidth=2]
    52 -> 66 [penwidth=2]
    11 -> 66 [penwidth=2]
    53 -> 66 [penwidth=2]
    12 -> 66 [penwidth=2]
    54 -> 66 [penwidth=2]
    13 -> 66 [penwidth=2]
    55 -> 66 [penwidth=2]
    14 -> 66 [penwidth=2]
    56 -> 66 [penwidth=2]
    15 -> 66 [penwidth=2]
    57 -> 66 [penwidth=2]
    58 -> 66 [penwidth=2]
    65 -> 63 [penwidth=2]
    78 -> 59 [penwidth=2]
    78 -> 61 [penwidth=2]
    88 -> 62 [penwidth=2]
    88 -> 59 [penwidth=2]
    88 -> 60 [penwidth=2]
    92 -> 59 [penwidth=2]
    92 -> 60 [penwidth=2]
    92 -> 63 [penwidth=2]
    24 -> 60 [penwidth=2]
    24 -> 61 [penwidth=2]
    24 -> 59 [penwidth=2]
    28 -> 62 [penwidth=2]
    35 -> 61 [penwidth=2]
    36 -> 62 [penwidth=2]
    2 -> 108 [penwidth=2]
    2 -> 102 [penwidth=2]
    2 -> 91 [penwidth=2]
    2 -> 35 [penwidth=2]
    2 -> 23 [penwidth=2]
    2 -> 104 [penwidth=2]
    2 -> 33 [penwidth=2]
    2 -> 82 [penwidth=2]
    2 -> 92 [penwidth=2]
    2 -> 89 [penwidth=2]
    2 -> 24 [penwidth=2]
    2 -> 80 [penwidth=2]
    2 -> 77 [penwidth=2]
    2 -> 36 [penwidth=2]
    2 -> 29 [penwidth=2]
    2 -> 18 [penwidth=2]
    2 -> 97 [penwidth=2]
    2 -> 90 [penwidth=2]
    2 -> 17 [penwidth=2]
    2 -> 74 [penwidth=2]
    2 -> 88 [penwidth=2]
    2 -> 103 [penwidth=2]
    2 -> 37 [penwidth=2]
    2 -> 84 [penwidth=2]
    2 -> 98 [penwidth=2]
    2 -> 66 [penwidth=2]
    2 -> 20 [penwidth=2]
    2 -> 101 [penwidth=2]
    2 -> 22 [penwidth=2]
    2 -> 26 [penwidth=2]
    2 -> 105 [penwidth=2]
    2 -> 83 [penwidth=2]
    2 -> 28 [penwidth=2]
    2 -> 32 [penwidth=2]
    2 -> 99 [penwidth=2]
    2 -> 68 [penwidth=2]
    45 -> 103 [penwidth=2]
    45 -> 29 [penwidth=2]
    45 -> 76 [penwidth=2]
    45 -> 79 [penwidth=2]
    45 -> 108 [penwidth=2]
    45 -> 100 [penwidth=2]
    45 -> 96 [penwidth=2]
    45 -> 83 [penwidth=2]
    45 -> 104 [penwidth=2]
    45 -> 88 [penwidth=2]
    45 -> 89 [penwidth=2]
    45 -> 98 [penwidth=2]
    45 -> 23 [penwidth=2]
    45 -> 25 [penwidth=2]
    45 -> 93 [penwidth=2]
    45 -> 84 [penwidth=2]
    45 -> 107 [penwidth=2]
    45 -> 90 [penwidth=2]
    45 -> 94 [penwidth=2]
    45 -> 97 [penwidth=2]
    45 -> 77 [penwidth=2]
    45 -> 17 [penwidth=2]
    45 -> 28 [penwidth=2]
    45 -> 35 [penwidth=2]
    45 -> 81 [penwidth=2]
    45 -> 106 [penwidth=2]
    45 -> 91 [penwidth=2]
    4 -> 34 [penwidth=2]
    4 -> 82 [penwidth=2]
    4 -> 68 [penwidth=2]
    4 -> 109 [penwidth=2]
    4 -> 27 [penwidth=2]
    4 -> 86 [penwidth=2]
    4 -> 94 [penwidth=2]
    4 -> 36 [penwidth=2]
    4 -> 101 [penwidth=2]
    4 -> 78 [penwidth=2]
    4 -> 25 [penwidth=2]
    4 -> 64 [penwidth=2]
    4 -> 79 [penwidth=2]
    4 -> 35 [penwidth=2]
    4 -> 92 [penwidth=2]
    4 -> 99 [penwidth=2]
    4 -> 21 [penwidth=2]
    4 -> 85 [penwidth=2]
    4 -> 33 [penwidth=2]
    4 -> 75 [penwidth=2]
    4 -> 31 [penwidth=2]
    4 -> 28 [penwidth=2]
    4 -> 87 [penwidth=2]
    4 -> 29 [penwidth=2]
    48 -> 93 [penwidth=2]
    48 -> 25 [penwidth=2]
    48 -> 102 [penwidth=2]
    48 -> 18 [penwidth=2]
    48 -> 75 [penwidth=2]
    7 -> 26 [penwidth=2]
    7 -> 101 [penwidth=2]
    7 -> 72 [penwidth=2]
    7 -> 87 [penwidth=2]
    7 -> 90 [penwidth=2]
    7 -> 73 [penwidth=2]
    7 -> 80 [penwidth=2]
    7 -> 83 [penwidth=2]
    7 -> 107 [penwidth=2]
    51 -> 96 [penwidth=2]
    51 -> 37 [penwidth=2]
    51 -> 97 [penwidth=2]
    51 -> 98 [penwidth=2]
    51 -> 81 [penwidth=2]
    51 -> 23 [penwidth=2]
    51 -> 86 [penwidth=2]
    51 -> 100 [penwidth=2]
    51 -> 26 [penwidth=2]
    51 -> 88 [penwidth=2]
    51 -> 77 [penwidth=2]
    51 -> 28 [penwidth=2]
    51 -> 104 [penwidth=2]
    51 -> 99 [penwidth=2]
    51 -> 89 [penwidth=2]
    51 -> 30 [penwidth=2]
    51 -> 18 [penwidth=2]
    51 -> 73 [penwidth=2]
    51 -> 101 [penwidth=2]
    51 -> 71 [penwidth=2]
    51 -> 69 [penwidth=2]
    51 -> 95 [penwidth=2]
    51 -> 20 [penwidth=2]
    51 -> 85 [penwidth=2]
    51 -> 82 [penwidth=2]
    51 -> 78 [penwidth=2]
    51 -> 103 [penwidth=2]
    51 -> 92 [penwidth=2]
    51 -> 84 [penwidth=2]
    51 -> 105 [penwidth=2]
    51 -> 21 [penwidth=2]
    51 -> 72 [penwidth=2]
    51 -> 90 [penwidth=2]
    51 -> 79 [penwidth=2]
    51 -> 24 [penwidth=2]
    51 -> 70 [penwidth=2]
    51 -> 17 [penwidth=2]
    51 -> 91 [penwidth=2]
    51 -> 109 [penwidth=2]
    51 -> 83 [penwidth=2]
    51 -> 34 [penwidth=2]
    51 -> 74 [penwidth=2]
    51 -> 76 [penwidth=2]
    51 -> 107 [penwidth=2]
    51 -> 22 [penwidth=2]
    51 -> 108 [penwidth=2]
    51 -> 36 [penwidth=2]
    51 -> 31 [penwidth=2]
    51 -> 27 [penwidth=2]
    51 -> 29 [penwidth=2]
    51 -> 25 [penwidth=2]
    51 -> 32 [penwidth=2]
    51 -> 65 [penwidth=2]
    51 -> 35 [penwidth=2]
    51 -> 75 [penwidth=2]
    51 -> 80 [penwidth=2]
    51 -> 33 [penwidth=2]
    51 -> 102 [penwidth=2]
}