digraph G {
    0 [penwidth=3,label="0"]
    1 [penwidth=3,label="1"]
    2 [penwidth=3,label="2"]
    3 [penwidth=3,label="3"]
    4 [penwidth=3,label="4"]
    5 [penwidth=3,label="5"]
    6 [penwidth=3,label="6"]
    7 [penwidth=3,label="7"]
    8 [penwidth=3,label="8"]
    9 [penwidth=3,label="9"]
    10 [penwidth=3,label="10"]
    11 [penwidth=3,label="11"]
    12 [penwidth=3,label="12"]
    13 [penwidth=3,label="13"]
    14 [penwidth=3,label="14"]
    15 [penwidth=3,label="15"]
    16 [penwidth=3,label="16"]
    17 [penwidth=3,label="17"]
    18 [penwidth=3,label="18"]
    19 [penwidth=3,label="19"]
    20 [penwidth=3,label="20"]
    21 [penwidth=3,label="21"]
    22 [penwidth=3,label="22"]
    23 [penwidth=3,label="23"]
    24 [penwidth=3,label="24"]
    25 [penwidth=3,label="25"]
    26 [penwidth=3,label="26"]
    27 [penwidth=3,label="27"]
    28 [penwidth=3,label="28"]
    29 [penwidth=3,label="29"]
    30 [penwidth=3,label="30"]
    31 [penwidth=3,label="31"]
    32 [penwidth=3,label="32"]
    33 [penwidth=3,label="33"]
    34 [penwidth=3,label="34"]
    35 [penwidth=3,label="35"]
    36 [penwidth=3,label="36"]
    37 [penwidth=3,label="37"]
    38 [penwidth=3,label="38"]
    39 [penwidth=3,label="39"]
    40 [penwidth=3,label="40"]
    41 [penwidth=3,label="41"]
    42 [penwidth=3,label="42"]
    43 [penwidth=3,label="43"]
    44 [penwidth=3,label="44"]
    45 [penwidth=3,label="45"]
    46 [penwidth=3,label="46"]
    47 [penwidth=3,label="47"]
    48 [penwidth=3,label="48"]
    49 [penwidth=3,label="49"]
    50 [penwidth=3,label="50"]
    51 [penwidth=3,label="51"]
    52 [penwidth=3,label="52"]
    53 [penwidth=3,label="53"]
    54 [penwidth=3,label="54"]
    55 [penwidth=3,label="55"]
    56 [penwidth=3,label="56"]
    57 [penwidth=3,label="57"]
    58 [penwidth=3,label="58"]
    59 [penwidth=3,label="59"]
    60 [penwidth=3,label="60"]
    61 [penwidth=3,label="61"]
    62 [penwidth=3,label="62"]
    63 [penwidth=3,label="63"]
    64 [penwidth=3,label="64"]
    65 [penwidth=3,label="65"]
    66 [penwidth=3,label="66"]
    67 [penwidth=3,label="67"]
    68 [penwidth=3,label="68"]
    69 [penwidth=3,label="69"]
    70 [penwidth=3,label="70"]
    71 [penwidth=3,label="71"]
    72 [penwidth=3,label="72"]
    73 [penwidth=3,label="73"]
    74 [penwidth=3,label="74"]
    75 [penwidth=3,label="75"]
    76 [penwidth=3,label="76"]
    77 [penwidth=3,label="77"]
    78 [penwidth=3,label="78"]
    79 [penwidth=3,label="79"]
    80 [penwidth=3,label="80"]
    81 [penwidth=3,label="81"]
    82 [penwidth=3,label="82"]
    83 [penwidth=3,label="83"]
    84 [penwidth=3,label="84"]
    85 [penwidth=3,label="85"]
    86 [penwidth=3,label="86"]
    87 [penwidth=3,label="87"]
    88 [penwidth=3,label="88"]
    89 [penwidth=3,label="89"]
    90 [penwidth=3,label="90"]
    91 [penwidth=3,label="91"]
    92 [penwidth=3,label="92"]
    93 [penwidth=3,label="93"]
    94 [penwidth=3,label="94"]
    95 [penwidth=3,label="95"]
    96 [penwidth=3,label="96"]
    97 [penwidth=3,label="97"]
    98 [penwidth=3,label="98"]
    99 [penwidth=3,label="99"]
    100 [penwidth=3,label="100"]
    101 [penwidth=3,label="101"]
    102 [penwidth=3,label="102"]
    103 [penwidth=3,label="103"]
    104 [penwidth=3,label="104"]
    105 [penwidth=3,label="105"]
    106 [penwidth=3,label="106"]
    107 [penwidth=3,label="107"]
    108 [penwidth=3,label="108"]
    109 [penwidth=3,label="109"]

    91 -> 0 [penwidth=2]
    81 -> 0 [penwidth=2]
    85 -> 0 [penwidth=2]
    68 -> 0 [penwidth=2]
    98 -> 91 [penwidth=2]
    79 -> 91 [penwidth=2]
    72 -> 91 [penwidth=2]
    83 -> 91 [penwidth=2]
    70 -> 91 [penwidth=2]
    67 -> 91 [penwidth=2]
    78 -> 91 [penwidth=2]
    89 -> 91 [penwidth=2]
    74 -> 91 [penwidth=2]
    88 -> 91 [penwidth=2]
    80 -> 91 [penwidth=2]
    75 -> 91 [penwidth=2]
    76 -> 91 [penwidth=2]
    93 -> 91 [penwidth=2]
    95 -> 91 [penwidth=2]
    71 -> 91 [penwidth=2]
    92 -> 81 [penwidth=2]
    86 -> 81 [penwidth=2]
    77 -> 81 [penwidth=2]
    69 -> 81 [penwidth=2]
    96 -> 81 [penwidth=2]
    87 -> 81 [penwidth=2]
    94 -> 81 [penwidth=2]
    90 -> 81 [penwidth=2]
    82 -> 81 [penwidth=2]
    84 -> 81 [penwidth=2]
    73 -> 81 [penwidth=2]
    97 -> 85 [penwidth=2]
    60 -> 85 [penwidth=2]
    66 -> 85 [penwidth=2]
    59 -> 85 [penwidth=2]
    61 -> 85 [penwidth=2]
    65 -> 85 [penwidth=2]
    64 -> 85 [penwidth=2]
    58 -> 85 [penwidth=2]
    63 -> 85 [penwidth=2]
    57 -> 85 [penwidth=2]
    62 -> 85 [penwidth=2]
    104 -> 85 [penwidth=2]
    56 -> 85 [penwidth=2]
    9 -> 85 [penwidth=2]
    55 -> 68 [penwidth=2]
    103 -> 68 [penwidth=2]
    15 -> 68 [penwidth=2]
    54 -> 68 [penwidth=2]
    25 -> 68 [penwidth=2]
    34 -> 68 [penwidth=2]
    11 -> 98 [penwidth=2]
    33 -> 98 [penwidth=2]
    32 -> 98 [penwidth=2]
    31 -> 98 [penwidth=2]
    7 -> 98 [penwidth=2]
    12 -> 79 [penwidth=2]
    30 -> 79 [penwidth=2]
    29 -> 79 [penwidth=2]
    6 -> 79 [penwidth=2]
    28 -> 79 [penwidth=2]
    27 -> 79 [penwidth=2]
    5 -> 79 [penwidth=2]
    26 -> 79 [penwidth=2]
    24 -> 79 [penwidth=2]
    109 -> 79 [penwidth=2]
    23 -> 79 [penwidth=2]
    22 -> 79 [penwidth=2]
    21 -> 79 [penwidth=2]
    8 -> 79 [penwidth=2]
    20 -> 79 [penwidth=2]
    4 -> 79 [penwidth=2]
    19 -> 79 [penwidth=2]
    18 -> 83 [penwidth=2]
    10 -> 83 [penwidth=2]
    17 -> 83 [penwidth=2]
    14 -> 70 [penwidth=2]
    36 -> 70 [penwidth=2]
    3 -> 70 [penwidth=2]
    35 -> 70 [penwidth=2]
    53 -> 70 [penwidth=2]
    1 -> 70 [penwidth=2]
    52 -> 67 [penwidth=2]
    51 -> 67 [penwidth=2]
    50 -> 67 [penwidth=2]
    49 -> 67 [penwidth=2]
    108 -> 67 [penwidth=2]
    48 -> 67 [penwidth=2]
    107 -> 67 [penwidth=2]
    47 -> 67 [penwidth=2]
    106 -> 67 [penwidth=2]
    46 -> 78 [penwidth=2]
    2 -> 78 [penwidth=2]
    45 -> 78 [penwidth=2]
    44 -> 89 [penwidth=2]
    101 -> 89 [penwidth=2]
    13 -> 89 [penwidth=2]
    43 -> 89 [penwidth=2]
    42 -> 89 [penwidth=2]
    100 -> 89 [penwidth=2]
    41 -> 89 [penwidth=2]
    99 -> 89 [penwidth=2]
    40 -> 89 [penwidth=2]
    39 -> 74 [penwidth=2]
    105 -> 74 [penwidth=2]
    102 -> 74 [penwidth=2]
    38 -> 74 [penwidth=2]
    37 -> 74 [penwidth=2]
    16 -> 88 [penwidth=2]
    98 -> 68 [penwidth=2]
    98 -> 85 [penwidth=2]
    93 -> 85 [penwidth=2]
    93 -> 68 [penwidth=2]
    60 -> 91 [penwidth=2]
    60 -> 68 [penwidth=2]
    59 -> 91 [penwidth=2]
    59 -> 68 [penwidth=2]
    54 -> 81 [penwidth=2]
    54 -> 85 [penwidth=2]
    11 -> 66 [penwidth=2]
    11 -> 34 [penwidth=2]
    11 -> 80 [penwidth=2]
    11 -> 56 [penwidth=2]
    11 -> 89 [penwidth=2]
    11 -> 77 [penwidth=2]
    11 -> 88 [penwidth=2]
    11 -> 92 [penwidth=2]
    11 -> 15 [penwidth=2]
    11 -> 87 [penwidth=2]
    31 -> 64 [penwidth=2]
    31 -> 89 [penwidth=2]
    31 -> 76 [penwidth=2]
    31 -> 75 [penwidth=2]
    31 -> 74 [penwidth=2]
    31 -> 60 [penwidth=2]
    31 -> 72 [penwidth=2]
    31 -> 66 [penwidth=2]
    31 -> 67 [penwidth=2]
    31 -> 103 [penwidth=2]
    31 -> 63 [penwidth=2]
    31 -> 78 [penwidth=2]
    31 -> 59 [penwidth=2]
    31 -> 94 [penwidth=2]
    31 -> 84 [penwidth=2]
    31 -> 93 [penwidth=2]
    31 -> 57 [penwidth=2]
    31 -> 82 [penwidth=2]
    31 -> 104 [penwidth=2]
    31 -> 65 [penwidth=2]
    31 -> 61 [penwidth=2]
    31 -> 79 [penwidth=2]
    31 -> 80 [penwidth=2]
    31 -> 62 [penwidth=2]
    31 -> 73 [penwidth=2]
    31 -> 95 [penwidth=2]
    31 -> 69 [penwidth=2]
    31 -> 9 [penwidth=2]
    12 -> 59 [penwidth=2]
    12 -> 60 [penwidth=2]
    12 -> 55 [penwidth=2]
    12 -> 84 [penwidth=2]
    12 -> 54 [penwidth=2]
    12 -> 104 [penwidth=2]
    12 -> 96 [penwidth=2]
    12 -> 63 [penwidth=2]
    12 -> 67 [penwidth=2]
    12 -> 97 [penwidth=2]
    12 -> 95 [penwidth=2]
    12 -> 66 [penwidth=2]
    12 -> 25 [penwidth=2]
    12 -> 87 [penwidth=2]
    12 -> 62 [penwidth=2]
    12 -> 74 [penwidth=2]
    12 -> 70 [penwidth=2]
    12 -> 77 [penwidth=2]
    29 -> 87 [penwidth=2]
    29 -> 78 [penwidth=2]
    29 -> 65 [penwidth=2]
    29 -> 84 [penwidth=2]
    29 -> 58 [penwidth=2]
    29 -> 55 [penwidth=2]
    29 -> 82 [penwidth=2]
    109 -> 61 [penwidth=2]
    109 -> 96 [penwidth=2]
    109 -> 55 [penwidth=2]
    109 -> 74 [penwidth=2]
    109 -> 87 [penwidth=2]
    109 -> 92 [penwidth=2]
    109 -> 62 [penwidth=2]
    109 -> 69 [penwidth=2]
    109 -> 83 [penwidth=2]
    109 -> 95 [penwidth=2]
    109 -> 70 [penwidth=2]
    109 -> 75 [penwidth=2]
    109 -> 58 [penwidth=2]
    109 -> 93 [penwidth=2]
    109 -> 73 [penwidth=2]
    109 -> 77 [penwidth=2]
    109 -> 15 [penwidth=2]
    109 -> 56 [penwidth=2]
    109 -> 82 [penwidth=2]
    109 -> 98 [penwidth=2]
    21 -> 88 [penwidth=2]
    21 -> 90 [penwidth=2]
    21 -> 96 [penwidth=2]
    21 -> 34 [penwidth=2]
    21 -> 65 [penwidth=2]
    21 -> 78 [penwidth=2]
    21 -> 58 [penwidth=2]
    21 -> 80 [penwidth=2]
    21 -> 25 [penwidth=2]
    21 -> 71 [penwidth=2]
    21 -> 76 [penwidth=2]
    21 -> 77 [penwidth=2]
    21 -> 84 [penwidth=2]
    21 -> 95 [penwidth=2]
    8 -> 66 [penwidth=2]
    8 -> 96 [penwidth=2]
    8 -> 87 [penwidth=2]
    8 -> 65 [penwidth=2]
    8 -> 97 [penwidth=2]
    8 -> 75 [penwidth=2]
    8 -> 25 [penwidth=2]
    8 -> 74 [penwidth=2]
    8 -> 78 [penwidth=2]
    8 -> 103 [penwidth=2]
    8 -> 90 [penwidth=2]
    8 -> 55 [penwidth=2]
    17 -> 65 [penwidth=2]
    17 -> 79 [penwidth=2]
    17 -> 89 [penwidth=2]
    17 -> 97 [penwidth=2]
    17 -> 103 [penwidth=2]
    17 -> 77 [penwidth=2]
    17 -> 56 [penwidth=2]
    17 -> 71 [penwidth=2]
    17 -> 62 [penwidth=2]
    36 -> 84 [penwidth=2]
    36 -> 83 [penwidth=2]
    36 -> 58 [penwidth=2]
    36 -> 92 [penwidth=2]
    36 -> 80 [penwidth=2]
    36 -> 87 [penwidth=2]
    36 -> 67 [penwidth=2]
    36 -> 61 [penwidth=2]
    36 -> 71 [penwidth=2]
    36 -> 63 [penwidth=2]
    36 -> 34 [penwidth=2]
    36 -> 88 [penwidth=2]
    36 -> 60 [penwidth=2]
    36 -> 76 [penwidth=2]
    36 -> 79 [penwidth=2]
    36 -> 72 [penwidth=2]
    36 -> 66 [penwidth=2]
    36 -> 54 [penwidth=2]
    36 -> 62 [penwidth=2]
    36 -> 75 [penwidth=2]
    36 -> 74 [penwidth=2]
    36 -> 59 [penwidth=2]
    36 -> 93 [penwidth=2]
    36 -> 73 [penwidth=2]
    36 -> 97 [penwidth=2]
    36 -> 78 [penwidth=2]
    36 -> 55 [penwidth=2]
    36 -> 15 [penwidth=2]
    36 -> 94 [penwidth=2]
    36 -> 77 [penwidth=2]
    36 -> 82 [penwidth=2]
    36 -> 64 [penwidth=2]
    36 -> 86 [penwidth=2]
    36 -> 25 [penwidth=2]
    36 -> 9 [penwidth=2]
    36 -> 95 [penwidth=2]
    36 -> 69 [penwidth=2]
    36 -> 104 [penwidth=2]
    36 -> 98 [penwidth=2]
    36 -> 103 [penwidth=2]
    36 -> 89 [penwidth=2]
    36 -> 56 [penwidth=2]
    36 -> 90 [penwidth=2]
    36 -> 96 [penwidth=2]
    1 -> 59 [penwidth=2]
    1 -> 55 [penwidth=2]
    1 -> 69 [penwidth=2]
    1 -> 56 [penwidth=2]
    1 -> 25 [penwidth=2]
    1 -> 76 [penwidth=2]
    1 -> 58 [penwidth=2]
    1 -> 60 [penwidth=2]
    1 -> 73 [penwidth=2]
    1 -> 80 [penwidth=2]
    1 -> 104 [penwidth=2]
    1 -> 74 [penwidth=2]
    1 -> 71 [penwidth=2]
    1 -> 89 [penwidth=2]
    1 -> 34 [penwidth=2]
    1 -> 94 [penwidth=2]
    107 -> 55 [penwidth=2]
    107 -> 87 [penwidth=2]
    107 -> 97 [penwidth=2]
    107 -> 60 [penwidth=2]
    107 -> 72 [penwidth=2]
    107 -> 58 [penwidth=2]
    107 -> 88 [penwidth=2]
    107 -> 83 [penwidth=2]
    107 -> 92 [penwidth=2]
    107 -> 80 [penwidth=2]
    107 -> 63 [penwidth=2]
    107 -> 94 [penwidth=2]
    107 -> 93 [penwidth=2]
    107 -> 15 [penwidth=2]
    107 -> 9 [penwidth=2]
    107 -> 74 [penwidth=2]
    107 -> 54 [penwidth=2]
    107 -> 73 [penwidth=2]
    107 -> 62 [penwidth=2]
    107 -> 76 [penwidth=2]
    107 -> 96 [penwidth=2]
    107 -> 84 [penwidth=2]
    107 -> 70 [penwidth=2]
    107 -> 104 [penwidth=2]
    107 -> 66 [penwidth=2]
    107 -> 89 [penwidth=2]
    107 -> 59 [penwidth=2]
    107 -> 56 [penwidth=2]
    107 -> 79 [penwidth=2]
    107 -> 77 [penwidth=2]
    107 -> 57 [penwidth=2]
    107 -> 71 [penwidth=2]
    107 -> 90 [penwidth=2]
    107 -> 25 [penwidth=2]
    107 -> 86 [penwidth=2]
    107 -> 103 [penwidth=2]
    107 -> 61 [penwidth=2]
    46 -> 15 [penwidth=2]
    46 -> 58 [penwidth=2]
    46 -> 83 [penwidth=2]
    46 -> 66 [penwidth=2]
    46 -> 70 [penwidth=2]
    46 -> 98 [penwidth=2]
    46 -> 73 [penwidth=2]
    46 -> 57 [penwidth=2]
    46 -> 63 [penwidth=2]
    46 -> 97 [penwidth=2]
    46 -> 82 [penwidth=2]
    46 -> 71 [penwidth=2]
    46 -> 65 [penwidth=2]
    46 -> 96 [penwidth=2]
    46 -> 59 [penwidth=2]
    46 -> 60 [penwidth=2]
    46 -> 74 [penwidth=2]
    46 -> 80 [penwidth=2]
    46 -> 64 [penwidth=2]
    46 -> 84 [penwidth=2]
    46 -> 103 [penwidth=2]
    100 -> 60 [penwidth=2]
    100 -> 95 [penwidth=2]
    100 -> 74 [penwidth=2]
    100 -> 78 [penwidth=2]
    100 -> 69 [penwidth=2]
    100 -> 103 [penwidth=2]
    100 -> 94 [penwidth=2]
    100 -> 96 [penwidth=2]
    100 -> 75 [penwidth=2]
    100 -> 77 [penwidth=2]
    100 -> 67 [penwidth=2]
    100 -> 62 [penwidth=2]
    100 -> 64 [penwidth=2]
    100 -> 61 [penwidth=2]
    100 -> 57 [penwidth=2]
    100 -> 63 [penwidth=2]
    100 -> 73 [penwidth=2]
    100 -> 56 [penwidth=2]
    100 -> 82 [penwidth=2]
    100 -> 84 [penwidth=2]
    100 -> 58 [penwidth=2]
    100 -> 9 [penwidth=2]
    100 -> 54 [penwidth=2]
    100 -> 98 [penwidth=2]
    100 -> 83 [penwidth=2]
    100 -> 72 [penwidth=2]
    100 -> 70 [penwidth=2]
    100 -> 25 [penwidth=2]
    100 -> 92 [penwidth=2]
    100 -> 87 [penwidth=2]
    100 -> 97 [penwidth=2]
    100 -> 104 [penwidth=2]
    100 -> 76 [penwidth=2]
    100 -> 80 [penwidth=2]
    100 -> 34 [penwidth=2]
    100 -> 65 [penwidth=2]
    100 -> 59 [penwidth=2]
    100 -> 55 [penwidth=2]
    100 -> 88 [penwidth=2]
    100 -> 93 [penwidth=2]
    100 -> 66 [penwidth=2]
    100 -> 90 [penwidth=2]
    39 -> 83 [penwidth=2]
    39 -> 76 [penwidth=2]
    39 -> 94 [penwidth=2]
    39 -> 64 [penwidth=2]
}