digraph G {
    0 [penwidth=3,label="0"]
    1 [penwidth=3,label="1"]
    2 [penwidth=3,label="2"]
    3 [penwidth=3,label="3"]
    4 [penwidth=3,label="4"]
    5 [penwidth=3,label="5"]
    6 [penwidth=3,label="6"]
    7 [penwidth=3,label="7"]
    8 [penwidth=3,label="8"]
    9 [penwidth=3,label="9"]
    10 [penwidth=3,label="10"]
    11 [penwidth=3,label="11"]
    12 [penwidth=3,label="12"]
    13 [penwidth=3,label="13"]
    14 [penwidth=3,label="14"]
    15 [penwidth=3,label="15"]
    16 [penwidth=3,label="16"]
    17 [penwidth=3,label="17"]
    18 [penwidth=3,label="18"]
    19 [penwidth=3,label="19"]
    20 [penwidth=3,label="20"]
    21 [penwidth=3,label="21"]
    22 [penwidth=3,label="22"]
    23 [penwidth=3,label="23"]
    24 [penwidth=3,label="24"]
    25 [penwidth=3,label="25"]
    26 [penwidth=3,label="26"]
    27 [penwidth=3,label="27"]
    28 [penwidth=3,label="28"]
    29 [penwidth=3,label="29"]
    30 [penwidth=3,label="30"]
    31 [penwidth=3,label="31"]
    32 [penwidth=3,label="32"]
    33 [penwidth=3,label="33"]
    34 [penwidth=3,label="34"]
    35 [penwidth=3,label="35"]
    36 [penwidth=3,label="36"]
    37 [penwidth=3,label="37"]
    38 [penwidth=3,label="38"]
    39 [penwidth=3,label="39"]
    40 [penwidth=3,label="40"]
    41 [penwidth=3,label="41"]
    42 [penwidth=3,label="42"]
    43 [penwidth=3,label="43"]
    44 [penwidth=3,label="44"]
    45 [penwidth=3,label="45"]
    46 [penwidth=3,label="46"]
    47 [penwidth=3,label="47"]
    48 [penwidth=3,label="48"]
    49 [penwidth=3,label="49"]
    50 [penwidth=3,label="50"]
    51 [penwidth=3,label="51"]
    52 [penwidth=3,label="52"]
    53 [penwidth=3,label="53"]
    54 [penwidth=3,label="54"]
    55 [penwidth=3,label="55"]
    56 [penwidth=3,label="56"]
    57 [penwidth=3,label="57"]
    58 [penwidth=3,label="58"]
    59 [penwidth=3,label="59"]
    60 [penwidth=3,label="60"]
    61 [penwidth=3,label="61"]
    62 [penwidth=3,label="62"]
    63 [penwidth=3,label="63"]
    64 [penwidth=3,label="64"]
    65 [penwidth=3,label="65"]
    66 [penwidth=3,label="66"]
    67 [penwidth=3,label="67"]
    68 [penwidth=3,label="68"]
    69 [penwidth=3,label="69"]
    70 [penwidth=3,label="70"]
    71 [penwidth=3,label="71"]
    72 [penwidth=3,label="72"]
    73 [penwidth=3,label="73"]
    74 [penwidth=3,label="74"]
    75 [penwidth=3,label="75"]
    76 [penwidth=3,label="76"]
    77 [penwidth=3,label="77"]
    78 [penwidth=3,label="78"]
    79 [penwidth=3,label="79"]
    80 [penwidth=3,label="80"]
    81 [penwidth=3,label="81"]
    82 [penwidth=3,label="82"]
    83 [penwidth=3,label="83"]
    84 [penwidth=3,label="84"]
    85 [penwidth=3,label="85"]
    86 [penwidth=3,label="86"]
    87 [penwidth=3,label="87"]
    88 [penwidth=3,label="88"]
    89 [penwidth=3,label="89"]
    90 [penwidth=3,label="90"]
    91 [penwidth=3,label="91"]
    92 [penwidth=3,label="92"]
    93 [penwidth=3,label="93"]
    94 [penwidth=3,label="94"]
    95 [penwidth=3,label="95"]
    96 [penwidth=3,label="96"]
    97 [penwidth=3,label="97"]
    98 [penwidth=3,label="98"]
    99 [penwidth=3,label="99"]
    100 [penwidth=3,label="100"]
    101 [penwidth=3,label="101"]
    102 [penwidth=3,label="102"]
    103 [penwidth=3,label="103"]
    104 [penwidth=3,label="104"]
    105 [penwidth=3,label="105"]
    106 [penwidth=3,label="106"]
    107 [penwidth=3,label="107"]
    108 [penwidth=3,label="108"]
    109 [penwidth=3,label="109"]

    9 -> 0 [penwidth=2]
    51 -> 0 [penwidth=2]
    93 -> 0 [penwidth=2]
    10 -> 0 [penwidth=2]
    52 -> 0 [penwidth=2]
    94 -> 0 [penwidth=2]
    11 -> 0 [penwidth=2]
    53 -> 9 [penwidth=2]
    95 -> 9 [penwidth=2]
    12 -> 9 [penwidth=2]
    54 -> 9 [penwidth=2]
    96 -> 9 [penwidth=2]
    13 -> 51 [penwidth=2]
    55 -> 51 [penwidth=2]
    97 -> 51 [penwidth=2]
    14 -> 51 [penwidth=2]
    56 -> 51 [penwidth=2]
    98 -> 51 [penwidth=2]
    15 -> 51 [penwidth=2]
    57 -> 51 [penwidth=2]
    99 -> 51 [penwidth=2]
    16 -> 51 [penwidth=2]
    58 -> 51 [penwidth=2]
    100 -> 51 [penwidth=2]
    17 -> 51 [penwidth=2]
    59 -> 51 [penwidth=2]
    101 -> 51 [penwidth=2]
    18 -> 51 [penwidth=2]
    60 -> 51 [penwidth=2]
    102 -> 51 [penwidth=2]
    19 -> 93 [penwidth=2]
    61 -> 93 [penwidth=2]
    103 -> 93 [penwidth=2]
    20 -> 93 [penwidth=2]
    62 -> 93 [penwidth=2]
    104 -> 93 [penwidth=2]
    21 -> 93 [penwidth=2]
    63 -> 93 [penwidth=2]
    105 -> 93 [penwidth=2]
    22 -> 93 [penwidth=2]
    64 -> 93 [penwidth=2]
    106 -> 93 [penwidth=2]
    23 -> 93 [penwidth=2]
    65 -> 93 [penwidth=2]
    107 -> 93 [penwidth=2]
    24 -> 93 [penwidth=2]
    66 -> 93 [penwidth=2]
    108 -> 93 [penwidth=2]
    25 -> 93 [penwidth=2]
    67 -> 93 [penwidth=2]
    109 -> 10 [penwidth=2]
    26 -> 10 [penwidth=2]
    68 -> 10 [penwidth=2]
    27 -> 10 [penwidth=2]
    69 -> 10 [penwidth=2]
    70 -> 10 [penwidth=2]
    28 -> 10 [penwidth=2]
    71 -> 52 [penwidth=2]
    29 -> 52 [penwidth=2]
    30 -> 52 [penwidth=2]
    72 -> 52 [penwidth=2]
    31 -> 52 [penwidth=2]
    73 -> 94 [penwidth=2]
    32 -> 94 [penwidth=2]
    74 -> 94 [penwidth=2]
    33 -> 94 [penwidth=2]
    75 -> 94 [penwidth=2]
    34 -> 94 [penwidth=2]
    76 -> 94 [penwidth=2]
    35 -> 94 [penwidth=2]
    77 -> 94 [penwidth=2]
    36 -> 94 [penwidth=2]
    78 -> 11 [penwidth=2]
    37 -> 11 [penwidth=2]
    79 -> 11 [penwidth=2]
    38 -> 11 [penwidth=2]
    80 -> 11 [penwidth=2]
    39 -> 11 [penwidth=2]
    81 -> 11 [penwidth=2]
    40 -> 11 [penwidth=2]
    82 -> 53 [penwidth=2]
    41 -> 53 [penwidth=2]
    83 -> 53 [penwidth=2]
    42 -> 53 [penwidth=2]
    84 -> 53 [penwidth=2]
    43 -> 95 [penwidth=2]
    85 -> 95 [penwidth=2]
    44 -> 95 [penwidth=2]
    86 -> 95 [penwidth=2]
    45 -> 95 [penwidth=2]
    87 -> 95 [penwidth=2]
    46 -> 95 [penwidth=2]
    88 -> 95 [penwidth=2]
    47 -> 95 [penwidth=2]
    89 -> 95 [penwidth=2]
    48 -> 95 [penwidth=2]
    90 -> 95 [penwidth=2]
    49 -> 95 [penwidth=2]
    91 -> 95 [penwidth=2]
    50 -> 95 [penwidth=2]
    92 -> 95 [penwidth=2]
    1 -> 95 [penwidth=2]
    2 -> 95 [penwidth=2]
    3 -> 95 [penwidth=2]
    4 -> 12 [penwidth=2]
    5 -> 12 [penwidth=2]
    6 -> 12 [penwidth=2]
    7 -> 12 [penwidth=2]
    8 -> 12 [penwidth=2]
    14 -> 94 [penwidth=2]
    14 -> 11 [penwidth=2]
    58 -> 93 [penwidth=2]
    58 -> 94 [penwidth=2]
    58 -> 10 [penwidth=2]
    100 -> 9 [penwidth=2]
    100 -> 52 [penwidth=2]
    18 -> 93 [penwidth=2]
    102 -> 93 [penwidth=2]
    22 -> 9 [penwidth=2]
    22 -> 94 [penwidth=2]
    22 -> 11 [penwidth=2]
    30 -> 11 [penwidth=2]
    30 -> 51 [penwidth=2]
    30 -> 94 [penwidth=2]
    74 -> 52 [penwidth=2]
    75 -> 11 [penwidth=2]
    75 -> 51 [penwidth=2]
    75 -> 93 [penwidth=2]
    75 -> 52 [penwidth=2]
    75 -> 9 [penwidth=2]
    78 -> 51 [penwidth=2]
    78 -> 94 [penwidth=2]
    78 -> 93 [penwidth=2]
    78 -> 52 [penwidth=2]
    78 -> 9 [penwidth=2]
    42 -> 40 [penwidth=2]
    42 -> 96 [penwidth=2]
    42 -> 29 [penwidth=2]
    42 -> 20 [penwidth=2]
    42 -> 65 [penwidth=2]
    42 -> 69 [penwidth=2]
    42 -> 12 [penwidth=2]
    42 -> 28 [penwidth=2]
    42 -> 66 [penwidth=2]
    42 -> 97 [penwidth=2]
    42 -> 15 [penwidth=2]
    42 -> 81 [penwidth=2]
    42 -> 102 [penwidth=2]
    42 -> 104 [penwidth=2]
    42 -> 54 [penwidth=2]
    42 -> 61 [penwidth=2]
    42 -> 77 [penwidth=2]
    42 -> 34 [penwidth=2]
    42 -> 70 [penwidth=2]
    42 -> 106 [penwidth=2]
    42 -> 100 [penwidth=2]
    42 -> 24 [penwidth=2]
    42 -> 21 [penwidth=2]
    42 -> 35 [penwidth=2]
    42 -> 63 [penwidth=2]
    42 -> 62 [penwidth=2]
    42 -> 37 [penwidth=2]
    42 -> 71 [penwidth=2]
    42 -> 101 [penwidth=2]
    42 -> 74 [penwidth=2]
    42 -> 107 [penwidth=2]
    42 -> 103 [penwidth=2]
    42 -> 33 [penwidth=2]
    42 -> 75 [penwidth=2]
    42 -> 22 [penwidth=2]
    42 -> 57 [penwidth=2]
    42 -> 16 [penwidth=2]
    42 -> 80 [penwidth=2]
    42 -> 14 [penwidth=2]
    42 -> 31 [penwidth=2]
    42 -> 19 [penwidth=2]
    42 -> 27 [penwidth=2]
    42 -> 64 [penwidth=2]
    42 -> 109 [penwidth=2]
    42 -> 26 [penwidth=2]
    42 -> 56 [penwidth=2]
    42 -> 59 [penwidth=2]
    42 -> 25 [penwidth=2]
    42 -> 108 [penwidth=2]
    42 -> 30 [penwidth=2]
    42 -> 78 [penwidth=2]
    42 -> 73 [penwidth=2]
    42 -> 68 [penwidth=2]
    42 -> 67 [penwidth=2]
    42 -> 23 [penwidth=2]
    42 -> 55 [penwidth=2]
    42 -> 99 [penwidth=2]
    42 -> 39 [penwidth=2]
    42 -> 18 [penwidth=2]
    42 -> 98 [penwidth=2]
    42 -> 72 [penwidth=2]
    42 -> 58 [penwidth=2]
    42 -> 32 [penwidth=2]
    42 -> 95 [penwidth=2]
    42 -> 105 [penwidth=2]
    42 -> 36 [penwidth=2]
    42 -> 76 [penwidth=2]
    42 -> 79 [penwidth=2]
    87 -> 96 [penwidth=2]
    87 -> 101 [penwidth=2]
    87 -> 30 [penwidth=2]
    87 -> 78 [penwidth=2]
    87 -> 69 [penwidth=2]
    87 -> 16 [penwidth=2]
    87 -> 103 [penwidth=2]
    87 -> 106 [penwidth=2]
    87 -> 54 [penwidth=2]
    87 -> 70 [penwidth=2]
    87 -> 31 [penwidth=2]
    87 -> 62 [penwidth=2]
    87 -> 100 [penwidth=2]
    87 -> 36 [penwidth=2]
    87 -> 13 [penwidth=2]
    87 -> 99 [penwidth=2]
    87 -> 58 [penwidth=2]
    87 -> 12 [penwidth=2]
    87 -> 38 [penwidth=2]
    87 -> 109 [penwidth=2]
    87 -> 53 [penwidth=2]
    87 -> 14 [penwidth=2]
    87 -> 33 [penwidth=2]
    87 -> 24 [penwidth=2]
    87 -> 22 [penwidth=2]
    87 -> 67 [penwidth=2]
    87 -> 55 [penwidth=2]
    87 -> 32 [penwidth=2]
    87 -> 35 [penwidth=2]
    87 -> 28 [penwidth=2]
    87 -> 18 [penwidth=2]
    87 -> 98 [penwidth=2]
    87 -> 19 [penwidth=2]
    87 -> 68 [penwidth=2]
    87 -> 39 [penwidth=2]
    87 -> 29 [penwidth=2]
    87 -> 37 [penwidth=2]
    87 -> 79 [penwidth=2]
    87 -> 21 [penwidth=2]
    46 -> 58 [penwidth=2]
    46 -> 105 [penwidth=2]
    46 -> 107 [penwidth=2]
    46 -> 28 [penwidth=2]
    46 -> 70 [penwidth=2]
    46 -> 68 [penwidth=2]
    46 -> 15 [penwidth=2]
    46 -> 22 [penwidth=2]
    46 -> 16 [penwidth=2]
    46 -> 36 [penwidth=2]
    46 -> 35 [penwidth=2]
    46 -> 76 [penwidth=2]
    46 -> 53 [penwidth=2]
    46 -> 17 [penwidth=2]
    46 -> 103 [penwidth=2]
    46 -> 104 [penwidth=2]
    46 -> 55 [penwidth=2]
    46 -> 32 [penwidth=2]
    46 -> 101 [penwidth=2]
    46 -> 102 [penwidth=2]
    46 -> 13 [penwidth=2]
    46 -> 77 [penwidth=2]
    46 -> 40 [penwidth=2]
    46 -> 14 [penwidth=2]
    46 -> 61 [penwidth=2]
    46 -> 64 [penwidth=2]
    46 -> 30 [penwidth=2]
    46 -> 66 [penwidth=2]
    46 -> 34 [penwidth=2]
    46 -> 81 [penwidth=2]
    46 -> 59 [penwidth=2]
    46 -> 97 [penwidth=2]
    46 -> 23 [penwidth=2]
    46 -> 71 [penwidth=2]
    46 -> 37 [penwidth=2]
    46 -> 12 [penwidth=2]
    46 -> 21 [penwidth=2]
    46 -> 96 [penwidth=2]
    46 -> 33 [penwidth=2]
    46 -> 69 [penwidth=2]
    46 -> 54 [penwidth=2]
    46 -> 24 [penwidth=2]
    46 -> 31 [penwidth=2]
    46 -> 67 [penwidth=2]
    46 -> 74 [penwidth=2]
    46 -> 39 [penwidth=2]
    46 -> 20 [penwidth=2]
    46 -> 75 [penwidth=2]
    46 -> 19 [penwidth=2]
    46 -> 108 [penwidth=2]
    46 -> 72 [penwidth=2]
    46 -> 60 [penwidth=2]
    46 -> 25 [penwidth=2]
    46 -> 109 [penwidth=2]
    46 -> 26 [penwidth=2]
    46 -> 27 [penwidth=2]
    46 -> 38 [penwidth=2]
    88 -> 79 [penwidth=2]
    48 -> 37 [penwidth=2]
    48 -> 40 [penwidth=2]
    49 -> 55 [penwidth=2]
    49 -> 81 [penwidth=2]
    49 -> 56 [penwidth=2]
    49 -> 22 [penwidth=2]
    49 -> 33 [penwidth=2]
    49 -> 16 [penwidth=2]
    49 -> 71 [penwidth=2]
    49 -> 75 [penwidth=2]
    49 -> 29 [penwidth=2]
    49 -> 57 [penwidth=2]
    49 -> 103 [penwidth=2]
    49 -> 66 [penwidth=2]
    49 -> 72 [penwidth=2]
    49 -> 77 [penwidth=2]
    49 -> 25 [penwidth=2]
    49 -> 38 [penwidth=2]
    49 -> 21 [penwidth=2]
    49 -> 28 [penwidth=2]
    49 -> 100 [penwidth=2]
    49 -> 13 [penwidth=2]
    49 -> 99 [penwidth=2]
    49 -> 65 [penwidth=2]
    49 -> 26 [penwidth=2]
    49 -> 74 [penwidth=2]
    2 -> 79 [penwidth=2]
    2 -> 32 [penwidth=2]
    2 -> 104 [penwidth=2]
    2 -> 81 [penwidth=2]
    2 -> 38 [penwidth=2]
    2 -> 69 [penwidth=2]
    2 -> 39 [penwidth=2]
    2 -> 22 [penwidth=2]
    2 -> 28 [penwidth=2]
    2 -> 65 [penwidth=2]
    2 -> 80 [penwidth=2]
    2 -> 16 [penwidth=2]
    2 -> 25 [penwidth=2]
    2 -> 72 [penwidth=2]
    2 -> 35 [penwidth=2]
    2 -> 62 [penwidth=2]
    2 -> 70 [penwidth=2]
    2 -> 71 [penwidth=2]
    2 -> 21 [penwidth=2]
    2 -> 33 [penwidth=2]
    2 -> 13 [penwidth=2]
    2 -> 19 [penwidth=2]
    2 -> 109 [penwidth=2]
    2 -> 23 [penwidth=2]
    2 -> 58 [penwidth=2]
    2 -> 34 [penwidth=2]
    2 -> 63 [penwidth=2]
    2 -> 56 [penwidth=2]
    2 -> 26 [penwidth=2]
    2 -> 53 [penwidth=2]
    2 -> 57 [penwidth=2]
    2 -> 102 [penwidth=2]
    2 -> 68 [penwidth=2]
    2 -> 103 [penwidth=2]
    2 -> 98 [penwidth=2]
    2 -> 31 [penwidth=2]
    2 -> 27 [penwidth=2]
    2 -> 18 [penwidth=2]
    2 -> 36 [penwidth=2]
    2 -> 106 [penwidth=2]
    2 -> 17 [penwidth=2]
    2 -> 15 [penwidth=2]
    2 -> 76 [penwidth=2]
    2 -> 37 [penwidth=2]
    2 -> 12 [penwidth=2]
    2 -> 73 [penwidth=2]
    2 -> 64 [penwidth=2]
    6 -> 14 [penwidth=2]
    6 -> 107 [penwidth=2]
    6 -> 100 [penwidth=2]
}