digraph G {
    0 [penwidth=3,label="0"]
    1 [penwidth=3,label="1"]
    2 [penwidth=3,label="2"]
    3 [penwidth=3,label="3"]
    4 [penwidth=3,label="4"]
    5 [penwidth=3,label="5"]
    6 [penwidth=3,label="6"]
    7 [penwidth=3,label="7"]
    8 [penwidth=3,label="8"]
    9 [penwidth=3,label="9"]
    10 [penwidth=3,label="10"]
    11 [penwidth=3,label="11"]
    12 [penwidth=3,label="12"]
    13 [penwidth=3,label="13"]
    14 [penwidth=3,label="14"]
    15 [penwidth=3,label="15"]
    16 [penwidth=3,label="16"]
    17 [penwidth=3,label="17"]
    18 [penwidth=3,label="18"]
    19 [penwidth=3,label="19"]
    20 [penwidth=3,label="20"]
    21 [penwidth=3,label="21"]
    22 [penwidth=3,label="22"]
    23 [penwidth=3,label="23"]
    24 [penwidth=3,label="24"]
    25 [penwidth=3,label="25"]
    26 [penwidth=3,label="26"]
    27 [penwidth=3,label="27"]
    28 [penwidth=3,label="28"]
    29 [penwidth=3,label="29"]
    30 [penwidth=3,label="30"]
    31 [penwidth=3,label="31"]
    32 [penwidth=3,label="32"]
    33 [penwidth=3,label="33"]
    34 [penwidth=3,label="34"]
    35 [penwidth=3,label="35"]
    36 [penwidth=3,label="36"]
    37 [penwidth=3,label="37"]
    38 [penwidth=3,label="38"]
    39 [penwidth=3,label="39"]
    40 [penwidth=3,label="40"]
    41 [penwidth=3,label="41"]
    42 [penwidth=3,label="42"]
    43 [penwidth=3,label="43"]
    44 [penwidth=3,label="44"]
    45 [penwidth=3,label="45"]
    46 [penwidth=3,label="46"]
    47 [penwidth=3,label="47"]
    48 [penwidth=3,label="48"]
    49 [penwidth=3,label="49"]
    50 [penwidth=3,label="50"]
    51 [penwidth=3,label="51"]
    52 [penwidth=3,label="52"]
    53 [penwidth=3,label="53"]
    54 [penwidth=3,label="54"]
    55 [penwidth=3,label="55"]
    56 [penwidth=3,label="56"]
    57 [penwidth=3,label="57"]
    58 [penwidth=3,label="58"]
    59 [penwidth=3,label="59"]
    60 [penwidth=3,label="60"]
    61 [penwidth=3,label="61"]
    62 [penwidth=3,label="62"]
    63 [penwidth=3,label="63"]
    64 [penwidth=3,label="64"]
    65 [penwidth=3,label="65"]
    66 [penwidth=3,label="66"]
    67 [penwidth=3,label="67"]
    68 [penwidth=3,label="68"]
    69 [penwidth=3,label="69"]
    70 [penwidth=3,label="70"]
    71 [penwidth=3,label="71"]
    72 [penwidth=3,label="72"]
    73 [penwidth=3,label="73"]
    74 [penwidth=3,label="74"]
    75 [penwidth=3,label="75"]
    76 [penwidth=3,label="76"]
    77 [penwidth=3,label="77"]
    78 [penwidth=3,label="78"]
    79 [penwidth=3,label="79"]
    80 [penwidth=3,label="80"]
    81 [penwidth=3,label="81"]
    82 [penwidth=3,label="82"]
    83 [penwidth=3,label="83"]
    84 [penwidth=3,label="84"]
    85 [penwidth=3,label="85"]
    86 [penwidth=3,label="86"]
    87 [penwidth=3,label="87"]
    88 [penwidth=3,label="88"]
    89 [penwidth=3,label="89"]
    90 [penwidth=3,label="90"]
    91 [penwidth=3,label="91"]
    92 [penwidth=3,label="92"]
    93 [penwidth=3,label="93"]
    94 [penwidth=3,label="94"]
    95 [penwidth=3,label="95"]
    96 [penwidth=3,label="96"]
    97 [penwidth=3,label="97"]
    98 [penwidth=3,label="98"]
    99 [penwidth=3,label="99"]
    100 [penwidth=3,label="100"]
    101 [penwidth=3,label="101"]
    102 [penwidth=3,label="102"]
    103 [penwidth=3,label="103"]
    104 [penwidth=3,label="104"]
    105 [penwidth=3,label="105"]
    106 [penwidth=3,label="106"]
    107 [penwidth=3,label="107"]
    108 [penwidth=3,label="108"]
    109 [penwidth=3,label="109"]

    57 -> 0 [penwidth=2]
    58 -> 0 [penwidth=2]
    59 -> 0 [penwidth=2]
    60 -> 57 [penwidth=2]
    61 -> 57 [penwidth=2]
    62 -> 57 [penwidth=2]
    63 -> 57 [penwidth=2]
    64 -> 57 [penwidth=2]
    65 -> 57 [penwidth=2]
    66 -> 57 [penwidth=2]
    67 -> 57 [penwidth=2]
    68 -> 57 [penwidth=2]
    69 -> 57 [penwidth=2]
    70 -> 57 [penwidth=2]
    71 -> 57 [penwidth=2]
    72 -> 58 [penwidth=2]
    73 -> 58 [penwidth=2]
    74 -> 58 [penwidth=2]
    33 -> 58 [penwidth=2]
    75 -> 58 [penwidth=2]
    34 -> 58 [penwidth=2]
    76 -> 58 [penwidth=2]
    77 -> 58 [penwidth=2]
    35 -> 58 [penwidth=2]
    36 -> 58 [penwidth=2]
    78 -> 59 [penwidth=2]
    37 -> 59 [penwidth=2]
    79 -> 59 [penwidth=2]
    38 -> 59 [penwidth=2]
    80 -> 59 [penwidth=2]
    39 -> 59 [penwidth=2]
    81 -> 59 [penwidth=2]
    40 -> 59 [penwidth=2]
    82 -> 59 [penwidth=2]
    41 -> 59 [penwidth=2]
    83 -> 59 [penwidth=2]
    11 -> 59 [penwidth=2]
    42 -> 59 [penwidth=2]
    84 -> 59 [penwidth=2]
    43 -> 59 [penwidth=2]
    85 -> 59 [penwidth=2]
    44 -> 60 [penwidth=2]
    86 -> 60 [penwidth=2]
    45 -> 60 [penwidth=2]
    87 -> 60 [penwidth=2]
    46 -> 60 [penwidth=2]
    88 -> 60 [penwidth=2]
    47 -> 60 [penwidth=2]
    89 -> 61 [penwidth=2]
    48 -> 61 [penwidth=2]
    90 -> 61 [penwidth=2]
    49 -> 61 [penwidth=2]
    91 -> 61 [penwidth=2]
    50 -> 62 [penwidth=2]
    92 -> 62 [penwidth=2]
    51 -> 62 [penwidth=2]
    93 -> 62 [penwidth=2]
    52 -> 63 [penwidth=2]
    94 -> 63 [penwidth=2]
    53 -> 63 [penwidth=2]
    95 -> 63 [penwidth=2]
    12 -> 63 [penwidth=2]
    54 -> 63 [penwidth=2]
    96 -> 63 [penwidth=2]
    55 -> 63 [penwidth=2]
    97 -> 64 [penwidth=2]
    56 -> 64 [penwidth=2]
    98 -> 64 [penwidth=2]
    99 -> 64 [penwidth=2]
    8 -> 64 [penwidth=2]
    100 -> 64 [penwidth=2]
    101 -> 64 [penwidth=2]
    102 -> 64 [penwidth=2]
    103 -> 64 [penwidth=2]
    104 -> 64 [penwidth=2]
    10 -> 64 [penwidth=2]
    105 -> 64 [penwidth=2]
    9 -> 64 [penwidth=2]
    106 -> 64 [penwidth=2]
    107 -> 65 [penwidth=2]
    108 -> 66 [penwidth=2]
    2 -> 66 [penwidth=2]
    109 -> 66 [penwidth=2]
    3 -> 66 [penwidth=2]
    4 -> 66 [penwidth=2]
    6 -> 66 [penwidth=2]
    5 -> 66 [penwidth=2]
    32 -> 66 [penwidth=2]
    14 -> 66 [penwidth=2]
    1 -> 66 [penwidth=2]
    7 -> 66 [penwidth=2]
    17 -> 66 [penwidth=2]
    31 -> 66 [penwidth=2]
    15 -> 66 [penwidth=2]
    30 -> 66 [penwidth=2]
    20 -> 66 [penwidth=2]
    13 -> 66 [penwidth=2]
    29 -> 66 [penwidth=2]
    28 -> 66 [penwidth=2]
    18 -> 67 [penwidth=2]
    19 -> 67 [penwidth=2]
    27 -> 67 [penwidth=2]
    16 -> 67 [penwidth=2]
    26 -> 67 [penwidth=2]
    25 -> 67 [penwidth=2]
    21 -> 67 [penwidth=2]
    24 -> 67 [penwidth=2]
    22 -> 67 [penwidth=2]
    23 -> 67 [penwidth=2]
    62 -> 59 [penwidth=2]
    66 -> 59 [penwidth=2]
    33 -> 59 [penwidth=2]
    35 -> 57 [penwidth=2]
    82 -> 58 [penwidth=2]
    86 -> 83 [penwidth=2]
    86 -> 37 [penwidth=2]
    86 -> 68 [penwidth=2]
    86 -> 78 [penwidth=2]
    86 -> 39 [penwidth=2]
    86 -> 40 [penwidth=2]
    86 -> 41 [penwidth=2]
    86 -> 71 [penwidth=2]
    86 -> 70 [penwidth=2]
    86 -> 69 [penwidth=2]
    86 -> 38 [penwidth=2]
    46 -> 68 [penwidth=2]
    46 -> 36 [penwidth=2]
    46 -> 73 [penwidth=2]
    46 -> 71 [penwidth=2]
    52 -> 36 [penwidth=2]
    52 -> 75 [penwidth=2]
    52 -> 61 [penwidth=2]
    52 -> 35 [penwidth=2]
    52 -> 84 [penwidth=2]
    52 -> 11 [penwidth=2]
    52 -> 43 [penwidth=2]
    52 -> 42 [penwidth=2]
    52 -> 37 [penwidth=2]
    52 -> 68 [penwidth=2]
    52 -> 85 [penwidth=2]
    52 -> 39 [penwidth=2]
    52 -> 79 [penwidth=2]
    52 -> 38 [penwidth=2]
    52 -> 34 [penwidth=2]
    52 -> 33 [penwidth=2]
    52 -> 40 [penwidth=2]
    52 -> 83 [penwidth=2]
    52 -> 72 [penwidth=2]
    52 -> 41 [penwidth=2]
    52 -> 81 [penwidth=2]
    52 -> 67 [penwidth=2]
    52 -> 71 [penwidth=2]
    52 -> 69 [penwidth=2]
    52 -> 73 [penwidth=2]
    52 -> 82 [penwidth=2]
    52 -> 76 [penwidth=2]
    52 -> 70 [penwidth=2]
    52 -> 64 [penwidth=2]
    52 -> 65 [penwidth=2]
    52 -> 77 [penwidth=2]
    52 -> 60 [penwidth=2]
    52 -> 78 [penwidth=2]
    52 -> 74 [penwidth=2]
    52 -> 80 [penwidth=2]
    8 -> 75 [penwidth=2]
    8 -> 42 [penwidth=2]
    8 -> 41 [penwidth=2]
    8 -> 83 [penwidth=2]
    8 -> 33 [penwidth=2]
    8 -> 79 [penwidth=2]
    8 -> 43 [penwidth=2]
    8 -> 36 [penwidth=2]
    8 -> 80 [penwidth=2]
    8 -> 34 [penwidth=2]
    8 -> 37 [penwidth=2]
    8 -> 72 [penwidth=2]
    8 -> 66 [penwidth=2]
    8 -> 84 [penwidth=2]
    8 -> 82 [penwidth=2]
    8 -> 11 [penwidth=2]
    8 -> 40 [penwidth=2]
    8 -> 68 [penwidth=2]
    8 -> 69 [penwidth=2]
    8 -> 81 [penwidth=2]
    8 -> 67 [penwidth=2]
    8 -> 85 [penwidth=2]
    8 -> 70 [penwidth=2]
    8 -> 76 [penwidth=2]
    8 -> 61 [penwidth=2]
    8 -> 63 [penwidth=2]
    8 -> 35 [penwidth=2]
    8 -> 65 [penwidth=2]
    8 -> 77 [penwidth=2]
    8 -> 38 [penwidth=2]
    8 -> 39 [penwidth=2]
    8 -> 71 [penwidth=2]
    4 -> 43 [penwidth=2]
    4 -> 75 [penwidth=2]
    4 -> 82 [penwidth=2]
    4 -> 85 [penwidth=2]
    4 -> 76 [penwidth=2]
    4 -> 42 [penwidth=2]
    4 -> 79 [penwidth=2]
    4 -> 81 [penwidth=2]
    4 -> 40 [penwidth=2]
    4 -> 39 [penwidth=2]
    4 -> 11 [penwidth=2]
    4 -> 33 [penwidth=2]
    4 -> 65 [penwidth=2]
    4 -> 68 [penwidth=2]
    4 -> 62 [penwidth=2]
    4 -> 64 [penwidth=2]
    4 -> 35 [penwidth=2]
    24 -> 61 [penwidth=2]
    23 -> 43 [penwidth=2]
    23 -> 42 [penwidth=2]
    23 -> 63 [penwidth=2]
    23 -> 72 [penwidth=2]
    23 -> 61 [penwidth=2]
    23 -> 35 [penwidth=2]
    23 -> 66 [penwidth=2]
    23 -> 34 [penwidth=2]
    23 -> 38 [penwidth=2]
}