digraph G {
    0 [penwidth=3,label="0"]
    1 [penwidth=3,label="1"]
    2 [penwidth=3,label="2"]
    3 [penwidth=3,label="3"]
    4 [penwidth=3,label="4"]
    5 [penwidth=3,label="5"]
    6 [penwidth=3,label="6"]
    7 [penwidth=3,label="7"]
    8 [penwidth=3,label="8"]
    9 [penwidth=3,label="9"]
    10 [penwidth=3,label="10"]
    11 [penwidth=3,label="11"]
    12 [penwidth=3,label="12"]
    13 [penwidth=3,label="13"]
    14 [penwidth=3,label="14"]
    15 [penwidth=3,label="15"]
    16 [penwidth=3,label="16"]
    17 [penwidth=3,label="17"]
    18 [penwidth=3,label="18"]
    19 [penwidth=3,label="19"]
    20 [penwidth=3,label="20"]
    21 [penwidth=3,label="21"]
    22 [penwidth=3,label="22"]
    23 [penwidth=3,label="23"]
    24 [penwidth=3,label="24"]
    25 [penwidth=3,label="25"]
    26 [penwidth=3,label="26"]
    27 [penwidth=3,label="27"]
    28 [penwidth=3,label="28"]
    29 [penwidth=3,label="29"]
    30 [penwidth=3,label="30"]
    31 [penwidth=3,label="31"]
    32 [penwidth=3,label="32"]
    33 [penwidth=3,label="33"]
    34 [penwidth=3,label="34"]
    35 [penwidth=3,label="35"]
    36 [penwidth=3,label="36"]
    37 [penwidth=3,label="37"]
    38 [penwidth=3,label="38"]
    39 [penwidth=3,label="39"]
    40 [penwidth=3,label="40"]
    41 [penwidth=3,label="41"]
    42 [penwidth=3,label="42"]
    43 [penwidth=3,label="43"]
    44 [penwidth=3,label="44"]
    45 [penwidth=3,label="45"]
    46 [penwidth=3,label="46"]
    47 [penwidth=3,label="47"]
    48 [penwidth=3,label="48"]
    49 [penwidth=3,label="49"]
    50 [penwidth=3,label="50"]
    51 [penwidth=3,label="51"]
    52 [penwidth=3,label="52"]
    53 [penwidth=3,label="53"]
    54 [penwidth=3,label="54"]
    55 [penwidth=3,label="55"]
    56 [penwidth=3,label="56"]
    57 [penwidth=3,label="57"]
    58 [penwidth=3,label="58"]
    59 [penwidth=3,label="59"]
    60 [penwidth=3,label="60"]
    61 [penwidth=3,label="61"]
    62 [penwidth=3,label="62"]
    63 [penwidth=3,label="63"]
    64 [penwidth=3,label="64"]
    65 [penwidth=3,label="65"]
    66 [penwidth=3,label="66"]
    67 [penwidth=3,label="67"]
    68 [penwidth=3,label="68"]
    69 [penwidth=3,label="69"]
    70 [penwidth=3,label="70"]
    71 [penwidth=3,label="71"]
    72 [penwidth=3,label="72"]
    73 [penwidth=3,label="73"]
    74 [penwidth=3,label="74"]
    75 [penwidth=3,label="75"]
    76 [penwidth=3,label="76"]
    77 [penwidth=3,label="77"]
    78 [penwidth=3,label="78"]
    79 [penwidth=3,label="79"]
    80 [penwidth=3,label="80"]
    81 [penwidth=3,label="81"]
    82 [penwidth=3,label="82"]
    83 [penwidth=3,label="83"]
    84 [penwidth=3,label="84"]
    85 [penwidth=3,label="85"]
    86 [penwidth=3,label="86"]
    87 [penwidth=3,label="87"]
    88 [penwidth=3,label="88"]
    89 [penwidth=3,label="89"]
    90 [penwidth=3,label="90"]
    91 [penwidth=3,label="91"]
    92 [penwidth=3,label="92"]
    93 [penwidth=3,label="93"]
    94 [penwidth=3,label="94"]
    95 [penwidth=3,label="95"]
    96 [penwidth=3,label="96"]
    97 [penwidth=3,label="97"]
    98 [penwidth=3,label="98"]
    99 [penwidth=3,label="99"]
    100 [penwidth=3,label="100"]
    101 [penwidth=3,label="101"]
    102 [penwidth=3,label="102"]
    103 [penwidth=3,label="103"]
    104 [penwidth=3,label="104"]
    105 [penwidth=3,label="105"]
    106 [penwidth=3,label="106"]
    107 [penwidth=3,label="107"]
    108 [penwidth=3,label="108"]
    109 [penwidth=3,label="109"]

    4 -> 0 [penwidth=2]
    46 -> 0 [penwidth=2]
    5 -> 0 [penwidth=2]
    47 -> 0 [penwidth=2]
    6 -> 0 [penwidth=2]
    48 -> 4 [penwidth=2]
    7 -> 4 [penwidth=2]
    49 -> 4 [penwidth=2]
    8 -> 4 [penwidth=2]
    50 -> 4 [penwidth=2]
    9 -> 4 [penwidth=2]
    51 -> 4 [penwidth=2]
    10 -> 4 [penwidth=2]
    52 -> 46 [penwidth=2]
    11 -> 46 [penwidth=2]
    53 -> 46 [penwidth=2]
    12 -> 46 [penwidth=2]
    54 -> 46 [penwidth=2]
    13 -> 46 [penwidth=2]
    55 -> 46 [penwidth=2]
    14 -> 46 [penwidth=2]
    56 -> 46 [penwidth=2]
    15 -> 46 [penwidth=2]
    57 -> 46 [penwidth=2]
    16 -> 46 [penwidth=2]
    58 -> 46 [penwidth=2]
    17 -> 46 [penwidth=2]
    59 -> 46 [penwidth=2]
    18 -> 5 [penwidth=2]
    60 -> 5 [penwidth=2]
    19 -> 5 [penwidth=2]
    61 -> 5 [penwidth=2]
    20 -> 5 [penwidth=2]
    62 -> 5 [penwidth=2]
    21 -> 5 [penwidth=2]
    63 -> 5 [penwidth=2]
    22 -> 5 [penwidth=2]
    64 -> 5 [penwidth=2]
    23 -> 5 [penwidth=2]
    65 -> 5 [penwidth=2]
    66 -> 5 [penwidth=2]
    24 -> 5 [penwidth=2]
    25 -> 5 [penwidth=2]
    67 -> 5 [penwidth=2]
    26 -> 5 [penwidth=2]
    68 -> 5 [penwidth=2]
    27 -> 5 [penwidth=2]
    69 -> 47 [penwidth=2]
    28 -> 47 [penwidth=2]
    70 -> 47 [penwidth=2]
    29 -> 47 [penwidth=2]
    71 -> 47 [penwidth=2]
    30 -> 47 [penwidth=2]
    72 -> 47 [penwidth=2]
    31 -> 47 [penwidth=2]
    73 -> 47 [penwidth=2]
    32 -> 47 [penwidth=2]
    74 -> 47 [penwidth=2]
    33 -> 47 [penwidth=2]
    75 -> 47 [penwidth=2]
    34 -> 47 [penwidth=2]
    76 -> 6 [penwidth=2]
    35 -> 6 [penwidth=2]
    77 -> 6 [penwidth=2]
    36 -> 6 [penwidth=2]
    78 -> 6 [penwidth=2]
    37 -> 48 [penwidth=2]
    79 -> 48 [penwidth=2]
    38 -> 48 [penwidth=2]
    80 -> 48 [penwidth=2]
    39 -> 48 [penwidth=2]
    81 -> 48 [penwidth=2]
    40 -> 48 [penwidth=2]
    82 -> 48 [penwidth=2]
    41 -> 48 [penwidth=2]
    83 -> 48 [penwidth=2]
    42 -> 48 [penwidth=2]
    84 -> 48 [penwidth=2]
    43 -> 48 [penwidth=2]
    85 -> 48 [penwidth=2]
    44 -> 48 [penwidth=2]
    86 -> 48 [penwidth=2]
    45 -> 48 [penwidth=2]
    87 -> 48 [penwidth=2]
    88 -> 48 [penwidth=2]
    89 -> 7 [penwidth=2]
    90 -> 7 [penwidth=2]
    91 -> 7 [penwidth=2]
    92 -> 49 [penwidth=2]
    93 -> 49 [penwidth=2]
    94 -> 49 [penwidth=2]
    95 -> 49 [penwidth=2]
    96 -> 49 [penwidth=2]
    97 -> 49 [penwidth=2]
    98 -> 49 [penwidth=2]
    99 -> 49 [penwidth=2]
    100 -> 49 [penwidth=2]
    101 -> 49 [penwidth=2]
    102 -> 8 [penwidth=2]
    103 -> 8 [penwidth=2]
    104 -> 8 [penwidth=2]
    105 -> 8 [penwidth=2]
    106 -> 8 [penwidth=2]
    107 -> 50 [penwidth=2]
    108 -> 50 [penwidth=2]
    109 -> 50 [penwidth=2]
    1 -> 50 [penwidth=2]
    2 -> 50 [penwidth=2]
    3 -> 9 [penwidth=2]
    55 -> 6 [penwidth=2]
    55 -> 5 [penwidth=2]
    55 -> 47 [penwidth=2]
    65 -> 4 [penwidth=2]
    65 -> 47 [penwidth=2]
    65 -> 46 [penwidth=2]
    28 -> 5 [penwidth=2]
    28 -> 4 [penwidth=2]
    28 -> 46 [penwidth=2]
    77 -> 47 [penwidth=2]
    37 -> 77 [penwidth=2]
    37 -> 75 [penwidth=2]
    37 -> 33 [penwidth=2]
    37 -> 16 [penwidth=2]
    37 -> 56 [penwidth=2]
    37 -> 61 [penwidth=2]
    37 -> 11 [penwidth=2]
    37 -> 19 [penwidth=2]
    37 -> 35 [penwidth=2]
    37 -> 67 [penwidth=2]
    37 -> 20 [penwidth=2]
    37 -> 7 [penwidth=2]
    40 -> 23 [penwidth=2]
    40 -> 33 [penwidth=2]
    40 -> 27 [penwidth=2]
    40 -> 59 [penwidth=2]
    40 -> 19 [penwidth=2]
    40 -> 11 [penwidth=2]
    40 -> 71 [penwidth=2]
    40 -> 7 [penwidth=2]
    40 -> 20 [penwidth=2]
    40 -> 12 [penwidth=2]
    40 -> 51 [penwidth=2]
    40 -> 8 [penwidth=2]
    40 -> 9 [penwidth=2]
    40 -> 74 [penwidth=2]
    40 -> 24 [penwidth=2]
    40 -> 13 [penwidth=2]
    40 -> 60 [penwidth=2]
    40 -> 18 [penwidth=2]
    40 -> 32 [penwidth=2]
    40 -> 15 [penwidth=2]
    40 -> 72 [penwidth=2]
    40 -> 28 [penwidth=2]
    40 -> 57 [penwidth=2]
    40 -> 78 [penwidth=2]
    40 -> 62 [penwidth=2]
    40 -> 61 [penwidth=2]
    40 -> 54 [penwidth=2]
    40 -> 56 [penwidth=2]
    40 -> 29 [penwidth=2]
    40 -> 65 [penwidth=2]
    40 -> 22 [penwidth=2]
    40 -> 73 [penwidth=2]
    40 -> 52 [penwidth=2]
    40 -> 34 [penwidth=2]
    40 -> 50 [penwidth=2]
    40 -> 67 [penwidth=2]
    40 -> 16 [penwidth=2]
    40 -> 58 [penwidth=2]
    40 -> 21 [penwidth=2]
    40 -> 30 [penwidth=2]
    40 -> 75 [penwidth=2]
    94 -> 60 [penwidth=2]
    94 -> 11 [penwidth=2]
    94 -> 31 [penwidth=2]
    94 -> 48 [penwidth=2]
    94 -> 78 [penwidth=2]
    94 -> 34 [penwidth=2]
    94 -> 12 [penwidth=2]
    94 -> 8 [penwidth=2]
    94 -> 25 [penwidth=2]
    94 -> 21 [penwidth=2]
    94 -> 14 [penwidth=2]
    94 -> 72 [penwidth=2]
    94 -> 26 [penwidth=2]
    94 -> 71 [penwidth=2]
    94 -> 33 [penwidth=2]
    94 -> 74 [penwidth=2]
    94 -> 56 [penwidth=2]
    94 -> 66 [penwidth=2]
    94 -> 58 [penwidth=2]
    94 -> 9 [penwidth=2]
    94 -> 29 [penwidth=2]
    94 -> 32 [penwidth=2]
    94 -> 69 [penwidth=2]
    94 -> 75 [penwidth=2]
    94 -> 62 [penwidth=2]
    94 -> 54 [penwidth=2]
    94 -> 22 [penwidth=2]
    94 -> 19 [penwidth=2]
    94 -> 73 [penwidth=2]
    94 -> 70 [penwidth=2]
    94 -> 30 [penwidth=2]
    94 -> 77 [penwidth=2]
    94 -> 52 [penwidth=2]
    94 -> 17 [penwidth=2]
    94 -> 64 [penwidth=2]
    94 -> 61 [penwidth=2]
    94 -> 67 [penwidth=2]
    94 -> 13 [penwidth=2]
    94 -> 18 [penwidth=2]
    94 -> 36 [penwidth=2]
    94 -> 63 [penwidth=2]
    97 -> 31 [penwidth=2]
    97 -> 71 [penwidth=2]
    97 -> 53 [penwidth=2]
    97 -> 8 [penwidth=2]
    97 -> 29 [penwidth=2]
    97 -> 24 [penwidth=2]
    97 -> 18 [penwidth=2]
    97 -> 33 [penwidth=2]
    97 -> 25 [penwidth=2]
    97 -> 75 [penwidth=2]
    97 -> 70 [penwidth=2]
    97 -> 26 [penwidth=2]
    97 -> 13 [penwidth=2]
    101 -> 20 [penwidth=2]
    101 -> 10 [penwidth=2]
    101 -> 30 [penwidth=2]
    101 -> 67 [penwidth=2]
    101 -> 73 [penwidth=2]
    101 -> 31 [penwidth=2]
    101 -> 25 [penwidth=2]
    101 -> 50 [penwidth=2]
    101 -> 69 [penwidth=2]
    101 -> 75 [penwidth=2]
    101 -> 55 [penwidth=2]
    101 -> 8 [penwidth=2]
    101 -> 66 [penwidth=2]
    3 -> 21 [penwidth=2]
    3 -> 78 [penwidth=2]
    3 -> 26 [penwidth=2]
    3 -> 65 [penwidth=2]
    3 -> 50 [penwidth=2]
    3 -> 64 [penwidth=2]
    3 -> 31 [penwidth=2]
    3 -> 36 [penwidth=2]
    3 -> 30 [penwidth=2]
    3 -> 59 [penwidth=2]
    3 -> 7 [penwidth=2]
    3 -> 11 [penwidth=2]
    3 -> 20 [penwidth=2]
    3 -> 18 [penwidth=2]
    3 -> 24 [penwidth=2]
    3 -> 35 [penwidth=2]
}