digraph G {
    0 [penwidth=3,label="0"]
    1 [penwidth=3,label="1"]
    2 [penwidth=3,label="2"]
    3 [penwidth=3,label="3"]
    4 [penwidth=3,label="4"]
    5 [penwidth=3,label="5"]
    6 [penwidth=3,label="6"]
    7 [penwidth=3,label="7"]
    8 [penwidth=3,label="8"]
    9 [penwidth=3,label="9"]
    10 [penwidth=3,label="10"]
    11 [penwidth=3,label="11"]
    12 [penwidth=3,label="12"]
    13 [penwidth=3,label="13"]
    14 [penwidth=3,label="14"]
    15 [penwidth=3,label="15"]
    16 [penwidth=3,label="16"]
    17 [penwidth=3,label="17"]
    18 [penwidth=3,label="18"]
    19 [penwidth=3,label="19"]
    20 [penwidth=3,label="20"]
    21 [penwidth=3,label="21"]
    22 [penwidth=3,label="22"]
    23 [penwidth=3,label="23"]
    24 [penwidth=3,label="24"]
    25 [penwidth=3,label="25"]
    26 [penwidth=3,label="26"]
    27 [penwidth=3,label="27"]
    28 [penwidth=3,label="28"]
    29 [penwidth=3,label="29"]
    30 [penwidth=3,label="30"]
    31 [penwidth=3,label="31"]
    32 [penwidth=3,label="32"]
    33 [penwidth=3,label="33"]
    34 [penwidth=3,label="34"]
    35 [penwidth=3,label="35"]
    36 [penwidth=3,label="36"]
    37 [penwidth=3,label="37"]
    38 [penwidth=3,label="38"]
    39 [penwidth=3,label="39"]
    40 [penwidth=3,label="40"]
    41 [penwidth=3,label="41"]
    42 [penwidth=3,label="42"]
    43 [penwidth=3,label="43"]
    44 [penwidth=3,label="44"]
    45 [penwidth=3,label="45"]
    46 [penwidth=3,label="46"]
    47 [penwidth=3,label="47"]
    48 [penwidth=3,label="48"]
    49 [penwidth=3,label="49"]
    50 [penwidth=3,label="50"]
    51 [penwidth=3,label="51"]
    52 [penwidth=3,label="52"]
    53 [penwidth=3,label="53"]
    54 [penwidth=3,label="54"]
    55 [penwidth=3,label="55"]
    56 [penwidth=3,label="56"]
    57 [penwidth=3,label="57"]
    58 [penwidth=3,label="58"]
    59 [penwidth=3,label="59"]
    60 [penwidth=3,label="60"]
    61 [penwidth=3,label="61"]
    62 [penwidth=3,label="62"]
    63 [penwidth=3,label="63"]
    64 [penwidth=3,label="64"]
    65 [penwidth=3,label="65"]
    66 [penwidth=3,label="66"]
    67 [penwidth=3,label="67"]
    68 [penwidth=3,label="68"]
    69 [penwidth=3,label="69"]
    70 [penwidth=3,label="70"]
    71 [penwidth=3,label="71"]
    72 [penwidth=3,label="72"]
    73 [penwidth=3,label="73"]
    74 [penwidth=3,label="74"]
    75 [penwidth=3,label="75"]
    76 [penwidth=3,label="76"]
    77 [penwidth=3,label="77"]
    78 [penwidth=3,label="78"]
    79 [penwidth=3,label="79"]
    80 [penwidth=3,label="80"]
    81 [penwidth=3,label="81"]
    82 [penwidth=3,label="82"]
    83 [penwidth=3,label="83"]
    84 [penwidth=3,label="84"]
    85 [penwidth=3,label="85"]
    86 [penwidth=3,label="86"]
    87 [penwidth=3,label="87"]
    88 [penwidth=3,label="88"]
    89 [penwidth=3,label="89"]
    90 [penwidth=3,label="90"]
    91 [penwidth=3,label="91"]
    92 [penwidth=3,label="92"]
    93 [penwidth=3,label="93"]
    94 [penwidth=3,label="94"]
    95 [penwidth=3,label="95"]
    96 [penwidth=3,label="96"]
    97 [penwidth=3,label="97"]
    98 [penwidth=3,label="98"]
    99 [penwidth=3,label="99"]
    100 [penwidth=3,label="100"]
    101 [penwidth=3,label="101"]
    102 [penwidth=3,label="102"]
    103 [penwidth=3,label="103"]
    104 [penwidth=3,label="104"]
    105 [penwidth=3,label="105"]
    106 [penwidth=3,label="106"]
    107 [penwidth=3,label="107"]
    108 [penwidth=3,label="108"]
    109 [penwidth=3,label="109"]

    6 -> 0 [penwidth=2]
    90 -> 0 [penwidth=2]
    7 -> 0 [penwidth=2]
    91 -> 0 [penwidth=2]
    8 -> 0 [penwidth=2]
    92 -> 6 [penwidth=2]
    9 -> 6 [penwidth=2]
    93 -> 6 [penwidth=2]
    10 -> 6 [penwidth=2]
    94 -> 6 [penwidth=2]
    11 -> 6 [penwidth=2]
    95 -> 6 [penwidth=2]
    12 -> 6 [penwidth=2]
    96 -> 6 [penwidth=2]
    13 -> 6 [penwidth=2]
    97 -> 6 [penwidth=2]
    14 -> 6 [penwidth=2]
    98 -> 6 [penwidth=2]
    15 -> 6 [penwidth=2]
    99 -> 6 [penwidth=2]
    16 -> 6 [penwidth=2]
    100 -> 6 [penwidth=2]
    17 -> 6 [penwidth=2]
    101 -> 6 [penwidth=2]
    18 -> 90 [penwidth=2]
    102 -> 90 [penwidth=2]
    19 -> 90 [penwidth=2]
    103 -> 90 [penwidth=2]
    20 -> 90 [penwidth=2]
    104 -> 90 [penwidth=2]
    21 -> 90 [penwidth=2]
    105 -> 7 [penwidth=2]
    22 -> 7 [penwidth=2]
    106 -> 7 [penwidth=2]
    23 -> 7 [penwidth=2]
    107 -> 7 [penwidth=2]
    24 -> 7 [penwidth=2]
    108 -> 7 [penwidth=2]
    25 -> 7 [penwidth=2]
    109 -> 7 [penwidth=2]
    26 -> 7 [penwidth=2]
    27 -> 7 [penwidth=2]
    28 -> 7 [penwidth=2]
    29 -> 7 [penwidth=2]
    30 -> 7 [penwidth=2]
    31 -> 7 [penwidth=2]
    32 -> 91 [penwidth=2]
    33 -> 91 [penwidth=2]
    34 -> 91 [penwidth=2]
    35 -> 91 [penwidth=2]
    36 -> 91 [penwidth=2]
    37 -> 8 [penwidth=2]
    38 -> 8 [penwidth=2]
    39 -> 8 [penwidth=2]
    40 -> 8 [penwidth=2]
    41 -> 8 [penwidth=2]
    42 -> 8 [penwidth=2]
    43 -> 92 [penwidth=2]
    44 -> 92 [penwidth=2]
    45 -> 92 [penwidth=2]
    46 -> 92 [penwidth=2]
    47 -> 92 [penwidth=2]
    48 -> 92 [penwidth=2]
    49 -> 92 [penwidth=2]
    50 -> 9 [penwidth=2]
    51 -> 9 [penwidth=2]
    52 -> 9 [penwidth=2]
    53 -> 9 [penwidth=2]
    54 -> 9 [penwidth=2]
    55 -> 9 [penwidth=2]
    89 -> 9 [penwidth=2]
    56 -> 9 [penwidth=2]
    57 -> 9 [penwidth=2]
    58 -> 9 [penwidth=2]
    59 -> 9 [penwidth=2]
    60 -> 93 [penwidth=2]
    61 -> 93 [penwidth=2]
    62 -> 93 [penwidth=2]
    63 -> 93 [penwidth=2]
    64 -> 93 [penwidth=2]
    65 -> 93 [penwidth=2]
    66 -> 93 [penwidth=2]
    67 -> 93 [penwidth=2]
    68 -> 93 [penwidth=2]
    69 -> 93 [penwidth=2]
    70 -> 10 [penwidth=2]
    71 -> 94 [penwidth=2]
    72 -> 94 [penwidth=2]
    73 -> 94 [penwidth=2]
    74 -> 94 [penwidth=2]
    75 -> 94 [penwidth=2]
    76 -> 94 [penwidth=2]
    77 -> 94 [penwidth=2]
    78 -> 94 [penwidth=2]
    79 -> 94 [penwidth=2]
    80 -> 94 [penwidth=2]
    81 -> 94 [penwidth=2]
    82 -> 94 [penwidth=2]
    83 -> 94 [penwidth=2]
    84 -> 94 [penwidth=2]
    1 -> 94 [penwidth=2]
    85 -> 94 [penwidth=2]
    2 -> 94 [penwidth=2]
    86 -> 11 [penwidth=2]
    3 -> 11 [penwidth=2]
    87 -> 11 [penwidth=2]
    4 -> 11 [penwidth=2]
    88 -> 11 [penwidth=2]
    5 -> 12 [penwidth=2]
    95 -> 90 [penwidth=2]
    97 -> 90 [penwidth=2]
    97 -> 8 [penwidth=2]
    104 -> 7 [penwidth=2]
    104 -> 8 [penwidth=2]
    106 -> 8 [penwidth=2]
    37 -> 7 [penwidth=2]
    37 -> 6 [penwidth=2]
    52 -> 106 [penwidth=2]
    52 -> 40 [penwidth=2]
    52 -> 24 [penwidth=2]
    55 -> 38 [penwidth=2]
    55 -> 104 [penwidth=2]
    55 -> 109 [penwidth=2]
    55 -> 16 [penwidth=2]
    55 -> 35 [penwidth=2]
    55 -> 106 [penwidth=2]
    55 -> 19 [penwidth=2]
    55 -> 33 [penwidth=2]
    55 -> 41 [penwidth=2]
    55 -> 107 [penwidth=2]
    55 -> 25 [penwidth=2]
    55 -> 42 [penwidth=2]
    55 -> 105 [penwidth=2]
    55 -> 101 [penwidth=2]
    55 -> 36 [penwidth=2]
    55 -> 102 [penwidth=2]
    55 -> 96 [penwidth=2]
    55 -> 20 [penwidth=2]
    55 -> 13 [penwidth=2]
    55 -> 18 [penwidth=2]
    55 -> 15 [penwidth=2]
    55 -> 98 [penwidth=2]
    55 -> 30 [penwidth=2]
    55 -> 97 [penwidth=2]
    55 -> 21 [penwidth=2]
    55 -> 17 [penwidth=2]
    55 -> 92 [penwidth=2]
    55 -> 32 [penwidth=2]
    55 -> 22 [penwidth=2]
    55 -> 103 [penwidth=2]
    55 -> 99 [penwidth=2]
    55 -> 26 [penwidth=2]
    55 -> 100 [penwidth=2]
    55 -> 14 [penwidth=2]
    89 -> 42 [penwidth=2]
    89 -> 40 [penwidth=2]
    89 -> 95 [penwidth=2]
    89 -> 13 [penwidth=2]
    89 -> 21 [penwidth=2]
    89 -> 96 [penwidth=2]
    89 -> 104 [penwidth=2]
    89 -> 34 [penwidth=2]
    89 -> 12 [penwidth=2]
    89 -> 108 [penwidth=2]
    89 -> 25 [penwidth=2]
    59 -> 40 [penwidth=2]
    59 -> 101 [penwidth=2]
    59 -> 19 [penwidth=2]
    59 -> 97 [penwidth=2]
    59 -> 108 [penwidth=2]
    59 -> 35 [penwidth=2]
    59 -> 22 [penwidth=2]
    59 -> 36 [penwidth=2]
    59 -> 14 [penwidth=2]
    59 -> 15 [penwidth=2]
    59 -> 107 [penwidth=2]
    59 -> 37 [penwidth=2]
    59 -> 32 [penwidth=2]
    59 -> 12 [penwidth=2]
    59 -> 105 [penwidth=2]
    59 -> 34 [penwidth=2]
    59 -> 25 [penwidth=2]
    59 -> 17 [penwidth=2]
    59 -> 95 [penwidth=2]
    59 -> 30 [penwidth=2]
    59 -> 102 [penwidth=2]
    59 -> 106 [penwidth=2]
    59 -> 26 [penwidth=2]
    59 -> 99 [penwidth=2]
    59 -> 42 [penwidth=2]
    59 -> 11 [penwidth=2]
    59 -> 18 [penwidth=2]
    59 -> 27 [penwidth=2]
    59 -> 103 [penwidth=2]
    59 -> 109 [penwidth=2]
    59 -> 20 [penwidth=2]
    59 -> 10 [penwidth=2]
    59 -> 24 [penwidth=2]
    59 -> 94 [penwidth=2]
    59 -> 98 [penwidth=2]
    59 -> 100 [penwidth=2]
    59 -> 29 [penwidth=2]
    59 -> 93 [penwidth=2]
    59 -> 41 [penwidth=2]
    59 -> 16 [penwidth=2]
    59 -> 92 [penwidth=2]
    59 -> 31 [penwidth=2]
    59 -> 39 [penwidth=2]
    59 -> 104 [penwidth=2]
    59 -> 23 [penwidth=2]
    59 -> 96 [penwidth=2]
    77 -> 34 [penwidth=2]
    77 -> 22 [penwidth=2]
    77 -> 38 [penwidth=2]
    77 -> 102 [penwidth=2]
    77 -> 14 [penwidth=2]
    77 -> 95 [penwidth=2]
    77 -> 11 [penwidth=2]
    77 -> 21 [penwidth=2]
    77 -> 99 [penwidth=2]
    77 -> 16 [penwidth=2]
    77 -> 40 [penwidth=2]
    77 -> 32 [penwidth=2]
    77 -> 19 [penwidth=2]
    77 -> 104 [penwidth=2]
    77 -> 24 [penwidth=2]
    77 -> 23 [penwidth=2]
    77 -> 103 [penwidth=2]
    77 -> 26 [penwidth=2]
}