digraph G {
    0 [penwidth=3,label="0"]
    1 [penwidth=3,label="1"]
    2 [penwidth=3,label="2"]
    3 [penwidth=3,label="3"]
    4 [penwidth=3,label="4"]
    5 [penwidth=3,label="5"]
    6 [penwidth=3,label="6"]
    7 [penwidth=3,label="7"]
    8 [penwidth=3,label="8"]
    9 [penwidth=3,label="9"]
    10 [penwidth=3,label="10"]
    11 [penwidth=3,label="11"]
    12 [penwidth=3,label="12"]
    13 [penwidth=3,label="13"]
    14 [penwidth=3,label="14"]
    15 [penwidth=3,label="15"]
    16 [penwidth=3,label="16"]
    17 [penwidth=3,label="17"]
    18 [penwidth=3,label="18"]
    19 [penwidth=3,label="19"]
    20 [penwidth=3,label="20"]
    21 [penwidth=3,label="21"]
    22 [penwidth=3,label="22"]
    23 [penwidth=3,label="23"]
    24 [penwidth=3,label="24"]
    25 [penwidth=3,label="25"]
    26 [penwidth=3,label="26"]
    27 [penwidth=3,label="27"]
    28 [penwidth=3,label="28"]
    29 [penwidth=3,label="29"]
    30 [penwidth=3,label="30"]
    31 [penwidth=3,label="31"]
    32 [penwidth=3,label="32"]
    33 [penwidth=3,label="33"]
    34 [penwidth=3,label="34"]
    35 [penwidth=3,label="35"]
    36 [penwidth=3,label="36"]
    37 [penwidth=3,label="37"]
    38 [penwidth=3,label="38"]
    39 [penwidth=3,label="39"]
    40 [penwidth=3,label="40"]
    41 [penwidth=3,label="41"]
    42 [penwidth=3,label="42"]
    43 [penwidth=3,label="43"]
    44 [penwidth=3,label="44"]
    45 [penwidth=3,label="45"]
    46 [penwidth=3,label="46"]
    47 [penwidth=3,label="47"]
    48 [penwidth=3,label="48"]
    49 [penwidth=3,label="49"]
    50 [penwidth=3,label="50"]
    51 [penwidth=3,label="51"]
    52 [penwidth=3,label="52"]
    53 [penwidth=3,label="53"]
    54 [penwidth=3,label="54"]
    55 [penwidth=3,label="55"]
    56 [penwidth=3,label="56"]
    57 [penwidth=3,label="57"]
    58 [penwidth=3,label="58"]
    59 [penwidth=3,label="59"]
    60 [penwidth=3,label="60"]
    61 [penwidth=3,label="61"]
    62 [penwidth=3,label="62"]
    63 [penwidth=3,label="63"]
    64 [penwidth=3,label="64"]
    65 [penwidth=3,label="65"]
    66 [penwidth=3,label="66"]
    67 [penwidth=3,label="67"]
    68 [penwidth=3,label="68"]
    69 [penwidth=3,label="69"]
    70 [penwidth=3,label="70"]
    71 [penwidth=3,label="71"]
    72 [penwidth=3,label="72"]
    73 [penwidth=3,label="73"]
    74 [penwidth=3,label="74"]
    75 [penwidth=3,label="75"]
    76 [penwidth=3,label="76"]
    77 [penwidth=3,label="77"]
    78 [penwidth=3,label="78"]
    79 [penwidth=3,label="79"]
    80 [penwidth=3,label="80"]
    81 [penwidth=3,label="81"]
    82 [penwidth=3,label="82"]
    83 [penwidth=3,label="83"]
    84 [penwidth=3,label="84"]
    85 [penwidth=3,label="85"]
    86 [penwidth=3,label="86"]
    87 [penwidth=3,label="87"]
    88 [penwidth=3,label="88"]
    89 [penwidth=3,label="89"]
    90 [penwidth=3,label="90"]
    91 [penwidth=3,label="91"]
    92 [penwidth=3,label="92"]
    93 [penwidth=3,label="93"]
    94 [penwidth=3,label="94"]
    95 [penwidth=3,label="95"]
    96 [penwidth=3,label="96"]
    97 [penwidth=3,label="97"]
    98 [penwidth=3,label="98"]
    99 [penwidth=3,label="99"]
    100 [penwidth=3,label="100"]
    101 [penwidth=3,label="101"]
    102 [penwidth=3,label="102"]
    103 [penwidth=3,label="103"]
    104 [penwidth=3,label="104"]
    105 [penwidth=3,label="105"]
    106 [penwidth=3,label="106"]
    107 [penwidth=3,label="107"]
    108 [penwidth=3,label="108"]
    109 [penwidth=3,label="109"]
    110 [penwidth=3,label="110"]
    111 [penwidth=3,label="111"]
    112 [penwidth=3,label="112"]
    113 [penwidth=3,label="113"]
    114 [penwidth=3,label="114"]
    115 [penwidth=3,label="115"]
    116 [penwidth=3,label="116"]
    117 [penwidth=3,label="117"]
    118 [penwidth=3,label="118"]
    119 [penwidth=3,label="119"]
    120 [penwidth=3,label="120"]
    121 [penwidth=3,label="121"]
    122 [penwidth=3,label="122"]
    123 [penwidth=3,label="123"]
    124 [penwidth=3,label="124"]
    125 [penwidth=3,label="125"]
    126 [penwidth=3,label="126"]
    127 [penwidth=3,label="127"]
    128 [penwidth=3,label="128"]
    129 [penwidth=3,label="129"]
    130 [penwidth=3,label="130"]
    131 [penwidth=3,label="131"]
    132 [penwidth=3,label="132"]
    133 [penwidth=3,label="133"]
    134 [penwidth=3,label="134"]
    135 [penwidth=3,label="135"]
    136 [penwidth=3,label="136"]
    137 [penwidth=3,label="137"]
    138 [penwidth=3,label="138"]
    139 [penwidth=3,label="139"]
    140 [penwidth=3,label="140"]
    141 [penwidth=3,label="141"]
    142 [penwidth=3,label="142"]
    143 [penwidth=3,label="143"]
    144 [penwidth=3,label="144"]
    145 [penwidth=3,label="145"]
    146 [penwidth=3,label="146"]
    147 [penwidth=3,label="147"]
    148 [penwidth=3,label="148"]
    149 [penwidth=3,label="149"]

    72 -> 0 [penwidth=2]
    114 -> 0 [penwidth=2]
    73 -> 0 [penwidth=2]
    115 -> 0 [penwidth=2]
    74 -> 72 [penwidth=2]
    116 -> 72 [penwidth=2]
    75 -> 72 [penwidth=2]
    117 -> 72 [penwidth=2]
    76 -> 72 [penwidth=2]
    118 -> 72 [penwidth=2]
    77 -> 114 [penwidth=2]
    119 -> 114 [penwidth=2]
    78 -> 114 [penwidth=2]
    120 -> 114 [penwidth=2]
    79 -> 114 [penwidth=2]
    121 -> 114 [penwidth=2]
    80 -> 114 [penwidth=2]
    122 -> 114 [penwidth=2]
    81 -> 114 [penwidth=2]
    123 -> 114 [penwidth=2]
    82 -> 114 [penwidth=2]
    124 -> 114 [penwidth=2]
    83 -> 73 [penwidth=2]
    125 -> 73 [penwidth=2]
    84 -> 73 [penwidth=2]
    126 -> 73 [penwidth=2]
    85 -> 73 [penwidth=2]
    127 -> 73 [penwidth=2]
    86 -> 73 [penwidth=2]
    128 -> 73 [penwidth=2]
    87 -> 73 [penwidth=2]
    129 -> 73 [penwidth=2]
    1 -> 73 [penwidth=2]
    2 -> 73 [penwidth=2]
    88 -> 73 [penwidth=2]
    130 -> 73 [penwidth=2]
    89 -> 73 [penwidth=2]
    131 -> 115 [penwidth=2]
    90 -> 115 [penwidth=2]
    132 -> 115 [penwidth=2]
    91 -> 115 [penwidth=2]
    133 -> 115 [penwidth=2]
    92 -> 115 [penwidth=2]
    134 -> 115 [penwidth=2]
    93 -> 115 [penwidth=2]
    135 -> 115 [penwidth=2]
    94 -> 115 [penwidth=2]
    136 -> 115 [penwidth=2]
    95 -> 115 [penwidth=2]
    137 -> 115 [penwidth=2]
    96 -> 115 [penwidth=2]
    138 -> 115 [penwidth=2]
    97 -> 115 [penwidth=2]
    139 -> 74 [penwidth=2]
    98 -> 74 [penwidth=2]
    140 -> 74 [penwidth=2]
    99 -> 74 [penwidth=2]
    141 -> 74 [penwidth=2]
    100 -> 74 [penwidth=2]
    142 -> 74 [penwidth=2]
    101 -> 74 [penwidth=2]
    143 -> 74 [penwidth=2]
    102 -> 74 [penwidth=2]
    144 -> 74 [penwidth=2]
    103 -> 74 [penwidth=2]
    145 -> 74 [penwidth=2]
    40 -> 74 [penwidth=2]
    104 -> 74 [penwidth=2]
    146 -> 74 [penwidth=2]
    105 -> 74 [penwidth=2]
    147 -> 74 [penwidth=2]
    106 -> 74 [penwidth=2]
    148 -> 116 [penwidth=2]
    107 -> 116 [penwidth=2]
    149 -> 116 [penwidth=2]
    108 -> 116 [penwidth=2]
    109 -> 116 [penwidth=2]
    110 -> 116 [penwidth=2]
    111 -> 116 [penwidth=2]
    112 -> 75 [penwidth=2]
    113 -> 75 [penwidth=2]
    8 -> 75 [penwidth=2]
    16 -> 75 [penwidth=2]
    15 -> 75 [penwidth=2]
    31 -> 75 [penwidth=2]
    24 -> 75 [penwidth=2]
    13 -> 75 [penwidth=2]
    20 -> 117 [penwidth=2]
    34 -> 117 [penwidth=2]
    18 -> 117 [penwidth=2]
    9 -> 117 [penwidth=2]
    35 -> 117 [penwidth=2]
    69 -> 117 [penwidth=2]
    51 -> 117 [penwidth=2]
    14 -> 117 [penwidth=2]
    27 -> 76 [penwidth=2]
    68 -> 76 [penwidth=2]
    38 -> 76 [penwidth=2]
    4 -> 76 [penwidth=2]
    53 -> 76 [penwidth=2]
    25 -> 118 [penwidth=2]
    67 -> 118 [penwidth=2]
    22 -> 118 [penwidth=2]
    29 -> 118 [penwidth=2]
    66 -> 118 [penwidth=2]
    52 -> 118 [penwidth=2]
    5 -> 118 [penwidth=2]
    10 -> 118 [penwidth=2]
    65 -> 77 [penwidth=2]
    42 -> 77 [penwidth=2]
    17 -> 77 [penwidth=2]
    23 -> 77 [penwidth=2]
    64 -> 119 [penwidth=2]
    41 -> 119 [penwidth=2]
    30 -> 119 [penwidth=2]
    12 -> 119 [penwidth=2]
    63 -> 119 [penwidth=2]
    44 -> 119 [penwidth=2]
    11 -> 119 [penwidth=2]
    32 -> 119 [penwidth=2]
    62 -> 119 [penwidth=2]
    43 -> 119 [penwidth=2]
    21 -> 119 [penwidth=2]
    33 -> 119 [penwidth=2]
    50 -> 119 [penwidth=2]
    61 -> 119 [penwidth=2]
    37 -> 78 [penwidth=2]
    47 -> 78 [penwidth=2]
    6 -> 78 [penwidth=2]
    60 -> 78 [penwidth=2]
    19 -> 78 [penwidth=2]
    46 -> 78 [penwidth=2]
    26 -> 120 [penwidth=2]
    59 -> 120 [penwidth=2]
    28 -> 120 [penwidth=2]
    45 -> 120 [penwidth=2]
    7 -> 120 [penwidth=2]
    58 -> 120 [penwidth=2]
    36 -> 120 [penwidth=2]
    3 -> 120 [penwidth=2]
    57 -> 120 [penwidth=2]
    39 -> 120 [penwidth=2]
    56 -> 79 [penwidth=2]
    48 -> 79 [penwidth=2]
    55 -> 79 [penwidth=2]
    49 -> 79 [penwidth=2]
    70 -> 79 [penwidth=2]
    54 -> 79 [penwidth=2]
    71 -> 79 [penwidth=2]
    117 -> 73 [penwidth=2]
    118 -> 114 [penwidth=2]
    119 -> 73 [penwidth=2]
    119 -> 72 [penwidth=2]
    126 -> 72 [penwidth=2]
    126 -> 114 [penwidth=2]
    2 -> 115 [penwidth=2]
    88 -> 114 [penwidth=2]
    132 -> 72 [penwidth=2]
    141 -> 127 [penwidth=2]
    145 -> 96 [penwidth=2]
    145 -> 121 [penwidth=2]
    145 -> 81 [penwidth=2]
    145 -> 77 [penwidth=2]
    145 -> 90 [penwidth=2]
    145 -> 93 [penwidth=2]
    145 -> 94 [penwidth=2]
    145 -> 130 [penwidth=2]
    145 -> 123 [penwidth=2]
    145 -> 97 [penwidth=2]
    145 -> 78 [penwidth=2]
    145 -> 89 [penwidth=2]
    145 -> 132 [penwidth=2]
    145 -> 88 [penwidth=2]
    145 -> 85 [penwidth=2]
    145 -> 125 [penwidth=2]
    145 -> 116 [penwidth=2]
    145 -> 95 [penwidth=2]
    145 -> 136 [penwidth=2]
    145 -> 118 [penwidth=2]
    145 -> 86 [penwidth=2]
    145 -> 137 [penwidth=2]
    145 -> 84 [penwidth=2]
    145 -> 128 [penwidth=2]
    145 -> 117 [penwidth=2]
    145 -> 119 [penwidth=2]
    145 -> 87 [penwidth=2]
    147 -> 76 [penwidth=2]
    147 -> 118 [penwidth=2]
    147 -> 75 [penwidth=2]
    147 -> 94 [penwidth=2]
    147 -> 117 [penwidth=2]
    147 -> 93 [penwidth=2]
    147 -> 126 [penwidth=2]
    147 -> 2 [penwidth=2]
    147 -> 90 [penwidth=2]
    147 -> 95 [penwidth=2]
    108 -> 122 [penwidth=2]
    108 -> 125 [penwidth=2]
    108 -> 137 [penwidth=2]
    108 -> 136 [penwidth=2]
    108 -> 126 [penwidth=2]
    108 -> 121 [penwidth=2]
    108 -> 88 [penwidth=2]
    108 -> 128 [penwidth=2]
    108 -> 119 [penwidth=2]
    108 -> 80 [penwidth=2]
    108 -> 74 [penwidth=2]
    108 -> 90 [penwidth=2]
    108 -> 85 [penwidth=2]
    108 -> 79 [penwidth=2]
    108 -> 92 [penwidth=2]
    108 -> 123 [penwidth=2]
    108 -> 134 [penwidth=2]
    108 -> 93 [penwidth=2]
    108 -> 135 [penwidth=2]
    108 -> 84 [penwidth=2]
    108 -> 97 [penwidth=2]
    108 -> 120 [penwidth=2]
    111 -> 80 [penwidth=2]
    111 -> 126 [penwidth=2]
    111 -> 77 [penwidth=2]
    111 -> 86 [penwidth=2]
    111 -> 96 [penwidth=2]
    111 -> 137 [penwidth=2]
    111 -> 78 [penwidth=2]
    111 -> 92 [penwidth=2]
    111 -> 97 [penwidth=2]
    111 -> 83 [penwidth=2]
    111 -> 84 [penwidth=2]
    111 -> 122 [penwidth=2]
    111 -> 2 [penwidth=2]
    111 -> 118 [penwidth=2]
    111 -> 91 [penwidth=2]
    111 -> 81 [penwidth=2]
    111 -> 75 [penwidth=2]
    111 -> 93 [penwidth=2]
    111 -> 134 [penwidth=2]
    111 -> 123 [penwidth=2]
    111 -> 121 [penwidth=2]
    111 -> 89 [penwidth=2]
    111 -> 131 [penwidth=2]
    111 -> 90 [penwidth=2]
    111 -> 128 [penwidth=2]
    111 -> 94 [penwidth=2]
    111 -> 79 [penwidth=2]
    111 -> 133 [penwidth=2]
    111 -> 135 [penwidth=2]
    111 -> 119 [penwidth=2]
    111 -> 129 [penwidth=2]
    111 -> 120 [penwidth=2]
    111 -> 76 [penwidth=2]
    111 -> 136 [penwidth=2]
    111 -> 1 [penwidth=2]
    111 -> 82 [penwidth=2]
    111 -> 138 [penwidth=2]
    111 -> 117 [penwidth=2]
    111 -> 87 [penwidth=2]
    111 -> 127 [penwidth=2]
    112 -> 119 [penwidth=2]
    112 -> 120 [penwidth=2]
    112 -> 125 [penwidth=2]
    112 -> 82 [penwidth=2]
    112 -> 86 [penwidth=2]
    112 -> 80 [penwidth=2]
    112 -> 138 [penwidth=2]
    112 -> 123 [penwidth=2]
    112 -> 121 [penwidth=2]
    112 -> 97 [penwidth=2]
    112 -> 132 [penwidth=2]
    112 -> 93 [penwidth=2]
    112 -> 116 [penwidth=2]
    112 -> 127 [penwidth=2]
    112 -> 84 [penwidth=2]
    112 -> 128 [penwidth=2]
    112 -> 94 [penwidth=2]
    112 -> 129 [penwidth=2]
    112 -> 2 [penwidth=2]
    112 -> 76 [penwidth=2]
    112 -> 136 [penwidth=2]
    112 -> 118 [penwidth=2]
    112 -> 117 [penwidth=2]
    112 -> 1 [penwidth=2]
    112 -> 88 [penwidth=2]
    112 -> 135 [penwidth=2]
    112 -> 133 [penwidth=2]
    112 -> 95 [penwidth=2]
    112 -> 83 [penwidth=2]
    112 -> 134 [penwidth=2]
    112 -> 130 [penwidth=2]
    112 -> 90 [penwidth=2]
    112 -> 131 [penwidth=2]
    112 -> 92 [penwidth=2]
    112 -> 137 [penwidth=2]
    112 -> 96 [penwidth=2]
    112 -> 77 [penwidth=2]
    112 -> 85 [penwidth=2]
    112 -> 79 [penwidth=2]
    112 -> 124 [penwidth=2]
    112 -> 126 [penwidth=2]
    112 -> 87 [penwidth=2]
    112 -> 81 [penwidth=2]
    112 -> 78 [penwidth=2]
    112 -> 122 [penwidth=2]
    112 -> 74 [penwidth=2]
    16 -> 131 [penwidth=2]
    16 -> 132 [penwidth=2]
    16 -> 124 [penwidth=2]
    16 -> 84 [penwidth=2]
    16 -> 95 [penwidth=2]
    16 -> 85 [penwidth=2]
    16 -> 74 [penwidth=2]
    16 -> 93 [penwidth=2]
    16 -> 127 [penwidth=2]
    16 -> 76 [penwidth=2]
    16 -> 129 [penwidth=2]
    16 -> 86 [penwidth=2]
    16 -> 133 [penwidth=2]
    16 -> 138 [penwidth=2]
    16 -> 2 [penwidth=2]
    16 -> 128 [penwidth=2]
    16 -> 90 [penwidth=2]
    16 -> 96 [penwidth=2]
    16 -> 77 [penwidth=2]
    16 -> 81 [penwidth=2]
    16 -> 116 [penwidth=2]
    16 -> 121 [penwidth=2]
    16 -> 134 [penwidth=2]
    16 -> 87 [penwidth=2]
    16 -> 83 [penwidth=2]
    16 -> 118 [penwidth=2]
    16 -> 126 [penwidth=2]
    16 -> 125 [penwidth=2]
    16 -> 97 [penwidth=2]
    16 -> 137 [penwidth=2]
    16 -> 92 [penwidth=2]
    35 -> 137 [penwidth=2]
    35 -> 90 [penwidth=2]
    35 -> 130 [penwidth=2]
    35 -> 88 [penwidth=2]
    35 -> 131 [penwidth=2]
    35 -> 85 [penwidth=2]
    35 -> 127 [penwidth=2]
    35 -> 77 [penwidth=2]
    35 -> 87 [penwidth=2]
    35 -> 94 [penwidth=2]
    35 -> 135 [penwidth=2]
    35 -> 74 [penwidth=2]
    35 -> 83 [penwidth=2]
    35 -> 92 [penwidth=2]
    35 -> 123 [penwidth=2]
    35 -> 116 [penwidth=2]
    35 -> 84 [penwidth=2]
    35 -> 129 [penwidth=2]
    35 -> 118 [penwidth=2]
    35 -> 97 [penwidth=2]
    35 -> 93 [penwidth=2]
    35 -> 91 [penwidth=2]
    35 -> 2 [penwidth=2]
    35 -> 86 [penwidth=2]
    35 -> 122 [penwidth=2]
    35 -> 89 [penwidth=2]
    69 -> 121 [penwidth=2]
    69 -> 118 [penwidth=2]
    69 -> 77 [penwidth=2]
    69 -> 81 [penwidth=2]
    69 -> 76 [penwidth=2]
    69 -> 82 [penwidth=2]
    69 -> 116 [penwidth=2]
    69 -> 136 [penwidth=2]
    69 -> 138 [penwidth=2]
    69 -> 95 [penwidth=2]
    69 -> 85 [penwidth=2]
    69 -> 96 [penwidth=2]
    69 -> 92 [penwidth=2]
    69 -> 120 [penwidth=2]
    69 -> 97 [penwidth=2]
    69 -> 2 [penwidth=2]
    69 -> 127 [penwidth=2]
    69 -> 131 [penwidth=2]
    69 -> 84 [penwidth=2]
    69 -> 74 [penwidth=2]
    69 -> 137 [penwidth=2]
    69 -> 124 [penwidth=2]
    69 -> 83 [penwidth=2]
    69 -> 132 [penwidth=2]
    69 -> 129 [penwidth=2]
    69 -> 125 [penwidth=2]
    69 -> 94 [penwidth=2]
    69 -> 122 [penwidth=2]
    69 -> 133 [penwidth=2]
    69 -> 78 [penwidth=2]
    69 -> 119 [penwidth=2]
    69 -> 135 [penwidth=2]
    69 -> 130 [penwidth=2]
    69 -> 88 [penwidth=2]
    69 -> 93 [penwidth=2]
    69 -> 89 [penwidth=2]
    69 -> 75 [penwidth=2]
    69 -> 134 [penwidth=2]
    69 -> 87 [penwidth=2]
    69 -> 128 [penwidth=2]
    14 -> 125 [penwidth=2]
    14 -> 129 [penwidth=2]
    14 -> 122 [penwidth=2]
    14 -> 85 [penwidth=2]
    14 -> 1 [penwidth=2]
    14 -> 92 [penwidth=2]
    14 -> 83 [penwidth=2]
    14 -> 134 [penwidth=2]
    14 -> 97 [penwidth=2]
    14 -> 123 [penwidth=2]
    14 -> 133 [penwidth=2]
    14 -> 77 [penwidth=2]
    14 -> 127 [penwidth=2]
    14 -> 93 [penwidth=2]
    14 -> 135 [penwidth=2]
    14 -> 124 [penwidth=2]
    14 -> 89 [penwidth=2]
    14 -> 116 [penwidth=2]
    14 -> 79 [penwidth=2]
    14 -> 118 [penwidth=2]
    14 -> 132 [penwidth=2]
    14 -> 128 [penwidth=2]
    14 -> 95 [penwidth=2]
    14 -> 86 [penwidth=2]
    14 -> 82 [penwidth=2]
    14 -> 130 [penwidth=2]
    14 -> 136 [penwidth=2]
    14 -> 84 [penwidth=2]
    14 -> 131 [penwidth=2]
    14 -> 2 [penwidth=2]
    14 -> 121 [penwidth=2]
    14 -> 137 [penwidth=2]
    14 -> 74 [penwidth=2]
    14 -> 80 [penwidth=2]
    14 -> 91 [penwidth=2]
    14 -> 78 [penwidth=2]
    14 -> 88 [penwidth=2]
    14 -> 94 [penwidth=2]
    14 -> 126 [penwidth=2]
    14 -> 75 [penwidth=2]
    14 -> 81 [penwidth=2]
    14 -> 119 [penwidth=2]
    14 -> 87 [penwidth=2]
    14 -> 76 [penwidth=2]
    14 -> 120 [penwidth=2]
    14 -> 96 [penwidth=2]
    67 -> 117 [penwidth=2]
    67 -> 137 [penwidth=2]
    67 -> 119 [penwidth=2]
    67 -> 79 [penwidth=2]
    67 -> 93 [penwidth=2]
    67 -> 128 [penwidth=2]
    67 -> 77 [penwidth=2]
    67 -> 124 [penwidth=2]
    67 -> 95 [penwidth=2]
    67 -> 130 [penwidth=2]
    67 -> 135 [penwidth=2]
    67 -> 81 [penwidth=2]
    67 -> 75 [penwidth=2]
    67 -> 85 [penwidth=2]
    67 -> 97 [penwidth=2]
    67 -> 126 [penwidth=2]
    67 -> 88 [penwidth=2]
    67 -> 96 [penwidth=2]
    67 -> 138 [penwidth=2]
    67 -> 2 [penwidth=2]
    67 -> 121 [penwidth=2]
    67 -> 87 [penwidth=2]
    67 -> 136 [penwidth=2]
    67 -> 127 [penwidth=2]
    67 -> 116 [penwidth=2]
    67 -> 120 [penwidth=2]
    67 -> 90 [penwidth=2]
    67 -> 78 [penwidth=2]
    67 -> 84 [penwidth=2]
    67 -> 76 [penwidth=2]
    67 -> 92 [penwidth=2]
    67 -> 74 [penwidth=2]
    67 -> 122 [penwidth=2]
    67 -> 83 [penwidth=2]
    67 -> 132 [penwidth=2]
    67 -> 134 [penwidth=2]
    67 -> 133 [penwidth=2]
    22 -> 80 [penwidth=2]
    22 -> 84 [penwidth=2]
    22 -> 132 [penwidth=2]
    22 -> 136 [penwidth=2]
    22 -> 126 [penwidth=2]
    22 -> 77 [penwidth=2]
    22 -> 2 [penwidth=2]
    22 -> 94 [penwidth=2]
    22 -> 83 [penwidth=2]
    22 -> 97 [penwidth=2]
    22 -> 95 [penwidth=2]
    22 -> 92 [penwidth=2]
    22 -> 89 [penwidth=2]
    22 -> 1 [penwidth=2]
    22 -> 138 [penwidth=2]
    22 -> 119 [penwidth=2]
    22 -> 122 [penwidth=2]
    22 -> 82 [penwidth=2]
    22 -> 135 [penwidth=2]
    22 -> 121 [penwidth=2]
    22 -> 127 [penwidth=2]
    22 -> 131 [penwidth=2]
    22 -> 79 [penwidth=2]
    22 -> 96 [penwidth=2]
    22 -> 86 [penwidth=2]
    22 -> 129 [penwidth=2]
    22 -> 74 [penwidth=2]
    42 -> 81 [penwidth=2]
    42 -> 133 [penwidth=2]
    42 -> 84 [penwidth=2]
    42 -> 89 [penwidth=2]
    42 -> 130 [penwidth=2]
    42 -> 124 [penwidth=2]
    42 -> 129 [penwidth=2]
    42 -> 76 [penwidth=2]
    42 -> 128 [penwidth=2]
    42 -> 117 [penwidth=2]
    42 -> 126 [penwidth=2]
    42 -> 134 [penwidth=2]
    42 -> 74 [penwidth=2]
    42 -> 131 [penwidth=2]
    42 -> 78 [penwidth=2]
    42 -> 120 [penwidth=2]
    42 -> 2 [penwidth=2]
    42 -> 83 [penwidth=2]
    42 -> 87 [penwidth=2]
    42 -> 75 [penwidth=2]
    42 -> 137 [penwidth=2]
    42 -> 85 [penwidth=2]
    42 -> 90 [penwidth=2]
    42 -> 79 [penwidth=2]
    42 -> 136 [penwidth=2]
    42 -> 88 [penwidth=2]
    42 -> 138 [penwidth=2]
    42 -> 92 [penwidth=2]
    42 -> 96 [penwidth=2]
    42 -> 80 [penwidth=2]
    42 -> 116 [penwidth=2]
    42 -> 86 [penwidth=2]
    32 -> 89 [penwidth=2]
    32 -> 79 [penwidth=2]
    32 -> 92 [penwidth=2]
    32 -> 120 [penwidth=2]
    32 -> 133 [penwidth=2]
    32 -> 2 [penwidth=2]
    32 -> 88 [penwidth=2]
    32 -> 83 [penwidth=2]
    32 -> 96 [penwidth=2]
    32 -> 130 [penwidth=2]
    32 -> 136 [penwidth=2]
    32 -> 127 [penwidth=2]
    32 -> 91 [penwidth=2]
    32 -> 132 [penwidth=2]
    32 -> 126 [penwidth=2]
    32 -> 128 [penwidth=2]
    32 -> 87 [penwidth=2]
    36 -> 92 [penwidth=2]
    36 -> 77 [penwidth=2]
    36 -> 132 [penwidth=2]
    36 -> 79 [penwidth=2]
    36 -> 74 [penwidth=2]
    36 -> 2 [penwidth=2]
    36 -> 130 [penwidth=2]
    36 -> 88 [penwidth=2]
    36 -> 119 [penwidth=2]
    36 -> 76 [penwidth=2]
    36 -> 96 [penwidth=2]
    36 -> 95 [penwidth=2]
    36 -> 126 [penwidth=2]
    36 -> 89 [penwidth=2]
    36 -> 134 [penwidth=2]
    36 -> 118 [penwidth=2]
    36 -> 135 [penwidth=2]
    36 -> 80 [penwidth=2]
    36 -> 97 [penwidth=2]
    36 -> 82 [penwidth=2]
    36 -> 116 [penwidth=2]
    36 -> 138 [penwidth=2]
    36 -> 87 [penwidth=2]
    36 -> 137 [penwidth=2]
    36 -> 86 [penwidth=2]
    36 -> 84 [penwidth=2]
    36 -> 94 [penwidth=2]
    36 -> 85 [penwidth=2]
    36 -> 128 [penwidth=2]
    36 -> 131 [penwidth=2]
    36 -> 129 [penwidth=2]
    36 -> 83 [penwidth=2]
    36 -> 75 [penwidth=2]
    36 -> 121 [penwidth=2]
    36 -> 127 [penwidth=2]
    36 -> 136 [penwidth=2]
    36 -> 123 [penwidth=2]
    36 -> 125 [penwidth=2]
    36 -> 1 [penwidth=2]
    36 -> 90 [penwidth=2]
    36 -> 133 [penwidth=2]
    36 -> 81 [penwidth=2]
    36 -> 117 [penwidth=2]
    36 -> 122 [penwidth=2]
    36 -> 78 [penwidth=2]
    36 -> 91 [penwidth=2]
    36 -> 93 [penwidth=2]
    3 -> 97 [penwidth=2]
    3 -> 128 [penwidth=2]
    3 -> 117 [penwidth=2]
    3 -> 84 [penwidth=2]
    3 -> 90 [penwidth=2]
    3 -> 96 [penwidth=2]
    3 -> 138 [penwidth=2]
    3 -> 95 [penwidth=2]
    3 -> 1 [penwidth=2]
    3 -> 134 [penwidth=2]
    3 -> 85 [penwidth=2]
    3 -> 127 [penwidth=2]
    3 -> 82 [penwidth=2]
    3 -> 87 [penwidth=2]
    3 -> 118 [penwidth=2]
    3 -> 135 [penwidth=2]
    3 -> 132 [penwidth=2]
    3 -> 137 [penwidth=2]
    3 -> 116 [penwidth=2]
    3 -> 93 [penwidth=2]
    3 -> 94 [penwidth=2]
    3 -> 86 [penwidth=2]
    3 -> 74 [penwidth=2]
    3 -> 77 [penwidth=2]
    3 -> 125 [penwidth=2]
    3 -> 129 [penwidth=2]
    3 -> 88 [penwidth=2]
    3 -> 83 [penwidth=2]
    3 -> 2 [penwidth=2]
    3 -> 89 [penwidth=2]
    3 -> 92 [penwidth=2]
    3 -> 79 [penwidth=2]
    3 -> 123 [penwidth=2]
    56 -> 131 [penwidth=2]
    56 -> 128 [penwidth=2]
    56 -> 127 [penwidth=2]
    56 -> 87 [penwidth=2]
    56 -> 120 [penwidth=2]
    56 -> 97 [penwidth=2]
    56 -> 136 [penwidth=2]
    56 -> 2 [penwidth=2]
    56 -> 96 [penwidth=2]
    56 -> 85 [penwidth=2]
    56 -> 82 [penwidth=2]
    56 -> 76 [penwidth=2]
    56 -> 92 [penwidth=2]
    56 -> 91 [penwidth=2]
    56 -> 123 [penwidth=2]
    56 -> 84 [penwidth=2]
    56 -> 86 [penwidth=2]
    56 -> 132 [penwidth=2]
    56 -> 83 [penwidth=2]
    56 -> 134 [penwidth=2]
    56 -> 74 [penwidth=2]
    56 -> 95 [penwidth=2]
    56 -> 81 [penwidth=2]
    56 -> 94 [penwidth=2]
    56 -> 77 [penwidth=2]
    56 -> 80 [penwidth=2]
    56 -> 124 [penwidth=2]
    56 -> 117 [penwidth=2]
    56 -> 122 [penwidth=2]
    56 -> 138 [penwidth=2]
    56 -> 135 [penwidth=2]
    56 -> 137 [penwidth=2]
    56 -> 75 [penwidth=2]
    56 -> 125 [penwidth=2]
}