digraph G {
    0 [penwidth=3,label="0"]
    1 [penwidth=3,label="1"]
    2 [penwidth=3,label="2"]
    3 [penwidth=3,label="3"]
    4 [penwidth=3,label="4"]
    5 [penwidth=3,label="5"]
    6 [penwidth=3,label="6"]
    7 [penwidth=3,label="7"]
    8 [penwidth=3,label="8"]
    9 [penwidth=3,label="9"]
    10 [penwidth=3,label="10"]
    11 [penwidth=3,label="11"]
    12 [penwidth=3,label="12"]
    13 [penwidth=3,label="13"]
    14 [penwidth=3,label="14"]
    15 [penwidth=3,label="15"]
    16 [penwidth=3,label="16"]
    17 [penwidth=3,label="17"]
    18 [penwidth=3,label="18"]
    19 [penwidth=3,label="19"]
    20 [penwidth=3,label="20"]
    21 [penwidth=3,label="21"]
    22 [penwidth=3,label="22"]
    23 [penwidth=3,label="23"]
    24 [penwidth=3,label="24"]
    25 [penwidth=3,label="25"]
    26 [penwidth=3,label="26"]
    27 [penwidth=3,label="27"]
    28 [penwidth=3,label="28"]
    29 [penwidth=3,label="29"]
    30 [penwidth=3,label="30"]
    31 [penwidth=3,label="31"]
    32 [penwidth=3,label="32"]
    33 [penwidth=3,label="33"]
    34 [penwidth=3,label="34"]
    35 [penwidth=3,label="35"]
    36 [penwidth=3,label="36"]
    37 [penwidth=3,label="37"]
    38 [penwidth=3,label="38"]
    39 [penwidth=3,label="39"]
    40 [penwidth=3,label="40"]
    41 [penwidth=3,label="41"]
    42 [penwidth=3,label="42"]
    43 [penwidth=3,label="43"]
    44 [penwidth=3,label="44"]
    45 [penwidth=3,label="45"]
    46 [penwidth=3,label="46"]
    47 [penwidth=3,label="47"]
    48 [penwidth=3,label="48"]
    49 [penwidth=3,label="49"]
    50 [penwidth=3,label="50"]
    51 [penwidth=3,label="51"]
    52 [penwidth=3,label="52"]
    53 [penwidth=3,label="53"]
    54 [penwidth=3,label="54"]
    55 [penwidth=3,label="55"]
    56 [penwidth=3,label="56"]
    57 [penwidth=3,label="57"]
    58 [penwidth=3,label="58"]
    59 [penwidth=3,label="59"]
    60 [penwidth=3,label="60"]
    61 [penwidth=3,label="61"]
    62 [penwidth=3,label="62"]
    63 [penwidth=3,label="63"]
    64 [penwidth=3,label="64"]
    65 [penwidth=3,label="65"]
    66 [penwidth=3,label="66"]
    67 [penwidth=3,label="67"]
    68 [penwidth=3,label="68"]
    69 [penwidth=3,label="69"]
    70 [penwidth=3,label="70"]
    71 [penwidth=3,label="71"]
    72 [penwidth=3,label="72"]
    73 [penwidth=3,label="73"]
    74 [penwidth=3,label="74"]
    75 [penwidth=3,label="75"]
    76 [penwidth=3,label="76"]
    77 [penwidth=3,label="77"]
    78 [penwidth=3,label="78"]
    79 [penwidth=3,label="79"]
    80 [penwidth=3,label="80"]
    81 [penwidth=3,label="81"]
    82 [penwidth=3,label="82"]
    83 [penwidth=3,label="83"]
    84 [penwidth=3,label="84"]
    85 [penwidth=3,label="85"]
    86 [penwidth=3,label="86"]
    87 [penwidth=3,label="87"]
    88 [penwidth=3,label="88"]
    89 [penwidth=3,label="89"]
    90 [penwidth=3,label="90"]
    91 [penwidth=3,label="91"]
    92 [penwidth=3,label="92"]
    93 [penwidth=3,label="93"]
    94 [penwidth=3,label="94"]
    95 [penwidth=3,label="95"]
    96 [penwidth=3,label="96"]
    97 [penwidth=3,label="97"]
    98 [penwidth=3,label="98"]
    99 [penwidth=3,label="99"]
    100 [penwidth=3,label="100"]
    101 [penwidth=3,label="101"]
    102 [penwidth=3,label="102"]
    103 [penwidth=3,label="103"]
    104 [penwidth=3,label="104"]
    105 [penwidth=3,label="105"]
    106 [penwidth=3,label="106"]
    107 [penwidth=3,label="107"]
    108 [penwidth=3,label="108"]
    109 [penwidth=3,label="109"]
    110 [penwidth=3,label="110"]
    111 [penwidth=3,label="111"]
    112 [penwidth=3,label="112"]
    113 [penwidth=3,label="113"]
    114 [penwidth=3,label="114"]
    115 [penwidth=3,label="115"]
    116 [penwidth=3,label="116"]
    117 [penwidth=3,label="117"]
    118 [penwidth=3,label="118"]
    119 [penwidth=3,label="119"]
    120 [penwidth=3,label="120"]
    121 [penwidth=3,label="121"]
    122 [penwidth=3,label="122"]
    123 [penwidth=3,label="123"]
    124 [penwidth=3,label="124"]
    125 [penwidth=3,label="125"]
    126 [penwidth=3,label="126"]
    127 [penwidth=3,label="127"]
    128 [penwidth=3,label="128"]
    129 [penwidth=3,label="129"]
    130 [penwidth=3,label="130"]
    131 [penwidth=3,label="131"]
    132 [penwidth=3,label="132"]
    133 [penwidth=3,label="133"]
    134 [penwidth=3,label="134"]
    135 [penwidth=3,label="135"]
    136 [penwidth=3,label="136"]
    137 [penwidth=3,label="137"]
    138 [penwidth=3,label="138"]
    139 [penwidth=3,label="139"]
    140 [penwidth=3,label="140"]
    141 [penwidth=3,label="141"]
    142 [penwidth=3,label="142"]
    143 [penwidth=3,label="143"]
    144 [penwidth=3,label="144"]
    145 [penwidth=3,label="145"]
    146 [penwidth=3,label="146"]
    147 [penwidth=3,label="147"]
    148 [penwidth=3,label="148"]
    149 [penwidth=3,label="149"]
    150 [penwidth=3,label="150"]
    151 [penwidth=3,label="151"]
    152 [penwidth=3,label="152"]
    153 [penwidth=3,label="153"]
    154 [penwidth=3,label="154"]
    155 [penwidth=3,label="155"]
    156 [penwidth=3,label="156"]
    157 [penwidth=3,label="157"]
    158 [penwidth=3,label="158"]
    159 [penwidth=3,label="159"]
    160 [penwidth=3,label="160"]
    161 [penwidth=3,label="161"]
    162 [penwidth=3,label="162"]
    163 [penwidth=3,label="163"]
    164 [penwidth=3,label="164"]
    165 [penwidth=3,label="165"]
    166 [penwidth=3,label="166"]
    167 [penwidth=3,label="167"]
    168 [penwidth=3,label="168"]
    169 [penwidth=3,label="169"]
    170 [penwidth=3,label="170"]
    171 [penwidth=3,label="171"]
    172 [penwidth=3,label="172"]
    173 [penwidth=3,label="173"]
    174 [penwidth=3,label="174"]
    175 [penwidth=3,label="175"]
    176 [penwidth=3,label="176"]
    177 [penwidth=3,label="177"]
    178 [penwidth=3,label="178"]
    179 [penwidth=3,label="179"]
    180 [penwidth=3,label="180"]
    181 [penwidth=3,label="181"]
    182 [penwidth=3,label="182"]
    183 [penwidth=3,label="183"]
    184 [penwidth=3,label="184"]
    185 [penwidth=3,label="185"]
    186 [penwidth=3,label="186"]
    187 [penwidth=3,label="187"]
    188 [penwidth=3,label="188"]
    189 [penwidth=3,label="189"]
    190 [penwidth=3,label="190"]
    191 [penwidth=3,label="191"]
    192 [penwidth=3,label="192"]
    193 [penwidth=3,label="193"]
    194 [penwidth=3,label="194"]
    195 [penwidth=3,label="195"]
    196 [penwidth=3,label="196"]
    197 [penwidth=3,label="197"]
    198 [penwidth=3,label="198"]
    199 [penwidth=3,label="199"]
    200 [penwidth=3,label="200"]
    201 [penwidth=3,label="201"]
    202 [penwidth=3,label="202"]
    203 [penwidth=3,label="203"]
    204 [penwidth=3,label="204"]

    85 -> 0 [penwidth=2]
    127 -> 0 [penwidth=2]
    86 -> 0 [penwidth=2]
    128 -> 0 [penwidth=2]
    87 -> 0 [penwidth=2]
    129 -> 0 [penwidth=2]
    88 -> 0 [penwidth=2]
    130 -> 0 [penwidth=2]
    89 -> 0 [penwidth=2]
    131 -> 85 [penwidth=2]
    90 -> 85 [penwidth=2]
    132 -> 85 [penwidth=2]
    91 -> 85 [penwidth=2]
    133 -> 85 [penwidth=2]
    92 -> 85 [penwidth=2]
    134 -> 85 [penwidth=2]
    93 -> 85 [penwidth=2]
    135 -> 85 [penwidth=2]
    94 -> 85 [penwidth=2]
    136 -> 85 [penwidth=2]
    95 -> 85 [penwidth=2]
    137 -> 85 [penwidth=2]
    96 -> 85 [penwidth=2]
    138 -> 85 [penwidth=2]
    97 -> 85 [penwidth=2]
    139 -> 85 [penwidth=2]
    98 -> 85 [penwidth=2]
    140 -> 85 [penwidth=2]
    99 -> 127 [penwidth=2]
    141 -> 127 [penwidth=2]
    100 -> 127 [penwidth=2]
    142 -> 127 [penwidth=2]
    101 -> 127 [penwidth=2]
    143 -> 127 [penwidth=2]
    102 -> 127 [penwidth=2]
    144 -> 127 [penwidth=2]
    103 -> 127 [penwidth=2]
    145 -> 127 [penwidth=2]
    104 -> 127 [penwidth=2]
    146 -> 127 [penwidth=2]
    105 -> 127 [penwidth=2]
    147 -> 127 [penwidth=2]
    106 -> 127 [penwidth=2]
    148 -> 127 [penwidth=2]
    107 -> 127 [penwidth=2]
    149 -> 127 [penwidth=2]
    108 -> 127 [penwidth=2]
    150 -> 127 [penwidth=2]
    109 -> 127 [penwidth=2]
    151 -> 127 [penwidth=2]
    110 -> 128 [penwidth=2]
    152 -> 128 [penwidth=2]
    111 -> 128 [penwidth=2]
    153 -> 128 [penwidth=2]
    112 -> 128 [penwidth=2]
    154 -> 128 [penwidth=2]
    113 -> 128 [penwidth=2]
    155 -> 128 [penwidth=2]
    114 -> 128 [penwidth=2]
    156 -> 128 [penwidth=2]
    115 -> 128 [penwidth=2]
    157 -> 128 [penwidth=2]
    116 -> 128 [penwidth=2]
    158 -> 128 [penwidth=2]
    117 -> 128 [penwidth=2]
    159 -> 128 [penwidth=2]
    118 -> 128 [penwidth=2]
    160 -> 87 [penwidth=2]
    119 -> 129 [penwidth=2]
    161 -> 129 [penwidth=2]
    120 -> 129 [penwidth=2]
    162 -> 129 [penwidth=2]
    121 -> 129 [penwidth=2]
    163 -> 129 [penwidth=2]
    122 -> 129 [penwidth=2]
    164 -> 129 [penwidth=2]
    123 -> 129 [penwidth=2]
    165 -> 129 [penwidth=2]
    124 -> 129 [penwidth=2]
    166 -> 129 [penwidth=2]
    125 -> 129 [penwidth=2]
    167 -> 129 [penwidth=2]
    126 -> 129 [penwidth=2]
    168 -> 129 [penwidth=2]
    1 -> 129 [penwidth=2]
    43 -> 129 [penwidth=2]
    180 -> 129 [penwidth=2]
    2 -> 129 [penwidth=2]
    44 -> 129 [penwidth=2]
    3 -> 129 [penwidth=2]
    45 -> 129 [penwidth=2]
    4 -> 88 [penwidth=2]
    46 -> 88 [penwidth=2]
    183 -> 88 [penwidth=2]
    5 -> 88 [penwidth=2]
    47 -> 89 [penwidth=2]
    6 -> 89 [penwidth=2]
    48 -> 89 [penwidth=2]
    182 -> 89 [penwidth=2]
    7 -> 89 [penwidth=2]
    49 -> 89 [penwidth=2]
    8 -> 89 [penwidth=2]
    50 -> 89 [penwidth=2]
    179 -> 89 [penwidth=2]
    181 -> 89 [penwidth=2]
    9 -> 89 [penwidth=2]
    51 -> 89 [penwidth=2]
    10 -> 89 [penwidth=2]
    52 -> 89 [penwidth=2]
    11 -> 89 [penwidth=2]
    53 -> 89 [penwidth=2]
    204 -> 89 [penwidth=2]
    12 -> 89 [penwidth=2]
    54 -> 89 [penwidth=2]
    203 -> 89 [penwidth=2]
    13 -> 89 [penwidth=2]
    55 -> 89 [penwidth=2]
    178 -> 89 [penwidth=2]
    202 -> 89 [penwidth=2]
    14 -> 89 [penwidth=2]
    56 -> 131 [penwidth=2]
    169 -> 131 [penwidth=2]
    15 -> 131 [penwidth=2]
    57 -> 131 [penwidth=2]
    201 -> 131 [penwidth=2]
    16 -> 131 [penwidth=2]
    58 -> 131 [penwidth=2]
    177 -> 131 [penwidth=2]
    17 -> 131 [penwidth=2]
    59 -> 131 [penwidth=2]
    184 -> 131 [penwidth=2]
    200 -> 131 [penwidth=2]
    18 -> 131 [penwidth=2]
    60 -> 131 [penwidth=2]
    19 -> 131 [penwidth=2]
    61 -> 131 [penwidth=2]
    199 -> 131 [penwidth=2]
    62 -> 131 [penwidth=2]
    20 -> 131 [penwidth=2]
    176 -> 131 [penwidth=2]
    63 -> 131 [penwidth=2]
    21 -> 131 [penwidth=2]
    198 -> 131 [penwidth=2]
    22 -> 90 [penwidth=2]
    64 -> 90 [penwidth=2]
    185 -> 90 [penwidth=2]
    23 -> 90 [penwidth=2]
    65 -> 90 [penwidth=2]
    170 -> 90 [penwidth=2]
    197 -> 90 [penwidth=2]
    24 -> 90 [penwidth=2]
    66 -> 90 [penwidth=2]
    25 -> 90 [penwidth=2]
    67 -> 90 [penwidth=2]
    187 -> 90 [penwidth=2]
    196 -> 90 [penwidth=2]
    26 -> 90 [penwidth=2]
    68 -> 90 [penwidth=2]
    27 -> 90 [penwidth=2]
    69 -> 90 [penwidth=2]
    186 -> 90 [penwidth=2]
    195 -> 90 [penwidth=2]
    28 -> 90 [penwidth=2]
    70 -> 90 [penwidth=2]
    29 -> 90 [penwidth=2]
    71 -> 90 [penwidth=2]
    194 -> 90 [penwidth=2]
    83 -> 90 [penwidth=2]
    30 -> 132 [penwidth=2]
    72 -> 132 [penwidth=2]
    172 -> 132 [penwidth=2]
    31 -> 132 [penwidth=2]
    73 -> 132 [penwidth=2]
    175 -> 132 [penwidth=2]
    193 -> 132 [penwidth=2]
    32 -> 132 [penwidth=2]
    74 -> 91 [penwidth=2]
    33 -> 91 [penwidth=2]
    75 -> 91 [penwidth=2]
    174 -> 91 [penwidth=2]
    192 -> 91 [penwidth=2]
    34 -> 91 [penwidth=2]
    76 -> 91 [penwidth=2]
    84 -> 91 [penwidth=2]
    35 -> 91 [penwidth=2]
    77 -> 91 [penwidth=2]
    173 -> 91 [penwidth=2]
    191 -> 91 [penwidth=2]
    36 -> 91 [penwidth=2]
    78 -> 91 [penwidth=2]
    37 -> 91 [penwidth=2]
    79 -> 91 [penwidth=2]
    190 -> 91 [penwidth=2]
    38 -> 91 [penwidth=2]
    80 -> 91 [penwidth=2]
    39 -> 91 [penwidth=2]
    81 -> 133 [penwidth=2]
    189 -> 133 [penwidth=2]
    40 -> 133 [penwidth=2]
    82 -> 133 [penwidth=2]
    171 -> 133 [penwidth=2]
    41 -> 133 [penwidth=2]
    188 -> 133 [penwidth=2]
    42 -> 133 [penwidth=2]
    101 -> 86 [penwidth=2]
    101 -> 129 [penwidth=2]
    101 -> 87 [penwidth=2]
    104 -> 86 [penwidth=2]
    104 -> 87 [penwidth=2]
    104 -> 130 [penwidth=2]
    104 -> 88 [penwidth=2]
    104 -> 85 [penwidth=2]
    146 -> 88 [penwidth=2]
    146 -> 86 [penwidth=2]
    146 -> 128 [penwidth=2]
    154 -> 129 [penwidth=2]
    154 -> 86 [penwidth=2]
    154 -> 130 [penwidth=2]
    154 -> 88 [penwidth=2]
    154 -> 87 [penwidth=2]
    159 -> 88 [penwidth=2]
    159 -> 87 [penwidth=2]
    159 -> 129 [penwidth=2]
    159 -> 130 [penwidth=2]
    159 -> 85 [penwidth=2]
    120 -> 130 [penwidth=2]
    120 -> 128 [penwidth=2]
    165 -> 128 [penwidth=2]
    165 -> 85 [penwidth=2]
    165 -> 127 [penwidth=2]
    165 -> 130 [penwidth=2]
    165 -> 88 [penwidth=2]
    166 -> 85 [penwidth=2]
    166 -> 89 [penwidth=2]
    166 -> 127 [penwidth=2]
    166 -> 88 [penwidth=2]
    166 -> 128 [penwidth=2]
    166 -> 87 [penwidth=2]
    125 -> 128 [penwidth=2]
    125 -> 86 [penwidth=2]
    125 -> 127 [penwidth=2]
    125 -> 88 [penwidth=2]
    125 -> 87 [penwidth=2]
    46 -> 85 [penwidth=2]
    46 -> 89 [penwidth=2]
    46 -> 128 [penwidth=2]
    46 -> 130 [penwidth=2]
    46 -> 87 [penwidth=2]
    53 -> 88 [penwidth=2]
    53 -> 129 [penwidth=2]
    53 -> 130 [penwidth=2]
    53 -> 87 [penwidth=2]
    204 -> 130 [penwidth=2]
    204 -> 127 [penwidth=2]
    204 -> 86 [penwidth=2]
    204 -> 88 [penwidth=2]
    204 -> 129 [penwidth=2]
    14 -> 86 [penwidth=2]
    14 -> 130 [penwidth=2]
    14 -> 88 [penwidth=2]
    14 -> 127 [penwidth=2]
    16 -> 120 [penwidth=2]
    16 -> 103 [penwidth=2]
    16 -> 10 [penwidth=2]
    16 -> 152 [penwidth=2]
    16 -> 145 [penwidth=2]
    16 -> 1 [penwidth=2]
    16 -> 134 [penwidth=2]
    16 -> 148 [penwidth=2]
    16 -> 113 [penwidth=2]
    16 -> 204 [penwidth=2]
    16 -> 137 [penwidth=2]
    16 -> 50 [penwidth=2]
    16 -> 139 [penwidth=2]
    16 -> 116 [penwidth=2]
    16 -> 162 [penwidth=2]
    16 -> 13 [penwidth=2]
    16 -> 7 [penwidth=2]
    16 -> 4 [penwidth=2]
    16 -> 133 [penwidth=2]
    16 -> 110 [penwidth=2]
    16 -> 55 [penwidth=2]
    16 -> 93 [penwidth=2]
    16 -> 90 [penwidth=2]
    16 -> 154 [penwidth=2]
    16 -> 143 [penwidth=2]
    16 -> 97 [penwidth=2]
    16 -> 44 [penwidth=2]
    16 -> 12 [penwidth=2]
    16 -> 138 [penwidth=2]
    16 -> 14 [penwidth=2]
    16 -> 111 [penwidth=2]
    16 -> 124 [penwidth=2]
    16 -> 161 [penwidth=2]
    16 -> 182 [penwidth=2]
    16 -> 98 [penwidth=2]
    16 -> 125 [penwidth=2]
    16 -> 123 [penwidth=2]
    16 -> 112 [penwidth=2]
    16 -> 165 [penwidth=2]
    16 -> 126 [penwidth=2]
    16 -> 105 [penwidth=2]
    16 -> 147 [penwidth=2]
    16 -> 109 [penwidth=2]
    16 -> 104 [penwidth=2]
    16 -> 140 [penwidth=2]
    16 -> 115 [penwidth=2]
    16 -> 163 [penwidth=2]
    16 -> 167 [penwidth=2]
    16 -> 52 [penwidth=2]
    16 -> 203 [penwidth=2]
    16 -> 107 [penwidth=2]
    16 -> 6 [penwidth=2]
    16 -> 178 [penwidth=2]
    16 -> 141 [penwidth=2]
    16 -> 3 [penwidth=2]
    16 -> 118 [penwidth=2]
    16 -> 179 [penwidth=2]
    16 -> 91 [penwidth=2]
    16 -> 54 [penwidth=2]
    16 -> 155 [penwidth=2]
    16 -> 96 [penwidth=2]
    16 -> 95 [penwidth=2]
    16 -> 150 [penwidth=2]
    16 -> 108 [penwidth=2]
    16 -> 168 [penwidth=2]
    16 -> 159 [penwidth=2]
    16 -> 101 [penwidth=2]
    16 -> 180 [penwidth=2]
    16 -> 132 [penwidth=2]
    16 -> 46 [penwidth=2]
    16 -> 8 [penwidth=2]
    16 -> 142 [penwidth=2]
    16 -> 49 [penwidth=2]
    16 -> 11 [penwidth=2]
    16 -> 102 [penwidth=2]
    16 -> 146 [penwidth=2]
    16 -> 106 [penwidth=2]
    16 -> 183 [penwidth=2]
    16 -> 48 [penwidth=2]
    16 -> 156 [penwidth=2]
    16 -> 5 [penwidth=2]
    16 -> 151 [penwidth=2]
    16 -> 135 [penwidth=2]
    16 -> 53 [penwidth=2]
    16 -> 149 [penwidth=2]
    16 -> 119 [penwidth=2]
    16 -> 202 [penwidth=2]
    16 -> 99 [penwidth=2]
    16 -> 144 [penwidth=2]
    16 -> 100 [penwidth=2]
    16 -> 92 [penwidth=2]
    16 -> 2 [penwidth=2]
    176 -> 97 [penwidth=2]
    176 -> 165 [penwidth=2]
    176 -> 125 [penwidth=2]
    176 -> 50 [penwidth=2]
    176 -> 204 [penwidth=2]
    176 -> 160 [penwidth=2]
    176 -> 45 [penwidth=2]
    176 -> 107 [penwidth=2]
    176 -> 122 [penwidth=2]
    176 -> 102 [penwidth=2]
    176 -> 108 [penwidth=2]
    176 -> 91 [penwidth=2]
    176 -> 116 [penwidth=2]
    176 -> 96 [penwidth=2]
    176 -> 134 [penwidth=2]
    176 -> 8 [penwidth=2]
    176 -> 144 [penwidth=2]
    176 -> 49 [penwidth=2]
    176 -> 48 [penwidth=2]
    176 -> 98 [penwidth=2]
    176 -> 149 [penwidth=2]
    176 -> 101 [penwidth=2]
    176 -> 54 [penwidth=2]
    176 -> 43 [penwidth=2]
    176 -> 110 [penwidth=2]
    176 -> 99 [penwidth=2]
    176 -> 161 [penwidth=2]
    176 -> 100 [penwidth=2]
    176 -> 157 [penwidth=2]
    176 -> 124 [penwidth=2]
    176 -> 132 [penwidth=2]
    176 -> 180 [penwidth=2]
    176 -> 109 [penwidth=2]
    176 -> 133 [penwidth=2]
    176 -> 12 [penwidth=2]
    176 -> 158 [penwidth=2]
    176 -> 142 [penwidth=2]
    176 -> 156 [penwidth=2]
    176 -> 104 [penwidth=2]
    176 -> 147 [penwidth=2]
    176 -> 53 [penwidth=2]
    176 -> 14 [penwidth=2]
    176 -> 179 [penwidth=2]
    176 -> 47 [penwidth=2]
    176 -> 123 [penwidth=2]
    176 -> 148 [penwidth=2]
    176 -> 203 [penwidth=2]
    176 -> 3 [penwidth=2]
    176 -> 154 [penwidth=2]
    176 -> 183 [penwidth=2]
    176 -> 105 [penwidth=2]
    176 -> 162 [penwidth=2]
    176 -> 95 [penwidth=2]
    176 -> 113 [penwidth=2]
    176 -> 114 [penwidth=2]
    176 -> 168 [penwidth=2]
    24 -> 99 [penwidth=2]
    24 -> 53 [penwidth=2]
    24 -> 123 [penwidth=2]
    27 -> 46 [penwidth=2]
    27 -> 117 [penwidth=2]
    27 -> 181 [penwidth=2]
    27 -> 49 [penwidth=2]
    27 -> 108 [penwidth=2]
    27 -> 114 [penwidth=2]
    27 -> 3 [penwidth=2]
    27 -> 105 [penwidth=2]
    27 -> 111 [penwidth=2]
    27 -> 92 [penwidth=2]
    27 -> 203 [penwidth=2]
    27 -> 6 [penwidth=2]
    27 -> 136 [penwidth=2]
    27 -> 44 [penwidth=2]
    27 -> 14 [penwidth=2]
    27 -> 132 [penwidth=2]
    27 -> 93 [penwidth=2]
    27 -> 204 [penwidth=2]
    27 -> 1 [penwidth=2]
    27 -> 124 [penwidth=2]
    27 -> 43 [penwidth=2]
    27 -> 123 [penwidth=2]
    27 -> 10 [penwidth=2]
    27 -> 4 [penwidth=2]
    27 -> 11 [penwidth=2]
    27 -> 96 [penwidth=2]
    27 -> 144 [penwidth=2]
    27 -> 109 [penwidth=2]
    27 -> 178 [penwidth=2]
    27 -> 104 [penwidth=2]
    27 -> 54 [penwidth=2]
    27 -> 2 [penwidth=2]
    27 -> 112 [penwidth=2]
    27 -> 107 [penwidth=2]
    27 -> 101 [penwidth=2]
    27 -> 179 [penwidth=2]
    27 -> 122 [penwidth=2]
    27 -> 141 [penwidth=2]
    27 -> 95 [penwidth=2]
    27 -> 47 [penwidth=2]
    27 -> 182 [penwidth=2]
    27 -> 133 [penwidth=2]
    27 -> 102 [penwidth=2]
    27 -> 162 [penwidth=2]
    27 -> 154 [penwidth=2]
    27 -> 116 [penwidth=2]
    27 -> 51 [penwidth=2]
    27 -> 135 [penwidth=2]
    27 -> 142 [penwidth=2]
    27 -> 126 [penwidth=2]
    27 -> 158 [penwidth=2]
    27 -> 146 [penwidth=2]
    27 -> 125 [penwidth=2]
    27 -> 12 [penwidth=2]
    27 -> 139 [penwidth=2]
    27 -> 134 [penwidth=2]
    27 -> 168 [penwidth=2]
    27 -> 5 [penwidth=2]
    27 -> 180 [penwidth=2]
    27 -> 131 [penwidth=2]
    27 -> 50 [penwidth=2]
    27 -> 183 [penwidth=2]
    27 -> 157 [penwidth=2]
    27 -> 9 [penwidth=2]
    27 -> 103 [penwidth=2]
    27 -> 148 [penwidth=2]
    27 -> 97 [penwidth=2]
    27 -> 155 [penwidth=2]
    27 -> 113 [penwidth=2]
    27 -> 119 [penwidth=2]
    27 -> 147 [penwidth=2]
    27 -> 55 [penwidth=2]
    27 -> 8 [penwidth=2]
    27 -> 121 [penwidth=2]
    27 -> 118 [penwidth=2]
    27 -> 48 [penwidth=2]
    27 -> 94 [penwidth=2]
    27 -> 167 [penwidth=2]
    27 -> 166 [penwidth=2]
    27 -> 98 [penwidth=2]
    27 -> 165 [penwidth=2]
    27 -> 138 [penwidth=2]
    27 -> 53 [penwidth=2]
    69 -> 135 [penwidth=2]
    69 -> 168 [penwidth=2]
    69 -> 167 [penwidth=2]
    69 -> 9 [penwidth=2]
    69 -> 116 [penwidth=2]
    69 -> 45 [penwidth=2]
    69 -> 11 [penwidth=2]
    69 -> 155 [penwidth=2]
    69 -> 157 [penwidth=2]
    69 -> 5 [penwidth=2]
    69 -> 105 [penwidth=2]
    69 -> 132 [penwidth=2]
    69 -> 159 [penwidth=2]
    69 -> 150 [penwidth=2]
    69 -> 112 [penwidth=2]
    69 -> 55 [penwidth=2]
    69 -> 131 [penwidth=2]
    69 -> 122 [penwidth=2]
    69 -> 54 [penwidth=2]
    69 -> 161 [penwidth=2]
    69 -> 153 [penwidth=2]
    69 -> 110 [penwidth=2]
    69 -> 4 [penwidth=2]
    69 -> 14 [penwidth=2]
    69 -> 99 [penwidth=2]
    69 -> 117 [penwidth=2]
    69 -> 149 [penwidth=2]
    69 -> 178 [penwidth=2]
    69 -> 100 [penwidth=2]
    69 -> 108 [penwidth=2]
    69 -> 133 [penwidth=2]
    69 -> 123 [penwidth=2]
    69 -> 101 [penwidth=2]
    69 -> 46 [penwidth=2]
    69 -> 93 [penwidth=2]
    69 -> 97 [penwidth=2]
    69 -> 166 [penwidth=2]
    69 -> 107 [penwidth=2]
    69 -> 183 [penwidth=2]
    69 -> 140 [penwidth=2]
    69 -> 203 [penwidth=2]
    69 -> 44 [penwidth=2]
    69 -> 49 [penwidth=2]
    69 -> 160 [penwidth=2]
    69 -> 52 [penwidth=2]
    69 -> 120 [penwidth=2]
    69 -> 158 [penwidth=2]
    69 -> 103 [penwidth=2]
    69 -> 48 [penwidth=2]
    69 -> 156 [penwidth=2]
    69 -> 139 [penwidth=2]
    69 -> 134 [penwidth=2]
    69 -> 1 [penwidth=2]
    69 -> 106 [penwidth=2]
    69 -> 164 [penwidth=2]
    70 -> 167 [penwidth=2]
    70 -> 151 [penwidth=2]
    70 -> 149 [penwidth=2]
    70 -> 159 [penwidth=2]
    70 -> 134 [penwidth=2]
    70 -> 98 [penwidth=2]
    70 -> 114 [penwidth=2]
    70 -> 8 [penwidth=2]
    70 -> 163 [penwidth=2]
    70 -> 13 [penwidth=2]
    70 -> 153 [penwidth=2]
    70 -> 146 [penwidth=2]
    70 -> 94 [penwidth=2]
    70 -> 145 [penwidth=2]
    70 -> 160 [penwidth=2]
    70 -> 93 [penwidth=2]
    70 -> 102 [penwidth=2]
    70 -> 4 [penwidth=2]
    70 -> 109 [penwidth=2]
    70 -> 45 [penwidth=2]
    70 -> 14 [penwidth=2]
    70 -> 113 [penwidth=2]
    70 -> 7 [penwidth=2]
    70 -> 121 [penwidth=2]
    70 -> 183 [penwidth=2]
    70 -> 135 [penwidth=2]
    70 -> 142 [penwidth=2]
    70 -> 155 [penwidth=2]
    70 -> 166 [penwidth=2]
    70 -> 202 [penwidth=2]
    70 -> 140 [penwidth=2]
    70 -> 124 [penwidth=2]
    70 -> 115 [penwidth=2]
    70 -> 10 [penwidth=2]
    70 -> 5 [penwidth=2]
    70 -> 156 [penwidth=2]
    70 -> 112 [penwidth=2]
    70 -> 122 [penwidth=2]
    70 -> 91 [penwidth=2]
    70 -> 111 [penwidth=2]
    70 -> 179 [penwidth=2]
    70 -> 133 [penwidth=2]
    70 -> 158 [penwidth=2]
    70 -> 161 [penwidth=2]
    70 -> 107 [penwidth=2]
    70 -> 143 [penwidth=2]
    70 -> 120 [penwidth=2]
    70 -> 103 [penwidth=2]
    70 -> 1 [penwidth=2]
    70 -> 6 [penwidth=2]
    70 -> 148 [penwidth=2]
    70 -> 95 [penwidth=2]
    70 -> 118 [penwidth=2]
    70 -> 44 [penwidth=2]
    70 -> 154 [penwidth=2]
    70 -> 157 [penwidth=2]
    70 -> 123 [penwidth=2]
    70 -> 168 [penwidth=2]
    70 -> 55 [penwidth=2]
    70 -> 162 [penwidth=2]
    70 -> 126 [penwidth=2]
    70 -> 96 [penwidth=2]
    70 -> 152 [penwidth=2]
    70 -> 204 [penwidth=2]
    70 -> 144 [penwidth=2]
    70 -> 181 [penwidth=2]
    70 -> 48 [penwidth=2]
    70 -> 106 [penwidth=2]
    70 -> 53 [penwidth=2]
    70 -> 178 [penwidth=2]
    70 -> 182 [penwidth=2]
    70 -> 180 [penwidth=2]
    70 -> 105 [penwidth=2]
    72 -> 117 [penwidth=2]
    72 -> 44 [penwidth=2]
    72 -> 145 [penwidth=2]
    72 -> 112 [penwidth=2]
    72 -> 125 [penwidth=2]
    72 -> 148 [penwidth=2]
    72 -> 7 [penwidth=2]
    72 -> 13 [penwidth=2]
    72 -> 115 [penwidth=2]
    72 -> 109 [penwidth=2]
    72 -> 93 [penwidth=2]
    72 -> 149 [penwidth=2]
    72 -> 110 [penwidth=2]
    72 -> 1 [penwidth=2]
    72 -> 103 [penwidth=2]
    72 -> 131 [penwidth=2]
    72 -> 121 [penwidth=2]
    72 -> 124 [penwidth=2]
    72 -> 51 [penwidth=2]
    72 -> 156 [penwidth=2]
    72 -> 96 [penwidth=2]
    72 -> 154 [penwidth=2]
    72 -> 134 [penwidth=2]
    72 -> 203 [penwidth=2]
    72 -> 182 [penwidth=2]
    72 -> 179 [penwidth=2]
    72 -> 119 [penwidth=2]
    72 -> 137 [penwidth=2]
    72 -> 155 [penwidth=2]
    72 -> 202 [penwidth=2]
    72 -> 107 [penwidth=2]
    72 -> 53 [penwidth=2]
    72 -> 4 [penwidth=2]
    72 -> 99 [penwidth=2]
    72 -> 6 [penwidth=2]
    72 -> 12 [penwidth=2]
    72 -> 14 [penwidth=2]
    72 -> 152 [penwidth=2]
    72 -> 95 [penwidth=2]
    72 -> 158 [penwidth=2]
    72 -> 45 [penwidth=2]
    72 -> 48 [penwidth=2]
    72 -> 143 [penwidth=2]
    72 -> 151 [penwidth=2]
    72 -> 139 [penwidth=2]
    72 -> 43 [penwidth=2]
    72 -> 49 [penwidth=2]
    72 -> 150 [penwidth=2]
    72 -> 180 [penwidth=2]
    72 -> 97 [penwidth=2]
    72 -> 116 [penwidth=2]
    72 -> 123 [penwidth=2]
    72 -> 160 [penwidth=2]
    72 -> 50 [penwidth=2]
    72 -> 133 [penwidth=2]
    72 -> 9 [penwidth=2]
    72 -> 101 [penwidth=2]
    72 -> 163 [penwidth=2]
    72 -> 204 [penwidth=2]
    72 -> 136 [penwidth=2]
    72 -> 164 [penwidth=2]
    72 -> 141 [penwidth=2]
    72 -> 168 [penwidth=2]
    72 -> 98 [penwidth=2]
    72 -> 183 [penwidth=2]
    75 -> 167 [penwidth=2]
    75 -> 121 [penwidth=2]
    75 -> 102 [penwidth=2]
    75 -> 180 [penwidth=2]
    75 -> 14 [penwidth=2]
    75 -> 2 [penwidth=2]
    75 -> 204 [penwidth=2]
    75 -> 166 [penwidth=2]
    75 -> 183 [penwidth=2]
    75 -> 3 [penwidth=2]
    75 -> 99 [penwidth=2]
    75 -> 137 [penwidth=2]
    75 -> 142 [penwidth=2]
    75 -> 203 [penwidth=2]
    75 -> 134 [penwidth=2]
    75 -> 119 [penwidth=2]
    75 -> 159 [penwidth=2]
    75 -> 96 [penwidth=2]
    75 -> 10 [penwidth=2]
    75 -> 117 [penwidth=2]
    75 -> 92 [penwidth=2]
    75 -> 111 [penwidth=2]
    75 -> 112 [penwidth=2]
    75 -> 179 [penwidth=2]
    75 -> 12 [penwidth=2]
    75 -> 131 [penwidth=2]
    75 -> 157 [penwidth=2]
    75 -> 168 [penwidth=2]
    75 -> 46 [penwidth=2]
    75 -> 139 [penwidth=2]
    75 -> 114 [penwidth=2]
    75 -> 151 [penwidth=2]
    75 -> 103 [penwidth=2]
    75 -> 47 [penwidth=2]
    75 -> 93 [penwidth=2]
    75 -> 49 [penwidth=2]
    75 -> 50 [penwidth=2]
    75 -> 98 [penwidth=2]
    75 -> 123 [penwidth=2]
    75 -> 8 [penwidth=2]
    75 -> 45 [penwidth=2]
    75 -> 108 [penwidth=2]
    75 -> 162 [penwidth=2]
    75 -> 132 [penwidth=2]
    75 -> 13 [penwidth=2]
    75 -> 178 [penwidth=2]
    75 -> 7 [penwidth=2]
    75 -> 4 [penwidth=2]
    75 -> 153 [penwidth=2]
    75 -> 148 [penwidth=2]
    75 -> 44 [penwidth=2]
    75 -> 6 [penwidth=2]
    75 -> 124 [penwidth=2]
    75 -> 107 [penwidth=2]
    75 -> 140 [penwidth=2]
    75 -> 141 [penwidth=2]
    75 -> 158 [penwidth=2]
    75 -> 144 [penwidth=2]
    75 -> 133 [penwidth=2]
    75 -> 118 [penwidth=2]
    75 -> 122 [penwidth=2]
    75 -> 115 [penwidth=2]
    75 -> 126 [penwidth=2]
    75 -> 52 [penwidth=2]
    75 -> 90 [penwidth=2]
    75 -> 164 [penwidth=2]
    75 -> 95 [penwidth=2]
    75 -> 106 [penwidth=2]
    75 -> 156 [penwidth=2]
    75 -> 155 [penwidth=2]
    75 -> 11 [penwidth=2]
    75 -> 165 [penwidth=2]
    75 -> 182 [penwidth=2]
    75 -> 154 [penwidth=2]
    75 -> 136 [penwidth=2]
    75 -> 145 [penwidth=2]
    75 -> 152 [penwidth=2]
    75 -> 48 [penwidth=2]
    75 -> 116 [penwidth=2]
    75 -> 110 [penwidth=2]
    75 -> 160 [penwidth=2]
    75 -> 43 [penwidth=2]
    75 -> 51 [penwidth=2]
    75 -> 202 [penwidth=2]
    75 -> 94 [penwidth=2]
    75 -> 120 [penwidth=2]
    75 -> 1 [penwidth=2]
    75 -> 147 [penwidth=2]
    75 -> 149 [penwidth=2]
    75 -> 135 [penwidth=2]
    75 -> 54 [penwidth=2]
    75 -> 104 [penwidth=2]
    75 -> 101 [penwidth=2]
    75 -> 9 [penwidth=2]
    82 -> 152 [penwidth=2]
    171 -> 155 [penwidth=2]
    171 -> 106 [penwidth=2]
    171 -> 55 [penwidth=2]
    171 -> 147 [penwidth=2]
    171 -> 157 [penwidth=2]
    171 -> 114 [penwidth=2]
    171 -> 167 [penwidth=2]
    171 -> 143 [penwidth=2]
    171 -> 1 [penwidth=2]
    171 -> 112 [penwidth=2]
    171 -> 154 [penwidth=2]
    171 -> 151 [penwidth=2]
    171 -> 203 [penwidth=2]
    171 -> 153 [penwidth=2]
    171 -> 2 [penwidth=2]
    171 -> 107 [penwidth=2]
    171 -> 150 [penwidth=2]
    171 -> 134 [penwidth=2]
    171 -> 94 [penwidth=2]
    171 -> 102 [penwidth=2]
    171 -> 116 [penwidth=2]
    171 -> 165 [penwidth=2]
    171 -> 7 [penwidth=2]
    171 -> 5 [penwidth=2]
    171 -> 178 [penwidth=2]
    171 -> 152 [penwidth=2]
    171 -> 164 [penwidth=2]
    171 -> 136 [penwidth=2]
    171 -> 8 [penwidth=2]
    171 -> 111 [penwidth=2]
    171 -> 109 [penwidth=2]
    171 -> 99 [penwidth=2]
    171 -> 168 [penwidth=2]
    171 -> 97 [penwidth=2]
    171 -> 158 [penwidth=2]
    171 -> 53 [penwidth=2]
    171 -> 105 [penwidth=2]
    171 -> 135 [penwidth=2]
    171 -> 160 [penwidth=2]
    171 -> 182 [penwidth=2]
    171 -> 51 [penwidth=2]
    171 -> 9 [penwidth=2]
    171 -> 47 [penwidth=2]
    171 -> 123 [penwidth=2]
    171 -> 101 [penwidth=2]
    171 -> 138 [penwidth=2]
    171 -> 161 [penwidth=2]
    171 -> 54 [penwidth=2]
    42 -> 114 [penwidth=2]
    42 -> 142 [penwidth=2]
    42 -> 157 [penwidth=2]
    42 -> 104 [penwidth=2]
    42 -> 149 [penwidth=2]
    42 -> 106 [penwidth=2]
    42 -> 53 [penwidth=2]
    42 -> 146 [penwidth=2]
    42 -> 107 [penwidth=2]
    42 -> 154 [penwidth=2]
    42 -> 181 [penwidth=2]
    42 -> 124 [penwidth=2]
    42 -> 168 [penwidth=2]
    42 -> 109 [penwidth=2]
    42 -> 160 [penwidth=2]
    42 -> 135 [penwidth=2]
    42 -> 50 [penwidth=2]
    42 -> 137 [penwidth=2]
    42 -> 2 [penwidth=2]
    42 -> 10 [penwidth=2]
    42 -> 147 [penwidth=2]
    42 -> 132 [penwidth=2]
    42 -> 141 [penwidth=2]
    42 -> 112 [penwidth=2]
    42 -> 158 [penwidth=2]
    42 -> 178 [penwidth=2]
    42 -> 105 [penwidth=2]
    42 -> 51 [penwidth=2]
    42 -> 11 [penwidth=2]
    42 -> 163 [penwidth=2]
    42 -> 97 [penwidth=2]
    42 -> 179 [penwidth=2]
    42 -> 46 [penwidth=2]
    42 -> 121 [penwidth=2]
    42 -> 180 [penwidth=2]
    42 -> 156 [penwidth=2]
    42 -> 138 [penwidth=2]
    42 -> 140 [penwidth=2]
    42 -> 136 [penwidth=2]
    42 -> 116 [penwidth=2]
    42 -> 55 [penwidth=2]
    42 -> 103 [penwidth=2]
    42 -> 43 [penwidth=2]
    42 -> 165 [penwidth=2]
    42 -> 95 [penwidth=2]
    42 -> 167 [penwidth=2]
    42 -> 143 [penwidth=2]
    42 -> 120 [penwidth=2]
    42 -> 12 [penwidth=2]
    42 -> 131 [penwidth=2]
    42 -> 92 [penwidth=2]
    42 -> 9 [penwidth=2]
    42 -> 155 [penwidth=2]
    42 -> 14 [penwidth=2]
    42 -> 5 [penwidth=2]
    42 -> 122 [penwidth=2]
    42 -> 150 [penwidth=2]
    42 -> 162 [penwidth=2]
    42 -> 108 [penwidth=2]
    42 -> 6 [penwidth=2]
    42 -> 117 [penwidth=2]
    42 -> 118 [penwidth=2]
    42 -> 161 [penwidth=2]
    42 -> 123 [penwidth=2]
    42 -> 7 [penwidth=2]
    42 -> 110 [penwidth=2]
    42 -> 102 [penwidth=2]
    42 -> 164 [penwidth=2]
    42 -> 134 [penwidth=2]
    42 -> 119 [penwidth=2]
    42 -> 182 [penwidth=2]
    42 -> 49 [penwidth=2]
    42 -> 13 [penwidth=2]
    42 -> 204 [penwidth=2]
    42 -> 139 [penwidth=2]
    42 -> 98 [penwidth=2]
    42 -> 94 [penwidth=2]
    42 -> 148 [penwidth=2]
    42 -> 111 [penwidth=2]
    42 -> 183 [penwidth=2]
    42 -> 126 [penwidth=2]
    42 -> 145 [penwidth=2]
    42 -> 48 [penwidth=2]
    42 -> 166 [penwidth=2]
    42 -> 3 [penwidth=2]
    42 -> 8 [penwidth=2]
    42 -> 93 [penwidth=2]
    42 -> 100 [penwidth=2]
    42 -> 52 [penwidth=2]
    42 -> 1 [penwidth=2]
    42 -> 115 [penwidth=2]
    42 -> 47 [penwidth=2]
    42 -> 96 [penwidth=2]
    42 -> 125 [penwidth=2]
    42 -> 153 [penwidth=2]
    42 -> 90 [penwidth=2]
    42 -> 54 [penwidth=2]
    42 -> 202 [penwidth=2]
    42 -> 144 [penwidth=2]
    42 -> 91 [penwidth=2]
    42 -> 4 [penwidth=2]
    42 -> 151 [penwidth=2]
    42 -> 99 [penwidth=2]
    42 -> 113 [penwidth=2]
    42 -> 45 [penwidth=2]
    42 -> 101 [penwidth=2]
    42 -> 203 [penwidth=2]
}