digraph G {
    0 [penwidth=3,label="0"]
    1 [penwidth=3,label="1"]
    2 [penwidth=3,label="2"]
    3 [penwidth=3,label="3"]
    4 [penwidth=3,label="4"]
    5 [penwidth=3,label="5"]
    6 [penwidth=3,label="6"]
    7 [penwidth=3,label="7"]
    8 [penwidth=3,label="8"]
    9 [penwidth=3,label="9"]
    10 [penwidth=3,label="10"]
    11 [penwidth=3,label="11"]
    12 [penwidth=3,label="12"]
    13 [penwidth=3,label="13"]
    14 [penwidth=3,label="14"]
    15 [penwidth=3,label="15"]
    16 [penwidth=3,label="16"]
    17 [penwidth=3,label="17"]
    18 [penwidth=3,label="18"]
    19 [penwidth=3,label="19"]
    20 [penwidth=3,label="20"]
    21 [penwidth=3,label="21"]
    22 [penwidth=3,label="22"]
    23 [penwidth=3,label="23"]
    24 [penwidth=3,label="24"]
    25 [penwidth=3,label="25"]
    26 [penwidth=3,label="26"]
    27 [penwidth=3,label="27"]
    28 [penwidth=3,label="28"]
    29 [penwidth=3,label="29"]
    30 [penwidth=3,label="30"]
    31 [penwidth=3,label="31"]
    32 [penwidth=3,label="32"]
    33 [penwidth=3,label="33"]
    34 [penwidth=3,label="34"]
    35 [penwidth=3,label="35"]
    36 [penwidth=3,label="36"]
    37 [penwidth=3,label="37"]
    38 [penwidth=3,label="38"]
    39 [penwidth=3,label="39"]
    40 [penwidth=3,label="40"]
    41 [penwidth=3,label="41"]
    42 [penwidth=3,label="42"]
    43 [penwidth=3,label="43"]
    44 [penwidth=3,label="44"]
    45 [penwidth=3,label="45"]
    46 [penwidth=3,label="46"]
    47 [penwidth=3,label="47"]
    48 [penwidth=3,label="48"]
    49 [penwidth=3,label="49"]
    50 [penwidth=3,label="50"]
    51 [penwidth=3,label="51"]
    52 [penwidth=3,label="52"]
    53 [penwidth=3,label="53"]
    54 [penwidth=3,label="54"]
    55 [penwidth=3,label="55"]
    56 [penwidth=3,label="56"]
    57 [penwidth=3,label="57"]
    58 [penwidth=3,label="58"]
    59 [penwidth=3,label="59"]
    60 [penwidth=3,label="60"]
    61 [penwidth=3,label="61"]
    62 [penwidth=3,label="62"]
    63 [penwidth=3,label="63"]
    64 [penwidth=3,label="64"]
    65 [penwidth=3,label="65"]
    66 [penwidth=3,label="66"]
    67 [penwidth=3,label="67"]
    68 [penwidth=3,label="68"]
    69 [penwidth=3,label="69"]
    70 [penwidth=3,label="70"]
    71 [penwidth=3,label="71"]
    72 [penwidth=3,label="72"]
    73 [penwidth=3,label="73"]
    74 [penwidth=3,label="74"]
    75 [penwidth=3,label="75"]
    76 [penwidth=3,label="76"]
    77 [penwidth=3,label="77"]
    78 [penwidth=3,label="78"]
    79 [penwidth=3,label="79"]
    80 [penwidth=3,label="80"]
    81 [penwidth=3,label="81"]
    82 [penwidth=3,label="82"]
    83 [penwidth=3,label="83"]
    84 [penwidth=3,label="84"]
    85 [penwidth=3,label="85"]
    86 [penwidth=3,label="86"]
    87 [penwidth=3,label="87"]
    88 [penwidth=3,label="88"]
    89 [penwidth=3,label="89"]
    90 [penwidth=3,label="90"]
    91 [penwidth=3,label="91"]
    92 [penwidth=3,label="92"]
    93 [penwidth=3,label="93"]
    94 [penwidth=3,label="94"]
    95 [penwidth=3,label="95"]
    96 [penwidth=3,label="96"]
    97 [penwidth=3,label="97"]
    98 [penwidth=3,label="98"]
    99 [penwidth=3,label="99"]
    100 [penwidth=3,label="100"]
    101 [penwidth=3,label="101"]
    102 [penwidth=3,label="102"]
    103 [penwidth=3,label="103"]
    104 [penwidth=3,label="104"]
    105 [penwidth=3,label="105"]
    106 [penwidth=3,label="106"]
    107 [penwidth=3,label="107"]
    108 [penwidth=3,label="108"]
    109 [penwidth=3,label="109"]
    110 [penwidth=3,label="110"]
    111 [penwidth=3,label="111"]
    112 [penwidth=3,label="112"]
    113 [penwidth=3,label="113"]
    114 [penwidth=3,label="114"]
    115 [penwidth=3,label="115"]
    116 [penwidth=3,label="116"]
    117 [penwidth=3,label="117"]
    118 [penwidth=3,label="118"]
    119 [penwidth=3,label="119"]
    120 [penwidth=3,label="120"]
    121 [penwidth=3,label="121"]
    122 [penwidth=3,label="122"]
    123 [penwidth=3,label="123"]
    124 [penwidth=3,label="124"]
    125 [penwidth=3,label="125"]
    126 [penwidth=3,label="126"]
    127 [penwidth=3,label="127"]
    128 [penwidth=3,label="128"]
    129 [penwidth=3,label="129"]
    130 [penwidth=3,label="130"]
    131 [penwidth=3,label="131"]
    132 [penwidth=3,label="132"]
    133 [penwidth=3,label="133"]
    134 [penwidth=3,label="134"]
    135 [penwidth=3,label="135"]
    136 [penwidth=3,label="136"]
    137 [penwidth=3,label="137"]
    138 [penwidth=3,label="138"]
    139 [penwidth=3,label="139"]
    140 [penwidth=3,label="140"]
    141 [penwidth=3,label="141"]
    142 [penwidth=3,label="142"]
    143 [penwidth=3,label="143"]
    144 [penwidth=3,label="144"]
    145 [penwidth=3,label="145"]
    146 [penwidth=3,label="146"]
    147 [penwidth=3,label="147"]
    148 [penwidth=3,label="148"]
    149 [penwidth=3,label="149"]
    150 [penwidth=3,label="150"]
    151 [penwidth=3,label="151"]
    152 [penwidth=3,label="152"]
    153 [penwidth=3,label="153"]
    154 [penwidth=3,label="154"]
    155 [penwidth=3,label="155"]
    156 [penwidth=3,label="156"]
    157 [penwidth=3,label="157"]
    158 [penwidth=3,label="158"]
    159 [penwidth=3,label="159"]
    160 [penwidth=3,label="160"]
    161 [penwidth=3,label="161"]
    162 [penwidth=3,label="162"]
    163 [penwidth=3,label="163"]
    164 [penwidth=3,label="164"]
    165 [penwidth=3,label="165"]
    166 [penwidth=3,label="166"]
    167 [penwidth=3,label="167"]
    168 [penwidth=3,label="168"]
    169 [penwidth=3,label="169"]
    170 [penwidth=3,label="170"]
    171 [penwidth=3,label="171"]
    172 [penwidth=3,label="172"]
    173 [penwidth=3,label="173"]
    174 [penwidth=3,label="174"]
    175 [penwidth=3,label="175"]
    176 [penwidth=3,label="176"]
    177 [penwidth=3,label="177"]
    178 [penwidth=3,label="178"]
    179 [penwidth=3,label="179"]
    180 [penwidth=3,label="180"]
    181 [penwidth=3,label="181"]
    182 [penwidth=3,label="182"]
    183 [penwidth=3,label="183"]
    184 [penwidth=3,label="184"]
    185 [penwidth=3,label="185"]
    186 [penwidth=3,label="186"]
    187 [penwidth=3,label="187"]
    188 [penwidth=3,label="188"]
    189 [penwidth=3,label="189"]
    190 [penwidth=3,label="190"]
    191 [penwidth=3,label="191"]
    192 [penwidth=3,label="192"]
    193 [penwidth=3,label="193"]
    194 [penwidth=3,label="194"]
    195 [penwidth=3,label="195"]
    196 [penwidth=3,label="196"]
    197 [penwidth=3,label="197"]
    198 [penwidth=3,label="198"]
    199 [penwidth=3,label="199"]
    200 [penwidth=3,label="200"]
    201 [penwidth=3,label="201"]
    202 [penwidth=3,label="202"]
    203 [penwidth=3,label="203"]
    204 [penwidth=3,label="204"]

    30 -> 0 [penwidth=2]
    114 -> 0 [penwidth=2]
    198 -> 0 [penwidth=2]
    31 -> 0 [penwidth=2]
    115 -> 30 [penwidth=2]
    199 -> 30 [penwidth=2]
    32 -> 30 [penwidth=2]
    116 -> 30 [penwidth=2]
    200 -> 30 [penwidth=2]
    33 -> 30 [penwidth=2]
    117 -> 30 [penwidth=2]
    201 -> 30 [penwidth=2]
    34 -> 30 [penwidth=2]
    118 -> 30 [penwidth=2]
    202 -> 30 [penwidth=2]
    112 -> 30 [penwidth=2]
    35 -> 30 [penwidth=2]
    119 -> 30 [penwidth=2]
    203 -> 30 [penwidth=2]
    36 -> 30 [penwidth=2]
    120 -> 30 [penwidth=2]
    204 -> 30 [penwidth=2]
    37 -> 30 [penwidth=2]
    121 -> 30 [penwidth=2]
    38 -> 114 [penwidth=2]
    122 -> 114 [penwidth=2]
    39 -> 114 [penwidth=2]
    123 -> 114 [penwidth=2]
    113 -> 114 [penwidth=2]
    40 -> 114 [penwidth=2]
    124 -> 114 [penwidth=2]
    41 -> 114 [penwidth=2]
    125 -> 114 [penwidth=2]
    42 -> 114 [penwidth=2]
    126 -> 114 [penwidth=2]
    43 -> 114 [penwidth=2]
    127 -> 114 [penwidth=2]
    44 -> 114 [penwidth=2]
    128 -> 114 [penwidth=2]
    45 -> 114 [penwidth=2]
    129 -> 114 [penwidth=2]
    46 -> 114 [penwidth=2]
    130 -> 114 [penwidth=2]
    47 -> 114 [penwidth=2]
    131 -> 114 [penwidth=2]
    48 -> 114 [penwidth=2]
    132 -> 198 [penwidth=2]
    49 -> 198 [penwidth=2]
    133 -> 198 [penwidth=2]
    50 -> 198 [penwidth=2]
    134 -> 198 [penwidth=2]
    51 -> 198 [penwidth=2]
    135 -> 115 [penwidth=2]
    52 -> 115 [penwidth=2]
    136 -> 115 [penwidth=2]
    53 -> 115 [penwidth=2]
    137 -> 115 [penwidth=2]
    196 -> 115 [penwidth=2]
    54 -> 115 [penwidth=2]
    138 -> 115 [penwidth=2]
    55 -> 115 [penwidth=2]
    139 -> 199 [penwidth=2]
    56 -> 199 [penwidth=2]
    140 -> 199 [penwidth=2]
    57 -> 199 [penwidth=2]
    141 -> 199 [penwidth=2]
    58 -> 199 [penwidth=2]
    142 -> 199 [penwidth=2]
    197 -> 199 [penwidth=2]
    59 -> 199 [penwidth=2]
    143 -> 199 [penwidth=2]
    60 -> 199 [penwidth=2]
    144 -> 199 [penwidth=2]
    61 -> 199 [penwidth=2]
    145 -> 199 [penwidth=2]
    62 -> 199 [penwidth=2]
    146 -> 199 [penwidth=2]
    63 -> 32 [penwidth=2]
    147 -> 32 [penwidth=2]
    64 -> 32 [penwidth=2]
    148 -> 32 [penwidth=2]
    65 -> 32 [penwidth=2]
    149 -> 32 [penwidth=2]
    66 -> 32 [penwidth=2]
    150 -> 32 [penwidth=2]
    67 -> 32 [penwidth=2]
    151 -> 32 [penwidth=2]
    68 -> 32 [penwidth=2]
    152 -> 32 [penwidth=2]
    69 -> 32 [penwidth=2]
    153 -> 32 [penwidth=2]
    70 -> 32 [penwidth=2]
    154 -> 32 [penwidth=2]
    71 -> 32 [penwidth=2]
    155 -> 32 [penwidth=2]
    72 -> 32 [penwidth=2]
    156 -> 32 [penwidth=2]
    73 -> 32 [penwidth=2]
    157 -> 32 [penwidth=2]
    74 -> 32 [penwidth=2]
    158 -> 116 [penwidth=2]
    75 -> 116 [penwidth=2]
    159 -> 116 [penwidth=2]
    76 -> 116 [penwidth=2]
    160 -> 116 [penwidth=2]
    77 -> 116 [penwidth=2]
    161 -> 116 [penwidth=2]
    78 -> 116 [penwidth=2]
    162 -> 116 [penwidth=2]
    79 -> 116 [penwidth=2]
    163 -> 116 [penwidth=2]
    80 -> 116 [penwidth=2]
    164 -> 116 [penwidth=2]
    81 -> 116 [penwidth=2]
    165 -> 200 [penwidth=2]
    82 -> 33 [penwidth=2]
    166 -> 33 [penwidth=2]
    83 -> 33 [penwidth=2]
    167 -> 33 [penwidth=2]
    84 -> 33 [penwidth=2]
    168 -> 33 [penwidth=2]
    1 -> 33 [penwidth=2]
    85 -> 33 [penwidth=2]
    169 -> 33 [penwidth=2]
    2 -> 33 [penwidth=2]
    86 -> 33 [penwidth=2]
    170 -> 33 [penwidth=2]
    3 -> 33 [penwidth=2]
    87 -> 33 [penwidth=2]
    171 -> 33 [penwidth=2]
    4 -> 33 [penwidth=2]
    88 -> 33 [penwidth=2]
    172 -> 117 [penwidth=2]
    5 -> 117 [penwidth=2]
    89 -> 117 [penwidth=2]
    173 -> 117 [penwidth=2]
    6 -> 117 [penwidth=2]
    90 -> 117 [penwidth=2]
    174 -> 201 [penwidth=2]
    7 -> 201 [penwidth=2]
    91 -> 201 [penwidth=2]
    175 -> 201 [penwidth=2]
    8 -> 201 [penwidth=2]
    92 -> 201 [penwidth=2]
    176 -> 201 [penwidth=2]
    9 -> 201 [penwidth=2]
    93 -> 201 [penwidth=2]
    177 -> 201 [penwidth=2]
    10 -> 201 [penwidth=2]
    94 -> 201 [penwidth=2]
    178 -> 201 [penwidth=2]
    11 -> 201 [penwidth=2]
    95 -> 201 [penwidth=2]
    179 -> 201 [penwidth=2]
    12 -> 201 [penwidth=2]
    96 -> 201 [penwidth=2]
    180 -> 201 [penwidth=2]
    13 -> 201 [penwidth=2]
    97 -> 201 [penwidth=2]
    181 -> 201 [penwidth=2]
    14 -> 201 [penwidth=2]
    98 -> 201 [penwidth=2]
    182 -> 201 [penwidth=2]
    15 -> 34 [penwidth=2]
    99 -> 34 [penwidth=2]
    183 -> 34 [penwidth=2]
    16 -> 34 [penwidth=2]
    100 -> 34 [penwidth=2]
    184 -> 34 [penwidth=2]
    17 -> 34 [penwidth=2]
    101 -> 34 [penwidth=2]
    185 -> 34 [penwidth=2]
    18 -> 34 [penwidth=2]
    102 -> 34 [penwidth=2]
    186 -> 34 [penwidth=2]
    19 -> 34 [penwidth=2]
    103 -> 34 [penwidth=2]
    187 -> 34 [penwidth=2]
    20 -> 34 [penwidth=2]
    104 -> 34 [penwidth=2]
    188 -> 34 [penwidth=2]
    21 -> 34 [penwidth=2]
    105 -> 34 [penwidth=2]
    189 -> 34 [penwidth=2]
    22 -> 34 [penwidth=2]
    106 -> 34 [penwidth=2]
    190 -> 34 [penwidth=2]
    23 -> 118 [penwidth=2]
    107 -> 118 [penwidth=2]
    191 -> 118 [penwidth=2]
    24 -> 118 [penwidth=2]
    108 -> 118 [penwidth=2]
    192 -> 118 [penwidth=2]
    25 -> 118 [penwidth=2]
    109 -> 118 [penwidth=2]
    193 -> 118 [penwidth=2]
    26 -> 118 [penwidth=2]
    110 -> 118 [penwidth=2]
    194 -> 118 [penwidth=2]
    27 -> 118 [penwidth=2]
    111 -> 118 [penwidth=2]
    195 -> 118 [penwidth=2]
    28 -> 118 [penwidth=2]
    29 -> 118 [penwidth=2]
    199 -> 198 [penwidth=2]
    116 -> 114 [penwidth=2]
    202 -> 31 [penwidth=2]
    112 -> 198 [penwidth=2]
    112 -> 114 [penwidth=2]
    125 -> 198 [penwidth=2]
    125 -> 31 [penwidth=2]
    46 -> 198 [penwidth=2]
    54 -> 120 [penwidth=2]
    54 -> 124 [penwidth=2]
    54 -> 46 [penwidth=2]
    54 -> 39 [penwidth=2]
    54 -> 199 [penwidth=2]
    54 -> 44 [penwidth=2]
    54 -> 202 [penwidth=2]
    54 -> 41 [penwidth=2]
    54 -> 125 [penwidth=2]
    54 -> 203 [penwidth=2]
    54 -> 42 [penwidth=2]
    54 -> 47 [penwidth=2]
    54 -> 38 [penwidth=2]
    54 -> 134 [penwidth=2]
    54 -> 200 [penwidth=2]
    54 -> 51 [penwidth=2]
    54 -> 35 [penwidth=2]
    54 -> 45 [penwidth=2]
    54 -> 128 [penwidth=2]
    54 -> 127 [penwidth=2]
    54 -> 133 [penwidth=2]
    54 -> 130 [penwidth=2]
    54 -> 117 [penwidth=2]
    54 -> 33 [penwidth=2]
    54 -> 126 [penwidth=2]
    54 -> 118 [penwidth=2]
    54 -> 43 [penwidth=2]
    54 -> 48 [penwidth=2]
    54 -> 116 [penwidth=2]
    54 -> 50 [penwidth=2]
    54 -> 32 [penwidth=2]
    54 -> 34 [penwidth=2]
    54 -> 121 [penwidth=2]
    54 -> 204 [penwidth=2]
    57 -> 133 [penwidth=2]
    57 -> 125 [penwidth=2]
    57 -> 38 [penwidth=2]
    57 -> 127 [penwidth=2]
    57 -> 122 [penwidth=2]
    57 -> 120 [penwidth=2]
    57 -> 48 [penwidth=2]
    57 -> 202 [penwidth=2]
    57 -> 42 [penwidth=2]
    57 -> 123 [penwidth=2]
    57 -> 36 [penwidth=2]
    57 -> 119 [penwidth=2]
    57 -> 41 [penwidth=2]
    57 -> 51 [penwidth=2]
    57 -> 116 [penwidth=2]
    57 -> 203 [penwidth=2]
    57 -> 43 [penwidth=2]
    57 -> 45 [penwidth=2]
    57 -> 200 [penwidth=2]
    57 -> 129 [penwidth=2]
    57 -> 115 [penwidth=2]
    57 -> 47 [penwidth=2]
    57 -> 35 [penwidth=2]
    57 -> 32 [penwidth=2]
    57 -> 130 [penwidth=2]
    57 -> 124 [penwidth=2]
    57 -> 50 [penwidth=2]
    57 -> 46 [penwidth=2]
    57 -> 128 [penwidth=2]
    57 -> 132 [penwidth=2]
    57 -> 117 [penwidth=2]
    57 -> 126 [penwidth=2]
    57 -> 121 [penwidth=2]
    57 -> 33 [penwidth=2]
    57 -> 34 [penwidth=2]
    57 -> 134 [penwidth=2]
    57 -> 131 [penwidth=2]
    57 -> 49 [penwidth=2]
    57 -> 44 [penwidth=2]
    57 -> 113 [penwidth=2]
    57 -> 39 [penwidth=2]
    57 -> 37 [penwidth=2]
    57 -> 204 [penwidth=2]
    57 -> 40 [penwidth=2]
    57 -> 201 [penwidth=2]
    60 -> 112 [penwidth=2]
    60 -> 202 [penwidth=2]
    60 -> 41 [penwidth=2]
    60 -> 115 [penwidth=2]
    60 -> 32 [penwidth=2]
    60 -> 36 [penwidth=2]
    60 -> 34 [penwidth=2]
    60 -> 51 [penwidth=2]
    60 -> 120 [penwidth=2]
    60 -> 46 [penwidth=2]
    60 -> 128 [penwidth=2]
    60 -> 131 [penwidth=2]
    60 -> 35 [penwidth=2]
    60 -> 121 [penwidth=2]
    60 -> 119 [penwidth=2]
    60 -> 134 [penwidth=2]
    60 -> 204 [penwidth=2]
    60 -> 125 [penwidth=2]
    60 -> 123 [penwidth=2]
    60 -> 37 [penwidth=2]
    60 -> 49 [penwidth=2]
    60 -> 45 [penwidth=2]
    60 -> 130 [penwidth=2]
    60 -> 133 [penwidth=2]
    60 -> 201 [penwidth=2]
    60 -> 47 [penwidth=2]
    60 -> 129 [penwidth=2]
    147 -> 37 [penwidth=2]
    147 -> 120 [penwidth=2]
    147 -> 203 [penwidth=2]
    147 -> 46 [penwidth=2]
    147 -> 204 [penwidth=2]
    147 -> 44 [penwidth=2]
    147 -> 124 [penwidth=2]
    147 -> 113 [penwidth=2]
    147 -> 202 [penwidth=2]
    147 -> 134 [penwidth=2]
    147 -> 125 [penwidth=2]
    147 -> 36 [penwidth=2]
    147 -> 132 [penwidth=2]
    147 -> 112 [penwidth=2]
    147 -> 117 [penwidth=2]
    147 -> 123 [penwidth=2]
    147 -> 116 [penwidth=2]
    147 -> 40 [penwidth=2]
    147 -> 129 [penwidth=2]
    147 -> 126 [penwidth=2]
    147 -> 50 [penwidth=2]
    147 -> 39 [penwidth=2]
    147 -> 51 [penwidth=2]
    147 -> 133 [penwidth=2]
    84 -> 37 [penwidth=2]
    84 -> 201 [penwidth=2]
    84 -> 44 [penwidth=2]
    84 -> 47 [penwidth=2]
    84 -> 202 [penwidth=2]
    84 -> 45 [penwidth=2]
    84 -> 116 [penwidth=2]
    84 -> 117 [penwidth=2]
    84 -> 134 [penwidth=2]
    84 -> 129 [penwidth=2]
    84 -> 50 [penwidth=2]
    84 -> 42 [penwidth=2]
    84 -> 38 [penwidth=2]
    84 -> 49 [penwidth=2]
    84 -> 203 [penwidth=2]
    84 -> 127 [penwidth=2]
    176 -> 41 [penwidth=2]
    176 -> 45 [penwidth=2]
    176 -> 132 [penwidth=2]
    95 -> 41 [penwidth=2]
    95 -> 40 [penwidth=2]
    95 -> 123 [penwidth=2]
    95 -> 132 [penwidth=2]
    95 -> 45 [penwidth=2]
    95 -> 128 [penwidth=2]
    95 -> 34 [penwidth=2]
    95 -> 38 [penwidth=2]
    95 -> 112 [penwidth=2]
    95 -> 126 [penwidth=2]
    95 -> 200 [penwidth=2]
    95 -> 127 [penwidth=2]
    95 -> 129 [penwidth=2]
    95 -> 35 [penwidth=2]
    95 -> 130 [penwidth=2]
    95 -> 199 [penwidth=2]
    95 -> 39 [penwidth=2]
    95 -> 44 [penwidth=2]
    95 -> 37 [penwidth=2]
    95 -> 125 [penwidth=2]
    95 -> 48 [penwidth=2]
    95 -> 46 [penwidth=2]
    95 -> 204 [penwidth=2]
    95 -> 42 [penwidth=2]
    95 -> 117 [penwidth=2]
    95 -> 119 [penwidth=2]
    95 -> 121 [penwidth=2]
    95 -> 124 [penwidth=2]
    95 -> 120 [penwidth=2]
    95 -> 133 [penwidth=2]
    95 -> 51 [penwidth=2]
    95 -> 32 [penwidth=2]
    95 -> 113 [penwidth=2]
    95 -> 47 [penwidth=2]
    95 -> 202 [penwidth=2]
    95 -> 50 [penwidth=2]
    13 -> 126 [penwidth=2]
    13 -> 32 [penwidth=2]
    13 -> 128 [penwidth=2]
    13 -> 44 [penwidth=2]
    13 -> 131 [penwidth=2]
    13 -> 134 [penwidth=2]
    13 -> 51 [penwidth=2]
    13 -> 43 [penwidth=2]
    13 -> 124 [penwidth=2]
    13 -> 133 [penwidth=2]
    13 -> 116 [penwidth=2]
    13 -> 130 [penwidth=2]
    13 -> 113 [penwidth=2]
    13 -> 49 [penwidth=2]
    13 -> 118 [penwidth=2]
    13 -> 37 [penwidth=2]
    13 -> 125 [penwidth=2]
    13 -> 132 [penwidth=2]
    13 -> 41 [penwidth=2]
    13 -> 35 [penwidth=2]
    13 -> 123 [penwidth=2]
    13 -> 127 [penwidth=2]
    13 -> 34 [penwidth=2]
    13 -> 121 [penwidth=2]
    13 -> 47 [penwidth=2]
    13 -> 38 [penwidth=2]
    13 -> 50 [penwidth=2]
    13 -> 46 [penwidth=2]
    13 -> 199 [penwidth=2]
    13 -> 202 [penwidth=2]
    13 -> 117 [penwidth=2]
    13 -> 122 [penwidth=2]
    13 -> 203 [penwidth=2]
    13 -> 45 [penwidth=2]
    13 -> 42 [penwidth=2]
    13 -> 120 [penwidth=2]
    13 -> 39 [penwidth=2]
    13 -> 36 [penwidth=2]
    13 -> 204 [penwidth=2]
    97 -> 36 [penwidth=2]
    97 -> 35 [penwidth=2]
    97 -> 51 [penwidth=2]
    97 -> 41 [penwidth=2]
    97 -> 200 [penwidth=2]
    97 -> 127 [penwidth=2]
    97 -> 113 [penwidth=2]
    97 -> 44 [penwidth=2]
    97 -> 119 [penwidth=2]
    97 -> 38 [penwidth=2]
    97 -> 203 [penwidth=2]
    97 -> 39 [penwidth=2]
    97 -> 45 [penwidth=2]
    97 -> 199 [penwidth=2]
    97 -> 37 [penwidth=2]
    97 -> 40 [penwidth=2]
    97 -> 115 [penwidth=2]
    97 -> 129 [penwidth=2]
    97 -> 204 [penwidth=2]
    16 -> 116 [penwidth=2]
    16 -> 204 [penwidth=2]
    16 -> 113 [penwidth=2]
    16 -> 44 [penwidth=2]
    16 -> 39 [penwidth=2]
    16 -> 134 [penwidth=2]
    16 -> 32 [penwidth=2]
    16 -> 118 [penwidth=2]
    16 -> 35 [penwidth=2]
    16 -> 51 [penwidth=2]
    16 -> 126 [penwidth=2]
    16 -> 48 [penwidth=2]
    16 -> 43 [penwidth=2]
    16 -> 121 [penwidth=2]
    16 -> 115 [penwidth=2]
    103 -> 37 [penwidth=2]
    103 -> 47 [penwidth=2]
    103 -> 203 [penwidth=2]
    103 -> 118 [penwidth=2]
    103 -> 36 [penwidth=2]
    103 -> 113 [penwidth=2]
    188 -> 49 [penwidth=2]
    188 -> 42 [penwidth=2]
    188 -> 41 [penwidth=2]
    188 -> 39 [penwidth=2]
    188 -> 124 [penwidth=2]
    188 -> 121 [penwidth=2]
    188 -> 204 [penwidth=2]
    188 -> 120 [penwidth=2]
    188 -> 38 [penwidth=2]
    188 -> 134 [penwidth=2]
    188 -> 40 [penwidth=2]
    188 -> 122 [penwidth=2]
    188 -> 132 [penwidth=2]
    188 -> 43 [penwidth=2]
    188 -> 119 [penwidth=2]
    188 -> 126 [penwidth=2]
    188 -> 131 [penwidth=2]
    188 -> 51 [penwidth=2]
    188 -> 125 [penwidth=2]
    188 -> 199 [penwidth=2]
    188 -> 44 [penwidth=2]
    188 -> 123 [penwidth=2]
    188 -> 112 [penwidth=2]
    188 -> 130 [penwidth=2]
    188 -> 115 [penwidth=2]
    188 -> 129 [penwidth=2]
    188 -> 128 [penwidth=2]
    188 -> 127 [penwidth=2]
    188 -> 33 [penwidth=2]
    188 -> 200 [penwidth=2]
    188 -> 47 [penwidth=2]
    188 -> 50 [penwidth=2]
    188 -> 202 [penwidth=2]
    188 -> 118 [penwidth=2]
    188 -> 48 [penwidth=2]
    188 -> 117 [penwidth=2]
    188 -> 116 [penwidth=2]
    188 -> 203 [penwidth=2]
    188 -> 46 [penwidth=2]
    188 -> 133 [penwidth=2]
    188 -> 36 [penwidth=2]
    188 -> 37 [penwidth=2]
    188 -> 35 [penwidth=2]
    188 -> 113 [penwidth=2]
    188 -> 32 [penwidth=2]
    190 -> 131 [penwidth=2]
    190 -> 202 [penwidth=2]
    190 -> 47 [penwidth=2]
    190 -> 37 [penwidth=2]
    190 -> 129 [penwidth=2]
    190 -> 45 [penwidth=2]
    190 -> 35 [penwidth=2]
    190 -> 204 [penwidth=2]
    190 -> 48 [penwidth=2]
    190 -> 119 [penwidth=2]
    190 -> 38 [penwidth=2]
    190 -> 203 [penwidth=2]
    190 -> 112 [penwidth=2]
    190 -> 115 [penwidth=2]
    190 -> 127 [penwidth=2]
    190 -> 51 [penwidth=2]
    190 -> 117 [penwidth=2]
    190 -> 42 [penwidth=2]
    190 -> 40 [penwidth=2]
    190 -> 130 [penwidth=2]
    190 -> 201 [penwidth=2]
    190 -> 199 [penwidth=2]
    190 -> 49 [penwidth=2]
    190 -> 133 [penwidth=2]
    190 -> 43 [penwidth=2]
    190 -> 44 [penwidth=2]
    190 -> 200 [penwidth=2]
    190 -> 41 [penwidth=2]
    190 -> 124 [penwidth=2]
    190 -> 134 [penwidth=2]
    190 -> 33 [penwidth=2]
    190 -> 125 [penwidth=2]
    190 -> 36 [penwidth=2]
    190 -> 32 [penwidth=2]
    190 -> 116 [penwidth=2]
    190 -> 132 [penwidth=2]
    190 -> 128 [penwidth=2]
    190 -> 126 [penwidth=2]
    190 -> 123 [penwidth=2]
    190 -> 39 [penwidth=2]
    190 -> 122 [penwidth=2]
    190 -> 118 [penwidth=2]
    190 -> 46 [penwidth=2]
    190 -> 50 [penwidth=2]
    190 -> 120 [penwidth=2]
    190 -> 121 [penwidth=2]
    192 -> 201 [penwidth=2]
    192 -> 200 [penwidth=2]
    192 -> 116 [penwidth=2]
    192 -> 202 [penwidth=2]
    192 -> 127 [penwidth=2]
    192 -> 40 [penwidth=2]
    192 -> 117 [penwidth=2]
    192 -> 128 [penwidth=2]
    192 -> 204 [penwidth=2]
    192 -> 44 [penwidth=2]
    192 -> 129 [penwidth=2]
    192 -> 125 [penwidth=2]
    192 -> 47 [penwidth=2]
    192 -> 32 [penwidth=2]
    192 -> 37 [penwidth=2]
    192 -> 45 [penwidth=2]
    192 -> 123 [penwidth=2]
    192 -> 49 [penwidth=2]
    192 -> 35 [penwidth=2]
    192 -> 112 [penwidth=2]
    192 -> 48 [penwidth=2]
    192 -> 43 [penwidth=2]
    192 -> 33 [penwidth=2]
    192 -> 51 [penwidth=2]
    192 -> 46 [penwidth=2]
    192 -> 50 [penwidth=2]
    192 -> 119 [penwidth=2]
    192 -> 124 [penwidth=2]
    192 -> 126 [penwidth=2]
    192 -> 130 [penwidth=2]
    192 -> 132 [penwidth=2]
    192 -> 115 [penwidth=2]
    192 -> 133 [penwidth=2]
    192 -> 199 [penwidth=2]
    192 -> 36 [penwidth=2]
    192 -> 134 [penwidth=2]
    27 -> 131 [penwidth=2]
    27 -> 115 [penwidth=2]
    27 -> 42 [penwidth=2]
    27 -> 41 [penwidth=2]
    27 -> 32 [penwidth=2]
    27 -> 45 [penwidth=2]
    27 -> 125 [penwidth=2]
    27 -> 49 [penwidth=2]
    27 -> 124 [penwidth=2]
    27 -> 37 [penwidth=2]
    27 -> 204 [penwidth=2]
    27 -> 200 [penwidth=2]
    27 -> 202 [penwidth=2]
    27 -> 34 [penwidth=2]
    27 -> 128 [penwidth=2]
}