digraph G {
    0 [penwidth=3,label="0"]
    1 [penwidth=3,label="1"]
    2 [penwidth=3,label="2"]
    3 [penwidth=3,label="3"]
    4 [penwidth=3,label="4"]
    5 [penwidth=3,label="5"]
    6 [penwidth=3,label="6"]
    7 [penwidth=3,label="7"]
    8 [penwidth=3,label="8"]
    9 [penwidth=3,label="9"]
    10 [penwidth=3,label="10"]
    11 [penwidth=3,label="11"]
    12 [penwidth=3,label="12"]
    13 [penwidth=3,label="13"]
    14 [penwidth=3,label="14"]
    15 [penwidth=3,label="15"]
    16 [penwidth=3,label="16"]
    17 [penwidth=3,label="17"]
    18 [penwidth=3,label="18"]
    19 [penwidth=3,label="19"]
    20 [penwidth=3,label="20"]
    21 [penwidth=3,label="21"]
    22 [penwidth=3,label="22"]
    23 [penwidth=3,label="23"]
    24 [penwidth=3,label="24"]
    25 [penwidth=3,label="25"]
    26 [penwidth=3,label="26"]
    27 [penwidth=3,label="27"]
    28 [penwidth=3,label="28"]
    29 [penwidth=3,label="29"]
    30 [penwidth=3,label="30"]
    31 [penwidth=3,label="31"]
    32 [penwidth=3,label="32"]
    33 [penwidth=3,label="33"]
    34 [penwidth=3,label="34"]
    35 [penwidth=3,label="35"]
    36 [penwidth=3,label="36"]
    37 [penwidth=3,label="37"]
    38 [penwidth=3,label="38"]
    39 [penwidth=3,label="39"]
    40 [penwidth=3,label="40"]
    41 [penwidth=3,label="41"]
    42 [penwidth=3,label="42"]
    43 [penwidth=3,label="43"]
    44 [penwidth=3,label="44"]
    45 [penwidth=3,label="45"]
    46 [penwidth=3,label="46"]
    47 [penwidth=3,label="47"]
    48 [penwidth=3,label="48"]
    49 [penwidth=3,label="49"]
    50 [penwidth=3,label="50"]
    51 [penwidth=3,label="51"]
    52 [penwidth=3,label="52"]
    53 [penwidth=3,label="53"]
    54 [penwidth=3,label="54"]
    55 [penwidth=3,label="55"]
    56 [penwidth=3,label="56"]
    57 [penwidth=3,label="57"]
    58 [penwidth=3,label="58"]
    59 [penwidth=3,label="59"]
    60 [penwidth=3,label="60"]
    61 [penwidth=3,label="61"]
    62 [penwidth=3,label="62"]
    63 [penwidth=3,label="63"]
    64 [penwidth=3,label="64"]
    65 [penwidth=3,label="65"]
    66 [penwidth=3,label="66"]
    67 [penwidth=3,label="67"]
    68 [penwidth=3,label="68"]
    69 [penwidth=3,label="69"]
    70 [penwidth=3,label="70"]
    71 [penwidth=3,label="71"]
    72 [penwidth=3,label="72"]
    73 [penwidth=3,label="73"]
    74 [penwidth=3,label="74"]
    75 [penwidth=3,label="75"]
    76 [penwidth=3,label="76"]
    77 [penwidth=3,label="77"]
    78 [penwidth=3,label="78"]
    79 [penwidth=3,label="79"]
    80 [penwidth=3,label="80"]
    81 [penwidth=3,label="81"]
    82 [penwidth=3,label="82"]
    83 [penwidth=3,label="83"]
    84 [penwidth=3,label="84"]
    85 [penwidth=3,label="85"]
    86 [penwidth=3,label="86"]
    87 [penwidth=3,label="87"]
    88 [penwidth=3,label="88"]
    89 [penwidth=3,label="89"]
    90 [penwidth=3,label="90"]
    91 [penwidth=3,label="91"]
    92 [penwidth=3,label="92"]
    93 [penwidth=3,label="93"]
    94 [penwidth=3,label="94"]
    95 [penwidth=3,label="95"]
    96 [penwidth=3,label="96"]
    97 [penwidth=3,label="97"]
    98 [penwidth=3,label="98"]
    99 [penwidth=3,label="99"]
    100 [penwidth=3,label="100"]
    101 [penwidth=3,label="101"]
    102 [penwidth=3,label="102"]
    103 [penwidth=3,label="103"]
    104 [penwidth=3,label="104"]
    105 [penwidth=3,label="105"]
    106 [penwidth=3,label="106"]
    107 [penwidth=3,label="107"]
    108 [penwidth=3,label="108"]
    109 [penwidth=3,label="109"]
    110 [penwidth=3,label="110"]
    111 [penwidth=3,label="111"]
    112 [penwidth=3,label="112"]
    113 [penwidth=3,label="113"]
    114 [penwidth=3,label="114"]
    115 [penwidth=3,label="115"]
    116 [penwidth=3,label="116"]
    117 [penwidth=3,label="117"]
    118 [penwidth=3,label="118"]
    119 [penwidth=3,label="119"]
    120 [penwidth=3,label="120"]
    121 [penwidth=3,label="121"]
    122 [penwidth=3,label="122"]
    123 [penwidth=3,label="123"]
    124 [penwidth=3,label="124"]
    125 [penwidth=3,label="125"]
    126 [penwidth=3,label="126"]
    127 [penwidth=3,label="127"]
    128 [penwidth=3,label="128"]
    129 [penwidth=3,label="129"]
    130 [penwidth=3,label="130"]
    131 [penwidth=3,label="131"]
    132 [penwidth=3,label="132"]
    133 [penwidth=3,label="133"]
    134 [penwidth=3,label="134"]
    135 [penwidth=3,label="135"]
    136 [penwidth=3,label="136"]
    137 [penwidth=3,label="137"]
    138 [penwidth=3,label="138"]
    139 [penwidth=3,label="139"]
    140 [penwidth=3,label="140"]
    141 [penwidth=3,label="141"]
    142 [penwidth=3,label="142"]
    143 [penwidth=3,label="143"]
    144 [penwidth=3,label="144"]
    145 [penwidth=3,label="145"]
    146 [penwidth=3,label="146"]
    147 [penwidth=3,label="147"]
    148 [penwidth=3,label="148"]
    149 [penwidth=3,label="149"]
    150 [penwidth=3,label="150"]
    151 [penwidth=3,label="151"]
    152 [penwidth=3,label="152"]
    153 [penwidth=3,label="153"]
    154 [penwidth=3,label="154"]
    155 [penwidth=3,label="155"]
    156 [penwidth=3,label="156"]
    157 [penwidth=3,label="157"]
    158 [penwidth=3,label="158"]
    159 [penwidth=3,label="159"]
    160 [penwidth=3,label="160"]
    161 [penwidth=3,label="161"]
    162 [penwidth=3,label="162"]
    163 [penwidth=3,label="163"]
    164 [penwidth=3,label="164"]
    165 [penwidth=3,label="165"]
    166 [penwidth=3,label="166"]
    167 [penwidth=3,label="167"]
    168 [penwidth=3,label="168"]
    169 [penwidth=3,label="169"]
    170 [penwidth=3,label="170"]
    171 [penwidth=3,label="171"]
    172 [penwidth=3,label="172"]
    173 [penwidth=3,label="173"]
    174 [penwidth=3,label="174"]
    175 [penwidth=3,label="175"]
    176 [penwidth=3,label="176"]
    177 [penwidth=3,label="177"]
    178 [penwidth=3,label="178"]
    179 [penwidth=3,label="179"]
    180 [penwidth=3,label="180"]
    181 [penwidth=3,label="181"]
    182 [penwidth=3,label="182"]
    183 [penwidth=3,label="183"]
    184 [penwidth=3,label="184"]
    185 [penwidth=3,label="185"]
    186 [penwidth=3,label="186"]
    187 [penwidth=3,label="187"]
    188 [penwidth=3,label="188"]
    189 [penwidth=3,label="189"]
    190 [penwidth=3,label="190"]
    191 [penwidth=3,label="191"]
    192 [penwidth=3,label="192"]
    193 [penwidth=3,label="193"]
    194 [penwidth=3,label="194"]
    195 [penwidth=3,label="195"]
    196 [penwidth=3,label="196"]
    197 [penwidth=3,label="197"]
    198 [penwidth=3,label="198"]
    199 [penwidth=3,label="199"]
    200 [penwidth=3,label="200"]
    201 [penwidth=3,label="201"]
    202 [penwidth=3,label="202"]
    203 [penwidth=3,label="203"]
    204 [penwidth=3,label="204"]

    51 -> 0 [penwidth=2]
    135 -> 0 [penwidth=2]
    52 -> 0 [penwidth=2]
    136 -> 0 [penwidth=2]
    53 -> 0 [penwidth=2]
    137 -> 0 [penwidth=2]
    54 -> 0 [penwidth=2]
    138 -> 0 [penwidth=2]
    55 -> 51 [penwidth=2]
    139 -> 51 [penwidth=2]
    56 -> 51 [penwidth=2]
    140 -> 51 [penwidth=2]
    57 -> 51 [penwidth=2]
    141 -> 51 [penwidth=2]
    58 -> 51 [penwidth=2]
    142 -> 51 [penwidth=2]
    59 -> 135 [penwidth=2]
    143 -> 135 [penwidth=2]
    60 -> 135 [penwidth=2]
    144 -> 135 [penwidth=2]
    61 -> 135 [penwidth=2]
    145 -> 135 [penwidth=2]
    62 -> 135 [penwidth=2]
    146 -> 135 [penwidth=2]
    63 -> 135 [penwidth=2]
    147 -> 135 [penwidth=2]
    64 -> 135 [penwidth=2]
    148 -> 52 [penwidth=2]
    65 -> 52 [penwidth=2]
    149 -> 52 [penwidth=2]
    66 -> 52 [penwidth=2]
    150 -> 52 [penwidth=2]
    67 -> 52 [penwidth=2]
    151 -> 52 [penwidth=2]
    68 -> 52 [penwidth=2]
    152 -> 52 [penwidth=2]
    69 -> 52 [penwidth=2]
    153 -> 52 [penwidth=2]
    70 -> 52 [penwidth=2]
    154 -> 52 [penwidth=2]
    71 -> 52 [penwidth=2]
    155 -> 52 [penwidth=2]
    72 -> 52 [penwidth=2]
    156 -> 52 [penwidth=2]
    73 -> 52 [penwidth=2]
    157 -> 52 [penwidth=2]
    74 -> 52 [penwidth=2]
    158 -> 52 [penwidth=2]
    75 -> 52 [penwidth=2]
    159 -> 52 [penwidth=2]
    76 -> 52 [penwidth=2]
    160 -> 52 [penwidth=2]
    77 -> 136 [penwidth=2]
    161 -> 136 [penwidth=2]
    134 -> 136 [penwidth=2]
    78 -> 136 [penwidth=2]
    162 -> 136 [penwidth=2]
    79 -> 136 [penwidth=2]
    163 -> 136 [penwidth=2]
    80 -> 136 [penwidth=2]
    164 -> 136 [penwidth=2]
    81 -> 53 [penwidth=2]
    165 -> 53 [penwidth=2]
    82 -> 53 [penwidth=2]
    166 -> 53 [penwidth=2]
    83 -> 53 [penwidth=2]
    167 -> 53 [penwidth=2]
    84 -> 53 [penwidth=2]
    168 -> 53 [penwidth=2]
    85 -> 137 [penwidth=2]
    169 -> 137 [penwidth=2]
    86 -> 137 [penwidth=2]
    170 -> 137 [penwidth=2]
    87 -> 137 [penwidth=2]
    171 -> 137 [penwidth=2]
    88 -> 137 [penwidth=2]
    172 -> 137 [penwidth=2]
    89 -> 137 [penwidth=2]
    173 -> 137 [penwidth=2]
    90 -> 137 [penwidth=2]
    174 -> 137 [penwidth=2]
    91 -> 137 [penwidth=2]
    175 -> 137 [penwidth=2]
    92 -> 137 [penwidth=2]
    176 -> 137 [penwidth=2]
    9 -> 137 [penwidth=2]
    93 -> 137 [penwidth=2]
    177 -> 54 [penwidth=2]
    10 -> 54 [penwidth=2]
    94 -> 54 [penwidth=2]
    178 -> 54 [penwidth=2]
    11 -> 54 [penwidth=2]
    95 -> 54 [penwidth=2]
    179 -> 54 [penwidth=2]
    12 -> 54 [penwidth=2]
    96 -> 54 [penwidth=2]
    180 -> 54 [penwidth=2]
    13 -> 54 [penwidth=2]
    97 -> 138 [penwidth=2]
    181 -> 138 [penwidth=2]
    14 -> 138 [penwidth=2]
    98 -> 138 [penwidth=2]
    182 -> 138 [penwidth=2]
    15 -> 138 [penwidth=2]
    99 -> 138 [penwidth=2]
    183 -> 138 [penwidth=2]
    16 -> 138 [penwidth=2]
    100 -> 138 [penwidth=2]
    184 -> 138 [penwidth=2]
    17 -> 138 [penwidth=2]
    101 -> 138 [penwidth=2]
    185 -> 138 [penwidth=2]
    18 -> 138 [penwidth=2]
    102 -> 138 [penwidth=2]
    186 -> 138 [penwidth=2]
    19 -> 138 [penwidth=2]
    103 -> 138 [penwidth=2]
    187 -> 138 [penwidth=2]
    20 -> 138 [penwidth=2]
    104 -> 138 [penwidth=2]
    188 -> 138 [penwidth=2]
    21 -> 56 [penwidth=2]
    105 -> 56 [penwidth=2]
    189 -> 56 [penwidth=2]
    22 -> 56 [penwidth=2]
    106 -> 56 [penwidth=2]
    190 -> 56 [penwidth=2]
    23 -> 56 [penwidth=2]
    107 -> 56 [penwidth=2]
    191 -> 56 [penwidth=2]
    24 -> 56 [penwidth=2]
    108 -> 56 [penwidth=2]
    192 -> 56 [penwidth=2]
    25 -> 56 [penwidth=2]
    109 -> 56 [penwidth=2]
    193 -> 140 [penwidth=2]
    26 -> 140 [penwidth=2]
    110 -> 140 [penwidth=2]
    194 -> 140 [penwidth=2]
    27 -> 140 [penwidth=2]
    111 -> 140 [penwidth=2]
    195 -> 140 [penwidth=2]
    28 -> 140 [penwidth=2]
    112 -> 140 [penwidth=2]
    196 -> 140 [penwidth=2]
    29 -> 140 [penwidth=2]
    113 -> 140 [penwidth=2]
    197 -> 140 [penwidth=2]
    30 -> 140 [penwidth=2]
    114 -> 140 [penwidth=2]
    198 -> 140 [penwidth=2]
    31 -> 140 [penwidth=2]
    115 -> 140 [penwidth=2]
    199 -> 140 [penwidth=2]
    32 -> 140 [penwidth=2]
    116 -> 140 [penwidth=2]
    200 -> 57 [penwidth=2]
    33 -> 57 [penwidth=2]
    117 -> 57 [penwidth=2]
    201 -> 57 [penwidth=2]
    34 -> 57 [penwidth=2]
    118 -> 57 [penwidth=2]
    202 -> 57 [penwidth=2]
    35 -> 57 [penwidth=2]
    119 -> 57 [penwidth=2]
    203 -> 141 [penwidth=2]
    36 -> 141 [penwidth=2]
    120 -> 141 [penwidth=2]
    204 -> 141 [penwidth=2]
    37 -> 141 [penwidth=2]
    121 -> 141 [penwidth=2]
    38 -> 141 [penwidth=2]
    122 -> 141 [penwidth=2]
    39 -> 141 [penwidth=2]
    123 -> 141 [penwidth=2]
    40 -> 141 [penwidth=2]
    124 -> 141 [penwidth=2]
    41 -> 141 [penwidth=2]
    125 -> 141 [penwidth=2]
    42 -> 141 [penwidth=2]
    126 -> 141 [penwidth=2]
    1 -> 58 [penwidth=2]
    43 -> 58 [penwidth=2]
    127 -> 58 [penwidth=2]
    2 -> 142 [penwidth=2]
    44 -> 142 [penwidth=2]
    128 -> 142 [penwidth=2]
    3 -> 142 [penwidth=2]
    45 -> 142 [penwidth=2]
    129 -> 142 [penwidth=2]
    4 -> 142 [penwidth=2]
    46 -> 142 [penwidth=2]
    130 -> 142 [penwidth=2]
    5 -> 142 [penwidth=2]
    47 -> 142 [penwidth=2]
    131 -> 142 [penwidth=2]
    6 -> 142 [penwidth=2]
    48 -> 142 [penwidth=2]
    132 -> 142 [penwidth=2]
    8 -> 142 [penwidth=2]
    7 -> 142 [penwidth=2]
    49 -> 143 [penwidth=2]
    133 -> 143 [penwidth=2]
    50 -> 143 [penwidth=2]
    140 -> 54 [penwidth=2]
    149 -> 51 [penwidth=2]
    149 -> 138 [penwidth=2]
    152 -> 51 [penwidth=2]
    75 -> 137 [penwidth=2]
    75 -> 53 [penwidth=2]
    75 -> 54 [penwidth=2]
    75 -> 138 [penwidth=2]
    75 -> 51 [penwidth=2]
    75 -> 136 [penwidth=2]
    80 -> 138 [penwidth=2]
    80 -> 51 [penwidth=2]
    80 -> 52 [penwidth=2]
    178 -> 138 [penwidth=2]
    178 -> 135 [penwidth=2]
    178 -> 136 [penwidth=2]
    178 -> 53 [penwidth=2]
    11 -> 136 [penwidth=2]
    11 -> 135 [penwidth=2]
    18 -> 52 [penwidth=2]
    18 -> 53 [penwidth=2]
    18 -> 51 [penwidth=2]
    18 -> 137 [penwidth=2]
    18 -> 135 [penwidth=2]
    104 -> 52 [penwidth=2]
    104 -> 54 [penwidth=2]
    106 -> 139 [penwidth=2]
    106 -> 16 [penwidth=2]
    106 -> 71 [penwidth=2]
    106 -> 15 [penwidth=2]
    106 -> 67 [penwidth=2]
    106 -> 93 [penwidth=2]
    106 -> 180 [penwidth=2]
    106 -> 19 [penwidth=2]
    106 -> 174 [penwidth=2]
    106 -> 168 [penwidth=2]
    106 -> 162 [penwidth=2]
    106 -> 176 [penwidth=2]
    106 -> 175 [penwidth=2]
    106 -> 70 [penwidth=2]
    106 -> 188 [penwidth=2]
    106 -> 59 [penwidth=2]
    106 -> 81 [penwidth=2]
    106 -> 140 [penwidth=2]
    106 -> 173 [penwidth=2]
    106 -> 150 [penwidth=2]
    106 -> 94 [penwidth=2]
    106 -> 145 [penwidth=2]
    106 -> 152 [penwidth=2]
    106 -> 65 [penwidth=2]
    106 -> 104 [penwidth=2]
    106 -> 88 [penwidth=2]
    106 -> 18 [penwidth=2]
    106 -> 9 [penwidth=2]
    106 -> 79 [penwidth=2]
    106 -> 11 [penwidth=2]
    106 -> 83 [penwidth=2]
    106 -> 183 [penwidth=2]
    106 -> 20 [penwidth=2]
    106 -> 103 [penwidth=2]
    106 -> 73 [penwidth=2]
    106 -> 155 [penwidth=2]
    106 -> 80 [penwidth=2]
    106 -> 17 [penwidth=2]
    106 -> 62 [penwidth=2]
    106 -> 158 [penwidth=2]
    106 -> 177 [penwidth=2]
    106 -> 13 [penwidth=2]
    106 -> 163 [penwidth=2]
    106 -> 141 [penwidth=2]
    106 -> 14 [penwidth=2]
    106 -> 99 [penwidth=2]
    106 -> 153 [penwidth=2]
    106 -> 160 [penwidth=2]
    106 -> 84 [penwidth=2]
    106 -> 154 [penwidth=2]
    106 -> 143 [penwidth=2]
    106 -> 89 [penwidth=2]
    106 -> 142 [penwidth=2]
    106 -> 157 [penwidth=2]
    106 -> 78 [penwidth=2]
    106 -> 97 [penwidth=2]
    106 -> 186 [penwidth=2]
    106 -> 74 [penwidth=2]
    106 -> 98 [penwidth=2]
    106 -> 95 [penwidth=2]
    106 -> 149 [penwidth=2]
    106 -> 187 [penwidth=2]
    106 -> 102 [penwidth=2]
    106 -> 92 [penwidth=2]
    106 -> 181 [penwidth=2]
    106 -> 12 [penwidth=2]
    106 -> 167 [penwidth=2]
    106 -> 100 [penwidth=2]
    106 -> 148 [penwidth=2]
    191 -> 66 [penwidth=2]
    191 -> 13 [penwidth=2]
    191 -> 161 [penwidth=2]
    191 -> 158 [penwidth=2]
    191 -> 172 [penwidth=2]
    197 -> 67 [penwidth=2]
    197 -> 182 [penwidth=2]
    197 -> 9 [penwidth=2]
    197 -> 187 [penwidth=2]
    197 -> 12 [penwidth=2]
    197 -> 14 [penwidth=2]
    197 -> 70 [penwidth=2]
    197 -> 146 [penwidth=2]
    197 -> 144 [penwidth=2]
    197 -> 100 [penwidth=2]
    197 -> 157 [penwidth=2]
    197 -> 60 [penwidth=2]
    197 -> 160 [penwidth=2]
    197 -> 85 [penwidth=2]
    197 -> 56 [penwidth=2]
    197 -> 66 [penwidth=2]
    197 -> 58 [penwidth=2]
    197 -> 101 [penwidth=2]
    197 -> 174 [penwidth=2]
    197 -> 188 [penwidth=2]
    197 -> 84 [penwidth=2]
    197 -> 10 [penwidth=2]
    197 -> 164 [penwidth=2]
    39 -> 62 [penwidth=2]
    39 -> 12 [penwidth=2]
    39 -> 180 [penwidth=2]
    39 -> 61 [penwidth=2]
    39 -> 147 [penwidth=2]
    39 -> 163 [penwidth=2]
    39 -> 178 [penwidth=2]
    39 -> 71 [penwidth=2]
    39 -> 15 [penwidth=2]
    39 -> 72 [penwidth=2]
    39 -> 102 [penwidth=2]
    39 -> 153 [penwidth=2]
    39 -> 77 [penwidth=2]
    39 -> 186 [penwidth=2]
    39 -> 97 [penwidth=2]
    39 -> 11 [penwidth=2]
    39 -> 20 [penwidth=2]
    39 -> 14 [penwidth=2]
    39 -> 79 [penwidth=2]
    39 -> 92 [penwidth=2]
    39 -> 173 [penwidth=2]
    39 -> 172 [penwidth=2]
    39 -> 59 [penwidth=2]
    39 -> 181 [penwidth=2]
    39 -> 70 [penwidth=2]
    39 -> 64 [penwidth=2]
    39 -> 177 [penwidth=2]
    39 -> 165 [penwidth=2]
    39 -> 66 [penwidth=2]
    39 -> 99 [penwidth=2]
    39 -> 148 [penwidth=2]
    39 -> 166 [penwidth=2]
    39 -> 93 [penwidth=2]
    39 -> 146 [penwidth=2]
    39 -> 168 [penwidth=2]
    39 -> 170 [penwidth=2]
    39 -> 56 [penwidth=2]
    39 -> 188 [penwidth=2]
    39 -> 103 [penwidth=2]
    39 -> 162 [penwidth=2]
    39 -> 134 [penwidth=2]
    39 -> 83 [penwidth=2]
    39 -> 76 [penwidth=2]
    39 -> 157 [penwidth=2]
    39 -> 10 [penwidth=2]
    39 -> 183 [penwidth=2]
    39 -> 18 [penwidth=2]
    39 -> 179 [penwidth=2]
    39 -> 144 [penwidth=2]
    39 -> 158 [penwidth=2]
    39 -> 73 [penwidth=2]
    39 -> 17 [penwidth=2]
    39 -> 78 [penwidth=2]
    39 -> 91 [penwidth=2]
    39 -> 169 [penwidth=2]
    39 -> 176 [penwidth=2]
    39 -> 13 [penwidth=2]
    42 -> 186 [penwidth=2]
    42 -> 14 [penwidth=2]
    42 -> 57 [penwidth=2]
    42 -> 177 [penwidth=2]
    42 -> 69 [penwidth=2]
    42 -> 152 [penwidth=2]
    42 -> 95 [penwidth=2]
    42 -> 166 [penwidth=2]
    42 -> 182 [penwidth=2]
    42 -> 144 [penwidth=2]
    42 -> 170 [penwidth=2]
    42 -> 10 [penwidth=2]
    42 -> 139 [penwidth=2]
    42 -> 187 [penwidth=2]
    42 -> 70 [penwidth=2]
    42 -> 172 [penwidth=2]
    42 -> 100 [penwidth=2]
    42 -> 16 [penwidth=2]
    42 -> 87 [penwidth=2]
    42 -> 163 [penwidth=2]
    42 -> 149 [penwidth=2]
    42 -> 168 [penwidth=2]
    42 -> 86 [penwidth=2]
    42 -> 15 [penwidth=2]
    42 -> 72 [penwidth=2]
    42 -> 154 [penwidth=2]
    42 -> 64 [penwidth=2]
    42 -> 62 [penwidth=2]
    42 -> 183 [penwidth=2]
    42 -> 18 [penwidth=2]
    42 -> 89 [penwidth=2]
    42 -> 145 [penwidth=2]
    42 -> 97 [penwidth=2]
    42 -> 161 [penwidth=2]
    42 -> 66 [penwidth=2]
    42 -> 184 [penwidth=2]
    42 -> 162 [penwidth=2]
    42 -> 20 [penwidth=2]
    42 -> 147 [penwidth=2]
    2 -> 164 [penwidth=2]
    2 -> 176 [penwidth=2]
    2 -> 73 [penwidth=2]
    2 -> 95 [penwidth=2]
    2 -> 184 [penwidth=2]
    2 -> 158 [penwidth=2]
    2 -> 86 [penwidth=2]
    2 -> 143 [penwidth=2]
    2 -> 144 [penwidth=2]
    2 -> 151 [penwidth=2]
    2 -> 150 [penwidth=2]
    2 -> 19 [penwidth=2]
    2 -> 75 [penwidth=2]
    2 -> 81 [penwidth=2]
    2 -> 162 [penwidth=2]
    2 -> 99 [penwidth=2]
    2 -> 83 [penwidth=2]
    2 -> 170 [penwidth=2]
    2 -> 179 [penwidth=2]
    2 -> 168 [penwidth=2]
    2 -> 188 [penwidth=2]
    2 -> 148 [penwidth=2]
    2 -> 141 [penwidth=2]
    2 -> 97 [penwidth=2]
    128 -> 156 [penwidth=2]
    128 -> 162 [penwidth=2]
    128 -> 166 [penwidth=2]
    128 -> 76 [penwidth=2]
    128 -> 71 [penwidth=2]
    128 -> 18 [penwidth=2]
    128 -> 170 [penwidth=2]
    128 -> 85 [penwidth=2]
    128 -> 104 [penwidth=2]
    128 -> 79 [penwidth=2]
    128 -> 172 [penwidth=2]
    128 -> 70 [penwidth=2]
    128 -> 81 [penwidth=2]
    128 -> 160 [penwidth=2]
    128 -> 154 [penwidth=2]
    128 -> 63 [penwidth=2]
    128 -> 12 [penwidth=2]
    128 -> 13 [penwidth=2]
    128 -> 150 [penwidth=2]
    128 -> 74 [penwidth=2]
    128 -> 167 [penwidth=2]
    128 -> 100 [penwidth=2]
    128 -> 78 [penwidth=2]
    128 -> 68 [penwidth=2]
    128 -> 147 [penwidth=2]
    128 -> 152 [penwidth=2]
    128 -> 75 [penwidth=2]
    128 -> 184 [penwidth=2]
    128 -> 64 [penwidth=2]
    128 -> 174 [penwidth=2]
    128 -> 157 [penwidth=2]
    128 -> 83 [penwidth=2]
    128 -> 89 [penwidth=2]
    128 -> 57 [penwidth=2]
    128 -> 73 [penwidth=2]
    128 -> 145 [penwidth=2]
    128 -> 88 [penwidth=2]
    128 -> 148 [penwidth=2]
    128 -> 173 [penwidth=2]
    128 -> 168 [penwidth=2]
    128 -> 82 [penwidth=2]
    128 -> 90 [penwidth=2]
    128 -> 155 [penwidth=2]
    128 -> 182 [penwidth=2]
    128 -> 11 [penwidth=2]
    128 -> 61 [penwidth=2]
    128 -> 141 [penwidth=2]
    128 -> 175 [penwidth=2]
    128 -> 163 [penwidth=2]
    128 -> 19 [penwidth=2]
    128 -> 171 [penwidth=2]
    128 -> 165 [penwidth=2]
    128 -> 86 [penwidth=2]
    128 -> 84 [penwidth=2]
    128 -> 58 [penwidth=2]
    128 -> 134 [penwidth=2]
    128 -> 188 [penwidth=2]
    128 -> 10 [penwidth=2]
    128 -> 99 [penwidth=2]
    128 -> 181 [penwidth=2]
    128 -> 80 [penwidth=2]
    128 -> 95 [penwidth=2]
    128 -> 103 [penwidth=2]
    128 -> 98 [penwidth=2]
    128 -> 66 [penwidth=2]
    128 -> 59 [penwidth=2]
    128 -> 169 [penwidth=2]
    128 -> 151 [penwidth=2]
    128 -> 102 [penwidth=2]
    128 -> 87 [penwidth=2]
    128 -> 183 [penwidth=2]
    128 -> 62 [penwidth=2]
    128 -> 185 [penwidth=2]
    128 -> 179 [penwidth=2]
    128 -> 101 [penwidth=2]
    129 -> 91 [penwidth=2]
    129 -> 75 [penwidth=2]
    129 -> 65 [penwidth=2]
    129 -> 16 [penwidth=2]
    129 -> 56 [penwidth=2]
    129 -> 180 [penwidth=2]
    129 -> 187 [penwidth=2]
    129 -> 140 [penwidth=2]
    130 -> 56 [penwidth=2]
    130 -> 143 [penwidth=2]
    130 -> 97 [penwidth=2]
    130 -> 95 [penwidth=2]
    130 -> 100 [penwidth=2]
    130 -> 158 [penwidth=2]
    130 -> 152 [penwidth=2]
    130 -> 99 [penwidth=2]
    130 -> 161 [penwidth=2]
    130 -> 90 [penwidth=2]
    130 -> 68 [penwidth=2]
    130 -> 88 [penwidth=2]
    130 -> 87 [penwidth=2]
    130 -> 155 [penwidth=2]
    130 -> 140 [penwidth=2]
    130 -> 102 [penwidth=2]
    130 -> 16 [penwidth=2]
    130 -> 98 [penwidth=2]
    130 -> 103 [penwidth=2]
    130 -> 9 [penwidth=2]
    130 -> 74 [penwidth=2]
    130 -> 174 [penwidth=2]
    130 -> 185 [penwidth=2]
    130 -> 157 [penwidth=2]
    130 -> 71 [penwidth=2]
    130 -> 58 [penwidth=2]
    130 -> 101 [penwidth=2]
    130 -> 80 [penwidth=2]
    130 -> 104 [penwidth=2]
    130 -> 179 [penwidth=2]
    130 -> 162 [penwidth=2]
    130 -> 93 [penwidth=2]
    130 -> 75 [penwidth=2]
    130 -> 178 [penwidth=2]
    130 -> 173 [penwidth=2]
    130 -> 169 [penwidth=2]
    130 -> 73 [penwidth=2]
    130 -> 148 [penwidth=2]
    130 -> 64 [penwidth=2]
    130 -> 154 [penwidth=2]
    130 -> 182 [penwidth=2]
    130 -> 13 [penwidth=2]
    130 -> 167 [penwidth=2]
    130 -> 151 [penwidth=2]
    130 -> 96 [penwidth=2]
    130 -> 186 [penwidth=2]
    130 -> 81 [penwidth=2]
    130 -> 94 [penwidth=2]
    130 -> 176 [penwidth=2]
    130 -> 14 [penwidth=2]
    130 -> 83 [penwidth=2]
    130 -> 61 [penwidth=2]
    130 -> 172 [penwidth=2]
    130 -> 77 [penwidth=2]
    130 -> 62 [penwidth=2]
    130 -> 166 [penwidth=2]
    130 -> 78 [penwidth=2]
    130 -> 89 [penwidth=2]
    130 -> 141 [penwidth=2]
    130 -> 134 [penwidth=2]
    130 -> 149 [penwidth=2]
    130 -> 181 [penwidth=2]
    130 -> 10 [penwidth=2]
    130 -> 15 [penwidth=2]
    130 -> 159 [penwidth=2]
    130 -> 180 [penwidth=2]
    130 -> 82 [penwidth=2]
    130 -> 164 [penwidth=2]
    130 -> 20 [penwidth=2]
    130 -> 12 [penwidth=2]
    130 -> 17 [penwidth=2]
    130 -> 144 [penwidth=2]
    130 -> 177 [penwidth=2]
    130 -> 60 [penwidth=2]
    130 -> 70 [penwidth=2]
    130 -> 57 [penwidth=2]
    130 -> 188 [penwidth=2]
    130 -> 163 [penwidth=2]
    130 -> 187 [penwidth=2]
    130 -> 85 [penwidth=2]
    130 -> 165 [penwidth=2]
    130 -> 175 [penwidth=2]
    130 -> 92 [penwidth=2]
    130 -> 168 [penwidth=2]
    130 -> 84 [penwidth=2]
    130 -> 19 [penwidth=2]
    130 -> 76 [penwidth=2]
    6 -> 134 [penwidth=2]
    6 -> 166 [penwidth=2]
    6 -> 185 [penwidth=2]
    6 -> 180 [penwidth=2]
    6 -> 159 [penwidth=2]
    6 -> 76 [penwidth=2]
    6 -> 143 [penwidth=2]
    6 -> 65 [penwidth=2]
    6 -> 88 [penwidth=2]
    6 -> 147 [penwidth=2]
    6 -> 157 [penwidth=2]
    6 -> 58 [penwidth=2]
    6 -> 102 [penwidth=2]
    6 -> 62 [penwidth=2]
    6 -> 19 [penwidth=2]
    6 -> 171 [penwidth=2]
    6 -> 140 [penwidth=2]
    6 -> 146 [penwidth=2]
    6 -> 186 [penwidth=2]
    6 -> 67 [penwidth=2]
    6 -> 97 [penwidth=2]
    6 -> 83 [penwidth=2]
    6 -> 16 [penwidth=2]
    6 -> 167 [penwidth=2]
    6 -> 169 [penwidth=2]
    6 -> 12 [penwidth=2]
    6 -> 183 [penwidth=2]
    6 -> 93 [penwidth=2]
    6 -> 174 [penwidth=2]
    6 -> 61 [penwidth=2]
    6 -> 86 [penwidth=2]
    6 -> 177 [penwidth=2]
    6 -> 179 [penwidth=2]
    6 -> 161 [penwidth=2]
    6 -> 72 [penwidth=2]
    6 -> 165 [penwidth=2]
    6 -> 160 [penwidth=2]
    6 -> 79 [penwidth=2]
    6 -> 155 [penwidth=2]
    6 -> 14 [penwidth=2]
    6 -> 141 [penwidth=2]
    6 -> 90 [penwidth=2]
    6 -> 85 [penwidth=2]
    6 -> 64 [penwidth=2]
    6 -> 156 [penwidth=2]
    6 -> 81 [penwidth=2]
    6 -> 154 [penwidth=2]
    6 -> 80 [penwidth=2]
    6 -> 139 [penwidth=2]
    6 -> 73 [penwidth=2]
    6 -> 84 [penwidth=2]
    6 -> 175 [penwidth=2]
    6 -> 92 [penwidth=2]
    6 -> 168 [penwidth=2]
    6 -> 20 [penwidth=2]
    6 -> 60 [penwidth=2]
    6 -> 78 [penwidth=2]
    6 -> 98 [penwidth=2]
    6 -> 74 [penwidth=2]
    6 -> 56 [penwidth=2]
    6 -> 59 [penwidth=2]
    6 -> 144 [penwidth=2]
    6 -> 99 [penwidth=2]
    6 -> 69 [penwidth=2]
    6 -> 55 [penwidth=2]
    6 -> 188 [penwidth=2]
    6 -> 71 [penwidth=2]
    6 -> 164 [penwidth=2]
    6 -> 77 [penwidth=2]
    6 -> 70 [penwidth=2]
    6 -> 91 [penwidth=2]
    6 -> 173 [penwidth=2]
    6 -> 187 [penwidth=2]
    6 -> 57 [penwidth=2]
    6 -> 163 [penwidth=2]
    6 -> 68 [penwidth=2]
    6 -> 15 [penwidth=2]
    6 -> 172 [penwidth=2]
    6 -> 178 [penwidth=2]
    6 -> 66 [penwidth=2]
    6 -> 94 [penwidth=2]
    6 -> 13 [penwidth=2]
    6 -> 170 [penwidth=2]
    6 -> 82 [penwidth=2]
    6 -> 162 [penwidth=2]
    6 -> 63 [penwidth=2]
    6 -> 104 [penwidth=2]
    6 -> 87 [penwidth=2]
    6 -> 148 [penwidth=2]
    6 -> 149 [penwidth=2]
    6 -> 9 [penwidth=2]
    6 -> 17 [penwidth=2]
    6 -> 152 [penwidth=2]
    6 -> 153 [penwidth=2]
    6 -> 181 [penwidth=2]
    6 -> 176 [penwidth=2]
    6 -> 158 [penwidth=2]
    6 -> 103 [penwidth=2]
    6 -> 89 [penwidth=2]
}