digraph G {
    0 [penwidth=3,label="0"]
    1 [penwidth=3,label="1"]
    2 [penwidth=3,label="2"]
    3 [penwidth=3,label="3"]
    4 [penwidth=3,label="4"]
    5 [penwidth=3,label="5"]
    6 [penwidth=3,label="6"]
    7 [penwidth=3,label="7"]
    8 [penwidth=3,label="8"]
    9 [penwidth=3,label="9"]
    10 [penwidth=3,label="10"]
    11 [penwidth=3,label="11"]
    12 [penwidth=3,label="12"]
    13 [penwidth=3,label="13"]
    14 [penwidth=3,label="14"]
    15 [penwidth=3,label="15"]
    16 [penwidth=3,label="16"]
    17 [penwidth=3,label="17"]
    18 [penwidth=3,label="18"]
    19 [penwidth=3,label="19"]
    20 [penwidth=3,label="20"]
    21 [penwidth=3,label="21"]
    22 [penwidth=3,label="22"]
    23 [penwidth=3,label="23"]
    24 [penwidth=3,label="24"]
    25 [penwidth=3,label="25"]
    26 [penwidth=3,label="26"]
    27 [penwidth=3,label="27"]
    28 [penwidth=3,label="28"]
    29 [penwidth=3,label="29"]
    30 [penwidth=3,label="30"]
    31 [penwidth=3,label="31"]
    32 [penwidth=3,label="32"]
    33 [penwidth=3,label="33"]
    34 [penwidth=3,label="34"]
    35 [penwidth=3,label="35"]
    36 [penwidth=3,label="36"]
    37 [penwidth=3,label="37"]
    38 [penwidth=3,label="38"]
    39 [penwidth=3,label="39"]
    40 [penwidth=3,label="40"]
    41 [penwidth=3,label="41"]
    42 [penwidth=3,label="42"]
    43 [penwidth=3,label="43"]
    44 [penwidth=3,label="44"]
    45 [penwidth=3,label="45"]
    46 [penwidth=3,label="46"]
    47 [penwidth=3,label="47"]
    48 [penwidth=3,label="48"]
    49 [penwidth=3,label="49"]
    50 [penwidth=3,label="50"]
    51 [penwidth=3,label="51"]
    52 [penwidth=3,label="52"]
    53 [penwidth=3,label="53"]
    54 [penwidth=3,label="54"]
    55 [penwidth=3,label="55"]
    56 [penwidth=3,label="56"]
    57 [penwidth=3,label="57"]
    58 [penwidth=3,label="58"]
    59 [penwidth=3,label="59"]
    60 [penwidth=3,label="60"]
    61 [penwidth=3,label="61"]
    62 [penwidth=3,label="62"]
    63 [penwidth=3,label="63"]
    64 [penwidth=3,label="64"]
    65 [penwidth=3,label="65"]
    66 [penwidth=3,label="66"]
    67 [penwidth=3,label="67"]
    68 [penwidth=3,label="68"]
    69 [penwidth=3,label="69"]
    70 [penwidth=3,label="70"]
    71 [penwidth=3,label="71"]
    72 [penwidth=3,label="72"]
    73 [penwidth=3,label="73"]
    74 [penwidth=3,label="74"]
    75 [penwidth=3,label="75"]
    76 [penwidth=3,label="76"]
    77 [penwidth=3,label="77"]
    78 [penwidth=3,label="78"]
    79 [penwidth=3,label="79"]
    80 [penwidth=3,label="80"]
    81 [penwidth=3,label="81"]
    82 [penwidth=3,label="82"]
    83 [penwidth=3,label="83"]
    84 [penwidth=3,label="84"]
    85 [penwidth=3,label="85"]
    86 [penwidth=3,label="86"]
    87 [penwidth=3,label="87"]
    88 [penwidth=3,label="88"]
    89 [penwidth=3,label="89"]
    90 [penwidth=3,label="90"]
    91 [penwidth=3,label="91"]
    92 [penwidth=3,label="92"]
    93 [penwidth=3,label="93"]
    94 [penwidth=3,label="94"]
    95 [penwidth=3,label="95"]
    96 [penwidth=3,label="96"]
    97 [penwidth=3,label="97"]
    98 [penwidth=3,label="98"]
    99 [penwidth=3,label="99"]
    100 [penwidth=3,label="100"]
    101 [penwidth=3,label="101"]
    102 [penwidth=3,label="102"]
    103 [penwidth=3,label="103"]
    104 [penwidth=3,label="104"]
    105 [penwidth=3,label="105"]
    106 [penwidth=3,label="106"]
    107 [penwidth=3,label="107"]
    108 [penwidth=3,label="108"]
    109 [penwidth=3,label="109"]
    110 [penwidth=3,label="110"]
    111 [penwidth=3,label="111"]
    112 [penwidth=3,label="112"]
    113 [penwidth=3,label="113"]
    114 [penwidth=3,label="114"]
    115 [penwidth=3,label="115"]
    116 [penwidth=3,label="116"]
    117 [penwidth=3,label="117"]
    118 [penwidth=3,label="118"]
    119 [penwidth=3,label="119"]
    120 [penwidth=3,label="120"]
    121 [penwidth=3,label="121"]
    122 [penwidth=3,label="122"]
    123 [penwidth=3,label="123"]
    124 [penwidth=3,label="124"]
    125 [penwidth=3,label="125"]
    126 [penwidth=3,label="126"]
    127 [penwidth=3,label="127"]
    128 [penwidth=3,label="128"]
    129 [penwidth=3,label="129"]
    130 [penwidth=3,label="130"]
    131 [penwidth=3,label="131"]
    132 [penwidth=3,label="132"]
    133 [penwidth=3,label="133"]
    134 [penwidth=3,label="134"]
    135 [penwidth=3,label="135"]
    136 [penwidth=3,label="136"]
    137 [penwidth=3,label="137"]
    138 [penwidth=3,label="138"]
    139 [penwidth=3,label="139"]
    140 [penwidth=3,label="140"]
    141 [penwidth=3,label="141"]
    142 [penwidth=3,label="142"]
    143 [penwidth=3,label="143"]
    144 [penwidth=3,label="144"]
    145 [penwidth=3,label="145"]
    146 [penwidth=3,label="146"]
    147 [penwidth=3,label="147"]
    148 [penwidth=3,label="148"]
    149 [penwidth=3,label="149"]
    150 [penwidth=3,label="150"]
    151 [penwidth=3,label="151"]
    152 [penwidth=3,label="152"]
    153 [penwidth=3,label="153"]
    154 [penwidth=3,label="154"]
    155 [penwidth=3,label="155"]
    156 [penwidth=3,label="156"]
    157 [penwidth=3,label="157"]
    158 [penwidth=3,label="158"]
    159 [penwidth=3,label="159"]
    160 [penwidth=3,label="160"]
    161 [penwidth=3,label="161"]
    162 [penwidth=3,label="162"]
    163 [penwidth=3,label="163"]
    164 [penwidth=3,label="164"]
    165 [penwidth=3,label="165"]
    166 [penwidth=3,label="166"]
    167 [penwidth=3,label="167"]
    168 [penwidth=3,label="168"]
    169 [penwidth=3,label="169"]
    170 [penwidth=3,label="170"]
    171 [penwidth=3,label="171"]
    172 [penwidth=3,label="172"]
    173 [penwidth=3,label="173"]
    174 [penwidth=3,label="174"]
    175 [penwidth=3,label="175"]
    176 [penwidth=3,label="176"]
    177 [penwidth=3,label="177"]
    178 [penwidth=3,label="178"]
    179 [penwidth=3,label="179"]
    180 [penwidth=3,label="180"]
    181 [penwidth=3,label="181"]
    182 [penwidth=3,label="182"]
    183 [penwidth=3,label="183"]
    184 [penwidth=3,label="184"]
    185 [penwidth=3,label="185"]
    186 [penwidth=3,label="186"]
    187 [penwidth=3,label="187"]
    188 [penwidth=3,label="188"]
    189 [penwidth=3,label="189"]
    190 [penwidth=3,label="190"]
    191 [penwidth=3,label="191"]
    192 [penwidth=3,label="192"]
    193 [penwidth=3,label="193"]
    194 [penwidth=3,label="194"]
    195 [penwidth=3,label="195"]
    196 [penwidth=3,label="196"]
    197 [penwidth=3,label="197"]
    198 [penwidth=3,label="198"]
    199 [penwidth=3,label="199"]
    200 [penwidth=3,label="200"]
    201 [penwidth=3,label="201"]
    202 [penwidth=3,label="202"]
    203 [penwidth=3,label="203"]
    204 [penwidth=3,label="204"]

    35 -> 0 [penwidth=2]
    203 -> 0 [penwidth=2]
    36 -> 0 [penwidth=2]
    204 -> 0 [penwidth=2]
    37 -> 0 [penwidth=2]
    38 -> 0 [penwidth=2]
    39 -> 35 [penwidth=2]
    40 -> 35 [penwidth=2]
    41 -> 35 [penwidth=2]
    42 -> 35 [penwidth=2]
    1 -> 35 [penwidth=2]
    43 -> 35 [penwidth=2]
    2 -> 35 [penwidth=2]
    44 -> 35 [penwidth=2]
    3 -> 35 [penwidth=2]
    45 -> 35 [penwidth=2]
    4 -> 35 [penwidth=2]
    46 -> 35 [penwidth=2]
    5 -> 35 [penwidth=2]
    47 -> 35 [penwidth=2]
    6 -> 35 [penwidth=2]
    48 -> 35 [penwidth=2]
    7 -> 35 [penwidth=2]
    49 -> 35 [penwidth=2]
    8 -> 35 [penwidth=2]
    50 -> 35 [penwidth=2]
    9 -> 35 [penwidth=2]
    51 -> 35 [penwidth=2]
    10 -> 35 [penwidth=2]
    52 -> 35 [penwidth=2]
    11 -> 35 [penwidth=2]
    53 -> 203 [penwidth=2]
    54 -> 203 [penwidth=2]
    12 -> 36 [penwidth=2]
    55 -> 36 [penwidth=2]
    13 -> 36 [penwidth=2]
    14 -> 36 [penwidth=2]
    56 -> 36 [penwidth=2]
    15 -> 36 [penwidth=2]
    57 -> 36 [penwidth=2]
    16 -> 36 [penwidth=2]
    58 -> 36 [penwidth=2]
    17 -> 36 [penwidth=2]
    59 -> 36 [penwidth=2]
    18 -> 36 [penwidth=2]
    60 -> 36 [penwidth=2]
    19 -> 36 [penwidth=2]
    61 -> 36 [penwidth=2]
    20 -> 36 [penwidth=2]
    62 -> 36 [penwidth=2]
    21 -> 36 [penwidth=2]
    63 -> 204 [penwidth=2]
    22 -> 204 [penwidth=2]
    64 -> 204 [penwidth=2]
    23 -> 204 [penwidth=2]
    65 -> 204 [penwidth=2]
    24 -> 204 [penwidth=2]
    66 -> 204 [penwidth=2]
    25 -> 204 [penwidth=2]
    67 -> 204 [penwidth=2]
    26 -> 204 [penwidth=2]
    68 -> 204 [penwidth=2]
    27 -> 204 [penwidth=2]
    69 -> 204 [penwidth=2]
    28 -> 204 [penwidth=2]
    70 -> 204 [penwidth=2]
    29 -> 204 [penwidth=2]
    71 -> 204 [penwidth=2]
    30 -> 204 [penwidth=2]
    72 -> 204 [penwidth=2]
    31 -> 204 [penwidth=2]
    73 -> 204 [penwidth=2]
    32 -> 37 [penwidth=2]
    74 -> 37 [penwidth=2]
    75 -> 37 [penwidth=2]
    33 -> 37 [penwidth=2]
    76 -> 37 [penwidth=2]
    34 -> 37 [penwidth=2]
    77 -> 37 [penwidth=2]
    119 -> 37 [penwidth=2]
    161 -> 37 [penwidth=2]
    78 -> 38 [penwidth=2]
    120 -> 38 [penwidth=2]
    162 -> 39 [penwidth=2]
    79 -> 39 [penwidth=2]
    121 -> 39 [penwidth=2]
    163 -> 39 [penwidth=2]
    80 -> 39 [penwidth=2]
    122 -> 39 [penwidth=2]
    164 -> 39 [penwidth=2]
    81 -> 39 [penwidth=2]
    123 -> 39 [penwidth=2]
    165 -> 39 [penwidth=2]
    82 -> 39 [penwidth=2]
    124 -> 39 [penwidth=2]
    166 -> 39 [penwidth=2]
    83 -> 39 [penwidth=2]
    125 -> 39 [penwidth=2]
    167 -> 39 [penwidth=2]
    84 -> 39 [penwidth=2]
    126 -> 40 [penwidth=2]
    168 -> 40 [penwidth=2]
    85 -> 40 [penwidth=2]
    127 -> 40 [penwidth=2]
    169 -> 41 [penwidth=2]
    86 -> 41 [penwidth=2]
    128 -> 41 [penwidth=2]
    170 -> 41 [penwidth=2]
    87 -> 41 [penwidth=2]
    129 -> 41 [penwidth=2]
    171 -> 41 [penwidth=2]
    88 -> 41 [penwidth=2]
    130 -> 41 [penwidth=2]
    172 -> 41 [penwidth=2]
    89 -> 41 [penwidth=2]
    131 -> 41 [penwidth=2]
    173 -> 41 [penwidth=2]
    159 -> 41 [penwidth=2]
    90 -> 41 [penwidth=2]
    132 -> 41 [penwidth=2]
    174 -> 41 [penwidth=2]
    91 -> 41 [penwidth=2]
    133 -> 41 [penwidth=2]
    175 -> 41 [penwidth=2]
    92 -> 41 [penwidth=2]
    134 -> 41 [penwidth=2]
    176 -> 41 [penwidth=2]
    93 -> 41 [penwidth=2]
    135 -> 41 [penwidth=2]
    177 -> 42 [penwidth=2]
    94 -> 42 [penwidth=2]
    136 -> 42 [penwidth=2]
    178 -> 1 [penwidth=2]
    160 -> 1 [penwidth=2]
    95 -> 1 [penwidth=2]
    137 -> 43 [penwidth=2]
    179 -> 43 [penwidth=2]
    96 -> 43 [penwidth=2]
    138 -> 43 [penwidth=2]
    180 -> 43 [penwidth=2]
    97 -> 43 [penwidth=2]
    139 -> 43 [penwidth=2]
    181 -> 2 [penwidth=2]
    98 -> 2 [penwidth=2]
    140 -> 2 [penwidth=2]
    182 -> 44 [penwidth=2]
    99 -> 44 [penwidth=2]
    141 -> 44 [penwidth=2]
    183 -> 44 [penwidth=2]
    100 -> 44 [penwidth=2]
    142 -> 44 [penwidth=2]
    184 -> 44 [penwidth=2]
    201 -> 44 [penwidth=2]
    101 -> 3 [penwidth=2]
    143 -> 3 [penwidth=2]
    185 -> 3 [penwidth=2]
    102 -> 3 [penwidth=2]
    144 -> 3 [penwidth=2]
    186 -> 3 [penwidth=2]
    103 -> 3 [penwidth=2]
    145 -> 3 [penwidth=2]
    187 -> 3 [penwidth=2]
    104 -> 3 [penwidth=2]
    146 -> 3 [penwidth=2]
    188 -> 3 [penwidth=2]
    105 -> 3 [penwidth=2]
    147 -> 4 [penwidth=2]
    189 -> 4 [penwidth=2]
    202 -> 4 [penwidth=2]
    106 -> 4 [penwidth=2]
    148 -> 4 [penwidth=2]
    190 -> 4 [penwidth=2]
    107 -> 4 [penwidth=2]
    149 -> 4 [penwidth=2]
    191 -> 4 [penwidth=2]
    108 -> 4 [penwidth=2]
    150 -> 4 [penwidth=2]
    192 -> 4 [penwidth=2]
    109 -> 4 [penwidth=2]
    151 -> 4 [penwidth=2]
    193 -> 4 [penwidth=2]
    110 -> 4 [penwidth=2]
    152 -> 4 [penwidth=2]
    194 -> 4 [penwidth=2]
    111 -> 4 [penwidth=2]
    153 -> 4 [penwidth=2]
    195 -> 4 [penwidth=2]
    112 -> 4 [penwidth=2]
    154 -> 4 [penwidth=2]
    196 -> 46 [penwidth=2]
    113 -> 46 [penwidth=2]
    155 -> 46 [penwidth=2]
    197 -> 5 [penwidth=2]
    114 -> 5 [penwidth=2]
    156 -> 5 [penwidth=2]
    198 -> 5 [penwidth=2]
    115 -> 5 [penwidth=2]
    157 -> 5 [penwidth=2]
    199 -> 5 [penwidth=2]
    116 -> 5 [penwidth=2]
    158 -> 5 [penwidth=2]
    200 -> 5 [penwidth=2]
    117 -> 5 [penwidth=2]
    118 -> 5 [penwidth=2]
    24 -> 35 [penwidth=2]
    25 -> 36 [penwidth=2]
    25 -> 203 [penwidth=2]
    25 -> 38 [penwidth=2]
    71 -> 37 [penwidth=2]
    162 -> 53 [penwidth=2]
    162 -> 49 [penwidth=2]
    162 -> 12 [penwidth=2]
    162 -> 64 [penwidth=2]
    162 -> 13 [penwidth=2]
    162 -> 74 [penwidth=2]
    162 -> 45 [penwidth=2]
    162 -> 1 [penwidth=2]
    162 -> 69 [penwidth=2]
    162 -> 23 [penwidth=2]
    162 -> 9 [penwidth=2]
    162 -> 4 [penwidth=2]
    162 -> 50 [penwidth=2]
    162 -> 15 [penwidth=2]
    162 -> 51 [penwidth=2]
    162 -> 42 [penwidth=2]
    162 -> 71 [penwidth=2]
    162 -> 72 [penwidth=2]
    162 -> 55 [penwidth=2]
    162 -> 29 [penwidth=2]
    162 -> 59 [penwidth=2]
    162 -> 11 [penwidth=2]
    162 -> 70 [penwidth=2]
    162 -> 43 [penwidth=2]
    162 -> 161 [penwidth=2]
    162 -> 10 [penwidth=2]
    162 -> 7 [penwidth=2]
    162 -> 57 [penwidth=2]
    162 -> 20 [penwidth=2]
    162 -> 44 [penwidth=2]
    162 -> 54 [penwidth=2]
    162 -> 77 [penwidth=2]
    162 -> 2 [penwidth=2]
    162 -> 3 [penwidth=2]
    162 -> 16 [penwidth=2]
    162 -> 25 [penwidth=2]
    162 -> 75 [penwidth=2]
    162 -> 24 [penwidth=2]
    162 -> 52 [penwidth=2]
    162 -> 46 [penwidth=2]
    162 -> 30 [penwidth=2]
    162 -> 61 [penwidth=2]
    162 -> 47 [penwidth=2]
    162 -> 26 [penwidth=2]
    162 -> 66 [penwidth=2]
    162 -> 56 [penwidth=2]
    162 -> 41 [penwidth=2]
    162 -> 21 [penwidth=2]
    162 -> 31 [penwidth=2]
    162 -> 48 [penwidth=2]
    162 -> 63 [penwidth=2]
    162 -> 22 [penwidth=2]
    81 -> 61 [penwidth=2]
    81 -> 3 [penwidth=2]
    81 -> 48 [penwidth=2]
    81 -> 120 [penwidth=2]
    81 -> 29 [penwidth=2]
    81 -> 47 [penwidth=2]
    81 -> 63 [penwidth=2]
    81 -> 2 [penwidth=2]
    81 -> 14 [penwidth=2]
    81 -> 25 [penwidth=2]
    81 -> 64 [penwidth=2]
    81 -> 12 [penwidth=2]
    81 -> 15 [penwidth=2]
    81 -> 75 [penwidth=2]
    81 -> 1 [penwidth=2]
    81 -> 41 [penwidth=2]
    81 -> 62 [penwidth=2]
    81 -> 24 [penwidth=2]
    81 -> 13 [penwidth=2]
    81 -> 26 [penwidth=2]
    81 -> 5 [penwidth=2]
    81 -> 10 [penwidth=2]
    81 -> 33 [penwidth=2]
    81 -> 65 [penwidth=2]
    81 -> 17 [penwidth=2]
    81 -> 31 [penwidth=2]
    81 -> 40 [penwidth=2]
    81 -> 11 [penwidth=2]
    81 -> 70 [penwidth=2]
    81 -> 76 [penwidth=2]
    81 -> 77 [penwidth=2]
    81 -> 161 [penwidth=2]
    81 -> 34 [penwidth=2]
    81 -> 28 [penwidth=2]
    81 -> 59 [penwidth=2]
    81 -> 23 [penwidth=2]
    81 -> 51 [penwidth=2]
    81 -> 44 [penwidth=2]
    81 -> 27 [penwidth=2]
    81 -> 21 [penwidth=2]
    81 -> 60 [penwidth=2]
    81 -> 20 [penwidth=2]
    81 -> 56 [penwidth=2]
    81 -> 16 [penwidth=2]
    81 -> 57 [penwidth=2]
    81 -> 52 [penwidth=2]
    81 -> 46 [penwidth=2]
    81 -> 49 [penwidth=2]
    81 -> 53 [penwidth=2]
    81 -> 74 [penwidth=2]
    81 -> 69 [penwidth=2]
    81 -> 7 [penwidth=2]
    81 -> 119 [penwidth=2]
    81 -> 4 [penwidth=2]
    81 -> 67 [penwidth=2]
    81 -> 8 [penwidth=2]
    81 -> 22 [penwidth=2]
    81 -> 55 [penwidth=2]
    81 -> 71 [penwidth=2]
    81 -> 66 [penwidth=2]
    81 -> 32 [penwidth=2]
    81 -> 54 [penwidth=2]
    81 -> 19 [penwidth=2]
    81 -> 6 [penwidth=2]
    81 -> 9 [penwidth=2]
    81 -> 78 [penwidth=2]
    81 -> 73 [penwidth=2]
    81 -> 72 [penwidth=2]
    81 -> 68 [penwidth=2]
    81 -> 43 [penwidth=2]
    81 -> 50 [penwidth=2]
    81 -> 58 [penwidth=2]
    81 -> 42 [penwidth=2]
    81 -> 30 [penwidth=2]
    123 -> 33 [penwidth=2]
    123 -> 11 [penwidth=2]
    123 -> 16 [penwidth=2]
    123 -> 41 [penwidth=2]
    123 -> 42 [penwidth=2]
    123 -> 18 [penwidth=2]
    123 -> 77 [penwidth=2]
    123 -> 45 [penwidth=2]
    123 -> 44 [penwidth=2]
    123 -> 5 [penwidth=2]
    123 -> 10 [penwidth=2]
    123 -> 34 [penwidth=2]
    123 -> 7 [penwidth=2]
    123 -> 15 [penwidth=2]
    123 -> 55 [penwidth=2]
    123 -> 43 [penwidth=2]
    123 -> 50 [penwidth=2]
    123 -> 63 [penwidth=2]
    123 -> 4 [penwidth=2]
    123 -> 68 [penwidth=2]
    123 -> 13 [penwidth=2]
    123 -> 64 [penwidth=2]
    123 -> 17 [penwidth=2]
    123 -> 6 [penwidth=2]
    165 -> 62 [penwidth=2]
    165 -> 12 [penwidth=2]
    165 -> 161 [penwidth=2]
    165 -> 14 [penwidth=2]
    165 -> 11 [penwidth=2]
    165 -> 26 [penwidth=2]
    165 -> 64 [penwidth=2]
    165 -> 4 [penwidth=2]
    165 -> 76 [penwidth=2]
    165 -> 8 [penwidth=2]
    165 -> 66 [penwidth=2]
    165 -> 20 [penwidth=2]
    165 -> 16 [penwidth=2]
    165 -> 77 [penwidth=2]
    165 -> 18 [penwidth=2]
    165 -> 40 [penwidth=2]
    165 -> 60 [penwidth=2]
    165 -> 119 [penwidth=2]
    125 -> 16 [penwidth=2]
    125 -> 3 [penwidth=2]
    125 -> 56 [penwidth=2]
    125 -> 27 [penwidth=2]
    125 -> 72 [penwidth=2]
    125 -> 64 [penwidth=2]
    125 -> 74 [penwidth=2]
    169 -> 69 [penwidth=2]
    169 -> 11 [penwidth=2]
    172 -> 60 [penwidth=2]
    172 -> 120 [penwidth=2]
    172 -> 57 [penwidth=2]
    172 -> 11 [penwidth=2]
    172 -> 61 [penwidth=2]
    172 -> 76 [penwidth=2]
    172 -> 17 [penwidth=2]
    172 -> 73 [penwidth=2]
    172 -> 48 [penwidth=2]
    172 -> 72 [penwidth=2]
    172 -> 16 [penwidth=2]
    172 -> 5 [penwidth=2]
    172 -> 77 [penwidth=2]
    172 -> 50 [penwidth=2]
    172 -> 9 [penwidth=2]
    172 -> 33 [penwidth=2]
    172 -> 75 [penwidth=2]
    172 -> 58 [penwidth=2]
    172 -> 6 [penwidth=2]
    172 -> 34 [penwidth=2]
    172 -> 59 [penwidth=2]
    172 -> 3 [penwidth=2]
    172 -> 54 [penwidth=2]
    172 -> 44 [penwidth=2]
    172 -> 22 [penwidth=2]
    172 -> 4 [penwidth=2]
    172 -> 19 [penwidth=2]
    175 -> 7 [penwidth=2]
    175 -> 48 [penwidth=2]
    99 -> 32 [penwidth=2]
    99 -> 7 [penwidth=2]
    99 -> 11 [penwidth=2]
    99 -> 27 [penwidth=2]
    99 -> 2 [penwidth=2]
    99 -> 57 [penwidth=2]
    99 -> 72 [penwidth=2]
    99 -> 56 [penwidth=2]
    99 -> 30 [penwidth=2]
    99 -> 120 [penwidth=2]
    99 -> 70 [penwidth=2]
    99 -> 53 [penwidth=2]
    99 -> 63 [penwidth=2]
    99 -> 47 [penwidth=2]
    99 -> 41 [penwidth=2]
    99 -> 8 [penwidth=2]
    99 -> 26 [penwidth=2]
    99 -> 69 [penwidth=2]
    99 -> 45 [penwidth=2]
    99 -> 12 [penwidth=2]
    99 -> 66 [penwidth=2]
    99 -> 25 [penwidth=2]
    99 -> 43 [penwidth=2]
    99 -> 74 [penwidth=2]
    99 -> 17 [penwidth=2]
    99 -> 73 [penwidth=2]
    99 -> 28 [penwidth=2]
    99 -> 33 [penwidth=2]
    99 -> 51 [penwidth=2]
    99 -> 18 [penwidth=2]
    99 -> 22 [penwidth=2]
    99 -> 40 [penwidth=2]
    99 -> 39 [penwidth=2]
    99 -> 4 [penwidth=2]
    99 -> 50 [penwidth=2]
    99 -> 60 [penwidth=2]
    99 -> 76 [penwidth=2]
    99 -> 48 [penwidth=2]
    99 -> 3 [penwidth=2]
    99 -> 65 [penwidth=2]
    99 -> 58 [penwidth=2]
    99 -> 46 [penwidth=2]
    99 -> 67 [penwidth=2]
    99 -> 78 [penwidth=2]
    99 -> 15 [penwidth=2]
    99 -> 34 [penwidth=2]
    99 -> 23 [penwidth=2]
    99 -> 54 [penwidth=2]
    99 -> 75 [penwidth=2]
    99 -> 161 [penwidth=2]
    185 -> 18 [penwidth=2]
    185 -> 16 [penwidth=2]
    185 -> 2 [penwidth=2]
    185 -> 64 [penwidth=2]
    185 -> 24 [penwidth=2]
    185 -> 61 [penwidth=2]
    185 -> 4 [penwidth=2]
    185 -> 78 [penwidth=2]
    185 -> 57 [penwidth=2]
    185 -> 56 [penwidth=2]
    185 -> 7 [penwidth=2]
    185 -> 12 [penwidth=2]
    185 -> 120 [penwidth=2]
    185 -> 19 [penwidth=2]
    185 -> 26 [penwidth=2]
    185 -> 13 [penwidth=2]
    185 -> 11 [penwidth=2]
    185 -> 63 [penwidth=2]
    185 -> 65 [penwidth=2]
    185 -> 9 [penwidth=2]
    185 -> 69 [penwidth=2]
    185 -> 21 [penwidth=2]
    185 -> 29 [penwidth=2]
    185 -> 39 [penwidth=2]
    185 -> 43 [penwidth=2]
    185 -> 14 [penwidth=2]
    185 -> 1 [penwidth=2]
    185 -> 25 [penwidth=2]
    185 -> 77 [penwidth=2]
    185 -> 15 [penwidth=2]
    185 -> 31 [penwidth=2]
    185 -> 76 [penwidth=2]
    185 -> 5 [penwidth=2]
    185 -> 40 [penwidth=2]
    185 -> 22 [penwidth=2]
    185 -> 49 [penwidth=2]
    185 -> 161 [penwidth=2]
    185 -> 68 [penwidth=2]
    185 -> 73 [penwidth=2]
    185 -> 71 [penwidth=2]
    185 -> 62 [penwidth=2]
    185 -> 27 [penwidth=2]
    185 -> 28 [penwidth=2]
    185 -> 50 [penwidth=2]
    185 -> 70 [penwidth=2]
    185 -> 41 [penwidth=2]
    185 -> 52 [penwidth=2]
    185 -> 20 [penwidth=2]
    185 -> 47 [penwidth=2]
    185 -> 74 [penwidth=2]
    185 -> 10 [penwidth=2]
    185 -> 66 [penwidth=2]
    185 -> 51 [penwidth=2]
    185 -> 67 [penwidth=2]
    185 -> 32 [penwidth=2]
    185 -> 33 [penwidth=2]
    185 -> 34 [penwidth=2]
    185 -> 23 [penwidth=2]
    185 -> 46 [penwidth=2]
    185 -> 44 [penwidth=2]
    185 -> 55 [penwidth=2]
    144 -> 72 [penwidth=2]
    144 -> 65 [penwidth=2]
    144 -> 70 [penwidth=2]
    144 -> 63 [penwidth=2]
    144 -> 59 [penwidth=2]
    144 -> 12 [penwidth=2]
    144 -> 5 [penwidth=2]
    144 -> 78 [penwidth=2]
    144 -> 24 [penwidth=2]
    144 -> 40 [penwidth=2]
    144 -> 77 [penwidth=2]
    144 -> 11 [penwidth=2]
    144 -> 43 [penwidth=2]
    144 -> 60 [penwidth=2]
    144 -> 16 [penwidth=2]
    144 -> 69 [penwidth=2]
    144 -> 71 [penwidth=2]
    144 -> 6 [penwidth=2]
    144 -> 25 [penwidth=2]
    144 -> 44 [penwidth=2]
    144 -> 1 [penwidth=2]
    144 -> 9 [penwidth=2]
    144 -> 15 [penwidth=2]
    144 -> 20 [penwidth=2]
    144 -> 17 [penwidth=2]
    144 -> 56 [penwidth=2]
    144 -> 47 [penwidth=2]
    144 -> 10 [penwidth=2]
    144 -> 42 [penwidth=2]
    144 -> 75 [penwidth=2]
    144 -> 39 [penwidth=2]
    144 -> 53 [penwidth=2]
    144 -> 41 [penwidth=2]
    144 -> 49 [penwidth=2]
    144 -> 64 [penwidth=2]
    144 -> 18 [penwidth=2]
    144 -> 28 [penwidth=2]
    144 -> 7 [penwidth=2]
    144 -> 120 [penwidth=2]
    144 -> 19 [penwidth=2]
    144 -> 34 [penwidth=2]
    144 -> 74 [penwidth=2]
    144 -> 57 [penwidth=2]
    144 -> 26 [penwidth=2]
    144 -> 8 [penwidth=2]
    144 -> 50 [penwidth=2]
    144 -> 55 [penwidth=2]
    144 -> 76 [penwidth=2]
    144 -> 14 [penwidth=2]
    144 -> 13 [penwidth=2]
    144 -> 22 [penwidth=2]
    144 -> 2 [penwidth=2]
    144 -> 61 [penwidth=2]
    144 -> 62 [penwidth=2]
    144 -> 119 [penwidth=2]
    144 -> 58 [penwidth=2]
    144 -> 68 [penwidth=2]
    144 -> 48 [penwidth=2]
    144 -> 161 [penwidth=2]
    144 -> 32 [penwidth=2]
    144 -> 23 [penwidth=2]
    144 -> 27 [penwidth=2]
    144 -> 51 [penwidth=2]
    144 -> 52 [penwidth=2]
    144 -> 54 [penwidth=2]
    144 -> 66 [penwidth=2]
    144 -> 21 [penwidth=2]
    144 -> 4 [penwidth=2]
    144 -> 31 [penwidth=2]
    144 -> 67 [penwidth=2]
    144 -> 29 [penwidth=2]
    144 -> 45 [penwidth=2]
    144 -> 46 [penwidth=2]
    151 -> 7 [penwidth=2]
    151 -> 31 [penwidth=2]
    151 -> 43 [penwidth=2]
    151 -> 5 [penwidth=2]
    151 -> 65 [penwidth=2]
    151 -> 45 [penwidth=2]
    151 -> 6 [penwidth=2]
    151 -> 23 [penwidth=2]
    151 -> 66 [penwidth=2]
    151 -> 51 [penwidth=2]
    151 -> 75 [penwidth=2]
    151 -> 52 [penwidth=2]
    151 -> 44 [penwidth=2]
    151 -> 9 [penwidth=2]
    151 -> 161 [penwidth=2]
    151 -> 72 [penwidth=2]
    151 -> 18 [penwidth=2]
    151 -> 70 [penwidth=2]
    151 -> 61 [penwidth=2]
    151 -> 76 [penwidth=2]
    151 -> 50 [penwidth=2]
    151 -> 19 [penwidth=2]
    151 -> 24 [penwidth=2]
    151 -> 34 [penwidth=2]
    151 -> 58 [penwidth=2]
    151 -> 29 [penwidth=2]
    151 -> 22 [penwidth=2]
    151 -> 62 [penwidth=2]
    151 -> 69 [penwidth=2]
    151 -> 71 [penwidth=2]
    151 -> 54 [penwidth=2]
    151 -> 55 [penwidth=2]
    151 -> 56 [penwidth=2]
    151 -> 12 [penwidth=2]
    151 -> 120 [penwidth=2]
    151 -> 48 [penwidth=2]
    151 -> 33 [penwidth=2]
    151 -> 28 [penwidth=2]
    111 -> 57 [penwidth=2]
    111 -> 28 [penwidth=2]
    111 -> 52 [penwidth=2]
    111 -> 31 [penwidth=2]
    111 -> 62 [penwidth=2]
    111 -> 30 [penwidth=2]
    111 -> 51 [penwidth=2]
    111 -> 119 [penwidth=2]
    111 -> 40 [penwidth=2]
    111 -> 161 [penwidth=2]
    111 -> 74 [penwidth=2]
    111 -> 11 [penwidth=2]
    111 -> 27 [penwidth=2]
    111 -> 47 [penwidth=2]
    111 -> 120 [penwidth=2]
    111 -> 33 [penwidth=2]
    111 -> 12 [penwidth=2]
    111 -> 60 [penwidth=2]
    111 -> 2 [penwidth=2]
    111 -> 21 [penwidth=2]
    111 -> 39 [penwidth=2]
    111 -> 53 [penwidth=2]
    111 -> 49 [penwidth=2]
    111 -> 75 [penwidth=2]
    111 -> 10 [penwidth=2]
    111 -> 7 [penwidth=2]
    111 -> 43 [penwidth=2]
    111 -> 45 [penwidth=2]
    111 -> 25 [penwidth=2]
    111 -> 59 [penwidth=2]
    111 -> 32 [penwidth=2]
    111 -> 46 [penwidth=2]
    111 -> 26 [penwidth=2]
    111 -> 44 [penwidth=2]
    111 -> 69 [penwidth=2]
    111 -> 56 [penwidth=2]
    111 -> 20 [penwidth=2]
    111 -> 61 [penwidth=2]
    111 -> 24 [penwidth=2]
    111 -> 65 [penwidth=2]
    111 -> 34 [penwidth=2]
    197 -> 8 [penwidth=2]
    197 -> 55 [penwidth=2]
    197 -> 120 [penwidth=2]
    197 -> 44 [penwidth=2]
    197 -> 60 [penwidth=2]
    197 -> 16 [penwidth=2]
    197 -> 1 [penwidth=2]
    197 -> 34 [penwidth=2]
    197 -> 62 [penwidth=2]
    197 -> 47 [penwidth=2]
    197 -> 76 [penwidth=2]
    197 -> 19 [penwidth=2]
    197 -> 6 [penwidth=2]
    197 -> 40 [penwidth=2]
    197 -> 51 [penwidth=2]
    197 -> 25 [penwidth=2]
    197 -> 50 [penwidth=2]
    197 -> 45 [penwidth=2]
    197 -> 26 [penwidth=2]
    197 -> 31 [penwidth=2]
    197 -> 119 [penwidth=2]
    197 -> 75 [penwidth=2]
    197 -> 64 [penwidth=2]
    197 -> 24 [penwidth=2]
    197 -> 74 [penwidth=2]
    197 -> 14 [penwidth=2]
    197 -> 71 [penwidth=2]
    197 -> 7 [penwidth=2]
    197 -> 67 [penwidth=2]
    197 -> 56 [penwidth=2]
    197 -> 49 [penwidth=2]
    197 -> 73 [penwidth=2]
    197 -> 43 [penwidth=2]
    197 -> 58 [penwidth=2]
    197 -> 2 [penwidth=2]
    197 -> 13 [penwidth=2]
    197 -> 78 [penwidth=2]
    197 -> 18 [penwidth=2]
    197 -> 17 [penwidth=2]
    197 -> 23 [penwidth=2]
    197 -> 57 [penwidth=2]
    197 -> 21 [penwidth=2]
    197 -> 42 [penwidth=2]
    197 -> 41 [penwidth=2]
    197 -> 15 [penwidth=2]
    197 -> 3 [penwidth=2]
    197 -> 11 [penwidth=2]
    197 -> 12 [penwidth=2]
    197 -> 61 [penwidth=2]
    197 -> 68 [penwidth=2]
    197 -> 59 [penwidth=2]
    197 -> 30 [penwidth=2]
    197 -> 32 [penwidth=2]
    197 -> 72 [penwidth=2]
}