digraph G {
    0 [penwidth=3,label="0"]
    1 [penwidth=3,label="1"]
    2 [penwidth=3,label="2"]
    3 [penwidth=3,label="3"]
    4 [penwidth=3,label="4"]
    5 [penwidth=3,label="5"]
    6 [penwidth=3,label="6"]
    7 [penwidth=3,label="7"]
    8 [penwidth=3,label="8"]
    9 [penwidth=3,label="9"]
    10 [penwidth=3,label="10"]
    11 [penwidth=3,label="11"]
    12 [penwidth=3,label="12"]
    13 [penwidth=3,label="13"]
    14 [penwidth=3,label="14"]
    15 [penwidth=3,label="15"]
    16 [penwidth=3,label="16"]
    17 [penwidth=3,label="17"]
    18 [penwidth=3,label="18"]
    19 [penwidth=3,label="19"]
    20 [penwidth=3,label="20"]
    21 [penwidth=3,label="21"]
    22 [penwidth=3,label="22"]
    23 [penwidth=3,label="23"]
    24 [penwidth=3,label="24"]
    25 [penwidth=3,label="25"]
    26 [penwidth=3,label="26"]
    27 [penwidth=3,label="27"]
    28 [penwidth=3,label="28"]
    29 [penwidth=3,label="29"]
    30 [penwidth=3,label="30"]
    31 [penwidth=3,label="31"]
    32 [penwidth=3,label="32"]
    33 [penwidth=3,label="33"]
    34 [penwidth=3,label="34"]
    35 [penwidth=3,label="35"]
    36 [penwidth=3,label="36"]
    37 [penwidth=3,label="37"]
    38 [penwidth=3,label="38"]
    39 [penwidth=3,label="39"]
    40 [penwidth=3,label="40"]
    41 [penwidth=3,label="41"]
    42 [penwidth=3,label="42"]
    43 [penwidth=3,label="43"]
    44 [penwidth=3,label="44"]
    45 [penwidth=3,label="45"]
    46 [penwidth=3,label="46"]
    47 [penwidth=3,label="47"]
    48 [penwidth=3,label="48"]
    49 [penwidth=3,label="49"]
    50 [penwidth=3,label="50"]
    51 [penwidth=3,label="51"]
    52 [penwidth=3,label="52"]
    53 [penwidth=3,label="53"]
    54 [penwidth=3,label="54"]
    55 [penwidth=3,label="55"]
    56 [penwidth=3,label="56"]
    57 [penwidth=3,label="57"]
    58 [penwidth=3,label="58"]
    59 [penwidth=3,label="59"]
    60 [penwidth=3,label="60"]
    61 [penwidth=3,label="61"]
    62 [penwidth=3,label="62"]
    63 [penwidth=3,label="63"]
    64 [penwidth=3,label="64"]
    65 [penwidth=3,label="65"]
    66 [penwidth=3,label="66"]
    67 [penwidth=3,label="67"]
    68 [penwidth=3,label="68"]
    69 [penwidth=3,label="69"]
    70 [penwidth=3,label="70"]
    71 [penwidth=3,label="71"]
    72 [penwidth=3,label="72"]
    73 [penwidth=3,label="73"]
    74 [penwidth=3,label="74"]
    75 [penwidth=3,label="75"]
    76 [penwidth=3,label="76"]
    77 [penwidth=3,label="77"]
    78 [penwidth=3,label="78"]
    79 [penwidth=3,label="79"]
    80 [penwidth=3,label="80"]
    81 [penwidth=3,label="81"]
    82 [penwidth=3,label="82"]
    83 [penwidth=3,label="83"]
    84 [penwidth=3,label="84"]
    85 [penwidth=3,label="85"]
    86 [penwidth=3,label="86"]
    87 [penwidth=3,label="87"]
    88 [penwidth=3,label="88"]
    89 [penwidth=3,label="89"]
    90 [penwidth=3,label="90"]
    91 [penwidth=3,label="91"]
    92 [penwidth=3,label="92"]
    93 [penwidth=3,label="93"]
    94 [penwidth=3,label="94"]
    95 [penwidth=3,label="95"]
    96 [penwidth=3,label="96"]
    97 [penwidth=3,label="97"]
    98 [penwidth=3,label="98"]
    99 [penwidth=3,label="99"]
    100 [penwidth=3,label="100"]
    101 [penwidth=3,label="101"]
    102 [penwidth=3,label="102"]
    103 [penwidth=3,label="103"]
    104 [penwidth=3,label="104"]
    105 [penwidth=3,label="105"]
    106 [penwidth=3,label="106"]
    107 [penwidth=3,label="107"]
    108 [penwidth=3,label="108"]
    109 [penwidth=3,label="109"]
    110 [penwidth=3,label="110"]
    111 [penwidth=3,label="111"]
    112 [penwidth=3,label="112"]
    113 [penwidth=3,label="113"]
    114 [penwidth=3,label="114"]
    115 [penwidth=3,label="115"]
    116 [penwidth=3,label="116"]
    117 [penwidth=3,label="117"]
    118 [penwidth=3,label="118"]
    119 [penwidth=3,label="119"]
    120 [penwidth=3,label="120"]
    121 [penwidth=3,label="121"]
    122 [penwidth=3,label="122"]
    123 [penwidth=3,label="123"]
    124 [penwidth=3,label="124"]
    125 [penwidth=3,label="125"]
    126 [penwidth=3,label="126"]
    127 [penwidth=3,label="127"]
    128 [penwidth=3,label="128"]
    129 [penwidth=3,label="129"]
    130 [penwidth=3,label="130"]
    131 [penwidth=3,label="131"]
    132 [penwidth=3,label="132"]
    133 [penwidth=3,label="133"]
    134 [penwidth=3,label="134"]
    135 [penwidth=3,label="135"]
    136 [penwidth=3,label="136"]
    137 [penwidth=3,label="137"]
    138 [penwidth=3,label="138"]
    139 [penwidth=3,label="139"]
    140 [penwidth=3,label="140"]
    141 [penwidth=3,label="141"]
    142 [penwidth=3,label="142"]
    143 [penwidth=3,label="143"]
    144 [penwidth=3,label="144"]
    145 [penwidth=3,label="145"]
    146 [penwidth=3,label="146"]
    147 [penwidth=3,label="147"]
    148 [penwidth=3,label="148"]
    149 [penwidth=3,label="149"]
    150 [penwidth=3,label="150"]
    151 [penwidth=3,label="151"]
    152 [penwidth=3,label="152"]
    153 [penwidth=3,label="153"]
    154 [penwidth=3,label="154"]
    155 [penwidth=3,label="155"]
    156 [penwidth=3,label="156"]
    157 [penwidth=3,label="157"]
    158 [penwidth=3,label="158"]
    159 [penwidth=3,label="159"]
    160 [penwidth=3,label="160"]
    161 [penwidth=3,label="161"]
    162 [penwidth=3,label="162"]
    163 [penwidth=3,label="163"]
    164 [penwidth=3,label="164"]
    165 [penwidth=3,label="165"]
    166 [penwidth=3,label="166"]
    167 [penwidth=3,label="167"]
    168 [penwidth=3,label="168"]
    169 [penwidth=3,label="169"]
    170 [penwidth=3,label="170"]
    171 [penwidth=3,label="171"]
    172 [penwidth=3,label="172"]
    173 [penwidth=3,label="173"]
    174 [penwidth=3,label="174"]
    175 [penwidth=3,label="175"]
    176 [penwidth=3,label="176"]
    177 [penwidth=3,label="177"]
    178 [penwidth=3,label="178"]
    179 [penwidth=3,label="179"]
    180 [penwidth=3,label="180"]
    181 [penwidth=3,label="181"]
    182 [penwidth=3,label="182"]
    183 [penwidth=3,label="183"]
    184 [penwidth=3,label="184"]
    185 [penwidth=3,label="185"]
    186 [penwidth=3,label="186"]
    187 [penwidth=3,label="187"]
    188 [penwidth=3,label="188"]
    189 [penwidth=3,label="189"]
    190 [penwidth=3,label="190"]
    191 [penwidth=3,label="191"]
    192 [penwidth=3,label="192"]
    193 [penwidth=3,label="193"]
    194 [penwidth=3,label="194"]
    195 [penwidth=3,label="195"]
    196 [penwidth=3,label="196"]
    197 [penwidth=3,label="197"]
    198 [penwidth=3,label="198"]
    199 [penwidth=3,label="199"]
    200 [penwidth=3,label="200"]
    201 [penwidth=3,label="201"]
    202 [penwidth=3,label="202"]
    203 [penwidth=3,label="203"]
    204 [penwidth=3,label="204"]

    38 -> 0 [penwidth=2]
    122 -> 0 [penwidth=2]
    39 -> 0 [penwidth=2]
    123 -> 0 [penwidth=2]
    40 -> 0 [penwidth=2]
    124 -> 0 [penwidth=2]
    41 -> 0 [penwidth=2]
    125 -> 38 [penwidth=2]
    42 -> 38 [penwidth=2]
    126 -> 38 [penwidth=2]
    120 -> 38 [penwidth=2]
    43 -> 122 [penwidth=2]
    127 -> 122 [penwidth=2]
    44 -> 122 [penwidth=2]
    128 -> 122 [penwidth=2]
    45 -> 122 [penwidth=2]
    129 -> 122 [penwidth=2]
    46 -> 122 [penwidth=2]
    130 -> 122 [penwidth=2]
    47 -> 122 [penwidth=2]
    131 -> 122 [penwidth=2]
    121 -> 122 [penwidth=2]
    48 -> 122 [penwidth=2]
    132 -> 122 [penwidth=2]
    49 -> 122 [penwidth=2]
    133 -> 122 [penwidth=2]
    50 -> 122 [penwidth=2]
    134 -> 122 [penwidth=2]
    51 -> 122 [penwidth=2]
    135 -> 122 [penwidth=2]
    52 -> 122 [penwidth=2]
    136 -> 122 [penwidth=2]
    53 -> 122 [penwidth=2]
    137 -> 122 [penwidth=2]
    54 -> 122 [penwidth=2]
    138 -> 122 [penwidth=2]
    55 -> 39 [penwidth=2]
    139 -> 39 [penwidth=2]
    56 -> 39 [penwidth=2]
    140 -> 39 [penwidth=2]
    57 -> 39 [penwidth=2]
    141 -> 39 [penwidth=2]
    58 -> 39 [penwidth=2]
    142 -> 39 [penwidth=2]
    59 -> 39 [penwidth=2]
    143 -> 39 [penwidth=2]
    60 -> 39 [penwidth=2]
    144 -> 39 [penwidth=2]
    61 -> 39 [penwidth=2]
    145 -> 39 [penwidth=2]
    204 -> 39 [penwidth=2]
    62 -> 39 [penwidth=2]
    146 -> 39 [penwidth=2]
    63 -> 39 [penwidth=2]
    147 -> 39 [penwidth=2]
    64 -> 39 [penwidth=2]
    148 -> 39 [penwidth=2]
    65 -> 39 [penwidth=2]
    149 -> 39 [penwidth=2]
    66 -> 39 [penwidth=2]
    150 -> 39 [penwidth=2]
    67 -> 39 [penwidth=2]
    151 -> 123 [penwidth=2]
    68 -> 123 [penwidth=2]
    152 -> 123 [penwidth=2]
    69 -> 123 [penwidth=2]
    153 -> 123 [penwidth=2]
    70 -> 40 [penwidth=2]
    154 -> 40 [penwidth=2]
    71 -> 40 [penwidth=2]
    155 -> 40 [penwidth=2]
    72 -> 40 [penwidth=2]
    156 -> 40 [penwidth=2]
    73 -> 40 [penwidth=2]
    157 -> 40 [penwidth=2]
    74 -> 40 [penwidth=2]
    158 -> 40 [penwidth=2]
    75 -> 40 [penwidth=2]
    159 -> 40 [penwidth=2]
    76 -> 40 [penwidth=2]
    160 -> 40 [penwidth=2]
    77 -> 40 [penwidth=2]
    161 -> 40 [penwidth=2]
    78 -> 40 [penwidth=2]
    162 -> 40 [penwidth=2]
    79 -> 40 [penwidth=2]
    163 -> 40 [penwidth=2]
    80 -> 40 [penwidth=2]
    164 -> 40 [penwidth=2]
    81 -> 40 [penwidth=2]
    165 -> 41 [penwidth=2]
    82 -> 41 [penwidth=2]
    166 -> 41 [penwidth=2]
    83 -> 41 [penwidth=2]
    167 -> 41 [penwidth=2]
    84 -> 41 [penwidth=2]
    168 -> 41 [penwidth=2]
    1 -> 41 [penwidth=2]
    85 -> 41 [penwidth=2]
    169 -> 41 [penwidth=2]
    2 -> 41 [penwidth=2]
    86 -> 41 [penwidth=2]
    170 -> 41 [penwidth=2]
    3 -> 41 [penwidth=2]
    87 -> 41 [penwidth=2]
    171 -> 41 [penwidth=2]
    4 -> 41 [penwidth=2]
    88 -> 41 [penwidth=2]
    172 -> 125 [penwidth=2]
    5 -> 125 [penwidth=2]
    89 -> 125 [penwidth=2]
    173 -> 125 [penwidth=2]
    6 -> 125 [penwidth=2]
    90 -> 125 [penwidth=2]
    174 -> 125 [penwidth=2]
    7 -> 125 [penwidth=2]
    91 -> 125 [penwidth=2]
    175 -> 125 [penwidth=2]
    8 -> 125 [penwidth=2]
    92 -> 125 [penwidth=2]
    176 -> 125 [penwidth=2]
    9 -> 125 [penwidth=2]
    93 -> 125 [penwidth=2]
    177 -> 125 [penwidth=2]
    10 -> 125 [penwidth=2]
    94 -> 125 [penwidth=2]
    178 -> 125 [penwidth=2]
    11 -> 125 [penwidth=2]
    95 -> 125 [penwidth=2]
    179 -> 42 [penwidth=2]
    12 -> 42 [penwidth=2]
    96 -> 42 [penwidth=2]
    180 -> 42 [penwidth=2]
    13 -> 42 [penwidth=2]
    97 -> 42 [penwidth=2]
    181 -> 42 [penwidth=2]
    14 -> 42 [penwidth=2]
    98 -> 42 [penwidth=2]
    182 -> 42 [penwidth=2]
    15 -> 42 [penwidth=2]
    99 -> 42 [penwidth=2]
    183 -> 126 [penwidth=2]
    16 -> 126 [penwidth=2]
    100 -> 126 [penwidth=2]
    184 -> 126 [penwidth=2]
    17 -> 126 [penwidth=2]
    101 -> 126 [penwidth=2]
    185 -> 126 [penwidth=2]
    18 -> 126 [penwidth=2]
    102 -> 126 [penwidth=2]
    186 -> 126 [penwidth=2]
    19 -> 126 [penwidth=2]
    103 -> 120 [penwidth=2]
    187 -> 120 [penwidth=2]
    20 -> 120 [penwidth=2]
    104 -> 120 [penwidth=2]
    188 -> 120 [penwidth=2]
    21 -> 120 [penwidth=2]
    105 -> 120 [penwidth=2]
    189 -> 120 [penwidth=2]
    22 -> 120 [penwidth=2]
    106 -> 120 [penwidth=2]
    190 -> 120 [penwidth=2]
    23 -> 120 [penwidth=2]
    107 -> 120 [penwidth=2]
    191 -> 43 [penwidth=2]
    24 -> 43 [penwidth=2]
    108 -> 43 [penwidth=2]
    192 -> 43 [penwidth=2]
    25 -> 43 [penwidth=2]
    109 -> 43 [penwidth=2]
    193 -> 43 [penwidth=2]
    26 -> 43 [penwidth=2]
    110 -> 43 [penwidth=2]
    194 -> 43 [penwidth=2]
    27 -> 43 [penwidth=2]
    111 -> 43 [penwidth=2]
    195 -> 43 [penwidth=2]
    28 -> 43 [penwidth=2]
    112 -> 43 [penwidth=2]
    196 -> 43 [penwidth=2]
    29 -> 127 [penwidth=2]
    113 -> 44 [penwidth=2]
    197 -> 44 [penwidth=2]
    30 -> 44 [penwidth=2]
    114 -> 44 [penwidth=2]
    198 -> 44 [penwidth=2]
    31 -> 44 [penwidth=2]
    115 -> 44 [penwidth=2]
    199 -> 44 [penwidth=2]
    32 -> 44 [penwidth=2]
    116 -> 44 [penwidth=2]
    200 -> 44 [penwidth=2]
    33 -> 44 [penwidth=2]
    117 -> 44 [penwidth=2]
    201 -> 44 [penwidth=2]
    34 -> 128 [penwidth=2]
    118 -> 128 [penwidth=2]
    202 -> 128 [penwidth=2]
    35 -> 128 [penwidth=2]
    119 -> 128 [penwidth=2]
    203 -> 128 [penwidth=2]
    36 -> 128 [penwidth=2]
    37 -> 128 [penwidth=2]
    126 -> 40 [penwidth=2]
    126 -> 122 [penwidth=2]
    126 -> 124 [penwidth=2]
    130 -> 38 [penwidth=2]
    48 -> 39 [penwidth=2]
    48 -> 123 [penwidth=2]
    48 -> 38 [penwidth=2]
    48 -> 41 [penwidth=2]
    48 -> 124 [penwidth=2]
    132 -> 41 [penwidth=2]
    132 -> 124 [penwidth=2]
    132 -> 39 [penwidth=2]
    52 -> 123 [penwidth=2]
    52 -> 124 [penwidth=2]
    52 -> 39 [penwidth=2]
    52 -> 38 [penwidth=2]
    52 -> 40 [penwidth=2]
    62 -> 122 [penwidth=2]
    62 -> 40 [penwidth=2]
    62 -> 38 [penwidth=2]
    62 -> 41 [penwidth=2]
    154 -> 122 [penwidth=2]
    154 -> 124 [penwidth=2]
    154 -> 39 [penwidth=2]
    169 -> 123 [penwidth=2]
    169 -> 38 [penwidth=2]
    169 -> 40 [penwidth=2]
    169 -> 124 [penwidth=2]
    169 -> 39 [penwidth=2]
    171 -> 40 [penwidth=2]
    88 -> 123 [penwidth=2]
    88 -> 39 [penwidth=2]
    88 -> 122 [penwidth=2]
    88 -> 40 [penwidth=2]
    92 -> 171 [penwidth=2]
    92 -> 42 [penwidth=2]
    92 -> 135 [penwidth=2]
    92 -> 126 [penwidth=2]
    92 -> 47 [penwidth=2]
    92 -> 153 [penwidth=2]
    93 -> 52 [penwidth=2]
    93 -> 126 [penwidth=2]
    93 -> 85 [penwidth=2]
    93 -> 2 [penwidth=2]
    93 -> 134 [penwidth=2]
    93 -> 55 [penwidth=2]
    93 -> 152 [penwidth=2]
    93 -> 65 [penwidth=2]
    93 -> 144 [penwidth=2]
    93 -> 78 [penwidth=2]
    93 -> 77 [penwidth=2]
    93 -> 139 [penwidth=2]
    93 -> 169 [penwidth=2]
    93 -> 160 [penwidth=2]
    93 -> 127 [penwidth=2]
    93 -> 57 [penwidth=2]
    93 -> 64 [penwidth=2]
    93 -> 163 [penwidth=2]
    93 -> 86 [penwidth=2]
    93 -> 51 [penwidth=2]
    93 -> 72 [penwidth=2]
    93 -> 84 [penwidth=2]
    93 -> 135 [penwidth=2]
    93 -> 56 [penwidth=2]
    93 -> 59 [penwidth=2]
    93 -> 128 [penwidth=2]
    93 -> 155 [penwidth=2]
    93 -> 138 [penwidth=2]
    93 -> 153 [penwidth=2]
    93 -> 166 [penwidth=2]
    93 -> 42 [penwidth=2]
    93 -> 165 [penwidth=2]
    93 -> 54 [penwidth=2]
    93 -> 69 [penwidth=2]
    93 -> 132 [penwidth=2]
    93 -> 76 [penwidth=2]
    93 -> 43 [penwidth=2]
    93 -> 154 [penwidth=2]
    93 -> 140 [penwidth=2]
    93 -> 158 [penwidth=2]
    93 -> 145 [penwidth=2]
    93 -> 137 [penwidth=2]
    93 -> 204 [penwidth=2]
    93 -> 88 [penwidth=2]
    93 -> 49 [penwidth=2]
    93 -> 67 [penwidth=2]
    93 -> 46 [penwidth=2]
    93 -> 151 [penwidth=2]
    93 -> 83 [penwidth=2]
    93 -> 120 [penwidth=2]
    93 -> 133 [penwidth=2]
    93 -> 74 [penwidth=2]
    93 -> 161 [penwidth=2]
    93 -> 146 [penwidth=2]
    93 -> 62 [penwidth=2]
    93 -> 81 [penwidth=2]
    93 -> 61 [penwidth=2]
    93 -> 82 [penwidth=2]
    14 -> 156 [penwidth=2]
    14 -> 66 [penwidth=2]
    14 -> 50 [penwidth=2]
    14 -> 165 [penwidth=2]
    14 -> 76 [penwidth=2]
    14 -> 77 [penwidth=2]
    14 -> 51 [penwidth=2]
    14 -> 60 [penwidth=2]
    14 -> 170 [penwidth=2]
    14 -> 86 [penwidth=2]
    14 -> 59 [penwidth=2]
    14 -> 3 [penwidth=2]
    14 -> 153 [penwidth=2]
    14 -> 78 [penwidth=2]
    14 -> 143 [penwidth=2]
    14 -> 155 [penwidth=2]
    14 -> 139 [penwidth=2]
    14 -> 204 [penwidth=2]
    14 -> 1 [penwidth=2]
    14 -> 62 [penwidth=2]
    14 -> 142 [penwidth=2]
    14 -> 56 [penwidth=2]
    14 -> 61 [penwidth=2]
    14 -> 46 [penwidth=2]
    14 -> 47 [penwidth=2]
    14 -> 126 [penwidth=2]
    14 -> 52 [penwidth=2]
    14 -> 158 [penwidth=2]
    14 -> 80 [penwidth=2]
    14 -> 163 [penwidth=2]
    14 -> 160 [penwidth=2]
    14 -> 125 [penwidth=2]
    14 -> 54 [penwidth=2]
    14 -> 53 [penwidth=2]
    14 -> 67 [penwidth=2]
    14 -> 134 [penwidth=2]
    14 -> 64 [penwidth=2]
    14 -> 168 [penwidth=2]
    14 -> 49 [penwidth=2]
    14 -> 141 [penwidth=2]
    14 -> 120 [penwidth=2]
    14 -> 133 [penwidth=2]
    14 -> 121 [penwidth=2]
    100 -> 63 [penwidth=2]
    100 -> 137 [penwidth=2]
    100 -> 84 [penwidth=2]
    18 -> 68 [penwidth=2]
    18 -> 1 [penwidth=2]
    18 -> 135 [penwidth=2]
    18 -> 133 [penwidth=2]
    18 -> 66 [penwidth=2]
    18 -> 85 [penwidth=2]
    18 -> 54 [penwidth=2]
    18 -> 59 [penwidth=2]
    18 -> 143 [penwidth=2]
    18 -> 128 [penwidth=2]
    18 -> 125 [penwidth=2]
    18 -> 158 [penwidth=2]
    18 -> 146 [penwidth=2]
    18 -> 47 [penwidth=2]
    18 -> 130 [penwidth=2]
    18 -> 167 [penwidth=2]
    18 -> 76 [penwidth=2]
    18 -> 140 [penwidth=2]
    18 -> 74 [penwidth=2]
    18 -> 148 [penwidth=2]
    18 -> 58 [penwidth=2]
    18 -> 154 [penwidth=2]
    18 -> 137 [penwidth=2]
    18 -> 162 [penwidth=2]
    18 -> 138 [penwidth=2]
    18 -> 131 [penwidth=2]
    18 -> 2 [penwidth=2]
    18 -> 168 [penwidth=2]
    18 -> 169 [penwidth=2]
    18 -> 132 [penwidth=2]
    18 -> 65 [penwidth=2]
    18 -> 50 [penwidth=2]
    18 -> 153 [penwidth=2]
    18 -> 141 [penwidth=2]
    18 -> 121 [penwidth=2]
    18 -> 53 [penwidth=2]
    18 -> 164 [penwidth=2]
    18 -> 134 [penwidth=2]
    18 -> 165 [penwidth=2]
    18 -> 147 [penwidth=2]
    18 -> 144 [penwidth=2]
    18 -> 67 [penwidth=2]
    18 -> 42 [penwidth=2]
    18 -> 156 [penwidth=2]
    18 -> 152 [penwidth=2]
    18 -> 86 [penwidth=2]
    18 -> 171 [penwidth=2]
    18 -> 166 [penwidth=2]
    18 -> 73 [penwidth=2]
    18 -> 155 [penwidth=2]
    18 -> 51 [penwidth=2]
    18 -> 77 [penwidth=2]
    18 -> 136 [penwidth=2]
    18 -> 83 [penwidth=2]
    18 -> 157 [penwidth=2]
    18 -> 60 [penwidth=2]
    18 -> 151 [penwidth=2]
    18 -> 46 [penwidth=2]
    18 -> 129 [penwidth=2]
    18 -> 82 [penwidth=2]
    18 -> 142 [penwidth=2]
    18 -> 71 [penwidth=2]
    18 -> 145 [penwidth=2]
    18 -> 87 [penwidth=2]
    18 -> 70 [penwidth=2]
    18 -> 45 [penwidth=2]
    18 -> 84 [penwidth=2]
    18 -> 150 [penwidth=2]
    18 -> 80 [penwidth=2]
    18 -> 120 [penwidth=2]
    18 -> 78 [penwidth=2]
    18 -> 62 [penwidth=2]
    18 -> 72 [penwidth=2]
    18 -> 64 [penwidth=2]
    18 -> 163 [penwidth=2]
    18 -> 3 [penwidth=2]
    18 -> 149 [penwidth=2]
    18 -> 52 [penwidth=2]
    18 -> 49 [penwidth=2]
    18 -> 161 [penwidth=2]
    18 -> 88 [penwidth=2]
    18 -> 79 [penwidth=2]
    18 -> 139 [penwidth=2]
    18 -> 159 [penwidth=2]
    18 -> 69 [penwidth=2]
    18 -> 81 [penwidth=2]
    18 -> 63 [penwidth=2]
    18 -> 75 [penwidth=2]
    18 -> 48 [penwidth=2]
    18 -> 55 [penwidth=2]
    18 -> 170 [penwidth=2]
    18 -> 160 [penwidth=2]
    18 -> 204 [penwidth=2]
    18 -> 127 [penwidth=2]
    18 -> 44 [penwidth=2]
    18 -> 56 [penwidth=2]
    109 -> 85 [penwidth=2]
    109 -> 129 [penwidth=2]
    109 -> 75 [penwidth=2]
    109 -> 131 [penwidth=2]
    109 -> 128 [penwidth=2]
    109 -> 62 [penwidth=2]
    109 -> 149 [penwidth=2]
    109 -> 53 [penwidth=2]
    109 -> 86 [penwidth=2]
    109 -> 57 [penwidth=2]
    109 -> 63 [penwidth=2]
    109 -> 171 [penwidth=2]
    109 -> 42 [penwidth=2]
    109 -> 127 [penwidth=2]
    109 -> 2 [penwidth=2]
    109 -> 72 [penwidth=2]
    109 -> 45 [penwidth=2]
    109 -> 78 [penwidth=2]
    109 -> 158 [penwidth=2]
    109 -> 150 [penwidth=2]
    109 -> 154 [penwidth=2]
    194 -> 163 [penwidth=2]
    194 -> 63 [penwidth=2]
    194 -> 69 [penwidth=2]
    194 -> 72 [penwidth=2]
    194 -> 55 [penwidth=2]
    194 -> 50 [penwidth=2]
    194 -> 73 [penwidth=2]
    194 -> 59 [penwidth=2]
    194 -> 171 [penwidth=2]
    194 -> 77 [penwidth=2]
    194 -> 158 [penwidth=2]
    194 -> 70 [penwidth=2]
    194 -> 166 [penwidth=2]
    194 -> 54 [penwidth=2]
    194 -> 143 [penwidth=2]
    194 -> 76 [penwidth=2]
    194 -> 133 [penwidth=2]
    194 -> 141 [penwidth=2]
    194 -> 137 [penwidth=2]
    194 -> 162 [penwidth=2]
    194 -> 165 [penwidth=2]
    194 -> 131 [penwidth=2]
    194 -> 66 [penwidth=2]
    194 -> 139 [penwidth=2]
    194 -> 42 [penwidth=2]
    194 -> 75 [penwidth=2]
    194 -> 88 [penwidth=2]
    194 -> 44 [penwidth=2]
    194 -> 81 [penwidth=2]
    194 -> 145 [penwidth=2]
    194 -> 128 [penwidth=2]
    194 -> 87 [penwidth=2]
    194 -> 68 [penwidth=2]
    194 -> 126 [penwidth=2]
    194 -> 149 [penwidth=2]
    194 -> 161 [penwidth=2]
    194 -> 83 [penwidth=2]
    194 -> 48 [penwidth=2]
    194 -> 49 [penwidth=2]
    194 -> 148 [penwidth=2]
    194 -> 45 [penwidth=2]
    194 -> 61 [penwidth=2]
    194 -> 53 [penwidth=2]
    194 -> 71 [penwidth=2]
    194 -> 150 [penwidth=2]
    194 -> 146 [penwidth=2]
    194 -> 157 [penwidth=2]
    194 -> 120 [penwidth=2]
    194 -> 154 [penwidth=2]
    194 -> 144 [penwidth=2]
    194 -> 140 [penwidth=2]
    111 -> 137 [penwidth=2]
    111 -> 162 [penwidth=2]
    111 -> 55 [penwidth=2]
    111 -> 165 [penwidth=2]
    111 -> 52 [penwidth=2]
    111 -> 48 [penwidth=2]
    111 -> 156 [penwidth=2]
    111 -> 56 [penwidth=2]
    111 -> 148 [penwidth=2]
    111 -> 88 [penwidth=2]
    111 -> 129 [penwidth=2]
    111 -> 121 [penwidth=2]
    111 -> 138 [penwidth=2]
    111 -> 69 [penwidth=2]
    111 -> 87 [penwidth=2]
    111 -> 131 [penwidth=2]
    111 -> 81 [penwidth=2]
    111 -> 2 [penwidth=2]
    111 -> 146 [penwidth=2]
    111 -> 4 [penwidth=2]
    111 -> 44 [penwidth=2]
    111 -> 150 [penwidth=2]
    111 -> 84 [penwidth=2]
    111 -> 157 [penwidth=2]
    111 -> 130 [penwidth=2]
    111 -> 154 [penwidth=2]
    111 -> 72 [penwidth=2]
    111 -> 145 [penwidth=2]
    111 -> 169 [penwidth=2]
    111 -> 3 [penwidth=2]
    111 -> 54 [penwidth=2]
    111 -> 53 [penwidth=2]
    111 -> 120 [penwidth=2]
    111 -> 171 [penwidth=2]
    111 -> 204 [penwidth=2]
    111 -> 65 [penwidth=2]
    111 -> 63 [penwidth=2]
    111 -> 75 [penwidth=2]
    111 -> 74 [penwidth=2]
    111 -> 85 [penwidth=2]
    111 -> 80 [penwidth=2]
    111 -> 126 [penwidth=2]
    111 -> 47 [penwidth=2]
    111 -> 59 [penwidth=2]
    111 -> 66 [penwidth=2]
    111 -> 135 [penwidth=2]
    111 -> 62 [penwidth=2]
    111 -> 79 [penwidth=2]
    111 -> 46 [penwidth=2]
    111 -> 153 [penwidth=2]
    111 -> 151 [penwidth=2]
    111 -> 143 [penwidth=2]
    111 -> 158 [penwidth=2]
    111 -> 45 [penwidth=2]
    111 -> 128 [penwidth=2]
    111 -> 170 [penwidth=2]
    111 -> 127 [penwidth=2]
    111 -> 134 [penwidth=2]
    111 -> 161 [penwidth=2]
    111 -> 1 [penwidth=2]
    111 -> 155 [penwidth=2]
    111 -> 64 [penwidth=2]
    111 -> 163 [penwidth=2]
    111 -> 86 [penwidth=2]
    111 -> 76 [penwidth=2]
    111 -> 152 [penwidth=2]
    111 -> 71 [penwidth=2]
    111 -> 42 [penwidth=2]
    111 -> 57 [penwidth=2]
    111 -> 77 [penwidth=2]
    111 -> 50 [penwidth=2]
    111 -> 149 [penwidth=2]
    111 -> 82 [penwidth=2]
    33 -> 50 [penwidth=2]
    33 -> 64 [penwidth=2]
    33 -> 204 [penwidth=2]
    33 -> 126 [penwidth=2]
    33 -> 4 [penwidth=2]
    35 -> 78 [penwidth=2]
    35 -> 129 [penwidth=2]
    35 -> 151 [penwidth=2]
    35 -> 127 [penwidth=2]
    35 -> 164 [penwidth=2]
    35 -> 139 [penwidth=2]
    35 -> 154 [penwidth=2]
    35 -> 4 [penwidth=2]
    35 -> 75 [penwidth=2]
    35 -> 63 [penwidth=2]
    35 -> 159 [penwidth=2]
    35 -> 157 [penwidth=2]
    35 -> 168 [penwidth=2]
    35 -> 49 [penwidth=2]
    35 -> 147 [penwidth=2]
    35 -> 50 [penwidth=2]
    35 -> 141 [penwidth=2]
    35 -> 55 [penwidth=2]
    35 -> 2 [penwidth=2]
    35 -> 84 [penwidth=2]
    35 -> 140 [penwidth=2]
    35 -> 61 [penwidth=2]
    35 -> 69 [penwidth=2]
    35 -> 170 [penwidth=2]
    35 -> 156 [penwidth=2]
    35 -> 161 [penwidth=2]
    35 -> 165 [penwidth=2]
    35 -> 162 [penwidth=2]
    35 -> 59 [penwidth=2]
    35 -> 48 [penwidth=2]
    35 -> 146 [penwidth=2]
    35 -> 137 [penwidth=2]
    35 -> 74 [penwidth=2]
    35 -> 132 [penwidth=2]
    35 -> 64 [penwidth=2]
    35 -> 43 [penwidth=2]
    35 -> 158 [penwidth=2]
    35 -> 52 [penwidth=2]
    35 -> 81 [penwidth=2]
    35 -> 54 [penwidth=2]
    35 -> 76 [penwidth=2]
    35 -> 44 [penwidth=2]
    35 -> 80 [penwidth=2]
    35 -> 153 [penwidth=2]
    35 -> 133 [penwidth=2]
    35 -> 57 [penwidth=2]
    35 -> 143 [penwidth=2]
    35 -> 86 [penwidth=2]
    35 -> 150 [penwidth=2]
    35 -> 142 [penwidth=2]
    35 -> 53 [penwidth=2]
    35 -> 82 [penwidth=2]
    35 -> 77 [penwidth=2]
    35 -> 149 [penwidth=2]
    35 -> 155 [penwidth=2]
    35 -> 134 [penwidth=2]
    35 -> 171 [penwidth=2]
    35 -> 67 [penwidth=2]
    35 -> 1 [penwidth=2]
    35 -> 152 [penwidth=2]
    35 -> 3 [penwidth=2]
    35 -> 121 [penwidth=2]
    35 -> 42 [penwidth=2]
    35 -> 68 [penwidth=2]
    35 -> 144 [penwidth=2]
    35 -> 135 [penwidth=2]
    35 -> 126 [penwidth=2]
    35 -> 167 [penwidth=2]
    35 -> 169 [penwidth=2]
    35 -> 70 [penwidth=2]
    35 -> 88 [penwidth=2]
    35 -> 130 [penwidth=2]
    35 -> 85 [penwidth=2]
    35 -> 125 [penwidth=2]
    35 -> 79 [penwidth=2]
    35 -> 83 [penwidth=2]
    35 -> 204 [penwidth=2]
    35 -> 65 [penwidth=2]
    35 -> 160 [penwidth=2]
}