digraph G {
    0 [penwidth=3,label="0"]
    1 [penwidth=3,label="1"]
    2 [penwidth=3,label="2"]
    3 [penwidth=3,label="3"]
    4 [penwidth=3,label="4"]
    5 [penwidth=3,label="5"]
    6 [penwidth=3,label="6"]
    7 [penwidth=3,label="7"]
    8 [penwidth=3,label="8"]
    9 [penwidth=3,label="9"]
    10 [penwidth=3,label="10"]
    11 [penwidth=3,label="11"]
    12 [penwidth=3,label="12"]
    13 [penwidth=3,label="13"]
    14 [penwidth=3,label="14"]
    15 [penwidth=3,label="15"]
    16 [penwidth=3,label="16"]
    17 [penwidth=3,label="17"]
    18 [penwidth=3,label="18"]
    19 [penwidth=3,label="19"]
    20 [penwidth=3,label="20"]
    21 [penwidth=3,label="21"]
    22 [penwidth=3,label="22"]
    23 [penwidth=3,label="23"]
    24 [penwidth=3,label="24"]
    25 [penwidth=3,label="25"]
    26 [penwidth=3,label="26"]
    27 [penwidth=3,label="27"]
    28 [penwidth=3,label="28"]
    29 [penwidth=3,label="29"]
    30 [penwidth=3,label="30"]
    31 [penwidth=3,label="31"]
    32 [penwidth=3,label="32"]
    33 [penwidth=3,label="33"]
    34 [penwidth=3,label="34"]
    35 [penwidth=3,label="35"]
    36 [penwidth=3,label="36"]
    37 [penwidth=3,label="37"]
    38 [penwidth=3,label="38"]
    39 [penwidth=3,label="39"]
    40 [penwidth=3,label="40"]
    41 [penwidth=3,label="41"]
    42 [penwidth=3,label="42"]
    43 [penwidth=3,label="43"]
    44 [penwidth=3,label="44"]
    45 [penwidth=3,label="45"]
    46 [penwidth=3,label="46"]
    47 [penwidth=3,label="47"]
    48 [penwidth=3,label="48"]
    49 [penwidth=3,label="49"]
    50 [penwidth=3,label="50"]
    51 [penwidth=3,label="51"]
    52 [penwidth=3,label="52"]
    53 [penwidth=3,label="53"]
    54 [penwidth=3,label="54"]
    55 [penwidth=3,label="55"]
    56 [penwidth=3,label="56"]
    57 [penwidth=3,label="57"]
    58 [penwidth=3,label="58"]
    59 [penwidth=3,label="59"]
    60 [penwidth=3,label="60"]
    61 [penwidth=3,label="61"]
    62 [penwidth=3,label="62"]
    63 [penwidth=3,label="63"]
    64 [penwidth=3,label="64"]
    65 [penwidth=3,label="65"]
    66 [penwidth=3,label="66"]
    67 [penwidth=3,label="67"]
    68 [penwidth=3,label="68"]
    69 [penwidth=3,label="69"]
    70 [penwidth=3,label="70"]
    71 [penwidth=3,label="71"]
    72 [penwidth=3,label="72"]
    73 [penwidth=3,label="73"]
    74 [penwidth=3,label="74"]
    75 [penwidth=3,label="75"]
    76 [penwidth=3,label="76"]
    77 [penwidth=3,label="77"]
    78 [penwidth=3,label="78"]
    79 [penwidth=3,label="79"]
    80 [penwidth=3,label="80"]
    81 [penwidth=3,label="81"]
    82 [penwidth=3,label="82"]
    83 [penwidth=3,label="83"]
    84 [penwidth=3,label="84"]
    85 [penwidth=3,label="85"]
    86 [penwidth=3,label="86"]
    87 [penwidth=3,label="87"]
    88 [penwidth=3,label="88"]
    89 [penwidth=3,label="89"]
    90 [penwidth=3,label="90"]
    91 [penwidth=3,label="91"]
    92 [penwidth=3,label="92"]
    93 [penwidth=3,label="93"]
    94 [penwidth=3,label="94"]
    95 [penwidth=3,label="95"]
    96 [penwidth=3,label="96"]
    97 [penwidth=3,label="97"]
    98 [penwidth=3,label="98"]
    99 [penwidth=3,label="99"]
    100 [penwidth=3,label="100"]
    101 [penwidth=3,label="101"]
    102 [penwidth=3,label="102"]
    103 [penwidth=3,label="103"]
    104 [penwidth=3,label="104"]
    105 [penwidth=3,label="105"]
    106 [penwidth=3,label="106"]
    107 [penwidth=3,label="107"]
    108 [penwidth=3,label="108"]
    109 [penwidth=3,label="109"]
    110 [penwidth=3,label="110"]
    111 [penwidth=3,label="111"]
    112 [penwidth=3,label="112"]
    113 [penwidth=3,label="113"]
    114 [penwidth=3,label="114"]
    115 [penwidth=3,label="115"]
    116 [penwidth=3,label="116"]
    117 [penwidth=3,label="117"]
    118 [penwidth=3,label="118"]
    119 [penwidth=3,label="119"]
    120 [penwidth=3,label="120"]
    121 [penwidth=3,label="121"]
    122 [penwidth=3,label="122"]
    123 [penwidth=3,label="123"]
    124 [penwidth=3,label="124"]
    125 [penwidth=3,label="125"]
    126 [penwidth=3,label="126"]
    127 [penwidth=3,label="127"]
    128 [penwidth=3,label="128"]
    129 [penwidth=3,label="129"]
    130 [penwidth=3,label="130"]
    131 [penwidth=3,label="131"]
    132 [penwidth=3,label="132"]
    133 [penwidth=3,label="133"]
    134 [penwidth=3,label="134"]
    135 [penwidth=3,label="135"]
    136 [penwidth=3,label="136"]
    137 [penwidth=3,label="137"]
    138 [penwidth=3,label="138"]
    139 [penwidth=3,label="139"]
    140 [penwidth=3,label="140"]
    141 [penwidth=3,label="141"]
    142 [penwidth=3,label="142"]
    143 [penwidth=3,label="143"]
    144 [penwidth=3,label="144"]
    145 [penwidth=3,label="145"]
    146 [penwidth=3,label="146"]
    147 [penwidth=3,label="147"]
    148 [penwidth=3,label="148"]
    149 [penwidth=3,label="149"]
    150 [penwidth=3,label="150"]
    151 [penwidth=3,label="151"]
    152 [penwidth=3,label="152"]
    153 [penwidth=3,label="153"]
    154 [penwidth=3,label="154"]
    155 [penwidth=3,label="155"]
    156 [penwidth=3,label="156"]
    157 [penwidth=3,label="157"]
    158 [penwidth=3,label="158"]
    159 [penwidth=3,label="159"]
    160 [penwidth=3,label="160"]
    161 [penwidth=3,label="161"]
    162 [penwidth=3,label="162"]
    163 [penwidth=3,label="163"]
    164 [penwidth=3,label="164"]
    165 [penwidth=3,label="165"]
    166 [penwidth=3,label="166"]
    167 [penwidth=3,label="167"]
    168 [penwidth=3,label="168"]
    169 [penwidth=3,label="169"]
    170 [penwidth=3,label="170"]
    171 [penwidth=3,label="171"]
    172 [penwidth=3,label="172"]
    173 [penwidth=3,label="173"]
    174 [penwidth=3,label="174"]
    175 [penwidth=3,label="175"]
    176 [penwidth=3,label="176"]
    177 [penwidth=3,label="177"]
    178 [penwidth=3,label="178"]
    179 [penwidth=3,label="179"]
    180 [penwidth=3,label="180"]
    181 [penwidth=3,label="181"]
    182 [penwidth=3,label="182"]
    183 [penwidth=3,label="183"]
    184 [penwidth=3,label="184"]
    185 [penwidth=3,label="185"]
    186 [penwidth=3,label="186"]
    187 [penwidth=3,label="187"]
    188 [penwidth=3,label="188"]
    189 [penwidth=3,label="189"]
    190 [penwidth=3,label="190"]
    191 [penwidth=3,label="191"]
    192 [penwidth=3,label="192"]
    193 [penwidth=3,label="193"]
    194 [penwidth=3,label="194"]
    195 [penwidth=3,label="195"]
    196 [penwidth=3,label="196"]
    197 [penwidth=3,label="197"]
    198 [penwidth=3,label="198"]
    199 [penwidth=3,label="199"]
    200 [penwidth=3,label="200"]
    201 [penwidth=3,label="201"]
    202 [penwidth=3,label="202"]
    203 [penwidth=3,label="203"]
    204 [penwidth=3,label="204"]

    8 -> 0 [penwidth=2]
    92 -> 0 [penwidth=2]
    176 -> 0 [penwidth=2]
    9 -> 8 [penwidth=2]
    93 -> 8 [penwidth=2]
    177 -> 8 [penwidth=2]
    10 -> 8 [penwidth=2]
    94 -> 8 [penwidth=2]
    178 -> 8 [penwidth=2]
    11 -> 8 [penwidth=2]
    95 -> 8 [penwidth=2]
    179 -> 8 [penwidth=2]
    12 -> 8 [penwidth=2]
    96 -> 8 [penwidth=2]
    180 -> 8 [penwidth=2]
    13 -> 8 [penwidth=2]
    97 -> 8 [penwidth=2]
    181 -> 8 [penwidth=2]
    14 -> 8 [penwidth=2]
    98 -> 8 [penwidth=2]
    182 -> 8 [penwidth=2]
    15 -> 8 [penwidth=2]
    99 -> 8 [penwidth=2]
    183 -> 8 [penwidth=2]
    16 -> 8 [penwidth=2]
    100 -> 8 [penwidth=2]
    184 -> 8 [penwidth=2]
    17 -> 8 [penwidth=2]
    101 -> 8 [penwidth=2]
    185 -> 92 [penwidth=2]
    18 -> 92 [penwidth=2]
    102 -> 92 [penwidth=2]
    186 -> 176 [penwidth=2]
    19 -> 176 [penwidth=2]
    103 -> 176 [penwidth=2]
    187 -> 176 [penwidth=2]
    20 -> 176 [penwidth=2]
    104 -> 176 [penwidth=2]
    188 -> 176 [penwidth=2]
    21 -> 176 [penwidth=2]
    105 -> 176 [penwidth=2]
    189 -> 176 [penwidth=2]
    22 -> 176 [penwidth=2]
    106 -> 176 [penwidth=2]
    190 -> 176 [penwidth=2]
    23 -> 176 [penwidth=2]
    107 -> 9 [penwidth=2]
    191 -> 9 [penwidth=2]
    24 -> 9 [penwidth=2]
    108 -> 9 [penwidth=2]
    192 -> 9 [penwidth=2]
    25 -> 9 [penwidth=2]
    109 -> 9 [penwidth=2]
    193 -> 93 [penwidth=2]
    26 -> 93 [penwidth=2]
    110 -> 93 [penwidth=2]
    194 -> 93 [penwidth=2]
    27 -> 93 [penwidth=2]
    111 -> 93 [penwidth=2]
    195 -> 177 [penwidth=2]
    28 -> 177 [penwidth=2]
    112 -> 177 [penwidth=2]
    196 -> 177 [penwidth=2]
    29 -> 177 [penwidth=2]
    113 -> 177 [penwidth=2]
    197 -> 177 [penwidth=2]
    30 -> 177 [penwidth=2]
    114 -> 177 [penwidth=2]
    198 -> 177 [penwidth=2]
    31 -> 177 [penwidth=2]
    115 -> 177 [penwidth=2]
    199 -> 177 [penwidth=2]
    32 -> 177 [penwidth=2]
    116 -> 177 [penwidth=2]
    200 -> 177 [penwidth=2]
    33 -> 177 [penwidth=2]
    117 -> 177 [penwidth=2]
    201 -> 177 [penwidth=2]
    34 -> 177 [penwidth=2]
    118 -> 177 [penwidth=2]
    202 -> 10 [penwidth=2]
    35 -> 10 [penwidth=2]
    119 -> 10 [penwidth=2]
    203 -> 10 [penwidth=2]
    36 -> 10 [penwidth=2]
    120 -> 10 [penwidth=2]
    204 -> 10 [penwidth=2]
    37 -> 10 [penwidth=2]
    121 -> 10 [penwidth=2]
    38 -> 10 [penwidth=2]
    122 -> 10 [penwidth=2]
    39 -> 10 [penwidth=2]
    123 -> 10 [penwidth=2]
    40 -> 10 [penwidth=2]
    124 -> 10 [penwidth=2]
    41 -> 10 [penwidth=2]
    125 -> 10 [penwidth=2]
    42 -> 10 [penwidth=2]
    126 -> 10 [penwidth=2]
    1 -> 10 [penwidth=2]
    43 -> 10 [penwidth=2]
    127 -> 94 [penwidth=2]
    2 -> 94 [penwidth=2]
    44 -> 94 [penwidth=2]
    128 -> 94 [penwidth=2]
    3 -> 94 [penwidth=2]
    45 -> 94 [penwidth=2]
    129 -> 94 [penwidth=2]
    4 -> 94 [penwidth=2]
    46 -> 94 [penwidth=2]
    130 -> 94 [penwidth=2]
    5 -> 94 [penwidth=2]
    47 -> 94 [penwidth=2]
    131 -> 94 [penwidth=2]
    6 -> 94 [penwidth=2]
    48 -> 94 [penwidth=2]
    132 -> 94 [penwidth=2]
    49 -> 94 [penwidth=2]
    7 -> 94 [penwidth=2]
    133 -> 94 [penwidth=2]
    50 -> 94 [penwidth=2]
    134 -> 178 [penwidth=2]
    51 -> 11 [penwidth=2]
    135 -> 11 [penwidth=2]
    52 -> 11 [penwidth=2]
    136 -> 11 [penwidth=2]
    53 -> 11 [penwidth=2]
    137 -> 11 [penwidth=2]
    54 -> 11 [penwidth=2]
    138 -> 11 [penwidth=2]
    55 -> 11 [penwidth=2]
    139 -> 11 [penwidth=2]
    56 -> 11 [penwidth=2]
    140 -> 11 [penwidth=2]
    57 -> 11 [penwidth=2]
    141 -> 11 [penwidth=2]
    58 -> 11 [penwidth=2]
    142 -> 11 [penwidth=2]
    59 -> 11 [penwidth=2]
    143 -> 11 [penwidth=2]
    60 -> 11 [penwidth=2]
    144 -> 95 [penwidth=2]
    61 -> 95 [penwidth=2]
    145 -> 95 [penwidth=2]
    62 -> 95 [penwidth=2]
    146 -> 95 [penwidth=2]
    63 -> 95 [penwidth=2]
    147 -> 95 [penwidth=2]
    64 -> 95 [penwidth=2]
    148 -> 95 [penwidth=2]
    65 -> 95 [penwidth=2]
    149 -> 95 [penwidth=2]
    66 -> 95 [penwidth=2]
    150 -> 95 [penwidth=2]
    67 -> 95 [penwidth=2]
    151 -> 95 [penwidth=2]
    68 -> 95 [penwidth=2]
    152 -> 95 [penwidth=2]
    69 -> 95 [penwidth=2]
    153 -> 179 [penwidth=2]
    70 -> 179 [penwidth=2]
    154 -> 179 [penwidth=2]
    71 -> 179 [penwidth=2]
    155 -> 179 [penwidth=2]
    72 -> 179 [penwidth=2]
    156 -> 179 [penwidth=2]
    73 -> 179 [penwidth=2]
    157 -> 179 [penwidth=2]
    74 -> 179 [penwidth=2]
    158 -> 179 [penwidth=2]
    75 -> 179 [penwidth=2]
    159 -> 179 [penwidth=2]
    76 -> 179 [penwidth=2]
    160 -> 179 [penwidth=2]
    77 -> 179 [penwidth=2]
    161 -> 179 [penwidth=2]
    78 -> 179 [penwidth=2]
    162 -> 179 [penwidth=2]
    79 -> 179 [penwidth=2]
    163 -> 179 [penwidth=2]
    175 -> 179 [penwidth=2]
    80 -> 179 [penwidth=2]
    164 -> 179 [penwidth=2]
    81 -> 12 [penwidth=2]
    165 -> 12 [penwidth=2]
    82 -> 12 [penwidth=2]
    166 -> 12 [penwidth=2]
    83 -> 12 [penwidth=2]
    167 -> 12 [penwidth=2]
    84 -> 12 [penwidth=2]
    168 -> 12 [penwidth=2]
    85 -> 12 [penwidth=2]
    169 -> 96 [penwidth=2]
    86 -> 96 [penwidth=2]
    170 -> 96 [penwidth=2]
    87 -> 96 [penwidth=2]
    171 -> 96 [penwidth=2]
    88 -> 96 [penwidth=2]
    172 -> 96 [penwidth=2]
    89 -> 96 [penwidth=2]
    173 -> 96 [penwidth=2]
    90 -> 96 [penwidth=2]
    174 -> 96 [penwidth=2]
    91 -> 96 [penwidth=2]
    12 -> 92 [penwidth=2]
    97 -> 176 [penwidth=2]
    17 -> 176 [penwidth=2]
    185 -> 176 [penwidth=2]
    18 -> 8 [penwidth=2]
    190 -> 8 [penwidth=2]
    110 -> 14 [penwidth=2]
    110 -> 189 [penwidth=2]
    110 -> 15 [penwidth=2]
    110 -> 183 [penwidth=2]
    110 -> 97 [penwidth=2]
    110 -> 179 [penwidth=2]
    110 -> 11 [penwidth=2]
    110 -> 99 [penwidth=2]
    110 -> 94 [penwidth=2]
    110 -> 181 [penwidth=2]
    110 -> 178 [penwidth=2]
    110 -> 185 [penwidth=2]
    110 -> 16 [penwidth=2]
    110 -> 102 [penwidth=2]
    110 -> 18 [penwidth=2]
    110 -> 100 [penwidth=2]
    110 -> 187 [penwidth=2]
    110 -> 106 [penwidth=2]
    110 -> 105 [penwidth=2]
    110 -> 21 [penwidth=2]
    110 -> 184 [penwidth=2]
    110 -> 98 [penwidth=2]
    110 -> 180 [penwidth=2]
    110 -> 182 [penwidth=2]
    110 -> 103 [penwidth=2]
    110 -> 12 [penwidth=2]
    110 -> 19 [penwidth=2]
    110 -> 186 [penwidth=2]
    110 -> 10 [penwidth=2]
    195 -> 13 [penwidth=2]
    195 -> 18 [penwidth=2]
    195 -> 22 [penwidth=2]
    195 -> 190 [penwidth=2]
    195 -> 100 [penwidth=2]
    195 -> 19 [penwidth=2]
    195 -> 12 [penwidth=2]
    195 -> 97 [penwidth=2]
    195 -> 186 [penwidth=2]
    195 -> 178 [penwidth=2]
    195 -> 21 [penwidth=2]
    195 -> 181 [penwidth=2]
    195 -> 23 [penwidth=2]
    195 -> 14 [penwidth=2]
    195 -> 15 [penwidth=2]
    195 -> 103 [penwidth=2]
    195 -> 94 [penwidth=2]
    195 -> 93 [penwidth=2]
    195 -> 102 [penwidth=2]
    195 -> 188 [penwidth=2]
    195 -> 104 [penwidth=2]
    195 -> 95 [penwidth=2]
    195 -> 98 [penwidth=2]
    195 -> 105 [penwidth=2]
    195 -> 182 [penwidth=2]
    195 -> 185 [penwidth=2]
    195 -> 96 [penwidth=2]
    195 -> 20 [penwidth=2]
    195 -> 189 [penwidth=2]
    195 -> 184 [penwidth=2]
    195 -> 101 [penwidth=2]
    195 -> 187 [penwidth=2]
    195 -> 9 [penwidth=2]
    195 -> 10 [penwidth=2]
    195 -> 179 [penwidth=2]
    195 -> 106 [penwidth=2]
    195 -> 16 [penwidth=2]
    195 -> 99 [penwidth=2]
    28 -> 180 [penwidth=2]
    28 -> 95 [penwidth=2]
    28 -> 181 [penwidth=2]
    28 -> 99 [penwidth=2]
    28 -> 20 [penwidth=2]
    28 -> 184 [penwidth=2]
    28 -> 101 [penwidth=2]
    28 -> 13 [penwidth=2]
    28 -> 22 [penwidth=2]
    28 -> 12 [penwidth=2]
    28 -> 182 [penwidth=2]
    28 -> 185 [penwidth=2]
    28 -> 11 [penwidth=2]
    28 -> 97 [penwidth=2]
    28 -> 10 [penwidth=2]
    28 -> 19 [penwidth=2]
    28 -> 96 [penwidth=2]
    28 -> 14 [penwidth=2]
    28 -> 94 [penwidth=2]
    28 -> 102 [penwidth=2]
    28 -> 100 [penwidth=2]
    28 -> 18 [penwidth=2]
    34 -> 102 [penwidth=2]
    34 -> 16 [penwidth=2]
    34 -> 187 [penwidth=2]
    34 -> 189 [penwidth=2]
    34 -> 182 [penwidth=2]
    34 -> 14 [penwidth=2]
    34 -> 22 [penwidth=2]
    34 -> 101 [penwidth=2]
    34 -> 95 [penwidth=2]
    34 -> 185 [penwidth=2]
    34 -> 179 [penwidth=2]
    34 -> 93 [penwidth=2]
    34 -> 184 [penwidth=2]
    34 -> 15 [penwidth=2]
    34 -> 183 [penwidth=2]
    34 -> 10 [penwidth=2]
    34 -> 180 [penwidth=2]
    34 -> 94 [penwidth=2]
    34 -> 11 [penwidth=2]
    34 -> 20 [penwidth=2]
    34 -> 188 [penwidth=2]
    34 -> 190 [penwidth=2]
    34 -> 186 [penwidth=2]
    34 -> 23 [penwidth=2]
    34 -> 104 [penwidth=2]
    34 -> 99 [penwidth=2]
    34 -> 98 [penwidth=2]
    34 -> 21 [penwidth=2]
    118 -> 179 [penwidth=2]
    118 -> 93 [penwidth=2]
    118 -> 94 [penwidth=2]
    118 -> 102 [penwidth=2]
    118 -> 12 [penwidth=2]
    118 -> 105 [penwidth=2]
    118 -> 185 [penwidth=2]
    118 -> 184 [penwidth=2]
    118 -> 16 [penwidth=2]
    118 -> 19 [penwidth=2]
    118 -> 187 [penwidth=2]
    118 -> 190 [penwidth=2]
    118 -> 15 [penwidth=2]
    118 -> 188 [penwidth=2]
    118 -> 178 [penwidth=2]
    118 -> 103 [penwidth=2]
    118 -> 189 [penwidth=2]
    118 -> 97 [penwidth=2]
    118 -> 14 [penwidth=2]
    118 -> 101 [penwidth=2]
    35 -> 189 [penwidth=2]
    35 -> 17 [penwidth=2]
    35 -> 19 [penwidth=2]
    35 -> 182 [penwidth=2]
    35 -> 21 [penwidth=2]
    35 -> 18 [penwidth=2]
    35 -> 98 [penwidth=2]
    35 -> 178 [penwidth=2]
    35 -> 97 [penwidth=2]
    35 -> 22 [penwidth=2]
    35 -> 16 [penwidth=2]
    35 -> 101 [penwidth=2]
    35 -> 180 [penwidth=2]
    35 -> 188 [penwidth=2]
    35 -> 102 [penwidth=2]
    35 -> 190 [penwidth=2]
    35 -> 93 [penwidth=2]
    35 -> 183 [penwidth=2]
    35 -> 186 [penwidth=2]
    35 -> 14 [penwidth=2]
    35 -> 9 [penwidth=2]
    35 -> 103 [penwidth=2]
    35 -> 12 [penwidth=2]
    35 -> 96 [penwidth=2]
    35 -> 20 [penwidth=2]
    120 -> 99 [penwidth=2]
    120 -> 104 [penwidth=2]
    120 -> 17 [penwidth=2]
    120 -> 97 [penwidth=2]
    120 -> 187 [penwidth=2]
    120 -> 185 [penwidth=2]
    2 -> 13 [penwidth=2]
    2 -> 97 [penwidth=2]
    2 -> 100 [penwidth=2]
    2 -> 189 [penwidth=2]
    2 -> 184 [penwidth=2]
    2 -> 106 [penwidth=2]
    2 -> 187 [penwidth=2]
    2 -> 190 [penwidth=2]
    2 -> 185 [penwidth=2]
    2 -> 102 [penwidth=2]
    2 -> 188 [penwidth=2]
    2 -> 182 [penwidth=2]
    2 -> 98 [penwidth=2]
    2 -> 101 [penwidth=2]
    2 -> 14 [penwidth=2]
    2 -> 9 [penwidth=2]
    139 -> 10 [penwidth=2]
    139 -> 103 [penwidth=2]
    139 -> 94 [penwidth=2]
    139 -> 182 [penwidth=2]
    139 -> 185 [penwidth=2]
    139 -> 190 [penwidth=2]
    139 -> 98 [penwidth=2]
    139 -> 15 [penwidth=2]
    139 -> 18 [penwidth=2]
    139 -> 23 [penwidth=2]
    139 -> 102 [penwidth=2]
    139 -> 183 [penwidth=2]
    139 -> 22 [penwidth=2]
    139 -> 178 [penwidth=2]
    139 -> 104 [penwidth=2]
    139 -> 16 [penwidth=2]
    139 -> 93 [penwidth=2]
    139 -> 181 [penwidth=2]
    139 -> 100 [penwidth=2]
    139 -> 105 [penwidth=2]
    139 -> 21 [penwidth=2]
    139 -> 179 [penwidth=2]
    139 -> 97 [penwidth=2]
    139 -> 19 [penwidth=2]
    139 -> 20 [penwidth=2]
    139 -> 184 [penwidth=2]
    139 -> 180 [penwidth=2]
    139 -> 95 [penwidth=2]
    139 -> 189 [penwidth=2]
    139 -> 17 [penwidth=2]
    139 -> 187 [penwidth=2]
    139 -> 177 [penwidth=2]
    139 -> 106 [penwidth=2]
    139 -> 99 [penwidth=2]
    139 -> 101 [penwidth=2]
    139 -> 12 [penwidth=2]
    139 -> 96 [penwidth=2]
    139 -> 14 [penwidth=2]
    139 -> 188 [penwidth=2]
    142 -> 9 [penwidth=2]
    142 -> 186 [penwidth=2]
    142 -> 188 [penwidth=2]
    61 -> 184 [penwidth=2]
    61 -> 16 [penwidth=2]
    61 -> 12 [penwidth=2]
    61 -> 181 [penwidth=2]
    61 -> 19 [penwidth=2]
    61 -> 187 [penwidth=2]
    61 -> 100 [penwidth=2]
    61 -> 106 [penwidth=2]
    61 -> 99 [penwidth=2]
    61 -> 23 [penwidth=2]
    61 -> 180 [penwidth=2]
    61 -> 15 [penwidth=2]
    61 -> 182 [penwidth=2]
    61 -> 102 [penwidth=2]
    61 -> 103 [penwidth=2]
    61 -> 178 [penwidth=2]
    61 -> 189 [penwidth=2]
    61 -> 97 [penwidth=2]
    61 -> 96 [penwidth=2]
    63 -> 19 [penwidth=2]
    63 -> 101 [penwidth=2]
    63 -> 102 [penwidth=2]
    63 -> 13 [penwidth=2]
    63 -> 11 [penwidth=2]
    63 -> 21 [penwidth=2]
    63 -> 181 [penwidth=2]
    63 -> 16 [penwidth=2]
    63 -> 12 [penwidth=2]
    63 -> 18 [penwidth=2]
    63 -> 23 [penwidth=2]
    63 -> 98 [penwidth=2]
    63 -> 96 [penwidth=2]
    63 -> 182 [penwidth=2]
    63 -> 100 [penwidth=2]
    63 -> 179 [penwidth=2]
    63 -> 188 [penwidth=2]
    63 -> 178 [penwidth=2]
    63 -> 17 [penwidth=2]
    63 -> 104 [penwidth=2]
    63 -> 190 [penwidth=2]
    63 -> 97 [penwidth=2]
    63 -> 93 [penwidth=2]
    63 -> 186 [penwidth=2]
    63 -> 99 [penwidth=2]
    63 -> 180 [penwidth=2]
    63 -> 15 [penwidth=2]
    63 -> 106 [penwidth=2]
    63 -> 189 [penwidth=2]
    63 -> 14 [penwidth=2]
    63 -> 22 [penwidth=2]
    63 -> 105 [penwidth=2]
    64 -> 179 [penwidth=2]
    64 -> 20 [penwidth=2]
    64 -> 14 [penwidth=2]
    64 -> 106 [penwidth=2]
    64 -> 17 [penwidth=2]
    64 -> 184 [penwidth=2]
    64 -> 103 [penwidth=2]
    64 -> 94 [penwidth=2]
    64 -> 101 [penwidth=2]
    64 -> 9 [penwidth=2]
    64 -> 13 [penwidth=2]
    64 -> 22 [penwidth=2]
    64 -> 23 [penwidth=2]
    64 -> 100 [penwidth=2]
    64 -> 98 [penwidth=2]
    64 -> 105 [penwidth=2]
    64 -> 18 [penwidth=2]
    64 -> 19 [penwidth=2]
    64 -> 93 [penwidth=2]
    64 -> 11 [penwidth=2]
    64 -> 187 [penwidth=2]
    64 -> 16 [penwidth=2]
    64 -> 181 [penwidth=2]
    64 -> 102 [penwidth=2]
    64 -> 185 [penwidth=2]
    64 -> 10 [penwidth=2]
    64 -> 188 [penwidth=2]
    64 -> 180 [penwidth=2]
    64 -> 182 [penwidth=2]
    64 -> 190 [penwidth=2]
    64 -> 99 [penwidth=2]
    64 -> 21 [penwidth=2]
    64 -> 97 [penwidth=2]
    163 -> 99 [penwidth=2]
    163 -> 106 [penwidth=2]
    163 -> 104 [penwidth=2]
    163 -> 16 [penwidth=2]
    170 -> 16 [penwidth=2]
    170 -> 102 [penwidth=2]
    170 -> 186 [penwidth=2]
    170 -> 185 [penwidth=2]
    170 -> 189 [penwidth=2]
    170 -> 178 [penwidth=2]
    170 -> 13 [penwidth=2]
    170 -> 105 [penwidth=2]
    170 -> 93 [penwidth=2]
    170 -> 20 [penwidth=2]
    170 -> 98 [penwidth=2]
    170 -> 17 [penwidth=2]
    170 -> 97 [penwidth=2]
    170 -> 21 [penwidth=2]
    170 -> 23 [penwidth=2]
    170 -> 14 [penwidth=2]
    170 -> 182 [penwidth=2]
    170 -> 12 [penwidth=2]
    170 -> 15 [penwidth=2]
    170 -> 190 [penwidth=2]
    170 -> 94 [penwidth=2]
    170 -> 22 [penwidth=2]
    170 -> 104 [penwidth=2]
    170 -> 181 [penwidth=2]
    170 -> 99 [penwidth=2]
    170 -> 177 [penwidth=2]
    170 -> 184 [penwidth=2]
    170 -> 9 [penwidth=2]
    170 -> 180 [penwidth=2]
    170 -> 100 [penwidth=2]
    170 -> 18 [penwidth=2]
    170 -> 101 [penwidth=2]
    170 -> 10 [penwidth=2]
    171 -> 104 [penwidth=2]
    88 -> 178 [penwidth=2]
    88 -> 13 [penwidth=2]
    88 -> 17 [penwidth=2]
    88 -> 23 [penwidth=2]
    88 -> 15 [penwidth=2]
    88 -> 181 [penwidth=2]
    88 -> 21 [penwidth=2]
    88 -> 185 [penwidth=2]
    88 -> 102 [penwidth=2]
    88 -> 104 [penwidth=2]
    88 -> 180 [penwidth=2]
    88 -> 188 [penwidth=2]
    88 -> 95 [penwidth=2]
    88 -> 183 [penwidth=2]
    88 -> 98 [penwidth=2]
    88 -> 101 [penwidth=2]
    88 -> 11 [penwidth=2]
    88 -> 19 [penwidth=2]
    88 -> 9 [penwidth=2]
    88 -> 100 [penwidth=2]
    88 -> 187 [penwidth=2]
    88 -> 189 [penwidth=2]
    88 -> 18 [penwidth=2]
    88 -> 103 [penwidth=2]
    88 -> 97 [penwidth=2]
    88 -> 106 [penwidth=2]
    88 -> 190 [penwidth=2]
    88 -> 105 [penwidth=2]
    88 -> 179 [penwidth=2]
    88 -> 182 [penwidth=2]
    88 -> 14 [penwidth=2]
    88 -> 184 [penwidth=2]
    88 -> 20 [penwidth=2]
    88 -> 12 [penwidth=2]
    88 -> 16 [penwidth=2]
    88 -> 186 [penwidth=2]
    88 -> 10 [penwidth=2]
    88 -> 94 [penwidth=2]
    88 -> 177 [penwidth=2]
    89 -> 97 [penwidth=2]
    89 -> 12 [penwidth=2]
    89 -> 186 [penwidth=2]
    89 -> 188 [penwidth=2]
}