digraph G {
    0 [penwidth=3,label="0"]
    1 [penwidth=3,label="1"]
    2 [penwidth=3,label="2"]
    3 [penwidth=3,label="3"]
    4 [penwidth=3,label="4"]
    5 [penwidth=3,label="5"]
    6 [penwidth=3,label="6"]
    7 [penwidth=3,label="7"]
    8 [penwidth=3,label="8"]
    9 [penwidth=3,label="9"]
    10 [penwidth=3,label="10"]
    11 [penwidth=3,label="11"]
    12 [penwidth=3,label="12"]
    13 [penwidth=3,label="13"]
    14 [penwidth=3,label="14"]
    15 [penwidth=3,label="15"]
    16 [penwidth=3,label="16"]
    17 [penwidth=3,label="17"]
    18 [penwidth=3,label="18"]
    19 [penwidth=3,label="19"]
    20 [penwidth=3,label="20"]
    21 [penwidth=3,label="21"]
    22 [penwidth=3,label="22"]
    23 [penwidth=3,label="23"]
    24 [penwidth=3,label="24"]
    25 [penwidth=3,label="25"]
    26 [penwidth=3,label="26"]
    27 [penwidth=3,label="27"]
    28 [penwidth=3,label="28"]
    29 [penwidth=3,label="29"]
    30 [penwidth=3,label="30"]
    31 [penwidth=3,label="31"]
    32 [penwidth=3,label="32"]
    33 [penwidth=3,label="33"]
    34 [penwidth=3,label="34"]
    35 [penwidth=3,label="35"]
    36 [penwidth=3,label="36"]
    37 [penwidth=3,label="37"]
    38 [penwidth=3,label="38"]
    39 [penwidth=3,label="39"]
    40 [penwidth=3,label="40"]
    41 [penwidth=3,label="41"]
    42 [penwidth=3,label="42"]
    43 [penwidth=3,label="43"]
    44 [penwidth=3,label="44"]
    45 [penwidth=3,label="45"]
    46 [penwidth=3,label="46"]
    47 [penwidth=3,label="47"]
    48 [penwidth=3,label="48"]
    49 [penwidth=3,label="49"]
    50 [penwidth=3,label="50"]
    51 [penwidth=3,label="51"]
    52 [penwidth=3,label="52"]
    53 [penwidth=3,label="53"]
    54 [penwidth=3,label="54"]
    55 [penwidth=3,label="55"]
    56 [penwidth=3,label="56"]
    57 [penwidth=3,label="57"]
    58 [penwidth=3,label="58"]
    59 [penwidth=3,label="59"]
    60 [penwidth=3,label="60"]
    61 [penwidth=3,label="61"]
    62 [penwidth=3,label="62"]
    63 [penwidth=3,label="63"]
    64 [penwidth=3,label="64"]
    65 [penwidth=3,label="65"]
    66 [penwidth=3,label="66"]
    67 [penwidth=3,label="67"]
    68 [penwidth=3,label="68"]
    69 [penwidth=3,label="69"]
    70 [penwidth=3,label="70"]
    71 [penwidth=3,label="71"]
    72 [penwidth=3,label="72"]
    73 [penwidth=3,label="73"]
    74 [penwidth=3,label="74"]
    75 [penwidth=3,label="75"]
    76 [penwidth=3,label="76"]
    77 [penwidth=3,label="77"]
    78 [penwidth=3,label="78"]
    79 [penwidth=3,label="79"]
    80 [penwidth=3,label="80"]
    81 [penwidth=3,label="81"]
    82 [penwidth=3,label="82"]
    83 [penwidth=3,label="83"]
    84 [penwidth=3,label="84"]
    85 [penwidth=3,label="85"]
    86 [penwidth=3,label="86"]
    87 [penwidth=3,label="87"]
    88 [penwidth=3,label="88"]
    89 [penwidth=3,label="89"]
    90 [penwidth=3,label="90"]
    91 [penwidth=3,label="91"]
    92 [penwidth=3,label="92"]
    93 [penwidth=3,label="93"]
    94 [penwidth=3,label="94"]
    95 [penwidth=3,label="95"]
    96 [penwidth=3,label="96"]
    97 [penwidth=3,label="97"]
    98 [penwidth=3,label="98"]
    99 [penwidth=3,label="99"]
    100 [penwidth=3,label="100"]
    101 [penwidth=3,label="101"]
    102 [penwidth=3,label="102"]
    103 [penwidth=3,label="103"]
    104 [penwidth=3,label="104"]
    105 [penwidth=3,label="105"]
    106 [penwidth=3,label="106"]
    107 [penwidth=3,label="107"]
    108 [penwidth=3,label="108"]
    109 [penwidth=3,label="109"]
    110 [penwidth=3,label="110"]
    111 [penwidth=3,label="111"]
    112 [penwidth=3,label="112"]
    113 [penwidth=3,label="113"]
    114 [penwidth=3,label="114"]
    115 [penwidth=3,label="115"]
    116 [penwidth=3,label="116"]
    117 [penwidth=3,label="117"]
    118 [penwidth=3,label="118"]
    119 [penwidth=3,label="119"]
    120 [penwidth=3,label="120"]
    121 [penwidth=3,label="121"]
    122 [penwidth=3,label="122"]
    123 [penwidth=3,label="123"]
    124 [penwidth=3,label="124"]
    125 [penwidth=3,label="125"]
    126 [penwidth=3,label="126"]
    127 [penwidth=3,label="127"]
    128 [penwidth=3,label="128"]
    129 [penwidth=3,label="129"]
    130 [penwidth=3,label="130"]
    131 [penwidth=3,label="131"]
    132 [penwidth=3,label="132"]
    133 [penwidth=3,label="133"]
    134 [penwidth=3,label="134"]
    135 [penwidth=3,label="135"]
    136 [penwidth=3,label="136"]
    137 [penwidth=3,label="137"]
    138 [penwidth=3,label="138"]
    139 [penwidth=3,label="139"]
    140 [penwidth=3,label="140"]
    141 [penwidth=3,label="141"]
    142 [penwidth=3,label="142"]
    143 [penwidth=3,label="143"]
    144 [penwidth=3,label="144"]
    145 [penwidth=3,label="145"]
    146 [penwidth=3,label="146"]
    147 [penwidth=3,label="147"]
    148 [penwidth=3,label="148"]
    149 [penwidth=3,label="149"]
    150 [penwidth=3,label="150"]
    151 [penwidth=3,label="151"]
    152 [penwidth=3,label="152"]
    153 [penwidth=3,label="153"]
    154 [penwidth=3,label="154"]
    155 [penwidth=3,label="155"]
    156 [penwidth=3,label="156"]
    157 [penwidth=3,label="157"]
    158 [penwidth=3,label="158"]
    159 [penwidth=3,label="159"]
    160 [penwidth=3,label="160"]
    161 [penwidth=3,label="161"]
    162 [penwidth=3,label="162"]
    163 [penwidth=3,label="163"]
    164 [penwidth=3,label="164"]
    165 [penwidth=3,label="165"]
    166 [penwidth=3,label="166"]
    167 [penwidth=3,label="167"]
    168 [penwidth=3,label="168"]
    169 [penwidth=3,label="169"]
    170 [penwidth=3,label="170"]
    171 [penwidth=3,label="171"]
    172 [penwidth=3,label="172"]
    173 [penwidth=3,label="173"]
    174 [penwidth=3,label="174"]
    175 [penwidth=3,label="175"]
    176 [penwidth=3,label="176"]
    177 [penwidth=3,label="177"]
    178 [penwidth=3,label="178"]
    179 [penwidth=3,label="179"]
    180 [penwidth=3,label="180"]
    181 [penwidth=3,label="181"]
    182 [penwidth=3,label="182"]
    183 [penwidth=3,label="183"]
    184 [penwidth=3,label="184"]
    185 [penwidth=3,label="185"]
    186 [penwidth=3,label="186"]
    187 [penwidth=3,label="187"]
    188 [penwidth=3,label="188"]
    189 [penwidth=3,label="189"]
    190 [penwidth=3,label="190"]
    191 [penwidth=3,label="191"]
    192 [penwidth=3,label="192"]
    193 [penwidth=3,label="193"]
    194 [penwidth=3,label="194"]
    195 [penwidth=3,label="195"]
    196 [penwidth=3,label="196"]
    197 [penwidth=3,label="197"]
    198 [penwidth=3,label="198"]
    199 [penwidth=3,label="199"]
    200 [penwidth=3,label="200"]
    201 [penwidth=3,label="201"]
    202 [penwidth=3,label="202"]
    203 [penwidth=3,label="203"]
    204 [penwidth=3,label="204"]

    65 -> 0 [penwidth=2]
    107 -> 0 [penwidth=2]
    149 -> 0 [penwidth=2]
    66 -> 0 [penwidth=2]
    108 -> 0 [penwidth=2]
    150 -> 0 [penwidth=2]
    67 -> 0 [penwidth=2]
    109 -> 0 [penwidth=2]
    151 -> 65 [penwidth=2]
    68 -> 65 [penwidth=2]
    110 -> 65 [penwidth=2]
    152 -> 65 [penwidth=2]
    69 -> 65 [penwidth=2]
    111 -> 65 [penwidth=2]
    153 -> 65 [penwidth=2]
    70 -> 65 [penwidth=2]
    112 -> 65 [penwidth=2]
    154 -> 65 [penwidth=2]
    71 -> 65 [penwidth=2]
    113 -> 107 [penwidth=2]
    155 -> 107 [penwidth=2]
    72 -> 107 [penwidth=2]
    114 -> 107 [penwidth=2]
    156 -> 107 [penwidth=2]
    73 -> 107 [penwidth=2]
    115 -> 107 [penwidth=2]
    157 -> 107 [penwidth=2]
    74 -> 107 [penwidth=2]
    116 -> 107 [penwidth=2]
    158 -> 107 [penwidth=2]
    75 -> 107 [penwidth=2]
    117 -> 107 [penwidth=2]
    159 -> 107 [penwidth=2]
    76 -> 107 [penwidth=2]
    118 -> 107 [penwidth=2]
    160 -> 107 [penwidth=2]
    77 -> 107 [penwidth=2]
    119 -> 107 [penwidth=2]
    161 -> 107 [penwidth=2]
    78 -> 107 [penwidth=2]
    120 -> 107 [penwidth=2]
    162 -> 107 [penwidth=2]
    79 -> 149 [penwidth=2]
    121 -> 149 [penwidth=2]
    163 -> 149 [penwidth=2]
    80 -> 149 [penwidth=2]
    122 -> 149 [penwidth=2]
    164 -> 149 [penwidth=2]
    81 -> 149 [penwidth=2]
    123 -> 149 [penwidth=2]
    165 -> 149 [penwidth=2]
    82 -> 66 [penwidth=2]
    124 -> 66 [penwidth=2]
    166 -> 66 [penwidth=2]
    83 -> 108 [penwidth=2]
    125 -> 108 [penwidth=2]
    167 -> 108 [penwidth=2]
    84 -> 108 [penwidth=2]
    126 -> 108 [penwidth=2]
    168 -> 108 [penwidth=2]
    85 -> 108 [penwidth=2]
    127 -> 108 [penwidth=2]
    169 -> 108 [penwidth=2]
    86 -> 108 [penwidth=2]
    128 -> 108 [penwidth=2]
    170 -> 108 [penwidth=2]
    87 -> 108 [penwidth=2]
    129 -> 108 [penwidth=2]
    171 -> 108 [penwidth=2]
    88 -> 108 [penwidth=2]
    130 -> 108 [penwidth=2]
    172 -> 150 [penwidth=2]
    22 -> 150 [penwidth=2]
    89 -> 150 [penwidth=2]
    131 -> 150 [penwidth=2]
    173 -> 150 [penwidth=2]
    90 -> 150 [penwidth=2]
    132 -> 150 [penwidth=2]
    174 -> 150 [penwidth=2]
    91 -> 150 [penwidth=2]
    133 -> 67 [penwidth=2]
    175 -> 67 [penwidth=2]
    92 -> 109 [penwidth=2]
    134 -> 109 [penwidth=2]
    176 -> 109 [penwidth=2]
    93 -> 109 [penwidth=2]
    135 -> 151 [penwidth=2]
    177 -> 151 [penwidth=2]
    94 -> 151 [penwidth=2]
    136 -> 151 [penwidth=2]
    178 -> 151 [penwidth=2]
    95 -> 151 [penwidth=2]
    137 -> 151 [penwidth=2]
    179 -> 151 [penwidth=2]
    96 -> 151 [penwidth=2]
    138 -> 151 [penwidth=2]
    180 -> 151 [penwidth=2]
    97 -> 151 [penwidth=2]
    139 -> 151 [penwidth=2]
    181 -> 68 [penwidth=2]
    98 -> 68 [penwidth=2]
    140 -> 68 [penwidth=2]
    182 -> 68 [penwidth=2]
    99 -> 68 [penwidth=2]
    141 -> 68 [penwidth=2]
    183 -> 68 [penwidth=2]
    100 -> 68 [penwidth=2]
    142 -> 68 [penwidth=2]
    184 -> 68 [penwidth=2]
    101 -> 68 [penwidth=2]
    143 -> 68 [penwidth=2]
    185 -> 68 [penwidth=2]
    102 -> 68 [penwidth=2]
    144 -> 68 [penwidth=2]
    186 -> 68 [penwidth=2]
    103 -> 68 [penwidth=2]
    145 -> 68 [penwidth=2]
    187 -> 110 [penwidth=2]
    104 -> 110 [penwidth=2]
    146 -> 110 [penwidth=2]
    188 -> 110 [penwidth=2]
    105 -> 110 [penwidth=2]
    147 -> 110 [penwidth=2]
    189 -> 110 [penwidth=2]
    106 -> 110 [penwidth=2]
    148 -> 110 [penwidth=2]
    190 -> 110 [penwidth=2]
    23 -> 110 [penwidth=2]
    191 -> 110 [penwidth=2]
    24 -> 110 [penwidth=2]
    192 -> 110 [penwidth=2]
    25 -> 110 [penwidth=2]
    193 -> 110 [penwidth=2]
    26 -> 110 [penwidth=2]
    194 -> 110 [penwidth=2]
    27 -> 110 [penwidth=2]
    195 -> 152 [penwidth=2]
    28 -> 152 [penwidth=2]
    196 -> 152 [penwidth=2]
    29 -> 152 [penwidth=2]
    197 -> 152 [penwidth=2]
    30 -> 152 [penwidth=2]
    198 -> 152 [penwidth=2]
    31 -> 69 [penwidth=2]
    199 -> 69 [penwidth=2]
    32 -> 69 [penwidth=2]
    200 -> 69 [penwidth=2]
    33 -> 69 [penwidth=2]
    201 -> 69 [penwidth=2]
    34 -> 69 [penwidth=2]
    202 -> 69 [penwidth=2]
    35 -> 69 [penwidth=2]
    203 -> 69 [penwidth=2]
    36 -> 69 [penwidth=2]
    204 -> 69 [penwidth=2]
    37 -> 111 [penwidth=2]
    38 -> 111 [penwidth=2]
    39 -> 111 [penwidth=2]
    40 -> 111 [penwidth=2]
    41 -> 111 [penwidth=2]
    42 -> 111 [penwidth=2]
    1 -> 111 [penwidth=2]
    43 -> 111 [penwidth=2]
    2 -> 153 [penwidth=2]
    44 -> 153 [penwidth=2]
    3 -> 153 [penwidth=2]
    45 -> 153 [penwidth=2]
    4 -> 153 [penwidth=2]
    46 -> 153 [penwidth=2]
    5 -> 153 [penwidth=2]
    47 -> 153 [penwidth=2]
    6 -> 153 [penwidth=2]
    48 -> 153 [penwidth=2]
    7 -> 153 [penwidth=2]
    49 -> 153 [penwidth=2]
    8 -> 70 [penwidth=2]
    50 -> 70 [penwidth=2]
    9 -> 70 [penwidth=2]
    51 -> 70 [penwidth=2]
    10 -> 70 [penwidth=2]
    52 -> 70 [penwidth=2]
    11 -> 70 [penwidth=2]
    53 -> 70 [penwidth=2]
    12 -> 70 [penwidth=2]
    54 -> 70 [penwidth=2]
    13 -> 112 [penwidth=2]
    55 -> 112 [penwidth=2]
    14 -> 112 [penwidth=2]
    56 -> 112 [penwidth=2]
    15 -> 112 [penwidth=2]
    57 -> 112 [penwidth=2]
    16 -> 112 [penwidth=2]
    58 -> 154 [penwidth=2]
    17 -> 154 [penwidth=2]
    59 -> 154 [penwidth=2]
    18 -> 154 [penwidth=2]
    60 -> 154 [penwidth=2]
    19 -> 154 [penwidth=2]
    61 -> 154 [penwidth=2]
    20 -> 154 [penwidth=2]
    62 -> 154 [penwidth=2]
    21 -> 154 [penwidth=2]
    63 -> 154 [penwidth=2]
    64 -> 154 [penwidth=2]
    151 -> 149 [penwidth=2]
    151 -> 66 [penwidth=2]
    70 -> 108 [penwidth=2]
    70 -> 107 [penwidth=2]
    70 -> 109 [penwidth=2]
    70 -> 150 [penwidth=2]
    70 -> 67 [penwidth=2]
    115 -> 66 [penwidth=2]
    115 -> 149 [penwidth=2]
    115 -> 108 [penwidth=2]
    115 -> 67 [penwidth=2]
    115 -> 65 [penwidth=2]
    115 -> 109 [penwidth=2]
    117 -> 150 [penwidth=2]
    117 -> 109 [penwidth=2]
    117 -> 66 [penwidth=2]
    117 -> 149 [penwidth=2]
    117 -> 108 [penwidth=2]
    117 -> 65 [penwidth=2]
    119 -> 109 [penwidth=2]
    119 -> 65 [penwidth=2]
    164 -> 150 [penwidth=2]
    83 -> 150 [penwidth=2]
    83 -> 107 [penwidth=2]
    83 -> 67 [penwidth=2]
    83 -> 65 [penwidth=2]
    83 -> 109 [penwidth=2]
    83 -> 66 [penwidth=2]
    170 -> 66 [penwidth=2]
    102 -> 169 [penwidth=2]
    102 -> 151 [penwidth=2]
    102 -> 161 [penwidth=2]
    102 -> 165 [penwidth=2]
    102 -> 123 [penwidth=2]
    102 -> 162 [penwidth=2]
    102 -> 158 [penwidth=2]
    102 -> 111 [penwidth=2]
    102 -> 152 [penwidth=2]
    102 -> 72 [penwidth=2]
    102 -> 163 [penwidth=2]
    102 -> 131 [penwidth=2]
    102 -> 164 [penwidth=2]
    102 -> 155 [penwidth=2]
    102 -> 175 [penwidth=2]
    102 -> 122 [penwidth=2]
    102 -> 125 [penwidth=2]
    102 -> 78 [penwidth=2]
    102 -> 170 [penwidth=2]
    102 -> 69 [penwidth=2]
    102 -> 173 [penwidth=2]
    102 -> 159 [penwidth=2]
    102 -> 174 [penwidth=2]
    102 -> 160 [penwidth=2]
    102 -> 92 [penwidth=2]
    102 -> 124 [penwidth=2]
    102 -> 90 [penwidth=2]
    105 -> 168 [penwidth=2]
    105 -> 157 [penwidth=2]
    105 -> 166 [penwidth=2]
    105 -> 159 [penwidth=2]
    105 -> 78 [penwidth=2]
    105 -> 88 [penwidth=2]
    105 -> 83 [penwidth=2]
    105 -> 154 [penwidth=2]
    105 -> 114 [penwidth=2]
    105 -> 160 [penwidth=2]
    105 -> 129 [penwidth=2]
    105 -> 76 [penwidth=2]
    105 -> 77 [penwidth=2]
    105 -> 117 [penwidth=2]
    105 -> 80 [penwidth=2]
    105 -> 156 [penwidth=2]
    105 -> 171 [penwidth=2]
    105 -> 153 [penwidth=2]
    105 -> 84 [penwidth=2]
    105 -> 89 [penwidth=2]
    105 -> 174 [penwidth=2]
    105 -> 90 [penwidth=2]
    105 -> 134 [penwidth=2]
    105 -> 111 [penwidth=2]
    105 -> 70 [penwidth=2]
    105 -> 71 [penwidth=2]
    105 -> 121 [penwidth=2]
    105 -> 169 [penwidth=2]
    105 -> 91 [penwidth=2]
    105 -> 113 [penwidth=2]
    105 -> 118 [penwidth=2]
    105 -> 22 [penwidth=2]
    105 -> 81 [penwidth=2]
    105 -> 132 [penwidth=2]
    105 -> 175 [penwidth=2]
    105 -> 151 [penwidth=2]
    105 -> 167 [penwidth=2]
    105 -> 72 [penwidth=2]
    105 -> 130 [penwidth=2]
    105 -> 163 [penwidth=2]
    105 -> 128 [penwidth=2]
    105 -> 120 [penwidth=2]
    105 -> 152 [penwidth=2]
    105 -> 155 [penwidth=2]
    105 -> 126 [penwidth=2]
    105 -> 161 [penwidth=2]
    105 -> 85 [penwidth=2]
    105 -> 75 [penwidth=2]
    105 -> 116 [penwidth=2]
    105 -> 79 [penwidth=2]
    105 -> 112 [penwidth=2]
    105 -> 125 [penwidth=2]
    105 -> 176 [penwidth=2]
    105 -> 82 [penwidth=2]
    105 -> 162 [penwidth=2]
    105 -> 69 [penwidth=2]
    105 -> 158 [penwidth=2]
    105 -> 119 [penwidth=2]
    105 -> 86 [penwidth=2]
    105 -> 74 [penwidth=2]
    105 -> 127 [penwidth=2]
    105 -> 133 [penwidth=2]
    105 -> 68 [penwidth=2]
    105 -> 172 [penwidth=2]
    105 -> 165 [penwidth=2]
    105 -> 124 [penwidth=2]
    105 -> 164 [penwidth=2]
    105 -> 123 [penwidth=2]
    105 -> 115 [penwidth=2]
    191 -> 121 [penwidth=2]
    191 -> 154 [penwidth=2]
    191 -> 87 [penwidth=2]
    191 -> 128 [penwidth=2]
    191 -> 86 [penwidth=2]
    191 -> 130 [penwidth=2]
    191 -> 79 [penwidth=2]
    191 -> 85 [penwidth=2]
    191 -> 157 [penwidth=2]
    191 -> 71 [penwidth=2]
    191 -> 112 [penwidth=2]
    191 -> 113 [penwidth=2]
    191 -> 124 [penwidth=2]
    191 -> 169 [penwidth=2]
    191 -> 131 [penwidth=2]
    191 -> 129 [penwidth=2]
    191 -> 75 [penwidth=2]
    191 -> 133 [penwidth=2]
    191 -> 152 [penwidth=2]
    27 -> 78 [penwidth=2]
    27 -> 92 [penwidth=2]
    27 -> 151 [penwidth=2]
    27 -> 169 [penwidth=2]
    27 -> 155 [penwidth=2]
    27 -> 93 [penwidth=2]
    27 -> 91 [penwidth=2]
    27 -> 124 [penwidth=2]
    27 -> 74 [penwidth=2]
    27 -> 82 [penwidth=2]
    27 -> 162 [penwidth=2]
    27 -> 164 [penwidth=2]
    27 -> 70 [penwidth=2]
    27 -> 166 [penwidth=2]
    27 -> 134 [penwidth=2]
    27 -> 88 [penwidth=2]
    27 -> 159 [penwidth=2]
    27 -> 87 [penwidth=2]
    27 -> 84 [penwidth=2]
    27 -> 168 [penwidth=2]
    27 -> 72 [penwidth=2]
    27 -> 167 [penwidth=2]
    27 -> 160 [penwidth=2]
    27 -> 73 [penwidth=2]
    27 -> 113 [penwidth=2]
    27 -> 130 [penwidth=2]
    27 -> 163 [penwidth=2]
    27 -> 170 [penwidth=2]
    28 -> 165 [penwidth=2]
    28 -> 70 [penwidth=2]
    28 -> 123 [penwidth=2]
    28 -> 22 [penwidth=2]
    28 -> 69 [penwidth=2]
    28 -> 132 [penwidth=2]
    28 -> 154 [penwidth=2]
    28 -> 76 [penwidth=2]
    28 -> 175 [penwidth=2]
    28 -> 85 [penwidth=2]
    28 -> 174 [penwidth=2]
    28 -> 129 [penwidth=2]
    31 -> 113 [penwidth=2]
    45 -> 71 [penwidth=2]
    45 -> 119 [penwidth=2]
    45 -> 72 [penwidth=2]
    45 -> 133 [penwidth=2]
    45 -> 171 [penwidth=2]
    45 -> 132 [penwidth=2]
    45 -> 151 [penwidth=2]
    45 -> 116 [penwidth=2]
    45 -> 113 [penwidth=2]
    45 -> 83 [penwidth=2]
    45 -> 89 [penwidth=2]
    45 -> 69 [penwidth=2]
    45 -> 162 [penwidth=2]
    45 -> 121 [penwidth=2]
    45 -> 166 [penwidth=2]
    45 -> 130 [penwidth=2]
    45 -> 82 [penwidth=2]
    45 -> 118 [penwidth=2]
    45 -> 126 [penwidth=2]
    45 -> 175 [penwidth=2]
    45 -> 22 [penwidth=2]
    45 -> 176 [penwidth=2]
    45 -> 168 [penwidth=2]
    45 -> 122 [penwidth=2]
    45 -> 92 [penwidth=2]
    45 -> 90 [penwidth=2]
    45 -> 157 [penwidth=2]
    45 -> 156 [penwidth=2]
    45 -> 68 [penwidth=2]
    45 -> 129 [penwidth=2]
    45 -> 120 [penwidth=2]
    45 -> 159 [penwidth=2]
    45 -> 78 [penwidth=2]
    45 -> 73 [penwidth=2]
    45 -> 114 [penwidth=2]
    45 -> 84 [penwidth=2]
    45 -> 170 [penwidth=2]
    45 -> 111 [penwidth=2]
    45 -> 81 [penwidth=2]
    45 -> 115 [penwidth=2]
    45 -> 117 [penwidth=2]
    45 -> 70 [penwidth=2]
    47 -> 151 [penwidth=2]
    47 -> 133 [penwidth=2]
    47 -> 121 [penwidth=2]
    47 -> 152 [penwidth=2]
    47 -> 167 [penwidth=2]
    47 -> 114 [penwidth=2]
    47 -> 122 [penwidth=2]
    47 -> 75 [penwidth=2]
    47 -> 175 [penwidth=2]
    7 -> 22 [penwidth=2]
    7 -> 157 [penwidth=2]
    7 -> 85 [penwidth=2]
    7 -> 119 [penwidth=2]
    7 -> 158 [penwidth=2]
    7 -> 114 [penwidth=2]
    7 -> 166 [penwidth=2]
    7 -> 156 [penwidth=2]
    7 -> 151 [penwidth=2]
    7 -> 92 [penwidth=2]
    7 -> 121 [penwidth=2]
    7 -> 87 [penwidth=2]
    7 -> 134 [penwidth=2]
    7 -> 173 [penwidth=2]
    7 -> 78 [penwidth=2]
    7 -> 73 [penwidth=2]
    7 -> 172 [penwidth=2]
    7 -> 130 [penwidth=2]
    7 -> 154 [penwidth=2]
    7 -> 124 [penwidth=2]
    7 -> 162 [penwidth=2]
    7 -> 93 [penwidth=2]
    7 -> 159 [penwidth=2]
    7 -> 169 [penwidth=2]
    7 -> 88 [penwidth=2]
    7 -> 91 [penwidth=2]
    7 -> 125 [penwidth=2]
    7 -> 127 [penwidth=2]
    7 -> 133 [penwidth=2]
    7 -> 90 [penwidth=2]
    7 -> 76 [penwidth=2]
    60 -> 83 [penwidth=2]
    60 -> 127 [penwidth=2]
    60 -> 119 [penwidth=2]
    60 -> 71 [penwidth=2]
    60 -> 78 [penwidth=2]
    60 -> 82 [penwidth=2]
    60 -> 134 [penwidth=2]
    60 -> 129 [penwidth=2]
    60 -> 93 [penwidth=2]
    60 -> 161 [penwidth=2]
    60 -> 77 [penwidth=2]
    60 -> 115 [penwidth=2]
    60 -> 153 [penwidth=2]
    60 -> 113 [penwidth=2]
    60 -> 116 [penwidth=2]
    60 -> 173 [penwidth=2]
    60 -> 73 [penwidth=2]
    60 -> 132 [penwidth=2]
    60 -> 156 [penwidth=2]
    60 -> 22 [penwidth=2]
    60 -> 118 [penwidth=2]
    60 -> 157 [penwidth=2]
    60 -> 125 [penwidth=2]
    60 -> 126 [penwidth=2]
    60 -> 81 [penwidth=2]
    60 -> 168 [penwidth=2]
    60 -> 76 [penwidth=2]
    60 -> 79 [penwidth=2]
    60 -> 75 [penwidth=2]
    60 -> 162 [penwidth=2]
    60 -> 84 [penwidth=2]
    60 -> 114 [penwidth=2]
    60 -> 120 [penwidth=2]
    60 -> 72 [penwidth=2]
    60 -> 117 [penwidth=2]
    60 -> 152 [penwidth=2]
    60 -> 169 [penwidth=2]
    60 -> 89 [penwidth=2]
    60 -> 110 [penwidth=2]
    60 -> 160 [penwidth=2]
    60 -> 158 [penwidth=2]
    60 -> 164 [penwidth=2]
    60 -> 121 [penwidth=2]
    60 -> 80 [penwidth=2]
    60 -> 151 [penwidth=2]
    60 -> 86 [penwidth=2]
    60 -> 90 [penwidth=2]
    60 -> 159 [penwidth=2]
    60 -> 163 [penwidth=2]
    60 -> 130 [penwidth=2]
    61 -> 129 [penwidth=2]
    61 -> 161 [penwidth=2]
    61 -> 77 [penwidth=2]
    61 -> 132 [penwidth=2]
    61 -> 174 [penwidth=2]
    61 -> 171 [penwidth=2]
    61 -> 70 [penwidth=2]
}