digraph G {
    0 [penwidth=3,label="0"]
    1 [penwidth=3,label="1"]
    2 [penwidth=3,label="2"]
    3 [penwidth=3,label="3"]
    4 [penwidth=3,label="4"]
    5 [penwidth=3,label="5"]
    6 [penwidth=3,label="6"]
    7 [penwidth=3,label="7"]
    8 [penwidth=3,label="8"]
    9 [penwidth=3,label="9"]
    10 [penwidth=3,label="10"]
    11 [penwidth=3,label="11"]
    12 [penwidth=3,label="12"]
    13 [penwidth=3,label="13"]
    14 [penwidth=3,label="14"]
    15 [penwidth=3,label="15"]
    16 [penwidth=3,label="16"]
    17 [penwidth=3,label="17"]
    18 [penwidth=3,label="18"]
    19 [penwidth=3,label="19"]
    20 [penwidth=3,label="20"]
    21 [penwidth=3,label="21"]
    22 [penwidth=3,label="22"]
    23 [penwidth=3,label="23"]
    24 [penwidth=3,label="24"]
    25 [penwidth=3,label="25"]
    26 [penwidth=3,label="26"]
    27 [penwidth=3,label="27"]
    28 [penwidth=3,label="28"]
    29 [penwidth=3,label="29"]
    30 [penwidth=3,label="30"]
    31 [penwidth=3,label="31"]
    32 [penwidth=3,label="32"]
    33 [penwidth=3,label="33"]
    34 [penwidth=3,label="34"]
    35 [penwidth=3,label="35"]
    36 [penwidth=3,label="36"]
    37 [penwidth=3,label="37"]
    38 [penwidth=3,label="38"]
    39 [penwidth=3,label="39"]
    40 [penwidth=3,label="40"]
    41 [penwidth=3,label="41"]
    42 [penwidth=3,label="42"]
    43 [penwidth=3,label="43"]
    44 [penwidth=3,label="44"]
    45 [penwidth=3,label="45"]
    46 [penwidth=3,label="46"]
    47 [penwidth=3,label="47"]
    48 [penwidth=3,label="48"]
    49 [penwidth=3,label="49"]
    50 [penwidth=3,label="50"]
    51 [penwidth=3,label="51"]
    52 [penwidth=3,label="52"]
    53 [penwidth=3,label="53"]
    54 [penwidth=3,label="54"]
    55 [penwidth=3,label="55"]
    56 [penwidth=3,label="56"]
    57 [penwidth=3,label="57"]
    58 [penwidth=3,label="58"]
    59 [penwidth=3,label="59"]
    60 [penwidth=3,label="60"]
    61 [penwidth=3,label="61"]
    62 [penwidth=3,label="62"]
    63 [penwidth=3,label="63"]
    64 [penwidth=3,label="64"]
    65 [penwidth=3,label="65"]
    66 [penwidth=3,label="66"]
    67 [penwidth=3,label="67"]
    68 [penwidth=3,label="68"]
    69 [penwidth=3,label="69"]
    70 [penwidth=3,label="70"]
    71 [penwidth=3,label="71"]
    72 [penwidth=3,label="72"]
    73 [penwidth=3,label="73"]
    74 [penwidth=3,label="74"]
    75 [penwidth=3,label="75"]
    76 [penwidth=3,label="76"]
    77 [penwidth=3,label="77"]
    78 [penwidth=3,label="78"]
    79 [penwidth=3,label="79"]
    80 [penwidth=3,label="80"]
    81 [penwidth=3,label="81"]
    82 [penwidth=3,label="82"]
    83 [penwidth=3,label="83"]
    84 [penwidth=3,label="84"]
    85 [penwidth=3,label="85"]
    86 [penwidth=3,label="86"]
    87 [penwidth=3,label="87"]
    88 [penwidth=3,label="88"]
    89 [penwidth=3,label="89"]
    90 [penwidth=3,label="90"]
    91 [penwidth=3,label="91"]
    92 [penwidth=3,label="92"]
    93 [penwidth=3,label="93"]
    94 [penwidth=3,label="94"]
    95 [penwidth=3,label="95"]
    96 [penwidth=3,label="96"]
    97 [penwidth=3,label="97"]
    98 [penwidth=3,label="98"]
    99 [penwidth=3,label="99"]
    100 [penwidth=3,label="100"]
    101 [penwidth=3,label="101"]
    102 [penwidth=3,label="102"]
    103 [penwidth=3,label="103"]
    104 [penwidth=3,label="104"]
    105 [penwidth=3,label="105"]
    106 [penwidth=3,label="106"]
    107 [penwidth=3,label="107"]
    108 [penwidth=3,label="108"]
    109 [penwidth=3,label="109"]
    110 [penwidth=3,label="110"]
    111 [penwidth=3,label="111"]
    112 [penwidth=3,label="112"]
    113 [penwidth=3,label="113"]
    114 [penwidth=3,label="114"]
    115 [penwidth=3,label="115"]
    116 [penwidth=3,label="116"]
    117 [penwidth=3,label="117"]
    118 [penwidth=3,label="118"]
    119 [penwidth=3,label="119"]
    120 [penwidth=3,label="120"]
    121 [penwidth=3,label="121"]
    122 [penwidth=3,label="122"]
    123 [penwidth=3,label="123"]
    124 [penwidth=3,label="124"]
    125 [penwidth=3,label="125"]
    126 [penwidth=3,label="126"]
    127 [penwidth=3,label="127"]
    128 [penwidth=3,label="128"]
    129 [penwidth=3,label="129"]
    130 [penwidth=3,label="130"]
    131 [penwidth=3,label="131"]
    132 [penwidth=3,label="132"]
    133 [penwidth=3,label="133"]
    134 [penwidth=3,label="134"]
    135 [penwidth=3,label="135"]
    136 [penwidth=3,label="136"]
    137 [penwidth=3,label="137"]
    138 [penwidth=3,label="138"]
    139 [penwidth=3,label="139"]
    140 [penwidth=3,label="140"]
    141 [penwidth=3,label="141"]
    142 [penwidth=3,label="142"]
    143 [penwidth=3,label="143"]
    144 [penwidth=3,label="144"]
    145 [penwidth=3,label="145"]
    146 [penwidth=3,label="146"]
    147 [penwidth=3,label="147"]
    148 [penwidth=3,label="148"]
    149 [penwidth=3,label="149"]
    150 [penwidth=3,label="150"]
    151 [penwidth=3,label="151"]
    152 [penwidth=3,label="152"]
    153 [penwidth=3,label="153"]
    154 [penwidth=3,label="154"]
    155 [penwidth=3,label="155"]
    156 [penwidth=3,label="156"]
    157 [penwidth=3,label="157"]
    158 [penwidth=3,label="158"]
    159 [penwidth=3,label="159"]
    160 [penwidth=3,label="160"]
    161 [penwidth=3,label="161"]
    162 [penwidth=3,label="162"]
    163 [penwidth=3,label="163"]
    164 [penwidth=3,label="164"]
    165 [penwidth=3,label="165"]
    166 [penwidth=3,label="166"]
    167 [penwidth=3,label="167"]
    168 [penwidth=3,label="168"]
    169 [penwidth=3,label="169"]
    170 [penwidth=3,label="170"]
    171 [penwidth=3,label="171"]
    172 [penwidth=3,label="172"]
    173 [penwidth=3,label="173"]
    174 [penwidth=3,label="174"]
    175 [penwidth=3,label="175"]
    176 [penwidth=3,label="176"]
    177 [penwidth=3,label="177"]
    178 [penwidth=3,label="178"]
    179 [penwidth=3,label="179"]
    180 [penwidth=3,label="180"]
    181 [penwidth=3,label="181"]
    182 [penwidth=3,label="182"]
    183 [penwidth=3,label="183"]
    184 [penwidth=3,label="184"]
    185 [penwidth=3,label="185"]
    186 [penwidth=3,label="186"]
    187 [penwidth=3,label="187"]
    188 [penwidth=3,label="188"]
    189 [penwidth=3,label="189"]
    190 [penwidth=3,label="190"]
    191 [penwidth=3,label="191"]
    192 [penwidth=3,label="192"]
    193 [penwidth=3,label="193"]
    194 [penwidth=3,label="194"]
    195 [penwidth=3,label="195"]
    196 [penwidth=3,label="196"]
    197 [penwidth=3,label="197"]
    198 [penwidth=3,label="198"]
    199 [penwidth=3,label="199"]
    200 [penwidth=3,label="200"]
    201 [penwidth=3,label="201"]
    202 [penwidth=3,label="202"]
    203 [penwidth=3,label="203"]
    204 [penwidth=3,label="204"]

    50 -> 0 [penwidth=2]
    92 -> 0 [penwidth=2]
    134 -> 0 [penwidth=2]
    51 -> 50 [penwidth=2]
    93 -> 50 [penwidth=2]
    135 -> 50 [penwidth=2]
    52 -> 50 [penwidth=2]
    94 -> 50 [penwidth=2]
    136 -> 50 [penwidth=2]
    53 -> 50 [penwidth=2]
    95 -> 50 [penwidth=2]
    137 -> 50 [penwidth=2]
    54 -> 50 [penwidth=2]
    96 -> 50 [penwidth=2]
    138 -> 50 [penwidth=2]
    55 -> 50 [penwidth=2]
    97 -> 50 [penwidth=2]
    139 -> 50 [penwidth=2]
    56 -> 50 [penwidth=2]
    98 -> 50 [penwidth=2]
    140 -> 50 [penwidth=2]
    57 -> 50 [penwidth=2]
    99 -> 92 [penwidth=2]
    141 -> 92 [penwidth=2]
    58 -> 92 [penwidth=2]
    100 -> 92 [penwidth=2]
    142 -> 92 [penwidth=2]
    59 -> 92 [penwidth=2]
    101 -> 92 [penwidth=2]
    143 -> 92 [penwidth=2]
    60 -> 92 [penwidth=2]
    102 -> 92 [penwidth=2]
    144 -> 92 [penwidth=2]
    61 -> 92 [penwidth=2]
    103 -> 92 [penwidth=2]
    145 -> 92 [penwidth=2]
    62 -> 92 [penwidth=2]
    104 -> 92 [penwidth=2]
    146 -> 92 [penwidth=2]
    63 -> 92 [penwidth=2]
    105 -> 92 [penwidth=2]
    147 -> 92 [penwidth=2]
    64 -> 92 [penwidth=2]
    106 -> 134 [penwidth=2]
    148 -> 134 [penwidth=2]
    65 -> 134 [penwidth=2]
    107 -> 134 [penwidth=2]
    149 -> 134 [penwidth=2]
    66 -> 134 [penwidth=2]
    108 -> 134 [penwidth=2]
    150 -> 134 [penwidth=2]
    67 -> 134 [penwidth=2]
    109 -> 134 [penwidth=2]
    151 -> 51 [penwidth=2]
    68 -> 51 [penwidth=2]
    110 -> 51 [penwidth=2]
    152 -> 51 [penwidth=2]
    69 -> 93 [penwidth=2]
    111 -> 93 [penwidth=2]
    153 -> 93 [penwidth=2]
    70 -> 93 [penwidth=2]
    112 -> 135 [penwidth=2]
    154 -> 135 [penwidth=2]
    71 -> 135 [penwidth=2]
    113 -> 135 [penwidth=2]
    155 -> 52 [penwidth=2]
    72 -> 52 [penwidth=2]
    114 -> 52 [penwidth=2]
    156 -> 52 [penwidth=2]
    73 -> 52 [penwidth=2]
    115 -> 52 [penwidth=2]
    157 -> 52 [penwidth=2]
    74 -> 52 [penwidth=2]
    116 -> 94 [penwidth=2]
    158 -> 94 [penwidth=2]
    75 -> 94 [penwidth=2]
    117 -> 94 [penwidth=2]
    159 -> 94 [penwidth=2]
    76 -> 94 [penwidth=2]
    118 -> 94 [penwidth=2]
    160 -> 94 [penwidth=2]
    77 -> 94 [penwidth=2]
    119 -> 94 [penwidth=2]
    161 -> 94 [penwidth=2]
    78 -> 94 [penwidth=2]
    120 -> 94 [penwidth=2]
    162 -> 94 [penwidth=2]
    79 -> 94 [penwidth=2]
    121 -> 94 [penwidth=2]
    163 -> 94 [penwidth=2]
    80 -> 94 [penwidth=2]
    122 -> 94 [penwidth=2]
    164 -> 94 [penwidth=2]
    81 -> 94 [penwidth=2]
    123 -> 94 [penwidth=2]
    165 -> 94 [penwidth=2]
    82 -> 94 [penwidth=2]
    124 -> 136 [penwidth=2]
    166 -> 136 [penwidth=2]
    83 -> 136 [penwidth=2]
    125 -> 136 [penwidth=2]
    167 -> 136 [penwidth=2]
    84 -> 136 [penwidth=2]
    126 -> 136 [penwidth=2]
    168 -> 136 [penwidth=2]
    1 -> 136 [penwidth=2]
    85 -> 136 [penwidth=2]
    127 -> 136 [penwidth=2]
    169 -> 136 [penwidth=2]
    2 -> 136 [penwidth=2]
    86 -> 136 [penwidth=2]
    128 -> 136 [penwidth=2]
    170 -> 136 [penwidth=2]
    3 -> 136 [penwidth=2]
    87 -> 136 [penwidth=2]
    129 -> 136 [penwidth=2]
    171 -> 136 [penwidth=2]
    4 -> 136 [penwidth=2]
    88 -> 136 [penwidth=2]
    130 -> 53 [penwidth=2]
    172 -> 53 [penwidth=2]
    5 -> 53 [penwidth=2]
    89 -> 53 [penwidth=2]
    131 -> 53 [penwidth=2]
    173 -> 53 [penwidth=2]
    6 -> 53 [penwidth=2]
    90 -> 53 [penwidth=2]
    132 -> 53 [penwidth=2]
    174 -> 95 [penwidth=2]
    7 -> 95 [penwidth=2]
    91 -> 95 [penwidth=2]
    133 -> 95 [penwidth=2]
    175 -> 95 [penwidth=2]
    8 -> 95 [penwidth=2]
    176 -> 95 [penwidth=2]
    9 -> 95 [penwidth=2]
    177 -> 95 [penwidth=2]
    10 -> 95 [penwidth=2]
    178 -> 95 [penwidth=2]
    11 -> 95 [penwidth=2]
    179 -> 95 [penwidth=2]
    12 -> 95 [penwidth=2]
    180 -> 95 [penwidth=2]
    13 -> 95 [penwidth=2]
    181 -> 95 [penwidth=2]
    14 -> 95 [penwidth=2]
    182 -> 95 [penwidth=2]
    15 -> 95 [penwidth=2]
    183 -> 95 [penwidth=2]
    16 -> 95 [penwidth=2]
    184 -> 95 [penwidth=2]
    17 -> 95 [penwidth=2]
    185 -> 95 [penwidth=2]
    18 -> 95 [penwidth=2]
    186 -> 137 [penwidth=2]
    19 -> 137 [penwidth=2]
    187 -> 137 [penwidth=2]
    20 -> 137 [penwidth=2]
    188 -> 137 [penwidth=2]
    21 -> 137 [penwidth=2]
    189 -> 137 [penwidth=2]
    22 -> 137 [penwidth=2]
    190 -> 137 [penwidth=2]
    23 -> 137 [penwidth=2]
    191 -> 137 [penwidth=2]
    24 -> 137 [penwidth=2]
    192 -> 137 [penwidth=2]
    25 -> 137 [penwidth=2]
    193 -> 137 [penwidth=2]
    26 -> 137 [penwidth=2]
    194 -> 137 [penwidth=2]
    27 -> 137 [penwidth=2]
    195 -> 54 [penwidth=2]
    28 -> 54 [penwidth=2]
    196 -> 54 [penwidth=2]
    29 -> 54 [penwidth=2]
    197 -> 54 [penwidth=2]
    30 -> 54 [penwidth=2]
    198 -> 54 [penwidth=2]
    31 -> 54 [penwidth=2]
    199 -> 54 [penwidth=2]
    32 -> 54 [penwidth=2]
    200 -> 96 [penwidth=2]
    33 -> 96 [penwidth=2]
    201 -> 96 [penwidth=2]
    34 -> 96 [penwidth=2]
    202 -> 96 [penwidth=2]
    35 -> 96 [penwidth=2]
    203 -> 96 [penwidth=2]
    36 -> 138 [penwidth=2]
    204 -> 138 [penwidth=2]
    37 -> 138 [penwidth=2]
    38 -> 138 [penwidth=2]
    39 -> 138 [penwidth=2]
    40 -> 138 [penwidth=2]
    41 -> 138 [penwidth=2]
    42 -> 138 [penwidth=2]
    43 -> 138 [penwidth=2]
    44 -> 55 [penwidth=2]
    45 -> 55 [penwidth=2]
    46 -> 55 [penwidth=2]
    47 -> 55 [penwidth=2]
    48 -> 55 [penwidth=2]
    49 -> 55 [penwidth=2]
    104 -> 50 [penwidth=2]
    63 -> 134 [penwidth=2]
    114 -> 109 [penwidth=2]
    114 -> 105 [penwidth=2]
    114 -> 67 [penwidth=2]
    114 -> 65 [penwidth=2]
    114 -> 63 [penwidth=2]
    117 -> 148 [penwidth=2]
    117 -> 139 [penwidth=2]
    117 -> 51 [penwidth=2]
    117 -> 101 [penwidth=2]
    117 -> 144 [penwidth=2]
    117 -> 64 [penwidth=2]
    117 -> 52 [penwidth=2]
    117 -> 104 [penwidth=2]
    117 -> 60 [penwidth=2]
    117 -> 97 [penwidth=2]
    117 -> 54 [penwidth=2]
    117 -> 57 [penwidth=2]
    117 -> 135 [penwidth=2]
    117 -> 137 [penwidth=2]
    117 -> 108 [penwidth=2]
    117 -> 53 [penwidth=2]
    117 -> 56 [penwidth=2]
    117 -> 140 [penwidth=2]
    117 -> 66 [penwidth=2]
    117 -> 102 [penwidth=2]
    117 -> 100 [penwidth=2]
    117 -> 136 [penwidth=2]
    117 -> 138 [penwidth=2]
    117 -> 98 [penwidth=2]
    117 -> 142 [penwidth=2]
    117 -> 93 [penwidth=2]
    117 -> 107 [penwidth=2]
    117 -> 143 [penwidth=2]
    117 -> 67 [penwidth=2]
    117 -> 105 [penwidth=2]
    117 -> 58 [penwidth=2]
    117 -> 61 [penwidth=2]
    117 -> 109 [penwidth=2]
    117 -> 95 [penwidth=2]
    159 -> 93 [penwidth=2]
    159 -> 149 [penwidth=2]
    159 -> 138 [penwidth=2]
    159 -> 150 [penwidth=2]
    159 -> 97 [penwidth=2]
    159 -> 104 [penwidth=2]
    159 -> 135 [penwidth=2]
    159 -> 100 [penwidth=2]
    159 -> 55 [penwidth=2]
    159 -> 142 [penwidth=2]
    159 -> 95 [penwidth=2]
    159 -> 140 [penwidth=2]
    159 -> 145 [penwidth=2]
    159 -> 65 [penwidth=2]
    159 -> 56 [penwidth=2]
    159 -> 59 [penwidth=2]
    159 -> 148 [penwidth=2]
    76 -> 55 [penwidth=2]
    76 -> 54 [penwidth=2]
    76 -> 100 [penwidth=2]
    76 -> 53 [penwidth=2]
    76 -> 59 [penwidth=2]
    76 -> 62 [penwidth=2]
    76 -> 97 [penwidth=2]
    76 -> 144 [penwidth=2]
    76 -> 142 [penwidth=2]
    76 -> 148 [penwidth=2]
    76 -> 136 [penwidth=2]
    76 -> 65 [penwidth=2]
    76 -> 149 [penwidth=2]
    76 -> 51 [penwidth=2]
    76 -> 96 [penwidth=2]
    76 -> 135 [penwidth=2]
    76 -> 141 [penwidth=2]
    76 -> 104 [penwidth=2]
    76 -> 66 [penwidth=2]
    76 -> 147 [penwidth=2]
    76 -> 56 [penwidth=2]
    76 -> 150 [penwidth=2]
    76 -> 145 [penwidth=2]
    76 -> 107 [penwidth=2]
    76 -> 99 [penwidth=2]
    76 -> 139 [penwidth=2]
    76 -> 101 [penwidth=2]
    76 -> 63 [penwidth=2]
    166 -> 109 [penwidth=2]
    166 -> 62 [penwidth=2]
    166 -> 52 [penwidth=2]
    166 -> 98 [penwidth=2]
    166 -> 67 [penwidth=2]
    166 -> 58 [penwidth=2]
    166 -> 106 [penwidth=2]
    166 -> 145 [penwidth=2]
    166 -> 97 [penwidth=2]
    166 -> 53 [penwidth=2]
    166 -> 107 [penwidth=2]
    166 -> 149 [penwidth=2]
    166 -> 93 [penwidth=2]
    166 -> 105 [penwidth=2]
    166 -> 94 [penwidth=2]
    166 -> 144 [penwidth=2]
    166 -> 150 [penwidth=2]
    166 -> 103 [penwidth=2]
    166 -> 147 [penwidth=2]
    166 -> 59 [penwidth=2]
    166 -> 139 [penwidth=2]
    166 -> 140 [penwidth=2]
    166 -> 64 [penwidth=2]
    166 -> 146 [penwidth=2]
    166 -> 95 [penwidth=2]
    166 -> 137 [penwidth=2]
    83 -> 67 [penwidth=2]
    83 -> 101 [penwidth=2]
    83 -> 98 [penwidth=2]
    83 -> 108 [penwidth=2]
    83 -> 150 [penwidth=2]
    83 -> 61 [penwidth=2]
    83 -> 147 [penwidth=2]
    83 -> 105 [penwidth=2]
    83 -> 51 [penwidth=2]
    83 -> 144 [penwidth=2]
    83 -> 53 [penwidth=2]
    83 -> 52 [penwidth=2]
    83 -> 54 [penwidth=2]
    83 -> 95 [penwidth=2]
    83 -> 146 [penwidth=2]
    83 -> 99 [penwidth=2]
    83 -> 145 [penwidth=2]
    83 -> 106 [penwidth=2]
    83 -> 63 [penwidth=2]
    83 -> 93 [penwidth=2]
    83 -> 149 [penwidth=2]
    83 -> 104 [penwidth=2]
    83 -> 139 [penwidth=2]
    83 -> 64 [penwidth=2]
    83 -> 97 [penwidth=2]
    83 -> 109 [penwidth=2]
    83 -> 96 [penwidth=2]
    83 -> 137 [penwidth=2]
    83 -> 56 [penwidth=2]
    83 -> 107 [penwidth=2]
    83 -> 62 [penwidth=2]
    83 -> 100 [penwidth=2]
    83 -> 66 [penwidth=2]
    83 -> 148 [penwidth=2]
    83 -> 58 [penwidth=2]
    83 -> 59 [penwidth=2]
    83 -> 65 [penwidth=2]
    83 -> 141 [penwidth=2]
    83 -> 138 [penwidth=2]
    83 -> 142 [penwidth=2]
    83 -> 94 [penwidth=2]
    128 -> 104 [penwidth=2]
    128 -> 149 [penwidth=2]
    128 -> 143 [penwidth=2]
    128 -> 96 [penwidth=2]
    128 -> 65 [penwidth=2]
    128 -> 141 [penwidth=2]
    128 -> 100 [penwidth=2]
    128 -> 93 [penwidth=2]
    128 -> 103 [penwidth=2]
    128 -> 150 [penwidth=2]
    128 -> 61 [penwidth=2]
    128 -> 99 [penwidth=2]
    128 -> 67 [penwidth=2]
    128 -> 147 [penwidth=2]
    128 -> 139 [penwidth=2]
    128 -> 108 [penwidth=2]
    128 -> 62 [penwidth=2]
    128 -> 53 [penwidth=2]
    128 -> 137 [penwidth=2]
    128 -> 54 [penwidth=2]
    128 -> 142 [penwidth=2]
    128 -> 138 [penwidth=2]
    128 -> 109 [penwidth=2]
    128 -> 58 [penwidth=2]
    128 -> 98 [penwidth=2]
    129 -> 99 [penwidth=2]
    129 -> 150 [penwidth=2]
    129 -> 101 [penwidth=2]
    129 -> 147 [penwidth=2]
    129 -> 66 [penwidth=2]
    129 -> 104 [penwidth=2]
    129 -> 135 [penwidth=2]
    129 -> 51 [penwidth=2]
    129 -> 142 [penwidth=2]
    129 -> 107 [penwidth=2]
    129 -> 108 [penwidth=2]
    129 -> 105 [penwidth=2]
    129 -> 106 [penwidth=2]
    129 -> 97 [penwidth=2]
    129 -> 149 [penwidth=2]
    129 -> 58 [penwidth=2]
    129 -> 56 [penwidth=2]
    129 -> 53 [penwidth=2]
    129 -> 102 [penwidth=2]
    129 -> 62 [penwidth=2]
    129 -> 143 [penwidth=2]
    129 -> 109 [penwidth=2]
    129 -> 61 [penwidth=2]
    129 -> 148 [penwidth=2]
    129 -> 57 [penwidth=2]
    129 -> 64 [penwidth=2]
    129 -> 93 [penwidth=2]
    129 -> 55 [penwidth=2]
    129 -> 96 [penwidth=2]
    129 -> 146 [penwidth=2]
    129 -> 95 [penwidth=2]
    129 -> 94 [penwidth=2]
    129 -> 98 [penwidth=2]
    4 -> 97 [penwidth=2]
    4 -> 54 [penwidth=2]
    4 -> 148 [penwidth=2]
    4 -> 58 [penwidth=2]
    172 -> 51 [penwidth=2]
    172 -> 56 [penwidth=2]
    172 -> 105 [penwidth=2]
    172 -> 100 [penwidth=2]
    172 -> 94 [penwidth=2]
    172 -> 52 [penwidth=2]
    172 -> 64 [penwidth=2]
    172 -> 101 [penwidth=2]
    172 -> 55 [penwidth=2]
    172 -> 65 [penwidth=2]
    172 -> 62 [penwidth=2]
    172 -> 145 [penwidth=2]
    172 -> 142 [penwidth=2]
    172 -> 144 [penwidth=2]
    172 -> 61 [penwidth=2]
    172 -> 104 [penwidth=2]
    172 -> 146 [penwidth=2]
    172 -> 99 [penwidth=2]
    172 -> 150 [penwidth=2]
    12 -> 55 [penwidth=2]
    12 -> 149 [penwidth=2]
    12 -> 56 [penwidth=2]
    12 -> 144 [penwidth=2]
    12 -> 147 [penwidth=2]
    12 -> 136 [penwidth=2]
    12 -> 103 [penwidth=2]
    12 -> 61 [penwidth=2]
    12 -> 146 [penwidth=2]
    12 -> 135 [penwidth=2]
    12 -> 99 [penwidth=2]
    12 -> 98 [penwidth=2]
    12 -> 67 [penwidth=2]
    12 -> 148 [penwidth=2]
    12 -> 102 [penwidth=2]
    12 -> 57 [penwidth=2]
    12 -> 104 [penwidth=2]
    12 -> 107 [penwidth=2]
    12 -> 142 [penwidth=2]
    12 -> 60 [penwidth=2]
    12 -> 101 [penwidth=2]
    12 -> 93 [penwidth=2]
    12 -> 109 [penwidth=2]
    12 -> 53 [penwidth=2]
    12 -> 63 [penwidth=2]
    12 -> 52 [penwidth=2]
    12 -> 64 [penwidth=2]
    12 -> 106 [penwidth=2]
    12 -> 140 [penwidth=2]
    12 -> 94 [penwidth=2]
    12 -> 62 [penwidth=2]
    198 -> 148 [penwidth=2]
    198 -> 143 [penwidth=2]
    198 -> 62 [penwidth=2]
    198 -> 55 [penwidth=2]
    198 -> 59 [penwidth=2]
    198 -> 101 [penwidth=2]
    198 -> 56 [penwidth=2]
    198 -> 137 [penwidth=2]
    198 -> 145 [penwidth=2]
    198 -> 136 [penwidth=2]
    198 -> 102 [penwidth=2]
    198 -> 94 [penwidth=2]
    198 -> 98 [penwidth=2]
    198 -> 106 [penwidth=2]
    37 -> 64 [penwidth=2]
    37 -> 136 [penwidth=2]
    37 -> 108 [penwidth=2]
    37 -> 52 [penwidth=2]
    37 -> 141 [penwidth=2]
    37 -> 146 [penwidth=2]
    37 -> 103 [penwidth=2]
    37 -> 57 [penwidth=2]
    37 -> 105 [penwidth=2]
    37 -> 55 [penwidth=2]
    37 -> 61 [penwidth=2]
    37 -> 150 [penwidth=2]
    37 -> 148 [penwidth=2]
    37 -> 53 [penwidth=2]
    37 -> 98 [penwidth=2]
    37 -> 65 [penwidth=2]
    37 -> 101 [penwidth=2]
    37 -> 145 [penwidth=2]
    37 -> 97 [penwidth=2]
    37 -> 96 [penwidth=2]
    37 -> 63 [penwidth=2]
    37 -> 66 [penwidth=2]
    37 -> 104 [penwidth=2]
    37 -> 62 [penwidth=2]
    37 -> 60 [penwidth=2]
    37 -> 56 [penwidth=2]
    37 -> 144 [penwidth=2]
    37 -> 58 [penwidth=2]
    37 -> 94 [penwidth=2]
    37 -> 107 [penwidth=2]
    37 -> 109 [penwidth=2]
    37 -> 106 [penwidth=2]
    37 -> 137 [penwidth=2]
    37 -> 59 [penwidth=2]
    37 -> 149 [penwidth=2]
    37 -> 142 [penwidth=2]
    37 -> 139 [penwidth=2]
    37 -> 135 [penwidth=2]
    37 -> 99 [penwidth=2]
    37 -> 143 [penwidth=2]
    37 -> 147 [penwidth=2]
    37 -> 102 [penwidth=2]
    37 -> 67 [penwidth=2]
    37 -> 100 [penwidth=2]
    37 -> 95 [penwidth=2]
    37 -> 140 [penwidth=2]
    37 -> 54 [penwidth=2]
    37 -> 93 [penwidth=2]
    46 -> 52 [penwidth=2]
    46 -> 107 [penwidth=2]
    46 -> 141 [penwidth=2]
    46 -> 65 [penwidth=2]
    46 -> 143 [penwidth=2]
    46 -> 99 [penwidth=2]
    46 -> 146 [penwidth=2]
    46 -> 109 [penwidth=2]
    46 -> 59 [penwidth=2]
    46 -> 103 [penwidth=2]
    46 -> 58 [penwidth=2]
    46 -> 150 [penwidth=2]
    46 -> 140 [penwidth=2]
    46 -> 98 [penwidth=2]
    46 -> 135 [penwidth=2]
    46 -> 136 [penwidth=2]
    46 -> 144 [penwidth=2]
    46 -> 96 [penwidth=2]
    46 -> 100 [penwidth=2]
    46 -> 51 [penwidth=2]
    46 -> 66 [penwidth=2]
    46 -> 97 [penwidth=2]
    46 -> 137 [penwidth=2]
    46 -> 56 [penwidth=2]
    46 -> 105 [penwidth=2]
    46 -> 53 [penwidth=2]
    46 -> 101 [penwidth=2]
    46 -> 102 [penwidth=2]
    46 -> 54 [penwidth=2]
    46 -> 63 [penwidth=2]
    46 -> 61 [penwidth=2]
    46 -> 142 [penwidth=2]
    46 -> 62 [penwidth=2]
    46 -> 67 [penwidth=2]
    46 -> 94 [penwidth=2]
    46 -> 108 [penwidth=2]
    46 -> 57 [penwidth=2]
    46 -> 60 [penwidth=2]
    46 -> 93 [penwidth=2]
    46 -> 148 [penwidth=2]
    46 -> 149 [penwidth=2]
    46 -> 95 [penwidth=2]
    46 -> 64 [penwidth=2]
    46 -> 147 [penwidth=2]
}