digraph G {
    0 [penwidth=3,label="0"]
    1 [penwidth=3,label="1"]
    2 [penwidth=3,label="2"]
    3 [penwidth=3,label="3"]
    4 [penwidth=3,label="4"]
    5 [penwidth=3,label="5"]
    6 [penwidth=3,label="6"]
    7 [penwidth=3,label="7"]
    8 [penwidth=3,label="8"]
    9 [penwidth=3,label="9"]
    10 [penwidth=3,label="10"]
    11 [penwidth=3,label="11"]
    12 [penwidth=3,label="12"]
    13 [penwidth=3,label="13"]
    14 [penwidth=3,label="14"]
    15 [penwidth=3,label="15"]
    16 [penwidth=3,label="16"]
    17 [penwidth=3,label="17"]
    18 [penwidth=3,label="18"]
    19 [penwidth=3,label="19"]
    20 [penwidth=3,label="20"]
    21 [penwidth=3,label="21"]
    22 [penwidth=3,label="22"]
    23 [penwidth=3,label="23"]
    24 [penwidth=3,label="24"]
    25 [penwidth=3,label="25"]
    26 [penwidth=3,label="26"]
    27 [penwidth=3,label="27"]
    28 [penwidth=3,label="28"]
    29 [penwidth=3,label="29"]
    30 [penwidth=3,label="30"]
    31 [penwidth=3,label="31"]
    32 [penwidth=3,label="32"]
    33 [penwidth=3,label="33"]
    34 [penwidth=3,label="34"]
    35 [penwidth=3,label="35"]
    36 [penwidth=3,label="36"]
    37 [penwidth=3,label="37"]
    38 [penwidth=3,label="38"]
    39 [penwidth=3,label="39"]
    40 [penwidth=3,label="40"]
    41 [penwidth=3,label="41"]
    42 [penwidth=3,label="42"]
    43 [penwidth=3,label="43"]
    44 [penwidth=3,label="44"]
    45 [penwidth=3,label="45"]
    46 [penwidth=3,label="46"]
    47 [penwidth=3,label="47"]
    48 [penwidth=3,label="48"]
    49 [penwidth=3,label="49"]
    50 [penwidth=3,label="50"]
    51 [penwidth=3,label="51"]
    52 [penwidth=3,label="52"]
    53 [penwidth=3,label="53"]
    54 [penwidth=3,label="54"]
    55 [penwidth=3,label="55"]
    56 [penwidth=3,label="56"]
    57 [penwidth=3,label="57"]
    58 [penwidth=3,label="58"]
    59 [penwidth=3,label="59"]
    60 [penwidth=3,label="60"]
    61 [penwidth=3,label="61"]
    62 [penwidth=3,label="62"]
    63 [penwidth=3,label="63"]
    64 [penwidth=3,label="64"]
    65 [penwidth=3,label="65"]
    66 [penwidth=3,label="66"]
    67 [penwidth=3,label="67"]
    68 [penwidth=3,label="68"]
    69 [penwidth=3,label="69"]
    70 [penwidth=3,label="70"]
    71 [penwidth=3,label="71"]
    72 [penwidth=3,label="72"]
    73 [penwidth=3,label="73"]
    74 [penwidth=3,label="74"]
    75 [penwidth=3,label="75"]
    76 [penwidth=3,label="76"]
    77 [penwidth=3,label="77"]
    78 [penwidth=3,label="78"]
    79 [penwidth=3,label="79"]
    80 [penwidth=3,label="80"]
    81 [penwidth=3,label="81"]
    82 [penwidth=3,label="82"]
    83 [penwidth=3,label="83"]
    84 [penwidth=3,label="84"]
    85 [penwidth=3,label="85"]
    86 [penwidth=3,label="86"]
    87 [penwidth=3,label="87"]
    88 [penwidth=3,label="88"]
    89 [penwidth=3,label="89"]
    90 [penwidth=3,label="90"]
    91 [penwidth=3,label="91"]
    92 [penwidth=3,label="92"]
    93 [penwidth=3,label="93"]
    94 [penwidth=3,label="94"]
    95 [penwidth=3,label="95"]
    96 [penwidth=3,label="96"]
    97 [penwidth=3,label="97"]
    98 [penwidth=3,label="98"]
    99 [penwidth=3,label="99"]
    100 [penwidth=3,label="100"]
    101 [penwidth=3,label="101"]
    102 [penwidth=3,label="102"]
    103 [penwidth=3,label="103"]
    104 [penwidth=3,label="104"]
    105 [penwidth=3,label="105"]
    106 [penwidth=3,label="106"]
    107 [penwidth=3,label="107"]
    108 [penwidth=3,label="108"]
    109 [penwidth=3,label="109"]
    110 [penwidth=3,label="110"]
    111 [penwidth=3,label="111"]
    112 [penwidth=3,label="112"]
    113 [penwidth=3,label="113"]
    114 [penwidth=3,label="114"]
    115 [penwidth=3,label="115"]
    116 [penwidth=3,label="116"]
    117 [penwidth=3,label="117"]
    118 [penwidth=3,label="118"]
    119 [penwidth=3,label="119"]
    120 [penwidth=3,label="120"]
    121 [penwidth=3,label="121"]
    122 [penwidth=3,label="122"]
    123 [penwidth=3,label="123"]
    124 [penwidth=3,label="124"]
    125 [penwidth=3,label="125"]
    126 [penwidth=3,label="126"]
    127 [penwidth=3,label="127"]
    128 [penwidth=3,label="128"]
    129 [penwidth=3,label="129"]
    130 [penwidth=3,label="130"]
    131 [penwidth=3,label="131"]
    132 [penwidth=3,label="132"]
    133 [penwidth=3,label="133"]
    134 [penwidth=3,label="134"]
    135 [penwidth=3,label="135"]
    136 [penwidth=3,label="136"]
    137 [penwidth=3,label="137"]
    138 [penwidth=3,label="138"]
    139 [penwidth=3,label="139"]
    140 [penwidth=3,label="140"]
    141 [penwidth=3,label="141"]
    142 [penwidth=3,label="142"]
    143 [penwidth=3,label="143"]
    144 [penwidth=3,label="144"]
    145 [penwidth=3,label="145"]
    146 [penwidth=3,label="146"]
    147 [penwidth=3,label="147"]
    148 [penwidth=3,label="148"]
    149 [penwidth=3,label="149"]
    150 [penwidth=3,label="150"]
    151 [penwidth=3,label="151"]
    152 [penwidth=3,label="152"]
    153 [penwidth=3,label="153"]
    154 [penwidth=3,label="154"]
    155 [penwidth=3,label="155"]
    156 [penwidth=3,label="156"]
    157 [penwidth=3,label="157"]
    158 [penwidth=3,label="158"]
    159 [penwidth=3,label="159"]
    160 [penwidth=3,label="160"]
    161 [penwidth=3,label="161"]
    162 [penwidth=3,label="162"]
    163 [penwidth=3,label="163"]
    164 [penwidth=3,label="164"]
    165 [penwidth=3,label="165"]
    166 [penwidth=3,label="166"]
    167 [penwidth=3,label="167"]
    168 [penwidth=3,label="168"]
    169 [penwidth=3,label="169"]
    170 [penwidth=3,label="170"]
    171 [penwidth=3,label="171"]
    172 [penwidth=3,label="172"]
    173 [penwidth=3,label="173"]
    174 [penwidth=3,label="174"]
    175 [penwidth=3,label="175"]
    176 [penwidth=3,label="176"]
    177 [penwidth=3,label="177"]
    178 [penwidth=3,label="178"]
    179 [penwidth=3,label="179"]
    180 [penwidth=3,label="180"]
    181 [penwidth=3,label="181"]
    182 [penwidth=3,label="182"]
    183 [penwidth=3,label="183"]
    184 [penwidth=3,label="184"]
    185 [penwidth=3,label="185"]
    186 [penwidth=3,label="186"]
    187 [penwidth=3,label="187"]
    188 [penwidth=3,label="188"]
    189 [penwidth=3,label="189"]
    190 [penwidth=3,label="190"]
    191 [penwidth=3,label="191"]
    192 [penwidth=3,label="192"]
    193 [penwidth=3,label="193"]
    194 [penwidth=3,label="194"]
    195 [penwidth=3,label="195"]
    196 [penwidth=3,label="196"]
    197 [penwidth=3,label="197"]
    198 [penwidth=3,label="198"]
    199 [penwidth=3,label="199"]
    200 [penwidth=3,label="200"]
    201 [penwidth=3,label="201"]
    202 [penwidth=3,label="202"]
    203 [penwidth=3,label="203"]
    204 [penwidth=3,label="204"]

    16 -> 0 [penwidth=2]
    58 -> 0 [penwidth=2]
    100 -> 16 [penwidth=2]
    17 -> 16 [penwidth=2]
    59 -> 16 [penwidth=2]
    101 -> 16 [penwidth=2]
    18 -> 16 [penwidth=2]
    60 -> 16 [penwidth=2]
    102 -> 58 [penwidth=2]
    19 -> 58 [penwidth=2]
    61 -> 58 [penwidth=2]
    103 -> 58 [penwidth=2]
    20 -> 58 [penwidth=2]
    62 -> 100 [penwidth=2]
    104 -> 100 [penwidth=2]
    21 -> 100 [penwidth=2]
    63 -> 17 [penwidth=2]
    105 -> 17 [penwidth=2]
    22 -> 17 [penwidth=2]
    64 -> 17 [penwidth=2]
    106 -> 17 [penwidth=2]
    23 -> 17 [penwidth=2]
    65 -> 17 [penwidth=2]
    107 -> 17 [penwidth=2]
    24 -> 17 [penwidth=2]
    66 -> 17 [penwidth=2]
    108 -> 17 [penwidth=2]
    25 -> 17 [penwidth=2]
    67 -> 17 [penwidth=2]
    109 -> 17 [penwidth=2]
    26 -> 59 [penwidth=2]
    68 -> 59 [penwidth=2]
    110 -> 59 [penwidth=2]
    27 -> 59 [penwidth=2]
    69 -> 59 [penwidth=2]
    111 -> 59 [penwidth=2]
    28 -> 59 [penwidth=2]
    70 -> 59 [penwidth=2]
    112 -> 59 [penwidth=2]
    29 -> 59 [penwidth=2]
    71 -> 59 [penwidth=2]
    113 -> 59 [penwidth=2]
    30 -> 59 [penwidth=2]
    72 -> 59 [penwidth=2]
    114 -> 59 [penwidth=2]
    31 -> 59 [penwidth=2]
    73 -> 59 [penwidth=2]
    115 -> 101 [penwidth=2]
    32 -> 101 [penwidth=2]
    74 -> 101 [penwidth=2]
    116 -> 101 [penwidth=2]
    33 -> 101 [penwidth=2]
    75 -> 101 [penwidth=2]
    117 -> 101 [penwidth=2]
    34 -> 101 [penwidth=2]
    76 -> 101 [penwidth=2]
    118 -> 101 [penwidth=2]
    35 -> 101 [penwidth=2]
    77 -> 101 [penwidth=2]
    119 -> 101 [penwidth=2]
    36 -> 101 [penwidth=2]
    78 -> 101 [penwidth=2]
    120 -> 101 [penwidth=2]
    37 -> 101 [penwidth=2]
    79 -> 101 [penwidth=2]
    121 -> 101 [penwidth=2]
    38 -> 101 [penwidth=2]
    80 -> 18 [penwidth=2]
    122 -> 18 [penwidth=2]
    39 -> 18 [penwidth=2]
    81 -> 18 [penwidth=2]
    123 -> 18 [penwidth=2]
    40 -> 18 [penwidth=2]
    82 -> 18 [penwidth=2]
    124 -> 18 [penwidth=2]
    41 -> 18 [penwidth=2]
    83 -> 18 [penwidth=2]
    125 -> 18 [penwidth=2]
    42 -> 18 [penwidth=2]
    84 -> 18 [penwidth=2]
    126 -> 18 [penwidth=2]
    43 -> 18 [penwidth=2]
    85 -> 18 [penwidth=2]
    127 -> 18 [penwidth=2]
    44 -> 18 [penwidth=2]
    86 -> 18 [penwidth=2]
    128 -> 18 [penwidth=2]
    45 -> 18 [penwidth=2]
    87 -> 60 [penwidth=2]
    129 -> 60 [penwidth=2]
    46 -> 60 [penwidth=2]
    88 -> 60 [penwidth=2]
    130 -> 60 [penwidth=2]
    47 -> 60 [penwidth=2]
    89 -> 60 [penwidth=2]
    131 -> 60 [penwidth=2]
    48 -> 60 [penwidth=2]
    90 -> 60 [penwidth=2]
    132 -> 60 [penwidth=2]
    49 -> 60 [penwidth=2]
    91 -> 60 [penwidth=2]
    133 -> 60 [penwidth=2]
    50 -> 60 [penwidth=2]
    92 -> 60 [penwidth=2]
    134 -> 60 [penwidth=2]
    51 -> 60 [penwidth=2]
    93 -> 60 [penwidth=2]
    135 -> 60 [penwidth=2]
    52 -> 60 [penwidth=2]
    94 -> 60 [penwidth=2]
    136 -> 60 [penwidth=2]
    53 -> 102 [penwidth=2]
    95 -> 102 [penwidth=2]
    137 -> 102 [penwidth=2]
    54 -> 102 [penwidth=2]
    96 -> 102 [penwidth=2]
    138 -> 102 [penwidth=2]
    55 -> 102 [penwidth=2]
    97 -> 102 [penwidth=2]
    139 -> 19 [penwidth=2]
    56 -> 19 [penwidth=2]
    98 -> 19 [penwidth=2]
    140 -> 19 [penwidth=2]
    57 -> 19 [penwidth=2]
    99 -> 19 [penwidth=2]
    141 -> 19 [penwidth=2]
    142 -> 19 [penwidth=2]
    184 -> 19 [penwidth=2]
    143 -> 19 [penwidth=2]
    185 -> 61 [penwidth=2]
    144 -> 61 [penwidth=2]
    186 -> 61 [penwidth=2]
    145 -> 61 [penwidth=2]
    187 -> 61 [penwidth=2]
    146 -> 61 [penwidth=2]
    188 -> 61 [penwidth=2]
    147 -> 61 [penwidth=2]
    189 -> 61 [penwidth=2]
    148 -> 61 [penwidth=2]
    190 -> 61 [penwidth=2]
    149 -> 61 [penwidth=2]
    191 -> 61 [penwidth=2]
    150 -> 61 [penwidth=2]
    192 -> 103 [penwidth=2]
    151 -> 103 [penwidth=2]
    193 -> 103 [penwidth=2]
    152 -> 20 [penwidth=2]
    194 -> 20 [penwidth=2]
    153 -> 20 [penwidth=2]
    195 -> 20 [penwidth=2]
    154 -> 20 [penwidth=2]
    196 -> 20 [penwidth=2]
    155 -> 20 [penwidth=2]
    197 -> 20 [penwidth=2]
    156 -> 20 [penwidth=2]
    198 -> 20 [penwidth=2]
    157 -> 62 [penwidth=2]
    199 -> 62 [penwidth=2]
    158 -> 104 [penwidth=2]
    200 -> 104 [penwidth=2]
    159 -> 104 [penwidth=2]
    201 -> 104 [penwidth=2]
    160 -> 104 [penwidth=2]
    202 -> 104 [penwidth=2]
    161 -> 104 [penwidth=2]
    203 -> 104 [penwidth=2]
    162 -> 104 [penwidth=2]
    204 -> 104 [penwidth=2]
    163 -> 104 [penwidth=2]
    164 -> 104 [penwidth=2]
    165 -> 104 [penwidth=2]
    166 -> 104 [penwidth=2]
    167 -> 104 [penwidth=2]
    168 -> 104 [penwidth=2]
    1 -> 104 [penwidth=2]
    169 -> 104 [penwidth=2]
    2 -> 104 [penwidth=2]
    170 -> 104 [penwidth=2]
    3 -> 104 [penwidth=2]
    171 -> 104 [penwidth=2]
    4 -> 104 [penwidth=2]
    172 -> 104 [penwidth=2]
    5 -> 104 [penwidth=2]
    173 -> 21 [penwidth=2]
    6 -> 21 [penwidth=2]
    174 -> 21 [penwidth=2]
    7 -> 21 [penwidth=2]
    175 -> 21 [penwidth=2]
    8 -> 21 [penwidth=2]
    176 -> 21 [penwidth=2]
    183 -> 21 [penwidth=2]
    9 -> 21 [penwidth=2]
    177 -> 21 [penwidth=2]
    10 -> 21 [penwidth=2]
    178 -> 21 [penwidth=2]
    11 -> 21 [penwidth=2]
    179 -> 21 [penwidth=2]
    12 -> 21 [penwidth=2]
    180 -> 21 [penwidth=2]
    13 -> 21 [penwidth=2]
    181 -> 63 [penwidth=2]
    14 -> 63 [penwidth=2]
    182 -> 63 [penwidth=2]
    15 -> 63 [penwidth=2]
    63 -> 18 [penwidth=2]
    63 -> 100 [penwidth=2]
    63 -> 59 [penwidth=2]
    63 -> 19 [penwidth=2]
    30 -> 102 [penwidth=2]
    30 -> 100 [penwidth=2]
    78 -> 102 [penwidth=2]
    78 -> 17 [penwidth=2]
    40 -> 20 [penwidth=2]
    40 -> 59 [penwidth=2]
    40 -> 102 [penwidth=2]
    40 -> 101 [penwidth=2]
    40 -> 103 [penwidth=2]
    40 -> 17 [penwidth=2]
    40 -> 60 [penwidth=2]
    40 -> 19 [penwidth=2]
    44 -> 101 [penwidth=2]
    44 -> 20 [penwidth=2]
    44 -> 102 [penwidth=2]
    44 -> 100 [penwidth=2]
    44 -> 59 [penwidth=2]
    44 -> 61 [penwidth=2]
    128 -> 100 [penwidth=2]
    128 -> 60 [penwidth=2]
    128 -> 20 [penwidth=2]
    128 -> 101 [penwidth=2]
    128 -> 61 [penwidth=2]
    128 -> 19 [penwidth=2]
    128 -> 103 [penwidth=2]
    128 -> 102 [penwidth=2]
    92 -> 18 [penwidth=2]
    92 -> 102 [penwidth=2]
    92 -> 17 [penwidth=2]
    92 -> 20 [penwidth=2]
    92 -> 103 [penwidth=2]
    140 -> 20 [penwidth=2]
    140 -> 17 [penwidth=2]
    140 -> 102 [penwidth=2]
    140 -> 101 [penwidth=2]
    142 -> 103 [penwidth=2]
    142 -> 101 [penwidth=2]
    142 -> 59 [penwidth=2]
    142 -> 61 [penwidth=2]
    142 -> 20 [penwidth=2]
    142 -> 17 [penwidth=2]
    142 -> 102 [penwidth=2]
    142 -> 18 [penwidth=2]
    142 -> 60 [penwidth=2]
    189 -> 20 [penwidth=2]
    189 -> 103 [penwidth=2]
    189 -> 59 [penwidth=2]
    189 -> 60 [penwidth=2]
    189 -> 101 [penwidth=2]
    189 -> 100 [penwidth=2]
    203 -> 54 [penwidth=2]
    203 -> 42 [penwidth=2]
    203 -> 70 [penwidth=2]
    203 -> 152 [penwidth=2]
    203 -> 67 [penwidth=2]
    203 -> 125 [penwidth=2]
    203 -> 117 [penwidth=2]
    203 -> 32 [penwidth=2]
    203 -> 192 [penwidth=2]
    203 -> 72 [penwidth=2]
    203 -> 106 [penwidth=2]
    203 -> 83 [penwidth=2]
    203 -> 156 [penwidth=2]
    203 -> 52 [penwidth=2]
    203 -> 91 [penwidth=2]
    203 -> 77 [penwidth=2]
    203 -> 37 [penwidth=2]
    203 -> 21 [penwidth=2]
    203 -> 151 [penwidth=2]
    203 -> 25 [penwidth=2]
    203 -> 41 [penwidth=2]
    203 -> 150 [penwidth=2]
    203 -> 126 [penwidth=2]
    203 -> 92 [penwidth=2]
    203 -> 76 [penwidth=2]
    203 -> 98 [penwidth=2]
    203 -> 198 [penwidth=2]
    203 -> 73 [penwidth=2]
    203 -> 149 [penwidth=2]
    203 -> 36 [penwidth=2]
    203 -> 50 [penwidth=2]
    203 -> 82 [penwidth=2]
    203 -> 85 [penwidth=2]
    203 -> 74 [penwidth=2]
    203 -> 49 [penwidth=2]
    203 -> 94 [penwidth=2]
    203 -> 84 [penwidth=2]
    203 -> 38 [penwidth=2]
    203 -> 188 [penwidth=2]
    203 -> 75 [penwidth=2]
    203 -> 35 [penwidth=2]
    203 -> 71 [penwidth=2]
    203 -> 109 [penwidth=2]
    203 -> 81 [penwidth=2]
    203 -> 78 [penwidth=2]
    203 -> 123 [penwidth=2]
    203 -> 122 [penwidth=2]
    203 -> 116 [penwidth=2]
    203 -> 53 [penwidth=2]
    203 -> 55 [penwidth=2]
    203 -> 29 [penwidth=2]
    203 -> 119 [penwidth=2]
    203 -> 30 [penwidth=2]
    203 -> 143 [penwidth=2]
    203 -> 138 [penwidth=2]
    203 -> 144 [penwidth=2]
    203 -> 48 [penwidth=2]
    203 -> 111 [penwidth=2]
    203 -> 145 [penwidth=2]
    203 -> 90 [penwidth=2]
    203 -> 65 [penwidth=2]
    203 -> 23 [penwidth=2]
    203 -> 28 [penwidth=2]
    203 -> 127 [penwidth=2]
    203 -> 187 [penwidth=2]
    203 -> 124 [penwidth=2]
    203 -> 153 [penwidth=2]
    203 -> 196 [penwidth=2]
    203 -> 186 [penwidth=2]
    203 -> 140 [penwidth=2]
    203 -> 89 [penwidth=2]
    203 -> 66 [penwidth=2]
    203 -> 47 [penwidth=2]
    203 -> 56 [penwidth=2]
    203 -> 121 [penwidth=2]
    203 -> 142 [penwidth=2]
    203 -> 93 [penwidth=2]
    203 -> 148 [penwidth=2]
    203 -> 191 [penwidth=2]
    203 -> 44 [penwidth=2]
    203 -> 51 [penwidth=2]
    203 -> 39 [penwidth=2]
    203 -> 113 [penwidth=2]
    203 -> 68 [penwidth=2]
    203 -> 133 [penwidth=2]
    203 -> 134 [penwidth=2]
    203 -> 64 [penwidth=2]
    203 -> 139 [penwidth=2]
    203 -> 86 [penwidth=2]
    203 -> 112 [penwidth=2]
    203 -> 141 [penwidth=2]
    203 -> 33 [penwidth=2]
    203 -> 135 [penwidth=2]
    203 -> 99 [penwidth=2]
    203 -> 43 [penwidth=2]
    203 -> 31 [penwidth=2]
    203 -> 197 [penwidth=2]
    203 -> 184 [penwidth=2]
    203 -> 110 [penwidth=2]
    203 -> 190 [penwidth=2]
    203 -> 189 [penwidth=2]
    203 -> 129 [penwidth=2]
    203 -> 107 [penwidth=2]
    203 -> 34 [penwidth=2]
    203 -> 57 [penwidth=2]
    203 -> 136 [penwidth=2]
    203 -> 95 [penwidth=2]
    203 -> 45 [penwidth=2]
    203 -> 80 [penwidth=2]
    203 -> 26 [penwidth=2]
    203 -> 120 [penwidth=2]
    203 -> 27 [penwidth=2]
    203 -> 137 [penwidth=2]
    203 -> 46 [penwidth=2]
    166 -> 39 [penwidth=2]
    166 -> 132 [penwidth=2]
    166 -> 117 [penwidth=2]
    166 -> 190 [penwidth=2]
    166 -> 78 [penwidth=2]
    166 -> 53 [penwidth=2]
    166 -> 52 [penwidth=2]
    166 -> 64 [penwidth=2]
    166 -> 79 [penwidth=2]
    4 -> 72 [penwidth=2]
    4 -> 50 [penwidth=2]
    4 -> 71 [penwidth=2]
    4 -> 132 [penwidth=2]
    4 -> 111 [penwidth=2]
    4 -> 32 [penwidth=2]
    4 -> 75 [penwidth=2]
    4 -> 76 [penwidth=2]
    4 -> 150 [penwidth=2]
    4 -> 125 [penwidth=2]
    4 -> 24 [penwidth=2]
    4 -> 46 [penwidth=2]
    4 -> 82 [penwidth=2]
    4 -> 22 [penwidth=2]
    4 -> 146 [penwidth=2]
    4 -> 51 [penwidth=2]
    4 -> 128 [penwidth=2]
    4 -> 152 [penwidth=2]
    4 -> 31 [penwidth=2]
    4 -> 74 [penwidth=2]
    4 -> 21 [penwidth=2]
    4 -> 73 [penwidth=2]
    4 -> 123 [penwidth=2]
    4 -> 80 [penwidth=2]
    4 -> 156 [penwidth=2]
    4 -> 143 [penwidth=2]
    4 -> 110 [penwidth=2]
    4 -> 155 [penwidth=2]
    4 -> 119 [penwidth=2]
    4 -> 115 [penwidth=2]
    4 -> 83 [penwidth=2]
    4 -> 134 [penwidth=2]
    4 -> 106 [penwidth=2]
    4 -> 33 [penwidth=2]
    4 -> 147 [penwidth=2]
    4 -> 107 [penwidth=2]
    4 -> 44 [penwidth=2]
    4 -> 62 [penwidth=2]
    4 -> 57 [penwidth=2]
    4 -> 144 [penwidth=2]
    4 -> 113 [penwidth=2]
    4 -> 137 [penwidth=2]
    4 -> 30 [penwidth=2]
    4 -> 41 [penwidth=2]
    4 -> 140 [penwidth=2]
    4 -> 25 [penwidth=2]
    4 -> 89 [penwidth=2]
    4 -> 29 [penwidth=2]
    4 -> 122 [penwidth=2]
    4 -> 149 [penwidth=2]
    4 -> 66 [penwidth=2]
    4 -> 63 [penwidth=2]
    4 -> 70 [penwidth=2]
    4 -> 116 [penwidth=2]
    4 -> 105 [penwidth=2]
    4 -> 184 [penwidth=2]
    4 -> 197 [penwidth=2]
    4 -> 38 [penwidth=2]
    4 -> 54 [penwidth=2]
    4 -> 190 [penwidth=2]
    4 -> 64 [penwidth=2]
    4 -> 88 [penwidth=2]
    4 -> 192 [penwidth=2]
    4 -> 120 [penwidth=2]
    174 -> 37 [penwidth=2]
    174 -> 35 [penwidth=2]
    174 -> 140 [penwidth=2]
    174 -> 154 [penwidth=2]
    174 -> 81 [penwidth=2]
    174 -> 45 [penwidth=2]
    174 -> 44 [penwidth=2]
    174 -> 194 [penwidth=2]
    174 -> 156 [penwidth=2]
    174 -> 49 [penwidth=2]
    174 -> 125 [penwidth=2]
    174 -> 119 [penwidth=2]
    174 -> 31 [penwidth=2]
    174 -> 77 [penwidth=2]
    174 -> 153 [penwidth=2]
    174 -> 67 [penwidth=2]
    174 -> 34 [penwidth=2]
    174 -> 72 [penwidth=2]
    174 -> 152 [penwidth=2]
    174 -> 94 [penwidth=2]
    174 -> 90 [penwidth=2]
    174 -> 46 [penwidth=2]
    174 -> 127 [penwidth=2]
    174 -> 73 [penwidth=2]
    174 -> 136 [penwidth=2]
    174 -> 87 [penwidth=2]
    174 -> 192 [penwidth=2]
    174 -> 132 [penwidth=2]
    174 -> 116 [penwidth=2]
    174 -> 66 [penwidth=2]
    174 -> 84 [penwidth=2]
    174 -> 76 [penwidth=2]
    174 -> 39 [penwidth=2]
    174 -> 126 [penwidth=2]
    174 -> 138 [penwidth=2]
    174 -> 187 [penwidth=2]
    174 -> 23 [penwidth=2]
    174 -> 47 [penwidth=2]
    174 -> 75 [penwidth=2]
    174 -> 114 [penwidth=2]
    174 -> 53 [penwidth=2]
    174 -> 79 [penwidth=2]
    174 -> 139 [penwidth=2]
    174 -> 30 [penwidth=2]
    174 -> 195 [penwidth=2]
    174 -> 128 [penwidth=2]
    174 -> 43 [penwidth=2]
    174 -> 109 [penwidth=2]
    174 -> 118 [penwidth=2]
    174 -> 196 [penwidth=2]
    174 -> 134 [penwidth=2]
    174 -> 50 [penwidth=2]
    174 -> 108 [penwidth=2]
    175 -> 27 [penwidth=2]
    175 -> 82 [penwidth=2]
    10 -> 49 [penwidth=2]
    10 -> 120 [penwidth=2]
    10 -> 135 [penwidth=2]
    10 -> 98 [penwidth=2]
    10 -> 83 [penwidth=2]
    10 -> 144 [penwidth=2]
    10 -> 117 [penwidth=2]
    10 -> 138 [penwidth=2]
    10 -> 75 [penwidth=2]
    10 -> 139 [penwidth=2]
    10 -> 193 [penwidth=2]
    10 -> 133 [penwidth=2]
    10 -> 184 [penwidth=2]
    10 -> 185 [penwidth=2]
    10 -> 96 [penwidth=2]
    10 -> 152 [penwidth=2]
    10 -> 99 [penwidth=2]
    10 -> 109 [penwidth=2]
    10 -> 23 [penwidth=2]
    10 -> 52 [penwidth=2]
    10 -> 86 [penwidth=2]
    10 -> 190 [penwidth=2]
    10 -> 74 [penwidth=2]
    10 -> 45 [penwidth=2]
    10 -> 65 [penwidth=2]
    10 -> 195 [penwidth=2]
    10 -> 69 [penwidth=2]
    10 -> 78 [penwidth=2]
    10 -> 40 [penwidth=2]
    10 -> 122 [penwidth=2]
    10 -> 89 [penwidth=2]
    10 -> 106 [penwidth=2]
    10 -> 88 [penwidth=2]
    10 -> 82 [penwidth=2]
    10 -> 36 [penwidth=2]
    10 -> 33 [penwidth=2]
    10 -> 72 [penwidth=2]
    10 -> 55 [penwidth=2]
    10 -> 66 [penwidth=2]
    10 -> 63 [penwidth=2]
    10 -> 155 [penwidth=2]
    10 -> 43 [penwidth=2]
    10 -> 108 [penwidth=2]
    10 -> 112 [penwidth=2]
    10 -> 151 [penwidth=2]
    10 -> 90 [penwidth=2]
    10 -> 141 [penwidth=2]
    10 -> 131 [penwidth=2]
    10 -> 87 [penwidth=2]
    10 -> 85 [penwidth=2]
    10 -> 56 [penwidth=2]
    10 -> 48 [penwidth=2]
    10 -> 186 [penwidth=2]
    10 -> 50 [penwidth=2]
    10 -> 53 [penwidth=2]
    10 -> 148 [penwidth=2]
    10 -> 146 [penwidth=2]
    10 -> 34 [penwidth=2]
    10 -> 44 [penwidth=2]
    10 -> 24 [penwidth=2]
    10 -> 110 [penwidth=2]
    10 -> 145 [penwidth=2]
    10 -> 67 [penwidth=2]
    10 -> 198 [penwidth=2]
    10 -> 143 [penwidth=2]
    10 -> 81 [penwidth=2]
    10 -> 187 [penwidth=2]
    10 -> 42 [penwidth=2]
    10 -> 41 [penwidth=2]
    10 -> 134 [penwidth=2]
    10 -> 39 [penwidth=2]
    10 -> 119 [penwidth=2]
    10 -> 150 [penwidth=2]
    10 -> 142 [penwidth=2]
    10 -> 104 [penwidth=2]
    10 -> 154 [penwidth=2]
    181 -> 70 [penwidth=2]
    181 -> 126 [penwidth=2]
    181 -> 53 [penwidth=2]
    181 -> 54 [penwidth=2]
    181 -> 122 [penwidth=2]
    181 -> 68 [penwidth=2]
    181 -> 24 [penwidth=2]
    181 -> 22 [penwidth=2]
    181 -> 65 [penwidth=2]
    181 -> 123 [penwidth=2]
    181 -> 106 [penwidth=2]
    181 -> 116 [penwidth=2]
    181 -> 41 [penwidth=2]
    181 -> 73 [penwidth=2]
    181 -> 113 [penwidth=2]
    181 -> 195 [penwidth=2]
    181 -> 121 [penwidth=2]
    181 -> 109 [penwidth=2]
    181 -> 86 [penwidth=2]
    181 -> 148 [penwidth=2]
    181 -> 36 [penwidth=2]
    181 -> 33 [penwidth=2]
    181 -> 76 [penwidth=2]
    181 -> 140 [penwidth=2]
    181 -> 110 [penwidth=2]
    181 -> 119 [penwidth=2]
    181 -> 28 [penwidth=2]
    181 -> 142 [penwidth=2]
    181 -> 52 [penwidth=2]
    181 -> 49 [penwidth=2]
    181 -> 138 [penwidth=2]
    15 -> 112 [penwidth=2]
    15 -> 51 [penwidth=2]
    15 -> 73 [penwidth=2]
    15 -> 44 [penwidth=2]
    15 -> 191 [penwidth=2]
    15 -> 144 [penwidth=2]
    15 -> 43 [penwidth=2]
    15 -> 148 [penwidth=2]
    15 -> 190 [penwidth=2]
    15 -> 126 [penwidth=2]
    15 -> 81 [penwidth=2]
    15 -> 36 [penwidth=2]
    15 -> 56 [penwidth=2]
    15 -> 129 [penwidth=2]
    15 -> 57 [penwidth=2]
    15 -> 29 [penwidth=2]
    15 -> 24 [penwidth=2]
    15 -> 108 [penwidth=2]
    15 -> 85 [penwidth=2]
    15 -> 79 [penwidth=2]
    15 -> 74 [penwidth=2]
    15 -> 49 [penwidth=2]
    15 -> 38 [penwidth=2]
    15 -> 78 [penwidth=2]
    15 -> 65 [penwidth=2]
    15 -> 197 [penwidth=2]
    15 -> 86 [penwidth=2]
    15 -> 138 [penwidth=2]
    15 -> 76 [penwidth=2]
    15 -> 93 [penwidth=2]
    15 -> 27 [penwidth=2]
    15 -> 185 [penwidth=2]
    15 -> 184 [penwidth=2]
    15 -> 143 [penwidth=2]
    15 -> 45 [penwidth=2]
    15 -> 117 [penwidth=2]
    15 -> 48 [penwidth=2]
    15 -> 189 [penwidth=2]
    15 -> 152 [penwidth=2]
    15 -> 135 [penwidth=2]
    15 -> 156 [penwidth=2]
    15 -> 39 [penwidth=2]
    15 -> 94 [penwidth=2]
    15 -> 97 [penwidth=2]
    15 -> 62 [penwidth=2]
    15 -> 68 [penwidth=2]
    15 -> 150 [penwidth=2]
}