digraph G {
    0 [penwidth=3,label="0"]
    1 [penwidth=3,label="1"]
    2 [penwidth=3,label="2"]
    3 [penwidth=3,label="3"]
    4 [penwidth=3,label="4"]
    5 [penwidth=3,label="5"]
    6 [penwidth=3,label="6"]
    7 [penwidth=3,label="7"]
    8 [penwidth=3,label="8"]
    9 [penwidth=3,label="9"]
    10 [penwidth=3,label="10"]
    11 [penwidth=3,label="11"]
    12 [penwidth=3,label="12"]
    13 [penwidth=3,label="13"]
    14 [penwidth=3,label="14"]
    15 [penwidth=3,label="15"]
    16 [penwidth=3,label="16"]
    17 [penwidth=3,label="17"]
    18 [penwidth=3,label="18"]
    19 [penwidth=3,label="19"]
    20 [penwidth=3,label="20"]
    21 [penwidth=3,label="21"]
    22 [penwidth=3,label="22"]
    23 [penwidth=3,label="23"]
    24 [penwidth=3,label="24"]
    25 [penwidth=3,label="25"]
    26 [penwidth=3,label="26"]
    27 [penwidth=3,label="27"]
    28 [penwidth=3,label="28"]
    29 [penwidth=3,label="29"]
    30 [penwidth=3,label="30"]
    31 [penwidth=3,label="31"]
    32 [penwidth=3,label="32"]
    33 [penwidth=3,label="33"]
    34 [penwidth=3,label="34"]
    35 [penwidth=3,label="35"]
    36 [penwidth=3,label="36"]
    37 [penwidth=3,label="37"]
    38 [penwidth=3,label="38"]
    39 [penwidth=3,label="39"]
    40 [penwidth=3,label="40"]
    41 [penwidth=3,label="41"]
    42 [penwidth=3,label="42"]
    43 [penwidth=3,label="43"]
    44 [penwidth=3,label="44"]
    45 [penwidth=3,label="45"]
    46 [penwidth=3,label="46"]
    47 [penwidth=3,label="47"]
    48 [penwidth=3,label="48"]
    49 [penwidth=3,label="49"]
    50 [penwidth=3,label="50"]
    51 [penwidth=3,label="51"]
    52 [penwidth=3,label="52"]
    53 [penwidth=3,label="53"]
    54 [penwidth=3,label="54"]
    55 [penwidth=3,label="55"]
    56 [penwidth=3,label="56"]
    57 [penwidth=3,label="57"]
    58 [penwidth=3,label="58"]
    59 [penwidth=3,label="59"]
    60 [penwidth=3,label="60"]
    61 [penwidth=3,label="61"]
    62 [penwidth=3,label="62"]
    63 [penwidth=3,label="63"]
    64 [penwidth=3,label="64"]
    65 [penwidth=3,label="65"]
    66 [penwidth=3,label="66"]
    67 [penwidth=3,label="67"]
    68 [penwidth=3,label="68"]
    69 [penwidth=3,label="69"]
    70 [penwidth=3,label="70"]
    71 [penwidth=3,label="71"]
    72 [penwidth=3,label="72"]
    73 [penwidth=3,label="73"]
    74 [penwidth=3,label="74"]
    75 [penwidth=3,label="75"]
    76 [penwidth=3,label="76"]
    77 [penwidth=3,label="77"]
    78 [penwidth=3,label="78"]
    79 [penwidth=3,label="79"]
    80 [penwidth=3,label="80"]
    81 [penwidth=3,label="81"]
    82 [penwidth=3,label="82"]
    83 [penwidth=3,label="83"]
    84 [penwidth=3,label="84"]
    85 [penwidth=3,label="85"]
    86 [penwidth=3,label="86"]
    87 [penwidth=3,label="87"]
    88 [penwidth=3,label="88"]
    89 [penwidth=3,label="89"]
    90 [penwidth=3,label="90"]
    91 [penwidth=3,label="91"]
    92 [penwidth=3,label="92"]
    93 [penwidth=3,label="93"]
    94 [penwidth=3,label="94"]
    95 [penwidth=3,label="95"]
    96 [penwidth=3,label="96"]
    97 [penwidth=3,label="97"]
    98 [penwidth=3,label="98"]
    99 [penwidth=3,label="99"]
    100 [penwidth=3,label="100"]
    101 [penwidth=3,label="101"]
    102 [penwidth=3,label="102"]
    103 [penwidth=3,label="103"]
    104 [penwidth=3,label="104"]
    105 [penwidth=3,label="105"]
    106 [penwidth=3,label="106"]
    107 [penwidth=3,label="107"]
    108 [penwidth=3,label="108"]
    109 [penwidth=3,label="109"]
    110 [penwidth=3,label="110"]
    111 [penwidth=3,label="111"]
    112 [penwidth=3,label="112"]
    113 [penwidth=3,label="113"]
    114 [penwidth=3,label="114"]
    115 [penwidth=3,label="115"]
    116 [penwidth=3,label="116"]
    117 [penwidth=3,label="117"]
    118 [penwidth=3,label="118"]
    119 [penwidth=3,label="119"]
    120 [penwidth=3,label="120"]
    121 [penwidth=3,label="121"]
    122 [penwidth=3,label="122"]
    123 [penwidth=3,label="123"]
    124 [penwidth=3,label="124"]
    125 [penwidth=3,label="125"]
    126 [penwidth=3,label="126"]
    127 [penwidth=3,label="127"]
    128 [penwidth=3,label="128"]
    129 [penwidth=3,label="129"]
    130 [penwidth=3,label="130"]
    131 [penwidth=3,label="131"]
    132 [penwidth=3,label="132"]
    133 [penwidth=3,label="133"]
    134 [penwidth=3,label="134"]
    135 [penwidth=3,label="135"]
    136 [penwidth=3,label="136"]
    137 [penwidth=3,label="137"]
    138 [penwidth=3,label="138"]
    139 [penwidth=3,label="139"]
    140 [penwidth=3,label="140"]
    141 [penwidth=3,label="141"]
    142 [penwidth=3,label="142"]
    143 [penwidth=3,label="143"]
    144 [penwidth=3,label="144"]
    145 [penwidth=3,label="145"]
    146 [penwidth=3,label="146"]
    147 [penwidth=3,label="147"]
    148 [penwidth=3,label="148"]
    149 [penwidth=3,label="149"]
    150 [penwidth=3,label="150"]
    151 [penwidth=3,label="151"]
    152 [penwidth=3,label="152"]
    153 [penwidth=3,label="153"]
    154 [penwidth=3,label="154"]
    155 [penwidth=3,label="155"]
    156 [penwidth=3,label="156"]
    157 [penwidth=3,label="157"]
    158 [penwidth=3,label="158"]
    159 [penwidth=3,label="159"]
    160 [penwidth=3,label="160"]
    161 [penwidth=3,label="161"]
    162 [penwidth=3,label="162"]
    163 [penwidth=3,label="163"]
    164 [penwidth=3,label="164"]
    165 [penwidth=3,label="165"]
    166 [penwidth=3,label="166"]
    167 [penwidth=3,label="167"]
    168 [penwidth=3,label="168"]
    169 [penwidth=3,label="169"]
    170 [penwidth=3,label="170"]
    171 [penwidth=3,label="171"]
    172 [penwidth=3,label="172"]
    173 [penwidth=3,label="173"]
    174 [penwidth=3,label="174"]
    175 [penwidth=3,label="175"]
    176 [penwidth=3,label="176"]
    177 [penwidth=3,label="177"]
    178 [penwidth=3,label="178"]
    179 [penwidth=3,label="179"]
    180 [penwidth=3,label="180"]
    181 [penwidth=3,label="181"]
    182 [penwidth=3,label="182"]
    183 [penwidth=3,label="183"]
    184 [penwidth=3,label="184"]
    185 [penwidth=3,label="185"]
    186 [penwidth=3,label="186"]
    187 [penwidth=3,label="187"]
    188 [penwidth=3,label="188"]
    189 [penwidth=3,label="189"]
    190 [penwidth=3,label="190"]
    191 [penwidth=3,label="191"]
    192 [penwidth=3,label="192"]
    193 [penwidth=3,label="193"]
    194 [penwidth=3,label="194"]
    195 [penwidth=3,label="195"]
    196 [penwidth=3,label="196"]
    197 [penwidth=3,label="197"]
    198 [penwidth=3,label="198"]
    199 [penwidth=3,label="199"]
    200 [penwidth=3,label="200"]
    201 [penwidth=3,label="201"]
    202 [penwidth=3,label="202"]
    203 [penwidth=3,label="203"]
    204 [penwidth=3,label="204"]

    18 -> 0 [penwidth=2]
    186 -> 0 [penwidth=2]
    4 -> 0 [penwidth=2]
    19 -> 0 [penwidth=2]
    187 -> 0 [penwidth=2]
    3 -> 0 [penwidth=2]
    20 -> 0 [penwidth=2]
    188 -> 0 [penwidth=2]
    21 -> 0 [penwidth=2]
    189 -> 18 [penwidth=2]
    22 -> 18 [penwidth=2]
    190 -> 18 [penwidth=2]
    23 -> 18 [penwidth=2]
    191 -> 18 [penwidth=2]
    15 -> 18 [penwidth=2]
    24 -> 18 [penwidth=2]
    192 -> 18 [penwidth=2]
    25 -> 18 [penwidth=2]
    193 -> 18 [penwidth=2]
    5 -> 18 [penwidth=2]
    26 -> 18 [penwidth=2]
    194 -> 18 [penwidth=2]
    8 -> 18 [penwidth=2]
    27 -> 18 [penwidth=2]
    195 -> 18 [penwidth=2]
    28 -> 18 [penwidth=2]
    196 -> 18 [penwidth=2]
    7 -> 18 [penwidth=2]
    29 -> 18 [penwidth=2]
    197 -> 18 [penwidth=2]
    13 -> 18 [penwidth=2]
    30 -> 18 [penwidth=2]
    198 -> 18 [penwidth=2]
    12 -> 186 [penwidth=2]
    31 -> 186 [penwidth=2]
    199 -> 186 [penwidth=2]
    11 -> 186 [penwidth=2]
    32 -> 186 [penwidth=2]
    200 -> 186 [penwidth=2]
    33 -> 186 [penwidth=2]
    201 -> 186 [penwidth=2]
    34 -> 186 [penwidth=2]
    202 -> 186 [penwidth=2]
    35 -> 186 [penwidth=2]
    203 -> 186 [penwidth=2]
    36 -> 186 [penwidth=2]
    184 -> 186 [penwidth=2]
    204 -> 186 [penwidth=2]
    17 -> 186 [penwidth=2]
    37 -> 186 [penwidth=2]
    38 -> 186 [penwidth=2]
    39 -> 4 [penwidth=2]
    40 -> 4 [penwidth=2]
    10 -> 4 [penwidth=2]
    41 -> 4 [penwidth=2]
    185 -> 4 [penwidth=2]
    42 -> 4 [penwidth=2]
    1 -> 4 [penwidth=2]
    43 -> 4 [penwidth=2]
    44 -> 4 [penwidth=2]
    45 -> 4 [penwidth=2]
    46 -> 19 [penwidth=2]
    9 -> 19 [penwidth=2]
    47 -> 19 [penwidth=2]
    48 -> 19 [penwidth=2]
    49 -> 19 [penwidth=2]
    6 -> 19 [penwidth=2]
    50 -> 19 [penwidth=2]
    14 -> 19 [penwidth=2]
    51 -> 19 [penwidth=2]
    2 -> 19 [penwidth=2]
    52 -> 187 [penwidth=2]
    16 -> 187 [penwidth=2]
    53 -> 187 [penwidth=2]
    54 -> 187 [penwidth=2]
    55 -> 187 [penwidth=2]
    56 -> 187 [penwidth=2]
    57 -> 187 [penwidth=2]
    58 -> 187 [penwidth=2]
    59 -> 187 [penwidth=2]
    60 -> 187 [penwidth=2]
    102 -> 187 [penwidth=2]
    144 -> 187 [penwidth=2]
    61 -> 3 [penwidth=2]
    103 -> 3 [penwidth=2]
    145 -> 3 [penwidth=2]
    62 -> 3 [penwidth=2]
    104 -> 3 [penwidth=2]
    146 -> 3 [penwidth=2]
    63 -> 3 [penwidth=2]
    105 -> 3 [penwidth=2]
    147 -> 3 [penwidth=2]
    64 -> 3 [penwidth=2]
    106 -> 3 [penwidth=2]
    148 -> 3 [penwidth=2]
    65 -> 3 [penwidth=2]
    107 -> 3 [penwidth=2]
    149 -> 3 [penwidth=2]
    66 -> 3 [penwidth=2]
    108 -> 20 [penwidth=2]
    150 -> 20 [penwidth=2]
    67 -> 20 [penwidth=2]
    109 -> 20 [penwidth=2]
    151 -> 20 [penwidth=2]
    68 -> 20 [penwidth=2]
    110 -> 20 [penwidth=2]
    152 -> 20 [penwidth=2]
    69 -> 188 [penwidth=2]
    111 -> 188 [penwidth=2]
    153 -> 188 [penwidth=2]
    70 -> 188 [penwidth=2]
    112 -> 188 [penwidth=2]
    154 -> 188 [penwidth=2]
    71 -> 188 [penwidth=2]
    113 -> 188 [penwidth=2]
    155 -> 188 [penwidth=2]
    72 -> 188 [penwidth=2]
    114 -> 188 [penwidth=2]
    156 -> 188 [penwidth=2]
    73 -> 188 [penwidth=2]
    115 -> 188 [penwidth=2]
    157 -> 188 [penwidth=2]
    74 -> 21 [penwidth=2]
    116 -> 21 [penwidth=2]
    158 -> 21 [penwidth=2]
    75 -> 21 [penwidth=2]
    117 -> 21 [penwidth=2]
    159 -> 21 [penwidth=2]
    76 -> 21 [penwidth=2]
    118 -> 21 [penwidth=2]
    160 -> 21 [penwidth=2]
    77 -> 21 [penwidth=2]
    119 -> 21 [penwidth=2]
    161 -> 21 [penwidth=2]
    78 -> 21 [penwidth=2]
    120 -> 21 [penwidth=2]
    162 -> 21 [penwidth=2]
    79 -> 21 [penwidth=2]
    121 -> 189 [penwidth=2]
    163 -> 189 [penwidth=2]
    80 -> 189 [penwidth=2]
    122 -> 189 [penwidth=2]
    164 -> 189 [penwidth=2]
    81 -> 189 [penwidth=2]
    123 -> 189 [penwidth=2]
    165 -> 189 [penwidth=2]
    82 -> 189 [penwidth=2]
    124 -> 189 [penwidth=2]
    166 -> 189 [penwidth=2]
    83 -> 189 [penwidth=2]
    125 -> 189 [penwidth=2]
    167 -> 22 [penwidth=2]
    84 -> 22 [penwidth=2]
    126 -> 22 [penwidth=2]
    168 -> 22 [penwidth=2]
    85 -> 22 [penwidth=2]
    127 -> 22 [penwidth=2]
    169 -> 22 [penwidth=2]
    86 -> 22 [penwidth=2]
    128 -> 22 [penwidth=2]
    170 -> 22 [penwidth=2]
    87 -> 22 [penwidth=2]
    129 -> 22 [penwidth=2]
    171 -> 22 [penwidth=2]
    88 -> 22 [penwidth=2]
    130 -> 22 [penwidth=2]
    172 -> 22 [penwidth=2]
    89 -> 190 [penwidth=2]
    131 -> 190 [penwidth=2]
    173 -> 190 [penwidth=2]
    90 -> 190 [penwidth=2]
    132 -> 190 [penwidth=2]
    174 -> 190 [penwidth=2]
    91 -> 190 [penwidth=2]
    133 -> 190 [penwidth=2]
    175 -> 190 [penwidth=2]
    92 -> 190 [penwidth=2]
    134 -> 190 [penwidth=2]
    176 -> 190 [penwidth=2]
    93 -> 190 [penwidth=2]
    135 -> 190 [penwidth=2]
    177 -> 190 [penwidth=2]
    94 -> 190 [penwidth=2]
    136 -> 190 [penwidth=2]
    142 -> 190 [penwidth=2]
    178 -> 190 [penwidth=2]
    95 -> 191 [penwidth=2]
    137 -> 191 [penwidth=2]
    179 -> 191 [penwidth=2]
    96 -> 191 [penwidth=2]
    138 -> 191 [penwidth=2]
    180 -> 191 [penwidth=2]
    97 -> 191 [penwidth=2]
    139 -> 191 [penwidth=2]
    181 -> 191 [penwidth=2]
    98 -> 191 [penwidth=2]
    140 -> 191 [penwidth=2]
    182 -> 191 [penwidth=2]
    99 -> 191 [penwidth=2]
    141 -> 191 [penwidth=2]
    143 -> 191 [penwidth=2]
    183 -> 191 [penwidth=2]
    100 -> 15 [penwidth=2]
    101 -> 15 [penwidth=2]
    5 -> 3 [penwidth=2]
    5 -> 4 [penwidth=2]
    5 -> 20 [penwidth=2]
    32 -> 188 [penwidth=2]
    32 -> 19 [penwidth=2]
    32 -> 4 [penwidth=2]
    32 -> 20 [penwidth=2]
    32 -> 187 [penwidth=2]
    32 -> 3 [penwidth=2]
    185 -> 20 [penwidth=2]
    51 -> 186 [penwidth=2]
    51 -> 3 [penwidth=2]
    145 -> 19 [penwidth=2]
    151 -> 4 [penwidth=2]
    151 -> 18 [penwidth=2]
    151 -> 21 [penwidth=2]
    151 -> 187 [penwidth=2]
    151 -> 19 [penwidth=2]
    151 -> 188 [penwidth=2]
    112 -> 186 [penwidth=2]
    74 -> 3 [penwidth=2]
    74 -> 20 [penwidth=2]
    74 -> 18 [penwidth=2]
    74 -> 4 [penwidth=2]
    122 -> 113 [penwidth=2]
    122 -> 112 [penwidth=2]
    122 -> 154 [penwidth=2]
    122 -> 73 [penwidth=2]
    122 -> 117 [penwidth=2]
    122 -> 53 [penwidth=2]
    122 -> 49 [penwidth=2]
    122 -> 41 [penwidth=2]
    122 -> 76 [penwidth=2]
    122 -> 199 [penwidth=2]
    122 -> 104 [penwidth=2]
    122 -> 69 [penwidth=2]
    122 -> 149 [penwidth=2]
    122 -> 70 [penwidth=2]
    122 -> 6 [penwidth=2]
    122 -> 27 [penwidth=2]
    122 -> 54 [penwidth=2]
    122 -> 29 [penwidth=2]
    122 -> 111 [penwidth=2]
    122 -> 74 [penwidth=2]
    122 -> 148 [penwidth=2]
    122 -> 153 [penwidth=2]
    122 -> 114 [penwidth=2]
    122 -> 77 [penwidth=2]
    122 -> 78 [penwidth=2]
    122 -> 16 [penwidth=2]
    122 -> 147 [penwidth=2]
    122 -> 5 [penwidth=2]
    122 -> 118 [penwidth=2]
    122 -> 46 [penwidth=2]
    122 -> 59 [penwidth=2]
    122 -> 161 [penwidth=2]
    122 -> 68 [penwidth=2]
    122 -> 45 [penwidth=2]
    122 -> 145 [penwidth=2]
    122 -> 33 [penwidth=2]
    122 -> 15 [penwidth=2]
    122 -> 23 [penwidth=2]
    122 -> 37 [penwidth=2]
    122 -> 146 [penwidth=2]
    122 -> 156 [penwidth=2]
    122 -> 109 [penwidth=2]
    122 -> 25 [penwidth=2]
    122 -> 35 [penwidth=2]
    122 -> 8 [penwidth=2]
    122 -> 66 [penwidth=2]
    122 -> 44 [penwidth=2]
    122 -> 116 [penwidth=2]
    122 -> 38 [penwidth=2]
    122 -> 52 [penwidth=2]
    122 -> 72 [penwidth=2]
    122 -> 119 [penwidth=2]
    122 -> 198 [penwidth=2]
    122 -> 57 [penwidth=2]
    122 -> 200 [penwidth=2]
    122 -> 22 [penwidth=2]
    122 -> 13 [penwidth=2]
    122 -> 1 [penwidth=2]
    122 -> 162 [penwidth=2]
    122 -> 192 [penwidth=2]
    122 -> 58 [penwidth=2]
    122 -> 36 [penwidth=2]
    122 -> 105 [penwidth=2]
    169 -> 28 [penwidth=2]
    169 -> 46 [penwidth=2]
    169 -> 55 [penwidth=2]
    169 -> 204 [penwidth=2]
    169 -> 44 [penwidth=2]
    169 -> 113 [penwidth=2]
    169 -> 38 [penwidth=2]
    169 -> 68 [penwidth=2]
    169 -> 15 [penwidth=2]
    169 -> 110 [penwidth=2]
    169 -> 8 [penwidth=2]
    169 -> 50 [penwidth=2]
    169 -> 9 [penwidth=2]
    169 -> 189 [penwidth=2]
    169 -> 193 [penwidth=2]
    169 -> 196 [penwidth=2]
    169 -> 1 [penwidth=2]
    169 -> 73 [penwidth=2]
    169 -> 153 [penwidth=2]
    169 -> 6 [penwidth=2]
    169 -> 30 [penwidth=2]
    169 -> 191 [penwidth=2]
    169 -> 147 [penwidth=2]
    169 -> 57 [penwidth=2]
    169 -> 102 [penwidth=2]
    169 -> 149 [penwidth=2]
    169 -> 151 [penwidth=2]
    169 -> 14 [penwidth=2]
    169 -> 39 [penwidth=2]
    169 -> 5 [penwidth=2]
    169 -> 77 [penwidth=2]
    169 -> 148 [penwidth=2]
    169 -> 119 [penwidth=2]
    169 -> 71 [penwidth=2]
    169 -> 185 [penwidth=2]
    169 -> 199 [penwidth=2]
    169 -> 78 [penwidth=2]
    169 -> 160 [penwidth=2]
    169 -> 24 [penwidth=2]
    169 -> 103 [penwidth=2]
    169 -> 116 [penwidth=2]
    169 -> 60 [penwidth=2]
    169 -> 67 [penwidth=2]
    169 -> 159 [penwidth=2]
    169 -> 17 [penwidth=2]
    169 -> 7 [penwidth=2]
    169 -> 66 [penwidth=2]
    169 -> 48 [penwidth=2]
    169 -> 120 [penwidth=2]
    169 -> 114 [penwidth=2]
    169 -> 62 [penwidth=2]
    169 -> 111 [penwidth=2]
    169 -> 200 [penwidth=2]
    169 -> 65 [penwidth=2]
    169 -> 43 [penwidth=2]
    169 -> 105 [penwidth=2]
    169 -> 107 [penwidth=2]
    169 -> 33 [penwidth=2]
    169 -> 53 [penwidth=2]
    169 -> 10 [penwidth=2]
    169 -> 56 [penwidth=2]
    169 -> 49 [penwidth=2]
    169 -> 23 [penwidth=2]
    169 -> 155 [penwidth=2]
    169 -> 157 [penwidth=2]
    169 -> 74 [penwidth=2]
    169 -> 104 [penwidth=2]
    169 -> 34 [penwidth=2]
    169 -> 35 [penwidth=2]
    169 -> 54 [penwidth=2]
    169 -> 26 [penwidth=2]
    169 -> 13 [penwidth=2]
    169 -> 79 [penwidth=2]
    169 -> 106 [penwidth=2]
    169 -> 32 [penwidth=2]
    169 -> 16 [penwidth=2]
    169 -> 115 [penwidth=2]
    169 -> 59 [penwidth=2]
    169 -> 118 [penwidth=2]
    169 -> 112 [penwidth=2]
    169 -> 31 [penwidth=2]
    169 -> 184 [penwidth=2]
    169 -> 36 [penwidth=2]
    169 -> 145 [penwidth=2]
    86 -> 27 [penwidth=2]
    86 -> 24 [penwidth=2]
    86 -> 151 [penwidth=2]
    86 -> 184 [penwidth=2]
    86 -> 39 [penwidth=2]
    86 -> 59 [penwidth=2]
    86 -> 191 [penwidth=2]
    86 -> 6 [penwidth=2]
    86 -> 17 [penwidth=2]
    86 -> 102 [penwidth=2]
    86 -> 108 [penwidth=2]
    86 -> 190 [penwidth=2]
    86 -> 162 [penwidth=2]
    86 -> 204 [penwidth=2]
    86 -> 13 [penwidth=2]
    86 -> 42 [penwidth=2]
    86 -> 14 [penwidth=2]
    86 -> 198 [penwidth=2]
    86 -> 40 [penwidth=2]
    86 -> 160 [penwidth=2]
    86 -> 33 [penwidth=2]
    86 -> 47 [penwidth=2]
    86 -> 155 [penwidth=2]
    86 -> 56 [penwidth=2]
    86 -> 154 [penwidth=2]
    86 -> 72 [penwidth=2]
    86 -> 119 [penwidth=2]
    86 -> 78 [penwidth=2]
    86 -> 147 [penwidth=2]
    86 -> 51 [penwidth=2]
    86 -> 2 [penwidth=2]
    86 -> 1 [penwidth=2]
    86 -> 74 [penwidth=2]
    86 -> 153 [penwidth=2]
    86 -> 120 [penwidth=2]
    86 -> 68 [penwidth=2]
    86 -> 146 [penwidth=2]
    86 -> 71 [penwidth=2]
    86 -> 49 [penwidth=2]
    86 -> 55 [penwidth=2]
    86 -> 103 [penwidth=2]
    86 -> 32 [penwidth=2]
    86 -> 9 [penwidth=2]
    86 -> 106 [penwidth=2]
    86 -> 23 [penwidth=2]
    86 -> 193 [penwidth=2]
    86 -> 158 [penwidth=2]
    86 -> 37 [penwidth=2]
    86 -> 199 [penwidth=2]
    86 -> 115 [penwidth=2]
    86 -> 5 [penwidth=2]
    86 -> 196 [penwidth=2]
    86 -> 110 [penwidth=2]
    86 -> 189 [penwidth=2]
    86 -> 75 [penwidth=2]
    86 -> 194 [penwidth=2]
    86 -> 50 [penwidth=2]
    86 -> 8 [penwidth=2]
    86 -> 67 [penwidth=2]
    86 -> 70 [penwidth=2]
    86 -> 54 [penwidth=2]
    86 -> 61 [penwidth=2]
    86 -> 48 [penwidth=2]
    86 -> 63 [penwidth=2]
    86 -> 29 [penwidth=2]
    86 -> 38 [penwidth=2]
    86 -> 52 [penwidth=2]
    86 -> 64 [penwidth=2]
    86 -> 65 [penwidth=2]
    86 -> 7 [penwidth=2]
    86 -> 192 [penwidth=2]
    86 -> 107 [penwidth=2]
    86 -> 148 [penwidth=2]
    86 -> 150 [penwidth=2]
    86 -> 149 [penwidth=2]
    86 -> 203 [penwidth=2]
    86 -> 79 [penwidth=2]
    86 -> 28 [penwidth=2]
    86 -> 62 [penwidth=2]
    86 -> 60 [penwidth=2]
    86 -> 157 [penwidth=2]
    86 -> 113 [penwidth=2]
    86 -> 66 [penwidth=2]
    86 -> 156 [penwidth=2]
    86 -> 34 [penwidth=2]
    86 -> 26 [penwidth=2]
    86 -> 41 [penwidth=2]
    86 -> 152 [penwidth=2]
    86 -> 11 [penwidth=2]
    86 -> 12 [penwidth=2]
    86 -> 200 [penwidth=2]
    86 -> 111 [penwidth=2]
    86 -> 118 [penwidth=2]
    86 -> 76 [penwidth=2]
    86 -> 69 [penwidth=2]
    86 -> 44 [penwidth=2]
    86 -> 112 [penwidth=2]
    86 -> 185 [penwidth=2]
    86 -> 77 [penwidth=2]
    86 -> 46 [penwidth=2]
    86 -> 104 [penwidth=2]
    86 -> 25 [penwidth=2]
    86 -> 36 [penwidth=2]
    86 -> 201 [penwidth=2]
    86 -> 73 [penwidth=2]
    86 -> 45 [penwidth=2]
    86 -> 109 [penwidth=2]
    86 -> 53 [penwidth=2]
    86 -> 30 [penwidth=2]
    86 -> 144 [penwidth=2]
    86 -> 159 [penwidth=2]
    86 -> 114 [penwidth=2]
    86 -> 58 [penwidth=2]
    86 -> 195 [penwidth=2]
    86 -> 116 [penwidth=2]
    86 -> 16 [penwidth=2]
    86 -> 161 [penwidth=2]
    86 -> 31 [penwidth=2]
    86 -> 105 [penwidth=2]
    86 -> 43 [penwidth=2]
    86 -> 202 [penwidth=2]
    86 -> 145 [penwidth=2]
    86 -> 10 [penwidth=2]
    86 -> 117 [penwidth=2]
    171 -> 159 [penwidth=2]
    171 -> 10 [penwidth=2]
    171 -> 23 [penwidth=2]
    171 -> 24 [penwidth=2]
    171 -> 113 [penwidth=2]
    171 -> 105 [penwidth=2]
    171 -> 204 [penwidth=2]
    171 -> 47 [penwidth=2]
    171 -> 30 [penwidth=2]
    171 -> 196 [penwidth=2]
    171 -> 120 [penwidth=2]
    171 -> 189 [penwidth=2]
    171 -> 194 [penwidth=2]
    171 -> 5 [penwidth=2]
    173 -> 191 [penwidth=2]
    173 -> 71 [penwidth=2]
    173 -> 16 [penwidth=2]
    173 -> 76 [penwidth=2]
    173 -> 22 [penwidth=2]
    173 -> 75 [penwidth=2]
    173 -> 199 [penwidth=2]
    173 -> 50 [penwidth=2]
    173 -> 196 [penwidth=2]
    173 -> 62 [penwidth=2]
    173 -> 197 [penwidth=2]
    173 -> 25 [penwidth=2]
    173 -> 161 [penwidth=2]
    173 -> 118 [penwidth=2]
    173 -> 157 [penwidth=2]
    173 -> 5 [penwidth=2]
    173 -> 11 [penwidth=2]
    173 -> 145 [penwidth=2]
    173 -> 49 [penwidth=2]
    173 -> 37 [penwidth=2]
    173 -> 46 [penwidth=2]
    173 -> 107 [penwidth=2]
    173 -> 38 [penwidth=2]
    173 -> 112 [penwidth=2]
    173 -> 52 [penwidth=2]
    173 -> 109 [penwidth=2]
    173 -> 111 [penwidth=2]
    173 -> 148 [penwidth=2]
    173 -> 67 [penwidth=2]
    173 -> 185 [penwidth=2]
    174 -> 72 [penwidth=2]
    174 -> 52 [penwidth=2]
    174 -> 74 [penwidth=2]
    174 -> 78 [penwidth=2]
    174 -> 44 [penwidth=2]
    174 -> 149 [penwidth=2]
    174 -> 196 [penwidth=2]
    174 -> 79 [penwidth=2]
    174 -> 157 [penwidth=2]
    174 -> 32 [penwidth=2]
    174 -> 111 [penwidth=2]
    174 -> 191 [penwidth=2]
    174 -> 76 [penwidth=2]
    174 -> 50 [penwidth=2]
    174 -> 57 [penwidth=2]
    174 -> 146 [penwidth=2]
    174 -> 120 [penwidth=2]
    174 -> 106 [penwidth=2]
    174 -> 69 [penwidth=2]
    174 -> 49 [penwidth=2]
    174 -> 17 [penwidth=2]
    174 -> 197 [penwidth=2]
    174 -> 185 [penwidth=2]
    174 -> 156 [penwidth=2]
    174 -> 65 [penwidth=2]
    174 -> 14 [penwidth=2]
    174 -> 29 [penwidth=2]
    174 -> 45 [penwidth=2]
    174 -> 60 [penwidth=2]
    174 -> 22 [penwidth=2]
    174 -> 201 [penwidth=2]
    174 -> 70 [penwidth=2]
    174 -> 117 [penwidth=2]
    174 -> 105 [penwidth=2]
    174 -> 150 [penwidth=2]
    174 -> 41 [penwidth=2]
    174 -> 28 [penwidth=2]
    174 -> 10 [penwidth=2]
    174 -> 51 [penwidth=2]
    174 -> 154 [penwidth=2]
    174 -> 113 [penwidth=2]
    174 -> 199 [penwidth=2]
    174 -> 152 [penwidth=2]
    174 -> 61 [penwidth=2]
    174 -> 118 [penwidth=2]
    174 -> 162 [penwidth=2]
    174 -> 47 [penwidth=2]
    174 -> 16 [penwidth=2]
    174 -> 119 [penwidth=2]
    174 -> 36 [penwidth=2]
    174 -> 9 [penwidth=2]
    174 -> 67 [penwidth=2]
    174 -> 161 [penwidth=2]
    174 -> 35 [penwidth=2]
    174 -> 71 [penwidth=2]
    174 -> 7 [penwidth=2]
    174 -> 66 [penwidth=2]
    174 -> 203 [penwidth=2]
    174 -> 104 [penwidth=2]
    174 -> 48 [penwidth=2]
    174 -> 116 [penwidth=2]
    174 -> 38 [penwidth=2]
    174 -> 151 [penwidth=2]
    174 -> 112 [penwidth=2]
    174 -> 73 [penwidth=2]
    174 -> 6 [penwidth=2]
    174 -> 13 [penwidth=2]
    174 -> 2 [penwidth=2]
    174 -> 55 [penwidth=2]
    174 -> 148 [penwidth=2]
    174 -> 59 [penwidth=2]
    174 -> 24 [penwidth=2]
    174 -> 198 [penwidth=2]
    174 -> 54 [penwidth=2]
    174 -> 23 [penwidth=2]
    174 -> 31 [penwidth=2]
    174 -> 108 [penwidth=2]
    174 -> 58 [penwidth=2]
    174 -> 37 [penwidth=2]
    174 -> 145 [penwidth=2]
    174 -> 202 [penwidth=2]
    174 -> 102 [penwidth=2]
    174 -> 26 [penwidth=2]
    142 -> 25 [penwidth=2]
    142 -> 105 [penwidth=2]
    142 -> 195 [penwidth=2]
    142 -> 77 [penwidth=2]
    142 -> 151 [penwidth=2]
    142 -> 192 [penwidth=2]
    142 -> 75 [penwidth=2]
    142 -> 118 [penwidth=2]
    142 -> 5 [penwidth=2]
    142 -> 48 [penwidth=2]
    142 -> 46 [penwidth=2]
    142 -> 189 [penwidth=2]
    142 -> 160 [penwidth=2]
    142 -> 108 [penwidth=2]
    142 -> 41 [penwidth=2]
    142 -> 150 [penwidth=2]
    142 -> 42 [penwidth=2]
    142 -> 198 [penwidth=2]
    142 -> 7 [penwidth=2]
    142 -> 32 [penwidth=2]
    142 -> 14 [penwidth=2]
    142 -> 63 [penwidth=2]
    142 -> 8 [penwidth=2]
    142 -> 27 [penwidth=2]
    142 -> 154 [penwidth=2]
    142 -> 34 [penwidth=2]
    142 -> 146 [penwidth=2]
    142 -> 56 [penwidth=2]
    142 -> 113 [penwidth=2]
    142 -> 53 [penwidth=2]
    142 -> 10 [penwidth=2]
    142 -> 1 [penwidth=2]
    142 -> 45 [penwidth=2]
    142 -> 78 [penwidth=2]
    142 -> 16 [penwidth=2]
    142 -> 55 [penwidth=2]
    142 -> 23 [penwidth=2]
    142 -> 22 [penwidth=2]
    142 -> 109 [penwidth=2]
    142 -> 196 [penwidth=2]
    142 -> 103 [penwidth=2]
    142 -> 2 [penwidth=2]
    142 -> 120 [penwidth=2]
    142 -> 61 [penwidth=2]
    142 -> 79 [penwidth=2]
    142 -> 197 [penwidth=2]
    142 -> 66 [penwidth=2]
    142 -> 49 [penwidth=2]
    142 -> 116 [penwidth=2]
    142 -> 159 [penwidth=2]
    142 -> 28 [penwidth=2]
    142 -> 70 [penwidth=2]
    142 -> 33 [penwidth=2]
    142 -> 26 [penwidth=2]
    142 -> 64 [penwidth=2]
    142 -> 47 [penwidth=2]
    142 -> 112 [penwidth=2]
    142 -> 110 [penwidth=2]
    142 -> 51 [penwidth=2]
    142 -> 67 [penwidth=2]
    142 -> 201 [penwidth=2]
    142 -> 30 [penwidth=2]
    142 -> 185 [penwidth=2]
    142 -> 38 [penwidth=2]
    142 -> 156 [penwidth=2]
    142 -> 202 [penwidth=2]
    142 -> 31 [penwidth=2]
    142 -> 106 [penwidth=2]
    142 -> 107 [penwidth=2]
    142 -> 52 [penwidth=2]
    142 -> 191 [penwidth=2]
    142 -> 40 [penwidth=2]
    142 -> 37 [penwidth=2]
    142 -> 43 [penwidth=2]
    142 -> 104 [penwidth=2]
    142 -> 144 [penwidth=2]
    142 -> 24 [penwidth=2]
    142 -> 157 [penwidth=2]
    142 -> 6 [penwidth=2]
    142 -> 145 [penwidth=2]
    142 -> 153 [penwidth=2]
    142 -> 111 [penwidth=2]
    142 -> 15 [penwidth=2]
    142 -> 11 [penwidth=2]
    142 -> 9 [penwidth=2]
    142 -> 59 [penwidth=2]
    142 -> 114 [penwidth=2]
    142 -> 204 [penwidth=2]
    142 -> 29 [penwidth=2]
    137 -> 60 [penwidth=2]
    137 -> 105 [penwidth=2]
    137 -> 200 [penwidth=2]
    137 -> 50 [penwidth=2]
    181 -> 110 [penwidth=2]
    181 -> 33 [penwidth=2]
    181 -> 64 [penwidth=2]
    181 -> 41 [penwidth=2]
    181 -> 57 [penwidth=2]
    181 -> 195 [penwidth=2]
    181 -> 32 [penwidth=2]
    181 -> 50 [penwidth=2]
    181 -> 184 [penwidth=2]
    181 -> 113 [penwidth=2]
    181 -> 194 [penwidth=2]
    181 -> 68 [penwidth=2]
    181 -> 69 [penwidth=2]
    181 -> 144 [penwidth=2]
    181 -> 112 [penwidth=2]
    181 -> 47 [penwidth=2]
    181 -> 114 [penwidth=2]
    181 -> 157 [penwidth=2]
    181 -> 76 [penwidth=2]
    181 -> 40 [penwidth=2]
    181 -> 152 [penwidth=2]
    181 -> 119 [penwidth=2]
    181 -> 104 [penwidth=2]
    181 -> 111 [penwidth=2]
    181 -> 71 [penwidth=2]
    181 -> 145 [penwidth=2]
    181 -> 7 [penwidth=2]
    181 -> 8 [penwidth=2]
    181 -> 156 [penwidth=2]
    181 -> 46 [penwidth=2]
    181 -> 70 [penwidth=2]
    181 -> 31 [penwidth=2]
    181 -> 45 [penwidth=2]
    181 -> 55 [penwidth=2]
    181 -> 10 [penwidth=2]
    181 -> 146 [penwidth=2]
    181 -> 148 [penwidth=2]
    181 -> 62 [penwidth=2]
    181 -> 59 [penwidth=2]
    181 -> 48 [penwidth=2]
    181 -> 11 [penwidth=2]
    181 -> 199 [penwidth=2]
    181 -> 60 [penwidth=2]
    181 -> 202 [penwidth=2]
    181 -> 58 [penwidth=2]
    181 -> 29 [penwidth=2]
    181 -> 117 [penwidth=2]
    181 -> 201 [penwidth=2]
    181 -> 189 [penwidth=2]
    181 -> 72 [penwidth=2]
    181 -> 12 [penwidth=2]
    181 -> 75 [penwidth=2]
    181 -> 16 [penwidth=2]
    181 -> 108 [penwidth=2]
    181 -> 198 [penwidth=2]
    181 -> 65 [penwidth=2]
    181 -> 196 [penwidth=2]
    181 -> 102 [penwidth=2]
    181 -> 9 [penwidth=2]
    181 -> 204 [penwidth=2]
    181 -> 153 [penwidth=2]
    181 -> 43 [penwidth=2]
    181 -> 162 [penwidth=2]
    181 -> 78 [penwidth=2]
    181 -> 151 [penwidth=2]
    181 -> 103 [penwidth=2]
    181 -> 24 [penwidth=2]
    181 -> 161 [penwidth=2]
    181 -> 185 [penwidth=2]
    181 -> 109 [penwidth=2]
    181 -> 77 [penwidth=2]
    181 -> 197 [penwidth=2]
    181 -> 37 [penwidth=2]
    181 -> 160 [penwidth=2]
    181 -> 147 [penwidth=2]
    181 -> 14 [penwidth=2]
    181 -> 39 [penwidth=2]
    181 -> 25 [penwidth=2]
    181 -> 107 [penwidth=2]
    181 -> 17 [penwidth=2]
    181 -> 193 [penwidth=2]
    181 -> 106 [penwidth=2]
    181 -> 200 [penwidth=2]
    181 -> 67 [penwidth=2]
    181 -> 74 [penwidth=2]
    181 -> 150 [penwidth=2]
    181 -> 53 [penwidth=2]
    181 -> 192 [penwidth=2]
    181 -> 26 [penwidth=2]
    181 -> 15 [penwidth=2]
    181 -> 120 [penwidth=2]
    181 -> 54 [penwidth=2]
    181 -> 44 [penwidth=2]
    181 -> 35 [penwidth=2]
    143 -> 7 [penwidth=2]
    143 -> 56 [penwidth=2]
    143 -> 160 [penwidth=2]
    143 -> 63 [penwidth=2]
    143 -> 150 [penwidth=2]
    143 -> 70 [penwidth=2]
    143 -> 162 [penwidth=2]
    143 -> 103 [penwidth=2]
    143 -> 116 [penwidth=2]
    143 -> 117 [penwidth=2]
    143 -> 158 [penwidth=2]
    143 -> 29 [penwidth=2]
    143 -> 108 [penwidth=2]
    143 -> 189 [penwidth=2]
    143 -> 120 [penwidth=2]
    143 -> 112 [penwidth=2]
    143 -> 105 [penwidth=2]
    143 -> 75 [penwidth=2]
    143 -> 199 [penwidth=2]
    143 -> 79 [penwidth=2]
    143 -> 5 [penwidth=2]
    143 -> 17 [penwidth=2]
    143 -> 55 [penwidth=2]
    143 -> 27 [penwidth=2]
    143 -> 51 [penwidth=2]
    143 -> 64 [penwidth=2]
    143 -> 193 [penwidth=2]
    143 -> 204 [penwidth=2]
    143 -> 153 [penwidth=2]
    143 -> 53 [penwidth=2]
    143 -> 148 [penwidth=2]
    143 -> 2 [penwidth=2]
    143 -> 154 [penwidth=2]
    143 -> 34 [penwidth=2]
    143 -> 184 [penwidth=2]
    143 -> 45 [penwidth=2]
    143 -> 11 [penwidth=2]
    143 -> 159 [penwidth=2]
    143 -> 71 [penwidth=2]
    143 -> 198 [penwidth=2]
    143 -> 9 [penwidth=2]
    143 -> 67 [penwidth=2]
    143 -> 77 [penwidth=2]
    143 -> 36 [penwidth=2]
    143 -> 113 [penwidth=2]
    143 -> 161 [penwidth=2]
    143 -> 22 [penwidth=2]
    143 -> 202 [penwidth=2]
    143 -> 151 [penwidth=2]
    143 -> 73 [penwidth=2]
    143 -> 43 [penwidth=2]
    143 -> 54 [penwidth=2]
    143 -> 195 [penwidth=2]
    143 -> 46 [penwidth=2]
    143 -> 106 [penwidth=2]
    143 -> 156 [penwidth=2]
    143 -> 107 [penwidth=2]
    143 -> 40 [penwidth=2]
    143 -> 10 [penwidth=2]
    143 -> 28 [penwidth=2]
    143 -> 157 [penwidth=2]
    143 -> 155 [penwidth=2]
    143 -> 203 [penwidth=2]
    143 -> 68 [penwidth=2]
    143 -> 74 [penwidth=2]
    143 -> 14 [penwidth=2]
    143 -> 15 [penwidth=2]
    143 -> 6 [penwidth=2]
    143 -> 144 [penwidth=2]
    143 -> 24 [penwidth=2]
    143 -> 62 [penwidth=2]
    143 -> 1 [penwidth=2]
    143 -> 102 [penwidth=2]
    143 -> 152 [penwidth=2]
    143 -> 48 [penwidth=2]
    143 -> 16 [penwidth=2]
    143 -> 52 [penwidth=2]
    143 -> 69 [penwidth=2]
    143 -> 25 [penwidth=2]
    143 -> 145 [penwidth=2]
    143 -> 111 [penwidth=2]
    143 -> 192 [penwidth=2]
    143 -> 49 [penwidth=2]
    143 -> 65 [penwidth=2]
    143 -> 185 [penwidth=2]
    143 -> 47 [penwidth=2]
    143 -> 194 [penwidth=2]
    143 -> 66 [penwidth=2]
    143 -> 109 [penwidth=2]
    143 -> 39 [penwidth=2]
    143 -> 37 [penwidth=2]
    143 -> 104 [penwidth=2]
    143 -> 50 [penwidth=2]
    143 -> 190 [penwidth=2]
    143 -> 32 [penwidth=2]
    143 -> 33 [penwidth=2]
    143 -> 26 [penwidth=2]
    143 -> 12 [penwidth=2]
    143 -> 78 [penwidth=2]
    143 -> 119 [penwidth=2]
    143 -> 110 [penwidth=2]
    143 -> 35 [penwidth=2]
    143 -> 201 [penwidth=2]
    143 -> 58 [penwidth=2]
    143 -> 196 [penwidth=2]
    143 -> 146 [penwidth=2]
    143 -> 200 [penwidth=2]
    143 -> 44 [penwidth=2]
    143 -> 118 [penwidth=2]
    143 -> 57 [penwidth=2]
    143 -> 114 [penwidth=2]
    143 -> 149 [penwidth=2]
    143 -> 59 [penwidth=2]
    143 -> 8 [penwidth=2]
    143 -> 31 [penwidth=2]
    143 -> 23 [penwidth=2]
    143 -> 61 [penwidth=2]
    143 -> 76 [penwidth=2]
    143 -> 147 [penwidth=2]
    143 -> 197 [penwidth=2]
    143 -> 38 [penwidth=2]
    143 -> 115 [penwidth=2]
    143 -> 41 [penwidth=2]
}