digraph G {
    0 [penwidth=3,label="0"]
    1 [penwidth=3,label="1"]
    2 [penwidth=3,label="2"]
    3 [penwidth=3,label="3"]
    4 [penwidth=3,label="4"]
    5 [penwidth=3,label="5"]
    6 [penwidth=3,label="6"]
    7 [penwidth=3,label="7"]
    8 [penwidth=3,label="8"]
    9 [penwidth=3,label="9"]
    10 [penwidth=3,label="10"]
    11 [penwidth=3,label="11"]
    12 [penwidth=3,label="12"]
    13 [penwidth=3,label="13"]
    14 [penwidth=3,label="14"]
    15 [penwidth=3,label="15"]
    16 [penwidth=3,label="16"]
    17 [penwidth=3,label="17"]
    18 [penwidth=3,label="18"]
    19 [penwidth=3,label="19"]
    20 [penwidth=3,label="20"]
    21 [penwidth=3,label="21"]
    22 [penwidth=3,label="22"]
    23 [penwidth=3,label="23"]
    24 [penwidth=3,label="24"]
    25 [penwidth=3,label="25"]
    26 [penwidth=3,label="26"]
    27 [penwidth=3,label="27"]
    28 [penwidth=3,label="28"]
    29 [penwidth=3,label="29"]
    30 [penwidth=3,label="30"]
    31 [penwidth=3,label="31"]
    32 [penwidth=3,label="32"]
    33 [penwidth=3,label="33"]
    34 [penwidth=3,label="34"]
    35 [penwidth=3,label="35"]
    36 [penwidth=3,label="36"]
    37 [penwidth=3,label="37"]
    38 [penwidth=3,label="38"]
    39 [penwidth=3,label="39"]
    40 [penwidth=3,label="40"]
    41 [penwidth=3,label="41"]
    42 [penwidth=3,label="42"]
    43 [penwidth=3,label="43"]
    44 [penwidth=3,label="44"]
    45 [penwidth=3,label="45"]
    46 [penwidth=3,label="46"]
    47 [penwidth=3,label="47"]
    48 [penwidth=3,label="48"]
    49 [penwidth=3,label="49"]
    50 [penwidth=3,label="50"]
    51 [penwidth=3,label="51"]
    52 [penwidth=3,label="52"]
    53 [penwidth=3,label="53"]
    54 [penwidth=3,label="54"]
    55 [penwidth=3,label="55"]
    56 [penwidth=3,label="56"]
    57 [penwidth=3,label="57"]
    58 [penwidth=3,label="58"]
    59 [penwidth=3,label="59"]
    60 [penwidth=3,label="60"]
    61 [penwidth=3,label="61"]
    62 [penwidth=3,label="62"]
    63 [penwidth=3,label="63"]
    64 [penwidth=3,label="64"]
    65 [penwidth=3,label="65"]
    66 [penwidth=3,label="66"]
    67 [penwidth=3,label="67"]
    68 [penwidth=3,label="68"]
    69 [penwidth=3,label="69"]
    70 [penwidth=3,label="70"]
    71 [penwidth=3,label="71"]
    72 [penwidth=3,label="72"]
    73 [penwidth=3,label="73"]
    74 [penwidth=3,label="74"]
    75 [penwidth=3,label="75"]
    76 [penwidth=3,label="76"]
    77 [penwidth=3,label="77"]
    78 [penwidth=3,label="78"]
    79 [penwidth=3,label="79"]
    80 [penwidth=3,label="80"]
    81 [penwidth=3,label="81"]
    82 [penwidth=3,label="82"]
    83 [penwidth=3,label="83"]
    84 [penwidth=3,label="84"]
    85 [penwidth=3,label="85"]
    86 [penwidth=3,label="86"]
    87 [penwidth=3,label="87"]
    88 [penwidth=3,label="88"]
    89 [penwidth=3,label="89"]
    90 [penwidth=3,label="90"]
    91 [penwidth=3,label="91"]
    92 [penwidth=3,label="92"]
    93 [penwidth=3,label="93"]
    94 [penwidth=3,label="94"]
    95 [penwidth=3,label="95"]
    96 [penwidth=3,label="96"]
    97 [penwidth=3,label="97"]
    98 [penwidth=3,label="98"]
    99 [penwidth=3,label="99"]
    100 [penwidth=3,label="100"]
    101 [penwidth=3,label="101"]
    102 [penwidth=3,label="102"]
    103 [penwidth=3,label="103"]
    104 [penwidth=3,label="104"]
    105 [penwidth=3,label="105"]
    106 [penwidth=3,label="106"]
    107 [penwidth=3,label="107"]
    108 [penwidth=3,label="108"]
    109 [penwidth=3,label="109"]
    110 [penwidth=3,label="110"]
    111 [penwidth=3,label="111"]
    112 [penwidth=3,label="112"]
    113 [penwidth=3,label="113"]
    114 [penwidth=3,label="114"]
    115 [penwidth=3,label="115"]
    116 [penwidth=3,label="116"]
    117 [penwidth=3,label="117"]
    118 [penwidth=3,label="118"]
    119 [penwidth=3,label="119"]
    120 [penwidth=3,label="120"]
    121 [penwidth=3,label="121"]
    122 [penwidth=3,label="122"]
    123 [penwidth=3,label="123"]
    124 [penwidth=3,label="124"]
    125 [penwidth=3,label="125"]
    126 [penwidth=3,label="126"]
    127 [penwidth=3,label="127"]
    128 [penwidth=3,label="128"]
    129 [penwidth=3,label="129"]
    130 [penwidth=3,label="130"]
    131 [penwidth=3,label="131"]
    132 [penwidth=3,label="132"]
    133 [penwidth=3,label="133"]
    134 [penwidth=3,label="134"]
    135 [penwidth=3,label="135"]
    136 [penwidth=3,label="136"]
    137 [penwidth=3,label="137"]
    138 [penwidth=3,label="138"]
    139 [penwidth=3,label="139"]
    140 [penwidth=3,label="140"]
    141 [penwidth=3,label="141"]
    142 [penwidth=3,label="142"]
    143 [penwidth=3,label="143"]
    144 [penwidth=3,label="144"]
    145 [penwidth=3,label="145"]
    146 [penwidth=3,label="146"]
    147 [penwidth=3,label="147"]
    148 [penwidth=3,label="148"]
    149 [penwidth=3,label="149"]
    150 [penwidth=3,label="150"]
    151 [penwidth=3,label="151"]
    152 [penwidth=3,label="152"]
    153 [penwidth=3,label="153"]
    154 [penwidth=3,label="154"]
    155 [penwidth=3,label="155"]
    156 [penwidth=3,label="156"]
    157 [penwidth=3,label="157"]
    158 [penwidth=3,label="158"]
    159 [penwidth=3,label="159"]
    160 [penwidth=3,label="160"]
    161 [penwidth=3,label="161"]
    162 [penwidth=3,label="162"]
    163 [penwidth=3,label="163"]
    164 [penwidth=3,label="164"]
    165 [penwidth=3,label="165"]
    166 [penwidth=3,label="166"]
    167 [penwidth=3,label="167"]
    168 [penwidth=3,label="168"]
    169 [penwidth=3,label="169"]
    170 [penwidth=3,label="170"]
    171 [penwidth=3,label="171"]
    172 [penwidth=3,label="172"]
    173 [penwidth=3,label="173"]
    174 [penwidth=3,label="174"]
    175 [penwidth=3,label="175"]
    176 [penwidth=3,label="176"]
    177 [penwidth=3,label="177"]
    178 [penwidth=3,label="178"]
    179 [penwidth=3,label="179"]
    180 [penwidth=3,label="180"]
    181 [penwidth=3,label="181"]
    182 [penwidth=3,label="182"]
    183 [penwidth=3,label="183"]
    184 [penwidth=3,label="184"]
    185 [penwidth=3,label="185"]
    186 [penwidth=3,label="186"]
    187 [penwidth=3,label="187"]
    188 [penwidth=3,label="188"]
    189 [penwidth=3,label="189"]
    190 [penwidth=3,label="190"]
    191 [penwidth=3,label="191"]
    192 [penwidth=3,label="192"]
    193 [penwidth=3,label="193"]
    194 [penwidth=3,label="194"]
    195 [penwidth=3,label="195"]
    196 [penwidth=3,label="196"]
    197 [penwidth=3,label="197"]
    198 [penwidth=3,label="198"]
    199 [penwidth=3,label="199"]
    200 [penwidth=3,label="200"]
    201 [penwidth=3,label="201"]
    202 [penwidth=3,label="202"]
    203 [penwidth=3,label="203"]
    204 [penwidth=3,label="204"]

    137 -> 0 [penwidth=2]
    35 -> 0 [penwidth=2]
    77 -> 0 [penwidth=2]
    131 -> 0 [penwidth=2]
    36 -> 0 [penwidth=2]
    78 -> 0 [penwidth=2]
    140 -> 0 [penwidth=2]
    37 -> 0 [penwidth=2]
    79 -> 137 [penwidth=2]
    134 -> 35 [penwidth=2]
    38 -> 35 [penwidth=2]
    80 -> 35 [penwidth=2]
    133 -> 35 [penwidth=2]
    39 -> 35 [penwidth=2]
    81 -> 35 [penwidth=2]
    130 -> 35 [penwidth=2]
    40 -> 35 [penwidth=2]
    82 -> 35 [penwidth=2]
    136 -> 35 [penwidth=2]
    41 -> 35 [penwidth=2]
    83 -> 35 [penwidth=2]
    139 -> 35 [penwidth=2]
    42 -> 35 [penwidth=2]
    84 -> 35 [penwidth=2]
    135 -> 35 [penwidth=2]
    43 -> 35 [penwidth=2]
    85 -> 35 [penwidth=2]
    142 -> 35 [penwidth=2]
    44 -> 35 [penwidth=2]
    86 -> 35 [penwidth=2]
    141 -> 35 [penwidth=2]
    45 -> 77 [penwidth=2]
    87 -> 77 [penwidth=2]
    132 -> 77 [penwidth=2]
    46 -> 77 [penwidth=2]
    138 -> 131 [penwidth=2]
    156 -> 131 [penwidth=2]
    47 -> 131 [penwidth=2]
    157 -> 131 [penwidth=2]
    48 -> 131 [penwidth=2]
    158 -> 131 [penwidth=2]
    49 -> 131 [penwidth=2]
    159 -> 131 [penwidth=2]
    50 -> 36 [penwidth=2]
    160 -> 36 [penwidth=2]
    51 -> 78 [penwidth=2]
    161 -> 78 [penwidth=2]
    52 -> 78 [penwidth=2]
    88 -> 78 [penwidth=2]
    162 -> 78 [penwidth=2]
    53 -> 78 [penwidth=2]
    163 -> 78 [penwidth=2]
    54 -> 78 [penwidth=2]
    164 -> 78 [penwidth=2]
    55 -> 78 [penwidth=2]
    165 -> 78 [penwidth=2]
    56 -> 78 [penwidth=2]
    166 -> 78 [penwidth=2]
    57 -> 78 [penwidth=2]
    167 -> 78 [penwidth=2]
    58 -> 140 [penwidth=2]
    168 -> 140 [penwidth=2]
    59 -> 140 [penwidth=2]
    169 -> 140 [penwidth=2]
    60 -> 140 [penwidth=2]
    170 -> 140 [penwidth=2]
    61 -> 140 [penwidth=2]
    171 -> 140 [penwidth=2]
    62 -> 140 [penwidth=2]
    172 -> 140 [penwidth=2]
    63 -> 140 [penwidth=2]
    173 -> 140 [penwidth=2]
    64 -> 140 [penwidth=2]
    174 -> 140 [penwidth=2]
    65 -> 140 [penwidth=2]
    175 -> 140 [penwidth=2]
    66 -> 37 [penwidth=2]
    176 -> 37 [penwidth=2]
    67 -> 37 [penwidth=2]
    177 -> 37 [penwidth=2]
    68 -> 37 [penwidth=2]
    178 -> 37 [penwidth=2]
    69 -> 37 [penwidth=2]
    179 -> 37 [penwidth=2]
    70 -> 37 [penwidth=2]
    180 -> 37 [penwidth=2]
    71 -> 37 [penwidth=2]
    181 -> 37 [penwidth=2]
    72 -> 37 [penwidth=2]
    182 -> 37 [penwidth=2]
    73 -> 37 [penwidth=2]
    183 -> 37 [penwidth=2]
    74 -> 37 [penwidth=2]
    184 -> 37 [penwidth=2]
    75 -> 37 [penwidth=2]
    185 -> 37 [penwidth=2]
    76 -> 37 [penwidth=2]
    95 -> 79 [penwidth=2]
    186 -> 79 [penwidth=2]
    187 -> 79 [penwidth=2]
    119 -> 79 [penwidth=2]
    188 -> 79 [penwidth=2]
    117 -> 79 [penwidth=2]
    94 -> 79 [penwidth=2]
    189 -> 79 [penwidth=2]
    190 -> 134 [penwidth=2]
    115 -> 134 [penwidth=2]
    191 -> 134 [penwidth=2]
    121 -> 134 [penwidth=2]
    93 -> 134 [penwidth=2]
    192 -> 134 [penwidth=2]
    193 -> 38 [penwidth=2]
    118 -> 38 [penwidth=2]
    1 -> 38 [penwidth=2]
    194 -> 38 [penwidth=2]
    116 -> 80 [penwidth=2]
    92 -> 80 [penwidth=2]
    195 -> 80 [penwidth=2]
    2 -> 80 [penwidth=2]
    196 -> 80 [penwidth=2]
    3 -> 80 [penwidth=2]
    122 -> 80 [penwidth=2]
    197 -> 80 [penwidth=2]
    4 -> 80 [penwidth=2]
    120 -> 80 [penwidth=2]
    91 -> 80 [penwidth=2]
    198 -> 80 [penwidth=2]
    5 -> 80 [penwidth=2]
    199 -> 80 [penwidth=2]
    6 -> 80 [penwidth=2]
    200 -> 80 [penwidth=2]
    7 -> 80 [penwidth=2]
    127 -> 80 [penwidth=2]
    90 -> 80 [penwidth=2]
    201 -> 80 [penwidth=2]
    8 -> 80 [penwidth=2]
    129 -> 80 [penwidth=2]
    202 -> 80 [penwidth=2]
    9 -> 133 [penwidth=2]
    128 -> 133 [penwidth=2]
    203 -> 133 [penwidth=2]
    10 -> 133 [penwidth=2]
    204 -> 133 [penwidth=2]
    11 -> 133 [penwidth=2]
    123 -> 133 [penwidth=2]
    12 -> 133 [penwidth=2]
    114 -> 133 [penwidth=2]
    13 -> 133 [penwidth=2]
    125 -> 133 [penwidth=2]
    14 -> 133 [penwidth=2]
    124 -> 133 [penwidth=2]
    15 -> 133 [penwidth=2]
    126 -> 133 [penwidth=2]
    16 -> 133 [penwidth=2]
    96 -> 133 [penwidth=2]
    113 -> 133 [penwidth=2]
    17 -> 133 [penwidth=2]
    112 -> 133 [penwidth=2]
    18 -> 133 [penwidth=2]
    111 -> 133 [penwidth=2]
    19 -> 133 [penwidth=2]
    110 -> 133 [penwidth=2]
    20 -> 39 [penwidth=2]
    109 -> 39 [penwidth=2]
    21 -> 39 [penwidth=2]
    155 -> 39 [penwidth=2]
    108 -> 39 [penwidth=2]
    148 -> 39 [penwidth=2]
    149 -> 39 [penwidth=2]
    22 -> 39 [penwidth=2]
    107 -> 39 [penwidth=2]
    23 -> 39 [penwidth=2]
    146 -> 39 [penwidth=2]
    106 -> 39 [penwidth=2]
    154 -> 39 [penwidth=2]
    24 -> 39 [penwidth=2]
    145 -> 39 [penwidth=2]
    105 -> 39 [penwidth=2]
    25 -> 39 [penwidth=2]
    104 -> 39 [penwidth=2]
    153 -> 39 [penwidth=2]
    26 -> 39 [penwidth=2]
    147 -> 39 [penwidth=2]
    103 -> 39 [penwidth=2]
    27 -> 39 [penwidth=2]
    89 -> 39 [penwidth=2]
    152 -> 39 [penwidth=2]
    28 -> 81 [penwidth=2]
    144 -> 81 [penwidth=2]
    102 -> 81 [penwidth=2]
    29 -> 81 [penwidth=2]
    143 -> 81 [penwidth=2]
    101 -> 81 [penwidth=2]
    151 -> 81 [penwidth=2]
    30 -> 81 [penwidth=2]
    100 -> 81 [penwidth=2]
    31 -> 81 [penwidth=2]
    99 -> 81 [penwidth=2]
    150 -> 130 [penwidth=2]
    32 -> 130 [penwidth=2]
    98 -> 130 [penwidth=2]
    33 -> 130 [penwidth=2]
    97 -> 130 [penwidth=2]
    34 -> 130 [penwidth=2]
    130 -> 78 [penwidth=2]
    139 -> 78 [penwidth=2]
    139 -> 137 [penwidth=2]
    139 -> 37 [penwidth=2]
    139 -> 77 [penwidth=2]
    139 -> 131 [penwidth=2]
    139 -> 36 [penwidth=2]
    141 -> 37 [penwidth=2]
    141 -> 77 [penwidth=2]
    141 -> 36 [penwidth=2]
    141 -> 137 [penwidth=2]
    141 -> 140 [penwidth=2]
    141 -> 78 [penwidth=2]
    50 -> 137 [penwidth=2]
    50 -> 131 [penwidth=2]
    50 -> 35 [penwidth=2]
    53 -> 77 [penwidth=2]
    163 -> 131 [penwidth=2]
    179 -> 78 [penwidth=2]
    179 -> 131 [penwidth=2]
    70 -> 35 [penwidth=2]
    190 -> 64 [penwidth=2]
    190 -> 41 [penwidth=2]
    190 -> 66 [penwidth=2]
    190 -> 63 [penwidth=2]
    190 -> 183 [penwidth=2]
    190 -> 46 [penwidth=2]
    190 -> 132 [penwidth=2]
    190 -> 68 [penwidth=2]
    190 -> 75 [penwidth=2]
    190 -> 72 [penwidth=2]
    190 -> 74 [penwidth=2]
    190 -> 176 [penwidth=2]
    190 -> 81 [penwidth=2]
    190 -> 44 [penwidth=2]
    190 -> 53 [penwidth=2]
    190 -> 159 [penwidth=2]
    190 -> 88 [penwidth=2]
    190 -> 142 [penwidth=2]
    190 -> 184 [penwidth=2]
    190 -> 42 [penwidth=2]
    190 -> 163 [penwidth=2]
    190 -> 67 [penwidth=2]
    190 -> 50 [penwidth=2]
    190 -> 69 [penwidth=2]
    190 -> 65 [penwidth=2]
    190 -> 180 [penwidth=2]
    190 -> 62 [penwidth=2]
    190 -> 172 [penwidth=2]
    190 -> 182 [penwidth=2]
    190 -> 85 [penwidth=2]
    190 -> 57 [penwidth=2]
    190 -> 133 [penwidth=2]
    190 -> 73 [penwidth=2]
    190 -> 56 [penwidth=2]
    190 -> 169 [penwidth=2]
    190 -> 70 [penwidth=2]
    190 -> 138 [penwidth=2]
    190 -> 170 [penwidth=2]
    190 -> 80 [penwidth=2]
    190 -> 61 [penwidth=2]
    190 -> 135 [penwidth=2]
    190 -> 168 [penwidth=2]
    190 -> 130 [penwidth=2]
    190 -> 86 [penwidth=2]
    190 -> 179 [penwidth=2]
    190 -> 178 [penwidth=2]
    190 -> 175 [penwidth=2]
    190 -> 76 [penwidth=2]
    190 -> 55 [penwidth=2]
    190 -> 47 [penwidth=2]
    190 -> 139 [penwidth=2]
    190 -> 83 [penwidth=2]
    190 -> 38 [penwidth=2]
    190 -> 165 [penwidth=2]
    190 -> 45 [penwidth=2]
    190 -> 60 [penwidth=2]
    190 -> 157 [penwidth=2]
    190 -> 58 [penwidth=2]
    190 -> 161 [penwidth=2]
    190 -> 52 [penwidth=2]
    190 -> 48 [penwidth=2]
    190 -> 87 [penwidth=2]
    190 -> 177 [penwidth=2]
    190 -> 43 [penwidth=2]
    190 -> 71 [penwidth=2]
    190 -> 171 [penwidth=2]
    190 -> 167 [penwidth=2]
    190 -> 166 [penwidth=2]
    190 -> 51 [penwidth=2]
    190 -> 136 [penwidth=2]
    190 -> 164 [penwidth=2]
    2 -> 174 [penwidth=2]
    2 -> 79 [penwidth=2]
    2 -> 46 [penwidth=2]
    2 -> 156 [penwidth=2]
    2 -> 55 [penwidth=2]
    2 -> 87 [penwidth=2]
    2 -> 43 [penwidth=2]
    2 -> 58 [penwidth=2]
    2 -> 185 [penwidth=2]
    2 -> 73 [penwidth=2]
    2 -> 68 [penwidth=2]
    2 -> 47 [penwidth=2]
    2 -> 159 [penwidth=2]
    2 -> 183 [penwidth=2]
    2 -> 176 [penwidth=2]
    2 -> 82 [penwidth=2]
    2 -> 88 [penwidth=2]
    2 -> 181 [penwidth=2]
    2 -> 142 [penwidth=2]
    2 -> 130 [penwidth=2]
    2 -> 76 [penwidth=2]
    2 -> 177 [penwidth=2]
    2 -> 182 [penwidth=2]
    2 -> 42 [penwidth=2]
    2 -> 50 [penwidth=2]
    2 -> 70 [penwidth=2]
    2 -> 170 [penwidth=2]
    2 -> 133 [penwidth=2]
    2 -> 179 [penwidth=2]
    2 -> 59 [penwidth=2]
    2 -> 75 [penwidth=2]
    2 -> 85 [penwidth=2]
    2 -> 164 [penwidth=2]
    2 -> 44 [penwidth=2]
    2 -> 69 [penwidth=2]
    2 -> 54 [penwidth=2]
    2 -> 65 [penwidth=2]
    2 -> 84 [penwidth=2]
    2 -> 60 [penwidth=2]
    2 -> 74 [penwidth=2]
    2 -> 66 [penwidth=2]
    2 -> 71 [penwidth=2]
    2 -> 53 [penwidth=2]
    2 -> 86 [penwidth=2]
    2 -> 45 [penwidth=2]
    2 -> 160 [penwidth=2]
    2 -> 39 [penwidth=2]
    2 -> 141 [penwidth=2]
    2 -> 56 [penwidth=2]
    2 -> 81 [penwidth=2]
    2 -> 166 [penwidth=2]
    2 -> 162 [penwidth=2]
    2 -> 48 [penwidth=2]
    2 -> 134 [penwidth=2]
    2 -> 67 [penwidth=2]
    2 -> 175 [penwidth=2]
    2 -> 167 [penwidth=2]
    2 -> 172 [penwidth=2]
    2 -> 132 [penwidth=2]
    2 -> 49 [penwidth=2]
    2 -> 168 [penwidth=2]
    2 -> 51 [penwidth=2]
    2 -> 158 [penwidth=2]
    2 -> 171 [penwidth=2]
    2 -> 57 [penwidth=2]
    2 -> 180 [penwidth=2]
    2 -> 135 [penwidth=2]
    4 -> 71 [penwidth=2]
    4 -> 67 [penwidth=2]
    4 -> 52 [penwidth=2]
    4 -> 38 [penwidth=2]
    4 -> 174 [penwidth=2]
    4 -> 162 [penwidth=2]
    4 -> 39 [penwidth=2]
    4 -> 185 [penwidth=2]
    4 -> 49 [penwidth=2]
    4 -> 132 [penwidth=2]
    4 -> 46 [penwidth=2]
    4 -> 65 [penwidth=2]
    4 -> 66 [penwidth=2]
    4 -> 53 [penwidth=2]
    4 -> 134 [penwidth=2]
    4 -> 169 [penwidth=2]
    4 -> 41 [penwidth=2]
    4 -> 85 [penwidth=2]
    4 -> 56 [penwidth=2]
    4 -> 88 [penwidth=2]
    4 -> 181 [penwidth=2]
    4 -> 139 [penwidth=2]
    4 -> 51 [penwidth=2]
    4 -> 45 [penwidth=2]
    4 -> 75 [penwidth=2]
    4 -> 68 [penwidth=2]
    4 -> 176 [penwidth=2]
    4 -> 138 [penwidth=2]
    4 -> 171 [penwidth=2]
    11 -> 46 [penwidth=2]
    11 -> 61 [penwidth=2]
    11 -> 39 [penwidth=2]
    11 -> 156 [penwidth=2]
    11 -> 157 [penwidth=2]
    11 -> 81 [penwidth=2]
    11 -> 67 [penwidth=2]
    11 -> 184 [penwidth=2]
    11 -> 42 [penwidth=2]
    11 -> 165 [penwidth=2]
    11 -> 161 [penwidth=2]
    11 -> 71 [penwidth=2]
    11 -> 138 [penwidth=2]
    11 -> 57 [penwidth=2]
    11 -> 47 [penwidth=2]
    11 -> 74 [penwidth=2]
    11 -> 135 [penwidth=2]
    11 -> 55 [penwidth=2]
    11 -> 181 [penwidth=2]
    11 -> 48 [penwidth=2]
    11 -> 60 [penwidth=2]
    11 -> 169 [penwidth=2]
    11 -> 41 [penwidth=2]
    11 -> 65 [penwidth=2]
    11 -> 162 [penwidth=2]
    11 -> 66 [penwidth=2]
    11 -> 44 [penwidth=2]
    11 -> 158 [penwidth=2]
    11 -> 76 [penwidth=2]
    11 -> 73 [penwidth=2]
    11 -> 38 [penwidth=2]
    11 -> 86 [penwidth=2]
    11 -> 168 [penwidth=2]
    11 -> 40 [penwidth=2]
    11 -> 80 [penwidth=2]
    11 -> 83 [penwidth=2]
    11 -> 174 [penwidth=2]
    11 -> 160 [penwidth=2]
    11 -> 54 [penwidth=2]
    11 -> 159 [penwidth=2]
    11 -> 63 [penwidth=2]
    11 -> 53 [penwidth=2]
    11 -> 178 [penwidth=2]
    11 -> 87 [penwidth=2]
    11 -> 52 [penwidth=2]
    11 -> 141 [penwidth=2]
    11 -> 185 [penwidth=2]
    11 -> 88 [penwidth=2]
    11 -> 49 [penwidth=2]
    11 -> 173 [penwidth=2]
    11 -> 84 [penwidth=2]
    11 -> 167 [penwidth=2]
    11 -> 69 [penwidth=2]
    11 -> 56 [penwidth=2]
    11 -> 182 [penwidth=2]
    11 -> 136 [penwidth=2]
    11 -> 72 [penwidth=2]
    11 -> 163 [penwidth=2]
    11 -> 139 [penwidth=2]
    11 -> 166 [penwidth=2]
    11 -> 62 [penwidth=2]
    11 -> 58 [penwidth=2]
    11 -> 132 [penwidth=2]
    11 -> 177 [penwidth=2]
    11 -> 176 [penwidth=2]
    11 -> 82 [penwidth=2]
    11 -> 175 [penwidth=2]
    11 -> 51 [penwidth=2]
    11 -> 85 [penwidth=2]
    11 -> 50 [penwidth=2]
    11 -> 75 [penwidth=2]
    11 -> 68 [penwidth=2]
    11 -> 142 [penwidth=2]
    11 -> 45 [penwidth=2]
    11 -> 183 [penwidth=2]
    11 -> 70 [penwidth=2]
    11 -> 172 [penwidth=2]
    11 -> 59 [penwidth=2]
    11 -> 179 [penwidth=2]
    11 -> 180 [penwidth=2]
    11 -> 130 [penwidth=2]
    11 -> 43 [penwidth=2]
    11 -> 64 [penwidth=2]
    11 -> 79 [penwidth=2]
    11 -> 134 [penwidth=2]
    11 -> 171 [penwidth=2]
    11 -> 164 [penwidth=2]
    19 -> 171 [penwidth=2]
    19 -> 71 [penwidth=2]
    19 -> 70 [penwidth=2]
    19 -> 74 [penwidth=2]
    19 -> 48 [penwidth=2]
    19 -> 64 [penwidth=2]
    19 -> 80 [penwidth=2]
    19 -> 163 [penwidth=2]
    19 -> 79 [penwidth=2]
    19 -> 177 [penwidth=2]
    19 -> 184 [penwidth=2]
    19 -> 73 [penwidth=2]
    19 -> 170 [penwidth=2]
    19 -> 52 [penwidth=2]
    19 -> 169 [penwidth=2]
    19 -> 69 [penwidth=2]
    19 -> 134 [penwidth=2]
    19 -> 76 [penwidth=2]
    19 -> 167 [penwidth=2]
    19 -> 86 [penwidth=2]
    19 -> 160 [penwidth=2]
    19 -> 40 [penwidth=2]
    19 -> 185 [penwidth=2]
    19 -> 75 [penwidth=2]
    19 -> 84 [penwidth=2]
    19 -> 56 [penwidth=2]
    19 -> 53 [penwidth=2]
    19 -> 42 [penwidth=2]
    19 -> 46 [penwidth=2]
    19 -> 139 [penwidth=2]
    19 -> 47 [penwidth=2]
    19 -> 158 [penwidth=2]
    19 -> 173 [penwidth=2]
    19 -> 141 [penwidth=2]
    20 -> 175 [penwidth=2]
    20 -> 80 [penwidth=2]
    20 -> 42 [penwidth=2]
    20 -> 82 [penwidth=2]
    20 -> 171 [penwidth=2]
    20 -> 68 [penwidth=2]
    20 -> 60 [penwidth=2]
    20 -> 161 [penwidth=2]
    20 -> 76 [penwidth=2]
    20 -> 165 [penwidth=2]
    20 -> 86 [penwidth=2]
    20 -> 48 [penwidth=2]
    20 -> 88 [penwidth=2]
    20 -> 141 [penwidth=2]
    20 -> 50 [penwidth=2]
    20 -> 170 [penwidth=2]
    20 -> 70 [penwidth=2]
    20 -> 61 [penwidth=2]
    20 -> 167 [penwidth=2]
    20 -> 138 [penwidth=2]
    20 -> 49 [penwidth=2]
    20 -> 67 [penwidth=2]
    20 -> 51 [penwidth=2]
    20 -> 73 [penwidth=2]
    20 -> 172 [penwidth=2]
    20 -> 134 [penwidth=2]
    20 -> 133 [penwidth=2]
    20 -> 58 [penwidth=2]
    20 -> 44 [penwidth=2]
    20 -> 41 [penwidth=2]
    20 -> 56 [penwidth=2]
    20 -> 64 [penwidth=2]
    20 -> 54 [penwidth=2]
    20 -> 135 [penwidth=2]
    20 -> 74 [penwidth=2]
    20 -> 47 [penwidth=2]
    20 -> 179 [penwidth=2]
    20 -> 83 [penwidth=2]
    20 -> 177 [penwidth=2]
    20 -> 157 [penwidth=2]
    20 -> 59 [penwidth=2]
    20 -> 63 [penwidth=2]
    20 -> 185 [penwidth=2]
    20 -> 57 [penwidth=2]
    20 -> 162 [penwidth=2]
    20 -> 176 [penwidth=2]
    20 -> 178 [penwidth=2]
    20 -> 183 [penwidth=2]
    20 -> 43 [penwidth=2]
    20 -> 45 [penwidth=2]
    20 -> 69 [penwidth=2]
    20 -> 159 [penwidth=2]
    20 -> 79 [penwidth=2]
    20 -> 85 [penwidth=2]
    20 -> 38 [penwidth=2]
    20 -> 180 [penwidth=2]
    20 -> 184 [penwidth=2]
    20 -> 71 [penwidth=2]
    149 -> 42 [penwidth=2]
    149 -> 65 [penwidth=2]
    149 -> 162 [penwidth=2]
    149 -> 169 [penwidth=2]
    149 -> 73 [penwidth=2]
    149 -> 55 [penwidth=2]
    149 -> 64 [penwidth=2]
    149 -> 179 [penwidth=2]
    149 -> 166 [penwidth=2]
    149 -> 181 [penwidth=2]
    149 -> 82 [penwidth=2]
    149 -> 60 [penwidth=2]
    149 -> 175 [penwidth=2]
    149 -> 159 [penwidth=2]
    149 -> 167 [penwidth=2]
    149 -> 38 [penwidth=2]
    149 -> 180 [penwidth=2]
    149 -> 63 [penwidth=2]
    149 -> 138 [penwidth=2]
    149 -> 52 [penwidth=2]
    149 -> 70 [penwidth=2]
    145 -> 169 [penwidth=2]
    145 -> 51 [penwidth=2]
    145 -> 160 [penwidth=2]
    145 -> 64 [penwidth=2]
    145 -> 57 [penwidth=2]
    145 -> 72 [penwidth=2]
    145 -> 48 [penwidth=2]
    145 -> 182 [penwidth=2]
    145 -> 40 [penwidth=2]
    145 -> 42 [penwidth=2]
    145 -> 38 [penwidth=2]
    145 -> 133 [penwidth=2]
    145 -> 157 [penwidth=2]
    145 -> 61 [penwidth=2]
    145 -> 43 [penwidth=2]
    145 -> 60 [penwidth=2]
    145 -> 83 [penwidth=2]
    145 -> 183 [penwidth=2]
    145 -> 76 [penwidth=2]
    145 -> 135 [penwidth=2]
    145 -> 52 [penwidth=2]
    145 -> 82 [penwidth=2]
    145 -> 179 [penwidth=2]
    145 -> 162 [penwidth=2]
    145 -> 176 [penwidth=2]
    145 -> 67 [penwidth=2]
    145 -> 174 [penwidth=2]
    145 -> 184 [penwidth=2]
    145 -> 166 [penwidth=2]
    145 -> 63 [penwidth=2]
    145 -> 80 [penwidth=2]
    145 -> 66 [penwidth=2]
    145 -> 69 [penwidth=2]
    145 -> 134 [penwidth=2]
    145 -> 73 [penwidth=2]
    145 -> 88 [penwidth=2]
    145 -> 171 [penwidth=2]
    145 -> 165 [penwidth=2]
    145 -> 185 [penwidth=2]
    145 -> 168 [penwidth=2]
    145 -> 139 [penwidth=2]
    145 -> 44 [penwidth=2]
    145 -> 71 [penwidth=2]
    145 -> 167 [penwidth=2]
    145 -> 180 [penwidth=2]
    145 -> 47 [penwidth=2]
    145 -> 50 [penwidth=2]
    145 -> 75 [penwidth=2]
    145 -> 156 [penwidth=2]
    145 -> 79 [penwidth=2]
    145 -> 70 [penwidth=2]
    145 -> 74 [penwidth=2]
    145 -> 164 [penwidth=2]
    145 -> 59 [penwidth=2]
    145 -> 45 [penwidth=2]
    145 -> 136 [penwidth=2]
    145 -> 53 [penwidth=2]
    145 -> 58 [penwidth=2]
    145 -> 178 [penwidth=2]
    145 -> 142 [penwidth=2]
    104 -> 176 [penwidth=2]
    104 -> 45 [penwidth=2]
    104 -> 61 [penwidth=2]
    104 -> 161 [penwidth=2]
    104 -> 84 [penwidth=2]
    104 -> 170 [penwidth=2]
    104 -> 67 [penwidth=2]
    104 -> 70 [penwidth=2]
    104 -> 174 [penwidth=2]
    104 -> 139 [penwidth=2]
    104 -> 50 [penwidth=2]
    104 -> 182 [penwidth=2]
    104 -> 38 [penwidth=2]
    104 -> 171 [penwidth=2]
    104 -> 47 [penwidth=2]
    104 -> 178 [penwidth=2]
    104 -> 134 [penwidth=2]
    104 -> 46 [penwidth=2]
    104 -> 59 [penwidth=2]
    104 -> 56 [penwidth=2]
    104 -> 132 [penwidth=2]
    104 -> 167 [penwidth=2]
    104 -> 58 [penwidth=2]
    104 -> 141 [penwidth=2]
    104 -> 183 [penwidth=2]
    104 -> 75 [penwidth=2]
    104 -> 181 [penwidth=2]
    104 -> 169 [penwidth=2]
    104 -> 79 [penwidth=2]
    104 -> 177 [penwidth=2]
    104 -> 85 [penwidth=2]
    104 -> 157 [penwidth=2]
    104 -> 60 [penwidth=2]
    104 -> 164 [penwidth=2]
    104 -> 82 [penwidth=2]
    104 -> 179 [penwidth=2]
    104 -> 185 [penwidth=2]
    104 -> 87 [penwidth=2]
    104 -> 55 [penwidth=2]
    104 -> 74 [penwidth=2]
    104 -> 54 [penwidth=2]
    104 -> 156 [penwidth=2]
    104 -> 136 [penwidth=2]
    104 -> 66 [penwidth=2]
    104 -> 43 [penwidth=2]
    104 -> 44 [penwidth=2]
    104 -> 162 [penwidth=2]
    104 -> 63 [penwidth=2]
    104 -> 163 [penwidth=2]
    104 -> 52 [penwidth=2]
    104 -> 48 [penwidth=2]
    104 -> 135 [penwidth=2]
    104 -> 172 [penwidth=2]
    104 -> 41 [penwidth=2]
    104 -> 142 [penwidth=2]
    104 -> 160 [penwidth=2]
    104 -> 49 [penwidth=2]
    104 -> 86 [penwidth=2]
    104 -> 180 [penwidth=2]
    104 -> 73 [penwidth=2]
    104 -> 159 [penwidth=2]
    104 -> 165 [penwidth=2]
    104 -> 184 [penwidth=2]
    104 -> 71 [penwidth=2]
    104 -> 166 [penwidth=2]
    104 -> 64 [penwidth=2]
    104 -> 65 [penwidth=2]
    104 -> 83 [penwidth=2]
    104 -> 68 [penwidth=2]
    104 -> 76 [penwidth=2]
    104 -> 173 [penwidth=2]
    104 -> 51 [penwidth=2]
    104 -> 88 [penwidth=2]
    104 -> 57 [penwidth=2]
    104 -> 53 [penwidth=2]
    104 -> 80 [penwidth=2]
    104 -> 133 [penwidth=2]
    104 -> 158 [penwidth=2]
    104 -> 81 [penwidth=2]
    104 -> 69 [penwidth=2]
    104 -> 138 [penwidth=2]
    104 -> 40 [penwidth=2]
    104 -> 62 [penwidth=2]
    104 -> 42 [penwidth=2]
    104 -> 72 [penwidth=2]
    153 -> 71 [penwidth=2]
    30 -> 86 [penwidth=2]
    30 -> 157 [penwidth=2]
    30 -> 44 [penwidth=2]
    30 -> 166 [penwidth=2]
    30 -> 40 [penwidth=2]
    30 -> 75 [penwidth=2]
    30 -> 172 [penwidth=2]
    30 -> 42 [penwidth=2]
    30 -> 159 [penwidth=2]
    30 -> 83 [penwidth=2]
    30 -> 165 [penwidth=2]
    30 -> 38 [penwidth=2]
    30 -> 61 [penwidth=2]
    30 -> 161 [penwidth=2]
    30 -> 52 [penwidth=2]
    30 -> 156 [penwidth=2]
    30 -> 59 [penwidth=2]
    30 -> 141 [penwidth=2]
    30 -> 88 [penwidth=2]
    30 -> 168 [penwidth=2]
    30 -> 65 [penwidth=2]
    30 -> 79 [penwidth=2]
    30 -> 46 [penwidth=2]
    30 -> 170 [penwidth=2]
    30 -> 54 [penwidth=2]
    30 -> 45 [penwidth=2]
    30 -> 62 [penwidth=2]
    30 -> 184 [penwidth=2]
    30 -> 136 [penwidth=2]
    30 -> 53 [penwidth=2]
    30 -> 71 [penwidth=2]
    30 -> 133 [penwidth=2]
    30 -> 74 [penwidth=2]
    30 -> 138 [penwidth=2]
    30 -> 63 [penwidth=2]
    30 -> 163 [penwidth=2]
    30 -> 41 [penwidth=2]
    30 -> 167 [penwidth=2]
    30 -> 58 [penwidth=2]
    30 -> 82 [penwidth=2]
    30 -> 48 [penwidth=2]
    30 -> 169 [penwidth=2]
    30 -> 80 [penwidth=2]
    30 -> 67 [penwidth=2]
    30 -> 39 [penwidth=2]
    30 -> 177 [penwidth=2]
    30 -> 180 [penwidth=2]
    30 -> 72 [penwidth=2]
    30 -> 178 [penwidth=2]
    34 -> 133 [penwidth=2]
    34 -> 134 [penwidth=2]
    34 -> 42 [penwidth=2]
    34 -> 81 [penwidth=2]
    34 -> 48 [penwidth=2]
    34 -> 87 [penwidth=2]
    34 -> 74 [penwidth=2]
    34 -> 49 [penwidth=2]
    34 -> 86 [penwidth=2]
    34 -> 69 [penwidth=2]
    34 -> 61 [penwidth=2]
    34 -> 172 [penwidth=2]
    34 -> 51 [penwidth=2]
    34 -> 83 [penwidth=2]
    34 -> 85 [penwidth=2]
    34 -> 160 [penwidth=2]
    34 -> 80 [penwidth=2]
    34 -> 158 [penwidth=2]
    34 -> 50 [penwidth=2]
    34 -> 88 [penwidth=2]
    34 -> 66 [penwidth=2]
    34 -> 156 [penwidth=2]
    34 -> 171 [penwidth=2]
}