digraph G {
    0 [penwidth=3,label="0"]
    1 [penwidth=3,label="1"]
    2 [penwidth=3,label="2"]
    3 [penwidth=3,label="3"]
    4 [penwidth=3,label="4"]
    5 [penwidth=3,label="5"]
    6 [penwidth=3,label="6"]
    7 [penwidth=3,label="7"]
    8 [penwidth=3,label="8"]
    9 [penwidth=3,label="9"]
    10 [penwidth=3,label="10"]
    11 [penwidth=3,label="11"]
    12 [penwidth=3,label="12"]
    13 [penwidth=3,label="13"]
    14 [penwidth=3,label="14"]
    15 [penwidth=3,label="15"]
    16 [penwidth=3,label="16"]
    17 [penwidth=3,label="17"]
    18 [penwidth=3,label="18"]
    19 [penwidth=3,label="19"]
    20 [penwidth=3,label="20"]
    21 [penwidth=3,label="21"]
    22 [penwidth=3,label="22"]
    23 [penwidth=3,label="23"]
    24 [penwidth=3,label="24"]
    25 [penwidth=3,label="25"]
    26 [penwidth=3,label="26"]
    27 [penwidth=3,label="27"]
    28 [penwidth=3,label="28"]
    29 [penwidth=3,label="29"]
    30 [penwidth=3,label="30"]
    31 [penwidth=3,label="31"]
    32 [penwidth=3,label="32"]
    33 [penwidth=3,label="33"]
    34 [penwidth=3,label="34"]
    35 [penwidth=3,label="35"]
    36 [penwidth=3,label="36"]
    37 [penwidth=3,label="37"]
    38 [penwidth=3,label="38"]
    39 [penwidth=3,label="39"]
    40 [penwidth=3,label="40"]
    41 [penwidth=3,label="41"]
    42 [penwidth=3,label="42"]
    43 [penwidth=3,label="43"]
    44 [penwidth=3,label="44"]
    45 [penwidth=3,label="45"]
    46 [penwidth=3,label="46"]
    47 [penwidth=3,label="47"]
    48 [penwidth=3,label="48"]
    49 [penwidth=3,label="49"]
    50 [penwidth=3,label="50"]
    51 [penwidth=3,label="51"]
    52 [penwidth=3,label="52"]
    53 [penwidth=3,label="53"]
    54 [penwidth=3,label="54"]
    55 [penwidth=3,label="55"]
    56 [penwidth=3,label="56"]
    57 [penwidth=3,label="57"]
    58 [penwidth=3,label="58"]
    59 [penwidth=3,label="59"]
    60 [penwidth=3,label="60"]
    61 [penwidth=3,label="61"]
    62 [penwidth=3,label="62"]
    63 [penwidth=3,label="63"]
    64 [penwidth=3,label="64"]
    65 [penwidth=3,label="65"]
    66 [penwidth=3,label="66"]
    67 [penwidth=3,label="67"]
    68 [penwidth=3,label="68"]
    69 [penwidth=3,label="69"]
    70 [penwidth=3,label="70"]
    71 [penwidth=3,label="71"]
    72 [penwidth=3,label="72"]
    73 [penwidth=3,label="73"]
    74 [penwidth=3,label="74"]
    75 [penwidth=3,label="75"]
    76 [penwidth=3,label="76"]
    77 [penwidth=3,label="77"]
    78 [penwidth=3,label="78"]
    79 [penwidth=3,label="79"]
    80 [penwidth=3,label="80"]
    81 [penwidth=3,label="81"]
    82 [penwidth=3,label="82"]
    83 [penwidth=3,label="83"]
    84 [penwidth=3,label="84"]
    85 [penwidth=3,label="85"]
    86 [penwidth=3,label="86"]
    87 [penwidth=3,label="87"]
    88 [penwidth=3,label="88"]
    89 [penwidth=3,label="89"]
    90 [penwidth=3,label="90"]
    91 [penwidth=3,label="91"]
    92 [penwidth=3,label="92"]
    93 [penwidth=3,label="93"]
    94 [penwidth=3,label="94"]
    95 [penwidth=3,label="95"]
    96 [penwidth=3,label="96"]
    97 [penwidth=3,label="97"]
    98 [penwidth=3,label="98"]
    99 [penwidth=3,label="99"]
    100 [penwidth=3,label="100"]
    101 [penwidth=3,label="101"]
    102 [penwidth=3,label="102"]
    103 [penwidth=3,label="103"]
    104 [penwidth=3,label="104"]
    105 [penwidth=3,label="105"]
    106 [penwidth=3,label="106"]
    107 [penwidth=3,label="107"]
    108 [penwidth=3,label="108"]
    109 [penwidth=3,label="109"]
    110 [penwidth=3,label="110"]
    111 [penwidth=3,label="111"]
    112 [penwidth=3,label="112"]
    113 [penwidth=3,label="113"]
    114 [penwidth=3,label="114"]
    115 [penwidth=3,label="115"]
    116 [penwidth=3,label="116"]
    117 [penwidth=3,label="117"]
    118 [penwidth=3,label="118"]
    119 [penwidth=3,label="119"]
    120 [penwidth=3,label="120"]
    121 [penwidth=3,label="121"]
    122 [penwidth=3,label="122"]
    123 [penwidth=3,label="123"]
    124 [penwidth=3,label="124"]
    125 [penwidth=3,label="125"]
    126 [penwidth=3,label="126"]
    127 [penwidth=3,label="127"]
    128 [penwidth=3,label="128"]
    129 [penwidth=3,label="129"]
    130 [penwidth=3,label="130"]
    131 [penwidth=3,label="131"]
    132 [penwidth=3,label="132"]
    133 [penwidth=3,label="133"]
    134 [penwidth=3,label="134"]
    135 [penwidth=3,label="135"]
    136 [penwidth=3,label="136"]
    137 [penwidth=3,label="137"]
    138 [penwidth=3,label="138"]
    139 [penwidth=3,label="139"]
    140 [penwidth=3,label="140"]
    141 [penwidth=3,label="141"]
    142 [penwidth=3,label="142"]
    143 [penwidth=3,label="143"]
    144 [penwidth=3,label="144"]
    145 [penwidth=3,label="145"]
    146 [penwidth=3,label="146"]
    147 [penwidth=3,label="147"]
    148 [penwidth=3,label="148"]
    149 [penwidth=3,label="149"]
    150 [penwidth=3,label="150"]
    151 [penwidth=3,label="151"]
    152 [penwidth=3,label="152"]
    153 [penwidth=3,label="153"]
    154 [penwidth=3,label="154"]
    155 [penwidth=3,label="155"]
    156 [penwidth=3,label="156"]
    157 [penwidth=3,label="157"]
    158 [penwidth=3,label="158"]
    159 [penwidth=3,label="159"]
    160 [penwidth=3,label="160"]
    161 [penwidth=3,label="161"]
    162 [penwidth=3,label="162"]
    163 [penwidth=3,label="163"]
    164 [penwidth=3,label="164"]
    165 [penwidth=3,label="165"]
    166 [penwidth=3,label="166"]
    167 [penwidth=3,label="167"]
    168 [penwidth=3,label="168"]
    169 [penwidth=3,label="169"]
    170 [penwidth=3,label="170"]
    171 [penwidth=3,label="171"]
    172 [penwidth=3,label="172"]
    173 [penwidth=3,label="173"]
    174 [penwidth=3,label="174"]
    175 [penwidth=3,label="175"]
    176 [penwidth=3,label="176"]
    177 [penwidth=3,label="177"]
    178 [penwidth=3,label="178"]
    179 [penwidth=3,label="179"]
    180 [penwidth=3,label="180"]
    181 [penwidth=3,label="181"]
    182 [penwidth=3,label="182"]
    183 [penwidth=3,label="183"]
    184 [penwidth=3,label="184"]
    185 [penwidth=3,label="185"]
    186 [penwidth=3,label="186"]
    187 [penwidth=3,label="187"]
    188 [penwidth=3,label="188"]
    189 [penwidth=3,label="189"]
    190 [penwidth=3,label="190"]
    191 [penwidth=3,label="191"]
    192 [penwidth=3,label="192"]
    193 [penwidth=3,label="193"]
    194 [penwidth=3,label="194"]
    195 [penwidth=3,label="195"]
    196 [penwidth=3,label="196"]
    197 [penwidth=3,label="197"]
    198 [penwidth=3,label="198"]
    199 [penwidth=3,label="199"]
    200 [penwidth=3,label="200"]
    201 [penwidth=3,label="201"]
    202 [penwidth=3,label="202"]
    203 [penwidth=3,label="203"]
    204 [penwidth=3,label="204"]

    7 -> 0 [penwidth=2]
    133 -> 0 [penwidth=2]
    175 -> 0 [penwidth=2]
    8 -> 7 [penwidth=2]
    134 -> 7 [penwidth=2]
    176 -> 7 [penwidth=2]
    9 -> 7 [penwidth=2]
    135 -> 7 [penwidth=2]
    177 -> 7 [penwidth=2]
    10 -> 7 [penwidth=2]
    136 -> 7 [penwidth=2]
    178 -> 7 [penwidth=2]
    11 -> 7 [penwidth=2]
    137 -> 7 [penwidth=2]
    179 -> 7 [penwidth=2]
    12 -> 7 [penwidth=2]
    138 -> 7 [penwidth=2]
    180 -> 7 [penwidth=2]
    13 -> 7 [penwidth=2]
    139 -> 133 [penwidth=2]
    181 -> 133 [penwidth=2]
    14 -> 133 [penwidth=2]
    140 -> 133 [penwidth=2]
    182 -> 133 [penwidth=2]
    15 -> 133 [penwidth=2]
    141 -> 133 [penwidth=2]
    183 -> 133 [penwidth=2]
    16 -> 133 [penwidth=2]
    142 -> 133 [penwidth=2]
    184 -> 133 [penwidth=2]
    17 -> 133 [penwidth=2]
    143 -> 175 [penwidth=2]
    185 -> 175 [penwidth=2]
    18 -> 175 [penwidth=2]
    144 -> 175 [penwidth=2]
    186 -> 175 [penwidth=2]
    19 -> 175 [penwidth=2]
    145 -> 175 [penwidth=2]
    187 -> 175 [penwidth=2]
    20 -> 175 [penwidth=2]
    146 -> 175 [penwidth=2]
    188 -> 175 [penwidth=2]
    21 -> 175 [penwidth=2]
    147 -> 175 [penwidth=2]
    189 -> 175 [penwidth=2]
    22 -> 175 [penwidth=2]
    148 -> 175 [penwidth=2]
    190 -> 175 [penwidth=2]
    23 -> 175 [penwidth=2]
    149 -> 175 [penwidth=2]
    191 -> 175 [penwidth=2]
    24 -> 175 [penwidth=2]
    150 -> 175 [penwidth=2]
    192 -> 175 [penwidth=2]
    25 -> 175 [penwidth=2]
    151 -> 175 [penwidth=2]
    193 -> 8 [penwidth=2]
    26 -> 8 [penwidth=2]
    152 -> 8 [penwidth=2]
    194 -> 8 [penwidth=2]
    27 -> 8 [penwidth=2]
    153 -> 8 [penwidth=2]
    195 -> 8 [penwidth=2]
    28 -> 8 [penwidth=2]
    154 -> 8 [penwidth=2]
    196 -> 8 [penwidth=2]
    29 -> 8 [penwidth=2]
    155 -> 8 [penwidth=2]
    197 -> 8 [penwidth=2]
    30 -> 8 [penwidth=2]
    156 -> 8 [penwidth=2]
    198 -> 8 [penwidth=2]
    31 -> 134 [penwidth=2]
    157 -> 134 [penwidth=2]
    199 -> 134 [penwidth=2]
    32 -> 134 [penwidth=2]
    158 -> 134 [penwidth=2]
    200 -> 134 [penwidth=2]
    33 -> 134 [penwidth=2]
    159 -> 134 [penwidth=2]
    201 -> 134 [penwidth=2]
    34 -> 134 [penwidth=2]
    160 -> 134 [penwidth=2]
    202 -> 134 [penwidth=2]
    35 -> 134 [penwidth=2]
    161 -> 134 [penwidth=2]
    203 -> 134 [penwidth=2]
    36 -> 134 [penwidth=2]
    162 -> 134 [penwidth=2]
    204 -> 176 [penwidth=2]
    37 -> 176 [penwidth=2]
    163 -> 176 [penwidth=2]
    38 -> 176 [penwidth=2]
    164 -> 9 [penwidth=2]
    39 -> 9 [penwidth=2]
    165 -> 9 [penwidth=2]
    40 -> 9 [penwidth=2]
    166 -> 9 [penwidth=2]
    41 -> 9 [penwidth=2]
    167 -> 9 [penwidth=2]
    132 -> 9 [penwidth=2]
    42 -> 9 [penwidth=2]
    168 -> 9 [penwidth=2]
    1 -> 9 [penwidth=2]
    43 -> 9 [penwidth=2]
    169 -> 9 [penwidth=2]
    2 -> 9 [penwidth=2]
    44 -> 9 [penwidth=2]
    170 -> 135 [penwidth=2]
    3 -> 135 [penwidth=2]
    45 -> 135 [penwidth=2]
    171 -> 135 [penwidth=2]
    4 -> 135 [penwidth=2]
    46 -> 135 [penwidth=2]
    172 -> 135 [penwidth=2]
    5 -> 135 [penwidth=2]
    47 -> 135 [penwidth=2]
    173 -> 135 [penwidth=2]
    48 -> 135 [penwidth=2]
    6 -> 135 [penwidth=2]
    174 -> 135 [penwidth=2]
    49 -> 135 [penwidth=2]
    91 -> 135 [penwidth=2]
    50 -> 135 [penwidth=2]
    92 -> 135 [penwidth=2]
    51 -> 135 [penwidth=2]
    93 -> 135 [penwidth=2]
    52 -> 177 [penwidth=2]
    94 -> 177 [penwidth=2]
    53 -> 177 [penwidth=2]
    95 -> 177 [penwidth=2]
    54 -> 177 [penwidth=2]
    96 -> 177 [penwidth=2]
    55 -> 177 [penwidth=2]
    97 -> 177 [penwidth=2]
    56 -> 177 [penwidth=2]
    98 -> 177 [penwidth=2]
    57 -> 177 [penwidth=2]
    99 -> 177 [penwidth=2]
    58 -> 177 [penwidth=2]
    100 -> 177 [penwidth=2]
    59 -> 177 [penwidth=2]
    101 -> 177 [penwidth=2]
    60 -> 10 [penwidth=2]
    102 -> 136 [penwidth=2]
    61 -> 136 [penwidth=2]
    103 -> 136 [penwidth=2]
    62 -> 136 [penwidth=2]
    104 -> 136 [penwidth=2]
    63 -> 136 [penwidth=2]
    105 -> 136 [penwidth=2]
    64 -> 136 [penwidth=2]
    106 -> 136 [penwidth=2]
    65 -> 136 [penwidth=2]
    107 -> 136 [penwidth=2]
    66 -> 136 [penwidth=2]
    108 -> 136 [penwidth=2]
    67 -> 136 [penwidth=2]
    109 -> 136 [penwidth=2]
    68 -> 136 [penwidth=2]
    110 -> 136 [penwidth=2]
    69 -> 178 [penwidth=2]
    111 -> 178 [penwidth=2]
    70 -> 178 [penwidth=2]
    112 -> 178 [penwidth=2]
    71 -> 178 [penwidth=2]
    113 -> 178 [penwidth=2]
    72 -> 178 [penwidth=2]
    114 -> 178 [penwidth=2]
    73 -> 178 [penwidth=2]
    115 -> 178 [penwidth=2]
    74 -> 178 [penwidth=2]
    116 -> 178 [penwidth=2]
    75 -> 178 [penwidth=2]
    117 -> 178 [penwidth=2]
    76 -> 178 [penwidth=2]
    118 -> 178 [penwidth=2]
    77 -> 178 [penwidth=2]
    119 -> 178 [penwidth=2]
    78 -> 11 [penwidth=2]
    120 -> 11 [penwidth=2]
    79 -> 11 [penwidth=2]
    121 -> 11 [penwidth=2]
    80 -> 11 [penwidth=2]
    122 -> 11 [penwidth=2]
    81 -> 11 [penwidth=2]
    123 -> 11 [penwidth=2]
    82 -> 11 [penwidth=2]
    124 -> 11 [penwidth=2]
    83 -> 11 [penwidth=2]
    125 -> 11 [penwidth=2]
    84 -> 11 [penwidth=2]
    126 -> 11 [penwidth=2]
    85 -> 11 [penwidth=2]
    127 -> 11 [penwidth=2]
    86 -> 11 [penwidth=2]
    128 -> 11 [penwidth=2]
    87 -> 11 [penwidth=2]
    129 -> 11 [penwidth=2]
    88 -> 11 [penwidth=2]
    130 -> 11 [penwidth=2]
    89 -> 11 [penwidth=2]
    131 -> 11 [penwidth=2]
    90 -> 11 [penwidth=2]
    177 -> 133 [penwidth=2]
    143 -> 7 [penwidth=2]
    185 -> 133 [penwidth=2]
    149 -> 7 [penwidth=2]
    150 -> 133 [penwidth=2]
    193 -> 176 [penwidth=2]
    193 -> 12 [penwidth=2]
    193 -> 20 [penwidth=2]
    193 -> 17 [penwidth=2]
    193 -> 151 [penwidth=2]
    193 -> 177 [penwidth=2]
    193 -> 24 [penwidth=2]
    193 -> 186 [penwidth=2]
    193 -> 184 [penwidth=2]
    193 -> 183 [penwidth=2]
    193 -> 185 [penwidth=2]
    193 -> 146 [penwidth=2]
    193 -> 137 [penwidth=2]
    193 -> 136 [penwidth=2]
    193 -> 150 [penwidth=2]
    193 -> 142 [penwidth=2]
    193 -> 143 [penwidth=2]
    193 -> 181 [penwidth=2]
    193 -> 15 [penwidth=2]
    193 -> 16 [penwidth=2]
    193 -> 10 [penwidth=2]
    193 -> 9 [penwidth=2]
    193 -> 190 [penwidth=2]
    193 -> 145 [penwidth=2]
    193 -> 180 [penwidth=2]
    193 -> 179 [penwidth=2]
    193 -> 11 [penwidth=2]
    193 -> 19 [penwidth=2]
    193 -> 18 [penwidth=2]
    193 -> 140 [penwidth=2]
    193 -> 25 [penwidth=2]
    193 -> 23 [penwidth=2]
    193 -> 178 [penwidth=2]
    193 -> 135 [penwidth=2]
    193 -> 189 [penwidth=2]
    193 -> 188 [penwidth=2]
    193 -> 141 [penwidth=2]
    193 -> 139 [penwidth=2]
    193 -> 21 [penwidth=2]
    132 -> 186 [penwidth=2]
    132 -> 25 [penwidth=2]
    132 -> 146 [penwidth=2]
    132 -> 19 [penwidth=2]
    132 -> 13 [penwidth=2]
    132 -> 14 [penwidth=2]
    132 -> 10 [penwidth=2]
    132 -> 191 [penwidth=2]
    132 -> 139 [penwidth=2]
    132 -> 23 [penwidth=2]
    132 -> 141 [penwidth=2]
    132 -> 16 [penwidth=2]
    132 -> 143 [penwidth=2]
    132 -> 147 [penwidth=2]
    132 -> 150 [penwidth=2]
    132 -> 181 [penwidth=2]
    168 -> 134 [penwidth=2]
    168 -> 183 [penwidth=2]
    168 -> 148 [penwidth=2]
    168 -> 19 [penwidth=2]
    168 -> 150 [penwidth=2]
    168 -> 149 [penwidth=2]
    168 -> 191 [penwidth=2]
    168 -> 176 [penwidth=2]
    168 -> 146 [penwidth=2]
    168 -> 184 [penwidth=2]
    168 -> 147 [penwidth=2]
    168 -> 185 [penwidth=2]
    168 -> 145 [penwidth=2]
    168 -> 13 [penwidth=2]
    168 -> 140 [penwidth=2]
    168 -> 179 [penwidth=2]
    168 -> 12 [penwidth=2]
    168 -> 177 [penwidth=2]
    168 -> 180 [penwidth=2]
    168 -> 22 [penwidth=2]
    168 -> 15 [penwidth=2]
    168 -> 142 [penwidth=2]
    168 -> 10 [penwidth=2]
    168 -> 187 [penwidth=2]
    168 -> 151 [penwidth=2]
    168 -> 21 [penwidth=2]
    168 -> 8 [penwidth=2]
    168 -> 24 [penwidth=2]
    168 -> 16 [penwidth=2]
    168 -> 141 [penwidth=2]
    168 -> 139 [penwidth=2]
    168 -> 186 [penwidth=2]
    168 -> 188 [penwidth=2]
    168 -> 137 [penwidth=2]
    168 -> 136 [penwidth=2]
    168 -> 182 [penwidth=2]
    168 -> 190 [penwidth=2]
    168 -> 20 [penwidth=2]
    168 -> 11 [penwidth=2]
    168 -> 14 [penwidth=2]
    168 -> 138 [penwidth=2]
    168 -> 135 [penwidth=2]
    168 -> 25 [penwidth=2]
    168 -> 143 [penwidth=2]
    168 -> 178 [penwidth=2]
    168 -> 189 [penwidth=2]
    168 -> 17 [penwidth=2]
    168 -> 23 [penwidth=2]
    168 -> 192 [penwidth=2]
    1 -> 24 [penwidth=2]
    1 -> 192 [penwidth=2]
    1 -> 18 [penwidth=2]
    1 -> 141 [penwidth=2]
    1 -> 22 [penwidth=2]
    1 -> 14 [penwidth=2]
    1 -> 134 [penwidth=2]
    1 -> 23 [penwidth=2]
    1 -> 8 [penwidth=2]
    1 -> 136 [penwidth=2]
    1 -> 191 [penwidth=2]
    1 -> 179 [penwidth=2]
    1 -> 11 [penwidth=2]
    1 -> 143 [penwidth=2]
    1 -> 25 [penwidth=2]
    1 -> 10 [penwidth=2]
    1 -> 21 [penwidth=2]
    1 -> 147 [penwidth=2]
    1 -> 181 [penwidth=2]
    1 -> 142 [penwidth=2]
    1 -> 149 [penwidth=2]
    169 -> 180 [penwidth=2]
    169 -> 176 [penwidth=2]
    169 -> 192 [penwidth=2]
    169 -> 179 [penwidth=2]
    169 -> 16 [penwidth=2]
    169 -> 20 [penwidth=2]
    169 -> 139 [penwidth=2]
    169 -> 186 [penwidth=2]
    169 -> 137 [penwidth=2]
    169 -> 19 [penwidth=2]
    169 -> 134 [penwidth=2]
    169 -> 182 [penwidth=2]
    169 -> 12 [penwidth=2]
    169 -> 23 [penwidth=2]
    169 -> 22 [penwidth=2]
    169 -> 136 [penwidth=2]
    169 -> 24 [penwidth=2]
    169 -> 18 [penwidth=2]
    169 -> 150 [penwidth=2]
    169 -> 138 [penwidth=2]
    44 -> 8 [penwidth=2]
    44 -> 145 [penwidth=2]
    44 -> 176 [penwidth=2]
    44 -> 183 [penwidth=2]
    44 -> 14 [penwidth=2]
    44 -> 13 [penwidth=2]
    44 -> 151 [penwidth=2]
    44 -> 188 [penwidth=2]
    44 -> 25 [penwidth=2]
    44 -> 149 [penwidth=2]
    44 -> 15 [penwidth=2]
    44 -> 178 [penwidth=2]
    44 -> 189 [penwidth=2]
    44 -> 181 [penwidth=2]
    44 -> 192 [penwidth=2]
    44 -> 21 [penwidth=2]
    44 -> 134 [penwidth=2]
    44 -> 180 [penwidth=2]
    44 -> 136 [penwidth=2]
    44 -> 20 [penwidth=2]
    44 -> 16 [penwidth=2]
    44 -> 139 [penwidth=2]
    44 -> 144 [penwidth=2]
    44 -> 186 [penwidth=2]
    44 -> 12 [penwidth=2]
    3 -> 13 [penwidth=2]
    51 -> 146 [penwidth=2]
    51 -> 144 [penwidth=2]
    51 -> 148 [penwidth=2]
    51 -> 181 [penwidth=2]
    51 -> 185 [penwidth=2]
    51 -> 13 [penwidth=2]
    51 -> 189 [penwidth=2]
    51 -> 12 [penwidth=2]
    51 -> 150 [penwidth=2]
    51 -> 139 [penwidth=2]
    51 -> 143 [penwidth=2]
    51 -> 17 [penwidth=2]
    51 -> 182 [penwidth=2]
    51 -> 188 [penwidth=2]
    51 -> 134 [penwidth=2]
    51 -> 191 [penwidth=2]
    51 -> 10 [penwidth=2]
    51 -> 179 [penwidth=2]
    51 -> 142 [penwidth=2]
    51 -> 23 [penwidth=2]
    51 -> 22 [penwidth=2]
    51 -> 176 [penwidth=2]
    51 -> 24 [penwidth=2]
    51 -> 18 [penwidth=2]
    51 -> 184 [penwidth=2]
    51 -> 183 [penwidth=2]
    51 -> 11 [penwidth=2]
    51 -> 178 [penwidth=2]
    51 -> 137 [penwidth=2]
    51 -> 180 [penwidth=2]
    51 -> 9 [penwidth=2]
    51 -> 138 [penwidth=2]
    51 -> 21 [penwidth=2]
    51 -> 151 [penwidth=2]
    51 -> 192 [penwidth=2]
    51 -> 16 [penwidth=2]
    51 -> 177 [penwidth=2]
    51 -> 140 [penwidth=2]
    51 -> 25 [penwidth=2]
    51 -> 14 [penwidth=2]
    51 -> 186 [penwidth=2]
    51 -> 149 [penwidth=2]
    51 -> 136 [penwidth=2]
    51 -> 8 [penwidth=2]
    58 -> 17 [penwidth=2]
    58 -> 147 [penwidth=2]
    58 -> 134 [penwidth=2]
    58 -> 189 [penwidth=2]
    58 -> 150 [penwidth=2]
    58 -> 178 [penwidth=2]
    58 -> 141 [penwidth=2]
    58 -> 176 [penwidth=2]
    58 -> 188 [penwidth=2]
    58 -> 148 [penwidth=2]
    58 -> 151 [penwidth=2]
    58 -> 15 [penwidth=2]
    58 -> 13 [penwidth=2]
    58 -> 144 [penwidth=2]
    58 -> 8 [penwidth=2]
    58 -> 180 [penwidth=2]
    58 -> 16 [penwidth=2]
    58 -> 181 [penwidth=2]
    58 -> 136 [penwidth=2]
    63 -> 15 [penwidth=2]
    63 -> 14 [penwidth=2]
    63 -> 176 [penwidth=2]
    63 -> 137 [penwidth=2]
    63 -> 148 [penwidth=2]
    63 -> 145 [penwidth=2]
    63 -> 185 [penwidth=2]
    63 -> 149 [penwidth=2]
    63 -> 18 [penwidth=2]
    63 -> 21 [penwidth=2]
    63 -> 188 [penwidth=2]
    63 -> 181 [penwidth=2]
    63 -> 13 [penwidth=2]
    63 -> 11 [penwidth=2]
    63 -> 183 [penwidth=2]
    63 -> 192 [penwidth=2]
    63 -> 135 [penwidth=2]
    63 -> 140 [penwidth=2]
    63 -> 144 [penwidth=2]
    63 -> 25 [penwidth=2]
    63 -> 143 [penwidth=2]
    63 -> 22 [penwidth=2]
    63 -> 10 [penwidth=2]
    63 -> 8 [penwidth=2]
    63 -> 16 [penwidth=2]
    63 -> 147 [penwidth=2]
    63 -> 151 [penwidth=2]
    63 -> 187 [penwidth=2]
    63 -> 17 [penwidth=2]
    63 -> 178 [penwidth=2]
    63 -> 23 [penwidth=2]
    63 -> 190 [penwidth=2]
    63 -> 180 [penwidth=2]
    67 -> 16 [penwidth=2]
    67 -> 140 [penwidth=2]
    67 -> 183 [penwidth=2]
    67 -> 150 [penwidth=2]
    67 -> 14 [penwidth=2]
    67 -> 143 [penwidth=2]
    67 -> 137 [penwidth=2]
    67 -> 191 [penwidth=2]
    67 -> 149 [penwidth=2]
    67 -> 188 [penwidth=2]
    67 -> 147 [penwidth=2]
    67 -> 144 [penwidth=2]
    67 -> 10 [penwidth=2]
    67 -> 179 [penwidth=2]
    67 -> 9 [penwidth=2]
    67 -> 189 [penwidth=2]
    67 -> 21 [penwidth=2]
    67 -> 184 [penwidth=2]
    67 -> 151 [penwidth=2]
    67 -> 192 [penwidth=2]
    67 -> 12 [penwidth=2]
    67 -> 138 [penwidth=2]
    67 -> 148 [penwidth=2]
    67 -> 134 [penwidth=2]
    67 -> 182 [penwidth=2]
    67 -> 146 [penwidth=2]
    67 -> 185 [penwidth=2]
    67 -> 8 [penwidth=2]
    67 -> 17 [penwidth=2]
    67 -> 139 [penwidth=2]
    67 -> 181 [penwidth=2]
    67 -> 177 [penwidth=2]
    67 -> 18 [penwidth=2]
    67 -> 24 [penwidth=2]
    112 -> 186 [penwidth=2]
    112 -> 143 [penwidth=2]
    112 -> 136 [penwidth=2]
    112 -> 15 [penwidth=2]
    112 -> 18 [penwidth=2]
    112 -> 135 [penwidth=2]
    112 -> 187 [penwidth=2]
    112 -> 148 [penwidth=2]
    112 -> 185 [penwidth=2]
    112 -> 176 [penwidth=2]
    112 -> 12 [penwidth=2]
    112 -> 149 [penwidth=2]
    112 -> 150 [penwidth=2]
    74 -> 134 [penwidth=2]
    74 -> 187 [penwidth=2]
    74 -> 14 [penwidth=2]
    74 -> 19 [penwidth=2]
    74 -> 24 [penwidth=2]
    74 -> 16 [penwidth=2]
    74 -> 135 [penwidth=2]
    74 -> 148 [penwidth=2]
    74 -> 177 [penwidth=2]
    74 -> 182 [penwidth=2]
    74 -> 192 [penwidth=2]
    74 -> 140 [penwidth=2]
    74 -> 190 [penwidth=2]
    74 -> 188 [penwidth=2]
    117 -> 16 [penwidth=2]
    117 -> 141 [penwidth=2]
    117 -> 191 [penwidth=2]
    117 -> 142 [penwidth=2]
    117 -> 17 [penwidth=2]
    117 -> 144 [penwidth=2]
    117 -> 188 [penwidth=2]
    117 -> 149 [penwidth=2]
    117 -> 21 [penwidth=2]
    117 -> 22 [penwidth=2]
    117 -> 134 [penwidth=2]
    117 -> 179 [penwidth=2]
    117 -> 150 [penwidth=2]
    117 -> 18 [penwidth=2]
    117 -> 183 [penwidth=2]
    117 -> 187 [penwidth=2]
    117 -> 186 [penwidth=2]
    117 -> 182 [penwidth=2]
    117 -> 24 [penwidth=2]
    117 -> 151 [penwidth=2]
    117 -> 12 [penwidth=2]
    117 -> 180 [penwidth=2]
    117 -> 9 [penwidth=2]
    117 -> 181 [penwidth=2]
    117 -> 192 [penwidth=2]
    117 -> 20 [penwidth=2]
    117 -> 143 [penwidth=2]
    117 -> 15 [penwidth=2]
    117 -> 19 [penwidth=2]
    117 -> 11 [penwidth=2]
    117 -> 190 [penwidth=2]
    117 -> 14 [penwidth=2]
    117 -> 176 [penwidth=2]
    117 -> 136 [penwidth=2]
    117 -> 177 [penwidth=2]
    117 -> 8 [penwidth=2]
    117 -> 184 [penwidth=2]
    117 -> 135 [penwidth=2]
    117 -> 10 [penwidth=2]
    117 -> 148 [penwidth=2]
    117 -> 139 [penwidth=2]
    117 -> 137 [penwidth=2]
    117 -> 185 [penwidth=2]
    117 -> 147 [penwidth=2]
    117 -> 145 [penwidth=2]
    119 -> 24 [penwidth=2]
    119 -> 177 [penwidth=2]
    119 -> 9 [penwidth=2]
    119 -> 13 [penwidth=2]
    119 -> 23 [penwidth=2]
    119 -> 148 [penwidth=2]
    119 -> 141 [penwidth=2]
    119 -> 184 [penwidth=2]
    119 -> 189 [penwidth=2]
    119 -> 137 [penwidth=2]
    119 -> 22 [penwidth=2]
    119 -> 146 [penwidth=2]
    119 -> 185 [penwidth=2]
    119 -> 149 [penwidth=2]
    119 -> 147 [penwidth=2]
    78 -> 135 [penwidth=2]
    78 -> 25 [penwidth=2]
    78 -> 151 [penwidth=2]
    78 -> 134 [penwidth=2]
    78 -> 179 [penwidth=2]
    78 -> 136 [penwidth=2]
    78 -> 185 [penwidth=2]
    78 -> 146 [penwidth=2]
    78 -> 137 [penwidth=2]
    78 -> 186 [penwidth=2]
    78 -> 15 [penwidth=2]
    78 -> 150 [penwidth=2]
    78 -> 17 [penwidth=2]
    78 -> 147 [penwidth=2]
    78 -> 148 [penwidth=2]
    78 -> 191 [penwidth=2]
    78 -> 139 [penwidth=2]
    78 -> 144 [penwidth=2]
    78 -> 21 [penwidth=2]
    78 -> 177 [penwidth=2]
    78 -> 12 [penwidth=2]
    78 -> 13 [penwidth=2]
    78 -> 188 [penwidth=2]
    78 -> 190 [penwidth=2]
    78 -> 14 [penwidth=2]
    78 -> 138 [penwidth=2]
    78 -> 9 [penwidth=2]
    78 -> 18 [penwidth=2]
    78 -> 176 [penwidth=2]
    78 -> 182 [penwidth=2]
    78 -> 184 [penwidth=2]
    78 -> 178 [penwidth=2]
    78 -> 140 [penwidth=2]
    78 -> 142 [penwidth=2]
    78 -> 141 [penwidth=2]
    78 -> 192 [penwidth=2]
    78 -> 23 [penwidth=2]
    78 -> 149 [penwidth=2]
    78 -> 24 [penwidth=2]
    78 -> 183 [penwidth=2]
    78 -> 181 [penwidth=2]
    78 -> 143 [penwidth=2]
    78 -> 20 [penwidth=2]
    121 -> 148 [penwidth=2]
    121 -> 142 [penwidth=2]
    121 -> 139 [penwidth=2]
    121 -> 10 [penwidth=2]
    121 -> 179 [penwidth=2]
    121 -> 144 [penwidth=2]
    121 -> 151 [penwidth=2]
    121 -> 135 [penwidth=2]
    121 -> 150 [penwidth=2]
    121 -> 182 [penwidth=2]
    121 -> 188 [penwidth=2]
    121 -> 23 [penwidth=2]
    121 -> 146 [penwidth=2]
    121 -> 177 [penwidth=2]
    121 -> 20 [penwidth=2]
    121 -> 137 [penwidth=2]
    121 -> 24 [penwidth=2]
    121 -> 186 [penwidth=2]
    121 -> 14 [penwidth=2]
    121 -> 16 [penwidth=2]
    121 -> 136 [penwidth=2]
    121 -> 145 [penwidth=2]
    121 -> 18 [penwidth=2]
    121 -> 185 [penwidth=2]
    121 -> 191 [penwidth=2]
    121 -> 192 [penwidth=2]
    121 -> 141 [penwidth=2]
    121 -> 25 [penwidth=2]
    121 -> 134 [penwidth=2]
    121 -> 147 [penwidth=2]
    121 -> 181 [penwidth=2]
    121 -> 9 [penwidth=2]
    121 -> 19 [penwidth=2]
    121 -> 176 [penwidth=2]
    121 -> 15 [penwidth=2]
    121 -> 13 [penwidth=2]
    83 -> 140 [penwidth=2]
    83 -> 148 [penwidth=2]
    83 -> 137 [penwidth=2]
    83 -> 23 [penwidth=2]
    83 -> 25 [penwidth=2]
    83 -> 18 [penwidth=2]
    83 -> 190 [penwidth=2]
    83 -> 9 [penwidth=2]
    83 -> 179 [penwidth=2]
    83 -> 21 [penwidth=2]
    83 -> 184 [penwidth=2]
    83 -> 141 [penwidth=2]
    83 -> 178 [penwidth=2]
    83 -> 182 [penwidth=2]
    83 -> 192 [penwidth=2]
    83 -> 176 [penwidth=2]
    83 -> 136 [penwidth=2]
    83 -> 20 [penwidth=2]
    83 -> 149 [penwidth=2]
    83 -> 143 [penwidth=2]
    83 -> 145 [penwidth=2]
    83 -> 189 [penwidth=2]
    83 -> 16 [penwidth=2]
    83 -> 187 [penwidth=2]
    83 -> 180 [penwidth=2]
    83 -> 147 [penwidth=2]
    83 -> 12 [penwidth=2]
    83 -> 24 [penwidth=2]
    83 -> 22 [penwidth=2]
    83 -> 150 [penwidth=2]
    83 -> 17 [penwidth=2]
    83 -> 183 [penwidth=2]
    83 -> 134 [penwidth=2]
    83 -> 14 [penwidth=2]
    83 -> 186 [penwidth=2]
    88 -> 135 [penwidth=2]
}