digraph G {
    0 [penwidth=3,label="0"]
    1 [penwidth=3,label="1"]
    2 [penwidth=3,label="2"]
    3 [penwidth=3,label="3"]
    4 [penwidth=3,label="4"]
    5 [penwidth=3,label="5"]
    6 [penwidth=3,label="6"]
    7 [penwidth=3,label="7"]
    8 [penwidth=3,label="8"]
    9 [penwidth=3,label="9"]
    10 [penwidth=3,label="10"]
    11 [penwidth=3,label="11"]
    12 [penwidth=3,label="12"]
    13 [penwidth=3,label="13"]
    14 [penwidth=3,label="14"]
    15 [penwidth=3,label="15"]
    16 [penwidth=3,label="16"]
    17 [penwidth=3,label="17"]
    18 [penwidth=3,label="18"]
    19 [penwidth=3,label="19"]
    20 [penwidth=3,label="20"]
    21 [penwidth=3,label="21"]
    22 [penwidth=3,label="22"]
    23 [penwidth=3,label="23"]
    24 [penwidth=3,label="24"]
    25 [penwidth=3,label="25"]
    26 [penwidth=3,label="26"]
    27 [penwidth=3,label="27"]
    28 [penwidth=3,label="28"]
    29 [penwidth=3,label="29"]
    30 [penwidth=3,label="30"]
    31 [penwidth=3,label="31"]
    32 [penwidth=3,label="32"]
    33 [penwidth=3,label="33"]
    34 [penwidth=3,label="34"]
    35 [penwidth=3,label="35"]
    36 [penwidth=3,label="36"]
    37 [penwidth=3,label="37"]
    38 [penwidth=3,label="38"]
    39 [penwidth=3,label="39"]
    40 [penwidth=3,label="40"]
    41 [penwidth=3,label="41"]
    42 [penwidth=3,label="42"]
    43 [penwidth=3,label="43"]
    44 [penwidth=3,label="44"]
    45 [penwidth=3,label="45"]
    46 [penwidth=3,label="46"]
    47 [penwidth=3,label="47"]
    48 [penwidth=3,label="48"]
    49 [penwidth=3,label="49"]
    50 [penwidth=3,label="50"]
    51 [penwidth=3,label="51"]
    52 [penwidth=3,label="52"]
    53 [penwidth=3,label="53"]
    54 [penwidth=3,label="54"]
    55 [penwidth=3,label="55"]
    56 [penwidth=3,label="56"]
    57 [penwidth=3,label="57"]
    58 [penwidth=3,label="58"]
    59 [penwidth=3,label="59"]
    60 [penwidth=3,label="60"]
    61 [penwidth=3,label="61"]
    62 [penwidth=3,label="62"]
    63 [penwidth=3,label="63"]
    64 [penwidth=3,label="64"]
    65 [penwidth=3,label="65"]
    66 [penwidth=3,label="66"]
    67 [penwidth=3,label="67"]
    68 [penwidth=3,label="68"]
    69 [penwidth=3,label="69"]
    70 [penwidth=3,label="70"]
    71 [penwidth=3,label="71"]
    72 [penwidth=3,label="72"]
    73 [penwidth=3,label="73"]
    74 [penwidth=3,label="74"]
    75 [penwidth=3,label="75"]
    76 [penwidth=3,label="76"]
    77 [penwidth=3,label="77"]
    78 [penwidth=3,label="78"]
    79 [penwidth=3,label="79"]
    80 [penwidth=3,label="80"]
    81 [penwidth=3,label="81"]
    82 [penwidth=3,label="82"]
    83 [penwidth=3,label="83"]
    84 [penwidth=3,label="84"]
    85 [penwidth=3,label="85"]
    86 [penwidth=3,label="86"]
    87 [penwidth=3,label="87"]
    88 [penwidth=3,label="88"]
    89 [penwidth=3,label="89"]
    90 [penwidth=3,label="90"]
    91 [penwidth=3,label="91"]
    92 [penwidth=3,label="92"]
    93 [penwidth=3,label="93"]
    94 [penwidth=3,label="94"]
    95 [penwidth=3,label="95"]
    96 [penwidth=3,label="96"]
    97 [penwidth=3,label="97"]
    98 [penwidth=3,label="98"]
    99 [penwidth=3,label="99"]
    100 [penwidth=3,label="100"]
    101 [penwidth=3,label="101"]
    102 [penwidth=3,label="102"]
    103 [penwidth=3,label="103"]
    104 [penwidth=3,label="104"]
    105 [penwidth=3,label="105"]
    106 [penwidth=3,label="106"]
    107 [penwidth=3,label="107"]
    108 [penwidth=3,label="108"]
    109 [penwidth=3,label="109"]
    110 [penwidth=3,label="110"]
    111 [penwidth=3,label="111"]
    112 [penwidth=3,label="112"]
    113 [penwidth=3,label="113"]
    114 [penwidth=3,label="114"]
    115 [penwidth=3,label="115"]
    116 [penwidth=3,label="116"]
    117 [penwidth=3,label="117"]
    118 [penwidth=3,label="118"]
    119 [penwidth=3,label="119"]
    120 [penwidth=3,label="120"]
    121 [penwidth=3,label="121"]
    122 [penwidth=3,label="122"]
    123 [penwidth=3,label="123"]
    124 [penwidth=3,label="124"]
    125 [penwidth=3,label="125"]
    126 [penwidth=3,label="126"]
    127 [penwidth=3,label="127"]
    128 [penwidth=3,label="128"]
    129 [penwidth=3,label="129"]
    130 [penwidth=3,label="130"]
    131 [penwidth=3,label="131"]
    132 [penwidth=3,label="132"]
    133 [penwidth=3,label="133"]
    134 [penwidth=3,label="134"]
    135 [penwidth=3,label="135"]
    136 [penwidth=3,label="136"]
    137 [penwidth=3,label="137"]
    138 [penwidth=3,label="138"]
    139 [penwidth=3,label="139"]
    140 [penwidth=3,label="140"]
    141 [penwidth=3,label="141"]
    142 [penwidth=3,label="142"]
    143 [penwidth=3,label="143"]
    144 [penwidth=3,label="144"]
    145 [penwidth=3,label="145"]
    146 [penwidth=3,label="146"]
    147 [penwidth=3,label="147"]
    148 [penwidth=3,label="148"]
    149 [penwidth=3,label="149"]
    150 [penwidth=3,label="150"]
    151 [penwidth=3,label="151"]
    152 [penwidth=3,label="152"]
    153 [penwidth=3,label="153"]
    154 [penwidth=3,label="154"]
    155 [penwidth=3,label="155"]
    156 [penwidth=3,label="156"]
    157 [penwidth=3,label="157"]
    158 [penwidth=3,label="158"]
    159 [penwidth=3,label="159"]
    160 [penwidth=3,label="160"]
    161 [penwidth=3,label="161"]
    162 [penwidth=3,label="162"]
    163 [penwidth=3,label="163"]
    164 [penwidth=3,label="164"]
    165 [penwidth=3,label="165"]
    166 [penwidth=3,label="166"]
    167 [penwidth=3,label="167"]
    168 [penwidth=3,label="168"]
    169 [penwidth=3,label="169"]
    170 [penwidth=3,label="170"]
    171 [penwidth=3,label="171"]
    172 [penwidth=3,label="172"]
    173 [penwidth=3,label="173"]
    174 [penwidth=3,label="174"]
    175 [penwidth=3,label="175"]
    176 [penwidth=3,label="176"]
    177 [penwidth=3,label="177"]
    178 [penwidth=3,label="178"]
    179 [penwidth=3,label="179"]
    180 [penwidth=3,label="180"]
    181 [penwidth=3,label="181"]
    182 [penwidth=3,label="182"]
    183 [penwidth=3,label="183"]
    184 [penwidth=3,label="184"]
    185 [penwidth=3,label="185"]
    186 [penwidth=3,label="186"]
    187 [penwidth=3,label="187"]
    188 [penwidth=3,label="188"]
    189 [penwidth=3,label="189"]
    190 [penwidth=3,label="190"]
    191 [penwidth=3,label="191"]
    192 [penwidth=3,label="192"]
    193 [penwidth=3,label="193"]
    194 [penwidth=3,label="194"]
    195 [penwidth=3,label="195"]
    196 [penwidth=3,label="196"]
    197 [penwidth=3,label="197"]
    198 [penwidth=3,label="198"]
    199 [penwidth=3,label="199"]
    200 [penwidth=3,label="200"]
    201 [penwidth=3,label="201"]
    202 [penwidth=3,label="202"]
    203 [penwidth=3,label="203"]
    204 [penwidth=3,label="204"]

    136 -> 0 [penwidth=2]
    178 -> 0 [penwidth=2]
    137 -> 0 [penwidth=2]
    179 -> 0 [penwidth=2]
    138 -> 136 [penwidth=2]
    180 -> 178 [penwidth=2]
    139 -> 178 [penwidth=2]
    181 -> 178 [penwidth=2]
    140 -> 178 [penwidth=2]
    182 -> 178 [penwidth=2]
    141 -> 178 [penwidth=2]
    183 -> 178 [penwidth=2]
    142 -> 178 [penwidth=2]
    184 -> 178 [penwidth=2]
    143 -> 137 [penwidth=2]
    185 -> 137 [penwidth=2]
    144 -> 137 [penwidth=2]
    186 -> 137 [penwidth=2]
    145 -> 137 [penwidth=2]
    187 -> 137 [penwidth=2]
    146 -> 137 [penwidth=2]
    188 -> 137 [penwidth=2]
    147 -> 137 [penwidth=2]
    189 -> 137 [penwidth=2]
    148 -> 137 [penwidth=2]
    190 -> 137 [penwidth=2]
    149 -> 137 [penwidth=2]
    191 -> 137 [penwidth=2]
    150 -> 137 [penwidth=2]
    192 -> 137 [penwidth=2]
    151 -> 137 [penwidth=2]
    193 -> 137 [penwidth=2]
    152 -> 137 [penwidth=2]
    194 -> 179 [penwidth=2]
    153 -> 179 [penwidth=2]
    195 -> 179 [penwidth=2]
    154 -> 179 [penwidth=2]
    196 -> 179 [penwidth=2]
    155 -> 179 [penwidth=2]
    197 -> 179 [penwidth=2]
    156 -> 179 [penwidth=2]
    198 -> 179 [penwidth=2]
    157 -> 179 [penwidth=2]
    199 -> 179 [penwidth=2]
    158 -> 179 [penwidth=2]
    200 -> 179 [penwidth=2]
    159 -> 179 [penwidth=2]
    201 -> 179 [penwidth=2]
    160 -> 138 [penwidth=2]
    202 -> 138 [penwidth=2]
    161 -> 138 [penwidth=2]
    203 -> 138 [penwidth=2]
    162 -> 138 [penwidth=2]
    204 -> 138 [penwidth=2]
    163 -> 138 [penwidth=2]
    164 -> 138 [penwidth=2]
    165 -> 138 [penwidth=2]
    166 -> 138 [penwidth=2]
    167 -> 138 [penwidth=2]
    168 -> 138 [penwidth=2]
    169 -> 138 [penwidth=2]
    170 -> 138 [penwidth=2]
    171 -> 180 [penwidth=2]
    172 -> 180 [penwidth=2]
    173 -> 180 [penwidth=2]
    174 -> 180 [penwidth=2]
    175 -> 180 [penwidth=2]
    176 -> 180 [penwidth=2]
    177 -> 180 [penwidth=2]
    10 -> 180 [penwidth=2]
    52 -> 180 [penwidth=2]
    94 -> 180 [penwidth=2]
    11 -> 180 [penwidth=2]
    53 -> 180 [penwidth=2]
    95 -> 180 [penwidth=2]
    12 -> 180 [penwidth=2]
    54 -> 139 [penwidth=2]
    9 -> 139 [penwidth=2]
    96 -> 139 [penwidth=2]
    13 -> 139 [penwidth=2]
    55 -> 139 [penwidth=2]
    97 -> 139 [penwidth=2]
    14 -> 139 [penwidth=2]
    56 -> 139 [penwidth=2]
    98 -> 139 [penwidth=2]
    15 -> 139 [penwidth=2]
    57 -> 139 [penwidth=2]
    99 -> 139 [penwidth=2]
    16 -> 139 [penwidth=2]
    58 -> 139 [penwidth=2]
    100 -> 139 [penwidth=2]
    17 -> 139 [penwidth=2]
    59 -> 139 [penwidth=2]
    101 -> 181 [penwidth=2]
    18 -> 181 [penwidth=2]
    60 -> 181 [penwidth=2]
    102 -> 181 [penwidth=2]
    19 -> 181 [penwidth=2]
    61 -> 181 [penwidth=2]
    103 -> 181 [penwidth=2]
    20 -> 181 [penwidth=2]
    62 -> 181 [penwidth=2]
    104 -> 181 [penwidth=2]
    21 -> 181 [penwidth=2]
    63 -> 140 [penwidth=2]
    105 -> 140 [penwidth=2]
    22 -> 140 [penwidth=2]
    64 -> 140 [penwidth=2]
    106 -> 140 [penwidth=2]
    23 -> 140 [penwidth=2]
    65 -> 140 [penwidth=2]
    107 -> 140 [penwidth=2]
    24 -> 140 [penwidth=2]
    66 -> 140 [penwidth=2]
    108 -> 140 [penwidth=2]
    25 -> 140 [penwidth=2]
    67 -> 140 [penwidth=2]
    109 -> 140 [penwidth=2]
    26 -> 140 [penwidth=2]
    68 -> 140 [penwidth=2]
    110 -> 140 [penwidth=2]
    27 -> 140 [penwidth=2]
    69 -> 140 [penwidth=2]
    111 -> 140 [penwidth=2]
    28 -> 182 [penwidth=2]
    70 -> 182 [penwidth=2]
    112 -> 182 [penwidth=2]
    29 -> 182 [penwidth=2]
    71 -> 182 [penwidth=2]
    113 -> 182 [penwidth=2]
    72 -> 182 [penwidth=2]
    30 -> 182 [penwidth=2]
    114 -> 182 [penwidth=2]
    31 -> 182 [penwidth=2]
    73 -> 182 [penwidth=2]
    115 -> 182 [penwidth=2]
    32 -> 182 [penwidth=2]
    74 -> 182 [penwidth=2]
    116 -> 182 [penwidth=2]
    33 -> 182 [penwidth=2]
    75 -> 141 [penwidth=2]
    117 -> 141 [penwidth=2]
    93 -> 141 [penwidth=2]
    34 -> 141 [penwidth=2]
    76 -> 141 [penwidth=2]
    118 -> 141 [penwidth=2]
    35 -> 142 [penwidth=2]
    77 -> 142 [penwidth=2]
    119 -> 142 [penwidth=2]
    36 -> 142 [penwidth=2]
    78 -> 142 [penwidth=2]
    120 -> 142 [penwidth=2]
    37 -> 184 [penwidth=2]
    79 -> 184 [penwidth=2]
    121 -> 184 [penwidth=2]
    38 -> 184 [penwidth=2]
    80 -> 184 [penwidth=2]
    122 -> 184 [penwidth=2]
    39 -> 184 [penwidth=2]
    81 -> 184 [penwidth=2]
    123 -> 184 [penwidth=2]
    40 -> 184 [penwidth=2]
    82 -> 184 [penwidth=2]
    124 -> 184 [penwidth=2]
    41 -> 184 [penwidth=2]
    83 -> 184 [penwidth=2]
    125 -> 184 [penwidth=2]
    135 -> 184 [penwidth=2]
    42 -> 184 [penwidth=2]
    84 -> 184 [penwidth=2]
    126 -> 184 [penwidth=2]
    1 -> 184 [penwidth=2]
    43 -> 184 [penwidth=2]
    85 -> 143 [penwidth=2]
    127 -> 143 [penwidth=2]
    2 -> 143 [penwidth=2]
    44 -> 143 [penwidth=2]
    86 -> 143 [penwidth=2]
    128 -> 143 [penwidth=2]
    3 -> 143 [penwidth=2]
    45 -> 143 [penwidth=2]
    87 -> 185 [penwidth=2]
    129 -> 185 [penwidth=2]
    4 -> 185 [penwidth=2]
    46 -> 185 [penwidth=2]
    88 -> 185 [penwidth=2]
    130 -> 185 [penwidth=2]
    5 -> 185 [penwidth=2]
    47 -> 185 [penwidth=2]
    89 -> 185 [penwidth=2]
    131 -> 185 [penwidth=2]
    6 -> 185 [penwidth=2]
    48 -> 144 [penwidth=2]
    90 -> 144 [penwidth=2]
    132 -> 144 [penwidth=2]
    7 -> 144 [penwidth=2]
    49 -> 144 [penwidth=2]
    91 -> 144 [penwidth=2]
    133 -> 144 [penwidth=2]
    8 -> 144 [penwidth=2]
    50 -> 144 [penwidth=2]
    92 -> 144 [penwidth=2]
    134 -> 144 [penwidth=2]
    51 -> 144 [penwidth=2]
    143 -> 178 [penwidth=2]
    158 -> 137 [penwidth=2]
    167 -> 191 [penwidth=2]
    167 -> 180 [penwidth=2]
    167 -> 150 [penwidth=2]
    167 -> 192 [penwidth=2]
    167 -> 182 [penwidth=2]
    167 -> 185 [penwidth=2]
    167 -> 149 [penwidth=2]
    167 -> 199 [penwidth=2]
    167 -> 194 [penwidth=2]
    167 -> 151 [penwidth=2]
    167 -> 200 [penwidth=2]
    167 -> 186 [penwidth=2]
    167 -> 159 [penwidth=2]
    167 -> 193 [penwidth=2]
    167 -> 155 [penwidth=2]
    167 -> 195 [penwidth=2]
    167 -> 157 [penwidth=2]
    167 -> 148 [penwidth=2]
    167 -> 183 [penwidth=2]
    167 -> 156 [penwidth=2]
    167 -> 184 [penwidth=2]
    167 -> 142 [penwidth=2]
    167 -> 154 [penwidth=2]
    167 -> 143 [penwidth=2]
    167 -> 189 [penwidth=2]
    167 -> 181 [penwidth=2]
    167 -> 158 [penwidth=2]
    167 -> 198 [penwidth=2]
    167 -> 141 [penwidth=2]
    167 -> 144 [penwidth=2]
    167 -> 190 [penwidth=2]
    167 -> 139 [penwidth=2]
    169 -> 194 [penwidth=2]
    169 -> 147 [penwidth=2]
    169 -> 140 [penwidth=2]
    169 -> 149 [penwidth=2]
    169 -> 180 [penwidth=2]
    169 -> 159 [penwidth=2]
    169 -> 158 [penwidth=2]
    169 -> 196 [penwidth=2]
    169 -> 142 [penwidth=2]
    169 -> 154 [penwidth=2]
    169 -> 155 [penwidth=2]
    169 -> 181 [penwidth=2]
    169 -> 188 [penwidth=2]
    169 -> 183 [penwidth=2]
    169 -> 150 [penwidth=2]
    169 -> 145 [penwidth=2]
    169 -> 156 [penwidth=2]
    169 -> 190 [penwidth=2]
    169 -> 182 [penwidth=2]
    169 -> 200 [penwidth=2]
    169 -> 148 [penwidth=2]
    169 -> 195 [penwidth=2]
    169 -> 139 [penwidth=2]
    169 -> 157 [penwidth=2]
    169 -> 186 [penwidth=2]
    169 -> 198 [penwidth=2]
    169 -> 185 [penwidth=2]
    169 -> 201 [penwidth=2]
    169 -> 152 [penwidth=2]
    169 -> 191 [penwidth=2]
    169 -> 192 [penwidth=2]
    169 -> 144 [penwidth=2]
    169 -> 143 [penwidth=2]
    169 -> 189 [penwidth=2]
    169 -> 187 [penwidth=2]
    169 -> 141 [penwidth=2]
    171 -> 143 [penwidth=2]
    171 -> 156 [penwidth=2]
    171 -> 144 [penwidth=2]
    171 -> 197 [penwidth=2]
    171 -> 150 [penwidth=2]
    171 -> 184 [penwidth=2]
    171 -> 140 [penwidth=2]
    171 -> 191 [penwidth=2]
    171 -> 201 [penwidth=2]
    171 -> 154 [penwidth=2]
    171 -> 155 [penwidth=2]
    171 -> 138 [penwidth=2]
    171 -> 194 [penwidth=2]
    171 -> 195 [penwidth=2]
    171 -> 148 [penwidth=2]
    171 -> 153 [penwidth=2]
    171 -> 188 [penwidth=2]
    171 -> 185 [penwidth=2]
    171 -> 189 [penwidth=2]
    171 -> 147 [penwidth=2]
    171 -> 181 [penwidth=2]
    171 -> 145 [penwidth=2]
    171 -> 139 [penwidth=2]
    171 -> 149 [penwidth=2]
    171 -> 200 [penwidth=2]
    171 -> 193 [penwidth=2]
    171 -> 141 [penwidth=2]
    10 -> 196 [penwidth=2]
    94 -> 140 [penwidth=2]
    94 -> 144 [penwidth=2]
    103 -> 154 [penwidth=2]
    103 -> 184 [penwidth=2]
    103 -> 192 [penwidth=2]
    103 -> 191 [penwidth=2]
    103 -> 155 [penwidth=2]
    103 -> 156 [penwidth=2]
    103 -> 185 [penwidth=2]
    103 -> 196 [penwidth=2]
    103 -> 194 [penwidth=2]
    103 -> 138 [penwidth=2]
    103 -> 199 [penwidth=2]
    103 -> 157 [penwidth=2]
    103 -> 189 [penwidth=2]
    103 -> 193 [penwidth=2]
    103 -> 186 [penwidth=2]
    103 -> 143 [penwidth=2]
    103 -> 190 [penwidth=2]
    103 -> 150 [penwidth=2]
    103 -> 195 [penwidth=2]
    103 -> 201 [penwidth=2]
    103 -> 188 [penwidth=2]
    103 -> 187 [penwidth=2]
    103 -> 153 [penwidth=2]
    103 -> 152 [penwidth=2]
    103 -> 147 [penwidth=2]
    103 -> 151 [penwidth=2]
    103 -> 200 [penwidth=2]
    103 -> 197 [penwidth=2]
    103 -> 182 [penwidth=2]
    20 -> 195 [penwidth=2]
    20 -> 144 [penwidth=2]
    20 -> 197 [penwidth=2]
    20 -> 148 [penwidth=2]
    20 -> 155 [penwidth=2]
    20 -> 187 [penwidth=2]
    20 -> 199 [penwidth=2]
    20 -> 189 [penwidth=2]
    20 -> 145 [penwidth=2]
    20 -> 182 [penwidth=2]
    20 -> 194 [penwidth=2]
    20 -> 150 [penwidth=2]
    20 -> 192 [penwidth=2]
    20 -> 180 [penwidth=2]
    20 -> 201 [penwidth=2]
    20 -> 141 [penwidth=2]
    20 -> 156 [penwidth=2]
    20 -> 147 [penwidth=2]
    20 -> 154 [penwidth=2]
    20 -> 159 [penwidth=2]
    20 -> 139 [penwidth=2]
    20 -> 200 [penwidth=2]
    20 -> 198 [penwidth=2]
    20 -> 191 [penwidth=2]
    20 -> 183 [penwidth=2]
    20 -> 152 [penwidth=2]
    20 -> 196 [penwidth=2]
    20 -> 149 [penwidth=2]
    20 -> 157 [penwidth=2]
    20 -> 185 [penwidth=2]
    20 -> 142 [penwidth=2]
    20 -> 184 [penwidth=2]
    20 -> 143 [penwidth=2]
    20 -> 153 [penwidth=2]
    20 -> 140 [penwidth=2]
    20 -> 158 [penwidth=2]
    20 -> 151 [penwidth=2]
    20 -> 188 [penwidth=2]
    106 -> 155 [penwidth=2]
    106 -> 157 [penwidth=2]
    106 -> 192 [penwidth=2]
    106 -> 188 [penwidth=2]
    106 -> 156 [penwidth=2]
    106 -> 142 [penwidth=2]
    106 -> 196 [penwidth=2]
    106 -> 148 [penwidth=2]
    23 -> 153 [penwidth=2]
    23 -> 196 [penwidth=2]
    66 -> 185 [penwidth=2]
    111 -> 183 [penwidth=2]
    111 -> 146 [penwidth=2]
    111 -> 188 [penwidth=2]
    111 -> 201 [penwidth=2]
    111 -> 190 [penwidth=2]
    111 -> 189 [penwidth=2]
    111 -> 198 [penwidth=2]
    111 -> 142 [penwidth=2]
    111 -> 159 [penwidth=2]
    111 -> 191 [penwidth=2]
    111 -> 180 [penwidth=2]
    111 -> 147 [penwidth=2]
    111 -> 196 [penwidth=2]
    111 -> 182 [penwidth=2]
    111 -> 138 [penwidth=2]
    111 -> 152 [penwidth=2]
    111 -> 197 [penwidth=2]
    111 -> 155 [penwidth=2]
    111 -> 154 [penwidth=2]
    111 -> 141 [penwidth=2]
    111 -> 151 [penwidth=2]
    111 -> 139 [penwidth=2]
    111 -> 144 [penwidth=2]
    111 -> 200 [penwidth=2]
    111 -> 145 [penwidth=2]
    111 -> 185 [penwidth=2]
    111 -> 150 [penwidth=2]
    111 -> 148 [penwidth=2]
    111 -> 184 [penwidth=2]
    111 -> 181 [penwidth=2]
    111 -> 194 [penwidth=2]
    111 -> 195 [penwidth=2]
    111 -> 192 [penwidth=2]
    111 -> 153 [penwidth=2]
    111 -> 157 [penwidth=2]
    111 -> 199 [penwidth=2]
    111 -> 158 [penwidth=2]
    111 -> 143 [penwidth=2]
    111 -> 149 [penwidth=2]
    111 -> 187 [penwidth=2]
    70 -> 195 [penwidth=2]
    70 -> 186 [penwidth=2]
    70 -> 189 [penwidth=2]
    70 -> 184 [penwidth=2]
    70 -> 200 [penwidth=2]
    70 -> 153 [penwidth=2]
    31 -> 183 [penwidth=2]
    31 -> 186 [penwidth=2]
    31 -> 150 [penwidth=2]
    31 -> 147 [penwidth=2]
    31 -> 140 [penwidth=2]
    31 -> 146 [penwidth=2]
    31 -> 190 [penwidth=2]
    31 -> 156 [penwidth=2]
    31 -> 200 [penwidth=2]
    31 -> 141 [penwidth=2]
    31 -> 199 [penwidth=2]
    31 -> 139 [penwidth=2]
    31 -> 158 [penwidth=2]
    31 -> 180 [penwidth=2]
    31 -> 148 [penwidth=2]
    31 -> 159 [penwidth=2]
    31 -> 195 [penwidth=2]
    31 -> 194 [penwidth=2]
    31 -> 149 [penwidth=2]
    31 -> 193 [penwidth=2]
    31 -> 187 [penwidth=2]
    31 -> 153 [penwidth=2]
    31 -> 145 [penwidth=2]
    31 -> 198 [penwidth=2]
    31 -> 191 [penwidth=2]
    31 -> 143 [penwidth=2]
    31 -> 196 [penwidth=2]
    31 -> 151 [penwidth=2]
    31 -> 201 [penwidth=2]
    115 -> 187 [penwidth=2]
    115 -> 190 [penwidth=2]
    115 -> 201 [penwidth=2]
    115 -> 192 [penwidth=2]
    115 -> 194 [penwidth=2]
    115 -> 145 [penwidth=2]
    115 -> 200 [penwidth=2]
    115 -> 141 [penwidth=2]
    115 -> 147 [penwidth=2]
    115 -> 140 [penwidth=2]
    115 -> 183 [penwidth=2]
    115 -> 146 [penwidth=2]
    32 -> 138 [penwidth=2]
    32 -> 197 [penwidth=2]
    32 -> 158 [penwidth=2]
    32 -> 201 [penwidth=2]
    32 -> 200 [penwidth=2]
    32 -> 151 [penwidth=2]
    32 -> 191 [penwidth=2]
    32 -> 140 [penwidth=2]
    32 -> 192 [penwidth=2]
    32 -> 180 [penwidth=2]
    32 -> 148 [penwidth=2]
    32 -> 186 [penwidth=2]
    32 -> 196 [penwidth=2]
    32 -> 145 [penwidth=2]
    32 -> 144 [penwidth=2]
    32 -> 199 [penwidth=2]
    32 -> 189 [penwidth=2]
    32 -> 195 [penwidth=2]
    32 -> 146 [penwidth=2]
    32 -> 154 [penwidth=2]
    32 -> 185 [penwidth=2]
    32 -> 193 [penwidth=2]
    32 -> 153 [penwidth=2]
    32 -> 141 [penwidth=2]
    32 -> 149 [penwidth=2]
    32 -> 143 [penwidth=2]
    32 -> 194 [penwidth=2]
    32 -> 152 [penwidth=2]
    32 -> 183 [penwidth=2]
    116 -> 144 [penwidth=2]
    116 -> 196 [penwidth=2]
    116 -> 142 [penwidth=2]
    116 -> 153 [penwidth=2]
    116 -> 141 [penwidth=2]
    116 -> 159 [penwidth=2]
    116 -> 158 [penwidth=2]
    116 -> 147 [penwidth=2]
    116 -> 181 [penwidth=2]
    116 -> 148 [penwidth=2]
    117 -> 148 [penwidth=2]
    117 -> 197 [penwidth=2]
    117 -> 154 [penwidth=2]
    117 -> 185 [penwidth=2]
    117 -> 157 [penwidth=2]
    117 -> 140 [penwidth=2]
    117 -> 188 [penwidth=2]
    117 -> 189 [penwidth=2]
    117 -> 153 [penwidth=2]
    117 -> 180 [penwidth=2]
    117 -> 149 [penwidth=2]
    117 -> 198 [penwidth=2]
    117 -> 190 [penwidth=2]
    117 -> 156 [penwidth=2]
    117 -> 145 [penwidth=2]
    117 -> 196 [penwidth=2]
    117 -> 199 [penwidth=2]
    117 -> 195 [penwidth=2]
    117 -> 193 [penwidth=2]
    117 -> 183 [penwidth=2]
    117 -> 192 [penwidth=2]
    117 -> 152 [penwidth=2]
    117 -> 182 [penwidth=2]
    117 -> 187 [penwidth=2]
    117 -> 144 [penwidth=2]
    117 -> 200 [penwidth=2]
    117 -> 143 [penwidth=2]
    118 -> 200 [penwidth=2]
    118 -> 158 [penwidth=2]
    118 -> 183 [penwidth=2]
    118 -> 186 [penwidth=2]
    118 -> 149 [penwidth=2]
    118 -> 199 [penwidth=2]
    118 -> 187 [penwidth=2]
    118 -> 148 [penwidth=2]
    118 -> 156 [penwidth=2]
    118 -> 140 [penwidth=2]
    118 -> 144 [penwidth=2]
    118 -> 159 [penwidth=2]
    127 -> 191 [penwidth=2]
    46 -> 186 [penwidth=2]
    46 -> 151 [penwidth=2]
    46 -> 146 [penwidth=2]
    46 -> 145 [penwidth=2]
    46 -> 182 [penwidth=2]
    46 -> 201 [penwidth=2]
    46 -> 152 [penwidth=2]
    46 -> 195 [penwidth=2]
    46 -> 154 [penwidth=2]
    46 -> 188 [penwidth=2]
    46 -> 184 [penwidth=2]
    46 -> 158 [penwidth=2]
    46 -> 183 [penwidth=2]
    46 -> 199 [penwidth=2]
    46 -> 200 [penwidth=2]
    46 -> 148 [penwidth=2]
    46 -> 187 [penwidth=2]
    46 -> 181 [penwidth=2]
    46 -> 198 [penwidth=2]
    46 -> 147 [penwidth=2]
    46 -> 189 [penwidth=2]
    46 -> 156 [penwidth=2]
    46 -> 143 [penwidth=2]
    46 -> 140 [penwidth=2]
    46 -> 191 [penwidth=2]
    90 -> 153 [penwidth=2]
}