digraph G {
    0 [penwidth=3,label="0"]
    1 [penwidth=3,label="1"]
    2 [penwidth=3,label="2"]
    3 [penwidth=3,label="3"]
    4 [penwidth=3,label="4"]
    5 [penwidth=3,label="5"]
    6 [penwidth=3,label="6"]
    7 [penwidth=3,label="7"]
    8 [penwidth=3,label="8"]
    9 [penwidth=3,label="9"]
    10 [penwidth=3,label="10"]
    11 [penwidth=3,label="11"]
    12 [penwidth=3,label="12"]
    13 [penwidth=3,label="13"]
    14 [penwidth=3,label="14"]
    15 [penwidth=3,label="15"]
    16 [penwidth=3,label="16"]
    17 [penwidth=3,label="17"]
    18 [penwidth=3,label="18"]
    19 [penwidth=3,label="19"]
    20 [penwidth=3,label="20"]
    21 [penwidth=3,label="21"]
    22 [penwidth=3,label="22"]
    23 [penwidth=3,label="23"]
    24 [penwidth=3,label="24"]
    25 [penwidth=3,label="25"]
    26 [penwidth=3,label="26"]
    27 [penwidth=3,label="27"]
    28 [penwidth=3,label="28"]
    29 [penwidth=3,label="29"]
    30 [penwidth=3,label="30"]
    31 [penwidth=3,label="31"]
    32 [penwidth=3,label="32"]
    33 [penwidth=3,label="33"]
    34 [penwidth=3,label="34"]
    35 [penwidth=3,label="35"]
    36 [penwidth=3,label="36"]
    37 [penwidth=3,label="37"]
    38 [penwidth=3,label="38"]
    39 [penwidth=3,label="39"]
    40 [penwidth=3,label="40"]
    41 [penwidth=3,label="41"]
    42 [penwidth=3,label="42"]
    43 [penwidth=3,label="43"]
    44 [penwidth=3,label="44"]
    45 [penwidth=3,label="45"]
    46 [penwidth=3,label="46"]
    47 [penwidth=3,label="47"]
    48 [penwidth=3,label="48"]
    49 [penwidth=3,label="49"]
    50 [penwidth=3,label="50"]
    51 [penwidth=3,label="51"]
    52 [penwidth=3,label="52"]
    53 [penwidth=3,label="53"]
    54 [penwidth=3,label="54"]
    55 [penwidth=3,label="55"]
    56 [penwidth=3,label="56"]
    57 [penwidth=3,label="57"]
    58 [penwidth=3,label="58"]
    59 [penwidth=3,label="59"]
    60 [penwidth=3,label="60"]
    61 [penwidth=3,label="61"]
    62 [penwidth=3,label="62"]
    63 [penwidth=3,label="63"]
    64 [penwidth=3,label="64"]
    65 [penwidth=3,label="65"]
    66 [penwidth=3,label="66"]
    67 [penwidth=3,label="67"]
    68 [penwidth=3,label="68"]
    69 [penwidth=3,label="69"]
    70 [penwidth=3,label="70"]
    71 [penwidth=3,label="71"]
    72 [penwidth=3,label="72"]
    73 [penwidth=3,label="73"]
    74 [penwidth=3,label="74"]
    75 [penwidth=3,label="75"]
    76 [penwidth=3,label="76"]
    77 [penwidth=3,label="77"]
    78 [penwidth=3,label="78"]
    79 [penwidth=3,label="79"]
    80 [penwidth=3,label="80"]
    81 [penwidth=3,label="81"]
    82 [penwidth=3,label="82"]
    83 [penwidth=3,label="83"]
    84 [penwidth=3,label="84"]
    85 [penwidth=3,label="85"]
    86 [penwidth=3,label="86"]
    87 [penwidth=3,label="87"]
    88 [penwidth=3,label="88"]
    89 [penwidth=3,label="89"]
    90 [penwidth=3,label="90"]
    91 [penwidth=3,label="91"]
    92 [penwidth=3,label="92"]
    93 [penwidth=3,label="93"]
    94 [penwidth=3,label="94"]
    95 [penwidth=3,label="95"]
    96 [penwidth=3,label="96"]
    97 [penwidth=3,label="97"]
    98 [penwidth=3,label="98"]
    99 [penwidth=3,label="99"]
    100 [penwidth=3,label="100"]
    101 [penwidth=3,label="101"]
    102 [penwidth=3,label="102"]
    103 [penwidth=3,label="103"]
    104 [penwidth=3,label="104"]
    105 [penwidth=3,label="105"]
    106 [penwidth=3,label="106"]
    107 [penwidth=3,label="107"]
    108 [penwidth=3,label="108"]
    109 [penwidth=3,label="109"]
    110 [penwidth=3,label="110"]
    111 [penwidth=3,label="111"]
    112 [penwidth=3,label="112"]
    113 [penwidth=3,label="113"]
    114 [penwidth=3,label="114"]
    115 [penwidth=3,label="115"]
    116 [penwidth=3,label="116"]
    117 [penwidth=3,label="117"]
    118 [penwidth=3,label="118"]
    119 [penwidth=3,label="119"]
    120 [penwidth=3,label="120"]
    121 [penwidth=3,label="121"]
    122 [penwidth=3,label="122"]
    123 [penwidth=3,label="123"]
    124 [penwidth=3,label="124"]
    125 [penwidth=3,label="125"]
    126 [penwidth=3,label="126"]
    127 [penwidth=3,label="127"]
    128 [penwidth=3,label="128"]
    129 [penwidth=3,label="129"]
    130 [penwidth=3,label="130"]
    131 [penwidth=3,label="131"]
    132 [penwidth=3,label="132"]
    133 [penwidth=3,label="133"]
    134 [penwidth=3,label="134"]
    135 [penwidth=3,label="135"]
    136 [penwidth=3,label="136"]
    137 [penwidth=3,label="137"]
    138 [penwidth=3,label="138"]
    139 [penwidth=3,label="139"]
    140 [penwidth=3,label="140"]
    141 [penwidth=3,label="141"]
    142 [penwidth=3,label="142"]
    143 [penwidth=3,label="143"]
    144 [penwidth=3,label="144"]
    145 [penwidth=3,label="145"]
    146 [penwidth=3,label="146"]
    147 [penwidth=3,label="147"]
    148 [penwidth=3,label="148"]
    149 [penwidth=3,label="149"]
    150 [penwidth=3,label="150"]
    151 [penwidth=3,label="151"]
    152 [penwidth=3,label="152"]
    153 [penwidth=3,label="153"]
    154 [penwidth=3,label="154"]
    155 [penwidth=3,label="155"]
    156 [penwidth=3,label="156"]
    157 [penwidth=3,label="157"]
    158 [penwidth=3,label="158"]
    159 [penwidth=3,label="159"]
    160 [penwidth=3,label="160"]
    161 [penwidth=3,label="161"]
    162 [penwidth=3,label="162"]
    163 [penwidth=3,label="163"]
    164 [penwidth=3,label="164"]
    165 [penwidth=3,label="165"]
    166 [penwidth=3,label="166"]
    167 [penwidth=3,label="167"]
    168 [penwidth=3,label="168"]
    169 [penwidth=3,label="169"]
    170 [penwidth=3,label="170"]
    171 [penwidth=3,label="171"]
    172 [penwidth=3,label="172"]
    173 [penwidth=3,label="173"]
    174 [penwidth=3,label="174"]
    175 [penwidth=3,label="175"]
    176 [penwidth=3,label="176"]
    177 [penwidth=3,label="177"]
    178 [penwidth=3,label="178"]
    179 [penwidth=3,label="179"]
    180 [penwidth=3,label="180"]
    181 [penwidth=3,label="181"]
    182 [penwidth=3,label="182"]
    183 [penwidth=3,label="183"]
    184 [penwidth=3,label="184"]
    185 [penwidth=3,label="185"]
    186 [penwidth=3,label="186"]
    187 [penwidth=3,label="187"]
    188 [penwidth=3,label="188"]
    189 [penwidth=3,label="189"]
    190 [penwidth=3,label="190"]
    191 [penwidth=3,label="191"]
    192 [penwidth=3,label="192"]
    193 [penwidth=3,label="193"]
    194 [penwidth=3,label="194"]
    195 [penwidth=3,label="195"]
    196 [penwidth=3,label="196"]
    197 [penwidth=3,label="197"]
    198 [penwidth=3,label="198"]
    199 [penwidth=3,label="199"]
    200 [penwidth=3,label="200"]
    201 [penwidth=3,label="201"]
    202 [penwidth=3,label="202"]
    203 [penwidth=3,label="203"]
    204 [penwidth=3,label="204"]

    177 -> 0 [penwidth=2]
    83 -> 0 [penwidth=2]
    181 -> 0 [penwidth=2]
    84 -> 0 [penwidth=2]
    171 -> 0 [penwidth=2]
    85 -> 0 [penwidth=2]
    169 -> 0 [penwidth=2]
    86 -> 0 [penwidth=2]
    167 -> 0 [penwidth=2]
    87 -> 177 [penwidth=2]
    178 -> 177 [penwidth=2]
    88 -> 177 [penwidth=2]
    176 -> 177 [penwidth=2]
    89 -> 177 [penwidth=2]
    192 -> 177 [penwidth=2]
    90 -> 177 [penwidth=2]
    179 -> 177 [penwidth=2]
    91 -> 177 [penwidth=2]
    174 -> 177 [penwidth=2]
    92 -> 177 [penwidth=2]
    121 -> 177 [penwidth=2]
    189 -> 177 [penwidth=2]
    93 -> 177 [penwidth=2]
    165 -> 177 [penwidth=2]
    94 -> 177 [penwidth=2]
    188 -> 177 [penwidth=2]
    95 -> 177 [penwidth=2]
    191 -> 177 [penwidth=2]
    96 -> 177 [penwidth=2]
    180 -> 83 [penwidth=2]
    97 -> 83 [penwidth=2]
    190 -> 83 [penwidth=2]
    98 -> 83 [penwidth=2]
    170 -> 83 [penwidth=2]
    99 -> 83 [penwidth=2]
    187 -> 83 [penwidth=2]
    100 -> 83 [penwidth=2]
    164 -> 83 [penwidth=2]
    101 -> 83 [penwidth=2]
    173 -> 83 [penwidth=2]
    102 -> 83 [penwidth=2]
    184 -> 83 [penwidth=2]
    103 -> 83 [penwidth=2]
    182 -> 83 [penwidth=2]
    104 -> 83 [penwidth=2]
    172 -> 83 [penwidth=2]
    105 -> 83 [penwidth=2]
    185 -> 83 [penwidth=2]
    106 -> 83 [penwidth=2]
    183 -> 83 [penwidth=2]
    107 -> 181 [penwidth=2]
    168 -> 181 [penwidth=2]
    108 -> 181 [penwidth=2]
    175 -> 181 [penwidth=2]
    109 -> 181 [penwidth=2]
    163 -> 181 [penwidth=2]
    110 -> 181 [penwidth=2]
    166 -> 181 [penwidth=2]
    111 -> 181 [penwidth=2]
    186 -> 181 [penwidth=2]
    112 -> 181 [penwidth=2]
    113 -> 181 [penwidth=2]
    114 -> 181 [penwidth=2]
    115 -> 181 [penwidth=2]
    116 -> 181 [penwidth=2]
    117 -> 181 [penwidth=2]
    118 -> 181 [penwidth=2]
    119 -> 181 [penwidth=2]
    120 -> 181 [penwidth=2]
    195 -> 181 [penwidth=2]
    194 -> 84 [penwidth=2]
    196 -> 171 [penwidth=2]
    197 -> 171 [penwidth=2]
    81 -> 171 [penwidth=2]
    198 -> 171 [penwidth=2]
    41 -> 171 [penwidth=2]
    139 -> 171 [penwidth=2]
    199 -> 171 [penwidth=2]
    42 -> 171 [penwidth=2]
    126 -> 171 [penwidth=2]
    1 -> 171 [penwidth=2]
    200 -> 171 [penwidth=2]
    43 -> 171 [penwidth=2]
    152 -> 85 [penwidth=2]
    201 -> 85 [penwidth=2]
    2 -> 85 [penwidth=2]
    44 -> 85 [penwidth=2]
    138 -> 85 [penwidth=2]
    202 -> 85 [penwidth=2]
    3 -> 169 [penwidth=2]
    45 -> 169 [penwidth=2]
    82 -> 169 [penwidth=2]
    125 -> 169 [penwidth=2]
    203 -> 169 [penwidth=2]
    4 -> 169 [penwidth=2]
    46 -> 169 [penwidth=2]
    151 -> 169 [penwidth=2]
    204 -> 169 [penwidth=2]
    5 -> 169 [penwidth=2]
    47 -> 169 [penwidth=2]
    137 -> 169 [penwidth=2]
    6 -> 169 [penwidth=2]
    48 -> 169 [penwidth=2]
    124 -> 169 [penwidth=2]
    7 -> 169 [penwidth=2]
    49 -> 169 [penwidth=2]
    150 -> 169 [penwidth=2]
    8 -> 169 [penwidth=2]
    50 -> 169 [penwidth=2]
    136 -> 169 [penwidth=2]
    9 -> 169 [penwidth=2]
    51 -> 169 [penwidth=2]
    123 -> 86 [penwidth=2]
    10 -> 86 [penwidth=2]
    52 -> 86 [penwidth=2]
    149 -> 86 [penwidth=2]
    11 -> 86 [penwidth=2]
    53 -> 86 [penwidth=2]
    135 -> 86 [penwidth=2]
    12 -> 86 [penwidth=2]
    54 -> 86 [penwidth=2]
    122 -> 86 [penwidth=2]
    13 -> 86 [penwidth=2]
    55 -> 86 [penwidth=2]
    157 -> 86 [penwidth=2]
    14 -> 86 [penwidth=2]
    56 -> 86 [penwidth=2]
    134 -> 86 [penwidth=2]
    15 -> 86 [penwidth=2]
    57 -> 86 [penwidth=2]
    156 -> 167 [penwidth=2]
    16 -> 167 [penwidth=2]
    58 -> 167 [penwidth=2]
    133 -> 167 [penwidth=2]
    17 -> 167 [penwidth=2]
    59 -> 167 [penwidth=2]
    155 -> 167 [penwidth=2]
    60 -> 167 [penwidth=2]
    18 -> 167 [penwidth=2]
    132 -> 167 [penwidth=2]
    61 -> 167 [penwidth=2]
    19 -> 167 [penwidth=2]
    154 -> 167 [penwidth=2]
    20 -> 167 [penwidth=2]
    62 -> 167 [penwidth=2]
    131 -> 167 [penwidth=2]
    21 -> 167 [penwidth=2]
    63 -> 167 [penwidth=2]
    162 -> 167 [penwidth=2]
    22 -> 87 [penwidth=2]
    64 -> 87 [penwidth=2]
    130 -> 87 [penwidth=2]
    23 -> 87 [penwidth=2]
    65 -> 87 [penwidth=2]
    161 -> 87 [penwidth=2]
    24 -> 87 [penwidth=2]
    66 -> 87 [penwidth=2]
    129 -> 87 [penwidth=2]
    25 -> 87 [penwidth=2]
    67 -> 87 [penwidth=2]
    160 -> 178 [penwidth=2]
    26 -> 178 [penwidth=2]
    68 -> 88 [penwidth=2]
    159 -> 88 [penwidth=2]
    27 -> 88 [penwidth=2]
    69 -> 88 [penwidth=2]
    158 -> 88 [penwidth=2]
    28 -> 88 [penwidth=2]
    70 -> 88 [penwidth=2]
    147 -> 88 [penwidth=2]
    29 -> 88 [penwidth=2]
    71 -> 88 [penwidth=2]
    146 -> 88 [penwidth=2]
    30 -> 88 [penwidth=2]
    72 -> 176 [penwidth=2]
    148 -> 176 [penwidth=2]
    31 -> 176 [penwidth=2]
    73 -> 176 [penwidth=2]
    128 -> 176 [penwidth=2]
    32 -> 176 [penwidth=2]
    74 -> 176 [penwidth=2]
    144 -> 176 [penwidth=2]
    33 -> 176 [penwidth=2]
    75 -> 89 [penwidth=2]
    145 -> 89 [penwidth=2]
    34 -> 89 [penwidth=2]
    76 -> 89 [penwidth=2]
    141 -> 89 [penwidth=2]
    35 -> 89 [penwidth=2]
    77 -> 89 [penwidth=2]
    127 -> 89 [penwidth=2]
    36 -> 89 [penwidth=2]
    78 -> 89 [penwidth=2]
    143 -> 89 [penwidth=2]
    37 -> 89 [penwidth=2]
    79 -> 89 [penwidth=2]
    142 -> 89 [penwidth=2]
    38 -> 89 [penwidth=2]
    80 -> 89 [penwidth=2]
    140 -> 89 [penwidth=2]
    193 -> 89 [penwidth=2]
    39 -> 89 [penwidth=2]
    153 -> 89 [penwidth=2]
    40 -> 89 [penwidth=2]
    89 -> 167 [penwidth=2]
    89 -> 83 [penwidth=2]
    89 -> 181 [penwidth=2]
    89 -> 85 [penwidth=2]
    192 -> 181 [penwidth=2]
    90 -> 86 [penwidth=2]
    90 -> 84 [penwidth=2]
    90 -> 167 [penwidth=2]
    90 -> 83 [penwidth=2]
    90 -> 85 [penwidth=2]
    90 -> 169 [penwidth=2]
    81 -> 83 [penwidth=2]
    81 -> 84 [penwidth=2]
    126 -> 85 [penwidth=2]
    126 -> 169 [penwidth=2]
    126 -> 167 [penwidth=2]
    200 -> 177 [penwidth=2]
    200 -> 86 [penwidth=2]
    200 -> 181 [penwidth=2]
    200 -> 169 [penwidth=2]
    200 -> 84 [penwidth=2]
    152 -> 181 [penwidth=2]
    152 -> 83 [penwidth=2]
    152 -> 171 [penwidth=2]
    152 -> 169 [penwidth=2]
    152 -> 177 [penwidth=2]
    152 -> 167 [penwidth=2]
    149 -> 169 [penwidth=2]
    149 -> 83 [penwidth=2]
    14 -> 177 [penwidth=2]
    14 -> 169 [penwidth=2]
    61 -> 83 [penwidth=2]
    61 -> 171 [penwidth=2]
    61 -> 169 [penwidth=2]
    61 -> 85 [penwidth=2]
    24 -> 91 [penwidth=2]
    24 -> 46 [penwidth=2]
    24 -> 3 [penwidth=2]
    24 -> 92 [penwidth=2]
    24 -> 56 [penwidth=2]
    24 -> 135 [penwidth=2]
    24 -> 182 [penwidth=2]
    24 -> 16 [penwidth=2]
    24 -> 89 [penwidth=2]
    24 -> 49 [penwidth=2]
    24 -> 125 [penwidth=2]
    24 -> 105 [penwidth=2]
    24 -> 62 [penwidth=2]
    24 -> 93 [penwidth=2]
    24 -> 45 [penwidth=2]
    24 -> 188 [penwidth=2]
    24 -> 184 [penwidth=2]
    24 -> 113 [penwidth=2]
    24 -> 175 [penwidth=2]
    24 -> 106 [penwidth=2]
    24 -> 200 [penwidth=2]
    24 -> 9 [penwidth=2]
    24 -> 107 [penwidth=2]
    24 -> 157 [penwidth=2]
    24 -> 47 [penwidth=2]
    24 -> 17 [penwidth=2]
    24 -> 174 [penwidth=2]
    24 -> 116 [penwidth=2]
    24 -> 20 [penwidth=2]
    24 -> 97 [penwidth=2]
    24 -> 102 [penwidth=2]
    24 -> 197 [penwidth=2]
    24 -> 132 [penwidth=2]
    24 -> 202 [penwidth=2]
    24 -> 82 [penwidth=2]
    24 -> 131 [penwidth=2]
    24 -> 21 [penwidth=2]
    24 -> 90 [penwidth=2]
    24 -> 41 [penwidth=2]
    24 -> 172 [penwidth=2]
    24 -> 103 [penwidth=2]
    24 -> 58 [penwidth=2]
    24 -> 196 [penwidth=2]
    24 -> 55 [penwidth=2]
    24 -> 44 [penwidth=2]
    24 -> 120 [penwidth=2]
    24 -> 191 [penwidth=2]
    24 -> 101 [penwidth=2]
    24 -> 170 [penwidth=2]
    24 -> 198 [penwidth=2]
    24 -> 111 [penwidth=2]
    24 -> 149 [penwidth=2]
    24 -> 118 [penwidth=2]
    24 -> 61 [penwidth=2]
    24 -> 114 [penwidth=2]
    24 -> 60 [penwidth=2]
    24 -> 115 [penwidth=2]
    24 -> 122 [penwidth=2]
    24 -> 150 [penwidth=2]
    24 -> 54 [penwidth=2]
    24 -> 94 [penwidth=2]
    24 -> 165 [penwidth=2]
    24 -> 108 [penwidth=2]
    24 -> 14 [penwidth=2]
    24 -> 186 [penwidth=2]
    24 -> 164 [penwidth=2]
    24 -> 180 [penwidth=2]
    24 -> 18 [penwidth=2]
    24 -> 199 [penwidth=2]
    24 -> 136 [penwidth=2]
    24 -> 138 [penwidth=2]
    24 -> 100 [penwidth=2]
    24 -> 99 [penwidth=2]
    24 -> 178 [penwidth=2]
    24 -> 151 [penwidth=2]
    24 -> 168 [penwidth=2]
    24 -> 195 [penwidth=2]
    67 -> 189 [penwidth=2]
    67 -> 178 [penwidth=2]
    67 -> 41 [penwidth=2]
    67 -> 123 [penwidth=2]
    67 -> 91 [penwidth=2]
    67 -> 187 [penwidth=2]
    67 -> 9 [penwidth=2]
    67 -> 53 [penwidth=2]
    67 -> 47 [penwidth=2]
    67 -> 10 [penwidth=2]
    67 -> 175 [penwidth=2]
    67 -> 13 [penwidth=2]
    67 -> 97 [penwidth=2]
    72 -> 14 [penwidth=2]
    72 -> 114 [penwidth=2]
    72 -> 172 [penwidth=2]
    72 -> 110 [penwidth=2]
    72 -> 44 [penwidth=2]
    72 -> 96 [penwidth=2]
    72 -> 202 [penwidth=2]
    72 -> 59 [penwidth=2]
    72 -> 180 [penwidth=2]
    72 -> 185 [penwidth=2]
    72 -> 100 [penwidth=2]
    72 -> 89 [penwidth=2]
    72 -> 99 [penwidth=2]
    72 -> 49 [penwidth=2]
    72 -> 201 [penwidth=2]
    72 -> 188 [penwidth=2]
    72 -> 111 [penwidth=2]
    72 -> 103 [penwidth=2]
    72 -> 135 [penwidth=2]
    72 -> 162 [penwidth=2]
    72 -> 203 [penwidth=2]
    72 -> 131 [penwidth=2]
    72 -> 194 [penwidth=2]
    72 -> 166 [penwidth=2]
    72 -> 198 [penwidth=2]
    72 -> 157 [penwidth=2]
    72 -> 56 [penwidth=2]
    72 -> 47 [penwidth=2]
    72 -> 6 [penwidth=2]
    72 -> 183 [penwidth=2]
    72 -> 119 [penwidth=2]
    72 -> 12 [penwidth=2]
    72 -> 134 [penwidth=2]
    72 -> 15 [penwidth=2]
    72 -> 138 [penwidth=2]
    72 -> 43 [penwidth=2]
    72 -> 95 [penwidth=2]
    72 -> 120 [penwidth=2]
    72 -> 46 [penwidth=2]
    72 -> 190 [penwidth=2]
    72 -> 16 [penwidth=2]
    72 -> 133 [penwidth=2]
    72 -> 42 [penwidth=2]
    72 -> 154 [penwidth=2]
    72 -> 121 [penwidth=2]
    72 -> 19 [penwidth=2]
    72 -> 82 [penwidth=2]
    72 -> 150 [penwidth=2]
    72 -> 90 [penwidth=2]
    72 -> 88 [penwidth=2]
    72 -> 105 [penwidth=2]
    72 -> 7 [penwidth=2]
    72 -> 102 [penwidth=2]
    72 -> 174 [penwidth=2]
    72 -> 139 [penwidth=2]
    72 -> 182 [penwidth=2]
    72 -> 51 [penwidth=2]
    72 -> 5 [penwidth=2]
    72 -> 104 [penwidth=2]
    72 -> 17 [penwidth=2]
    72 -> 4 [penwidth=2]
    72 -> 9 [penwidth=2]
    72 -> 199 [penwidth=2]
    72 -> 13 [penwidth=2]
    72 -> 164 [penwidth=2]
    72 -> 151 [penwidth=2]
    72 -> 175 [penwidth=2]
    72 -> 58 [penwidth=2]
    72 -> 117 [penwidth=2]
    72 -> 132 [penwidth=2]
    72 -> 109 [penwidth=2]
    72 -> 113 [penwidth=2]
    72 -> 125 [penwidth=2]
    72 -> 179 [penwidth=2]
    72 -> 112 [penwidth=2]
    72 -> 170 [penwidth=2]
    72 -> 91 [penwidth=2]
    72 -> 98 [penwidth=2]
    72 -> 136 [penwidth=2]
    72 -> 196 [penwidth=2]
    72 -> 191 [penwidth=2]
    72 -> 8 [penwidth=2]
    72 -> 192 [penwidth=2]
    72 -> 97 [penwidth=2]
    72 -> 57 [penwidth=2]
    72 -> 168 [penwidth=2]
    72 -> 55 [penwidth=2]
    72 -> 92 [penwidth=2]
    72 -> 115 [penwidth=2]
    72 -> 20 [penwidth=2]
    72 -> 81 [penwidth=2]
    72 -> 126 [penwidth=2]
    72 -> 10 [penwidth=2]
    72 -> 52 [penwidth=2]
    72 -> 200 [penwidth=2]
    72 -> 41 [penwidth=2]
    72 -> 156 [penwidth=2]
    72 -> 1 [penwidth=2]
    72 -> 101 [penwidth=2]
    72 -> 178 [penwidth=2]
    72 -> 137 [penwidth=2]
    72 -> 60 [penwidth=2]
    72 -> 63 [penwidth=2]
    72 -> 187 [penwidth=2]
    72 -> 61 [penwidth=2]
    72 -> 87 [penwidth=2]
    72 -> 54 [penwidth=2]
    72 -> 173 [penwidth=2]
    72 -> 197 [penwidth=2]
    72 -> 93 [penwidth=2]
    72 -> 152 [penwidth=2]
    72 -> 2 [penwidth=2]
    72 -> 184 [penwidth=2]
    72 -> 186 [penwidth=2]
    72 -> 165 [penwidth=2]
    72 -> 118 [penwidth=2]
    72 -> 62 [penwidth=2]
    72 -> 3 [penwidth=2]
    72 -> 53 [penwidth=2]
    72 -> 204 [penwidth=2]
    72 -> 189 [penwidth=2]
    72 -> 21 [penwidth=2]
    72 -> 122 [penwidth=2]
    72 -> 149 [penwidth=2]
    72 -> 195 [penwidth=2]
    72 -> 155 [penwidth=2]
    72 -> 18 [penwidth=2]
    72 -> 48 [penwidth=2]
    72 -> 106 [penwidth=2]
    72 -> 107 [penwidth=2]
    72 -> 11 [penwidth=2]
    72 -> 45 [penwidth=2]
    72 -> 123 [penwidth=2]
    72 -> 163 [penwidth=2]
    72 -> 94 [penwidth=2]
    72 -> 116 [penwidth=2]
    77 -> 1 [penwidth=2]
    77 -> 107 [penwidth=2]
    77 -> 164 [penwidth=2]
    77 -> 125 [penwidth=2]
    77 -> 41 [penwidth=2]
    77 -> 114 [penwidth=2]
    77 -> 102 [penwidth=2]
    77 -> 18 [penwidth=2]
    77 -> 137 [penwidth=2]
    77 -> 191 [penwidth=2]
    79 -> 172 [penwidth=2]
    79 -> 52 [penwidth=2]
    79 -> 199 [penwidth=2]
    79 -> 17 [penwidth=2]
    79 -> 97 [penwidth=2]
    79 -> 168 [penwidth=2]
    79 -> 182 [penwidth=2]
    79 -> 58 [penwidth=2]
    79 -> 176 [penwidth=2]
    79 -> 44 [penwidth=2]
    79 -> 185 [penwidth=2]
    79 -> 203 [penwidth=2]
    79 -> 94 [penwidth=2]
    79 -> 188 [penwidth=2]
    79 -> 179 [penwidth=2]
    142 -> 197 [penwidth=2]
    142 -> 194 [penwidth=2]
    142 -> 19 [penwidth=2]
    142 -> 41 [penwidth=2]
    142 -> 8 [penwidth=2]
    142 -> 107 [penwidth=2]
    142 -> 198 [penwidth=2]
    142 -> 196 [penwidth=2]
    142 -> 16 [penwidth=2]
    142 -> 57 [penwidth=2]
    142 -> 100 [penwidth=2]
    142 -> 139 [penwidth=2]
    142 -> 94 [penwidth=2]
    142 -> 61 [penwidth=2]
    142 -> 96 [penwidth=2]
    142 -> 157 [penwidth=2]
    142 -> 112 [penwidth=2]
    142 -> 154 [penwidth=2]
    142 -> 18 [penwidth=2]
    142 -> 21 [penwidth=2]
    142 -> 92 [penwidth=2]
    142 -> 82 [penwidth=2]
    142 -> 187 [penwidth=2]
    142 -> 122 [penwidth=2]
    142 -> 48 [penwidth=2]
    142 -> 43 [penwidth=2]
    142 -> 87 [penwidth=2]
    142 -> 133 [penwidth=2]
    142 -> 164 [penwidth=2]
    142 -> 58 [penwidth=2]
    142 -> 2 [penwidth=2]
    142 -> 179 [penwidth=2]
    142 -> 17 [penwidth=2]
    142 -> 136 [penwidth=2]
    142 -> 184 [penwidth=2]
    142 -> 165 [penwidth=2]
    142 -> 10 [penwidth=2]
    142 -> 115 [penwidth=2]
    142 -> 195 [penwidth=2]
    142 -> 124 [penwidth=2]
    142 -> 176 [penwidth=2]
    142 -> 150 [penwidth=2]
    142 -> 7 [penwidth=2]
    142 -> 132 [penwidth=2]
    142 -> 109 [penwidth=2]
    142 -> 185 [penwidth=2]
    142 -> 60 [penwidth=2]
    142 -> 178 [penwidth=2]
    142 -> 203 [penwidth=2]
    142 -> 173 [penwidth=2]
    142 -> 1 [penwidth=2]
    142 -> 9 [penwidth=2]
    142 -> 110 [penwidth=2]
    142 -> 155 [penwidth=2]
    142 -> 192 [penwidth=2]
    142 -> 63 [penwidth=2]
    142 -> 55 [penwidth=2]
    142 -> 114 [penwidth=2]
    142 -> 111 [penwidth=2]
    142 -> 106 [penwidth=2]
    142 -> 4 [penwidth=2]
    142 -> 201 [penwidth=2]
    142 -> 62 [penwidth=2]
    142 -> 103 [penwidth=2]
    142 -> 12 [penwidth=2]
    142 -> 123 [penwidth=2]
    142 -> 119 [penwidth=2]
    142 -> 117 [penwidth=2]
    142 -> 131 [penwidth=2]
    142 -> 199 [penwidth=2]
    142 -> 11 [penwidth=2]
    142 -> 118 [penwidth=2]
    142 -> 53 [penwidth=2]
    142 -> 149 [penwidth=2]
    142 -> 191 [penwidth=2]
    142 -> 3 [penwidth=2]
    142 -> 182 [penwidth=2]
    142 -> 204 [penwidth=2]
    142 -> 180 [penwidth=2]
    142 -> 120 [penwidth=2]
    142 -> 6 [penwidth=2]
}