digraph G {
    0 [penwidth=3,label="0"]
    1 [penwidth=3,label="1"]
    2 [penwidth=3,label="2"]
    3 [penwidth=3,label="3"]
    4 [penwidth=3,label="4"]
    5 [penwidth=3,label="5"]
    6 [penwidth=3,label="6"]
    7 [penwidth=3,label="7"]
    8 [penwidth=3,label="8"]
    9 [penwidth=3,label="9"]
    10 [penwidth=3,label="10"]
    11 [penwidth=3,label="11"]
    12 [penwidth=3,label="12"]
    13 [penwidth=3,label="13"]
    14 [penwidth=3,label="14"]
    15 [penwidth=3,label="15"]
    16 [penwidth=3,label="16"]
    17 [penwidth=3,label="17"]
    18 [penwidth=3,label="18"]
    19 [penwidth=3,label="19"]
    20 [penwidth=3,label="20"]
    21 [penwidth=3,label="21"]
    22 [penwidth=3,label="22"]
    23 [penwidth=3,label="23"]
    24 [penwidth=3,label="24"]
    25 [penwidth=3,label="25"]
    26 [penwidth=3,label="26"]
    27 [penwidth=3,label="27"]
    28 [penwidth=3,label="28"]
    29 [penwidth=3,label="29"]
    30 [penwidth=3,label="30"]
    31 [penwidth=3,label="31"]
    32 [penwidth=3,label="32"]
    33 [penwidth=3,label="33"]
    34 [penwidth=3,label="34"]
    35 [penwidth=3,label="35"]
    36 [penwidth=3,label="36"]
    37 [penwidth=3,label="37"]
    38 [penwidth=3,label="38"]
    39 [penwidth=3,label="39"]
    40 [penwidth=3,label="40"]
    41 [penwidth=3,label="41"]
    42 [penwidth=3,label="42"]
    43 [penwidth=3,label="43"]
    44 [penwidth=3,label="44"]
    45 [penwidth=3,label="45"]
    46 [penwidth=3,label="46"]
    47 [penwidth=3,label="47"]
    48 [penwidth=3,label="48"]
    49 [penwidth=3,label="49"]
    50 [penwidth=3,label="50"]
    51 [penwidth=3,label="51"]
    52 [penwidth=3,label="52"]
    53 [penwidth=3,label="53"]
    54 [penwidth=3,label="54"]
    55 [penwidth=3,label="55"]
    56 [penwidth=3,label="56"]
    57 [penwidth=3,label="57"]
    58 [penwidth=3,label="58"]
    59 [penwidth=3,label="59"]
    60 [penwidth=3,label="60"]
    61 [penwidth=3,label="61"]
    62 [penwidth=3,label="62"]
    63 [penwidth=3,label="63"]
    64 [penwidth=3,label="64"]
    65 [penwidth=3,label="65"]
    66 [penwidth=3,label="66"]
    67 [penwidth=3,label="67"]
    68 [penwidth=3,label="68"]
    69 [penwidth=3,label="69"]
    70 [penwidth=3,label="70"]
    71 [penwidth=3,label="71"]
    72 [penwidth=3,label="72"]
    73 [penwidth=3,label="73"]
    74 [penwidth=3,label="74"]
    75 [penwidth=3,label="75"]
    76 [penwidth=3,label="76"]
    77 [penwidth=3,label="77"]
    78 [penwidth=3,label="78"]
    79 [penwidth=3,label="79"]
    80 [penwidth=3,label="80"]
    81 [penwidth=3,label="81"]
    82 [penwidth=3,label="82"]
    83 [penwidth=3,label="83"]
    84 [penwidth=3,label="84"]
    85 [penwidth=3,label="85"]
    86 [penwidth=3,label="86"]
    87 [penwidth=3,label="87"]
    88 [penwidth=3,label="88"]
    89 [penwidth=3,label="89"]
    90 [penwidth=3,label="90"]
    91 [penwidth=3,label="91"]
    92 [penwidth=3,label="92"]
    93 [penwidth=3,label="93"]
    94 [penwidth=3,label="94"]
    95 [penwidth=3,label="95"]
    96 [penwidth=3,label="96"]
    97 [penwidth=3,label="97"]
    98 [penwidth=3,label="98"]
    99 [penwidth=3,label="99"]
    100 [penwidth=3,label="100"]
    101 [penwidth=3,label="101"]
    102 [penwidth=3,label="102"]
    103 [penwidth=3,label="103"]
    104 [penwidth=3,label="104"]
    105 [penwidth=3,label="105"]
    106 [penwidth=3,label="106"]
    107 [penwidth=3,label="107"]
    108 [penwidth=3,label="108"]
    109 [penwidth=3,label="109"]
    110 [penwidth=3,label="110"]
    111 [penwidth=3,label="111"]
    112 [penwidth=3,label="112"]
    113 [penwidth=3,label="113"]
    114 [penwidth=3,label="114"]
    115 [penwidth=3,label="115"]
    116 [penwidth=3,label="116"]
    117 [penwidth=3,label="117"]
    118 [penwidth=3,label="118"]
    119 [penwidth=3,label="119"]
    120 [penwidth=3,label="120"]
    121 [penwidth=3,label="121"]
    122 [penwidth=3,label="122"]
    123 [penwidth=3,label="123"]
    124 [penwidth=3,label="124"]
    125 [penwidth=3,label="125"]
    126 [penwidth=3,label="126"]
    127 [penwidth=3,label="127"]
    128 [penwidth=3,label="128"]
    129 [penwidth=3,label="129"]
    130 [penwidth=3,label="130"]
    131 [penwidth=3,label="131"]
    132 [penwidth=3,label="132"]
    133 [penwidth=3,label="133"]
    134 [penwidth=3,label="134"]
    135 [penwidth=3,label="135"]
    136 [penwidth=3,label="136"]
    137 [penwidth=3,label="137"]
    138 [penwidth=3,label="138"]
    139 [penwidth=3,label="139"]
    140 [penwidth=3,label="140"]
    141 [penwidth=3,label="141"]
    142 [penwidth=3,label="142"]
    143 [penwidth=3,label="143"]
    144 [penwidth=3,label="144"]
    145 [penwidth=3,label="145"]
    146 [penwidth=3,label="146"]
    147 [penwidth=3,label="147"]
    148 [penwidth=3,label="148"]
    149 [penwidth=3,label="149"]
    150 [penwidth=3,label="150"]
    151 [penwidth=3,label="151"]
    152 [penwidth=3,label="152"]
    153 [penwidth=3,label="153"]
    154 [penwidth=3,label="154"]
    155 [penwidth=3,label="155"]
    156 [penwidth=3,label="156"]
    157 [penwidth=3,label="157"]
    158 [penwidth=3,label="158"]
    159 [penwidth=3,label="159"]
    160 [penwidth=3,label="160"]
    161 [penwidth=3,label="161"]
    162 [penwidth=3,label="162"]
    163 [penwidth=3,label="163"]
    164 [penwidth=3,label="164"]
    165 [penwidth=3,label="165"]
    166 [penwidth=3,label="166"]
    167 [penwidth=3,label="167"]
    168 [penwidth=3,label="168"]
    169 [penwidth=3,label="169"]
    170 [penwidth=3,label="170"]
    171 [penwidth=3,label="171"]
    172 [penwidth=3,label="172"]
    173 [penwidth=3,label="173"]
    174 [penwidth=3,label="174"]
    175 [penwidth=3,label="175"]
    176 [penwidth=3,label="176"]
    177 [penwidth=3,label="177"]
    178 [penwidth=3,label="178"]
    179 [penwidth=3,label="179"]
    180 [penwidth=3,label="180"]
    181 [penwidth=3,label="181"]
    182 [penwidth=3,label="182"]
    183 [penwidth=3,label="183"]
    184 [penwidth=3,label="184"]
    185 [penwidth=3,label="185"]
    186 [penwidth=3,label="186"]
    187 [penwidth=3,label="187"]
    188 [penwidth=3,label="188"]
    189 [penwidth=3,label="189"]
    190 [penwidth=3,label="190"]
    191 [penwidth=3,label="191"]
    192 [penwidth=3,label="192"]
    193 [penwidth=3,label="193"]
    194 [penwidth=3,label="194"]
    195 [penwidth=3,label="195"]
    196 [penwidth=3,label="196"]
    197 [penwidth=3,label="197"]
    198 [penwidth=3,label="198"]
    199 [penwidth=3,label="199"]
    200 [penwidth=3,label="200"]
    201 [penwidth=3,label="201"]
    202 [penwidth=3,label="202"]
    203 [penwidth=3,label="203"]
    204 [penwidth=3,label="204"]

    30 -> 0 [penwidth=2]
    198 -> 0 [penwidth=2]
    31 -> 0 [penwidth=2]
    199 -> 0 [penwidth=2]
    32 -> 0 [penwidth=2]
    200 -> 0 [penwidth=2]
    33 -> 0 [penwidth=2]
    201 -> 0 [penwidth=2]
    34 -> 0 [penwidth=2]
    202 -> 30 [penwidth=2]
    35 -> 30 [penwidth=2]
    203 -> 30 [penwidth=2]
    36 -> 30 [penwidth=2]
    204 -> 30 [penwidth=2]
    37 -> 30 [penwidth=2]
    155 -> 30 [penwidth=2]
    38 -> 30 [penwidth=2]
    39 -> 30 [penwidth=2]
    40 -> 30 [penwidth=2]
    41 -> 30 [penwidth=2]
    42 -> 30 [penwidth=2]
    43 -> 30 [penwidth=2]
    44 -> 30 [penwidth=2]
    45 -> 30 [penwidth=2]
    46 -> 30 [penwidth=2]
    47 -> 30 [penwidth=2]
    48 -> 30 [penwidth=2]
    49 -> 30 [penwidth=2]
    50 -> 30 [penwidth=2]
    51 -> 198 [penwidth=2]
    52 -> 198 [penwidth=2]
    53 -> 198 [penwidth=2]
    54 -> 198 [penwidth=2]
    55 -> 198 [penwidth=2]
    56 -> 198 [penwidth=2]
    57 -> 198 [penwidth=2]
    58 -> 31 [penwidth=2]
    59 -> 31 [penwidth=2]
    113 -> 31 [penwidth=2]
    60 -> 31 [penwidth=2]
    61 -> 31 [penwidth=2]
    62 -> 199 [penwidth=2]
    63 -> 199 [penwidth=2]
    64 -> 199 [penwidth=2]
    197 -> 199 [penwidth=2]
    65 -> 199 [penwidth=2]
    66 -> 199 [penwidth=2]
    67 -> 199 [penwidth=2]
    68 -> 199 [penwidth=2]
    69 -> 199 [penwidth=2]
    70 -> 199 [penwidth=2]
    71 -> 199 [penwidth=2]
    72 -> 199 [penwidth=2]
    114 -> 32 [penwidth=2]
    156 -> 32 [penwidth=2]
    73 -> 32 [penwidth=2]
    115 -> 32 [penwidth=2]
    157 -> 32 [penwidth=2]
    74 -> 32 [penwidth=2]
    116 -> 32 [penwidth=2]
    158 -> 32 [penwidth=2]
    75 -> 32 [penwidth=2]
    117 -> 32 [penwidth=2]
    159 -> 32 [penwidth=2]
    76 -> 32 [penwidth=2]
    118 -> 32 [penwidth=2]
    160 -> 32 [penwidth=2]
    77 -> 32 [penwidth=2]
    119 -> 200 [penwidth=2]
    161 -> 200 [penwidth=2]
    78 -> 200 [penwidth=2]
    120 -> 200 [penwidth=2]
    162 -> 200 [penwidth=2]
    79 -> 200 [penwidth=2]
    121 -> 200 [penwidth=2]
    163 -> 200 [penwidth=2]
    80 -> 200 [penwidth=2]
    122 -> 200 [penwidth=2]
    164 -> 33 [penwidth=2]
    81 -> 33 [penwidth=2]
    123 -> 33 [penwidth=2]
    165 -> 33 [penwidth=2]
    82 -> 201 [penwidth=2]
    124 -> 201 [penwidth=2]
    166 -> 201 [penwidth=2]
    83 -> 201 [penwidth=2]
    125 -> 201 [penwidth=2]
    167 -> 201 [penwidth=2]
    84 -> 34 [penwidth=2]
    126 -> 34 [penwidth=2]
    168 -> 34 [penwidth=2]
    1 -> 202 [penwidth=2]
    85 -> 202 [penwidth=2]
    127 -> 202 [penwidth=2]
    169 -> 202 [penwidth=2]
    2 -> 202 [penwidth=2]
    86 -> 202 [penwidth=2]
    128 -> 35 [penwidth=2]
    170 -> 35 [penwidth=2]
    3 -> 35 [penwidth=2]
    87 -> 35 [penwidth=2]
    129 -> 35 [penwidth=2]
    171 -> 35 [penwidth=2]
    4 -> 35 [penwidth=2]
    88 -> 35 [penwidth=2]
    130 -> 35 [penwidth=2]
    172 -> 35 [penwidth=2]
    5 -> 35 [penwidth=2]
    89 -> 35 [penwidth=2]
    131 -> 35 [penwidth=2]
    173 -> 35 [penwidth=2]
    6 -> 35 [penwidth=2]
    90 -> 35 [penwidth=2]
    132 -> 35 [penwidth=2]
    174 -> 35 [penwidth=2]
    7 -> 35 [penwidth=2]
    91 -> 35 [penwidth=2]
    133 -> 35 [penwidth=2]
    175 -> 203 [penwidth=2]
    8 -> 203 [penwidth=2]
    92 -> 203 [penwidth=2]
    134 -> 203 [penwidth=2]
    176 -> 203 [penwidth=2]
    9 -> 203 [penwidth=2]
    93 -> 203 [penwidth=2]
    135 -> 203 [penwidth=2]
    177 -> 36 [penwidth=2]
    10 -> 36 [penwidth=2]
    94 -> 36 [penwidth=2]
    136 -> 204 [penwidth=2]
    178 -> 204 [penwidth=2]
    11 -> 204 [penwidth=2]
    95 -> 37 [penwidth=2]
    137 -> 37 [penwidth=2]
    179 -> 37 [penwidth=2]
    12 -> 37 [penwidth=2]
    96 -> 37 [penwidth=2]
    138 -> 37 [penwidth=2]
    180 -> 37 [penwidth=2]
    13 -> 37 [penwidth=2]
    97 -> 37 [penwidth=2]
    139 -> 37 [penwidth=2]
    181 -> 37 [penwidth=2]
    14 -> 37 [penwidth=2]
    98 -> 155 [penwidth=2]
    140 -> 155 [penwidth=2]
    182 -> 155 [penwidth=2]
    15 -> 155 [penwidth=2]
    99 -> 155 [penwidth=2]
    141 -> 155 [penwidth=2]
    183 -> 155 [penwidth=2]
    16 -> 155 [penwidth=2]
    100 -> 155 [penwidth=2]
    142 -> 155 [penwidth=2]
    184 -> 155 [penwidth=2]
    17 -> 155 [penwidth=2]
    101 -> 155 [penwidth=2]
    143 -> 155 [penwidth=2]
    185 -> 155 [penwidth=2]
    18 -> 155 [penwidth=2]
    102 -> 155 [penwidth=2]
    144 -> 38 [penwidth=2]
    186 -> 38 [penwidth=2]
    19 -> 38 [penwidth=2]
    103 -> 38 [penwidth=2]
    145 -> 38 [penwidth=2]
    187 -> 38 [penwidth=2]
    20 -> 38 [penwidth=2]
    104 -> 38 [penwidth=2]
    146 -> 38 [penwidth=2]
    188 -> 38 [penwidth=2]
    21 -> 38 [penwidth=2]
    105 -> 38 [penwidth=2]
    147 -> 38 [penwidth=2]
    189 -> 39 [penwidth=2]
    22 -> 39 [penwidth=2]
    106 -> 39 [penwidth=2]
    148 -> 39 [penwidth=2]
    190 -> 39 [penwidth=2]
    23 -> 39 [penwidth=2]
    107 -> 39 [penwidth=2]
    149 -> 39 [penwidth=2]
    191 -> 39 [penwidth=2]
    24 -> 40 [penwidth=2]
    108 -> 40 [penwidth=2]
    150 -> 40 [penwidth=2]
    192 -> 40 [penwidth=2]
    25 -> 41 [penwidth=2]
    109 -> 41 [penwidth=2]
    151 -> 41 [penwidth=2]
    193 -> 41 [penwidth=2]
    26 -> 41 [penwidth=2]
    110 -> 42 [penwidth=2]
    152 -> 42 [penwidth=2]
    194 -> 42 [penwidth=2]
    27 -> 42 [penwidth=2]
    111 -> 42 [penwidth=2]
    153 -> 42 [penwidth=2]
    195 -> 42 [penwidth=2]
    28 -> 42 [penwidth=2]
    112 -> 42 [penwidth=2]
    154 -> 42 [penwidth=2]
    196 -> 42 [penwidth=2]
    29 -> 42 [penwidth=2]
    36 -> 201 [penwidth=2]
    36 -> 31 [penwidth=2]
    36 -> 32 [penwidth=2]
    36 -> 199 [penwidth=2]
    36 -> 33 [penwidth=2]
    36 -> 200 [penwidth=2]
    51 -> 199 [penwidth=2]
    56 -> 199 [penwidth=2]
    56 -> 33 [penwidth=2]
    56 -> 32 [penwidth=2]
    56 -> 201 [penwidth=2]
    56 -> 30 [penwidth=2]
    56 -> 34 [penwidth=2]
    56 -> 200 [penwidth=2]
    58 -> 201 [penwidth=2]
    58 -> 200 [penwidth=2]
    58 -> 199 [penwidth=2]
    58 -> 33 [penwidth=2]
    58 -> 34 [penwidth=2]
    59 -> 199 [penwidth=2]
    113 -> 201 [penwidth=2]
    113 -> 30 [penwidth=2]
    113 -> 198 [penwidth=2]
    113 -> 34 [penwidth=2]
    113 -> 199 [penwidth=2]
    113 -> 33 [penwidth=2]
    113 -> 200 [penwidth=2]
    68 -> 201 [penwidth=2]
    68 -> 198 [penwidth=2]
    68 -> 33 [penwidth=2]
    68 -> 30 [penwidth=2]
    68 -> 200 [penwidth=2]
    68 -> 32 [penwidth=2]
    68 -> 34 [penwidth=2]
    156 -> 33 [penwidth=2]
    156 -> 30 [penwidth=2]
    156 -> 200 [penwidth=2]
    156 -> 198 [penwidth=2]
    156 -> 201 [penwidth=2]
    156 -> 31 [penwidth=2]
    161 -> 32 [penwidth=2]
    162 -> 33 [penwidth=2]
    162 -> 30 [penwidth=2]
    162 -> 201 [penwidth=2]
    162 -> 198 [penwidth=2]
    162 -> 34 [penwidth=2]
    162 -> 32 [penwidth=2]
    162 -> 31 [penwidth=2]
    81 -> 32 [penwidth=2]
    167 -> 198 [penwidth=2]
    126 -> 199 [penwidth=2]
    126 -> 31 [penwidth=2]
    126 -> 33 [penwidth=2]
    126 -> 30 [penwidth=2]
    126 -> 201 [penwidth=2]
    126 -> 32 [penwidth=2]
    126 -> 198 [penwidth=2]
    85 -> 61 [penwidth=2]
    85 -> 44 [penwidth=2]
    85 -> 59 [penwidth=2]
    85 -> 55 [penwidth=2]
    85 -> 125 [penwidth=2]
    85 -> 47 [penwidth=2]
    85 -> 67 [penwidth=2]
    85 -> 42 [penwidth=2]
    85 -> 77 [penwidth=2]
    85 -> 39 [penwidth=2]
    85 -> 54 [penwidth=2]
    85 -> 157 [penwidth=2]
    85 -> 70 [penwidth=2]
    85 -> 123 [penwidth=2]
    85 -> 121 [penwidth=2]
    85 -> 46 [penwidth=2]
    85 -> 164 [penwidth=2]
    85 -> 48 [penwidth=2]
    85 -> 160 [penwidth=2]
    85 -> 75 [penwidth=2]
    85 -> 115 [penwidth=2]
    85 -> 53 [penwidth=2]
    85 -> 163 [penwidth=2]
    85 -> 52 [penwidth=2]
    85 -> 159 [penwidth=2]
    85 -> 51 [penwidth=2]
    85 -> 155 [penwidth=2]
    85 -> 71 [penwidth=2]
    85 -> 66 [penwidth=2]
    85 -> 65 [penwidth=2]
    85 -> 49 [penwidth=2]
    85 -> 165 [penwidth=2]
    85 -> 56 [penwidth=2]
    85 -> 119 [penwidth=2]
    85 -> 124 [penwidth=2]
    85 -> 158 [penwidth=2]
    85 -> 113 [penwidth=2]
    85 -> 43 [penwidth=2]
    85 -> 50 [penwidth=2]
    85 -> 57 [penwidth=2]
    85 -> 122 [penwidth=2]
    85 -> 62 [penwidth=2]
    85 -> 35 [penwidth=2]
    85 -> 45 [penwidth=2]
    2 -> 123 [penwidth=2]
    2 -> 55 [penwidth=2]
    2 -> 76 [penwidth=2]
    2 -> 113 [penwidth=2]
    2 -> 118 [penwidth=2]
    2 -> 58 [penwidth=2]
    2 -> 60 [penwidth=2]
    2 -> 116 [penwidth=2]
    2 -> 57 [penwidth=2]
    2 -> 160 [penwidth=2]
    2 -> 37 [penwidth=2]
    2 -> 115 [penwidth=2]
    2 -> 167 [penwidth=2]
    2 -> 158 [penwidth=2]
    2 -> 78 [penwidth=2]
    2 -> 80 [penwidth=2]
    2 -> 68 [penwidth=2]
    2 -> 72 [penwidth=2]
    2 -> 69 [penwidth=2]
    2 -> 59 [penwidth=2]
    2 -> 124 [penwidth=2]
    2 -> 84 [penwidth=2]
    2 -> 65 [penwidth=2]
    2 -> 71 [penwidth=2]
    2 -> 197 [penwidth=2]
    2 -> 121 [penwidth=2]
    2 -> 54 [penwidth=2]
    2 -> 162 [penwidth=2]
    2 -> 45 [penwidth=2]
    2 -> 73 [penwidth=2]
    2 -> 48 [penwidth=2]
    2 -> 157 [penwidth=2]
    2 -> 70 [penwidth=2]
    2 -> 155 [penwidth=2]
    2 -> 161 [penwidth=2]
    2 -> 168 [penwidth=2]
    2 -> 41 [penwidth=2]
    2 -> 122 [penwidth=2]
    2 -> 62 [penwidth=2]
    2 -> 66 [penwidth=2]
    2 -> 83 [penwidth=2]
    2 -> 39 [penwidth=2]
    2 -> 64 [penwidth=2]
    2 -> 77 [penwidth=2]
    2 -> 126 [penwidth=2]
    2 -> 120 [penwidth=2]
    2 -> 47 [penwidth=2]
    2 -> 74 [penwidth=2]
    2 -> 156 [penwidth=2]
    2 -> 49 [penwidth=2]
    2 -> 43 [penwidth=2]
    2 -> 50 [penwidth=2]
    2 -> 63 [penwidth=2]
    2 -> 166 [penwidth=2]
    2 -> 79 [penwidth=2]
    2 -> 125 [penwidth=2]
    2 -> 82 [penwidth=2]
    2 -> 38 [penwidth=2]
    2 -> 81 [penwidth=2]
    2 -> 164 [penwidth=2]
    2 -> 56 [penwidth=2]
    2 -> 67 [penwidth=2]
    2 -> 119 [penwidth=2]
    2 -> 40 [penwidth=2]
    2 -> 44 [penwidth=2]
    2 -> 35 [penwidth=2]
    2 -> 53 [penwidth=2]
    2 -> 52 [penwidth=2]
    2 -> 36 [penwidth=2]
    2 -> 203 [penwidth=2]
    4 -> 49 [penwidth=2]
    4 -> 121 [penwidth=2]
    4 -> 157 [penwidth=2]
    4 -> 53 [penwidth=2]
    4 -> 161 [penwidth=2]
    4 -> 75 [penwidth=2]
    4 -> 123 [penwidth=2]
    4 -> 117 [penwidth=2]
    4 -> 59 [penwidth=2]
    4 -> 115 [penwidth=2]
    4 -> 64 [penwidth=2]
    91 -> 58 [penwidth=2]
    91 -> 203 [penwidth=2]
    91 -> 83 [penwidth=2]
    91 -> 39 [penwidth=2]
    91 -> 64 [penwidth=2]
    91 -> 156 [penwidth=2]
    91 -> 125 [penwidth=2]
    91 -> 54 [penwidth=2]
    91 -> 158 [penwidth=2]
    91 -> 77 [penwidth=2]
    91 -> 59 [penwidth=2]
    91 -> 166 [penwidth=2]
    91 -> 45 [penwidth=2]
    91 -> 82 [penwidth=2]
    91 -> 165 [penwidth=2]
    91 -> 167 [penwidth=2]
    91 -> 121 [penwidth=2]
    91 -> 114 [penwidth=2]
    91 -> 70 [penwidth=2]
    91 -> 60 [penwidth=2]
    134 -> 81 [penwidth=2]
    134 -> 59 [penwidth=2]
    134 -> 71 [penwidth=2]
    134 -> 126 [penwidth=2]
    134 -> 52 [penwidth=2]
    134 -> 163 [penwidth=2]
    134 -> 58 [penwidth=2]
    134 -> 37 [penwidth=2]
    134 -> 51 [penwidth=2]
    134 -> 116 [penwidth=2]
    134 -> 50 [penwidth=2]
    134 -> 42 [penwidth=2]
    134 -> 120 [penwidth=2]
    134 -> 72 [penwidth=2]
    134 -> 79 [penwidth=2]
    134 -> 56 [penwidth=2]
    134 -> 35 [penwidth=2]
    134 -> 48 [penwidth=2]
    134 -> 164 [penwidth=2]
    134 -> 45 [penwidth=2]
    134 -> 75 [penwidth=2]
    134 -> 117 [penwidth=2]
    134 -> 77 [penwidth=2]
    134 -> 202 [penwidth=2]
    134 -> 82 [penwidth=2]
    134 -> 60 [penwidth=2]
    134 -> 168 [penwidth=2]
    134 -> 115 [penwidth=2]
    134 -> 118 [penwidth=2]
    134 -> 167 [penwidth=2]
    134 -> 166 [penwidth=2]
    134 -> 124 [penwidth=2]
    134 -> 119 [penwidth=2]
    134 -> 63 [penwidth=2]
    134 -> 57 [penwidth=2]
    134 -> 54 [penwidth=2]
    134 -> 62 [penwidth=2]
    134 -> 76 [penwidth=2]
    134 -> 114 [penwidth=2]
    134 -> 67 [penwidth=2]
    134 -> 156 [penwidth=2]
    134 -> 47 [penwidth=2]
    93 -> 197 [penwidth=2]
    93 -> 44 [penwidth=2]
    93 -> 65 [penwidth=2]
    93 -> 50 [penwidth=2]
    93 -> 60 [penwidth=2]
    93 -> 126 [penwidth=2]
    93 -> 71 [penwidth=2]
    93 -> 157 [penwidth=2]
    93 -> 77 [penwidth=2]
    93 -> 165 [penwidth=2]
    93 -> 121 [penwidth=2]
    93 -> 204 [penwidth=2]
    93 -> 52 [penwidth=2]
    93 -> 55 [penwidth=2]
    93 -> 41 [penwidth=2]
    93 -> 122 [penwidth=2]
    93 -> 124 [penwidth=2]
    93 -> 68 [penwidth=2]
    93 -> 70 [penwidth=2]
    93 -> 75 [penwidth=2]
    93 -> 58 [penwidth=2]
    93 -> 45 [penwidth=2]
    93 -> 117 [penwidth=2]
    93 -> 61 [penwidth=2]
    93 -> 76 [penwidth=2]
    93 -> 119 [penwidth=2]
    93 -> 56 [penwidth=2]
    93 -> 59 [penwidth=2]
    93 -> 69 [penwidth=2]
    93 -> 43 [penwidth=2]
    93 -> 67 [penwidth=2]
    93 -> 54 [penwidth=2]
    93 -> 74 [penwidth=2]
    93 -> 47 [penwidth=2]
    93 -> 164 [penwidth=2]
    93 -> 84 [penwidth=2]
    93 -> 163 [penwidth=2]
    93 -> 168 [penwidth=2]
    93 -> 114 [penwidth=2]
    93 -> 79 [penwidth=2]
    93 -> 40 [penwidth=2]
    93 -> 118 [penwidth=2]
    93 -> 46 [penwidth=2]
    93 -> 73 [penwidth=2]
    93 -> 160 [penwidth=2]
    93 -> 53 [penwidth=2]
    10 -> 64 [penwidth=2]
    10 -> 78 [penwidth=2]
    10 -> 83 [penwidth=2]
    10 -> 41 [penwidth=2]
    10 -> 80 [penwidth=2]
    10 -> 202 [penwidth=2]
    10 -> 167 [penwidth=2]
    10 -> 81 [penwidth=2]
    10 -> 77 [penwidth=2]
    10 -> 53 [penwidth=2]
    10 -> 47 [penwidth=2]
    10 -> 162 [penwidth=2]
    10 -> 156 [penwidth=2]
    10 -> 197 [penwidth=2]
    10 -> 164 [penwidth=2]
    10 -> 79 [penwidth=2]
    10 -> 63 [penwidth=2]
    10 -> 84 [penwidth=2]
    10 -> 40 [penwidth=2]
    10 -> 121 [penwidth=2]
    10 -> 46 [penwidth=2]
    10 -> 117 [penwidth=2]
    10 -> 160 [penwidth=2]
    10 -> 124 [penwidth=2]
    10 -> 67 [penwidth=2]
    10 -> 43 [penwidth=2]
    10 -> 123 [penwidth=2]
    10 -> 45 [penwidth=2]
    10 -> 42 [penwidth=2]
    10 -> 122 [penwidth=2]
    10 -> 69 [penwidth=2]
    10 -> 70 [penwidth=2]
    10 -> 35 [penwidth=2]
    10 -> 71 [penwidth=2]
    139 -> 79 [penwidth=2]
    139 -> 35 [penwidth=2]
    139 -> 73 [penwidth=2]
    139 -> 162 [penwidth=2]
    139 -> 57 [penwidth=2]
    139 -> 72 [penwidth=2]
    139 -> 76 [penwidth=2]
    139 -> 56 [penwidth=2]
    139 -> 38 [penwidth=2]
    139 -> 48 [penwidth=2]
    139 -> 118 [penwidth=2]
    139 -> 160 [penwidth=2]
    139 -> 71 [penwidth=2]
    17 -> 82 [penwidth=2]
    17 -> 66 [penwidth=2]
    17 -> 80 [penwidth=2]
    17 -> 122 [penwidth=2]
    17 -> 161 [penwidth=2]
    17 -> 119 [penwidth=2]
    17 -> 52 [penwidth=2]
    17 -> 47 [penwidth=2]
    17 -> 114 [penwidth=2]
    17 -> 121 [penwidth=2]
    17 -> 54 [penwidth=2]
    17 -> 163 [penwidth=2]
    17 -> 44 [penwidth=2]
    17 -> 56 [penwidth=2]
    17 -> 58 [penwidth=2]
    17 -> 63 [penwidth=2]
    17 -> 116 [penwidth=2]
    17 -> 124 [penwidth=2]
    17 -> 202 [penwidth=2]
    17 -> 167 [penwidth=2]
    17 -> 60 [penwidth=2]
    17 -> 125 [penwidth=2]
    17 -> 48 [penwidth=2]
    17 -> 162 [penwidth=2]
    17 -> 123 [penwidth=2]
    17 -> 77 [penwidth=2]
    17 -> 39 [penwidth=2]
    17 -> 49 [penwidth=2]
    17 -> 156 [penwidth=2]
    17 -> 36 [penwidth=2]
    17 -> 37 [penwidth=2]
    17 -> 62 [penwidth=2]
    17 -> 159 [penwidth=2]
    17 -> 71 [penwidth=2]
    17 -> 67 [penwidth=2]
    17 -> 197 [penwidth=2]
    17 -> 46 [penwidth=2]
    17 -> 79 [penwidth=2]
    17 -> 59 [penwidth=2]
    17 -> 69 [penwidth=2]
    17 -> 203 [penwidth=2]
    17 -> 83 [penwidth=2]
    17 -> 126 [penwidth=2]
    17 -> 117 [penwidth=2]
    17 -> 72 [penwidth=2]
    17 -> 78 [penwidth=2]
    17 -> 75 [penwidth=2]
    17 -> 45 [penwidth=2]
    17 -> 120 [penwidth=2]
    144 -> 67 [penwidth=2]
    144 -> 40 [penwidth=2]
    144 -> 68 [penwidth=2]
    144 -> 162 [penwidth=2]
    144 -> 157 [penwidth=2]
    19 -> 122 [penwidth=2]
    19 -> 61 [penwidth=2]
    19 -> 113 [penwidth=2]
    19 -> 72 [penwidth=2]
    19 -> 157 [penwidth=2]
    19 -> 35 [penwidth=2]
    19 -> 66 [penwidth=2]
    19 -> 165 [penwidth=2]
    19 -> 162 [penwidth=2]
    19 -> 126 [penwidth=2]
    19 -> 168 [penwidth=2]
    19 -> 44 [penwidth=2]
    19 -> 37 [penwidth=2]
    19 -> 75 [penwidth=2]
    19 -> 118 [penwidth=2]
    19 -> 167 [penwidth=2]
    19 -> 71 [penwidth=2]
    19 -> 84 [penwidth=2]
    19 -> 125 [penwidth=2]
    19 -> 80 [penwidth=2]
    19 -> 114 [penwidth=2]
    19 -> 81 [penwidth=2]
    19 -> 123 [penwidth=2]
    19 -> 83 [penwidth=2]
    19 -> 70 [penwidth=2]
    19 -> 67 [penwidth=2]
    19 -> 64 [penwidth=2]
    19 -> 161 [penwidth=2]
    19 -> 36 [penwidth=2]
    19 -> 45 [penwidth=2]
    19 -> 124 [penwidth=2]
    19 -> 50 [penwidth=2]
    19 -> 65 [penwidth=2]
    19 -> 160 [penwidth=2]
    19 -> 57 [penwidth=2]
    19 -> 43 [penwidth=2]
    19 -> 68 [penwidth=2]
    19 -> 155 [penwidth=2]
    19 -> 76 [penwidth=2]
    19 -> 166 [penwidth=2]
    19 -> 59 [penwidth=2]
    19 -> 69 [penwidth=2]
    19 -> 63 [penwidth=2]
    19 -> 202 [penwidth=2]
    19 -> 156 [penwidth=2]
    19 -> 203 [penwidth=2]
    19 -> 60 [penwidth=2]
    19 -> 49 [penwidth=2]
    19 -> 74 [penwidth=2]
    19 -> 164 [penwidth=2]
    19 -> 46 [penwidth=2]
    19 -> 204 [penwidth=2]
    19 -> 159 [penwidth=2]
    19 -> 78 [penwidth=2]
    19 -> 54 [penwidth=2]
    19 -> 158 [penwidth=2]
    195 -> 74 [penwidth=2]
    195 -> 158 [penwidth=2]
    195 -> 45 [penwidth=2]
    195 -> 204 [penwidth=2]
    195 -> 80 [penwidth=2]
    195 -> 56 [penwidth=2]
    195 -> 72 [penwidth=2]
    195 -> 162 [penwidth=2]
    195 -> 155 [penwidth=2]
    195 -> 52 [penwidth=2]
    195 -> 167 [penwidth=2]
    195 -> 124 [penwidth=2]
    195 -> 164 [penwidth=2]
    195 -> 123 [penwidth=2]
    195 -> 70 [penwidth=2]
    195 -> 58 [penwidth=2]
    195 -> 46 [penwidth=2]
    195 -> 68 [penwidth=2]
    195 -> 35 [penwidth=2]
    195 -> 160 [penwidth=2]
    195 -> 63 [penwidth=2]
    195 -> 78 [penwidth=2]
    195 -> 43 [penwidth=2]
    195 -> 166 [penwidth=2]
    195 -> 66 [penwidth=2]
    195 -> 168 [penwidth=2]
    195 -> 83 [penwidth=2]
    195 -> 117 [penwidth=2]
    195 -> 71 [penwidth=2]
    195 -> 48 [penwidth=2]
    195 -> 50 [penwidth=2]
    195 -> 121 [penwidth=2]
    195 -> 44 [penwidth=2]
    195 -> 163 [penwidth=2]
    195 -> 165 [penwidth=2]
    195 -> 59 [penwidth=2]
    195 -> 38 [penwidth=2]
    195 -> 69 [penwidth=2]
    195 -> 75 [penwidth=2]
    195 -> 60 [penwidth=2]
    195 -> 119 [penwidth=2]
    195 -> 113 [penwidth=2]
    195 -> 82 [penwidth=2]
    195 -> 41 [penwidth=2]
    195 -> 53 [penwidth=2]
    195 -> 157 [penwidth=2]
    195 -> 61 [penwidth=2]
    195 -> 203 [penwidth=2]
    195 -> 36 [penwidth=2]
    195 -> 76 [penwidth=2]
    195 -> 37 [penwidth=2]
    195 -> 62 [penwidth=2]
    195 -> 81 [penwidth=2]
    195 -> 54 [penwidth=2]
    195 -> 202 [penwidth=2]
    195 -> 47 [penwidth=2]
    195 -> 156 [penwidth=2]
    195 -> 114 [penwidth=2]
    195 -> 55 [penwidth=2]
    195 -> 197 [penwidth=2]
    195 -> 65 [penwidth=2]
    195 -> 40 [penwidth=2]
    195 -> 67 [penwidth=2]
    195 -> 39 [penwidth=2]
    195 -> 79 [penwidth=2]
    195 -> 77 [penwidth=2]
    195 -> 118 [penwidth=2]
    195 -> 161 [penwidth=2]
    195 -> 125 [penwidth=2]
    195 -> 84 [penwidth=2]
    195 -> 120 [penwidth=2]
    195 -> 116 [penwidth=2]
    195 -> 51 [penwidth=2]
    195 -> 64 [penwidth=2]
    195 -> 159 [penwidth=2]
    195 -> 126 [penwidth=2]
    195 -> 115 [penwidth=2]
}