digraph G {
    0 [penwidth=3,label="0"]
    1 [penwidth=3,label="1"]
    2 [penwidth=3,label="2"]
    3 [penwidth=3,label="3"]
    4 [penwidth=3,label="4"]
    5 [penwidth=3,label="5"]
    6 [penwidth=3,label="6"]
    7 [penwidth=3,label="7"]
    8 [penwidth=3,label="8"]
    9 [penwidth=3,label="9"]
    10 [penwidth=3,label="10"]
    11 [penwidth=3,label="11"]
    12 [penwidth=3,label="12"]
    13 [penwidth=3,label="13"]
    14 [penwidth=3,label="14"]
    15 [penwidth=3,label="15"]
    16 [penwidth=3,label="16"]
    17 [penwidth=3,label="17"]
    18 [penwidth=3,label="18"]
    19 [penwidth=3,label="19"]
    20 [penwidth=3,label="20"]
    21 [penwidth=3,label="21"]
    22 [penwidth=3,label="22"]
    23 [penwidth=3,label="23"]
    24 [penwidth=3,label="24"]
    25 [penwidth=3,label="25"]
    26 [penwidth=3,label="26"]
    27 [penwidth=3,label="27"]
    28 [penwidth=3,label="28"]
    29 [penwidth=3,label="29"]
    30 [penwidth=3,label="30"]
    31 [penwidth=3,label="31"]
    32 [penwidth=3,label="32"]
    33 [penwidth=3,label="33"]
    34 [penwidth=3,label="34"]
    35 [penwidth=3,label="35"]
    36 [penwidth=3,label="36"]
    37 [penwidth=3,label="37"]
    38 [penwidth=3,label="38"]
    39 [penwidth=3,label="39"]
    40 [penwidth=3,label="40"]
    41 [penwidth=3,label="41"]
    42 [penwidth=3,label="42"]
    43 [penwidth=3,label="43"]
    44 [penwidth=3,label="44"]
    45 [penwidth=3,label="45"]
    46 [penwidth=3,label="46"]
    47 [penwidth=3,label="47"]
    48 [penwidth=3,label="48"]
    49 [penwidth=3,label="49"]
    50 [penwidth=3,label="50"]
    51 [penwidth=3,label="51"]
    52 [penwidth=3,label="52"]
    53 [penwidth=3,label="53"]
    54 [penwidth=3,label="54"]
    55 [penwidth=3,label="55"]
    56 [penwidth=3,label="56"]
    57 [penwidth=3,label="57"]
    58 [penwidth=3,label="58"]
    59 [penwidth=3,label="59"]
    60 [penwidth=3,label="60"]
    61 [penwidth=3,label="61"]
    62 [penwidth=3,label="62"]
    63 [penwidth=3,label="63"]
    64 [penwidth=3,label="64"]
    65 [penwidth=3,label="65"]
    66 [penwidth=3,label="66"]
    67 [penwidth=3,label="67"]
    68 [penwidth=3,label="68"]
    69 [penwidth=3,label="69"]
    70 [penwidth=3,label="70"]
    71 [penwidth=3,label="71"]
    72 [penwidth=3,label="72"]
    73 [penwidth=3,label="73"]
    74 [penwidth=3,label="74"]
    75 [penwidth=3,label="75"]
    76 [penwidth=3,label="76"]
    77 [penwidth=3,label="77"]
    78 [penwidth=3,label="78"]
    79 [penwidth=3,label="79"]
    80 [penwidth=3,label="80"]
    81 [penwidth=3,label="81"]
    82 [penwidth=3,label="82"]
    83 [penwidth=3,label="83"]
    84 [penwidth=3,label="84"]
    85 [penwidth=3,label="85"]
    86 [penwidth=3,label="86"]
    87 [penwidth=3,label="87"]
    88 [penwidth=3,label="88"]
    89 [penwidth=3,label="89"]
    90 [penwidth=3,label="90"]
    91 [penwidth=3,label="91"]
    92 [penwidth=3,label="92"]
    93 [penwidth=3,label="93"]
    94 [penwidth=3,label="94"]
    95 [penwidth=3,label="95"]
    96 [penwidth=3,label="96"]
    97 [penwidth=3,label="97"]
    98 [penwidth=3,label="98"]
    99 [penwidth=3,label="99"]
    100 [penwidth=3,label="100"]
    101 [penwidth=3,label="101"]
    102 [penwidth=3,label="102"]
    103 [penwidth=3,label="103"]
    104 [penwidth=3,label="104"]
    105 [penwidth=3,label="105"]
    106 [penwidth=3,label="106"]
    107 [penwidth=3,label="107"]
    108 [penwidth=3,label="108"]
    109 [penwidth=3,label="109"]
    110 [penwidth=3,label="110"]
    111 [penwidth=3,label="111"]
    112 [penwidth=3,label="112"]
    113 [penwidth=3,label="113"]
    114 [penwidth=3,label="114"]
    115 [penwidth=3,label="115"]
    116 [penwidth=3,label="116"]
    117 [penwidth=3,label="117"]
    118 [penwidth=3,label="118"]
    119 [penwidth=3,label="119"]
    120 [penwidth=3,label="120"]
    121 [penwidth=3,label="121"]
    122 [penwidth=3,label="122"]
    123 [penwidth=3,label="123"]
    124 [penwidth=3,label="124"]
    125 [penwidth=3,label="125"]
    126 [penwidth=3,label="126"]
    127 [penwidth=3,label="127"]
    128 [penwidth=3,label="128"]
    129 [penwidth=3,label="129"]
    130 [penwidth=3,label="130"]
    131 [penwidth=3,label="131"]
    132 [penwidth=3,label="132"]
    133 [penwidth=3,label="133"]
    134 [penwidth=3,label="134"]
    135 [penwidth=3,label="135"]
    136 [penwidth=3,label="136"]
    137 [penwidth=3,label="137"]
    138 [penwidth=3,label="138"]
    139 [penwidth=3,label="139"]
    140 [penwidth=3,label="140"]
    141 [penwidth=3,label="141"]
    142 [penwidth=3,label="142"]
    143 [penwidth=3,label="143"]
    144 [penwidth=3,label="144"]
    145 [penwidth=3,label="145"]
    146 [penwidth=3,label="146"]
    147 [penwidth=3,label="147"]
    148 [penwidth=3,label="148"]
    149 [penwidth=3,label="149"]
    150 [penwidth=3,label="150"]
    151 [penwidth=3,label="151"]
    152 [penwidth=3,label="152"]
    153 [penwidth=3,label="153"]
    154 [penwidth=3,label="154"]
    155 [penwidth=3,label="155"]
    156 [penwidth=3,label="156"]
    157 [penwidth=3,label="157"]
    158 [penwidth=3,label="158"]
    159 [penwidth=3,label="159"]
    160 [penwidth=3,label="160"]
    161 [penwidth=3,label="161"]
    162 [penwidth=3,label="162"]
    163 [penwidth=3,label="163"]
    164 [penwidth=3,label="164"]
    165 [penwidth=3,label="165"]
    166 [penwidth=3,label="166"]
    167 [penwidth=3,label="167"]
    168 [penwidth=3,label="168"]
    169 [penwidth=3,label="169"]
    170 [penwidth=3,label="170"]
    171 [penwidth=3,label="171"]
    172 [penwidth=3,label="172"]
    173 [penwidth=3,label="173"]
    174 [penwidth=3,label="174"]
    175 [penwidth=3,label="175"]
    176 [penwidth=3,label="176"]
    177 [penwidth=3,label="177"]
    178 [penwidth=3,label="178"]
    179 [penwidth=3,label="179"]
    180 [penwidth=3,label="180"]
    181 [penwidth=3,label="181"]
    182 [penwidth=3,label="182"]
    183 [penwidth=3,label="183"]
    184 [penwidth=3,label="184"]
    185 [penwidth=3,label="185"]
    186 [penwidth=3,label="186"]
    187 [penwidth=3,label="187"]
    188 [penwidth=3,label="188"]
    189 [penwidth=3,label="189"]
    190 [penwidth=3,label="190"]
    191 [penwidth=3,label="191"]
    192 [penwidth=3,label="192"]
    193 [penwidth=3,label="193"]
    194 [penwidth=3,label="194"]
    195 [penwidth=3,label="195"]
    196 [penwidth=3,label="196"]
    197 [penwidth=3,label="197"]
    198 [penwidth=3,label="198"]
    199 [penwidth=3,label="199"]
    200 [penwidth=3,label="200"]
    201 [penwidth=3,label="201"]
    202 [penwidth=3,label="202"]
    203 [penwidth=3,label="203"]
    204 [penwidth=3,label="204"]

    80 -> 0 [penwidth=2]
    122 -> 0 [penwidth=2]
    165 -> 0 [penwidth=2]
    164 -> 0 [penwidth=2]
    81 -> 0 [penwidth=2]
    123 -> 0 [penwidth=2]
    82 -> 122 [penwidth=2]
    124 -> 122 [penwidth=2]
    170 -> 122 [penwidth=2]
    166 -> 122 [penwidth=2]
    83 -> 122 [penwidth=2]
    125 -> 122 [penwidth=2]
    84 -> 122 [penwidth=2]
    126 -> 122 [penwidth=2]
    177 -> 122 [penwidth=2]
    78 -> 122 [penwidth=2]
    85 -> 122 [penwidth=2]
    127 -> 122 [penwidth=2]
    178 -> 122 [penwidth=2]
    86 -> 122 [penwidth=2]
    128 -> 122 [penwidth=2]
    179 -> 122 [penwidth=2]
    87 -> 122 [penwidth=2]
    129 -> 122 [penwidth=2]
    180 -> 122 [penwidth=2]
    88 -> 122 [penwidth=2]
    130 -> 122 [penwidth=2]
    89 -> 165 [penwidth=2]
    131 -> 165 [penwidth=2]
    181 -> 165 [penwidth=2]
    169 -> 165 [penwidth=2]
    79 -> 165 [penwidth=2]
    90 -> 165 [penwidth=2]
    132 -> 165 [penwidth=2]
    91 -> 165 [penwidth=2]
    133 -> 165 [penwidth=2]
    182 -> 165 [penwidth=2]
    168 -> 165 [penwidth=2]
    92 -> 165 [penwidth=2]
    134 -> 165 [penwidth=2]
    93 -> 165 [penwidth=2]
    135 -> 165 [penwidth=2]
    183 -> 165 [penwidth=2]
    167 -> 165 [penwidth=2]
    94 -> 165 [penwidth=2]
    136 -> 165 [penwidth=2]
    184 -> 165 [penwidth=2]
    95 -> 165 [penwidth=2]
    137 -> 165 [penwidth=2]
    185 -> 164 [penwidth=2]
    96 -> 164 [penwidth=2]
    138 -> 164 [penwidth=2]
    186 -> 164 [penwidth=2]
    97 -> 164 [penwidth=2]
    139 -> 164 [penwidth=2]
    187 -> 164 [penwidth=2]
    98 -> 164 [penwidth=2]
    140 -> 164 [penwidth=2]
    188 -> 164 [penwidth=2]
    99 -> 164 [penwidth=2]
    141 -> 164 [penwidth=2]
    189 -> 164 [penwidth=2]
    100 -> 164 [penwidth=2]
    142 -> 164 [penwidth=2]
    190 -> 164 [penwidth=2]
    101 -> 164 [penwidth=2]
    143 -> 164 [penwidth=2]
    191 -> 164 [penwidth=2]
    102 -> 164 [penwidth=2]
    144 -> 164 [penwidth=2]
    192 -> 164 [penwidth=2]
    103 -> 164 [penwidth=2]
    145 -> 164 [penwidth=2]
    193 -> 81 [penwidth=2]
    104 -> 81 [penwidth=2]
    146 -> 123 [penwidth=2]
    174 -> 123 [penwidth=2]
    105 -> 123 [penwidth=2]
    147 -> 123 [penwidth=2]
    194 -> 123 [penwidth=2]
    106 -> 123 [penwidth=2]
    148 -> 123 [penwidth=2]
    173 -> 123 [penwidth=2]
    107 -> 123 [penwidth=2]
    149 -> 123 [penwidth=2]
    195 -> 123 [penwidth=2]
    108 -> 123 [penwidth=2]
    150 -> 123 [penwidth=2]
    172 -> 123 [penwidth=2]
    109 -> 123 [penwidth=2]
    151 -> 123 [penwidth=2]
    196 -> 123 [penwidth=2]
    110 -> 123 [penwidth=2]
    152 -> 123 [penwidth=2]
    171 -> 123 [penwidth=2]
    111 -> 123 [penwidth=2]
    153 -> 123 [penwidth=2]
    197 -> 123 [penwidth=2]
    112 -> 123 [penwidth=2]
    154 -> 82 [penwidth=2]
    198 -> 82 [penwidth=2]
    113 -> 82 [penwidth=2]
    155 -> 82 [penwidth=2]
    199 -> 82 [penwidth=2]
    114 -> 82 [penwidth=2]
    156 -> 82 [penwidth=2]
    200 -> 82 [penwidth=2]
    115 -> 82 [penwidth=2]
    157 -> 82 [penwidth=2]
    201 -> 82 [penwidth=2]
    116 -> 82 [penwidth=2]
    158 -> 82 [penwidth=2]
    202 -> 82 [penwidth=2]
    117 -> 82 [penwidth=2]
    159 -> 82 [penwidth=2]
    203 -> 82 [penwidth=2]
    118 -> 82 [penwidth=2]
    160 -> 82 [penwidth=2]
    176 -> 82 [penwidth=2]
    119 -> 124 [penwidth=2]
    161 -> 124 [penwidth=2]
    204 -> 124 [penwidth=2]
    120 -> 124 [penwidth=2]
    162 -> 124 [penwidth=2]
    175 -> 124 [penwidth=2]
    121 -> 124 [penwidth=2]
    163 -> 124 [penwidth=2]
    38 -> 124 [penwidth=2]
    39 -> 124 [penwidth=2]
    40 -> 124 [penwidth=2]
    41 -> 124 [penwidth=2]
    42 -> 124 [penwidth=2]
    1 -> 124 [penwidth=2]
    43 -> 124 [penwidth=2]
    2 -> 124 [penwidth=2]
    44 -> 124 [penwidth=2]
    3 -> 124 [penwidth=2]
    45 -> 124 [penwidth=2]
    4 -> 124 [penwidth=2]
    46 -> 124 [penwidth=2]
    5 -> 124 [penwidth=2]
    47 -> 124 [penwidth=2]
    6 -> 124 [penwidth=2]
    48 -> 124 [penwidth=2]
    7 -> 170 [penwidth=2]
    49 -> 170 [penwidth=2]
    8 -> 170 [penwidth=2]
    50 -> 170 [penwidth=2]
    9 -> 170 [penwidth=2]
    51 -> 170 [penwidth=2]
    10 -> 166 [penwidth=2]
    52 -> 166 [penwidth=2]
    11 -> 166 [penwidth=2]
    53 -> 166 [penwidth=2]
    12 -> 166 [penwidth=2]
    54 -> 166 [penwidth=2]
    13 -> 166 [penwidth=2]
    55 -> 166 [penwidth=2]
    14 -> 166 [penwidth=2]
    56 -> 166 [penwidth=2]
    57 -> 166 [penwidth=2]
    15 -> 166 [penwidth=2]
    58 -> 166 [penwidth=2]
    16 -> 166 [penwidth=2]
    17 -> 166 [penwidth=2]
    59 -> 83 [penwidth=2]
    18 -> 83 [penwidth=2]
    60 -> 83 [penwidth=2]
    19 -> 83 [penwidth=2]
    61 -> 83 [penwidth=2]
    20 -> 125 [penwidth=2]
    62 -> 125 [penwidth=2]
    21 -> 125 [penwidth=2]
    63 -> 125 [penwidth=2]
    22 -> 125 [penwidth=2]
    64 -> 125 [penwidth=2]
    23 -> 125 [penwidth=2]
    65 -> 125 [penwidth=2]
    24 -> 125 [penwidth=2]
    66 -> 125 [penwidth=2]
    25 -> 125 [penwidth=2]
    67 -> 125 [penwidth=2]
    26 -> 125 [penwidth=2]
    68 -> 125 [penwidth=2]
    27 -> 125 [penwidth=2]
    69 -> 125 [penwidth=2]
    28 -> 125 [penwidth=2]
    70 -> 125 [penwidth=2]
    29 -> 125 [penwidth=2]
    71 -> 125 [penwidth=2]
    30 -> 125 [penwidth=2]
    72 -> 125 [penwidth=2]
    31 -> 125 [penwidth=2]
    73 -> 125 [penwidth=2]
    32 -> 125 [penwidth=2]
    74 -> 84 [penwidth=2]
    33 -> 126 [penwidth=2]
    75 -> 126 [penwidth=2]
    34 -> 177 [penwidth=2]
    76 -> 177 [penwidth=2]
    35 -> 177 [penwidth=2]
    77 -> 177 [penwidth=2]
    36 -> 177 [penwidth=2]
    37 -> 177 [penwidth=2]
    84 -> 165 [penwidth=2]
    84 -> 81 [penwidth=2]
    131 -> 81 [penwidth=2]
    131 -> 164 [penwidth=2]
    131 -> 123 [penwidth=2]
    131 -> 122 [penwidth=2]
    90 -> 80 [penwidth=2]
    90 -> 81 [penwidth=2]
    90 -> 123 [penwidth=2]
    91 -> 81 [penwidth=2]
    189 -> 123 [penwidth=2]
    189 -> 81 [penwidth=2]
    189 -> 80 [penwidth=2]
    191 -> 80 [penwidth=2]
    191 -> 81 [penwidth=2]
    191 -> 165 [penwidth=2]
    144 -> 123 [penwidth=2]
    104 -> 123 [penwidth=2]
    146 -> 122 [penwidth=2]
    148 -> 164 [penwidth=2]
    148 -> 81 [penwidth=2]
    148 -> 80 [penwidth=2]
    148 -> 165 [penwidth=2]
    152 -> 165 [penwidth=2]
    152 -> 81 [penwidth=2]
    152 -> 164 [penwidth=2]
    152 -> 80 [penwidth=2]
    201 -> 152 [penwidth=2]
    201 -> 146 [penwidth=2]
    201 -> 138 [penwidth=2]
    201 -> 85 [penwidth=2]
    201 -> 173 [penwidth=2]
    120 -> 126 [penwidth=2]
    120 -> 177 [penwidth=2]
    120 -> 130 [penwidth=2]
    120 -> 144 [penwidth=2]
    120 -> 86 [penwidth=2]
    120 -> 79 [penwidth=2]
    120 -> 184 [penwidth=2]
    120 -> 94 [penwidth=2]
    120 -> 136 [penwidth=2]
    120 -> 109 [penwidth=2]
    120 -> 139 [penwidth=2]
    120 -> 82 [penwidth=2]
    120 -> 92 [penwidth=2]
    120 -> 84 [penwidth=2]
    120 -> 178 [penwidth=2]
    120 -> 99 [penwidth=2]
    120 -> 110 [penwidth=2]
    120 -> 127 [penwidth=2]
    120 -> 102 [penwidth=2]
    120 -> 151 [penwidth=2]
    120 -> 190 [penwidth=2]
    120 -> 180 [penwidth=2]
    120 -> 135 [penwidth=2]
    120 -> 172 [penwidth=2]
    120 -> 171 [penwidth=2]
    120 -> 138 [penwidth=2]
    120 -> 197 [penwidth=2]
    120 -> 112 [penwidth=2]
    120 -> 103 [penwidth=2]
    120 -> 148 [penwidth=2]
    120 -> 95 [penwidth=2]
    120 -> 193 [penwidth=2]
    120 -> 104 [penwidth=2]
    120 -> 128 [penwidth=2]
    120 -> 196 [penwidth=2]
    120 -> 132 [penwidth=2]
    120 -> 166 [penwidth=2]
    120 -> 183 [penwidth=2]
    120 -> 173 [penwidth=2]
    120 -> 98 [penwidth=2]
    120 -> 145 [penwidth=2]
    120 -> 195 [penwidth=2]
    120 -> 88 [penwidth=2]
    120 -> 108 [penwidth=2]
    120 -> 111 [penwidth=2]
    120 -> 97 [penwidth=2]
    120 -> 186 [penwidth=2]
    120 -> 181 [penwidth=2]
    120 -> 129 [penwidth=2]
    120 -> 143 [penwidth=2]
    120 -> 194 [penwidth=2]
    120 -> 134 [penwidth=2]
    120 -> 152 [penwidth=2]
    120 -> 133 [penwidth=2]
    120 -> 78 [penwidth=2]
    120 -> 187 [penwidth=2]
    120 -> 131 [penwidth=2]
    120 -> 106 [penwidth=2]
    120 -> 89 [penwidth=2]
    120 -> 93 [penwidth=2]
    120 -> 192 [penwidth=2]
    120 -> 189 [penwidth=2]
    120 -> 85 [penwidth=2]
    120 -> 149 [penwidth=2]
    120 -> 96 [penwidth=2]
    120 -> 125 [penwidth=2]
    120 -> 142 [penwidth=2]
    120 -> 169 [penwidth=2]
    120 -> 188 [penwidth=2]
    120 -> 105 [penwidth=2]
    120 -> 179 [penwidth=2]
    120 -> 87 [penwidth=2]
    120 -> 141 [penwidth=2]
    43 -> 108 [penwidth=2]
    43 -> 189 [penwidth=2]
    43 -> 107 [penwidth=2]
    43 -> 145 [penwidth=2]
    43 -> 144 [penwidth=2]
    43 -> 104 [penwidth=2]
    43 -> 172 [penwidth=2]
    43 -> 98 [penwidth=2]
    43 -> 183 [penwidth=2]
    43 -> 94 [penwidth=2]
    43 -> 185 [penwidth=2]
    43 -> 99 [penwidth=2]
    43 -> 150 [penwidth=2]
    43 -> 90 [penwidth=2]
    43 -> 195 [penwidth=2]
    43 -> 128 [penwidth=2]
    43 -> 111 [penwidth=2]
    43 -> 109 [penwidth=2]
    43 -> 87 [penwidth=2]
    43 -> 110 [penwidth=2]
    43 -> 188 [penwidth=2]
    43 -> 136 [penwidth=2]
    43 -> 85 [penwidth=2]
    43 -> 138 [penwidth=2]
    43 -> 190 [penwidth=2]
    43 -> 82 [penwidth=2]
    43 -> 173 [penwidth=2]
    43 -> 196 [penwidth=2]
    43 -> 174 [penwidth=2]
    43 -> 112 [penwidth=2]
    43 -> 148 [penwidth=2]
    43 -> 102 [penwidth=2]
    43 -> 179 [penwidth=2]
    43 -> 197 [penwidth=2]
    43 -> 137 [penwidth=2]
    43 -> 83 [penwidth=2]
    43 -> 141 [penwidth=2]
    43 -> 182 [penwidth=2]
    43 -> 79 [penwidth=2]
    43 -> 178 [penwidth=2]
    43 -> 152 [penwidth=2]
    43 -> 170 [penwidth=2]
    43 -> 166 [penwidth=2]
    43 -> 92 [penwidth=2]
    43 -> 184 [penwidth=2]
    43 -> 134 [penwidth=2]
    43 -> 180 [penwidth=2]
    43 -> 151 [penwidth=2]
    43 -> 78 [penwidth=2]
    5 -> 132 [penwidth=2]
    5 -> 180 [penwidth=2]
    5 -> 185 [penwidth=2]
    5 -> 96 [penwidth=2]
    5 -> 104 [penwidth=2]
    5 -> 106 [penwidth=2]
    5 -> 135 [penwidth=2]
    5 -> 90 [penwidth=2]
    5 -> 136 [penwidth=2]
    5 -> 137 [penwidth=2]
    5 -> 152 [penwidth=2]
    5 -> 107 [penwidth=2]
    5 -> 126 [penwidth=2]
    5 -> 179 [penwidth=2]
    5 -> 98 [penwidth=2]
    5 -> 172 [penwidth=2]
    5 -> 151 [penwidth=2]
    5 -> 100 [penwidth=2]
    5 -> 150 [penwidth=2]
    5 -> 97 [penwidth=2]
    5 -> 110 [penwidth=2]
    5 -> 189 [penwidth=2]
    5 -> 184 [penwidth=2]
    5 -> 89 [penwidth=2]
    5 -> 109 [penwidth=2]
    5 -> 143 [penwidth=2]
    5 -> 82 [penwidth=2]
    5 -> 178 [penwidth=2]
    5 -> 145 [penwidth=2]
    5 -> 91 [penwidth=2]
    5 -> 86 [penwidth=2]
    5 -> 191 [penwidth=2]
    5 -> 187 [penwidth=2]
    5 -> 128 [penwidth=2]
    5 -> 139 [penwidth=2]
    5 -> 102 [penwidth=2]
    5 -> 131 [penwidth=2]
    5 -> 130 [penwidth=2]
    5 -> 83 [penwidth=2]
    5 -> 112 [penwidth=2]
    5 -> 99 [penwidth=2]
    5 -> 79 [penwidth=2]
    5 -> 177 [penwidth=2]
    5 -> 93 [penwidth=2]
    5 -> 85 [penwidth=2]
    5 -> 138 [penwidth=2]
    5 -> 194 [penwidth=2]
    5 -> 166 [penwidth=2]
    5 -> 140 [penwidth=2]
    5 -> 129 [penwidth=2]
    5 -> 95 [penwidth=2]
    5 -> 148 [penwidth=2]
    5 -> 190 [penwidth=2]
    5 -> 171 [penwidth=2]
    5 -> 170 [penwidth=2]
    5 -> 195 [penwidth=2]
    5 -> 84 [penwidth=2]
    5 -> 105 [penwidth=2]
    5 -> 133 [penwidth=2]
    5 -> 127 [penwidth=2]
    5 -> 141 [penwidth=2]
    5 -> 174 [penwidth=2]
    51 -> 197 [penwidth=2]
    51 -> 193 [penwidth=2]
    51 -> 92 [penwidth=2]
    51 -> 148 [penwidth=2]
    51 -> 186 [penwidth=2]
    51 -> 187 [penwidth=2]
    51 -> 131 [penwidth=2]
    51 -> 166 [penwidth=2]
    51 -> 195 [penwidth=2]
    51 -> 100 [penwidth=2]
    51 -> 136 [penwidth=2]
    51 -> 182 [penwidth=2]
    51 -> 144 [penwidth=2]
    51 -> 174 [penwidth=2]
    51 -> 153 [penwidth=2]
    51 -> 127 [penwidth=2]
    51 -> 94 [penwidth=2]
    51 -> 168 [penwidth=2]
    51 -> 126 [penwidth=2]
    51 -> 86 [penwidth=2]
    51 -> 178 [penwidth=2]
    51 -> 84 [penwidth=2]
    51 -> 172 [penwidth=2]
    51 -> 129 [penwidth=2]
    51 -> 135 [penwidth=2]
    51 -> 132 [penwidth=2]
    51 -> 138 [penwidth=2]
    51 -> 97 [penwidth=2]
    51 -> 106 [penwidth=2]
    51 -> 171 [penwidth=2]
    51 -> 125 [penwidth=2]
    51 -> 96 [penwidth=2]
    51 -> 109 [penwidth=2]
    51 -> 137 [penwidth=2]
    51 -> 124 [penwidth=2]
    51 -> 90 [penwidth=2]
    51 -> 88 [penwidth=2]
    51 -> 152 [penwidth=2]
    51 -> 85 [penwidth=2]
    51 -> 133 [penwidth=2]
    51 -> 141 [penwidth=2]
    51 -> 140 [penwidth=2]
    51 -> 188 [penwidth=2]
    51 -> 93 [penwidth=2]
    51 -> 78 [penwidth=2]
    51 -> 111 [penwidth=2]
    51 -> 108 [penwidth=2]
    51 -> 196 [penwidth=2]
    51 -> 151 [penwidth=2]
    51 -> 98 [penwidth=2]
    51 -> 139 [penwidth=2]
    51 -> 112 [penwidth=2]
    51 -> 95 [penwidth=2]
    51 -> 181 [penwidth=2]
    13 -> 151 [penwidth=2]
    13 -> 125 [penwidth=2]
    13 -> 195 [penwidth=2]
    13 -> 99 [penwidth=2]
    13 -> 141 [penwidth=2]
    13 -> 172 [penwidth=2]
    13 -> 139 [penwidth=2]
    13 -> 105 [penwidth=2]
    13 -> 129 [penwidth=2]
    13 -> 174 [penwidth=2]
    13 -> 150 [penwidth=2]
    13 -> 89 [penwidth=2]
    13 -> 171 [penwidth=2]
    13 -> 144 [penwidth=2]
    13 -> 126 [penwidth=2]
    13 -> 170 [penwidth=2]
    13 -> 178 [penwidth=2]
    13 -> 173 [penwidth=2]
    13 -> 193 [penwidth=2]
    13 -> 142 [penwidth=2]
    13 -> 197 [penwidth=2]
    13 -> 182 [penwidth=2]
    13 -> 84 [penwidth=2]
    13 -> 152 [penwidth=2]
    13 -> 147 [penwidth=2]
    13 -> 140 [penwidth=2]
    13 -> 181 [penwidth=2]
    13 -> 79 [penwidth=2]
    13 -> 168 [penwidth=2]
    13 -> 90 [penwidth=2]
    13 -> 138 [penwidth=2]
    13 -> 196 [penwidth=2]
    13 -> 101 [penwidth=2]
    13 -> 130 [penwidth=2]
    13 -> 111 [penwidth=2]
    13 -> 169 [penwidth=2]
    13 -> 97 [penwidth=2]
    13 -> 180 [penwidth=2]
    13 -> 112 [penwidth=2]
    13 -> 94 [penwidth=2]
    13 -> 134 [penwidth=2]
    13 -> 145 [penwidth=2]
    13 -> 187 [penwidth=2]
    13 -> 136 [penwidth=2]
    13 -> 185 [penwidth=2]
    13 -> 148 [penwidth=2]
    13 -> 189 [penwidth=2]
    55 -> 171 [penwidth=2]
    55 -> 89 [penwidth=2]
    55 -> 178 [penwidth=2]
    55 -> 126 [penwidth=2]
    55 -> 94 [penwidth=2]
    55 -> 125 [penwidth=2]
    55 -> 136 [penwidth=2]
    55 -> 129 [penwidth=2]
    55 -> 103 [penwidth=2]
    55 -> 193 [penwidth=2]
    55 -> 98 [penwidth=2]
    55 -> 145 [penwidth=2]
    55 -> 96 [penwidth=2]
    55 -> 127 [penwidth=2]
    55 -> 148 [penwidth=2]
    55 -> 141 [penwidth=2]
    55 -> 169 [penwidth=2]
    55 -> 185 [penwidth=2]
    55 -> 131 [penwidth=2]
    55 -> 153 [penwidth=2]
    55 -> 110 [penwidth=2]
    55 -> 180 [penwidth=2]
    55 -> 104 [penwidth=2]
    55 -> 192 [penwidth=2]
    55 -> 101 [penwidth=2]
    55 -> 84 [penwidth=2]
    55 -> 167 [penwidth=2]
    55 -> 183 [penwidth=2]
    55 -> 90 [penwidth=2]
    55 -> 108 [penwidth=2]
    55 -> 196 [penwidth=2]
    55 -> 128 [penwidth=2]
    55 -> 146 [penwidth=2]
    55 -> 87 [penwidth=2]
    55 -> 147 [penwidth=2]
    55 -> 133 [penwidth=2]
    55 -> 82 [penwidth=2]
    55 -> 173 [penwidth=2]
    55 -> 130 [penwidth=2]
    55 -> 181 [penwidth=2]
    55 -> 106 [penwidth=2]
    55 -> 189 [penwidth=2]
    55 -> 112 [penwidth=2]
    55 -> 105 [penwidth=2]
    55 -> 188 [penwidth=2]
    55 -> 124 [penwidth=2]
    55 -> 79 [penwidth=2]
    55 -> 107 [penwidth=2]
    55 -> 150 [penwidth=2]
    55 -> 182 [penwidth=2]
    55 -> 144 [penwidth=2]
    55 -> 137 [penwidth=2]
    55 -> 99 [penwidth=2]
    17 -> 82 [penwidth=2]
    17 -> 151 [penwidth=2]
    17 -> 101 [penwidth=2]
    17 -> 107 [penwidth=2]
    17 -> 87 [penwidth=2]
    17 -> 100 [penwidth=2]
    17 -> 181 [penwidth=2]
    17 -> 133 [penwidth=2]
    17 -> 95 [penwidth=2]
    17 -> 188 [penwidth=2]
    17 -> 129 [penwidth=2]
    17 -> 142 [penwidth=2]
    17 -> 184 [penwidth=2]
    17 -> 153 [penwidth=2]
    17 -> 149 [penwidth=2]
    17 -> 168 [penwidth=2]
    17 -> 185 [penwidth=2]
    17 -> 85 [penwidth=2]
    17 -> 83 [penwidth=2]
    17 -> 187 [penwidth=2]
    17 -> 167 [penwidth=2]
    17 -> 183 [penwidth=2]
    17 -> 84 [penwidth=2]
    17 -> 93 [penwidth=2]
    17 -> 112 [penwidth=2]
    17 -> 140 [penwidth=2]
    17 -> 144 [penwidth=2]
    17 -> 139 [penwidth=2]
    17 -> 125 [penwidth=2]
    17 -> 190 [penwidth=2]
    17 -> 169 [penwidth=2]
    17 -> 102 [penwidth=2]
    17 -> 195 [penwidth=2]
    17 -> 127 [penwidth=2]
    17 -> 98 [penwidth=2]
    17 -> 174 [penwidth=2]
    17 -> 90 [penwidth=2]
    17 -> 152 [penwidth=2]
    17 -> 104 [penwidth=2]
    17 -> 182 [penwidth=2]
    17 -> 146 [penwidth=2]
    17 -> 143 [penwidth=2]
    17 -> 172 [penwidth=2]
    17 -> 96 [penwidth=2]
    17 -> 178 [penwidth=2]
    17 -> 88 [penwidth=2]
    17 -> 189 [penwidth=2]
    17 -> 145 [penwidth=2]
    17 -> 179 [penwidth=2]
    17 -> 171 [penwidth=2]
    17 -> 91 [penwidth=2]
    17 -> 150 [penwidth=2]
    17 -> 136 [penwidth=2]
    17 -> 89 [penwidth=2]
    17 -> 197 [penwidth=2]
    17 -> 92 [penwidth=2]
    17 -> 141 [penwidth=2]
    17 -> 86 [penwidth=2]
    17 -> 193 [penwidth=2]
    17 -> 196 [penwidth=2]
    17 -> 105 [penwidth=2]
    17 -> 126 [penwidth=2]
    17 -> 106 [penwidth=2]
    17 -> 134 [penwidth=2]
    17 -> 177 [penwidth=2]
    17 -> 137 [penwidth=2]
    17 -> 94 [penwidth=2]
    17 -> 180 [penwidth=2]
    17 -> 132 [penwidth=2]
    17 -> 191 [penwidth=2]
    17 -> 99 [penwidth=2]
    17 -> 108 [penwidth=2]
    17 -> 130 [penwidth=2]
    17 -> 186 [penwidth=2]
    17 -> 147 [penwidth=2]
    17 -> 97 [penwidth=2]
    17 -> 111 [penwidth=2]
    17 -> 131 [penwidth=2]
    17 -> 170 [penwidth=2]
    17 -> 110 [penwidth=2]
    17 -> 173 [penwidth=2]
    17 -> 194 [penwidth=2]
    17 -> 128 [penwidth=2]
    17 -> 192 [penwidth=2]
    65 -> 177 [penwidth=2]
    65 -> 107 [penwidth=2]
    65 -> 169 [penwidth=2]
    65 -> 93 [penwidth=2]
    65 -> 170 [penwidth=2]
    65 -> 173 [penwidth=2]
    65 -> 89 [penwidth=2]
    65 -> 171 [penwidth=2]
    65 -> 127 [penwidth=2]
    65 -> 140 [penwidth=2]
    65 -> 94 [penwidth=2]
    65 -> 91 [penwidth=2]
    65 -> 166 [penwidth=2]
    65 -> 102 [penwidth=2]
    65 -> 110 [penwidth=2]
    65 -> 90 [penwidth=2]
    65 -> 103 [penwidth=2]
    65 -> 79 [penwidth=2]
    65 -> 111 [penwidth=2]
    65 -> 195 [penwidth=2]
    65 -> 186 [penwidth=2]
    68 -> 182 [penwidth=2]
    68 -> 179 [penwidth=2]
    68 -> 168 [penwidth=2]
    68 -> 112 [penwidth=2]
    68 -> 192 [penwidth=2]
    68 -> 136 [penwidth=2]
    68 -> 191 [penwidth=2]
    68 -> 190 [penwidth=2]
    68 -> 126 [penwidth=2]
    68 -> 143 [penwidth=2]
    68 -> 127 [penwidth=2]
    68 -> 91 [penwidth=2]
    68 -> 107 [penwidth=2]
    68 -> 99 [penwidth=2]
    68 -> 172 [penwidth=2]
    68 -> 197 [penwidth=2]
    68 -> 88 [penwidth=2]
    68 -> 108 [penwidth=2]
    68 -> 144 [penwidth=2]
    68 -> 98 [penwidth=2]
    68 -> 146 [penwidth=2]
    68 -> 133 [penwidth=2]
    68 -> 150 [penwidth=2]
    68 -> 177 [penwidth=2]
    68 -> 196 [penwidth=2]
    68 -> 124 [penwidth=2]
    68 -> 169 [penwidth=2]
    68 -> 140 [penwidth=2]
    68 -> 82 [penwidth=2]
    68 -> 95 [penwidth=2]
    68 -> 89 [penwidth=2]
    68 -> 90 [penwidth=2]
    68 -> 193 [penwidth=2]
    68 -> 86 [penwidth=2]
    68 -> 135 [penwidth=2]
    68 -> 167 [penwidth=2]
    68 -> 134 [penwidth=2]
    68 -> 131 [penwidth=2]
    68 -> 181 [penwidth=2]
    68 -> 195 [penwidth=2]
    68 -> 94 [penwidth=2]
    68 -> 151 [penwidth=2]
    68 -> 166 [penwidth=2]
    68 -> 97 [penwidth=2]
    68 -> 186 [penwidth=2]
    68 -> 87 [penwidth=2]
    68 -> 148 [penwidth=2]
    68 -> 139 [penwidth=2]
    68 -> 149 [penwidth=2]
    68 -> 170 [penwidth=2]
    68 -> 78 [penwidth=2]
    68 -> 138 [penwidth=2]
    68 -> 178 [penwidth=2]
    68 -> 180 [penwidth=2]
    68 -> 137 [penwidth=2]
    68 -> 109 [penwidth=2]
    68 -> 106 [penwidth=2]
    68 -> 100 [penwidth=2]
    68 -> 104 [penwidth=2]
    68 -> 92 [penwidth=2]
    68 -> 79 [penwidth=2]
    68 -> 183 [penwidth=2]
    68 -> 128 [penwidth=2]
    68 -> 184 [penwidth=2]
    68 -> 188 [penwidth=2]
    27 -> 100 [penwidth=2]
    27 -> 91 [penwidth=2]
    27 -> 103 [penwidth=2]
    27 -> 124 [penwidth=2]
    34 -> 130 [penwidth=2]
    34 -> 126 [penwidth=2]
    34 -> 187 [penwidth=2]
    34 -> 180 [penwidth=2]
    34 -> 151 [penwidth=2]
    34 -> 188 [penwidth=2]
    34 -> 181 [penwidth=2]
    34 -> 185 [penwidth=2]
    34 -> 78 [penwidth=2]
    34 -> 146 [penwidth=2]
    34 -> 88 [penwidth=2]
    34 -> 171 [penwidth=2]
    34 -> 86 [penwidth=2]
    34 -> 103 [penwidth=2]
    34 -> 99 [penwidth=2]
    34 -> 82 [penwidth=2]
    34 -> 148 [penwidth=2]
    34 -> 152 [penwidth=2]
    34 -> 109 [penwidth=2]
    34 -> 184 [penwidth=2]
    34 -> 129 [penwidth=2]
    34 -> 100 [penwidth=2]
    34 -> 85 [penwidth=2]
    34 -> 168 [penwidth=2]
    34 -> 193 [penwidth=2]
    34 -> 192 [penwidth=2]
    34 -> 124 [penwidth=2]
    34 -> 178 [penwidth=2]
    34 -> 133 [penwidth=2]
    34 -> 87 [penwidth=2]
    34 -> 102 [penwidth=2]
    34 -> 79 [penwidth=2]
    34 -> 111 [penwidth=2]
    34 -> 167 [penwidth=2]
    34 -> 139 [penwidth=2]
    34 -> 141 [penwidth=2]
    34 -> 138 [penwidth=2]
    34 -> 174 [penwidth=2]
    34 -> 105 [penwidth=2]
    34 -> 190 [penwidth=2]
    34 -> 96 [penwidth=2]
    34 -> 108 [penwidth=2]
    34 -> 140 [penwidth=2]
    34 -> 127 [penwidth=2]
    34 -> 189 [penwidth=2]
    34 -> 98 [penwidth=2]
    34 -> 182 [penwidth=2]
    34 -> 125 [penwidth=2]
    34 -> 134 [penwidth=2]
    34 -> 131 [penwidth=2]
    34 -> 136 [penwidth=2]
    34 -> 142 [penwidth=2]
    34 -> 83 [penwidth=2]
    34 -> 90 [penwidth=2]
    34 -> 93 [penwidth=2]
    34 -> 91 [penwidth=2]
    34 -> 195 [penwidth=2]
    34 -> 169 [penwidth=2]
    34 -> 166 [penwidth=2]
    34 -> 197 [penwidth=2]
    34 -> 194 [penwidth=2]
    34 -> 191 [penwidth=2]
    34 -> 89 [penwidth=2]
    34 -> 106 [penwidth=2]
    34 -> 196 [penwidth=2]
    34 -> 153 [penwidth=2]
    34 -> 137 [penwidth=2]
    34 -> 143 [penwidth=2]
    34 -> 94 [penwidth=2]
    34 -> 149 [penwidth=2]
    77 -> 101 [penwidth=2]
    77 -> 96 [penwidth=2]
    77 -> 92 [penwidth=2]
    77 -> 131 [penwidth=2]
    77 -> 130 [penwidth=2]
    77 -> 112 [penwidth=2]
    77 -> 153 [penwidth=2]
    77 -> 107 [penwidth=2]
    77 -> 178 [penwidth=2]
    77 -> 103 [penwidth=2]
    77 -> 104 [penwidth=2]
}