digraph G {
    0 [penwidth=3,label="0"]
    1 [penwidth=3,label="1"]
    2 [penwidth=3,label="2"]
    3 [penwidth=3,label="3"]
    4 [penwidth=3,label="4"]
    5 [penwidth=3,label="5"]
    6 [penwidth=3,label="6"]
    7 [penwidth=3,label="7"]
    8 [penwidth=3,label="8"]
    9 [penwidth=3,label="9"]
    10 [penwidth=3,label="10"]
    11 [penwidth=3,label="11"]
    12 [penwidth=3,label="12"]
    13 [penwidth=3,label="13"]
    14 [penwidth=3,label="14"]
    15 [penwidth=3,label="15"]
    16 [penwidth=3,label="16"]
    17 [penwidth=3,label="17"]
    18 [penwidth=3,label="18"]
    19 [penwidth=3,label="19"]
    20 [penwidth=3,label="20"]
    21 [penwidth=3,label="21"]
    22 [penwidth=3,label="22"]
    23 [penwidth=3,label="23"]
    24 [penwidth=3,label="24"]
    25 [penwidth=3,label="25"]
    26 [penwidth=3,label="26"]
    27 [penwidth=3,label="27"]
    28 [penwidth=3,label="28"]
    29 [penwidth=3,label="29"]
    30 [penwidth=3,label="30"]
    31 [penwidth=3,label="31"]
    32 [penwidth=3,label="32"]
    33 [penwidth=3,label="33"]
    34 [penwidth=3,label="34"]
    35 [penwidth=3,label="35"]
    36 [penwidth=3,label="36"]
    37 [penwidth=3,label="37"]
    38 [penwidth=3,label="38"]
    39 [penwidth=3,label="39"]
    40 [penwidth=3,label="40"]
    41 [penwidth=3,label="41"]
    42 [penwidth=3,label="42"]
    43 [penwidth=3,label="43"]
    44 [penwidth=3,label="44"]
    45 [penwidth=3,label="45"]
    46 [penwidth=3,label="46"]
    47 [penwidth=3,label="47"]
    48 [penwidth=3,label="48"]
    49 [penwidth=3,label="49"]
    50 [penwidth=3,label="50"]
    51 [penwidth=3,label="51"]
    52 [penwidth=3,label="52"]
    53 [penwidth=3,label="53"]
    54 [penwidth=3,label="54"]
    55 [penwidth=3,label="55"]
    56 [penwidth=3,label="56"]
    57 [penwidth=3,label="57"]
    58 [penwidth=3,label="58"]
    59 [penwidth=3,label="59"]
    60 [penwidth=3,label="60"]
    61 [penwidth=3,label="61"]
    62 [penwidth=3,label="62"]
    63 [penwidth=3,label="63"]
    64 [penwidth=3,label="64"]
    65 [penwidth=3,label="65"]
    66 [penwidth=3,label="66"]
    67 [penwidth=3,label="67"]
    68 [penwidth=3,label="68"]
    69 [penwidth=3,label="69"]
    70 [penwidth=3,label="70"]
    71 [penwidth=3,label="71"]
    72 [penwidth=3,label="72"]
    73 [penwidth=3,label="73"]
    74 [penwidth=3,label="74"]
    75 [penwidth=3,label="75"]
    76 [penwidth=3,label="76"]
    77 [penwidth=3,label="77"]
    78 [penwidth=3,label="78"]
    79 [penwidth=3,label="79"]
    80 [penwidth=3,label="80"]
    81 [penwidth=3,label="81"]
    82 [penwidth=3,label="82"]
    83 [penwidth=3,label="83"]
    84 [penwidth=3,label="84"]
    85 [penwidth=3,label="85"]
    86 [penwidth=3,label="86"]
    87 [penwidth=3,label="87"]
    88 [penwidth=3,label="88"]
    89 [penwidth=3,label="89"]
    90 [penwidth=3,label="90"]
    91 [penwidth=3,label="91"]
    92 [penwidth=3,label="92"]
    93 [penwidth=3,label="93"]
    94 [penwidth=3,label="94"]
    95 [penwidth=3,label="95"]
    96 [penwidth=3,label="96"]
    97 [penwidth=3,label="97"]
    98 [penwidth=3,label="98"]
    99 [penwidth=3,label="99"]
    100 [penwidth=3,label="100"]
    101 [penwidth=3,label="101"]
    102 [penwidth=3,label="102"]
    103 [penwidth=3,label="103"]
    104 [penwidth=3,label="104"]
    105 [penwidth=3,label="105"]
    106 [penwidth=3,label="106"]
    107 [penwidth=3,label="107"]
    108 [penwidth=3,label="108"]
    109 [penwidth=3,label="109"]
    110 [penwidth=3,label="110"]
    111 [penwidth=3,label="111"]
    112 [penwidth=3,label="112"]
    113 [penwidth=3,label="113"]
    114 [penwidth=3,label="114"]
    115 [penwidth=3,label="115"]
    116 [penwidth=3,label="116"]
    117 [penwidth=3,label="117"]
    118 [penwidth=3,label="118"]
    119 [penwidth=3,label="119"]
    120 [penwidth=3,label="120"]
    121 [penwidth=3,label="121"]
    122 [penwidth=3,label="122"]
    123 [penwidth=3,label="123"]
    124 [penwidth=3,label="124"]
    125 [penwidth=3,label="125"]
    126 [penwidth=3,label="126"]
    127 [penwidth=3,label="127"]
    128 [penwidth=3,label="128"]
    129 [penwidth=3,label="129"]
    130 [penwidth=3,label="130"]
    131 [penwidth=3,label="131"]
    132 [penwidth=3,label="132"]
    133 [penwidth=3,label="133"]
    134 [penwidth=3,label="134"]
    135 [penwidth=3,label="135"]
    136 [penwidth=3,label="136"]
    137 [penwidth=3,label="137"]
    138 [penwidth=3,label="138"]
    139 [penwidth=3,label="139"]
    140 [penwidth=3,label="140"]
    141 [penwidth=3,label="141"]
    142 [penwidth=3,label="142"]
    143 [penwidth=3,label="143"]
    144 [penwidth=3,label="144"]
    145 [penwidth=3,label="145"]
    146 [penwidth=3,label="146"]
    147 [penwidth=3,label="147"]
    148 [penwidth=3,label="148"]
    149 [penwidth=3,label="149"]
    150 [penwidth=3,label="150"]
    151 [penwidth=3,label="151"]
    152 [penwidth=3,label="152"]
    153 [penwidth=3,label="153"]
    154 [penwidth=3,label="154"]
    155 [penwidth=3,label="155"]
    156 [penwidth=3,label="156"]
    157 [penwidth=3,label="157"]
    158 [penwidth=3,label="158"]
    159 [penwidth=3,label="159"]
    160 [penwidth=3,label="160"]
    161 [penwidth=3,label="161"]
    162 [penwidth=3,label="162"]
    163 [penwidth=3,label="163"]
    164 [penwidth=3,label="164"]
    165 [penwidth=3,label="165"]
    166 [penwidth=3,label="166"]
    167 [penwidth=3,label="167"]
    168 [penwidth=3,label="168"]
    169 [penwidth=3,label="169"]
    170 [penwidth=3,label="170"]
    171 [penwidth=3,label="171"]
    172 [penwidth=3,label="172"]
    173 [penwidth=3,label="173"]
    174 [penwidth=3,label="174"]
    175 [penwidth=3,label="175"]
    176 [penwidth=3,label="176"]
    177 [penwidth=3,label="177"]
    178 [penwidth=3,label="178"]
    179 [penwidth=3,label="179"]
    180 [penwidth=3,label="180"]
    181 [penwidth=3,label="181"]
    182 [penwidth=3,label="182"]
    183 [penwidth=3,label="183"]
    184 [penwidth=3,label="184"]
    185 [penwidth=3,label="185"]
    186 [penwidth=3,label="186"]
    187 [penwidth=3,label="187"]
    188 [penwidth=3,label="188"]
    189 [penwidth=3,label="189"]
    190 [penwidth=3,label="190"]
    191 [penwidth=3,label="191"]
    192 [penwidth=3,label="192"]
    193 [penwidth=3,label="193"]
    194 [penwidth=3,label="194"]
    195 [penwidth=3,label="195"]
    196 [penwidth=3,label="196"]
    197 [penwidth=3,label="197"]
    198 [penwidth=3,label="198"]
    199 [penwidth=3,label="199"]
    200 [penwidth=3,label="200"]
    201 [penwidth=3,label="201"]
    202 [penwidth=3,label="202"]
    203 [penwidth=3,label="203"]
    204 [penwidth=3,label="204"]

    55 -> 0 [penwidth=2]
    97 -> 0 [penwidth=2]
    139 -> 0 [penwidth=2]
    56 -> 0 [penwidth=2]
    98 -> 0 [penwidth=2]
    140 -> 0 [penwidth=2]
    57 -> 0 [penwidth=2]
    99 -> 55 [penwidth=2]
    141 -> 55 [penwidth=2]
    58 -> 55 [penwidth=2]
    100 -> 55 [penwidth=2]
    142 -> 55 [penwidth=2]
    59 -> 55 [penwidth=2]
    101 -> 55 [penwidth=2]
    143 -> 55 [penwidth=2]
    60 -> 55 [penwidth=2]
    102 -> 55 [penwidth=2]
    144 -> 55 [penwidth=2]
    61 -> 55 [penwidth=2]
    103 -> 55 [penwidth=2]
    145 -> 97 [penwidth=2]
    62 -> 97 [penwidth=2]
    104 -> 97 [penwidth=2]
    146 -> 97 [penwidth=2]
    63 -> 97 [penwidth=2]
    105 -> 139 [penwidth=2]
    147 -> 139 [penwidth=2]
    64 -> 139 [penwidth=2]
    106 -> 139 [penwidth=2]
    148 -> 139 [penwidth=2]
    65 -> 139 [penwidth=2]
    107 -> 139 [penwidth=2]
    149 -> 139 [penwidth=2]
    66 -> 139 [penwidth=2]
    108 -> 139 [penwidth=2]
    150 -> 139 [penwidth=2]
    67 -> 139 [penwidth=2]
    109 -> 139 [penwidth=2]
    151 -> 139 [penwidth=2]
    68 -> 139 [penwidth=2]
    110 -> 139 [penwidth=2]
    152 -> 139 [penwidth=2]
    69 -> 139 [penwidth=2]
    111 -> 139 [penwidth=2]
    153 -> 139 [penwidth=2]
    70 -> 139 [penwidth=2]
    112 -> 139 [penwidth=2]
    154 -> 139 [penwidth=2]
    71 -> 139 [penwidth=2]
    113 -> 139 [penwidth=2]
    155 -> 139 [penwidth=2]
    72 -> 56 [penwidth=2]
    114 -> 56 [penwidth=2]
    156 -> 56 [penwidth=2]
    73 -> 56 [penwidth=2]
    115 -> 56 [penwidth=2]
    157 -> 56 [penwidth=2]
    74 -> 56 [penwidth=2]
    116 -> 56 [penwidth=2]
    158 -> 98 [penwidth=2]
    75 -> 98 [penwidth=2]
    117 -> 98 [penwidth=2]
    159 -> 98 [penwidth=2]
    76 -> 98 [penwidth=2]
    118 -> 98 [penwidth=2]
    160 -> 98 [penwidth=2]
    77 -> 98 [penwidth=2]
    119 -> 98 [penwidth=2]
    161 -> 98 [penwidth=2]
    78 -> 98 [penwidth=2]
    120 -> 98 [penwidth=2]
    162 -> 98 [penwidth=2]
    79 -> 98 [penwidth=2]
    121 -> 98 [penwidth=2]
    163 -> 98 [penwidth=2]
    80 -> 140 [penwidth=2]
    122 -> 140 [penwidth=2]
    164 -> 140 [penwidth=2]
    11 -> 140 [penwidth=2]
    81 -> 140 [penwidth=2]
    123 -> 140 [penwidth=2]
    165 -> 140 [penwidth=2]
    82 -> 140 [penwidth=2]
    124 -> 140 [penwidth=2]
    166 -> 140 [penwidth=2]
    83 -> 57 [penwidth=2]
    125 -> 57 [penwidth=2]
    167 -> 57 [penwidth=2]
    84 -> 57 [penwidth=2]
    126 -> 99 [penwidth=2]
    168 -> 99 [penwidth=2]
    85 -> 99 [penwidth=2]
    127 -> 141 [penwidth=2]
    169 -> 141 [penwidth=2]
    12 -> 141 [penwidth=2]
    86 -> 141 [penwidth=2]
    128 -> 141 [penwidth=2]
    170 -> 141 [penwidth=2]
    87 -> 141 [penwidth=2]
    129 -> 141 [penwidth=2]
    171 -> 141 [penwidth=2]
    88 -> 141 [penwidth=2]
    130 -> 141 [penwidth=2]
    172 -> 141 [penwidth=2]
    89 -> 141 [penwidth=2]
    131 -> 141 [penwidth=2]
    173 -> 141 [penwidth=2]
    90 -> 141 [penwidth=2]
    132 -> 58 [penwidth=2]
    174 -> 58 [penwidth=2]
    91 -> 58 [penwidth=2]
    133 -> 58 [penwidth=2]
    175 -> 58 [penwidth=2]
    92 -> 58 [penwidth=2]
    134 -> 58 [penwidth=2]
    176 -> 58 [penwidth=2]
    93 -> 58 [penwidth=2]
    135 -> 58 [penwidth=2]
    177 -> 58 [penwidth=2]
    94 -> 58 [penwidth=2]
    136 -> 58 [penwidth=2]
    178 -> 58 [penwidth=2]
    95 -> 58 [penwidth=2]
    137 -> 58 [penwidth=2]
    179 -> 58 [penwidth=2]
    96 -> 58 [penwidth=2]
    138 -> 58 [penwidth=2]
    180 -> 58 [penwidth=2]
    13 -> 58 [penwidth=2]
    181 -> 58 [penwidth=2]
    14 -> 100 [penwidth=2]
    182 -> 100 [penwidth=2]
    15 -> 100 [penwidth=2]
    183 -> 100 [penwidth=2]
    16 -> 100 [penwidth=2]
    184 -> 100 [penwidth=2]
    17 -> 100 [penwidth=2]
    185 -> 100 [penwidth=2]
    18 -> 100 [penwidth=2]
    186 -> 100 [penwidth=2]
    19 -> 100 [penwidth=2]
    187 -> 100 [penwidth=2]
    20 -> 100 [penwidth=2]
    188 -> 100 [penwidth=2]
    21 -> 100 [penwidth=2]
    189 -> 100 [penwidth=2]
    22 -> 100 [penwidth=2]
    190 -> 100 [penwidth=2]
    23 -> 142 [penwidth=2]
    191 -> 142 [penwidth=2]
    24 -> 142 [penwidth=2]
    192 -> 142 [penwidth=2]
    25 -> 59 [penwidth=2]
    193 -> 59 [penwidth=2]
    26 -> 59 [penwidth=2]
    194 -> 59 [penwidth=2]
    27 -> 59 [penwidth=2]
    195 -> 59 [penwidth=2]
    28 -> 59 [penwidth=2]
    196 -> 59 [penwidth=2]
    29 -> 59 [penwidth=2]
    197 -> 59 [penwidth=2]
    30 -> 59 [penwidth=2]
    198 -> 59 [penwidth=2]
    31 -> 59 [penwidth=2]
    199 -> 59 [penwidth=2]
    32 -> 59 [penwidth=2]
    200 -> 59 [penwidth=2]
    33 -> 59 [penwidth=2]
    201 -> 59 [penwidth=2]
    34 -> 59 [penwidth=2]
    202 -> 59 [penwidth=2]
    35 -> 59 [penwidth=2]
    203 -> 59 [penwidth=2]
    36 -> 59 [penwidth=2]
    204 -> 59 [penwidth=2]
    37 -> 59 [penwidth=2]
    38 -> 101 [penwidth=2]
    39 -> 101 [penwidth=2]
    40 -> 101 [penwidth=2]
    41 -> 101 [penwidth=2]
    42 -> 143 [penwidth=2]
    1 -> 143 [penwidth=2]
    43 -> 143 [penwidth=2]
    2 -> 143 [penwidth=2]
    44 -> 143 [penwidth=2]
    3 -> 143 [penwidth=2]
    45 -> 143 [penwidth=2]
    4 -> 143 [penwidth=2]
    46 -> 143 [penwidth=2]
    5 -> 143 [penwidth=2]
    47 -> 143 [penwidth=2]
    6 -> 143 [penwidth=2]
    48 -> 143 [penwidth=2]
    7 -> 143 [penwidth=2]
    49 -> 143 [penwidth=2]
    8 -> 60 [penwidth=2]
    50 -> 60 [penwidth=2]
    9 -> 60 [penwidth=2]
    51 -> 60 [penwidth=2]
    10 -> 60 [penwidth=2]
    52 -> 60 [penwidth=2]
    53 -> 60 [penwidth=2]
    54 -> 60 [penwidth=2]
    59 -> 140 [penwidth=2]
    59 -> 139 [penwidth=2]
    59 -> 56 [penwidth=2]
    59 -> 57 [penwidth=2]
    59 -> 98 [penwidth=2]
    143 -> 57 [penwidth=2]
    143 -> 98 [penwidth=2]
    143 -> 140 [penwidth=2]
    108 -> 55 [penwidth=2]
    108 -> 98 [penwidth=2]
    108 -> 97 [penwidth=2]
    108 -> 140 [penwidth=2]
    108 -> 56 [penwidth=2]
    110 -> 98 [penwidth=2]
    110 -> 57 [penwidth=2]
    110 -> 140 [penwidth=2]
    110 -> 56 [penwidth=2]
    110 -> 97 [penwidth=2]
    111 -> 97 [penwidth=2]
    70 -> 57 [penwidth=2]
    155 -> 56 [penwidth=2]
    116 -> 55 [penwidth=2]
    116 -> 140 [penwidth=2]
    116 -> 98 [penwidth=2]
    80 -> 98 [penwidth=2]
    80 -> 55 [penwidth=2]
    80 -> 97 [penwidth=2]
    80 -> 57 [penwidth=2]
    80 -> 56 [penwidth=2]
    122 -> 57 [penwidth=2]
    84 -> 97 [penwidth=2]
    168 -> 158 [penwidth=2]
    168 -> 101 [penwidth=2]
    171 -> 156 [penwidth=2]
    171 -> 113 [penwidth=2]
    171 -> 109 [penwidth=2]
    171 -> 79 [penwidth=2]
    171 -> 155 [penwidth=2]
    171 -> 110 [penwidth=2]
    171 -> 153 [penwidth=2]
    171 -> 102 [penwidth=2]
    171 -> 149 [penwidth=2]
    171 -> 75 [penwidth=2]
    171 -> 72 [penwidth=2]
    171 -> 151 [penwidth=2]
    171 -> 164 [penwidth=2]
    171 -> 147 [penwidth=2]
    171 -> 165 [penwidth=2]
    171 -> 82 [penwidth=2]
    171 -> 143 [penwidth=2]
    171 -> 119 [penwidth=2]
    171 -> 76 [penwidth=2]
    171 -> 77 [penwidth=2]
    171 -> 125 [penwidth=2]
    171 -> 81 [penwidth=2]
    171 -> 70 [penwidth=2]
    171 -> 117 [penwidth=2]
    171 -> 112 [penwidth=2]
    171 -> 66 [penwidth=2]
    171 -> 78 [penwidth=2]
    171 -> 154 [penwidth=2]
    171 -> 123 [penwidth=2]
    171 -> 111 [penwidth=2]
    171 -> 84 [penwidth=2]
    171 -> 68 [penwidth=2]
    171 -> 163 [penwidth=2]
    171 -> 71 [penwidth=2]
    171 -> 167 [penwidth=2]
    171 -> 161 [penwidth=2]
    171 -> 116 [penwidth=2]
    171 -> 160 [penwidth=2]
    171 -> 64 [penwidth=2]
    130 -> 148 [penwidth=2]
    130 -> 67 [penwidth=2]
    130 -> 58 [penwidth=2]
    130 -> 108 [penwidth=2]
    130 -> 163 [penwidth=2]
    130 -> 76 [penwidth=2]
    130 -> 144 [penwidth=2]
    130 -> 115 [penwidth=2]
    130 -> 106 [penwidth=2]
    130 -> 157 [penwidth=2]
    130 -> 59 [penwidth=2]
    130 -> 121 [penwidth=2]
    130 -> 111 [penwidth=2]
    130 -> 66 [penwidth=2]
    130 -> 122 [penwidth=2]
    130 -> 167 [penwidth=2]
    130 -> 159 [penwidth=2]
    130 -> 68 [penwidth=2]
    130 -> 62 [penwidth=2]
    130 -> 65 [penwidth=2]
    130 -> 125 [penwidth=2]
    130 -> 100 [penwidth=2]
    130 -> 117 [penwidth=2]
    130 -> 118 [penwidth=2]
    130 -> 82 [penwidth=2]
    130 -> 70 [penwidth=2]
    130 -> 64 [penwidth=2]
    130 -> 119 [penwidth=2]
    130 -> 145 [penwidth=2]
    130 -> 102 [penwidth=2]
    130 -> 153 [penwidth=2]
    130 -> 103 [penwidth=2]
    130 -> 162 [penwidth=2]
    130 -> 149 [penwidth=2]
    130 -> 99 [penwidth=2]
    130 -> 104 [penwidth=2]
    130 -> 61 [penwidth=2]
    130 -> 74 [penwidth=2]
    130 -> 11 [penwidth=2]
    130 -> 124 [penwidth=2]
    130 -> 123 [penwidth=2]
    130 -> 147 [penwidth=2]
    130 -> 84 [penwidth=2]
    130 -> 81 [penwidth=2]
    130 -> 63 [penwidth=2]
    130 -> 112 [penwidth=2]
    130 -> 101 [penwidth=2]
    130 -> 60 [penwidth=2]
    130 -> 77 [penwidth=2]
    130 -> 113 [penwidth=2]
    130 -> 146 [penwidth=2]
    130 -> 73 [penwidth=2]
    130 -> 143 [penwidth=2]
    130 -> 110 [penwidth=2]
    130 -> 69 [penwidth=2]
    130 -> 109 [penwidth=2]
    130 -> 165 [penwidth=2]
    130 -> 152 [penwidth=2]
    130 -> 154 [penwidth=2]
    94 -> 79 [penwidth=2]
    94 -> 150 [penwidth=2]
    94 -> 158 [penwidth=2]
    94 -> 101 [penwidth=2]
    94 -> 68 [penwidth=2]
    94 -> 115 [penwidth=2]
    94 -> 78 [penwidth=2]
    94 -> 66 [penwidth=2]
    94 -> 112 [penwidth=2]
    94 -> 104 [penwidth=2]
    94 -> 102 [penwidth=2]
    94 -> 155 [penwidth=2]
    94 -> 118 [penwidth=2]
    94 -> 149 [penwidth=2]
    94 -> 157 [penwidth=2]
    94 -> 154 [penwidth=2]
    94 -> 11 [penwidth=2]
    94 -> 123 [penwidth=2]
    94 -> 165 [penwidth=2]
    94 -> 84 [penwidth=2]
    94 -> 111 [penwidth=2]
    94 -> 121 [penwidth=2]
    94 -> 107 [penwidth=2]
    94 -> 80 [penwidth=2]
    94 -> 108 [penwidth=2]
    94 -> 159 [penwidth=2]
    94 -> 119 [penwidth=2]
    94 -> 82 [penwidth=2]
    94 -> 114 [penwidth=2]
    94 -> 70 [penwidth=2]
    94 -> 167 [penwidth=2]
    94 -> 71 [penwidth=2]
    94 -> 113 [penwidth=2]
    94 -> 146 [penwidth=2]
    94 -> 105 [penwidth=2]
    178 -> 84 [penwidth=2]
    178 -> 60 [penwidth=2]
    178 -> 146 [penwidth=2]
    178 -> 151 [penwidth=2]
    178 -> 154 [penwidth=2]
    178 -> 74 [penwidth=2]
    178 -> 72 [penwidth=2]
    178 -> 121 [penwidth=2]
    183 -> 121 [penwidth=2]
    183 -> 113 [penwidth=2]
    183 -> 118 [penwidth=2]
    183 -> 84 [penwidth=2]
    183 -> 68 [penwidth=2]
    183 -> 152 [penwidth=2]
    183 -> 77 [penwidth=2]
    183 -> 144 [penwidth=2]
    183 -> 70 [penwidth=2]
    183 -> 117 [penwidth=2]
    183 -> 165 [penwidth=2]
    183 -> 107 [penwidth=2]
    183 -> 164 [penwidth=2]
    183 -> 58 [penwidth=2]
    183 -> 63 [penwidth=2]
    183 -> 71 [penwidth=2]
    183 -> 103 [penwidth=2]
    183 -> 120 [penwidth=2]
    183 -> 80 [penwidth=2]
    183 -> 11 [penwidth=2]
    183 -> 141 [penwidth=2]
    183 -> 166 [penwidth=2]
    183 -> 150 [penwidth=2]
    183 -> 101 [penwidth=2]
    183 -> 159 [penwidth=2]
    183 -> 151 [penwidth=2]
    183 -> 115 [penwidth=2]
    183 -> 61 [penwidth=2]
    183 -> 64 [penwidth=2]
    183 -> 62 [penwidth=2]
    183 -> 114 [penwidth=2]
    183 -> 125 [penwidth=2]
    183 -> 109 [penwidth=2]
    183 -> 145 [penwidth=2]
    183 -> 81 [penwidth=2]
    183 -> 76 [penwidth=2]
    183 -> 73 [penwidth=2]
    183 -> 147 [penwidth=2]
    183 -> 59 [penwidth=2]
    183 -> 60 [penwidth=2]
    183 -> 119 [penwidth=2]
    183 -> 69 [penwidth=2]
    183 -> 148 [penwidth=2]
    183 -> 82 [penwidth=2]
    183 -> 149 [penwidth=2]
    183 -> 74 [penwidth=2]
    183 -> 78 [penwidth=2]
    183 -> 155 [penwidth=2]
    183 -> 110 [penwidth=2]
    183 -> 123 [penwidth=2]
    183 -> 65 [penwidth=2]
    183 -> 75 [penwidth=2]
    183 -> 112 [penwidth=2]
    183 -> 157 [penwidth=2]
    183 -> 122 [penwidth=2]
    183 -> 146 [penwidth=2]
    183 -> 142 [penwidth=2]
    183 -> 116 [penwidth=2]
    183 -> 108 [penwidth=2]
    183 -> 167 [penwidth=2]
    183 -> 162 [penwidth=2]
    183 -> 106 [penwidth=2]
    183 -> 111 [penwidth=2]
    183 -> 161 [penwidth=2]
    183 -> 99 [penwidth=2]
    183 -> 105 [penwidth=2]
    183 -> 104 [penwidth=2]
    183 -> 163 [penwidth=2]
    183 -> 102 [penwidth=2]
    183 -> 72 [penwidth=2]
    190 -> 157 [penwidth=2]
    190 -> 160 [penwidth=2]
    190 -> 68 [penwidth=2]
    190 -> 145 [penwidth=2]
    190 -> 62 [penwidth=2]
    190 -> 83 [penwidth=2]
    190 -> 63 [penwidth=2]
    190 -> 124 [penwidth=2]
    190 -> 107 [penwidth=2]
    190 -> 74 [penwidth=2]
    190 -> 67 [penwidth=2]
    190 -> 156 [penwidth=2]
    190 -> 161 [penwidth=2]
    190 -> 123 [penwidth=2]
    190 -> 125 [penwidth=2]
    190 -> 70 [penwidth=2]
    190 -> 122 [penwidth=2]
    190 -> 144 [penwidth=2]
    190 -> 65 [penwidth=2]
    190 -> 102 [penwidth=2]
    190 -> 119 [penwidth=2]
    190 -> 79 [penwidth=2]
    190 -> 108 [penwidth=2]
    190 -> 105 [penwidth=2]
    190 -> 69 [penwidth=2]
    190 -> 82 [penwidth=2]
    190 -> 118 [penwidth=2]
    190 -> 164 [penwidth=2]
    190 -> 61 [penwidth=2]
    190 -> 72 [penwidth=2]
    190 -> 106 [penwidth=2]
    190 -> 117 [penwidth=2]
    190 -> 150 [penwidth=2]
    190 -> 75 [penwidth=2]
    190 -> 152 [penwidth=2]
    190 -> 115 [penwidth=2]
    190 -> 143 [penwidth=2]
    190 -> 58 [penwidth=2]
    190 -> 153 [penwidth=2]
    190 -> 99 [penwidth=2]
    190 -> 166 [penwidth=2]
    190 -> 76 [penwidth=2]
    190 -> 111 [penwidth=2]
    190 -> 151 [penwidth=2]
    190 -> 114 [penwidth=2]
    190 -> 110 [penwidth=2]
    190 -> 77 [penwidth=2]
    190 -> 64 [penwidth=2]
    190 -> 101 [penwidth=2]
    190 -> 103 [penwidth=2]
    190 -> 71 [penwidth=2]
    190 -> 109 [penwidth=2]
    190 -> 112 [penwidth=2]
    190 -> 11 [penwidth=2]
    190 -> 159 [penwidth=2]
    190 -> 155 [penwidth=2]
    190 -> 146 [penwidth=2]
    190 -> 141 [penwidth=2]
    190 -> 116 [penwidth=2]
    190 -> 149 [penwidth=2]
    190 -> 163 [penwidth=2]
    190 -> 73 [penwidth=2]
    190 -> 81 [penwidth=2]
    191 -> 108 [penwidth=2]
    191 -> 59 [penwidth=2]
    191 -> 111 [penwidth=2]
    191 -> 121 [penwidth=2]
    191 -> 101 [penwidth=2]
    191 -> 84 [penwidth=2]
    191 -> 158 [penwidth=2]
    191 -> 102 [penwidth=2]
    191 -> 110 [penwidth=2]
    191 -> 79 [penwidth=2]
    191 -> 62 [penwidth=2]
    191 -> 163 [penwidth=2]
    191 -> 61 [penwidth=2]
    191 -> 109 [penwidth=2]
    191 -> 117 [penwidth=2]
    191 -> 144 [penwidth=2]
    191 -> 148 [penwidth=2]
    191 -> 123 [penwidth=2]
    191 -> 114 [penwidth=2]
    191 -> 165 [penwidth=2]
    191 -> 157 [penwidth=2]
    191 -> 64 [penwidth=2]
    191 -> 71 [penwidth=2]
    191 -> 120 [penwidth=2]
    191 -> 124 [penwidth=2]
    191 -> 147 [penwidth=2]
    191 -> 68 [penwidth=2]
    191 -> 78 [penwidth=2]
    191 -> 67 [penwidth=2]
    191 -> 153 [penwidth=2]
    191 -> 103 [penwidth=2]
    191 -> 162 [penwidth=2]
    191 -> 125 [penwidth=2]
    191 -> 151 [penwidth=2]
    191 -> 113 [penwidth=2]
    191 -> 83 [penwidth=2]
    191 -> 74 [penwidth=2]
    191 -> 58 [penwidth=2]
    191 -> 116 [penwidth=2]
    191 -> 112 [penwidth=2]
    191 -> 75 [penwidth=2]
    191 -> 156 [penwidth=2]
    191 -> 105 [penwidth=2]
    191 -> 66 [penwidth=2]
    191 -> 65 [penwidth=2]
    191 -> 81 [penwidth=2]
    191 -> 155 [penwidth=2]
    191 -> 73 [penwidth=2]
    191 -> 145 [penwidth=2]
    191 -> 164 [penwidth=2]
    191 -> 104 [penwidth=2]
    191 -> 154 [penwidth=2]
    191 -> 82 [penwidth=2]
    191 -> 76 [penwidth=2]
    191 -> 107 [penwidth=2]
    191 -> 167 [penwidth=2]
    191 -> 150 [penwidth=2]
    191 -> 160 [penwidth=2]
    191 -> 149 [penwidth=2]
    191 -> 72 [penwidth=2]
    191 -> 63 [penwidth=2]
    191 -> 152 [penwidth=2]
    191 -> 146 [penwidth=2]
    191 -> 122 [penwidth=2]
    191 -> 166 [penwidth=2]
    191 -> 106 [penwidth=2]
    191 -> 119 [penwidth=2]
    191 -> 118 [penwidth=2]
    191 -> 69 [penwidth=2]
    191 -> 99 [penwidth=2]
    29 -> 163 [penwidth=2]
    29 -> 142 [penwidth=2]
    29 -> 65 [penwidth=2]
    29 -> 71 [penwidth=2]
    29 -> 68 [penwidth=2]
    29 -> 146 [penwidth=2]
    29 -> 79 [penwidth=2]
    29 -> 78 [penwidth=2]
    29 -> 123 [penwidth=2]
    29 -> 110 [penwidth=2]
    29 -> 103 [penwidth=2]
    29 -> 84 [penwidth=2]
    29 -> 148 [penwidth=2]
    29 -> 70 [penwidth=2]
    29 -> 67 [penwidth=2]
    29 -> 115 [penwidth=2]
    29 -> 159 [penwidth=2]
    29 -> 150 [penwidth=2]
    29 -> 124 [penwidth=2]
    29 -> 113 [penwidth=2]
    29 -> 122 [penwidth=2]
    29 -> 102 [penwidth=2]
    29 -> 147 [penwidth=2]
    29 -> 164 [penwidth=2]
    29 -> 125 [penwidth=2]
    29 -> 107 [penwidth=2]
    29 -> 152 [penwidth=2]
    29 -> 104 [penwidth=2]
    29 -> 66 [penwidth=2]
    29 -> 167 [penwidth=2]
    29 -> 161 [penwidth=2]
    29 -> 166 [penwidth=2]
    29 -> 99 [penwidth=2]
    29 -> 153 [penwidth=2]
    29 -> 83 [penwidth=2]
    29 -> 11 [penwidth=2]
    29 -> 154 [penwidth=2]
    29 -> 114 [penwidth=2]
    29 -> 106 [penwidth=2]
    29 -> 82 [penwidth=2]
    29 -> 109 [penwidth=2]
    29 -> 141 [penwidth=2]
    29 -> 73 [penwidth=2]
    29 -> 72 [penwidth=2]
    29 -> 120 [penwidth=2]
    29 -> 63 [penwidth=2]
    29 -> 116 [penwidth=2]
    29 -> 108 [penwidth=2]
    29 -> 111 [penwidth=2]
    29 -> 145 [penwidth=2]
    29 -> 61 [penwidth=2]
    29 -> 74 [penwidth=2]
    29 -> 119 [penwidth=2]
    29 -> 101 [penwidth=2]
    29 -> 112 [penwidth=2]
    29 -> 76 [penwidth=2]
    29 -> 155 [penwidth=2]
    29 -> 121 [penwidth=2]
    29 -> 143 [penwidth=2]
    29 -> 69 [penwidth=2]
    29 -> 162 [penwidth=2]
    29 -> 105 [penwidth=2]
    29 -> 151 [penwidth=2]
    29 -> 117 [penwidth=2]
    29 -> 77 [penwidth=2]
    4 -> 162 [penwidth=2]
    4 -> 114 [penwidth=2]
    4 -> 81 [penwidth=2]
    4 -> 154 [penwidth=2]
    4 -> 110 [penwidth=2]
    4 -> 165 [penwidth=2]
    4 -> 75 [penwidth=2]
    4 -> 76 [penwidth=2]
    4 -> 61 [penwidth=2]
    4 -> 59 [penwidth=2]
    4 -> 100 [penwidth=2]
    4 -> 101 [penwidth=2]
    4 -> 145 [penwidth=2]
    4 -> 149 [penwidth=2]
    4 -> 112 [penwidth=2]
    4 -> 63 [penwidth=2]
    4 -> 147 [penwidth=2]
    4 -> 111 [penwidth=2]
    4 -> 58 [penwidth=2]
    4 -> 70 [penwidth=2]
    4 -> 124 [penwidth=2]
    4 -> 113 [penwidth=2]
    4 -> 74 [penwidth=2]
    4 -> 60 [penwidth=2]
    4 -> 68 [penwidth=2]
    4 -> 122 [penwidth=2]
    4 -> 163 [penwidth=2]
    4 -> 117 [penwidth=2]
    4 -> 64 [penwidth=2]
    4 -> 103 [penwidth=2]
    4 -> 120 [penwidth=2]
    4 -> 84 [penwidth=2]
    4 -> 65 [penwidth=2]
    4 -> 141 [penwidth=2]
    4 -> 146 [penwidth=2]
    4 -> 73 [penwidth=2]
    4 -> 79 [penwidth=2]
    4 -> 119 [penwidth=2]
    4 -> 160 [penwidth=2]
    4 -> 159 [penwidth=2]
    4 -> 78 [penwidth=2]
    4 -> 108 [penwidth=2]
    4 -> 156 [penwidth=2]
    4 -> 164 [penwidth=2]
    4 -> 115 [penwidth=2]
    4 -> 151 [penwidth=2]
    4 -> 99 [penwidth=2]
    4 -> 118 [penwidth=2]
    4 -> 121 [penwidth=2]
    4 -> 62 [penwidth=2]
    4 -> 142 [penwidth=2]
    4 -> 11 [penwidth=2]
    4 -> 102 [penwidth=2]
    4 -> 158 [penwidth=2]
    4 -> 104 [penwidth=2]
    4 -> 72 [penwidth=2]
    4 -> 69 [penwidth=2]
    4 -> 66 [penwidth=2]
    4 -> 152 [penwidth=2]
    4 -> 144 [penwidth=2]
    4 -> 155 [penwidth=2]
    4 -> 82 [penwidth=2]
    4 -> 150 [penwidth=2]
    4 -> 80 [penwidth=2]
    4 -> 77 [penwidth=2]
    4 -> 67 [penwidth=2]
    4 -> 153 [penwidth=2]
    4 -> 107 [penwidth=2]
    4 -> 166 [penwidth=2]
    4 -> 123 [penwidth=2]
    4 -> 157 [penwidth=2]
    4 -> 161 [penwidth=2]
    4 -> 109 [penwidth=2]
    4 -> 83 [penwidth=2]
    4 -> 148 [penwidth=2]
    4 -> 105 [penwidth=2]
    4 -> 125 [penwidth=2]
    4 -> 106 [penwidth=2]
    4 -> 116 [penwidth=2]
    51 -> 111 [penwidth=2]
    51 -> 82 [penwidth=2]
    51 -> 83 [penwidth=2]
    51 -> 142 [penwidth=2]
    51 -> 146 [penwidth=2]
    51 -> 108 [penwidth=2]
    51 -> 123 [penwidth=2]
    51 -> 114 [penwidth=2]
    51 -> 113 [penwidth=2]
    51 -> 73 [penwidth=2]
    51 -> 156 [penwidth=2]
    51 -> 163 [penwidth=2]
    51 -> 122 [penwidth=2]
    51 -> 160 [penwidth=2]
    51 -> 158 [penwidth=2]
    51 -> 148 [penwidth=2]
    51 -> 101 [penwidth=2]
    51 -> 165 [penwidth=2]
    51 -> 102 [penwidth=2]
    51 -> 157 [penwidth=2]
    51 -> 62 [penwidth=2]
    51 -> 69 [penwidth=2]
    51 -> 67 [penwidth=2]
    51 -> 107 [penwidth=2]
    51 -> 164 [penwidth=2]
    51 -> 141 [penwidth=2]
    51 -> 106 [penwidth=2]
    51 -> 117 [penwidth=2]
    51 -> 61 [penwidth=2]
    51 -> 116 [penwidth=2]
    51 -> 59 [penwidth=2]
    51 -> 121 [penwidth=2]
    51 -> 58 [penwidth=2]
    51 -> 77 [penwidth=2]
    51 -> 110 [penwidth=2]
    51 -> 68 [penwidth=2]
    51 -> 115 [penwidth=2]
    51 -> 103 [penwidth=2]
    51 -> 152 [penwidth=2]
    51 -> 119 [penwidth=2]
    51 -> 147 [penwidth=2]
    51 -> 166 [penwidth=2]
    51 -> 105 [penwidth=2]
    51 -> 66 [penwidth=2]
    51 -> 118 [penwidth=2]
    51 -> 75 [penwidth=2]
    51 -> 11 [penwidth=2]
    51 -> 161 [penwidth=2]
    51 -> 120 [penwidth=2]
    51 -> 109 [penwidth=2]
    51 -> 149 [penwidth=2]
    51 -> 153 [penwidth=2]
    51 -> 100 [penwidth=2]
    51 -> 150 [penwidth=2]
    51 -> 144 [penwidth=2]
    51 -> 145 [penwidth=2]
    51 -> 71 [penwidth=2]
}