digraph G {
    0 [penwidth=3,label="0"]
    1 [penwidth=3,label="1"]
    2 [penwidth=3,label="2"]
    3 [penwidth=3,label="3"]
    4 [penwidth=3,label="4"]
    5 [penwidth=3,label="5"]
    6 [penwidth=3,label="6"]
    7 [penwidth=3,label="7"]
    8 [penwidth=3,label="8"]
    9 [penwidth=3,label="9"]
    10 [penwidth=3,label="10"]
    11 [penwidth=3,label="11"]
    12 [penwidth=3,label="12"]
    13 [penwidth=3,label="13"]
    14 [penwidth=3,label="14"]
    15 [penwidth=3,label="15"]
    16 [penwidth=3,label="16"]
    17 [penwidth=3,label="17"]
    18 [penwidth=3,label="18"]
    19 [penwidth=3,label="19"]
    20 [penwidth=3,label="20"]
    21 [penwidth=3,label="21"]
    22 [penwidth=3,label="22"]
    23 [penwidth=3,label="23"]
    24 [penwidth=3,label="24"]
    25 [penwidth=3,label="25"]
    26 [penwidth=3,label="26"]
    27 [penwidth=3,label="27"]
    28 [penwidth=3,label="28"]
    29 [penwidth=3,label="29"]
    30 [penwidth=3,label="30"]
    31 [penwidth=3,label="31"]
    32 [penwidth=3,label="32"]
    33 [penwidth=3,label="33"]
    34 [penwidth=3,label="34"]
    35 [penwidth=3,label="35"]
    36 [penwidth=3,label="36"]
    37 [penwidth=3,label="37"]
    38 [penwidth=3,label="38"]
    39 [penwidth=3,label="39"]
    40 [penwidth=3,label="40"]
    41 [penwidth=3,label="41"]
    42 [penwidth=3,label="42"]
    43 [penwidth=3,label="43"]
    44 [penwidth=3,label="44"]
    45 [penwidth=3,label="45"]
    46 [penwidth=3,label="46"]
    47 [penwidth=3,label="47"]
    48 [penwidth=3,label="48"]
    49 [penwidth=3,label="49"]
    50 [penwidth=3,label="50"]
    51 [penwidth=3,label="51"]
    52 [penwidth=3,label="52"]
    53 [penwidth=3,label="53"]
    54 [penwidth=3,label="54"]
    55 [penwidth=3,label="55"]
    56 [penwidth=3,label="56"]
    57 [penwidth=3,label="57"]
    58 [penwidth=3,label="58"]
    59 [penwidth=3,label="59"]
    60 [penwidth=3,label="60"]
    61 [penwidth=3,label="61"]
    62 [penwidth=3,label="62"]
    63 [penwidth=3,label="63"]
    64 [penwidth=3,label="64"]
    65 [penwidth=3,label="65"]
    66 [penwidth=3,label="66"]
    67 [penwidth=3,label="67"]
    68 [penwidth=3,label="68"]
    69 [penwidth=3,label="69"]
    70 [penwidth=3,label="70"]
    71 [penwidth=3,label="71"]
    72 [penwidth=3,label="72"]
    73 [penwidth=3,label="73"]
    74 [penwidth=3,label="74"]
    75 [penwidth=3,label="75"]
    76 [penwidth=3,label="76"]
    77 [penwidth=3,label="77"]
    78 [penwidth=3,label="78"]
    79 [penwidth=3,label="79"]
    80 [penwidth=3,label="80"]
    81 [penwidth=3,label="81"]
    82 [penwidth=3,label="82"]
    83 [penwidth=3,label="83"]
    84 [penwidth=3,label="84"]
    85 [penwidth=3,label="85"]
    86 [penwidth=3,label="86"]
    87 [penwidth=3,label="87"]
    88 [penwidth=3,label="88"]
    89 [penwidth=3,label="89"]
    90 [penwidth=3,label="90"]
    91 [penwidth=3,label="91"]
    92 [penwidth=3,label="92"]
    93 [penwidth=3,label="93"]
    94 [penwidth=3,label="94"]
    95 [penwidth=3,label="95"]
    96 [penwidth=3,label="96"]
    97 [penwidth=3,label="97"]
    98 [penwidth=3,label="98"]
    99 [penwidth=3,label="99"]
    100 [penwidth=3,label="100"]
    101 [penwidth=3,label="101"]
    102 [penwidth=3,label="102"]
    103 [penwidth=3,label="103"]
    104 [penwidth=3,label="104"]
    105 [penwidth=3,label="105"]
    106 [penwidth=3,label="106"]
    107 [penwidth=3,label="107"]
    108 [penwidth=3,label="108"]
    109 [penwidth=3,label="109"]
    110 [penwidth=3,label="110"]
    111 [penwidth=3,label="111"]
    112 [penwidth=3,label="112"]
    113 [penwidth=3,label="113"]
    114 [penwidth=3,label="114"]
    115 [penwidth=3,label="115"]
    116 [penwidth=3,label="116"]
    117 [penwidth=3,label="117"]
    118 [penwidth=3,label="118"]
    119 [penwidth=3,label="119"]
    120 [penwidth=3,label="120"]
    121 [penwidth=3,label="121"]
    122 [penwidth=3,label="122"]
    123 [penwidth=3,label="123"]
    124 [penwidth=3,label="124"]
    125 [penwidth=3,label="125"]
    126 [penwidth=3,label="126"]
    127 [penwidth=3,label="127"]
    128 [penwidth=3,label="128"]
    129 [penwidth=3,label="129"]
    130 [penwidth=3,label="130"]
    131 [penwidth=3,label="131"]
    132 [penwidth=3,label="132"]
    133 [penwidth=3,label="133"]
    134 [penwidth=3,label="134"]
    135 [penwidth=3,label="135"]
    136 [penwidth=3,label="136"]
    137 [penwidth=3,label="137"]
    138 [penwidth=3,label="138"]
    139 [penwidth=3,label="139"]
    140 [penwidth=3,label="140"]
    141 [penwidth=3,label="141"]
    142 [penwidth=3,label="142"]
    143 [penwidth=3,label="143"]
    144 [penwidth=3,label="144"]
    145 [penwidth=3,label="145"]
    146 [penwidth=3,label="146"]
    147 [penwidth=3,label="147"]
    148 [penwidth=3,label="148"]
    149 [penwidth=3,label="149"]
    150 [penwidth=3,label="150"]
    151 [penwidth=3,label="151"]
    152 [penwidth=3,label="152"]
    153 [penwidth=3,label="153"]
    154 [penwidth=3,label="154"]
    155 [penwidth=3,label="155"]
    156 [penwidth=3,label="156"]
    157 [penwidth=3,label="157"]
    158 [penwidth=3,label="158"]
    159 [penwidth=3,label="159"]
    160 [penwidth=3,label="160"]
    161 [penwidth=3,label="161"]
    162 [penwidth=3,label="162"]
    163 [penwidth=3,label="163"]
    164 [penwidth=3,label="164"]
    165 [penwidth=3,label="165"]
    166 [penwidth=3,label="166"]
    167 [penwidth=3,label="167"]
    168 [penwidth=3,label="168"]
    169 [penwidth=3,label="169"]
    170 [penwidth=3,label="170"]
    171 [penwidth=3,label="171"]
    172 [penwidth=3,label="172"]
    173 [penwidth=3,label="173"]
    174 [penwidth=3,label="174"]
    175 [penwidth=3,label="175"]
    176 [penwidth=3,label="176"]
    177 [penwidth=3,label="177"]
    178 [penwidth=3,label="178"]
    179 [penwidth=3,label="179"]
    180 [penwidth=3,label="180"]
    181 [penwidth=3,label="181"]
    182 [penwidth=3,label="182"]
    183 [penwidth=3,label="183"]
    184 [penwidth=3,label="184"]
    185 [penwidth=3,label="185"]
    186 [penwidth=3,label="186"]
    187 [penwidth=3,label="187"]
    188 [penwidth=3,label="188"]
    189 [penwidth=3,label="189"]
    190 [penwidth=3,label="190"]
    191 [penwidth=3,label="191"]
    192 [penwidth=3,label="192"]
    193 [penwidth=3,label="193"]
    194 [penwidth=3,label="194"]
    195 [penwidth=3,label="195"]
    196 [penwidth=3,label="196"]
    197 [penwidth=3,label="197"]
    198 [penwidth=3,label="198"]
    199 [penwidth=3,label="199"]
    200 [penwidth=3,label="200"]
    201 [penwidth=3,label="201"]
    202 [penwidth=3,label="202"]
    203 [penwidth=3,label="203"]
    204 [penwidth=3,label="204"]
    205 [penwidth=3,label="205"]
    206 [penwidth=3,label="206"]
    207 [penwidth=3,label="207"]
    208 [penwidth=3,label="208"]
    209 [penwidth=3,label="209"]
    210 [penwidth=3,label="210"]
    211 [penwidth=3,label="211"]
    212 [penwidth=3,label="212"]
    213 [penwidth=3,label="213"]
    214 [penwidth=3,label="214"]
    215 [penwidth=3,label="215"]
    216 [penwidth=3,label="216"]
    217 [penwidth=3,label="217"]
    218 [penwidth=3,label="218"]
    219 [penwidth=3,label="219"]
    220 [penwidth=3,label="220"]
    221 [penwidth=3,label="221"]
    222 [penwidth=3,label="222"]
    223 [penwidth=3,label="223"]
    224 [penwidth=3,label="224"]
    225 [penwidth=3,label="225"]
    226 [penwidth=3,label="226"]
    227 [penwidth=3,label="227"]
    228 [penwidth=3,label="228"]
    229 [penwidth=3,label="229"]
    230 [penwidth=3,label="230"]
    231 [penwidth=3,label="231"]
    232 [penwidth=3,label="232"]
    233 [penwidth=3,label="233"]
    234 [penwidth=3,label="234"]
    235 [penwidth=3,label="235"]
    236 [penwidth=3,label="236"]
    237 [penwidth=3,label="237"]
    238 [penwidth=3,label="238"]
    239 [penwidth=3,label="239"]
    240 [penwidth=3,label="240"]
    241 [penwidth=3,label="241"]
    242 [penwidth=3,label="242"]
    243 [penwidth=3,label="243"]
    244 [penwidth=3,label="244"]
    245 [penwidth=3,label="245"]
    246 [penwidth=3,label="246"]
    247 [penwidth=3,label="247"]
    248 [penwidth=3,label="248"]
    249 [penwidth=3,label="249"]
    250 [penwidth=3,label="250"]
    251 [penwidth=3,label="251"]
    252 [penwidth=3,label="252"]
    253 [penwidth=3,label="253"]
    254 [penwidth=3,label="254"]
    255 [penwidth=3,label="255"]
    256 [penwidth=3,label="256"]
    257 [penwidth=3,label="257"]
    258 [penwidth=3,label="258"]
    259 [penwidth=3,label="259"]
    260 [penwidth=3,label="260"]
    261 [penwidth=3,label="261"]
    262 [penwidth=3,label="262"]
    263 [penwidth=3,label="263"]
    264 [penwidth=3,label="264"]
    265 [penwidth=3,label="265"]
    266 [penwidth=3,label="266"]
    267 [penwidth=3,label="267"]
    268 [penwidth=3,label="268"]
    269 [penwidth=3,label="269"]
    270 [penwidth=3,label="270"]
    271 [penwidth=3,label="271"]
    272 [penwidth=3,label="272"]
    273 [penwidth=3,label="273"]
    274 [penwidth=3,label="274"]
    275 [penwidth=3,label="275"]
    276 [penwidth=3,label="276"]
    277 [penwidth=3,label="277"]
    278 [penwidth=3,label="278"]
    279 [penwidth=3,label="279"]
    280 [penwidth=3,label="280"]
    281 [penwidth=3,label="281"]
    282 [penwidth=3,label="282"]
    283 [penwidth=3,label="283"]
    284 [penwidth=3,label="284"]
    285 [penwidth=3,label="285"]
    286 [penwidth=3,label="286"]
    287 [penwidth=3,label="287"]
    288 [penwidth=3,label="288"]
    289 [penwidth=3,label="289"]
    290 [penwidth=3,label="290"]
    291 [penwidth=3,label="291"]
    292 [penwidth=3,label="292"]
    293 [penwidth=3,label="293"]
    294 [penwidth=3,label="294"]
    295 [penwidth=3,label="295"]
    296 [penwidth=3,label="296"]
    297 [penwidth=3,label="297"]
    298 [penwidth=3,label="298"]
    299 [penwidth=3,label="299"]
    300 [penwidth=3,label="300"]
    301 [penwidth=3,label="301"]
    302 [penwidth=3,label="302"]
    303 [penwidth=3,label="303"]
    304 [penwidth=3,label="304"]
    305 [penwidth=3,label="305"]
    306 [penwidth=3,label="306"]
    307 [penwidth=3,label="307"]
    308 [penwidth=3,label="308"]
    309 [penwidth=3,label="309"]

    13 -> 0 [penwidth=2]
    55 -> 0 [penwidth=2]
    223 -> 0 [penwidth=2]
    14 -> 0 [penwidth=2]
    56 -> 0 [penwidth=2]
    224 -> 0 [penwidth=2]
    15 -> 0 [penwidth=2]
    57 -> 13 [penwidth=2]
    225 -> 13 [penwidth=2]
    16 -> 13 [penwidth=2]
    58 -> 13 [penwidth=2]
    226 -> 13 [penwidth=2]
    17 -> 13 [penwidth=2]
    59 -> 13 [penwidth=2]
    227 -> 13 [penwidth=2]
    18 -> 13 [penwidth=2]
    60 -> 13 [penwidth=2]
    228 -> 13 [penwidth=2]
    19 -> 13 [penwidth=2]
    61 -> 55 [penwidth=2]
    229 -> 55 [penwidth=2]
    20 -> 55 [penwidth=2]
    62 -> 55 [penwidth=2]
    230 -> 55 [penwidth=2]
    21 -> 55 [penwidth=2]
    63 -> 55 [penwidth=2]
    231 -> 55 [penwidth=2]
    22 -> 55 [penwidth=2]
    64 -> 55 [penwidth=2]
    232 -> 55 [penwidth=2]
    23 -> 55 [penwidth=2]
    65 -> 55 [penwidth=2]
    233 -> 55 [penwidth=2]
    24 -> 55 [penwidth=2]
    66 -> 223 [penwidth=2]
    234 -> 223 [penwidth=2]
    25 -> 223 [penwidth=2]
    67 -> 223 [penwidth=2]
    235 -> 223 [penwidth=2]
    26 -> 223 [penwidth=2]
    68 -> 223 [penwidth=2]
    236 -> 223 [penwidth=2]
    27 -> 223 [penwidth=2]
    69 -> 223 [penwidth=2]
    237 -> 223 [penwidth=2]
    28 -> 223 [penwidth=2]
    70 -> 223 [penwidth=2]
    238 -> 223 [penwidth=2]
    29 -> 223 [penwidth=2]
    71 -> 223 [penwidth=2]
    239 -> 223 [penwidth=2]
    30 -> 223 [penwidth=2]
    72 -> 14 [penwidth=2]
    240 -> 14 [penwidth=2]
    31 -> 14 [penwidth=2]
    73 -> 14 [penwidth=2]
    241 -> 14 [penwidth=2]
    74 -> 14 [penwidth=2]
    32 -> 14 [penwidth=2]
    242 -> 14 [penwidth=2]
    75 -> 14 [penwidth=2]
    33 -> 14 [penwidth=2]
    243 -> 14 [penwidth=2]
    34 -> 14 [penwidth=2]
    76 -> 14 [penwidth=2]
    244 -> 14 [penwidth=2]
    35 -> 14 [penwidth=2]
    77 -> 14 [penwidth=2]
    245 -> 14 [penwidth=2]
    36 -> 14 [penwidth=2]
    78 -> 14 [penwidth=2]
    246 -> 14 [penwidth=2]
    37 -> 14 [penwidth=2]
    79 -> 14 [penwidth=2]
    247 -> 14 [penwidth=2]
    38 -> 14 [penwidth=2]
    80 -> 14 [penwidth=2]
    248 -> 56 [penwidth=2]
    39 -> 56 [penwidth=2]
    81 -> 56 [penwidth=2]
    249 -> 56 [penwidth=2]
    40 -> 224 [penwidth=2]
    82 -> 224 [penwidth=2]
    250 -> 224 [penwidth=2]
    41 -> 224 [penwidth=2]
    83 -> 224 [penwidth=2]
    251 -> 224 [penwidth=2]
    42 -> 224 [penwidth=2]
    84 -> 224 [penwidth=2]
    252 -> 224 [penwidth=2]
    43 -> 224 [penwidth=2]
    85 -> 15 [penwidth=2]
    253 -> 15 [penwidth=2]
    44 -> 15 [penwidth=2]
    86 -> 15 [penwidth=2]
    254 -> 15 [penwidth=2]
    45 -> 15 [penwidth=2]
    87 -> 15 [penwidth=2]
    255 -> 15 [penwidth=2]
    46 -> 15 [penwidth=2]
    88 -> 15 [penwidth=2]
    256 -> 15 [penwidth=2]
    47 -> 15 [penwidth=2]
    89 -> 15 [penwidth=2]
    257 -> 15 [penwidth=2]
    48 -> 15 [penwidth=2]
    90 -> 15 [penwidth=2]
    258 -> 57 [penwidth=2]
    49 -> 57 [penwidth=2]
    91 -> 57 [penwidth=2]
    259 -> 57 [penwidth=2]
    50 -> 57 [penwidth=2]
    92 -> 57 [penwidth=2]
    260 -> 57 [penwidth=2]
    51 -> 57 [penwidth=2]
    93 -> 57 [penwidth=2]
    261 -> 225 [penwidth=2]
    52 -> 225 [penwidth=2]
    94 -> 225 [penwidth=2]
    262 -> 225 [penwidth=2]
    53 -> 225 [penwidth=2]
    95 -> 225 [penwidth=2]
    263 -> 16 [penwidth=2]
    54 -> 16 [penwidth=2]
    96 -> 16 [penwidth=2]
    264 -> 16 [penwidth=2]
    181 -> 16 [penwidth=2]
    182 -> 16 [penwidth=2]
    183 -> 16 [penwidth=2]
    184 -> 16 [penwidth=2]
    185 -> 16 [penwidth=2]
    186 -> 16 [penwidth=2]
    187 -> 16 [penwidth=2]
    188 -> 16 [penwidth=2]
    189 -> 58 [penwidth=2]
    190 -> 58 [penwidth=2]
    191 -> 58 [penwidth=2]
    192 -> 58 [penwidth=2]
    193 -> 58 [penwidth=2]
    194 -> 58 [penwidth=2]
    195 -> 58 [penwidth=2]
    196 -> 226 [penwidth=2]
    197 -> 226 [penwidth=2]
    198 -> 226 [penwidth=2]
    199 -> 226 [penwidth=2]
    200 -> 226 [penwidth=2]
    201 -> 226 [penwidth=2]
    202 -> 226 [penwidth=2]
    203 -> 226 [penwidth=2]
    204 -> 226 [penwidth=2]
    205 -> 226 [penwidth=2]
    206 -> 226 [penwidth=2]
    207 -> 226 [penwidth=2]
    208 -> 226 [penwidth=2]
    209 -> 226 [penwidth=2]
    210 -> 226 [penwidth=2]
    211 -> 226 [penwidth=2]
    212 -> 226 [penwidth=2]
    213 -> 226 [penwidth=2]
    214 -> 17 [penwidth=2]
    215 -> 17 [penwidth=2]
    216 -> 17 [penwidth=2]
    217 -> 17 [penwidth=2]
    218 -> 17 [penwidth=2]
    219 -> 17 [penwidth=2]
    220 -> 17 [penwidth=2]
    221 -> 17 [penwidth=2]
    222 -> 59 [penwidth=2]
    1 -> 59 [penwidth=2]
    2 -> 59 [penwidth=2]
    3 -> 59 [penwidth=2]
    4 -> 59 [penwidth=2]
    5 -> 59 [penwidth=2]
    6 -> 59 [penwidth=2]
    7 -> 59 [penwidth=2]
    8 -> 59 [penwidth=2]
    9 -> 59 [penwidth=2]
    10 -> 59 [penwidth=2]
    11 -> 59 [penwidth=2]
    12 -> 59 [penwidth=2]
    97 -> 59 [penwidth=2]
    139 -> 59 [penwidth=2]
    98 -> 59 [penwidth=2]
    140 -> 59 [penwidth=2]
    99 -> 59 [penwidth=2]
    141 -> 59 [penwidth=2]
    100 -> 227 [penwidth=2]
    142 -> 227 [penwidth=2]
    101 -> 227 [penwidth=2]
    143 -> 18 [penwidth=2]
    102 -> 18 [penwidth=2]
    144 -> 18 [penwidth=2]
    103 -> 18 [penwidth=2]
    145 -> 18 [penwidth=2]
    104 -> 18 [penwidth=2]
    146 -> 18 [penwidth=2]
    105 -> 18 [penwidth=2]
    147 -> 18 [penwidth=2]
    106 -> 18 [penwidth=2]
    148 -> 18 [penwidth=2]
    107 -> 18 [penwidth=2]
    149 -> 18 [penwidth=2]
    108 -> 60 [penwidth=2]
    150 -> 60 [penwidth=2]
    109 -> 60 [penwidth=2]
    151 -> 60 [penwidth=2]
    110 -> 60 [penwidth=2]
    152 -> 228 [penwidth=2]
    111 -> 228 [penwidth=2]
    153 -> 228 [penwidth=2]
    112 -> 228 [penwidth=2]
    154 -> 228 [penwidth=2]
    113 -> 228 [penwidth=2]
    155 -> 228 [penwidth=2]
    114 -> 228 [penwidth=2]
    156 -> 228 [penwidth=2]
    115 -> 228 [penwidth=2]
    157 -> 228 [penwidth=2]
    116 -> 228 [penwidth=2]
    158 -> 228 [penwidth=2]
    117 -> 228 [penwidth=2]
    159 -> 228 [penwidth=2]
    118 -> 228 [penwidth=2]
    160 -> 228 [penwidth=2]
    119 -> 228 [penwidth=2]
    161 -> 19 [penwidth=2]
    120 -> 19 [penwidth=2]
    162 -> 19 [penwidth=2]
    121 -> 19 [penwidth=2]
    163 -> 19 [penwidth=2]
    122 -> 19 [penwidth=2]
    164 -> 61 [penwidth=2]
    123 -> 61 [penwidth=2]
    165 -> 61 [penwidth=2]
    124 -> 61 [penwidth=2]
    166 -> 61 [penwidth=2]
    125 -> 61 [penwidth=2]
    167 -> 61 [penwidth=2]
    126 -> 61 [penwidth=2]
    168 -> 61 [penwidth=2]
    127 -> 61 [penwidth=2]
    169 -> 61 [penwidth=2]
    128 -> 61 [penwidth=2]
    170 -> 229 [penwidth=2]
    129 -> 229 [penwidth=2]
    171 -> 229 [penwidth=2]
    130 -> 229 [penwidth=2]
    172 -> 229 [penwidth=2]
    131 -> 229 [penwidth=2]
    173 -> 229 [penwidth=2]
    132 -> 229 [penwidth=2]
    174 -> 229 [penwidth=2]
    133 -> 229 [penwidth=2]
    175 -> 229 [penwidth=2]
    134 -> 229 [penwidth=2]
    176 -> 229 [penwidth=2]
    135 -> 229 [penwidth=2]
    177 -> 229 [penwidth=2]
    136 -> 229 [penwidth=2]
    178 -> 229 [penwidth=2]
    137 -> 229 [penwidth=2]
    179 -> 229 [penwidth=2]
    138 -> 229 [penwidth=2]
    180 -> 229 [penwidth=2]
    265 -> 229 [penwidth=2]
    307 -> 229 [penwidth=2]
    266 -> 20 [penwidth=2]
    308 -> 20 [penwidth=2]
    267 -> 20 [penwidth=2]
    309 -> 20 [penwidth=2]
    268 -> 20 [penwidth=2]
    269 -> 20 [penwidth=2]
    270 -> 20 [penwidth=2]
    271 -> 20 [penwidth=2]
    272 -> 20 [penwidth=2]
    273 -> 20 [penwidth=2]
    274 -> 20 [penwidth=2]
    275 -> 20 [penwidth=2]
    276 -> 20 [penwidth=2]
    277 -> 20 [penwidth=2]
    278 -> 20 [penwidth=2]
    279 -> 20 [penwidth=2]
    280 -> 62 [penwidth=2]
    281 -> 62 [penwidth=2]
    282 -> 62 [penwidth=2]
    283 -> 62 [penwidth=2]
    284 -> 62 [penwidth=2]
    285 -> 62 [penwidth=2]
    286 -> 62 [penwidth=2]
    287 -> 62 [penwidth=2]
    288 -> 62 [penwidth=2]
    289 -> 62 [penwidth=2]
    290 -> 62 [penwidth=2]
    291 -> 62 [penwidth=2]
    292 -> 62 [penwidth=2]
    293 -> 62 [penwidth=2]
    294 -> 62 [penwidth=2]
    295 -> 62 [penwidth=2]
    296 -> 62 [penwidth=2]
    297 -> 62 [penwidth=2]
    298 -> 62 [penwidth=2]
    299 -> 62 [penwidth=2]
    300 -> 62 [penwidth=2]
    301 -> 62 [penwidth=2]
    302 -> 230 [penwidth=2]
    303 -> 230 [penwidth=2]
    304 -> 230 [penwidth=2]
    305 -> 230 [penwidth=2]
    306 -> 230 [penwidth=2]
    16 -> 56 [penwidth=2]
    16 -> 55 [penwidth=2]
    60 -> 15 [penwidth=2]
    228 -> 56 [penwidth=2]
    228 -> 223 [penwidth=2]
    228 -> 14 [penwidth=2]
    228 -> 15 [penwidth=2]
    228 -> 224 [penwidth=2]
    62 -> 224 [penwidth=2]
    62 -> 56 [penwidth=2]
    62 -> 223 [penwidth=2]
    62 -> 15 [penwidth=2]
    63 -> 56 [penwidth=2]
    63 -> 14 [penwidth=2]
    63 -> 223 [penwidth=2]
    22 -> 13 [penwidth=2]
    22 -> 224 [penwidth=2]
    64 -> 223 [penwidth=2]
    64 -> 14 [penwidth=2]
    64 -> 13 [penwidth=2]
    64 -> 15 [penwidth=2]
    64 -> 224 [penwidth=2]
    24 -> 224 [penwidth=2]
    24 -> 56 [penwidth=2]
    234 -> 55 [penwidth=2]
    234 -> 224 [penwidth=2]
    68 -> 13 [penwidth=2]
    68 -> 56 [penwidth=2]
    68 -> 55 [penwidth=2]
    68 -> 15 [penwidth=2]
    240 -> 224 [penwidth=2]
    240 -> 56 [penwidth=2]
    240 -> 15 [penwidth=2]
    240 -> 13 [penwidth=2]
    73 -> 224 [penwidth=2]
    242 -> 13 [penwidth=2]
    39 -> 15 [penwidth=2]
    39 -> 14 [penwidth=2]
    85 -> 14 [penwidth=2]
    85 -> 56 [penwidth=2]
    85 -> 55 [penwidth=2]
    53 -> 80 [penwidth=2]
    53 -> 255 [penwidth=2]
    53 -> 254 [penwidth=2]
    53 -> 57 [penwidth=2]
    53 -> 42 [penwidth=2]
    53 -> 31 [penwidth=2]
    53 -> 232 [penwidth=2]
    53 -> 227 [penwidth=2]
    53 -> 38 [penwidth=2]
    53 -> 62 [penwidth=2]
    53 -> 69 [penwidth=2]
    53 -> 29 [penwidth=2]
    53 -> 58 [penwidth=2]
    53 -> 41 [penwidth=2]
    53 -> 230 [penwidth=2]
    53 -> 87 [penwidth=2]
    53 -> 235 [penwidth=2]
    53 -> 34 [penwidth=2]
    53 -> 64 [penwidth=2]
    53 -> 88 [penwidth=2]
    53 -> 59 [penwidth=2]
    53 -> 244 [penwidth=2]
    53 -> 226 [penwidth=2]
    53 -> 65 [penwidth=2]
    53 -> 85 [penwidth=2]
    53 -> 46 [penwidth=2]
    53 -> 39 [penwidth=2]
    53 -> 33 [penwidth=2]
    53 -> 18 [penwidth=2]
    53 -> 79 [penwidth=2]
    53 -> 229 [penwidth=2]
    53 -> 89 [penwidth=2]
    53 -> 250 [penwidth=2]
    53 -> 231 [penwidth=2]
    53 -> 242 [penwidth=2]
    53 -> 61 [penwidth=2]
    53 -> 76 [penwidth=2]
    53 -> 238 [penwidth=2]
    53 -> 70 [penwidth=2]
    53 -> 35 [penwidth=2]
    53 -> 23 [penwidth=2]
    53 -> 48 [penwidth=2]
    53 -> 21 [penwidth=2]
    53 -> 246 [penwidth=2]
    53 -> 83 [penwidth=2]
    53 -> 36 [penwidth=2]
    53 -> 26 [penwidth=2]
    53 -> 84 [penwidth=2]
    53 -> 72 [penwidth=2]
    53 -> 22 [penwidth=2]
    53 -> 82 [penwidth=2]
    53 -> 77 [penwidth=2]
    53 -> 16 [penwidth=2]
    95 -> 58 [penwidth=2]
    95 -> 40 [penwidth=2]
    95 -> 242 [penwidth=2]
    95 -> 249 [penwidth=2]
    95 -> 236 [penwidth=2]
    95 -> 250 [penwidth=2]
    95 -> 227 [penwidth=2]
    95 -> 29 [penwidth=2]
    95 -> 33 [penwidth=2]
    95 -> 226 [penwidth=2]
    95 -> 23 [penwidth=2]
    95 -> 254 [penwidth=2]
    95 -> 86 [penwidth=2]
    95 -> 42 [penwidth=2]
    95 -> 67 [penwidth=2]
    95 -> 256 [penwidth=2]
    95 -> 230 [penwidth=2]
    95 -> 35 [penwidth=2]
    95 -> 47 [penwidth=2]
    95 -> 20 [penwidth=2]
    95 -> 81 [penwidth=2]
    95 -> 19 [penwidth=2]
    95 -> 21 [penwidth=2]
    95 -> 234 [penwidth=2]
    95 -> 62 [penwidth=2]
    95 -> 246 [penwidth=2]
    95 -> 232 [penwidth=2]
    95 -> 32 [penwidth=2]
    95 -> 79 [penwidth=2]
    95 -> 17 [penwidth=2]
    95 -> 28 [penwidth=2]
    95 -> 60 [penwidth=2]
    95 -> 22 [penwidth=2]
    95 -> 18 [penwidth=2]
    95 -> 237 [penwidth=2]
    95 -> 76 [penwidth=2]
    95 -> 248 [penwidth=2]
    95 -> 83 [penwidth=2]
    95 -> 48 [penwidth=2]
    95 -> 255 [penwidth=2]
    95 -> 87 [penwidth=2]
    95 -> 38 [penwidth=2]
    95 -> 252 [penwidth=2]
    95 -> 27 [penwidth=2]
    95 -> 78 [penwidth=2]
    95 -> 84 [penwidth=2]
    95 -> 65 [penwidth=2]
    95 -> 16 [penwidth=2]
    95 -> 71 [penwidth=2]
    95 -> 257 [penwidth=2]
    95 -> 88 [penwidth=2]
    95 -> 41 [penwidth=2]
    95 -> 66 [penwidth=2]
    95 -> 30 [penwidth=2]
    95 -> 70 [penwidth=2]
    95 -> 85 [penwidth=2]
    263 -> 33 [penwidth=2]
    263 -> 63 [penwidth=2]
    263 -> 32 [penwidth=2]
    263 -> 73 [penwidth=2]
    263 -> 67 [penwidth=2]
    263 -> 25 [penwidth=2]
    263 -> 232 [penwidth=2]
    263 -> 245 [penwidth=2]
    263 -> 78 [penwidth=2]
    263 -> 250 [penwidth=2]
    263 -> 231 [penwidth=2]
    263 -> 257 [penwidth=2]
    263 -> 19 [penwidth=2]
    263 -> 87 [penwidth=2]
    263 -> 57 [penwidth=2]
    263 -> 65 [penwidth=2]
    263 -> 64 [penwidth=2]
    263 -> 236 [penwidth=2]
    263 -> 233 [penwidth=2]
    263 -> 237 [penwidth=2]
    263 -> 248 [penwidth=2]
    263 -> 60 [penwidth=2]
    263 -> 84 [penwidth=2]
    263 -> 41 [penwidth=2]
    263 -> 246 [penwidth=2]
    263 -> 81 [penwidth=2]
    263 -> 61 [penwidth=2]
    263 -> 71 [penwidth=2]
    263 -> 39 [penwidth=2]
    263 -> 68 [penwidth=2]
    263 -> 17 [penwidth=2]
    263 -> 20 [penwidth=2]
    263 -> 40 [penwidth=2]
    263 -> 28 [penwidth=2]
    263 -> 79 [penwidth=2]
    263 -> 30 [penwidth=2]
    263 -> 242 [penwidth=2]
    263 -> 76 [penwidth=2]
    263 -> 249 [penwidth=2]
    263 -> 82 [penwidth=2]
    263 -> 243 [penwidth=2]
    263 -> 80 [penwidth=2]
    263 -> 234 [penwidth=2]
    263 -> 235 [penwidth=2]
    263 -> 35 [penwidth=2]
    263 -> 48 [penwidth=2]
    263 -> 253 [penwidth=2]
    263 -> 244 [penwidth=2]
    263 -> 66 [penwidth=2]
    263 -> 18 [penwidth=2]
    263 -> 90 [penwidth=2]
    263 -> 77 [penwidth=2]
    263 -> 229 [penwidth=2]
    263 -> 21 [penwidth=2]
    263 -> 86 [penwidth=2]
    263 -> 38 [penwidth=2]
    263 -> 27 [penwidth=2]
    263 -> 88 [penwidth=2]
    263 -> 62 [penwidth=2]
    263 -> 24 [penwidth=2]
    263 -> 34 [penwidth=2]
    263 -> 226 [penwidth=2]
    263 -> 238 [penwidth=2]
    263 -> 44 [penwidth=2]
    263 -> 228 [penwidth=2]
    263 -> 227 [penwidth=2]
    263 -> 26 [penwidth=2]
    263 -> 251 [penwidth=2]
    263 -> 42 [penwidth=2]
    263 -> 22 [penwidth=2]
    263 -> 43 [penwidth=2]
    263 -> 85 [penwidth=2]
    263 -> 31 [penwidth=2]
    263 -> 58 [penwidth=2]
    263 -> 247 [penwidth=2]
    263 -> 89 [penwidth=2]
    263 -> 47 [penwidth=2]
    263 -> 240 [penwidth=2]
    263 -> 75 [penwidth=2]
    263 -> 74 [penwidth=2]
    263 -> 241 [penwidth=2]
    263 -> 230 [penwidth=2]
    263 -> 70 [penwidth=2]
    263 -> 69 [penwidth=2]
    263 -> 72 [penwidth=2]
    263 -> 256 [penwidth=2]
    263 -> 29 [penwidth=2]
    263 -> 254 [penwidth=2]
    263 -> 225 [penwidth=2]
    263 -> 36 [penwidth=2]
    263 -> 252 [penwidth=2]
    263 -> 45 [penwidth=2]
    263 -> 59 [penwidth=2]
    263 -> 239 [penwidth=2]
    263 -> 37 [penwidth=2]
    263 -> 23 [penwidth=2]
    263 -> 46 [penwidth=2]
    263 -> 83 [penwidth=2]
    188 -> 236 [penwidth=2]
    188 -> 86 [penwidth=2]
    188 -> 45 [penwidth=2]
    188 -> 254 [penwidth=2]
    188 -> 70 [penwidth=2]
    188 -> 227 [penwidth=2]
    188 -> 35 [penwidth=2]
    188 -> 84 [penwidth=2]
    188 -> 40 [penwidth=2]
    188 -> 17 [penwidth=2]
    188 -> 82 [penwidth=2]
    188 -> 23 [penwidth=2]
    188 -> 233 [penwidth=2]
    188 -> 231 [penwidth=2]
    188 -> 237 [penwidth=2]
    188 -> 245 [penwidth=2]
    188 -> 76 [penwidth=2]
    188 -> 240 [penwidth=2]
    188 -> 255 [penwidth=2]
    188 -> 250 [penwidth=2]
    188 -> 20 [penwidth=2]
    188 -> 25 [penwidth=2]
    188 -> 85 [penwidth=2]
    188 -> 242 [penwidth=2]
    188 -> 243 [penwidth=2]
    188 -> 229 [penwidth=2]
    188 -> 232 [penwidth=2]
    188 -> 257 [penwidth=2]
    188 -> 62 [penwidth=2]
    188 -> 64 [penwidth=2]
    188 -> 74 [penwidth=2]
    188 -> 41 [penwidth=2]
    188 -> 79 [penwidth=2]
    188 -> 46 [penwidth=2]
    188 -> 90 [penwidth=2]
    188 -> 48 [penwidth=2]
    188 -> 89 [penwidth=2]
    188 -> 31 [penwidth=2]
    188 -> 66 [penwidth=2]
    188 -> 226 [penwidth=2]
    188 -> 34 [penwidth=2]
    188 -> 61 [penwidth=2]
    188 -> 22 [penwidth=2]
    188 -> 81 [penwidth=2]
    188 -> 247 [penwidth=2]
    188 -> 238 [penwidth=2]
    188 -> 59 [penwidth=2]
    188 -> 27 [penwidth=2]
    188 -> 244 [penwidth=2]
    188 -> 26 [penwidth=2]
    188 -> 38 [penwidth=2]
    188 -> 87 [penwidth=2]
    188 -> 67 [penwidth=2]
    188 -> 256 [penwidth=2]
    188 -> 42 [penwidth=2]
    188 -> 47 [penwidth=2]
    188 -> 246 [penwidth=2]
    188 -> 28 [penwidth=2]
    188 -> 234 [penwidth=2]
    188 -> 249 [penwidth=2]
    188 -> 19 [penwidth=2]
    199 -> 67 [penwidth=2]
    199 -> 66 [penwidth=2]
    199 -> 32 [penwidth=2]
    199 -> 235 [penwidth=2]
    199 -> 60 [penwidth=2]
    199 -> 90 [penwidth=2]
    199 -> 24 [penwidth=2]
    199 -> 43 [penwidth=2]
    199 -> 45 [penwidth=2]
    199 -> 84 [penwidth=2]
    199 -> 247 [penwidth=2]
    199 -> 237 [penwidth=2]
    199 -> 37 [penwidth=2]
    199 -> 239 [penwidth=2]
    199 -> 41 [penwidth=2]
    199 -> 244 [penwidth=2]
    199 -> 246 [penwidth=2]
    199 -> 229 [penwidth=2]
    199 -> 65 [penwidth=2]
    199 -> 62 [penwidth=2]
    199 -> 256 [penwidth=2]
    199 -> 227 [penwidth=2]
    199 -> 71 [penwidth=2]
    199 -> 68 [penwidth=2]
    199 -> 254 [penwidth=2]
    199 -> 48 [penwidth=2]
    199 -> 47 [penwidth=2]
    199 -> 64 [penwidth=2]
    199 -> 252 [penwidth=2]
    199 -> 240 [penwidth=2]
    199 -> 25 [penwidth=2]
    199 -> 243 [penwidth=2]
    199 -> 86 [penwidth=2]
    199 -> 35 [penwidth=2]
    199 -> 19 [penwidth=2]
    199 -> 230 [penwidth=2]
    199 -> 238 [penwidth=2]
    199 -> 44 [penwidth=2]
    199 -> 34 [penwidth=2]
    199 -> 23 [penwidth=2]
    199 -> 27 [penwidth=2]
    199 -> 46 [penwidth=2]
    199 -> 16 [penwidth=2]
    199 -> 77 [penwidth=2]
    199 -> 61 [penwidth=2]
    199 -> 232 [penwidth=2]
    199 -> 20 [penwidth=2]
    199 -> 245 [penwidth=2]
    199 -> 253 [penwidth=2]
    199 -> 233 [penwidth=2]
    199 -> 63 [penwidth=2]
    199 -> 30 [penwidth=2]
    199 -> 234 [penwidth=2]
    199 -> 21 [penwidth=2]
    199 -> 31 [penwidth=2]
    199 -> 89 [penwidth=2]
    199 -> 85 [penwidth=2]
    199 -> 251 [penwidth=2]
    199 -> 28 [penwidth=2]
    199 -> 18 [penwidth=2]
    199 -> 58 [penwidth=2]
    199 -> 79 [penwidth=2]
    199 -> 225 [penwidth=2]
    199 -> 80 [penwidth=2]
    199 -> 78 [penwidth=2]
    199 -> 248 [penwidth=2]
    199 -> 228 [penwidth=2]
    199 -> 81 [penwidth=2]
    199 -> 76 [penwidth=2]
    199 -> 241 [penwidth=2]
    199 -> 82 [penwidth=2]
    199 -> 72 [penwidth=2]
    199 -> 36 [penwidth=2]
    199 -> 26 [penwidth=2]
    199 -> 83 [penwidth=2]
    199 -> 29 [penwidth=2]
    218 -> 47 [penwidth=2]
    218 -> 58 [penwidth=2]
    218 -> 60 [penwidth=2]
    218 -> 229 [penwidth=2]
    3 -> 25 [penwidth=2]
    3 -> 21 [penwidth=2]
    3 -> 80 [penwidth=2]
    3 -> 64 [penwidth=2]
    3 -> 238 [penwidth=2]
    3 -> 236 [penwidth=2]
    3 -> 16 [penwidth=2]
    3 -> 84 [penwidth=2]
    3 -> 227 [penwidth=2]
    3 -> 82 [penwidth=2]
    3 -> 240 [penwidth=2]
    3 -> 245 [penwidth=2]
    3 -> 254 [penwidth=2]
    3 -> 44 [penwidth=2]
    3 -> 62 [penwidth=2]
    3 -> 17 [penwidth=2]
    3 -> 86 [penwidth=2]
    3 -> 237 [penwidth=2]
    3 -> 249 [penwidth=2]
    3 -> 247 [penwidth=2]
    3 -> 60 [penwidth=2]
    3 -> 57 [penwidth=2]
    3 -> 36 [penwidth=2]
    3 -> 42 [penwidth=2]
    3 -> 67 [penwidth=2]
    3 -> 87 [penwidth=2]
    3 -> 228 [penwidth=2]
    3 -> 37 [penwidth=2]
    3 -> 66 [penwidth=2]
    3 -> 69 [penwidth=2]
    3 -> 32 [penwidth=2]
    3 -> 43 [penwidth=2]
    3 -> 26 [penwidth=2]
    3 -> 18 [penwidth=2]
    3 -> 231 [penwidth=2]
    3 -> 251 [penwidth=2]
    3 -> 34 [penwidth=2]
    3 -> 65 [penwidth=2]
    3 -> 20 [penwidth=2]
    3 -> 61 [penwidth=2]
    3 -> 35 [penwidth=2]
    3 -> 41 [penwidth=2]
    3 -> 244 [penwidth=2]
    3 -> 63 [penwidth=2]
    3 -> 68 [penwidth=2]
    3 -> 85 [penwidth=2]
    99 -> 33 [penwidth=2]
    99 -> 38 [penwidth=2]
    99 -> 252 [penwidth=2]
    99 -> 87 [penwidth=2]
    99 -> 237 [penwidth=2]
    99 -> 244 [penwidth=2]
    99 -> 48 [penwidth=2]
    99 -> 42 [penwidth=2]
    99 -> 233 [penwidth=2]
    99 -> 16 [penwidth=2]
    99 -> 46 [penwidth=2]
    99 -> 256 [penwidth=2]
    99 -> 79 [penwidth=2]
    99 -> 44 [penwidth=2]
    99 -> 74 [penwidth=2]
    105 -> 23 [penwidth=2]
    105 -> 247 [penwidth=2]
    105 -> 254 [penwidth=2]
    105 -> 82 [penwidth=2]
    105 -> 230 [penwidth=2]
    105 -> 78 [penwidth=2]
    105 -> 25 [penwidth=2]
    105 -> 39 [penwidth=2]
    105 -> 63 [penwidth=2]
    105 -> 72 [penwidth=2]
    105 -> 47 [penwidth=2]
    105 -> 248 [penwidth=2]
    105 -> 69 [penwidth=2]
    105 -> 70 [penwidth=2]
    105 -> 68 [penwidth=2]
    105 -> 245 [penwidth=2]
    105 -> 43 [penwidth=2]
    105 -> 240 [penwidth=2]
    105 -> 22 [penwidth=2]
    105 -> 33 [penwidth=2]
    105 -> 88 [penwidth=2]
    105 -> 241 [penwidth=2]
    105 -> 36 [penwidth=2]
    105 -> 244 [penwidth=2]
    105 -> 87 [penwidth=2]
    105 -> 71 [penwidth=2]
    105 -> 235 [penwidth=2]
    105 -> 243 [penwidth=2]
    105 -> 249 [penwidth=2]
    105 -> 86 [penwidth=2]
    105 -> 253 [penwidth=2]
    105 -> 242 [penwidth=2]
    105 -> 255 [penwidth=2]
    105 -> 85 [penwidth=2]
    105 -> 27 [penwidth=2]
    105 -> 231 [penwidth=2]
    105 -> 234 [penwidth=2]
    105 -> 246 [penwidth=2]
    105 -> 41 [penwidth=2]
    105 -> 84 [penwidth=2]
    105 -> 17 [penwidth=2]
    105 -> 32 [penwidth=2]
    105 -> 90 [penwidth=2]
    105 -> 57 [penwidth=2]
    105 -> 228 [penwidth=2]
    105 -> 83 [penwidth=2]
    105 -> 225 [penwidth=2]
    105 -> 89 [penwidth=2]
    105 -> 251 [penwidth=2]
    105 -> 61 [penwidth=2]
    105 -> 74 [penwidth=2]
    105 -> 48 [penwidth=2]
    105 -> 73 [penwidth=2]
    105 -> 28 [penwidth=2]
    105 -> 31 [penwidth=2]
    105 -> 30 [penwidth=2]
    105 -> 252 [penwidth=2]
    105 -> 46 [penwidth=2]
    105 -> 45 [penwidth=2]
    105 -> 62 [penwidth=2]
    105 -> 37 [penwidth=2]
    105 -> 38 [penwidth=2]
    105 -> 65 [penwidth=2]
    105 -> 237 [penwidth=2]
    105 -> 77 [penwidth=2]
    105 -> 67 [penwidth=2]
    105 -> 250 [penwidth=2]
    105 -> 42 [penwidth=2]
    105 -> 75 [penwidth=2]
    105 -> 58 [penwidth=2]
    105 -> 20 [penwidth=2]
    109 -> 30 [penwidth=2]
    109 -> 41 [penwidth=2]
    109 -> 36 [penwidth=2]
    109 -> 20 [penwidth=2]
    109 -> 252 [penwidth=2]
    109 -> 234 [penwidth=2]
    109 -> 78 [penwidth=2]
    109 -> 38 [penwidth=2]
    109 -> 253 [penwidth=2]
    109 -> 22 [penwidth=2]
    109 -> 46 [penwidth=2]
    109 -> 25 [penwidth=2]
    109 -> 34 [penwidth=2]
    109 -> 237 [penwidth=2]
    109 -> 18 [penwidth=2]
    109 -> 227 [penwidth=2]
    109 -> 16 [penwidth=2]
    109 -> 62 [penwidth=2]
    109 -> 80 [penwidth=2]
    109 -> 19 [penwidth=2]
    109 -> 73 [penwidth=2]
    109 -> 29 [penwidth=2]
    109 -> 31 [penwidth=2]
    109 -> 72 [penwidth=2]
    109 -> 48 [penwidth=2]
    109 -> 77 [penwidth=2]
    109 -> 69 [penwidth=2]
    109 -> 254 [penwidth=2]
    109 -> 86 [penwidth=2]
    109 -> 63 [penwidth=2]
    109 -> 59 [penwidth=2]
    109 -> 247 [penwidth=2]
    109 -> 76 [penwidth=2]
    109 -> 37 [penwidth=2]
    111 -> 88 [penwidth=2]
    111 -> 58 [penwidth=2]
    111 -> 84 [penwidth=2]
    111 -> 33 [penwidth=2]
    111 -> 34 [penwidth=2]
    111 -> 31 [penwidth=2]
    111 -> 235 [penwidth=2]
    111 -> 255 [penwidth=2]
    111 -> 66 [penwidth=2]
    111 -> 45 [penwidth=2]
    111 -> 70 [penwidth=2]
    111 -> 239 [penwidth=2]
    111 -> 71 [penwidth=2]
    111 -> 23 [penwidth=2]
    111 -> 243 [penwidth=2]
    111 -> 247 [penwidth=2]
    111 -> 225 [penwidth=2]
    111 -> 36 [penwidth=2]
    111 -> 254 [penwidth=2]
    111 -> 227 [penwidth=2]
    111 -> 253 [penwidth=2]
    111 -> 38 [penwidth=2]
    111 -> 22 [penwidth=2]
    111 -> 242 [penwidth=2]
    111 -> 252 [penwidth=2]
    111 -> 63 [penwidth=2]
    111 -> 47 [penwidth=2]
    111 -> 256 [penwidth=2]
    111 -> 233 [penwidth=2]
    111 -> 35 [penwidth=2]
    111 -> 48 [penwidth=2]
    111 -> 240 [penwidth=2]
    111 -> 67 [penwidth=2]
    112 -> 231 [penwidth=2]
    112 -> 246 [penwidth=2]
    112 -> 72 [penwidth=2]
    112 -> 16 [penwidth=2]
    112 -> 233 [penwidth=2]
    112 -> 40 [penwidth=2]
    112 -> 46 [penwidth=2]
    112 -> 67 [penwidth=2]
    112 -> 69 [penwidth=2]
    112 -> 63 [penwidth=2]
    112 -> 26 [penwidth=2]
    112 -> 81 [penwidth=2]
    112 -> 30 [penwidth=2]
    112 -> 225 [penwidth=2]
    112 -> 21 [penwidth=2]
    112 -> 41 [penwidth=2]
    112 -> 45 [penwidth=2]
    112 -> 88 [penwidth=2]
    112 -> 83 [penwidth=2]
    112 -> 230 [penwidth=2]
    112 -> 74 [penwidth=2]
    112 -> 85 [penwidth=2]
    112 -> 33 [penwidth=2]
    112 -> 57 [penwidth=2]
    112 -> 65 [penwidth=2]
    112 -> 235 [penwidth=2]
    112 -> 249 [penwidth=2]
    112 -> 79 [penwidth=2]
    112 -> 31 [penwidth=2]
    112 -> 39 [penwidth=2]
    112 -> 242 [penwidth=2]
    112 -> 37 [penwidth=2]
    112 -> 28 [penwidth=2]
    112 -> 89 [penwidth=2]
    112 -> 71 [penwidth=2]
    112 -> 59 [penwidth=2]
    112 -> 254 [penwidth=2]
    112 -> 243 [penwidth=2]
    112 -> 76 [penwidth=2]
    112 -> 70 [penwidth=2]
    112 -> 253 [penwidth=2]
    112 -> 24 [penwidth=2]
    112 -> 232 [penwidth=2]
    112 -> 251 [penwidth=2]
    112 -> 32 [penwidth=2]
    112 -> 62 [penwidth=2]
    112 -> 227 [penwidth=2]
    112 -> 68 [penwidth=2]
    112 -> 238 [penwidth=2]
    112 -> 244 [penwidth=2]
    129 -> 254 [penwidth=2]
    129 -> 25 [penwidth=2]
    129 -> 60 [penwidth=2]
    129 -> 33 [penwidth=2]
    129 -> 73 [penwidth=2]
    129 -> 252 [penwidth=2]
    129 -> 247 [penwidth=2]
    129 -> 74 [penwidth=2]
    129 -> 48 [penwidth=2]
    129 -> 233 [penwidth=2]
    129 -> 16 [penwidth=2]
    129 -> 20 [penwidth=2]
    129 -> 67 [penwidth=2]
    129 -> 75 [penwidth=2]
    129 -> 248 [penwidth=2]
    129 -> 21 [penwidth=2]
    129 -> 71 [penwidth=2]
    129 -> 255 [penwidth=2]
    129 -> 28 [penwidth=2]
    129 -> 77 [penwidth=2]
    129 -> 72 [penwidth=2]
    129 -> 26 [penwidth=2]
    129 -> 241 [penwidth=2]
    129 -> 87 [penwidth=2]
    129 -> 84 [penwidth=2]
    129 -> 70 [penwidth=2]
    129 -> 86 [penwidth=2]
    129 -> 17 [penwidth=2]
    129 -> 59 [penwidth=2]
    129 -> 90 [penwidth=2]
    129 -> 237 [penwidth=2]
    129 -> 231 [penwidth=2]
    129 -> 89 [penwidth=2]
    129 -> 228 [penwidth=2]
    129 -> 227 [penwidth=2]
    129 -> 37 [penwidth=2]
    129 -> 251 [penwidth=2]
    129 -> 226 [penwidth=2]
    129 -> 22 [penwidth=2]
    129 -> 69 [penwidth=2]
    129 -> 232 [penwidth=2]
    129 -> 80 [penwidth=2]
    129 -> 39 [penwidth=2]
    129 -> 65 [penwidth=2]
    129 -> 68 [penwidth=2]
    129 -> 27 [penwidth=2]
    129 -> 238 [penwidth=2]
    129 -> 243 [penwidth=2]
    129 -> 34 [penwidth=2]
    129 -> 36 [penwidth=2]
    129 -> 35 [penwidth=2]
    129 -> 76 [penwidth=2]
    129 -> 239 [penwidth=2]
    129 -> 250 [penwidth=2]
    129 -> 242 [penwidth=2]
    129 -> 19 [penwidth=2]
    129 -> 43 [penwidth=2]
    129 -> 83 [penwidth=2]
    129 -> 57 [penwidth=2]
    129 -> 236 [penwidth=2]
    129 -> 235 [penwidth=2]
    129 -> 249 [penwidth=2]
    129 -> 64 [penwidth=2]
    129 -> 88 [penwidth=2]
    129 -> 79 [penwidth=2]
    129 -> 18 [penwidth=2]
    129 -> 30 [penwidth=2]
    129 -> 234 [penwidth=2]
    129 -> 23 [penwidth=2]
    129 -> 245 [penwidth=2]
    129 -> 246 [penwidth=2]
    129 -> 29 [penwidth=2]
    129 -> 38 [penwidth=2]
    129 -> 78 [penwidth=2]
    129 -> 44 [penwidth=2]
    129 -> 46 [penwidth=2]
    129 -> 230 [penwidth=2]
    129 -> 85 [penwidth=2]
    129 -> 41 [penwidth=2]
    129 -> 58 [penwidth=2]
    129 -> 82 [penwidth=2]
    129 -> 62 [penwidth=2]
    129 -> 225 [penwidth=2]
    129 -> 47 [penwidth=2]
    129 -> 31 [penwidth=2]
    129 -> 81 [penwidth=2]
    129 -> 40 [penwidth=2]
    129 -> 32 [penwidth=2]
    129 -> 244 [penwidth=2]
    175 -> 86 [penwidth=2]
    175 -> 59 [penwidth=2]
    269 -> 240 [penwidth=2]
    269 -> 227 [penwidth=2]
    269 -> 41 [penwidth=2]
    269 -> 248 [penwidth=2]
    269 -> 31 [penwidth=2]
    269 -> 60 [penwidth=2]
    269 -> 232 [penwidth=2]
    269 -> 17 [penwidth=2]
    269 -> 76 [penwidth=2]
    269 -> 64 [penwidth=2]
    269 -> 233 [penwidth=2]
    269 -> 59 [penwidth=2]
    269 -> 256 [penwidth=2]
    269 -> 84 [penwidth=2]
    269 -> 27 [penwidth=2]
    269 -> 79 [penwidth=2]
    269 -> 66 [penwidth=2]
    269 -> 38 [penwidth=2]
    269 -> 24 [penwidth=2]
    269 -> 241 [penwidth=2]
    269 -> 90 [penwidth=2]
    269 -> 36 [penwidth=2]
    269 -> 42 [penwidth=2]
    269 -> 63 [penwidth=2]
    269 -> 29 [penwidth=2]
    269 -> 254 [penwidth=2]
    269 -> 67 [penwidth=2]
    269 -> 75 [penwidth=2]
    269 -> 33 [penwidth=2]
    269 -> 244 [penwidth=2]
    269 -> 231 [penwidth=2]
    269 -> 23 [penwidth=2]
    269 -> 71 [penwidth=2]
    269 -> 16 [penwidth=2]
    269 -> 253 [penwidth=2]
    269 -> 26 [penwidth=2]
    269 -> 19 [penwidth=2]
    269 -> 74 [penwidth=2]
    274 -> 231 [penwidth=2]
    274 -> 78 [penwidth=2]
    274 -> 36 [penwidth=2]
    274 -> 251 [penwidth=2]
    274 -> 26 [penwidth=2]
    274 -> 256 [penwidth=2]
    274 -> 48 [penwidth=2]
    278 -> 22 [penwidth=2]
    278 -> 32 [penwidth=2]
    278 -> 226 [penwidth=2]
    278 -> 232 [penwidth=2]
    278 -> 73 [penwidth=2]
    278 -> 231 [penwidth=2]
    278 -> 66 [penwidth=2]
    278 -> 33 [penwidth=2]
    278 -> 23 [penwidth=2]
    278 -> 37 [penwidth=2]
    278 -> 239 [penwidth=2]
    278 -> 79 [penwidth=2]
    278 -> 69 [penwidth=2]
    278 -> 27 [penwidth=2]
    278 -> 77 [penwidth=2]
    278 -> 84 [penwidth=2]
    278 -> 76 [penwidth=2]
    278 -> 17 [penwidth=2]
    278 -> 257 [penwidth=2]
    278 -> 227 [penwidth=2]
    278 -> 26 [penwidth=2]
    278 -> 253 [penwidth=2]
    278 -> 16 [penwidth=2]
    278 -> 236 [penwidth=2]
    278 -> 40 [penwidth=2]
    278 -> 65 [penwidth=2]
    278 -> 241 [penwidth=2]
    278 -> 256 [penwidth=2]
    278 -> 225 [penwidth=2]
    278 -> 243 [penwidth=2]
    278 -> 19 [penwidth=2]
    278 -> 78 [penwidth=2]
    278 -> 59 [penwidth=2]
    278 -> 82 [penwidth=2]
    278 -> 43 [penwidth=2]
    278 -> 81 [penwidth=2]
    278 -> 233 [penwidth=2]
    278 -> 87 [penwidth=2]
    278 -> 83 [penwidth=2]
    278 -> 62 [penwidth=2]
    278 -> 90 [penwidth=2]
    278 -> 74 [penwidth=2]
    278 -> 24 [penwidth=2]
    278 -> 36 [penwidth=2]
    278 -> 46 [penwidth=2]
    278 -> 250 [penwidth=2]
    278 -> 235 [penwidth=2]
    278 -> 89 [penwidth=2]
    278 -> 41 [penwidth=2]
    278 -> 230 [penwidth=2]
    278 -> 67 [penwidth=2]
    278 -> 255 [penwidth=2]
    278 -> 39 [penwidth=2]
    278 -> 63 [penwidth=2]
    278 -> 47 [penwidth=2]
    278 -> 251 [penwidth=2]
    278 -> 64 [penwidth=2]
    278 -> 245 [penwidth=2]
    278 -> 246 [penwidth=2]
    278 -> 29 [penwidth=2]
    278 -> 21 [penwidth=2]
    287 -> 25 [penwidth=2]
    287 -> 23 [penwidth=2]
    287 -> 226 [penwidth=2]
    287 -> 257 [penwidth=2]
    287 -> 30 [penwidth=2]
    287 -> 87 [penwidth=2]
    287 -> 64 [penwidth=2]
    287 -> 81 [penwidth=2]
    287 -> 19 [penwidth=2]
    287 -> 85 [penwidth=2]
    287 -> 37 [penwidth=2]
    287 -> 236 [penwidth=2]
    287 -> 239 [penwidth=2]
    287 -> 253 [penwidth=2]
    287 -> 249 [penwidth=2]
    287 -> 67 [penwidth=2]
    287 -> 59 [penwidth=2]
    287 -> 60 [penwidth=2]
    287 -> 234 [penwidth=2]
    287 -> 29 [penwidth=2]
    287 -> 242 [penwidth=2]
    287 -> 48 [penwidth=2]
    287 -> 65 [penwidth=2]
    287 -> 18 [penwidth=2]
    287 -> 44 [penwidth=2]
    287 -> 42 [penwidth=2]
    287 -> 235 [penwidth=2]
    287 -> 69 [penwidth=2]
    287 -> 251 [penwidth=2]
    287 -> 225 [penwidth=2]
    287 -> 41 [penwidth=2]
    287 -> 58 [penwidth=2]
    287 -> 238 [penwidth=2]
    287 -> 255 [penwidth=2]
    287 -> 21 [penwidth=2]
    287 -> 66 [penwidth=2]
    287 -> 22 [penwidth=2]
    287 -> 76 [penwidth=2]
    287 -> 256 [penwidth=2]
    287 -> 16 [penwidth=2]
    287 -> 237 [penwidth=2]
    287 -> 57 [penwidth=2]
    287 -> 250 [penwidth=2]
    287 -> 244 [penwidth=2]
    287 -> 17 [penwidth=2]
    287 -> 247 [penwidth=2]
    287 -> 47 [penwidth=2]
    287 -> 88 [penwidth=2]
    287 -> 89 [penwidth=2]
    287 -> 243 [penwidth=2]
    287 -> 45 [penwidth=2]
    287 -> 232 [penwidth=2]
    287 -> 82 [penwidth=2]
    287 -> 230 [penwidth=2]
    287 -> 40 [penwidth=2]
    287 -> 241 [penwidth=2]
    287 -> 77 [penwidth=2]
    287 -> 245 [penwidth=2]
    287 -> 246 [penwidth=2]
    287 -> 78 [penwidth=2]
    287 -> 90 [penwidth=2]
    287 -> 228 [penwidth=2]
    292 -> 73 [penwidth=2]
    292 -> 44 [penwidth=2]
    292 -> 23 [penwidth=2]
    292 -> 38 [penwidth=2]
    292 -> 45 [penwidth=2]
    292 -> 87 [penwidth=2]
    292 -> 226 [penwidth=2]
    292 -> 48 [penwidth=2]
    292 -> 24 [penwidth=2]
    292 -> 243 [penwidth=2]
    292 -> 26 [penwidth=2]
    292 -> 236 [penwidth=2]
    292 -> 66 [penwidth=2]
    292 -> 78 [penwidth=2]
    292 -> 80 [penwidth=2]
    292 -> 253 [penwidth=2]
    292 -> 36 [penwidth=2]
    292 -> 84 [penwidth=2]
    292 -> 46 [penwidth=2]
    292 -> 47 [penwidth=2]
    292 -> 29 [penwidth=2]
    292 -> 18 [penwidth=2]
    292 -> 237 [penwidth=2]
    292 -> 241 [penwidth=2]
    306 -> 244 [penwidth=2]
    306 -> 62 [penwidth=2]
    306 -> 30 [penwidth=2]
    306 -> 46 [penwidth=2]
    306 -> 18 [penwidth=2]
    306 -> 59 [penwidth=2]
    306 -> 20 [penwidth=2]
    306 -> 32 [penwidth=2]
    306 -> 245 [penwidth=2]
    306 -> 37 [penwidth=2]
    306 -> 252 [penwidth=2]
    306 -> 233 [penwidth=2]
    306 -> 35 [penwidth=2]
    306 -> 251 [penwidth=2]
    306 -> 239 [penwidth=2]
    306 -> 228 [penwidth=2]
    306 -> 246 [penwidth=2]
    306 -> 255 [penwidth=2]
    306 -> 236 [penwidth=2]
    306 -> 248 [penwidth=2]
    306 -> 238 [penwidth=2]
    306 -> 36 [penwidth=2]
    306 -> 27 [penwidth=2]
    306 -> 16 [penwidth=2]
    306 -> 79 [penwidth=2]
    306 -> 75 [penwidth=2]
    306 -> 22 [penwidth=2]
    306 -> 24 [penwidth=2]
    306 -> 64 [penwidth=2]
    306 -> 86 [penwidth=2]
    306 -> 72 [penwidth=2]
    306 -> 225 [penwidth=2]
    306 -> 74 [penwidth=2]
    306 -> 39 [penwidth=2]
    306 -> 82 [penwidth=2]
    306 -> 73 [penwidth=2]
    306 -> 69 [penwidth=2]
    306 -> 256 [penwidth=2]
    306 -> 66 [penwidth=2]
    306 -> 57 [penwidth=2]
    306 -> 17 [penwidth=2]
    306 -> 240 [penwidth=2]
    306 -> 48 [penwidth=2]
    306 -> 21 [penwidth=2]
    306 -> 241 [penwidth=2]
    306 -> 227 [penwidth=2]
    306 -> 249 [penwidth=2]
}