digraph G {
    0 [penwidth=3,label="0"]
    1 [penwidth=3,label="1"]
    2 [penwidth=3,label="2"]
    3 [penwidth=3,label="3"]
    4 [penwidth=3,label="4"]
    5 [penwidth=3,label="5"]
    6 [penwidth=3,label="6"]
    7 [penwidth=3,label="7"]
    8 [penwidth=3,label="8"]
    9 [penwidth=3,label="9"]
    10 [penwidth=3,label="10"]
    11 [penwidth=3,label="11"]
    12 [penwidth=3,label="12"]
    13 [penwidth=3,label="13"]
    14 [penwidth=3,label="14"]
    15 [penwidth=3,label="15"]
    16 [penwidth=3,label="16"]
    17 [penwidth=3,label="17"]
    18 [penwidth=3,label="18"]
    19 [penwidth=3,label="19"]
    20 [penwidth=3,label="20"]
    21 [penwidth=3,label="21"]
    22 [penwidth=3,label="22"]
    23 [penwidth=3,label="23"]
    24 [penwidth=3,label="24"]
    25 [penwidth=3,label="25"]
    26 [penwidth=3,label="26"]
    27 [penwidth=3,label="27"]
    28 [penwidth=3,label="28"]
    29 [penwidth=3,label="29"]
    30 [penwidth=3,label="30"]
    31 [penwidth=3,label="31"]
    32 [penwidth=3,label="32"]
    33 [penwidth=3,label="33"]
    34 [penwidth=3,label="34"]
    35 [penwidth=3,label="35"]
    36 [penwidth=3,label="36"]
    37 [penwidth=3,label="37"]
    38 [penwidth=3,label="38"]
    39 [penwidth=3,label="39"]
    40 [penwidth=3,label="40"]
    41 [penwidth=3,label="41"]
    42 [penwidth=3,label="42"]
    43 [penwidth=3,label="43"]
    44 [penwidth=3,label="44"]
    45 [penwidth=3,label="45"]
    46 [penwidth=3,label="46"]
    47 [penwidth=3,label="47"]
    48 [penwidth=3,label="48"]
    49 [penwidth=3,label="49"]
    50 [penwidth=3,label="50"]
    51 [penwidth=3,label="51"]
    52 [penwidth=3,label="52"]
    53 [penwidth=3,label="53"]
    54 [penwidth=3,label="54"]
    55 [penwidth=3,label="55"]
    56 [penwidth=3,label="56"]
    57 [penwidth=3,label="57"]
    58 [penwidth=3,label="58"]
    59 [penwidth=3,label="59"]
    60 [penwidth=3,label="60"]
    61 [penwidth=3,label="61"]
    62 [penwidth=3,label="62"]
    63 [penwidth=3,label="63"]
    64 [penwidth=3,label="64"]
    65 [penwidth=3,label="65"]
    66 [penwidth=3,label="66"]
    67 [penwidth=3,label="67"]
    68 [penwidth=3,label="68"]
    69 [penwidth=3,label="69"]
    70 [penwidth=3,label="70"]
    71 [penwidth=3,label="71"]
    72 [penwidth=3,label="72"]
    73 [penwidth=3,label="73"]
    74 [penwidth=3,label="74"]
    75 [penwidth=3,label="75"]
    76 [penwidth=3,label="76"]
    77 [penwidth=3,label="77"]
    78 [penwidth=3,label="78"]
    79 [penwidth=3,label="79"]
    80 [penwidth=3,label="80"]
    81 [penwidth=3,label="81"]
    82 [penwidth=3,label="82"]
    83 [penwidth=3,label="83"]
    84 [penwidth=3,label="84"]
    85 [penwidth=3,label="85"]
    86 [penwidth=3,label="86"]
    87 [penwidth=3,label="87"]
    88 [penwidth=3,label="88"]
    89 [penwidth=3,label="89"]
    90 [penwidth=3,label="90"]
    91 [penwidth=3,label="91"]
    92 [penwidth=3,label="92"]
    93 [penwidth=3,label="93"]
    94 [penwidth=3,label="94"]
    95 [penwidth=3,label="95"]
    96 [penwidth=3,label="96"]
    97 [penwidth=3,label="97"]
    98 [penwidth=3,label="98"]
    99 [penwidth=3,label="99"]
    100 [penwidth=3,label="100"]
    101 [penwidth=3,label="101"]
    102 [penwidth=3,label="102"]
    103 [penwidth=3,label="103"]
    104 [penwidth=3,label="104"]
    105 [penwidth=3,label="105"]
    106 [penwidth=3,label="106"]
    107 [penwidth=3,label="107"]
    108 [penwidth=3,label="108"]
    109 [penwidth=3,label="109"]
    110 [penwidth=3,label="110"]
    111 [penwidth=3,label="111"]
    112 [penwidth=3,label="112"]
    113 [penwidth=3,label="113"]
    114 [penwidth=3,label="114"]
    115 [penwidth=3,label="115"]
    116 [penwidth=3,label="116"]
    117 [penwidth=3,label="117"]
    118 [penwidth=3,label="118"]
    119 [penwidth=3,label="119"]
    120 [penwidth=3,label="120"]
    121 [penwidth=3,label="121"]
    122 [penwidth=3,label="122"]
    123 [penwidth=3,label="123"]
    124 [penwidth=3,label="124"]
    125 [penwidth=3,label="125"]
    126 [penwidth=3,label="126"]
    127 [penwidth=3,label="127"]
    128 [penwidth=3,label="128"]
    129 [penwidth=3,label="129"]
    130 [penwidth=3,label="130"]
    131 [penwidth=3,label="131"]
    132 [penwidth=3,label="132"]
    133 [penwidth=3,label="133"]
    134 [penwidth=3,label="134"]
    135 [penwidth=3,label="135"]
    136 [penwidth=3,label="136"]
    137 [penwidth=3,label="137"]
    138 [penwidth=3,label="138"]
    139 [penwidth=3,label="139"]
    140 [penwidth=3,label="140"]
    141 [penwidth=3,label="141"]
    142 [penwidth=3,label="142"]
    143 [penwidth=3,label="143"]
    144 [penwidth=3,label="144"]
    145 [penwidth=3,label="145"]
    146 [penwidth=3,label="146"]
    147 [penwidth=3,label="147"]
    148 [penwidth=3,label="148"]
    149 [penwidth=3,label="149"]
    150 [penwidth=3,label="150"]
    151 [penwidth=3,label="151"]
    152 [penwidth=3,label="152"]
    153 [penwidth=3,label="153"]
    154 [penwidth=3,label="154"]
    155 [penwidth=3,label="155"]
    156 [penwidth=3,label="156"]
    157 [penwidth=3,label="157"]
    158 [penwidth=3,label="158"]
    159 [penwidth=3,label="159"]
    160 [penwidth=3,label="160"]
    161 [penwidth=3,label="161"]
    162 [penwidth=3,label="162"]
    163 [penwidth=3,label="163"]
    164 [penwidth=3,label="164"]
    165 [penwidth=3,label="165"]
    166 [penwidth=3,label="166"]
    167 [penwidth=3,label="167"]
    168 [penwidth=3,label="168"]
    169 [penwidth=3,label="169"]
    170 [penwidth=3,label="170"]
    171 [penwidth=3,label="171"]
    172 [penwidth=3,label="172"]
    173 [penwidth=3,label="173"]
    174 [penwidth=3,label="174"]
    175 [penwidth=3,label="175"]
    176 [penwidth=3,label="176"]
    177 [penwidth=3,label="177"]
    178 [penwidth=3,label="178"]
    179 [penwidth=3,label="179"]
    180 [penwidth=3,label="180"]
    181 [penwidth=3,label="181"]
    182 [penwidth=3,label="182"]
    183 [penwidth=3,label="183"]
    184 [penwidth=3,label="184"]
    185 [penwidth=3,label="185"]
    186 [penwidth=3,label="186"]
    187 [penwidth=3,label="187"]
    188 [penwidth=3,label="188"]
    189 [penwidth=3,label="189"]
    190 [penwidth=3,label="190"]
    191 [penwidth=3,label="191"]
    192 [penwidth=3,label="192"]
    193 [penwidth=3,label="193"]
    194 [penwidth=3,label="194"]
    195 [penwidth=3,label="195"]
    196 [penwidth=3,label="196"]
    197 [penwidth=3,label="197"]
    198 [penwidth=3,label="198"]
    199 [penwidth=3,label="199"]
    200 [penwidth=3,label="200"]
    201 [penwidth=3,label="201"]
    202 [penwidth=3,label="202"]
    203 [penwidth=3,label="203"]
    204 [penwidth=3,label="204"]
    205 [penwidth=3,label="205"]
    206 [penwidth=3,label="206"]
    207 [penwidth=3,label="207"]
    208 [penwidth=3,label="208"]
    209 [penwidth=3,label="209"]
    210 [penwidth=3,label="210"]
    211 [penwidth=3,label="211"]
    212 [penwidth=3,label="212"]
    213 [penwidth=3,label="213"]
    214 [penwidth=3,label="214"]
    215 [penwidth=3,label="215"]
    216 [penwidth=3,label="216"]
    217 [penwidth=3,label="217"]
    218 [penwidth=3,label="218"]
    219 [penwidth=3,label="219"]
    220 [penwidth=3,label="220"]
    221 [penwidth=3,label="221"]
    222 [penwidth=3,label="222"]
    223 [penwidth=3,label="223"]
    224 [penwidth=3,label="224"]
    225 [penwidth=3,label="225"]
    226 [penwidth=3,label="226"]
    227 [penwidth=3,label="227"]
    228 [penwidth=3,label="228"]
    229 [penwidth=3,label="229"]
    230 [penwidth=3,label="230"]
    231 [penwidth=3,label="231"]
    232 [penwidth=3,label="232"]
    233 [penwidth=3,label="233"]
    234 [penwidth=3,label="234"]
    235 [penwidth=3,label="235"]
    236 [penwidth=3,label="236"]
    237 [penwidth=3,label="237"]
    238 [penwidth=3,label="238"]
    239 [penwidth=3,label="239"]
    240 [penwidth=3,label="240"]
    241 [penwidth=3,label="241"]
    242 [penwidth=3,label="242"]
    243 [penwidth=3,label="243"]
    244 [penwidth=3,label="244"]
    245 [penwidth=3,label="245"]
    246 [penwidth=3,label="246"]
    247 [penwidth=3,label="247"]
    248 [penwidth=3,label="248"]
    249 [penwidth=3,label="249"]
    250 [penwidth=3,label="250"]
    251 [penwidth=3,label="251"]
    252 [penwidth=3,label="252"]
    253 [penwidth=3,label="253"]
    254 [penwidth=3,label="254"]
    255 [penwidth=3,label="255"]
    256 [penwidth=3,label="256"]
    257 [penwidth=3,label="257"]
    258 [penwidth=3,label="258"]
    259 [penwidth=3,label="259"]
    260 [penwidth=3,label="260"]
    261 [penwidth=3,label="261"]
    262 [penwidth=3,label="262"]
    263 [penwidth=3,label="263"]
    264 [penwidth=3,label="264"]
    265 [penwidth=3,label="265"]
    266 [penwidth=3,label="266"]
    267 [penwidth=3,label="267"]
    268 [penwidth=3,label="268"]
    269 [penwidth=3,label="269"]
    270 [penwidth=3,label="270"]
    271 [penwidth=3,label="271"]
    272 [penwidth=3,label="272"]
    273 [penwidth=3,label="273"]
    274 [penwidth=3,label="274"]
    275 [penwidth=3,label="275"]
    276 [penwidth=3,label="276"]
    277 [penwidth=3,label="277"]
    278 [penwidth=3,label="278"]
    279 [penwidth=3,label="279"]
    280 [penwidth=3,label="280"]
    281 [penwidth=3,label="281"]
    282 [penwidth=3,label="282"]
    283 [penwidth=3,label="283"]
    284 [penwidth=3,label="284"]
    285 [penwidth=3,label="285"]
    286 [penwidth=3,label="286"]
    287 [penwidth=3,label="287"]
    288 [penwidth=3,label="288"]
    289 [penwidth=3,label="289"]
    290 [penwidth=3,label="290"]
    291 [penwidth=3,label="291"]
    292 [penwidth=3,label="292"]
    293 [penwidth=3,label="293"]
    294 [penwidth=3,label="294"]
    295 [penwidth=3,label="295"]
    296 [penwidth=3,label="296"]
    297 [penwidth=3,label="297"]
    298 [penwidth=3,label="298"]
    299 [penwidth=3,label="299"]
    300 [penwidth=3,label="300"]
    301 [penwidth=3,label="301"]
    302 [penwidth=3,label="302"]
    303 [penwidth=3,label="303"]
    304 [penwidth=3,label="304"]
    305 [penwidth=3,label="305"]
    306 [penwidth=3,label="306"]
    307 [penwidth=3,label="307"]
    308 [penwidth=3,label="308"]
    309 [penwidth=3,label="309"]

    1 -> 0 [penwidth=2]
    2 -> 0 [penwidth=2]
    3 -> 0 [penwidth=2]
    4 -> 0 [penwidth=2]
    5 -> 0 [penwidth=2]
    6 -> 0 [penwidth=2]
    7 -> 0 [penwidth=2]
    8 -> 1 [penwidth=2]
    9 -> 1 [penwidth=2]
    10 -> 1 [penwidth=2]
    11 -> 1 [penwidth=2]
    12 -> 1 [penwidth=2]
    223 -> 1 [penwidth=2]
    224 -> 1 [penwidth=2]
    225 -> 1 [penwidth=2]
    226 -> 1 [penwidth=2]
    227 -> 1 [penwidth=2]
    228 -> 1 [penwidth=2]
    54 -> 2 [penwidth=2]
    229 -> 2 [penwidth=2]
    230 -> 2 [penwidth=2]
    231 -> 2 [penwidth=2]
    232 -> 2 [penwidth=2]
    233 -> 2 [penwidth=2]
    234 -> 2 [penwidth=2]
    235 -> 3 [penwidth=2]
    236 -> 3 [penwidth=2]
    237 -> 3 [penwidth=2]
    238 -> 3 [penwidth=2]
    239 -> 3 [penwidth=2]
    240 -> 3 [penwidth=2]
    241 -> 3 [penwidth=2]
    242 -> 3 [penwidth=2]
    243 -> 3 [penwidth=2]
    244 -> 3 [penwidth=2]
    245 -> 3 [penwidth=2]
    246 -> 3 [penwidth=2]
    247 -> 3 [penwidth=2]
    248 -> 3 [penwidth=2]
    249 -> 3 [penwidth=2]
    250 -> 3 [penwidth=2]
    251 -> 3 [penwidth=2]
    252 -> 3 [penwidth=2]
    253 -> 3 [penwidth=2]
    254 -> 3 [penwidth=2]
    255 -> 3 [penwidth=2]
    256 -> 4 [penwidth=2]
    257 -> 4 [penwidth=2]
    258 -> 4 [penwidth=2]
    259 -> 4 [penwidth=2]
    260 -> 4 [penwidth=2]
    261 -> 4 [penwidth=2]
    262 -> 4 [penwidth=2]
    263 -> 4 [penwidth=2]
    264 -> 5 [penwidth=2]
    97 -> 5 [penwidth=2]
    181 -> 5 [penwidth=2]
    265 -> 5 [penwidth=2]
    98 -> 5 [penwidth=2]
    182 -> 5 [penwidth=2]
    266 -> 5 [penwidth=2]
    99 -> 5 [penwidth=2]
    183 -> 5 [penwidth=2]
    267 -> 5 [penwidth=2]
    100 -> 5 [penwidth=2]
    184 -> 6 [penwidth=2]
    268 -> 6 [penwidth=2]
    101 -> 6 [penwidth=2]
    185 -> 6 [penwidth=2]
    269 -> 7 [penwidth=2]
    102 -> 7 [penwidth=2]
    186 -> 7 [penwidth=2]
    270 -> 7 [penwidth=2]
    103 -> 7 [penwidth=2]
    187 -> 7 [penwidth=2]
    271 -> 7 [penwidth=2]
    104 -> 7 [penwidth=2]
    188 -> 7 [penwidth=2]
    272 -> 7 [penwidth=2]
    105 -> 7 [penwidth=2]
    189 -> 7 [penwidth=2]
    273 -> 7 [penwidth=2]
    106 -> 7 [penwidth=2]
    190 -> 8 [penwidth=2]
    274 -> 8 [penwidth=2]
    107 -> 8 [penwidth=2]
    191 -> 8 [penwidth=2]
    275 -> 8 [penwidth=2]
    108 -> 8 [penwidth=2]
    192 -> 8 [penwidth=2]
    276 -> 8 [penwidth=2]
    109 -> 8 [penwidth=2]
    193 -> 8 [penwidth=2]
    277 -> 8 [penwidth=2]
    110 -> 8 [penwidth=2]
    194 -> 8 [penwidth=2]
    278 -> 8 [penwidth=2]
    111 -> 8 [penwidth=2]
    195 -> 8 [penwidth=2]
    279 -> 8 [penwidth=2]
    112 -> 8 [penwidth=2]
    196 -> 8 [penwidth=2]
    280 -> 8 [penwidth=2]
    113 -> 8 [penwidth=2]
    197 -> 8 [penwidth=2]
    281 -> 8 [penwidth=2]
    114 -> 8 [penwidth=2]
    198 -> 10 [penwidth=2]
    282 -> 10 [penwidth=2]
    115 -> 10 [penwidth=2]
    199 -> 10 [penwidth=2]
    283 -> 10 [penwidth=2]
    116 -> 10 [penwidth=2]
    200 -> 10 [penwidth=2]
    284 -> 10 [penwidth=2]
    117 -> 10 [penwidth=2]
    201 -> 10 [penwidth=2]
    285 -> 10 [penwidth=2]
    286 -> 10 [penwidth=2]
    118 -> 10 [penwidth=2]
    202 -> 10 [penwidth=2]
    119 -> 10 [penwidth=2]
    203 -> 10 [penwidth=2]
    287 -> 10 [penwidth=2]
    120 -> 11 [penwidth=2]
    204 -> 11 [penwidth=2]
    288 -> 11 [penwidth=2]
    121 -> 11 [penwidth=2]
    205 -> 11 [penwidth=2]
    289 -> 11 [penwidth=2]
    122 -> 11 [penwidth=2]
    206 -> 11 [penwidth=2]
    290 -> 11 [penwidth=2]
    123 -> 11 [penwidth=2]
    207 -> 11 [penwidth=2]
    291 -> 11 [penwidth=2]
    124 -> 11 [penwidth=2]
    208 -> 11 [penwidth=2]
    292 -> 12 [penwidth=2]
    125 -> 12 [penwidth=2]
    209 -> 224 [penwidth=2]
    293 -> 224 [penwidth=2]
    126 -> 224 [penwidth=2]
    210 -> 224 [penwidth=2]
    294 -> 224 [penwidth=2]
    127 -> 224 [penwidth=2]
    211 -> 224 [penwidth=2]
    295 -> 224 [penwidth=2]
    128 -> 224 [penwidth=2]
    212 -> 224 [penwidth=2]
    296 -> 224 [penwidth=2]
    129 -> 224 [penwidth=2]
    213 -> 224 [penwidth=2]
    297 -> 224 [penwidth=2]
    130 -> 224 [penwidth=2]
    214 -> 224 [penwidth=2]
    298 -> 224 [penwidth=2]
    131 -> 224 [penwidth=2]
    215 -> 224 [penwidth=2]
    299 -> 224 [penwidth=2]
    132 -> 224 [penwidth=2]
    216 -> 224 [penwidth=2]
    300 -> 224 [penwidth=2]
    133 -> 225 [penwidth=2]
    217 -> 225 [penwidth=2]
    301 -> 225 [penwidth=2]
    134 -> 225 [penwidth=2]
    218 -> 225 [penwidth=2]
    302 -> 225 [penwidth=2]
    135 -> 225 [penwidth=2]
    219 -> 225 [penwidth=2]
    303 -> 225 [penwidth=2]
    136 -> 225 [penwidth=2]
    220 -> 225 [penwidth=2]
    304 -> 226 [penwidth=2]
    137 -> 226 [penwidth=2]
    221 -> 226 [penwidth=2]
    305 -> 226 [penwidth=2]
    306 -> 226 [penwidth=2]
    138 -> 226 [penwidth=2]
    222 -> 226 [penwidth=2]
    307 -> 226 [penwidth=2]
    308 -> 226 [penwidth=2]
    309 -> 226 [penwidth=2]
    180 -> 226 [penwidth=2]
    179 -> 226 [penwidth=2]
    178 -> 226 [penwidth=2]
    177 -> 226 [penwidth=2]
    176 -> 226 [penwidth=2]
    175 -> 226 [penwidth=2]
    174 -> 226 [penwidth=2]
    173 -> 226 [penwidth=2]
    172 -> 226 [penwidth=2]
    139 -> 226 [penwidth=2]
    171 -> 227 [penwidth=2]
    170 -> 227 [penwidth=2]
    169 -> 227 [penwidth=2]
    168 -> 227 [penwidth=2]
    167 -> 227 [penwidth=2]
    166 -> 227 [penwidth=2]
    165 -> 227 [penwidth=2]
    164 -> 227 [penwidth=2]
    163 -> 227 [penwidth=2]
    162 -> 227 [penwidth=2]
    161 -> 228 [penwidth=2]
    160 -> 228 [penwidth=2]
    159 -> 228 [penwidth=2]
    158 -> 228 [penwidth=2]
    157 -> 54 [penwidth=2]
    156 -> 54 [penwidth=2]
    155 -> 54 [penwidth=2]
    154 -> 54 [penwidth=2]
    153 -> 54 [penwidth=2]
    152 -> 54 [penwidth=2]
    151 -> 54 [penwidth=2]
    150 -> 54 [penwidth=2]
    149 -> 54 [penwidth=2]
    148 -> 54 [penwidth=2]
    147 -> 54 [penwidth=2]
    146 -> 54 [penwidth=2]
    140 -> 54 [penwidth=2]
    145 -> 229 [penwidth=2]
    144 -> 229 [penwidth=2]
    143 -> 229 [penwidth=2]
    142 -> 229 [penwidth=2]
    141 -> 229 [penwidth=2]
    13 -> 229 [penwidth=2]
    55 -> 229 [penwidth=2]
    14 -> 229 [penwidth=2]
    56 -> 229 [penwidth=2]
    15 -> 229 [penwidth=2]
    57 -> 229 [penwidth=2]
    16 -> 229 [penwidth=2]
    58 -> 229 [penwidth=2]
    17 -> 229 [penwidth=2]
    59 -> 229 [penwidth=2]
    18 -> 230 [penwidth=2]
    60 -> 230 [penwidth=2]
    19 -> 230 [penwidth=2]
    61 -> 230 [penwidth=2]
    20 -> 230 [penwidth=2]
    62 -> 230 [penwidth=2]
    21 -> 230 [penwidth=2]
    63 -> 230 [penwidth=2]
    22 -> 230 [penwidth=2]
    64 -> 230 [penwidth=2]
    23 -> 230 [penwidth=2]
    65 -> 231 [penwidth=2]
    24 -> 232 [penwidth=2]
    66 -> 232 [penwidth=2]
    25 -> 232 [penwidth=2]
    67 -> 232 [penwidth=2]
    26 -> 232 [penwidth=2]
    68 -> 232 [penwidth=2]
    27 -> 232 [penwidth=2]
    69 -> 232 [penwidth=2]
    28 -> 232 [penwidth=2]
    70 -> 232 [penwidth=2]
    29 -> 232 [penwidth=2]
    71 -> 232 [penwidth=2]
    30 -> 232 [penwidth=2]
    72 -> 232 [penwidth=2]
    31 -> 232 [penwidth=2]
    73 -> 232 [penwidth=2]
    32 -> 232 [penwidth=2]
    74 -> 232 [penwidth=2]
    75 -> 232 [penwidth=2]
    33 -> 232 [penwidth=2]
    34 -> 232 [penwidth=2]
    76 -> 233 [penwidth=2]
    35 -> 233 [penwidth=2]
    77 -> 233 [penwidth=2]
    36 -> 233 [penwidth=2]
    78 -> 233 [penwidth=2]
    37 -> 233 [penwidth=2]
    79 -> 233 [penwidth=2]
    38 -> 233 [penwidth=2]
    80 -> 233 [penwidth=2]
    39 -> 233 [penwidth=2]
    81 -> 233 [penwidth=2]
    40 -> 233 [penwidth=2]
    82 -> 233 [penwidth=2]
    41 -> 233 [penwidth=2]
    83 -> 233 [penwidth=2]
    42 -> 233 [penwidth=2]
    84 -> 233 [penwidth=2]
    43 -> 233 [penwidth=2]
    85 -> 233 [penwidth=2]
    44 -> 234 [penwidth=2]
    86 -> 234 [penwidth=2]
    45 -> 234 [penwidth=2]
    87 -> 234 [penwidth=2]
    46 -> 234 [penwidth=2]
    88 -> 234 [penwidth=2]
    47 -> 234 [penwidth=2]
    89 -> 234 [penwidth=2]
    48 -> 234 [penwidth=2]
    90 -> 234 [penwidth=2]
    49 -> 234 [penwidth=2]
    91 -> 234 [penwidth=2]
    50 -> 234 [penwidth=2]
    92 -> 234 [penwidth=2]
    51 -> 234 [penwidth=2]
    93 -> 234 [penwidth=2]
    52 -> 235 [penwidth=2]
    94 -> 235 [penwidth=2]
    53 -> 235 [penwidth=2]
    95 -> 235 [penwidth=2]
    96 -> 235 [penwidth=2]
    239 -> 6 [penwidth=2]
    239 -> 4 [penwidth=2]
    239 -> 5 [penwidth=2]
    239 -> 7 [penwidth=2]
    239 -> 2 [penwidth=2]
    243 -> 7 [penwidth=2]
    249 -> 2 [penwidth=2]
    249 -> 4 [penwidth=2]
    249 -> 6 [penwidth=2]
    249 -> 5 [penwidth=2]
    249 -> 1 [penwidth=2]
    262 -> 1 [penwidth=2]
    99 -> 1 [penwidth=2]
    271 -> 5 [penwidth=2]
    271 -> 1 [penwidth=2]
    271 -> 2 [penwidth=2]
    271 -> 6 [penwidth=2]
    272 -> 4 [penwidth=2]
    272 -> 6 [penwidth=2]
    274 -> 271 [penwidth=2]
    274 -> 244 [penwidth=2]
    274 -> 251 [penwidth=2]
    274 -> 258 [penwidth=2]
    274 -> 253 [penwidth=2]
    274 -> 103 [penwidth=2]
    274 -> 226 [penwidth=2]
    274 -> 261 [penwidth=2]
    274 -> 243 [penwidth=2]
    274 -> 233 [penwidth=2]
    274 -> 273 [penwidth=2]
    274 -> 249 [penwidth=2]
    274 -> 104 [penwidth=2]
    274 -> 100 [penwidth=2]
    274 -> 98 [penwidth=2]
    274 -> 257 [penwidth=2]
    274 -> 237 [penwidth=2]
    274 -> 269 [penwidth=2]
    274 -> 101 [penwidth=2]
    274 -> 236 [penwidth=2]
    274 -> 235 [penwidth=2]
    274 -> 182 [penwidth=2]
    274 -> 259 [penwidth=2]
    274 -> 254 [penwidth=2]
    274 -> 256 [penwidth=2]
    274 -> 54 [penwidth=2]
    274 -> 255 [penwidth=2]
    274 -> 242 [penwidth=2]
    274 -> 238 [penwidth=2]
    274 -> 262 [penwidth=2]
    274 -> 260 [penwidth=2]
    274 -> 105 [penwidth=2]
    274 -> 189 [penwidth=2]
    274 -> 240 [penwidth=2]
    274 -> 184 [penwidth=2]
    274 -> 12 [penwidth=2]
    274 -> 186 [penwidth=2]
    274 -> 239 [penwidth=2]
    274 -> 265 [penwidth=2]
    274 -> 224 [penwidth=2]
    274 -> 11 [penwidth=2]
    274 -> 228 [penwidth=2]
    274 -> 267 [penwidth=2]
    274 -> 272 [penwidth=2]
    274 -> 270 [penwidth=2]
    274 -> 230 [penwidth=2]
    274 -> 181 [penwidth=2]
    274 -> 10 [penwidth=2]
    274 -> 241 [penwidth=2]
    274 -> 187 [penwidth=2]
    274 -> 266 [penwidth=2]
    274 -> 183 [penwidth=2]
    274 -> 97 [penwidth=2]
    274 -> 102 [penwidth=2]
    274 -> 229 [penwidth=2]
    112 -> 247 [penwidth=2]
    112 -> 241 [penwidth=2]
    112 -> 100 [penwidth=2]
    112 -> 252 [penwidth=2]
    112 -> 230 [penwidth=2]
    112 -> 238 [penwidth=2]
    112 -> 261 [penwidth=2]
    112 -> 258 [penwidth=2]
    112 -> 253 [penwidth=2]
    112 -> 105 [penwidth=2]
    112 -> 251 [penwidth=2]
    112 -> 104 [penwidth=2]
    112 -> 184 [penwidth=2]
    112 -> 242 [penwidth=2]
    112 -> 248 [penwidth=2]
    112 -> 231 [penwidth=2]
    112 -> 263 [penwidth=2]
    112 -> 265 [penwidth=2]
    112 -> 244 [penwidth=2]
    112 -> 236 [penwidth=2]
    112 -> 232 [penwidth=2]
    112 -> 9 [penwidth=2]
    112 -> 262 [penwidth=2]
    112 -> 226 [penwidth=2]
    112 -> 54 [penwidth=2]
    112 -> 268 [penwidth=2]
    112 -> 235 [penwidth=2]
    112 -> 243 [penwidth=2]
    112 -> 223 [penwidth=2]
    112 -> 186 [penwidth=2]
    112 -> 183 [penwidth=2]
    112 -> 182 [penwidth=2]
    112 -> 272 [penwidth=2]
    112 -> 98 [penwidth=2]
    112 -> 103 [penwidth=2]
    112 -> 12 [penwidth=2]
    112 -> 256 [penwidth=2]
    112 -> 267 [penwidth=2]
    112 -> 250 [penwidth=2]
    112 -> 189 [penwidth=2]
    112 -> 273 [penwidth=2]
    112 -> 237 [penwidth=2]
    112 -> 254 [penwidth=2]
    112 -> 97 [penwidth=2]
    112 -> 264 [penwidth=2]
    112 -> 106 [penwidth=2]
    112 -> 266 [penwidth=2]
    112 -> 11 [penwidth=2]
    112 -> 227 [penwidth=2]
    112 -> 270 [penwidth=2]
    112 -> 102 [penwidth=2]
    112 -> 188 [penwidth=2]
    112 -> 225 [penwidth=2]
    112 -> 10 [penwidth=2]
    112 -> 246 [penwidth=2]
    112 -> 260 [penwidth=2]
    112 -> 255 [penwidth=2]
    112 -> 239 [penwidth=2]
    201 -> 233 [penwidth=2]
    201 -> 238 [penwidth=2]
    201 -> 264 [penwidth=2]
    201 -> 98 [penwidth=2]
    201 -> 104 [penwidth=2]
    201 -> 100 [penwidth=2]
    201 -> 101 [penwidth=2]
    201 -> 256 [penwidth=2]
    201 -> 270 [penwidth=2]
    201 -> 251 [penwidth=2]
    201 -> 261 [penwidth=2]
    201 -> 97 [penwidth=2]
    201 -> 262 [penwidth=2]
    201 -> 188 [penwidth=2]
    201 -> 184 [penwidth=2]
    201 -> 245 [penwidth=2]
    201 -> 224 [penwidth=2]
    201 -> 259 [penwidth=2]
    201 -> 248 [penwidth=2]
    201 -> 181 [penwidth=2]
    201 -> 269 [penwidth=2]
    201 -> 237 [penwidth=2]
    201 -> 234 [penwidth=2]
    201 -> 229 [penwidth=2]
    201 -> 260 [penwidth=2]
    201 -> 11 [penwidth=2]
    201 -> 12 [penwidth=2]
    201 -> 186 [penwidth=2]
    201 -> 232 [penwidth=2]
    201 -> 255 [penwidth=2]
    201 -> 225 [penwidth=2]
    201 -> 252 [penwidth=2]
    201 -> 228 [penwidth=2]
    201 -> 227 [penwidth=2]
    201 -> 239 [penwidth=2]
    201 -> 102 [penwidth=2]
    201 -> 249 [penwidth=2]
    201 -> 268 [penwidth=2]
    201 -> 187 [penwidth=2]
    201 -> 230 [penwidth=2]
    201 -> 106 [penwidth=2]
    201 -> 105 [penwidth=2]
    201 -> 263 [penwidth=2]
    201 -> 9 [penwidth=2]
    201 -> 183 [penwidth=2]
    201 -> 250 [penwidth=2]
    201 -> 272 [penwidth=2]
    201 -> 267 [penwidth=2]
    201 -> 231 [penwidth=2]
    201 -> 273 [penwidth=2]
    201 -> 258 [penwidth=2]
    201 -> 244 [penwidth=2]
    201 -> 247 [penwidth=2]
    201 -> 257 [penwidth=2]
    201 -> 235 [penwidth=2]
    201 -> 242 [penwidth=2]
    201 -> 253 [penwidth=2]
    201 -> 271 [penwidth=2]
    201 -> 99 [penwidth=2]
    201 -> 246 [penwidth=2]
    285 -> 248 [penwidth=2]
    285 -> 97 [penwidth=2]
    285 -> 244 [penwidth=2]
    285 -> 186 [penwidth=2]
    285 -> 188 [penwidth=2]
    285 -> 224 [penwidth=2]
    285 -> 184 [penwidth=2]
    285 -> 189 [penwidth=2]
    285 -> 223 [penwidth=2]
    285 -> 254 [penwidth=2]
    285 -> 268 [penwidth=2]
    285 -> 269 [penwidth=2]
    285 -> 258 [penwidth=2]
    285 -> 100 [penwidth=2]
    285 -> 246 [penwidth=2]
    285 -> 251 [penwidth=2]
    285 -> 54 [penwidth=2]
    285 -> 99 [penwidth=2]
    285 -> 257 [penwidth=2]
    285 -> 187 [penwidth=2]
    285 -> 229 [penwidth=2]
    285 -> 261 [penwidth=2]
    285 -> 250 [penwidth=2]
    285 -> 8 [penwidth=2]
    285 -> 227 [penwidth=2]
    285 -> 255 [penwidth=2]
    285 -> 242 [penwidth=2]
    285 -> 259 [penwidth=2]
    285 -> 245 [penwidth=2]
    285 -> 239 [penwidth=2]
    285 -> 236 [penwidth=2]
    285 -> 181 [penwidth=2]
    285 -> 185 [penwidth=2]
    285 -> 183 [penwidth=2]
    285 -> 228 [penwidth=2]
    285 -> 11 [penwidth=2]
    285 -> 104 [penwidth=2]
    285 -> 238 [penwidth=2]
    285 -> 266 [penwidth=2]
    285 -> 226 [penwidth=2]
    285 -> 233 [penwidth=2]
    285 -> 225 [penwidth=2]
    285 -> 182 [penwidth=2]
    285 -> 232 [penwidth=2]
    285 -> 262 [penwidth=2]
    285 -> 265 [penwidth=2]
    285 -> 252 [penwidth=2]
    285 -> 101 [penwidth=2]
    285 -> 102 [penwidth=2]
    285 -> 9 [penwidth=2]
    285 -> 256 [penwidth=2]
    285 -> 247 [penwidth=2]
    285 -> 263 [penwidth=2]
    285 -> 230 [penwidth=2]
    285 -> 240 [penwidth=2]
    285 -> 237 [penwidth=2]
    131 -> 98 [penwidth=2]
    131 -> 106 [penwidth=2]
    131 -> 267 [penwidth=2]
    131 -> 245 [penwidth=2]
    131 -> 270 [penwidth=2]
    131 -> 273 [penwidth=2]
    131 -> 185 [penwidth=2]
    131 -> 268 [penwidth=2]
    131 -> 247 [penwidth=2]
    131 -> 12 [penwidth=2]
    131 -> 186 [penwidth=2]
    131 -> 226 [penwidth=2]
    131 -> 242 [penwidth=2]
    131 -> 241 [penwidth=2]
    131 -> 105 [penwidth=2]
    131 -> 235 [penwidth=2]
    131 -> 263 [penwidth=2]
    131 -> 237 [penwidth=2]
    131 -> 256 [penwidth=2]
    131 -> 227 [penwidth=2]
    131 -> 239 [penwidth=2]
    131 -> 102 [penwidth=2]
    131 -> 259 [penwidth=2]
    131 -> 228 [penwidth=2]
    131 -> 11 [penwidth=2]
    131 -> 243 [penwidth=2]
    131 -> 229 [penwidth=2]
    131 -> 249 [penwidth=2]
    131 -> 264 [penwidth=2]
    131 -> 255 [penwidth=2]
    131 -> 261 [penwidth=2]
    131 -> 236 [penwidth=2]
    131 -> 240 [penwidth=2]
    131 -> 8 [penwidth=2]
    131 -> 262 [penwidth=2]
    138 -> 273 [penwidth=2]
    138 -> 263 [penwidth=2]
    138 -> 251 [penwidth=2]
    138 -> 268 [penwidth=2]
    138 -> 100 [penwidth=2]
    138 -> 254 [penwidth=2]
    138 -> 252 [penwidth=2]
    138 -> 238 [penwidth=2]
    307 -> 10 [penwidth=2]
    307 -> 235 [penwidth=2]
    307 -> 104 [penwidth=2]
    307 -> 242 [penwidth=2]
    307 -> 240 [penwidth=2]
    307 -> 100 [penwidth=2]
    307 -> 266 [penwidth=2]
    307 -> 181 [penwidth=2]
    307 -> 103 [penwidth=2]
    307 -> 102 [penwidth=2]
    307 -> 183 [penwidth=2]
    307 -> 258 [penwidth=2]
    307 -> 270 [penwidth=2]
    307 -> 223 [penwidth=2]
    307 -> 267 [penwidth=2]
    307 -> 255 [penwidth=2]
    307 -> 271 [penwidth=2]
    307 -> 105 [penwidth=2]
    307 -> 11 [penwidth=2]
    307 -> 244 [penwidth=2]
    307 -> 99 [penwidth=2]
    307 -> 241 [penwidth=2]
    307 -> 253 [penwidth=2]
    307 -> 262 [penwidth=2]
    307 -> 8 [penwidth=2]
    307 -> 260 [penwidth=2]
    307 -> 12 [penwidth=2]
    307 -> 246 [penwidth=2]
    307 -> 259 [penwidth=2]
    307 -> 249 [penwidth=2]
    307 -> 247 [penwidth=2]
    307 -> 263 [penwidth=2]
    307 -> 182 [penwidth=2]
    307 -> 252 [penwidth=2]
    307 -> 237 [penwidth=2]
    307 -> 257 [penwidth=2]
    307 -> 248 [penwidth=2]
    307 -> 228 [penwidth=2]
    307 -> 250 [penwidth=2]
    307 -> 184 [penwidth=2]
    307 -> 225 [penwidth=2]
    307 -> 254 [penwidth=2]
    307 -> 106 [penwidth=2]
    307 -> 186 [penwidth=2]
    307 -> 230 [penwidth=2]
    307 -> 273 [penwidth=2]
    307 -> 238 [penwidth=2]
    308 -> 255 [penwidth=2]
    308 -> 101 [penwidth=2]
    308 -> 249 [penwidth=2]
    308 -> 258 [penwidth=2]
    308 -> 237 [penwidth=2]
    308 -> 185 [penwidth=2]
    158 -> 229 [penwidth=2]
    158 -> 105 [penwidth=2]
    158 -> 185 [penwidth=2]
    158 -> 257 [penwidth=2]
    158 -> 262 [penwidth=2]
    158 -> 187 [penwidth=2]
    158 -> 103 [penwidth=2]
    158 -> 255 [penwidth=2]
    158 -> 233 [penwidth=2]
    158 -> 259 [penwidth=2]
    158 -> 224 [penwidth=2]
    157 -> 232 [penwidth=2]
    157 -> 244 [penwidth=2]
    157 -> 182 [penwidth=2]
    157 -> 105 [penwidth=2]
    157 -> 239 [penwidth=2]
    157 -> 101 [penwidth=2]
    157 -> 242 [penwidth=2]
    157 -> 99 [penwidth=2]
    157 -> 254 [penwidth=2]
    157 -> 237 [penwidth=2]
    157 -> 236 [penwidth=2]
    157 -> 188 [penwidth=2]
    157 -> 241 [penwidth=2]
    157 -> 258 [penwidth=2]
    157 -> 240 [penwidth=2]
    157 -> 266 [penwidth=2]
    157 -> 264 [penwidth=2]
    157 -> 225 [penwidth=2]
    157 -> 248 [penwidth=2]
    157 -> 226 [penwidth=2]
    157 -> 234 [penwidth=2]
    157 -> 246 [penwidth=2]
    157 -> 227 [penwidth=2]
    157 -> 247 [penwidth=2]
    155 -> 186 [penwidth=2]
    155 -> 251 [penwidth=2]
    155 -> 100 [penwidth=2]
    155 -> 188 [penwidth=2]
    155 -> 265 [penwidth=2]
    155 -> 236 [penwidth=2]
    155 -> 237 [penwidth=2]
    155 -> 233 [penwidth=2]
    155 -> 256 [penwidth=2]
    155 -> 235 [penwidth=2]
    155 -> 243 [penwidth=2]
    155 -> 271 [penwidth=2]
    155 -> 245 [penwidth=2]
    155 -> 258 [penwidth=2]
    155 -> 246 [penwidth=2]
    155 -> 102 [penwidth=2]
    155 -> 184 [penwidth=2]
    155 -> 257 [penwidth=2]
    155 -> 244 [penwidth=2]
    155 -> 189 [penwidth=2]
    155 -> 266 [penwidth=2]
    155 -> 239 [penwidth=2]
    155 -> 229 [penwidth=2]
    155 -> 272 [penwidth=2]
    155 -> 255 [penwidth=2]
    155 -> 249 [penwidth=2]
    155 -> 187 [penwidth=2]
    155 -> 9 [penwidth=2]
    155 -> 230 [penwidth=2]
    155 -> 260 [penwidth=2]
    155 -> 227 [penwidth=2]
    155 -> 223 [penwidth=2]
    155 -> 224 [penwidth=2]
    155 -> 263 [penwidth=2]
    155 -> 11 [penwidth=2]
    155 -> 261 [penwidth=2]
    155 -> 182 [penwidth=2]
    155 -> 10 [penwidth=2]
    155 -> 259 [penwidth=2]
    155 -> 248 [penwidth=2]
    155 -> 105 [penwidth=2]
    155 -> 242 [penwidth=2]
    155 -> 270 [penwidth=2]
    155 -> 231 [penwidth=2]
    155 -> 106 [penwidth=2]
    155 -> 101 [penwidth=2]
    155 -> 269 [penwidth=2]
    155 -> 183 [penwidth=2]
    155 -> 262 [penwidth=2]
    14 -> 263 [penwidth=2]
    14 -> 243 [penwidth=2]
    14 -> 185 [penwidth=2]
    14 -> 99 [penwidth=2]
    14 -> 233 [penwidth=2]
    14 -> 224 [penwidth=2]
    14 -> 223 [penwidth=2]
    14 -> 104 [penwidth=2]
    14 -> 100 [penwidth=2]
    14 -> 188 [penwidth=2]
    14 -> 270 [penwidth=2]
    14 -> 260 [penwidth=2]
    14 -> 10 [penwidth=2]
    14 -> 234 [penwidth=2]
    14 -> 273 [penwidth=2]
    14 -> 261 [penwidth=2]
    14 -> 106 [penwidth=2]
    14 -> 244 [penwidth=2]
    14 -> 97 [penwidth=2]
    14 -> 246 [penwidth=2]
    14 -> 271 [penwidth=2]
    14 -> 252 [penwidth=2]
    14 -> 102 [penwidth=2]
    14 -> 247 [penwidth=2]
    14 -> 189 [penwidth=2]
    14 -> 253 [penwidth=2]
    14 -> 249 [penwidth=2]
    14 -> 103 [penwidth=2]
    14 -> 186 [penwidth=2]
    14 -> 101 [penwidth=2]
    14 -> 184 [penwidth=2]
    14 -> 232 [penwidth=2]
    14 -> 257 [penwidth=2]
    14 -> 54 [penwidth=2]
    14 -> 231 [penwidth=2]
    14 -> 226 [penwidth=2]
    14 -> 228 [penwidth=2]
    14 -> 225 [penwidth=2]
    14 -> 266 [penwidth=2]
    14 -> 241 [penwidth=2]
    14 -> 240 [penwidth=2]
    14 -> 267 [penwidth=2]
    14 -> 98 [penwidth=2]
    14 -> 235 [penwidth=2]
    14 -> 238 [penwidth=2]
    14 -> 265 [penwidth=2]
    14 -> 9 [penwidth=2]
    14 -> 181 [penwidth=2]
    14 -> 250 [penwidth=2]
    14 -> 242 [penwidth=2]
    14 -> 230 [penwidth=2]
    14 -> 259 [penwidth=2]
    14 -> 239 [penwidth=2]
    14 -> 182 [penwidth=2]
    14 -> 254 [penwidth=2]
    14 -> 105 [penwidth=2]
    14 -> 269 [penwidth=2]
    67 -> 262 [penwidth=2]
    67 -> 259 [penwidth=2]
    67 -> 182 [penwidth=2]
    67 -> 188 [penwidth=2]
    67 -> 225 [penwidth=2]
    67 -> 269 [penwidth=2]
    67 -> 251 [penwidth=2]
    67 -> 12 [penwidth=2]
    67 -> 260 [penwidth=2]
    67 -> 235 [penwidth=2]
    67 -> 253 [penwidth=2]
    67 -> 187 [penwidth=2]
    67 -> 237 [penwidth=2]
    67 -> 186 [penwidth=2]
    67 -> 98 [penwidth=2]
    67 -> 102 [penwidth=2]
    67 -> 256 [penwidth=2]
    67 -> 241 [penwidth=2]
    67 -> 8 [penwidth=2]
    67 -> 255 [penwidth=2]
    67 -> 240 [penwidth=2]
    67 -> 185 [penwidth=2]
    67 -> 250 [penwidth=2]
    67 -> 261 [penwidth=2]
    67 -> 103 [penwidth=2]
    67 -> 248 [penwidth=2]
    67 -> 105 [penwidth=2]
    67 -> 54 [penwidth=2]
    67 -> 227 [penwidth=2]
    67 -> 231 [penwidth=2]
    67 -> 254 [penwidth=2]
    67 -> 268 [penwidth=2]
    67 -> 181 [penwidth=2]
    67 -> 267 [penwidth=2]
    67 -> 257 [penwidth=2]
    67 -> 223 [penwidth=2]
    67 -> 183 [penwidth=2]
    67 -> 101 [penwidth=2]
    67 -> 238 [penwidth=2]
    67 -> 239 [penwidth=2]
    67 -> 249 [penwidth=2]
    67 -> 258 [penwidth=2]
    68 -> 227 [penwidth=2]
    68 -> 273 [penwidth=2]
    68 -> 272 [penwidth=2]
    68 -> 181 [penwidth=2]
    70 -> 225 [penwidth=2]
    70 -> 54 [penwidth=2]
    70 -> 237 [penwidth=2]
    70 -> 99 [penwidth=2]
    70 -> 270 [penwidth=2]
    70 -> 239 [penwidth=2]
    70 -> 186 [penwidth=2]
    70 -> 254 [penwidth=2]
    70 -> 259 [penwidth=2]
    70 -> 257 [penwidth=2]
    70 -> 238 [penwidth=2]
    70 -> 241 [penwidth=2]
    70 -> 273 [penwidth=2]
    70 -> 103 [penwidth=2]
    70 -> 247 [penwidth=2]
    70 -> 226 [penwidth=2]
    70 -> 246 [penwidth=2]
    70 -> 11 [penwidth=2]
    70 -> 235 [penwidth=2]
    70 -> 248 [penwidth=2]
    70 -> 260 [penwidth=2]
    70 -> 262 [penwidth=2]
    70 -> 184 [penwidth=2]
    70 -> 182 [penwidth=2]
    70 -> 249 [penwidth=2]
    70 -> 242 [penwidth=2]
    70 -> 8 [penwidth=2]
    70 -> 223 [penwidth=2]
    70 -> 185 [penwidth=2]
    70 -> 229 [penwidth=2]
    70 -> 245 [penwidth=2]
    70 -> 244 [penwidth=2]
    70 -> 264 [penwidth=2]
    70 -> 263 [penwidth=2]
    70 -> 188 [penwidth=2]
    70 -> 236 [penwidth=2]
    70 -> 230 [penwidth=2]
    70 -> 269 [penwidth=2]
    70 -> 261 [penwidth=2]
    70 -> 10 [penwidth=2]
    70 -> 98 [penwidth=2]
    70 -> 104 [penwidth=2]
    70 -> 255 [penwidth=2]
    70 -> 243 [penwidth=2]
    70 -> 266 [penwidth=2]
    70 -> 231 [penwidth=2]
    70 -> 102 [penwidth=2]
    70 -> 101 [penwidth=2]
    70 -> 272 [penwidth=2]
    70 -> 106 [penwidth=2]
    70 -> 181 [penwidth=2]
    70 -> 271 [penwidth=2]
    70 -> 12 [penwidth=2]
    70 -> 224 [penwidth=2]
    70 -> 97 [penwidth=2]
    70 -> 187 [penwidth=2]
    70 -> 100 [penwidth=2]
    70 -> 258 [penwidth=2]
    70 -> 268 [penwidth=2]
    43 -> 237 [penwidth=2]
    43 -> 182 [penwidth=2]
    43 -> 243 [penwidth=2]
    43 -> 260 [penwidth=2]
    43 -> 181 [penwidth=2]
    43 -> 236 [penwidth=2]
    43 -> 239 [penwidth=2]
    43 -> 105 [penwidth=2]
    43 -> 245 [penwidth=2]
    43 -> 234 [penwidth=2]
    43 -> 251 [penwidth=2]
    43 -> 187 [penwidth=2]
    46 -> 186 [penwidth=2]
    46 -> 97 [penwidth=2]
    46 -> 243 [penwidth=2]
    46 -> 237 [penwidth=2]
    46 -> 99 [penwidth=2]
    46 -> 238 [penwidth=2]
    88 -> 272 [penwidth=2]
    88 -> 12 [penwidth=2]
    88 -> 238 [penwidth=2]
    88 -> 185 [penwidth=2]
    88 -> 253 [penwidth=2]
    88 -> 251 [penwidth=2]
    88 -> 100 [penwidth=2]
    88 -> 260 [penwidth=2]
    88 -> 243 [penwidth=2]
    88 -> 267 [penwidth=2]
    88 -> 184 [penwidth=2]
    88 -> 236 [penwidth=2]
    88 -> 54 [penwidth=2]
    88 -> 256 [penwidth=2]
    88 -> 182 [penwidth=2]
    88 -> 181 [penwidth=2]
    88 -> 246 [penwidth=2]
    88 -> 226 [penwidth=2]
    88 -> 257 [penwidth=2]
    88 -> 224 [penwidth=2]
    88 -> 10 [penwidth=2]
    88 -> 252 [penwidth=2]
    88 -> 104 [penwidth=2]
    88 -> 237 [penwidth=2]
    88 -> 235 [penwidth=2]
    88 -> 98 [penwidth=2]
    88 -> 262 [penwidth=2]
    88 -> 265 [penwidth=2]
    88 -> 183 [penwidth=2]
    88 -> 11 [penwidth=2]
    88 -> 254 [penwidth=2]
    88 -> 102 [penwidth=2]
    88 -> 223 [penwidth=2]
    88 -> 268 [penwidth=2]
    88 -> 189 [penwidth=2]
    88 -> 101 [penwidth=2]
    88 -> 245 [penwidth=2]
    88 -> 105 [penwidth=2]
    88 -> 188 [penwidth=2]
    88 -> 227 [penwidth=2]
    88 -> 225 [penwidth=2]
    88 -> 8 [penwidth=2]
    88 -> 244 [penwidth=2]
    88 -> 270 [penwidth=2]
    50 -> 251 [penwidth=2]
    50 -> 239 [penwidth=2]
    50 -> 235 [penwidth=2]
    50 -> 104 [penwidth=2]
    50 -> 242 [penwidth=2]
    50 -> 105 [penwidth=2]
    50 -> 12 [penwidth=2]
    50 -> 260 [penwidth=2]
    50 -> 54 [penwidth=2]
    50 -> 184 [penwidth=2]
    50 -> 187 [penwidth=2]
    50 -> 106 [penwidth=2]
    50 -> 186 [penwidth=2]
    50 -> 272 [penwidth=2]
    50 -> 100 [penwidth=2]
    50 -> 227 [penwidth=2]
    52 -> 231 [penwidth=2]
    52 -> 268 [penwidth=2]
}