digraph G {
    0 [penwidth=3,label="0"]
    1 [penwidth=3,label="1"]
    2 [penwidth=3,label="2"]
    3 [penwidth=3,label="3"]
    4 [penwidth=3,label="4"]
    5 [penwidth=3,label="5"]
    6 [penwidth=3,label="6"]
    7 [penwidth=3,label="7"]
    8 [penwidth=3,label="8"]
    9 [penwidth=3,label="9"]
    10 [penwidth=3,label="10"]
    11 [penwidth=3,label="11"]
    12 [penwidth=3,label="12"]
    13 [penwidth=3,label="13"]
    14 [penwidth=3,label="14"]
    15 [penwidth=3,label="15"]
    16 [penwidth=3,label="16"]
    17 [penwidth=3,label="17"]
    18 [penwidth=3,label="18"]
    19 [penwidth=3,label="19"]
    20 [penwidth=3,label="20"]
    21 [penwidth=3,label="21"]
    22 [penwidth=3,label="22"]
    23 [penwidth=3,label="23"]
    24 [penwidth=3,label="24"]
    25 [penwidth=3,label="25"]
    26 [penwidth=3,label="26"]
    27 [penwidth=3,label="27"]
    28 [penwidth=3,label="28"]
    29 [penwidth=3,label="29"]
    30 [penwidth=3,label="30"]
    31 [penwidth=3,label="31"]
    32 [penwidth=3,label="32"]
    33 [penwidth=3,label="33"]
    34 [penwidth=3,label="34"]
    35 [penwidth=3,label="35"]
    36 [penwidth=3,label="36"]
    37 [penwidth=3,label="37"]
    38 [penwidth=3,label="38"]
    39 [penwidth=3,label="39"]
    40 [penwidth=3,label="40"]
    41 [penwidth=3,label="41"]
    42 [penwidth=3,label="42"]
    43 [penwidth=3,label="43"]
    44 [penwidth=3,label="44"]
    45 [penwidth=3,label="45"]
    46 [penwidth=3,label="46"]
    47 [penwidth=3,label="47"]
    48 [penwidth=3,label="48"]
    49 [penwidth=3,label="49"]
    50 [penwidth=3,label="50"]
    51 [penwidth=3,label="51"]
    52 [penwidth=3,label="52"]
    53 [penwidth=3,label="53"]
    54 [penwidth=3,label="54"]
    55 [penwidth=3,label="55"]
    56 [penwidth=3,label="56"]
    57 [penwidth=3,label="57"]
    58 [penwidth=3,label="58"]
    59 [penwidth=3,label="59"]
    60 [penwidth=3,label="60"]
    61 [penwidth=3,label="61"]
    62 [penwidth=3,label="62"]
    63 [penwidth=3,label="63"]
    64 [penwidth=3,label="64"]
    65 [penwidth=3,label="65"]
    66 [penwidth=3,label="66"]
    67 [penwidth=3,label="67"]
    68 [penwidth=3,label="68"]
    69 [penwidth=3,label="69"]
    70 [penwidth=3,label="70"]
    71 [penwidth=3,label="71"]
    72 [penwidth=3,label="72"]
    73 [penwidth=3,label="73"]
    74 [penwidth=3,label="74"]
    75 [penwidth=3,label="75"]
    76 [penwidth=3,label="76"]
    77 [penwidth=3,label="77"]
    78 [penwidth=3,label="78"]
    79 [penwidth=3,label="79"]
    80 [penwidth=3,label="80"]
    81 [penwidth=3,label="81"]
    82 [penwidth=3,label="82"]
    83 [penwidth=3,label="83"]
    84 [penwidth=3,label="84"]
    85 [penwidth=3,label="85"]
    86 [penwidth=3,label="86"]
    87 [penwidth=3,label="87"]
    88 [penwidth=3,label="88"]
    89 [penwidth=3,label="89"]
    90 [penwidth=3,label="90"]
    91 [penwidth=3,label="91"]
    92 [penwidth=3,label="92"]
    93 [penwidth=3,label="93"]
    94 [penwidth=3,label="94"]
    95 [penwidth=3,label="95"]
    96 [penwidth=3,label="96"]
    97 [penwidth=3,label="97"]
    98 [penwidth=3,label="98"]
    99 [penwidth=3,label="99"]
    100 [penwidth=3,label="100"]
    101 [penwidth=3,label="101"]
    102 [penwidth=3,label="102"]
    103 [penwidth=3,label="103"]
    104 [penwidth=3,label="104"]
    105 [penwidth=3,label="105"]
    106 [penwidth=3,label="106"]
    107 [penwidth=3,label="107"]
    108 [penwidth=3,label="108"]
    109 [penwidth=3,label="109"]
    110 [penwidth=3,label="110"]
    111 [penwidth=3,label="111"]
    112 [penwidth=3,label="112"]
    113 [penwidth=3,label="113"]
    114 [penwidth=3,label="114"]
    115 [penwidth=3,label="115"]
    116 [penwidth=3,label="116"]
    117 [penwidth=3,label="117"]
    118 [penwidth=3,label="118"]
    119 [penwidth=3,label="119"]
    120 [penwidth=3,label="120"]
    121 [penwidth=3,label="121"]
    122 [penwidth=3,label="122"]
    123 [penwidth=3,label="123"]
    124 [penwidth=3,label="124"]
    125 [penwidth=3,label="125"]
    126 [penwidth=3,label="126"]
    127 [penwidth=3,label="127"]
    128 [penwidth=3,label="128"]
    129 [penwidth=3,label="129"]
    130 [penwidth=3,label="130"]
    131 [penwidth=3,label="131"]
    132 [penwidth=3,label="132"]
    133 [penwidth=3,label="133"]
    134 [penwidth=3,label="134"]
    135 [penwidth=3,label="135"]
    136 [penwidth=3,label="136"]
    137 [penwidth=3,label="137"]
    138 [penwidth=3,label="138"]
    139 [penwidth=3,label="139"]
    140 [penwidth=3,label="140"]
    141 [penwidth=3,label="141"]
    142 [penwidth=3,label="142"]
    143 [penwidth=3,label="143"]
    144 [penwidth=3,label="144"]
    145 [penwidth=3,label="145"]
    146 [penwidth=3,label="146"]
    147 [penwidth=3,label="147"]
    148 [penwidth=3,label="148"]
    149 [penwidth=3,label="149"]
    150 [penwidth=3,label="150"]
    151 [penwidth=3,label="151"]
    152 [penwidth=3,label="152"]
    153 [penwidth=3,label="153"]
    154 [penwidth=3,label="154"]
    155 [penwidth=3,label="155"]
    156 [penwidth=3,label="156"]
    157 [penwidth=3,label="157"]
    158 [penwidth=3,label="158"]
    159 [penwidth=3,label="159"]
    160 [penwidth=3,label="160"]
    161 [penwidth=3,label="161"]
    162 [penwidth=3,label="162"]
    163 [penwidth=3,label="163"]
    164 [penwidth=3,label="164"]
    165 [penwidth=3,label="165"]
    166 [penwidth=3,label="166"]
    167 [penwidth=3,label="167"]
    168 [penwidth=3,label="168"]
    169 [penwidth=3,label="169"]
    170 [penwidth=3,label="170"]
    171 [penwidth=3,label="171"]
    172 [penwidth=3,label="172"]
    173 [penwidth=3,label="173"]
    174 [penwidth=3,label="174"]
    175 [penwidth=3,label="175"]
    176 [penwidth=3,label="176"]
    177 [penwidth=3,label="177"]
    178 [penwidth=3,label="178"]
    179 [penwidth=3,label="179"]
    180 [penwidth=3,label="180"]
    181 [penwidth=3,label="181"]
    182 [penwidth=3,label="182"]
    183 [penwidth=3,label="183"]
    184 [penwidth=3,label="184"]
    185 [penwidth=3,label="185"]
    186 [penwidth=3,label="186"]
    187 [penwidth=3,label="187"]
    188 [penwidth=3,label="188"]
    189 [penwidth=3,label="189"]
    190 [penwidth=3,label="190"]
    191 [penwidth=3,label="191"]
    192 [penwidth=3,label="192"]
    193 [penwidth=3,label="193"]
    194 [penwidth=3,label="194"]
    195 [penwidth=3,label="195"]
    196 [penwidth=3,label="196"]
    197 [penwidth=3,label="197"]
    198 [penwidth=3,label="198"]
    199 [penwidth=3,label="199"]
    200 [penwidth=3,label="200"]
    201 [penwidth=3,label="201"]
    202 [penwidth=3,label="202"]
    203 [penwidth=3,label="203"]
    204 [penwidth=3,label="204"]
    205 [penwidth=3,label="205"]
    206 [penwidth=3,label="206"]
    207 [penwidth=3,label="207"]
    208 [penwidth=3,label="208"]
    209 [penwidth=3,label="209"]
    210 [penwidth=3,label="210"]
    211 [penwidth=3,label="211"]
    212 [penwidth=3,label="212"]
    213 [penwidth=3,label="213"]
    214 [penwidth=3,label="214"]
    215 [penwidth=3,label="215"]
    216 [penwidth=3,label="216"]
    217 [penwidth=3,label="217"]
    218 [penwidth=3,label="218"]
    219 [penwidth=3,label="219"]
    220 [penwidth=3,label="220"]
    221 [penwidth=3,label="221"]
    222 [penwidth=3,label="222"]
    223 [penwidth=3,label="223"]
    224 [penwidth=3,label="224"]
    225 [penwidth=3,label="225"]
    226 [penwidth=3,label="226"]
    227 [penwidth=3,label="227"]
    228 [penwidth=3,label="228"]
    229 [penwidth=3,label="229"]
    230 [penwidth=3,label="230"]
    231 [penwidth=3,label="231"]
    232 [penwidth=3,label="232"]
    233 [penwidth=3,label="233"]
    234 [penwidth=3,label="234"]
    235 [penwidth=3,label="235"]
    236 [penwidth=3,label="236"]
    237 [penwidth=3,label="237"]
    238 [penwidth=3,label="238"]
    239 [penwidth=3,label="239"]
    240 [penwidth=3,label="240"]
    241 [penwidth=3,label="241"]
    242 [penwidth=3,label="242"]
    243 [penwidth=3,label="243"]
    244 [penwidth=3,label="244"]
    245 [penwidth=3,label="245"]
    246 [penwidth=3,label="246"]
    247 [penwidth=3,label="247"]
    248 [penwidth=3,label="248"]
    249 [penwidth=3,label="249"]
    250 [penwidth=3,label="250"]
    251 [penwidth=3,label="251"]
    252 [penwidth=3,label="252"]
    253 [penwidth=3,label="253"]
    254 [penwidth=3,label="254"]
    255 [penwidth=3,label="255"]
    256 [penwidth=3,label="256"]
    257 [penwidth=3,label="257"]
    258 [penwidth=3,label="258"]
    259 [penwidth=3,label="259"]
    260 [penwidth=3,label="260"]
    261 [penwidth=3,label="261"]
    262 [penwidth=3,label="262"]
    263 [penwidth=3,label="263"]
    264 [penwidth=3,label="264"]
    265 [penwidth=3,label="265"]
    266 [penwidth=3,label="266"]
    267 [penwidth=3,label="267"]
    268 [penwidth=3,label="268"]
    269 [penwidth=3,label="269"]
    270 [penwidth=3,label="270"]
    271 [penwidth=3,label="271"]
    272 [penwidth=3,label="272"]
    273 [penwidth=3,label="273"]
    274 [penwidth=3,label="274"]
    275 [penwidth=3,label="275"]
    276 [penwidth=3,label="276"]
    277 [penwidth=3,label="277"]
    278 [penwidth=3,label="278"]
    279 [penwidth=3,label="279"]
    280 [penwidth=3,label="280"]
    281 [penwidth=3,label="281"]
    282 [penwidth=3,label="282"]
    283 [penwidth=3,label="283"]
    284 [penwidth=3,label="284"]
    285 [penwidth=3,label="285"]
    286 [penwidth=3,label="286"]
    287 [penwidth=3,label="287"]
    288 [penwidth=3,label="288"]
    289 [penwidth=3,label="289"]
    290 [penwidth=3,label="290"]
    291 [penwidth=3,label="291"]
    292 [penwidth=3,label="292"]
    293 [penwidth=3,label="293"]
    294 [penwidth=3,label="294"]
    295 [penwidth=3,label="295"]
    296 [penwidth=3,label="296"]
    297 [penwidth=3,label="297"]
    298 [penwidth=3,label="298"]
    299 [penwidth=3,label="299"]
    300 [penwidth=3,label="300"]
    301 [penwidth=3,label="301"]
    302 [penwidth=3,label="302"]
    303 [penwidth=3,label="303"]
    304 [penwidth=3,label="304"]
    305 [penwidth=3,label="305"]
    306 [penwidth=3,label="306"]
    307 [penwidth=3,label="307"]
    308 [penwidth=3,label="308"]
    309 [penwidth=3,label="309"]

    55 -> 0 [penwidth=2]
    56 -> 0 [penwidth=2]
    57 -> 0 [penwidth=2]
    58 -> 0 [penwidth=2]
    59 -> 0 [penwidth=2]
    60 -> 0 [penwidth=2]
    11 -> 0 [penwidth=2]
    10 -> 56 [penwidth=2]
    145 -> 56 [penwidth=2]
    146 -> 56 [penwidth=2]
    147 -> 56 [penwidth=2]
    148 -> 56 [penwidth=2]
    149 -> 56 [penwidth=2]
    150 -> 56 [penwidth=2]
    151 -> 56 [penwidth=2]
    152 -> 56 [penwidth=2]
    153 -> 56 [penwidth=2]
    154 -> 56 [penwidth=2]
    155 -> 56 [penwidth=2]
    156 -> 56 [penwidth=2]
    157 -> 56 [penwidth=2]
    158 -> 57 [penwidth=2]
    159 -> 57 [penwidth=2]
    160 -> 57 [penwidth=2]
    161 -> 57 [penwidth=2]
    162 -> 57 [penwidth=2]
    163 -> 57 [penwidth=2]
    164 -> 57 [penwidth=2]
    165 -> 57 [penwidth=2]
    166 -> 57 [penwidth=2]
    167 -> 57 [penwidth=2]
    168 -> 57 [penwidth=2]
    169 -> 57 [penwidth=2]
    170 -> 57 [penwidth=2]
    171 -> 57 [penwidth=2]
    172 -> 57 [penwidth=2]
    173 -> 57 [penwidth=2]
    174 -> 57 [penwidth=2]
    175 -> 57 [penwidth=2]
    176 -> 57 [penwidth=2]
    177 -> 57 [penwidth=2]
    178 -> 58 [penwidth=2]
    179 -> 58 [penwidth=2]
    180 -> 58 [penwidth=2]
    181 -> 58 [penwidth=2]
    182 -> 58 [penwidth=2]
    183 -> 58 [penwidth=2]
    184 -> 58 [penwidth=2]
    185 -> 58 [penwidth=2]
    186 -> 58 [penwidth=2]
    303 -> 58 [penwidth=2]
    302 -> 58 [penwidth=2]
    301 -> 58 [penwidth=2]
    300 -> 59 [penwidth=2]
    299 -> 59 [penwidth=2]
    298 -> 59 [penwidth=2]
    297 -> 59 [penwidth=2]
    296 -> 59 [penwidth=2]
    295 -> 59 [penwidth=2]
    294 -> 59 [penwidth=2]
    293 -> 59 [penwidth=2]
    292 -> 59 [penwidth=2]
    291 -> 59 [penwidth=2]
    290 -> 59 [penwidth=2]
    289 -> 59 [penwidth=2]
    40 -> 59 [penwidth=2]
    288 -> 59 [penwidth=2]
    287 -> 59 [penwidth=2]
    286 -> 59 [penwidth=2]
    285 -> 59 [penwidth=2]
    284 -> 59 [penwidth=2]
    283 -> 59 [penwidth=2]
    282 -> 59 [penwidth=2]
    281 -> 60 [penwidth=2]
    271 -> 60 [penwidth=2]
    280 -> 60 [penwidth=2]
    279 -> 60 [penwidth=2]
    278 -> 60 [penwidth=2]
    309 -> 60 [penwidth=2]
    277 -> 60 [penwidth=2]
    308 -> 60 [penwidth=2]
    276 -> 11 [penwidth=2]
    307 -> 11 [penwidth=2]
    275 -> 11 [penwidth=2]
    306 -> 11 [penwidth=2]
    8 -> 11 [penwidth=2]
    274 -> 11 [penwidth=2]
    305 -> 11 [penwidth=2]
    273 -> 11 [penwidth=2]
    304 -> 11 [penwidth=2]
    272 -> 11 [penwidth=2]
    103 -> 11 [penwidth=2]
    104 -> 11 [penwidth=2]
    105 -> 11 [penwidth=2]
    106 -> 11 [penwidth=2]
    107 -> 11 [penwidth=2]
    108 -> 11 [penwidth=2]
    109 -> 11 [penwidth=2]
    12 -> 11 [penwidth=2]
    110 -> 11 [penwidth=2]
    111 -> 10 [penwidth=2]
    112 -> 10 [penwidth=2]
    113 -> 145 [penwidth=2]
    114 -> 145 [penwidth=2]
    115 -> 145 [penwidth=2]
    116 -> 145 [penwidth=2]
    117 -> 145 [penwidth=2]
    13 -> 145 [penwidth=2]
    118 -> 145 [penwidth=2]
    119 -> 146 [penwidth=2]
    120 -> 146 [penwidth=2]
    121 -> 146 [penwidth=2]
    122 -> 146 [penwidth=2]
    14 -> 146 [penwidth=2]
    123 -> 146 [penwidth=2]
    15 -> 146 [penwidth=2]
    124 -> 146 [penwidth=2]
    125 -> 146 [penwidth=2]
    126 -> 146 [penwidth=2]
    9 -> 146 [penwidth=2]
    127 -> 146 [penwidth=2]
    128 -> 146 [penwidth=2]
    129 -> 146 [penwidth=2]
    130 -> 146 [penwidth=2]
    131 -> 146 [penwidth=2]
    132 -> 146 [penwidth=2]
    133 -> 146 [penwidth=2]
    134 -> 146 [penwidth=2]
    135 -> 146 [penwidth=2]
    136 -> 146 [penwidth=2]
    137 -> 146 [penwidth=2]
    138 -> 147 [penwidth=2]
    139 -> 147 [penwidth=2]
    140 -> 147 [penwidth=2]
    141 -> 147 [penwidth=2]
    142 -> 147 [penwidth=2]
    143 -> 148 [penwidth=2]
    144 -> 148 [penwidth=2]
    229 -> 148 [penwidth=2]
    7 -> 149 [penwidth=2]
    230 -> 149 [penwidth=2]
    6 -> 149 [penwidth=2]
    231 -> 149 [penwidth=2]
    5 -> 149 [penwidth=2]
    232 -> 149 [penwidth=2]
    4 -> 149 [penwidth=2]
    233 -> 149 [penwidth=2]
    3 -> 149 [penwidth=2]
    234 -> 149 [penwidth=2]
    2 -> 149 [penwidth=2]
    1 -> 149 [penwidth=2]
    235 -> 149 [penwidth=2]
    236 -> 149 [penwidth=2]
    237 -> 149 [penwidth=2]
    238 -> 149 [penwidth=2]
    239 -> 149 [penwidth=2]
    240 -> 149 [penwidth=2]
    241 -> 149 [penwidth=2]
    242 -> 149 [penwidth=2]
    243 -> 149 [penwidth=2]
    244 -> 149 [penwidth=2]
    245 -> 149 [penwidth=2]
    246 -> 150 [penwidth=2]
    247 -> 151 [penwidth=2]
    248 -> 151 [penwidth=2]
    249 -> 151 [penwidth=2]
    250 -> 151 [penwidth=2]
    251 -> 151 [penwidth=2]
    252 -> 151 [penwidth=2]
    253 -> 151 [penwidth=2]
    254 -> 151 [penwidth=2]
    255 -> 151 [penwidth=2]
    256 -> 151 [penwidth=2]
    257 -> 151 [penwidth=2]
    258 -> 151 [penwidth=2]
    259 -> 151 [penwidth=2]
    260 -> 151 [penwidth=2]
    261 -> 151 [penwidth=2]
    262 -> 151 [penwidth=2]
    263 -> 151 [penwidth=2]
    264 -> 151 [penwidth=2]
    265 -> 151 [penwidth=2]
    266 -> 151 [penwidth=2]
    267 -> 151 [penwidth=2]
    268 -> 151 [penwidth=2]
    269 -> 151 [penwidth=2]
    270 -> 151 [penwidth=2]
    61 -> 152 [penwidth=2]
    62 -> 152 [penwidth=2]
    63 -> 152 [penwidth=2]
    64 -> 152 [penwidth=2]
    65 -> 152 [penwidth=2]
    66 -> 152 [penwidth=2]
    67 -> 152 [penwidth=2]
    68 -> 152 [penwidth=2]
    69 -> 152 [penwidth=2]
    70 -> 152 [penwidth=2]
    71 -> 152 [penwidth=2]
    72 -> 152 [penwidth=2]
    73 -> 152 [penwidth=2]
    74 -> 152 [penwidth=2]
    75 -> 152 [penwidth=2]
    76 -> 152 [penwidth=2]
    77 -> 152 [penwidth=2]
    78 -> 152 [penwidth=2]
    79 -> 152 [penwidth=2]
    80 -> 152 [penwidth=2]
    81 -> 152 [penwidth=2]
    82 -> 152 [penwidth=2]
    83 -> 152 [penwidth=2]
    84 -> 152 [penwidth=2]
    85 -> 152 [penwidth=2]
    86 -> 152 [penwidth=2]
    87 -> 153 [penwidth=2]
    88 -> 153 [penwidth=2]
    89 -> 153 [penwidth=2]
    90 -> 153 [penwidth=2]
    91 -> 153 [penwidth=2]
    92 -> 153 [penwidth=2]
    93 -> 153 [penwidth=2]
    94 -> 153 [penwidth=2]
    95 -> 153 [penwidth=2]
    96 -> 153 [penwidth=2]
    97 -> 153 [penwidth=2]
    98 -> 153 [penwidth=2]
    99 -> 153 [penwidth=2]
    100 -> 153 [penwidth=2]
    101 -> 153 [penwidth=2]
    102 -> 153 [penwidth=2]
    187 -> 153 [penwidth=2]
    188 -> 153 [penwidth=2]
    189 -> 153 [penwidth=2]
    190 -> 153 [penwidth=2]
    191 -> 153 [penwidth=2]
    192 -> 154 [penwidth=2]
    193 -> 155 [penwidth=2]
    194 -> 155 [penwidth=2]
    195 -> 155 [penwidth=2]
    196 -> 155 [penwidth=2]
    27 -> 155 [penwidth=2]
    21 -> 156 [penwidth=2]
    197 -> 156 [penwidth=2]
    17 -> 156 [penwidth=2]
    26 -> 156 [penwidth=2]
    198 -> 156 [penwidth=2]
    28 -> 156 [penwidth=2]
    199 -> 156 [penwidth=2]
    25 -> 156 [penwidth=2]
    31 -> 156 [penwidth=2]
    200 -> 156 [penwidth=2]
    16 -> 156 [penwidth=2]
    201 -> 156 [penwidth=2]
    24 -> 156 [penwidth=2]
    202 -> 156 [penwidth=2]
    30 -> 156 [penwidth=2]
    203 -> 157 [penwidth=2]
    18 -> 158 [penwidth=2]
    204 -> 158 [penwidth=2]
    29 -> 158 [penwidth=2]
    205 -> 158 [penwidth=2]
    22 -> 158 [penwidth=2]
    206 -> 158 [penwidth=2]
    23 -> 158 [penwidth=2]
    207 -> 158 [penwidth=2]
    19 -> 158 [penwidth=2]
    53 -> 158 [penwidth=2]
    33 -> 159 [penwidth=2]
    208 -> 159 [penwidth=2]
    39 -> 159 [penwidth=2]
    209 -> 159 [penwidth=2]
    52 -> 159 [penwidth=2]
    210 -> 159 [penwidth=2]
    51 -> 160 [penwidth=2]
    36 -> 160 [penwidth=2]
    211 -> 160 [penwidth=2]
    50 -> 160 [penwidth=2]
    54 -> 160 [penwidth=2]
    212 -> 160 [penwidth=2]
    20 -> 160 [penwidth=2]
    37 -> 160 [penwidth=2]
    213 -> 160 [penwidth=2]
    214 -> 160 [penwidth=2]
    49 -> 160 [penwidth=2]
    215 -> 160 [penwidth=2]
    48 -> 160 [penwidth=2]
    216 -> 160 [penwidth=2]
    38 -> 160 [penwidth=2]
    217 -> 160 [penwidth=2]
    47 -> 160 [penwidth=2]
    218 -> 161 [penwidth=2]
    46 -> 161 [penwidth=2]
    45 -> 161 [penwidth=2]
    219 -> 161 [penwidth=2]
    220 -> 161 [penwidth=2]
    34 -> 161 [penwidth=2]
    221 -> 161 [penwidth=2]
    44 -> 161 [penwidth=2]
    222 -> 161 [penwidth=2]
    35 -> 162 [penwidth=2]
    32 -> 162 [penwidth=2]
    223 -> 162 [penwidth=2]
    43 -> 162 [penwidth=2]
    224 -> 162 [penwidth=2]
    225 -> 162 [penwidth=2]
    42 -> 163 [penwidth=2]
    41 -> 163 [penwidth=2]
    226 -> 163 [penwidth=2]
    227 -> 163 [penwidth=2]
    228 -> 163 [penwidth=2]
    10 -> 11 [penwidth=2]
    165 -> 58 [penwidth=2]
    172 -> 60 [penwidth=2]
    172 -> 11 [penwidth=2]
    172 -> 56 [penwidth=2]
    172 -> 58 [penwidth=2]
    172 -> 59 [penwidth=2]
    180 -> 60 [penwidth=2]
    186 -> 56 [penwidth=2]
    186 -> 11 [penwidth=2]
    292 -> 58 [penwidth=2]
    292 -> 55 [penwidth=2]
    292 -> 11 [penwidth=2]
    285 -> 11 [penwidth=2]
    285 -> 57 [penwidth=2]
    285 -> 55 [penwidth=2]
    285 -> 60 [penwidth=2]
    281 -> 57 [penwidth=2]
    281 -> 59 [penwidth=2]
    281 -> 58 [penwidth=2]
    281 -> 11 [penwidth=2]
    281 -> 55 [penwidth=2]
    307 -> 60 [penwidth=2]
    307 -> 57 [penwidth=2]
    307 -> 55 [penwidth=2]
    307 -> 58 [penwidth=2]
    307 -> 56 [penwidth=2]
    8 -> 56 [penwidth=2]
    8 -> 58 [penwidth=2]
    8 -> 55 [penwidth=2]
    8 -> 57 [penwidth=2]
    8 -> 60 [penwidth=2]
    103 -> 55 [penwidth=2]
    111 -> 156 [penwidth=2]
    111 -> 186 [penwidth=2]
    111 -> 282 [penwidth=2]
    111 -> 12 [penwidth=2]
    111 -> 274 [penwidth=2]
    111 -> 308 [penwidth=2]
    111 -> 271 [penwidth=2]
    111 -> 305 [penwidth=2]
    111 -> 281 [penwidth=2]
    111 -> 151 [penwidth=2]
    111 -> 278 [penwidth=2]
    111 -> 276 [penwidth=2]
    111 -> 184 [penwidth=2]
    111 -> 167 [penwidth=2]
    111 -> 108 [penwidth=2]
    111 -> 283 [penwidth=2]
    111 -> 147 [penwidth=2]
    111 -> 272 [penwidth=2]
    111 -> 296 [penwidth=2]
    111 -> 273 [penwidth=2]
    111 -> 166 [penwidth=2]
    111 -> 161 [penwidth=2]
    111 -> 304 [penwidth=2]
    111 -> 290 [penwidth=2]
    111 -> 149 [penwidth=2]
    111 -> 297 [penwidth=2]
    111 -> 154 [penwidth=2]
    111 -> 170 [penwidth=2]
    111 -> 157 [penwidth=2]
    133 -> 305 [penwidth=2]
    133 -> 271 [penwidth=2]
    133 -> 288 [penwidth=2]
    133 -> 109 [penwidth=2]
    133 -> 272 [penwidth=2]
    133 -> 280 [penwidth=2]
    133 -> 304 [penwidth=2]
    133 -> 155 [penwidth=2]
    133 -> 157 [penwidth=2]
    133 -> 178 [penwidth=2]
    133 -> 298 [penwidth=2]
    133 -> 110 [penwidth=2]
    133 -> 168 [penwidth=2]
    133 -> 149 [penwidth=2]
    133 -> 166 [penwidth=2]
    133 -> 277 [penwidth=2]
    133 -> 165 [penwidth=2]
    133 -> 181 [penwidth=2]
    133 -> 299 [penwidth=2]
    133 -> 8 [penwidth=2]
    133 -> 303 [penwidth=2]
    133 -> 283 [penwidth=2]
    133 -> 107 [penwidth=2]
    133 -> 167 [penwidth=2]
    7 -> 157 [penwidth=2]
    7 -> 286 [penwidth=2]
    7 -> 294 [penwidth=2]
    7 -> 285 [penwidth=2]
    7 -> 308 [penwidth=2]
    7 -> 40 [penwidth=2]
    7 -> 185 [penwidth=2]
    7 -> 167 [penwidth=2]
    7 -> 107 [penwidth=2]
    7 -> 275 [penwidth=2]
    7 -> 175 [penwidth=2]
    7 -> 106 [penwidth=2]
    7 -> 298 [penwidth=2]
    7 -> 155 [penwidth=2]
    7 -> 153 [penwidth=2]
    7 -> 186 [penwidth=2]
    7 -> 146 [penwidth=2]
    7 -> 169 [penwidth=2]
    7 -> 184 [penwidth=2]
    7 -> 304 [penwidth=2]
    7 -> 276 [penwidth=2]
    7 -> 110 [penwidth=2]
    7 -> 148 [penwidth=2]
    7 -> 302 [penwidth=2]
    7 -> 277 [penwidth=2]
    7 -> 160 [penwidth=2]
    7 -> 296 [penwidth=2]
    7 -> 150 [penwidth=2]
    7 -> 282 [penwidth=2]
    7 -> 108 [penwidth=2]
    7 -> 297 [penwidth=2]
    7 -> 180 [penwidth=2]
    7 -> 8 [penwidth=2]
    7 -> 305 [penwidth=2]
    7 -> 161 [penwidth=2]
    7 -> 104 [penwidth=2]
    7 -> 173 [penwidth=2]
    7 -> 274 [penwidth=2]
    7 -> 164 [penwidth=2]
    7 -> 272 [penwidth=2]
    7 -> 172 [penwidth=2]
    7 -> 105 [penwidth=2]
    7 -> 309 [penwidth=2]
    7 -> 154 [penwidth=2]
    7 -> 159 [penwidth=2]
    7 -> 271 [penwidth=2]
    7 -> 163 [penwidth=2]
    7 -> 280 [penwidth=2]
    7 -> 174 [penwidth=2]
    7 -> 109 [penwidth=2]
    7 -> 289 [penwidth=2]
    7 -> 147 [penwidth=2]
    7 -> 103 [penwidth=2]
    7 -> 281 [penwidth=2]
    7 -> 295 [penwidth=2]
    7 -> 171 [penwidth=2]
    7 -> 283 [penwidth=2]
    7 -> 288 [penwidth=2]
    7 -> 301 [penwidth=2]
    7 -> 176 [penwidth=2]
    7 -> 182 [penwidth=2]
    7 -> 158 [penwidth=2]
    7 -> 179 [penwidth=2]
    7 -> 273 [penwidth=2]
    7 -> 279 [penwidth=2]
    7 -> 291 [penwidth=2]
    7 -> 10 [penwidth=2]
    7 -> 290 [penwidth=2]
    7 -> 300 [penwidth=2]
    232 -> 281 [penwidth=2]
    232 -> 284 [penwidth=2]
    232 -> 185 [penwidth=2]
    232 -> 292 [penwidth=2]
    232 -> 293 [penwidth=2]
    232 -> 170 [penwidth=2]
    232 -> 296 [penwidth=2]
    232 -> 147 [penwidth=2]
    232 -> 302 [penwidth=2]
    232 -> 177 [penwidth=2]
    232 -> 175 [penwidth=2]
    232 -> 160 [penwidth=2]
    232 -> 291 [penwidth=2]
    232 -> 285 [penwidth=2]
    232 -> 148 [penwidth=2]
    232 -> 8 [penwidth=2]
    232 -> 110 [penwidth=2]
    232 -> 106 [penwidth=2]
    232 -> 159 [penwidth=2]
    232 -> 109 [penwidth=2]
    232 -> 276 [penwidth=2]
    232 -> 307 [penwidth=2]
    232 -> 167 [penwidth=2]
    232 -> 176 [penwidth=2]
    232 -> 165 [penwidth=2]
    232 -> 152 [penwidth=2]
    232 -> 301 [penwidth=2]
    232 -> 103 [penwidth=2]
    232 -> 273 [penwidth=2]
    232 -> 155 [penwidth=2]
    232 -> 108 [penwidth=2]
    232 -> 298 [penwidth=2]
    232 -> 180 [penwidth=2]
    232 -> 172 [penwidth=2]
    232 -> 104 [penwidth=2]
    232 -> 186 [penwidth=2]
    232 -> 278 [penwidth=2]
    232 -> 107 [penwidth=2]
    232 -> 275 [penwidth=2]
    232 -> 158 [penwidth=2]
    232 -> 304 [penwidth=2]
    232 -> 157 [penwidth=2]
    232 -> 150 [penwidth=2]
    232 -> 308 [penwidth=2]
    232 -> 306 [penwidth=2]
    232 -> 287 [penwidth=2]
    232 -> 40 [penwidth=2]
    232 -> 105 [penwidth=2]
    232 -> 305 [penwidth=2]
    232 -> 274 [penwidth=2]
    232 -> 163 [penwidth=2]
    232 -> 171 [penwidth=2]
    232 -> 271 [penwidth=2]
    232 -> 300 [penwidth=2]
    232 -> 10 [penwidth=2]
    232 -> 286 [penwidth=2]
    232 -> 145 [penwidth=2]
    232 -> 168 [penwidth=2]
    232 -> 282 [penwidth=2]
    232 -> 183 [penwidth=2]
    232 -> 272 [penwidth=2]
    232 -> 164 [penwidth=2]
    232 -> 283 [penwidth=2]
    232 -> 146 [penwidth=2]
    232 -> 179 [penwidth=2]
    232 -> 277 [penwidth=2]
    232 -> 162 [penwidth=2]
    232 -> 174 [penwidth=2]
    232 -> 294 [penwidth=2]
    232 -> 169 [penwidth=2]
    232 -> 178 [penwidth=2]
    232 -> 290 [penwidth=2]
    241 -> 175 [penwidth=2]
    241 -> 12 [penwidth=2]
    241 -> 300 [penwidth=2]
    241 -> 109 [penwidth=2]
    241 -> 279 [penwidth=2]
    241 -> 297 [penwidth=2]
    241 -> 151 [penwidth=2]
    241 -> 308 [penwidth=2]
    241 -> 307 [penwidth=2]
    241 -> 169 [penwidth=2]
    241 -> 184 [penwidth=2]
    241 -> 305 [penwidth=2]
    241 -> 290 [penwidth=2]
    241 -> 274 [penwidth=2]
    241 -> 173 [penwidth=2]
    241 -> 273 [penwidth=2]
    241 -> 165 [penwidth=2]
    241 -> 304 [penwidth=2]
    241 -> 163 [penwidth=2]
    241 -> 174 [penwidth=2]
    241 -> 105 [penwidth=2]
    241 -> 167 [penwidth=2]
    241 -> 282 [penwidth=2]
    241 -> 171 [penwidth=2]
    241 -> 296 [penwidth=2]
    241 -> 276 [penwidth=2]
    241 -> 8 [penwidth=2]
    241 -> 155 [penwidth=2]
    241 -> 182 [penwidth=2]
    241 -> 272 [penwidth=2]
    241 -> 281 [penwidth=2]
    241 -> 170 [penwidth=2]
    241 -> 280 [penwidth=2]
    241 -> 157 [penwidth=2]
    241 -> 299 [penwidth=2]
    241 -> 156 [penwidth=2]
    241 -> 180 [penwidth=2]
    241 -> 152 [penwidth=2]
    241 -> 145 [penwidth=2]
    241 -> 291 [penwidth=2]
    241 -> 158 [penwidth=2]
    241 -> 106 [penwidth=2]
    241 -> 161 [penwidth=2]
    241 -> 277 [penwidth=2]
    241 -> 298 [penwidth=2]
    241 -> 271 [penwidth=2]
    241 -> 162 [penwidth=2]
    241 -> 172 [penwidth=2]
    241 -> 283 [penwidth=2]
    241 -> 164 [penwidth=2]
    241 -> 185 [penwidth=2]
    241 -> 168 [penwidth=2]
    241 -> 181 [penwidth=2]
    241 -> 148 [penwidth=2]
    241 -> 146 [penwidth=2]
    241 -> 301 [penwidth=2]
    241 -> 147 [penwidth=2]
    241 -> 292 [penwidth=2]
    241 -> 293 [penwidth=2]
    241 -> 295 [penwidth=2]
    250 -> 294 [penwidth=2]
    250 -> 283 [penwidth=2]
    250 -> 280 [penwidth=2]
    263 -> 105 [penwidth=2]
    263 -> 305 [penwidth=2]
    263 -> 159 [penwidth=2]
    263 -> 284 [penwidth=2]
    263 -> 109 [penwidth=2]
    263 -> 292 [penwidth=2]
    263 -> 182 [penwidth=2]
    263 -> 296 [penwidth=2]
    263 -> 176 [penwidth=2]
    263 -> 279 [penwidth=2]
    263 -> 303 [penwidth=2]
    263 -> 148 [penwidth=2]
    263 -> 168 [penwidth=2]
    263 -> 274 [penwidth=2]
    263 -> 275 [penwidth=2]
    263 -> 184 [penwidth=2]
    263 -> 272 [penwidth=2]
    263 -> 156 [penwidth=2]
    263 -> 286 [penwidth=2]
    263 -> 104 [penwidth=2]
    263 -> 150 [penwidth=2]
    263 -> 302 [penwidth=2]
    263 -> 281 [penwidth=2]
    263 -> 110 [penwidth=2]
    263 -> 288 [penwidth=2]
    263 -> 166 [penwidth=2]
    263 -> 162 [penwidth=2]
    263 -> 103 [penwidth=2]
    263 -> 155 [penwidth=2]
    263 -> 285 [penwidth=2]
    263 -> 309 [penwidth=2]
    263 -> 10 [penwidth=2]
    263 -> 164 [penwidth=2]
    263 -> 180 [penwidth=2]
    263 -> 181 [penwidth=2]
    263 -> 154 [penwidth=2]
    263 -> 294 [penwidth=2]
    263 -> 173 [penwidth=2]
    263 -> 295 [penwidth=2]
    263 -> 300 [penwidth=2]
    263 -> 165 [penwidth=2]
    263 -> 169 [penwidth=2]
    263 -> 161 [penwidth=2]
    263 -> 158 [penwidth=2]
    263 -> 172 [penwidth=2]
    263 -> 40 [penwidth=2]
    263 -> 276 [penwidth=2]
    263 -> 290 [penwidth=2]
    263 -> 12 [penwidth=2]
    263 -> 298 [penwidth=2]
    263 -> 307 [penwidth=2]
    263 -> 299 [penwidth=2]
    263 -> 289 [penwidth=2]
    263 -> 145 [penwidth=2]
    263 -> 178 [penwidth=2]
    263 -> 283 [penwidth=2]
    263 -> 177 [penwidth=2]
    263 -> 186 [penwidth=2]
    263 -> 170 [penwidth=2]
    263 -> 149 [penwidth=2]
    263 -> 8 [penwidth=2]
    263 -> 175 [penwidth=2]
    263 -> 301 [penwidth=2]
    263 -> 271 [penwidth=2]
    263 -> 291 [penwidth=2]
    263 -> 167 [penwidth=2]
    263 -> 174 [penwidth=2]
    263 -> 297 [penwidth=2]
    263 -> 304 [penwidth=2]
    263 -> 277 [penwidth=2]
    263 -> 107 [penwidth=2]
    267 -> 146 [penwidth=2]
    267 -> 171 [penwidth=2]
    267 -> 274 [penwidth=2]
    267 -> 299 [penwidth=2]
    267 -> 174 [penwidth=2]
    267 -> 8 [penwidth=2]
    267 -> 104 [penwidth=2]
    267 -> 291 [penwidth=2]
    267 -> 152 [penwidth=2]
    267 -> 177 [penwidth=2]
    267 -> 109 [penwidth=2]
    267 -> 295 [penwidth=2]
    267 -> 184 [penwidth=2]
    267 -> 294 [penwidth=2]
    267 -> 273 [penwidth=2]
    267 -> 185 [penwidth=2]
    267 -> 304 [penwidth=2]
    267 -> 110 [penwidth=2]
    267 -> 161 [penwidth=2]
    267 -> 157 [penwidth=2]
    267 -> 163 [penwidth=2]
    267 -> 290 [penwidth=2]
    267 -> 105 [penwidth=2]
    267 -> 162 [penwidth=2]
    267 -> 179 [penwidth=2]
    267 -> 181 [penwidth=2]
    267 -> 305 [penwidth=2]
    267 -> 175 [penwidth=2]
    267 -> 176 [penwidth=2]
    267 -> 180 [penwidth=2]
    267 -> 287 [penwidth=2]
    267 -> 300 [penwidth=2]
    267 -> 156 [penwidth=2]
    267 -> 278 [penwidth=2]
    267 -> 301 [penwidth=2]
    267 -> 158 [penwidth=2]
    267 -> 170 [penwidth=2]
    267 -> 296 [penwidth=2]
    267 -> 12 [penwidth=2]
    65 -> 276 [penwidth=2]
    65 -> 106 [penwidth=2]
    65 -> 291 [penwidth=2]
    65 -> 285 [penwidth=2]
    65 -> 154 [penwidth=2]
    70 -> 171 [penwidth=2]
    70 -> 177 [penwidth=2]
    70 -> 301 [penwidth=2]
    70 -> 180 [penwidth=2]
    70 -> 307 [penwidth=2]
    70 -> 304 [penwidth=2]
    70 -> 168 [penwidth=2]
    70 -> 174 [penwidth=2]
    70 -> 284 [penwidth=2]
    70 -> 176 [penwidth=2]
    70 -> 309 [penwidth=2]
    70 -> 163 [penwidth=2]
    70 -> 288 [penwidth=2]
    70 -> 173 [penwidth=2]
    70 -> 183 [penwidth=2]
    70 -> 153 [penwidth=2]
    70 -> 302 [penwidth=2]
    70 -> 154 [penwidth=2]
    70 -> 295 [penwidth=2]
    70 -> 107 [penwidth=2]
    70 -> 169 [penwidth=2]
    70 -> 149 [penwidth=2]
    70 -> 291 [penwidth=2]
    70 -> 160 [penwidth=2]
    70 -> 105 [penwidth=2]
    70 -> 164 [penwidth=2]
    70 -> 281 [penwidth=2]
    70 -> 175 [penwidth=2]
    70 -> 179 [penwidth=2]
    70 -> 300 [penwidth=2]
    70 -> 280 [penwidth=2]
    70 -> 108 [penwidth=2]
    70 -> 287 [penwidth=2]
    70 -> 148 [penwidth=2]
    70 -> 286 [penwidth=2]
    70 -> 8 [penwidth=2]
    70 -> 184 [penwidth=2]
    70 -> 298 [penwidth=2]
    70 -> 10 [penwidth=2]
    70 -> 185 [penwidth=2]
    70 -> 40 [penwidth=2]
    70 -> 289 [penwidth=2]
    70 -> 104 [penwidth=2]
    70 -> 292 [penwidth=2]
    70 -> 157 [penwidth=2]
    70 -> 106 [penwidth=2]
    70 -> 293 [penwidth=2]
    70 -> 303 [penwidth=2]
    91 -> 172 [penwidth=2]
    91 -> 180 [penwidth=2]
    91 -> 8 [penwidth=2]
    91 -> 176 [penwidth=2]
    91 -> 281 [penwidth=2]
    91 -> 296 [penwidth=2]
    91 -> 165 [penwidth=2]
    91 -> 308 [penwidth=2]
    91 -> 148 [penwidth=2]
    91 -> 110 [penwidth=2]
    91 -> 166 [penwidth=2]
    91 -> 167 [penwidth=2]
    91 -> 182 [penwidth=2]
    91 -> 273 [penwidth=2]
    91 -> 185 [penwidth=2]
    91 -> 103 [penwidth=2]
    91 -> 147 [penwidth=2]
    91 -> 287 [penwidth=2]
    91 -> 40 [penwidth=2]
    91 -> 164 [penwidth=2]
    91 -> 178 [penwidth=2]
    91 -> 145 [penwidth=2]
    91 -> 276 [penwidth=2]
    91 -> 163 [penwidth=2]
    91 -> 303 [penwidth=2]
    91 -> 277 [penwidth=2]
    91 -> 271 [penwidth=2]
    91 -> 169 [penwidth=2]
    91 -> 175 [penwidth=2]
    91 -> 168 [penwidth=2]
    91 -> 109 [penwidth=2]
    91 -> 298 [penwidth=2]
    91 -> 151 [penwidth=2]
    98 -> 296 [penwidth=2]
    98 -> 290 [penwidth=2]
    98 -> 178 [penwidth=2]
    98 -> 146 [penwidth=2]
    98 -> 105 [penwidth=2]
    98 -> 180 [penwidth=2]
    98 -> 170 [penwidth=2]
    98 -> 110 [penwidth=2]
    98 -> 295 [penwidth=2]
    98 -> 168 [penwidth=2]
    98 -> 185 [penwidth=2]
    98 -> 277 [penwidth=2]
    98 -> 181 [penwidth=2]
    98 -> 291 [penwidth=2]
    98 -> 176 [penwidth=2]
    98 -> 108 [penwidth=2]
    98 -> 104 [penwidth=2]
    98 -> 294 [penwidth=2]
    98 -> 150 [penwidth=2]
    98 -> 297 [penwidth=2]
    98 -> 284 [penwidth=2]
    98 -> 148 [penwidth=2]
    98 -> 283 [penwidth=2]
    98 -> 289 [penwidth=2]
    98 -> 162 [penwidth=2]
    98 -> 160 [penwidth=2]
    98 -> 174 [penwidth=2]
    98 -> 292 [penwidth=2]
    98 -> 147 [penwidth=2]
    98 -> 275 [penwidth=2]
    98 -> 179 [penwidth=2]
    98 -> 173 [penwidth=2]
    98 -> 306 [penwidth=2]
    98 -> 271 [penwidth=2]
    98 -> 40 [penwidth=2]
    98 -> 156 [penwidth=2]
    98 -> 305 [penwidth=2]
    98 -> 282 [penwidth=2]
    98 -> 106 [penwidth=2]
    98 -> 163 [penwidth=2]
    98 -> 307 [penwidth=2]
    98 -> 308 [penwidth=2]
    98 -> 165 [penwidth=2]
    98 -> 302 [penwidth=2]
    98 -> 182 [penwidth=2]
    98 -> 301 [penwidth=2]
    98 -> 149 [penwidth=2]
    98 -> 281 [penwidth=2]
    98 -> 186 [penwidth=2]
    98 -> 273 [penwidth=2]
    98 -> 109 [penwidth=2]
    98 -> 298 [penwidth=2]
    98 -> 145 [penwidth=2]
    98 -> 299 [penwidth=2]
    98 -> 285 [penwidth=2]
    98 -> 12 [penwidth=2]
    98 -> 274 [penwidth=2]
    98 -> 159 [penwidth=2]
    98 -> 10 [penwidth=2]
    98 -> 279 [penwidth=2]
    98 -> 184 [penwidth=2]
    98 -> 164 [penwidth=2]
    98 -> 155 [penwidth=2]
    98 -> 107 [penwidth=2]
    98 -> 171 [penwidth=2]
    98 -> 151 [penwidth=2]
    98 -> 169 [penwidth=2]
    98 -> 304 [penwidth=2]
    98 -> 175 [penwidth=2]
    98 -> 288 [penwidth=2]
    98 -> 161 [penwidth=2]
    98 -> 166 [penwidth=2]
    98 -> 276 [penwidth=2]
    98 -> 280 [penwidth=2]
    98 -> 183 [penwidth=2]
    98 -> 278 [penwidth=2]
    98 -> 154 [penwidth=2]
    98 -> 303 [penwidth=2]
    98 -> 309 [penwidth=2]
    98 -> 158 [penwidth=2]
    98 -> 167 [penwidth=2]
    98 -> 103 [penwidth=2]
    98 -> 8 [penwidth=2]
    98 -> 300 [penwidth=2]
    98 -> 177 [penwidth=2]
    98 -> 172 [penwidth=2]
    98 -> 272 [penwidth=2]
    98 -> 293 [penwidth=2]
    191 -> 149 [penwidth=2]
    191 -> 158 [penwidth=2]
    191 -> 165 [penwidth=2]
    191 -> 162 [penwidth=2]
    191 -> 109 [penwidth=2]
    191 -> 284 [penwidth=2]
    191 -> 308 [penwidth=2]
    191 -> 293 [penwidth=2]
    191 -> 174 [penwidth=2]
    191 -> 283 [penwidth=2]
    191 -> 40 [penwidth=2]
    191 -> 148 [penwidth=2]
    191 -> 160 [penwidth=2]
    191 -> 151 [penwidth=2]
    191 -> 287 [penwidth=2]
    191 -> 295 [penwidth=2]
    192 -> 184 [penwidth=2]
    192 -> 109 [penwidth=2]
    192 -> 275 [penwidth=2]
    192 -> 291 [penwidth=2]
    192 -> 168 [penwidth=2]
    192 -> 283 [penwidth=2]
    192 -> 12 [penwidth=2]
    192 -> 156 [penwidth=2]
    192 -> 150 [penwidth=2]
    192 -> 274 [penwidth=2]
    192 -> 294 [penwidth=2]
    192 -> 183 [penwidth=2]
    192 -> 181 [penwidth=2]
    192 -> 172 [penwidth=2]
    192 -> 292 [penwidth=2]
    192 -> 280 [penwidth=2]
    192 -> 277 [penwidth=2]
    192 -> 293 [penwidth=2]
    192 -> 271 [penwidth=2]
    192 -> 152 [penwidth=2]
    192 -> 175 [penwidth=2]
    192 -> 104 [penwidth=2]
    192 -> 145 [penwidth=2]
    192 -> 169 [penwidth=2]
    192 -> 178 [penwidth=2]
    192 -> 153 [penwidth=2]
    192 -> 296 [penwidth=2]
    192 -> 177 [penwidth=2]
    192 -> 304 [penwidth=2]
    192 -> 282 [penwidth=2]
    192 -> 297 [penwidth=2]
    192 -> 301 [penwidth=2]
    192 -> 272 [penwidth=2]
    192 -> 186 [penwidth=2]
    192 -> 160 [penwidth=2]
    192 -> 167 [penwidth=2]
    192 -> 170 [penwidth=2]
    192 -> 158 [penwidth=2]
    192 -> 185 [penwidth=2]
    192 -> 278 [penwidth=2]
    192 -> 155 [penwidth=2]
    192 -> 107 [penwidth=2]
    192 -> 164 [penwidth=2]
    192 -> 179 [penwidth=2]
    192 -> 289 [penwidth=2]
    192 -> 149 [penwidth=2]
    192 -> 174 [penwidth=2]
    192 -> 305 [penwidth=2]
    192 -> 105 [penwidth=2]
    192 -> 173 [penwidth=2]
    192 -> 286 [penwidth=2]
    192 -> 148 [penwidth=2]
    192 -> 285 [penwidth=2]
    192 -> 279 [penwidth=2]
    192 -> 10 [penwidth=2]
    192 -> 284 [penwidth=2]
    195 -> 165 [penwidth=2]
    195 -> 152 [penwidth=2]
    195 -> 103 [penwidth=2]
    195 -> 290 [penwidth=2]
    195 -> 177 [penwidth=2]
    195 -> 274 [penwidth=2]
    195 -> 281 [penwidth=2]
    195 -> 298 [penwidth=2]
    195 -> 107 [penwidth=2]
    195 -> 167 [penwidth=2]
    195 -> 280 [penwidth=2]
    195 -> 175 [penwidth=2]
    195 -> 180 [penwidth=2]
    195 -> 276 [penwidth=2]
    195 -> 171 [penwidth=2]
    195 -> 288 [penwidth=2]
    195 -> 163 [penwidth=2]
    195 -> 273 [penwidth=2]
    195 -> 277 [penwidth=2]
    195 -> 104 [penwidth=2]
    195 -> 183 [penwidth=2]
    195 -> 150 [penwidth=2]
    195 -> 296 [penwidth=2]
    195 -> 186 [penwidth=2]
    195 -> 12 [penwidth=2]
    195 -> 147 [penwidth=2]
    195 -> 169 [penwidth=2]
    195 -> 289 [penwidth=2]
    195 -> 146 [penwidth=2]
    195 -> 148 [penwidth=2]
    195 -> 294 [penwidth=2]
    195 -> 151 [penwidth=2]
    195 -> 292 [penwidth=2]
    195 -> 282 [penwidth=2]
    195 -> 284 [penwidth=2]
    195 -> 157 [penwidth=2]
    195 -> 279 [penwidth=2]
    195 -> 105 [penwidth=2]
    195 -> 174 [penwidth=2]
    195 -> 110 [penwidth=2]
    195 -> 168 [penwidth=2]
    195 -> 178 [penwidth=2]
    195 -> 307 [penwidth=2]
    195 -> 303 [penwidth=2]
    195 -> 309 [penwidth=2]
    195 -> 301 [penwidth=2]
    195 -> 285 [penwidth=2]
    195 -> 145 [penwidth=2]
    195 -> 291 [penwidth=2]
    195 -> 176 [penwidth=2]
    195 -> 109 [penwidth=2]
    195 -> 287 [penwidth=2]
    195 -> 185 [penwidth=2]
    195 -> 172 [penwidth=2]
    195 -> 8 [penwidth=2]
    195 -> 173 [penwidth=2]
    195 -> 182 [penwidth=2]
    195 -> 299 [penwidth=2]
    195 -> 308 [penwidth=2]
    195 -> 159 [penwidth=2]
    195 -> 181 [penwidth=2]
    195 -> 179 [penwidth=2]
    195 -> 295 [penwidth=2]
    195 -> 275 [penwidth=2]
    195 -> 162 [penwidth=2]
    195 -> 293 [penwidth=2]
    195 -> 300 [penwidth=2]
    195 -> 306 [penwidth=2]
    195 -> 297 [penwidth=2]
    195 -> 164 [penwidth=2]
    197 -> 181 [penwidth=2]
    197 -> 147 [penwidth=2]
    197 -> 307 [penwidth=2]
    197 -> 151 [penwidth=2]
    197 -> 303 [penwidth=2]
    197 -> 293 [penwidth=2]
    197 -> 149 [penwidth=2]
    197 -> 291 [penwidth=2]
    197 -> 162 [penwidth=2]
    197 -> 178 [penwidth=2]
    197 -> 186 [penwidth=2]
    197 -> 274 [penwidth=2]
    197 -> 150 [penwidth=2]
    197 -> 305 [penwidth=2]
    197 -> 169 [penwidth=2]
    197 -> 176 [penwidth=2]
    197 -> 182 [penwidth=2]
    197 -> 159 [penwidth=2]
    197 -> 296 [penwidth=2]
    197 -> 183 [penwidth=2]
    197 -> 275 [penwidth=2]
    197 -> 299 [penwidth=2]
    197 -> 295 [penwidth=2]
    197 -> 279 [penwidth=2]
    197 -> 152 [penwidth=2]
    197 -> 106 [penwidth=2]
    197 -> 290 [penwidth=2]
    197 -> 104 [penwidth=2]
    197 -> 288 [penwidth=2]
    197 -> 8 [penwidth=2]
    197 -> 301 [penwidth=2]
    197 -> 168 [penwidth=2]
    197 -> 175 [penwidth=2]
    28 -> 169 [penwidth=2]
    28 -> 290 [penwidth=2]
    28 -> 145 [penwidth=2]
    28 -> 286 [penwidth=2]
    28 -> 291 [penwidth=2]
    28 -> 273 [penwidth=2]
    28 -> 271 [penwidth=2]
    28 -> 185 [penwidth=2]
    28 -> 12 [penwidth=2]
    28 -> 275 [penwidth=2]
    28 -> 170 [penwidth=2]
    28 -> 175 [penwidth=2]
    28 -> 157 [penwidth=2]
    28 -> 108 [penwidth=2]
    28 -> 285 [penwidth=2]
    28 -> 308 [penwidth=2]
    28 -> 107 [penwidth=2]
    28 -> 296 [penwidth=2]
    28 -> 274 [penwidth=2]
    28 -> 184 [penwidth=2]
    28 -> 272 [penwidth=2]
    28 -> 295 [penwidth=2]
    28 -> 282 [penwidth=2]
    28 -> 166 [penwidth=2]
    28 -> 307 [penwidth=2]
    28 -> 297 [penwidth=2]
    28 -> 168 [penwidth=2]
    28 -> 181 [penwidth=2]
    28 -> 276 [penwidth=2]
    28 -> 152 [penwidth=2]
    28 -> 280 [penwidth=2]
    28 -> 164 [penwidth=2]
    28 -> 167 [penwidth=2]
    28 -> 162 [penwidth=2]
    28 -> 176 [penwidth=2]
    28 -> 147 [penwidth=2]
    28 -> 303 [penwidth=2]
    28 -> 160 [penwidth=2]
    28 -> 180 [penwidth=2]
    28 -> 174 [penwidth=2]
    28 -> 161 [penwidth=2]
    28 -> 155 [penwidth=2]
    50 -> 298 [penwidth=2]
    50 -> 110 [penwidth=2]
    217 -> 305 [penwidth=2]
    217 -> 173 [penwidth=2]
    217 -> 184 [penwidth=2]
    217 -> 285 [penwidth=2]
    217 -> 110 [penwidth=2]
    217 -> 287 [penwidth=2]
    217 -> 178 [penwidth=2]
    217 -> 307 [penwidth=2]
    217 -> 154 [penwidth=2]
    217 -> 271 [penwidth=2]
    217 -> 272 [penwidth=2]
    217 -> 296 [penwidth=2]
    217 -> 283 [penwidth=2]
    217 -> 165 [penwidth=2]
    217 -> 176 [penwidth=2]
    217 -> 8 [penwidth=2]
    217 -> 276 [penwidth=2]
    217 -> 10 [penwidth=2]
    217 -> 145 [penwidth=2]
    217 -> 105 [penwidth=2]
    217 -> 103 [penwidth=2]
    217 -> 171 [penwidth=2]
    217 -> 164 [penwidth=2]
    217 -> 289 [penwidth=2]
    217 -> 170 [penwidth=2]
    217 -> 12 [penwidth=2]
    217 -> 163 [penwidth=2]
    217 -> 179 [penwidth=2]
    217 -> 183 [penwidth=2]
    217 -> 284 [penwidth=2]
    217 -> 109 [penwidth=2]
    217 -> 172 [penwidth=2]
    217 -> 151 [penwidth=2]
    217 -> 146 [penwidth=2]
    217 -> 153 [penwidth=2]
    217 -> 278 [penwidth=2]
    217 -> 186 [penwidth=2]
    217 -> 286 [penwidth=2]
    217 -> 108 [penwidth=2]
    217 -> 273 [penwidth=2]
    217 -> 292 [penwidth=2]
    217 -> 147 [penwidth=2]
    217 -> 182 [penwidth=2]
    217 -> 282 [penwidth=2]
    217 -> 155 [penwidth=2]
    217 -> 277 [penwidth=2]
    217 -> 291 [penwidth=2]
    217 -> 175 [penwidth=2]
    217 -> 294 [penwidth=2]
    217 -> 162 [penwidth=2]
    217 -> 148 [penwidth=2]
    217 -> 280 [penwidth=2]
    217 -> 279 [penwidth=2]
    217 -> 158 [penwidth=2]
    217 -> 302 [penwidth=2]
    217 -> 306 [penwidth=2]
    217 -> 308 [penwidth=2]
    217 -> 40 [penwidth=2]
    217 -> 156 [penwidth=2]
    217 -> 152 [penwidth=2]
    217 -> 104 [penwidth=2]
    217 -> 150 [penwidth=2]
    217 -> 106 [penwidth=2]
    217 -> 166 [penwidth=2]
    217 -> 304 [penwidth=2]
    217 -> 107 [penwidth=2]
    217 -> 281 [penwidth=2]
    217 -> 309 [penwidth=2]
    217 -> 177 [penwidth=2]
    217 -> 293 [penwidth=2]
    217 -> 298 [penwidth=2]
    217 -> 303 [penwidth=2]
    217 -> 149 [penwidth=2]
    217 -> 299 [penwidth=2]
    217 -> 167 [penwidth=2]
    217 -> 168 [penwidth=2]
    217 -> 297 [penwidth=2]
    217 -> 300 [penwidth=2]
    45 -> 280 [penwidth=2]
    45 -> 172 [penwidth=2]
    45 -> 292 [penwidth=2]
    45 -> 288 [penwidth=2]
    45 -> 285 [penwidth=2]
    45 -> 290 [penwidth=2]
    45 -> 8 [penwidth=2]
    45 -> 278 [penwidth=2]
    45 -> 307 [penwidth=2]
    45 -> 157 [penwidth=2]
    45 -> 165 [penwidth=2]
    45 -> 177 [penwidth=2]
    45 -> 275 [penwidth=2]
    45 -> 153 [penwidth=2]
    45 -> 298 [penwidth=2]
    45 -> 297 [penwidth=2]
    45 -> 160 [penwidth=2]
    45 -> 154 [penwidth=2]
    45 -> 281 [penwidth=2]
    45 -> 180 [penwidth=2]
    45 -> 303 [penwidth=2]
    45 -> 170 [penwidth=2]
    45 -> 287 [penwidth=2]
    45 -> 185 [penwidth=2]
    45 -> 302 [penwidth=2]
    45 -> 155 [penwidth=2]
    45 -> 291 [penwidth=2]
}