digraph G {
    0 [penwidth=3,label="0"]
    1 [penwidth=3,label="1"]
    2 [penwidth=3,label="2"]
    3 [penwidth=3,label="3"]
    4 [penwidth=3,label="4"]
    5 [penwidth=3,label="5"]
    6 [penwidth=3,label="6"]
    7 [penwidth=3,label="7"]
    8 [penwidth=3,label="8"]
    9 [penwidth=3,label="9"]
    10 [penwidth=3,label="10"]
    11 [penwidth=3,label="11"]
    12 [penwidth=3,label="12"]
    13 [penwidth=3,label="13"]
    14 [penwidth=3,label="14"]
    15 [penwidth=3,label="15"]
    16 [penwidth=3,label="16"]
    17 [penwidth=3,label="17"]
    18 [penwidth=3,label="18"]
    19 [penwidth=3,label="19"]
    20 [penwidth=3,label="20"]
    21 [penwidth=3,label="21"]
    22 [penwidth=3,label="22"]
    23 [penwidth=3,label="23"]
    24 [penwidth=3,label="24"]
    25 [penwidth=3,label="25"]
    26 [penwidth=3,label="26"]
    27 [penwidth=3,label="27"]
    28 [penwidth=3,label="28"]
    29 [penwidth=3,label="29"]
    30 [penwidth=3,label="30"]
    31 [penwidth=3,label="31"]
    32 [penwidth=3,label="32"]
    33 [penwidth=3,label="33"]
    34 [penwidth=3,label="34"]
    35 [penwidth=3,label="35"]
    36 [penwidth=3,label="36"]
    37 [penwidth=3,label="37"]
    38 [penwidth=3,label="38"]
    39 [penwidth=3,label="39"]
    40 [penwidth=3,label="40"]
    41 [penwidth=3,label="41"]
    42 [penwidth=3,label="42"]
    43 [penwidth=3,label="43"]
    44 [penwidth=3,label="44"]
    45 [penwidth=3,label="45"]
    46 [penwidth=3,label="46"]
    47 [penwidth=3,label="47"]
    48 [penwidth=3,label="48"]
    49 [penwidth=3,label="49"]
    50 [penwidth=3,label="50"]
    51 [penwidth=3,label="51"]
    52 [penwidth=3,label="52"]
    53 [penwidth=3,label="53"]
    54 [penwidth=3,label="54"]
    55 [penwidth=3,label="55"]
    56 [penwidth=3,label="56"]
    57 [penwidth=3,label="57"]
    58 [penwidth=3,label="58"]
    59 [penwidth=3,label="59"]
    60 [penwidth=3,label="60"]
    61 [penwidth=3,label="61"]
    62 [penwidth=3,label="62"]
    63 [penwidth=3,label="63"]
    64 [penwidth=3,label="64"]
    65 [penwidth=3,label="65"]
    66 [penwidth=3,label="66"]
    67 [penwidth=3,label="67"]
    68 [penwidth=3,label="68"]
    69 [penwidth=3,label="69"]
    70 [penwidth=3,label="70"]
    71 [penwidth=3,label="71"]
    72 [penwidth=3,label="72"]
    73 [penwidth=3,label="73"]
    74 [penwidth=3,label="74"]
    75 [penwidth=3,label="75"]
    76 [penwidth=3,label="76"]
    77 [penwidth=3,label="77"]
    78 [penwidth=3,label="78"]
    79 [penwidth=3,label="79"]
    80 [penwidth=3,label="80"]
    81 [penwidth=3,label="81"]
    82 [penwidth=3,label="82"]
    83 [penwidth=3,label="83"]
    84 [penwidth=3,label="84"]
    85 [penwidth=3,label="85"]
    86 [penwidth=3,label="86"]
    87 [penwidth=3,label="87"]
    88 [penwidth=3,label="88"]
    89 [penwidth=3,label="89"]
    90 [penwidth=3,label="90"]
    91 [penwidth=3,label="91"]
    92 [penwidth=3,label="92"]
    93 [penwidth=3,label="93"]
    94 [penwidth=3,label="94"]
    95 [penwidth=3,label="95"]
    96 [penwidth=3,label="96"]
    97 [penwidth=3,label="97"]
    98 [penwidth=3,label="98"]
    99 [penwidth=3,label="99"]
    100 [penwidth=3,label="100"]
    101 [penwidth=3,label="101"]
    102 [penwidth=3,label="102"]
    103 [penwidth=3,label="103"]
    104 [penwidth=3,label="104"]
    105 [penwidth=3,label="105"]
    106 [penwidth=3,label="106"]
    107 [penwidth=3,label="107"]
    108 [penwidth=3,label="108"]
    109 [penwidth=3,label="109"]
    110 [penwidth=3,label="110"]
    111 [penwidth=3,label="111"]
    112 [penwidth=3,label="112"]
    113 [penwidth=3,label="113"]
    114 [penwidth=3,label="114"]
    115 [penwidth=3,label="115"]
    116 [penwidth=3,label="116"]
    117 [penwidth=3,label="117"]
    118 [penwidth=3,label="118"]
    119 [penwidth=3,label="119"]
    120 [penwidth=3,label="120"]
    121 [penwidth=3,label="121"]
    122 [penwidth=3,label="122"]
    123 [penwidth=3,label="123"]
    124 [penwidth=3,label="124"]
    125 [penwidth=3,label="125"]
    126 [penwidth=3,label="126"]
    127 [penwidth=3,label="127"]
    128 [penwidth=3,label="128"]
    129 [penwidth=3,label="129"]
    130 [penwidth=3,label="130"]
    131 [penwidth=3,label="131"]
    132 [penwidth=3,label="132"]
    133 [penwidth=3,label="133"]
    134 [penwidth=3,label="134"]
    135 [penwidth=3,label="135"]
    136 [penwidth=3,label="136"]
    137 [penwidth=3,label="137"]
    138 [penwidth=3,label="138"]
    139 [penwidth=3,label="139"]
    140 [penwidth=3,label="140"]
    141 [penwidth=3,label="141"]
    142 [penwidth=3,label="142"]
    143 [penwidth=3,label="143"]
    144 [penwidth=3,label="144"]
    145 [penwidth=3,label="145"]
    146 [penwidth=3,label="146"]
    147 [penwidth=3,label="147"]
    148 [penwidth=3,label="148"]
    149 [penwidth=3,label="149"]
    150 [penwidth=3,label="150"]
    151 [penwidth=3,label="151"]
    152 [penwidth=3,label="152"]
    153 [penwidth=3,label="153"]
    154 [penwidth=3,label="154"]
    155 [penwidth=3,label="155"]
    156 [penwidth=3,label="156"]
    157 [penwidth=3,label="157"]
    158 [penwidth=3,label="158"]
    159 [penwidth=3,label="159"]
    160 [penwidth=3,label="160"]
    161 [penwidth=3,label="161"]
    162 [penwidth=3,label="162"]
    163 [penwidth=3,label="163"]
    164 [penwidth=3,label="164"]
    165 [penwidth=3,label="165"]
    166 [penwidth=3,label="166"]
    167 [penwidth=3,label="167"]
    168 [penwidth=3,label="168"]
    169 [penwidth=3,label="169"]
    170 [penwidth=3,label="170"]
    171 [penwidth=3,label="171"]
    172 [penwidth=3,label="172"]
    173 [penwidth=3,label="173"]
    174 [penwidth=3,label="174"]
    175 [penwidth=3,label="175"]
    176 [penwidth=3,label="176"]
    177 [penwidth=3,label="177"]
    178 [penwidth=3,label="178"]
    179 [penwidth=3,label="179"]
    180 [penwidth=3,label="180"]
    181 [penwidth=3,label="181"]
    182 [penwidth=3,label="182"]
    183 [penwidth=3,label="183"]
    184 [penwidth=3,label="184"]
    185 [penwidth=3,label="185"]
    186 [penwidth=3,label="186"]
    187 [penwidth=3,label="187"]
    188 [penwidth=3,label="188"]
    189 [penwidth=3,label="189"]
    190 [penwidth=3,label="190"]
    191 [penwidth=3,label="191"]
    192 [penwidth=3,label="192"]
    193 [penwidth=3,label="193"]
    194 [penwidth=3,label="194"]
    195 [penwidth=3,label="195"]
    196 [penwidth=3,label="196"]
    197 [penwidth=3,label="197"]
    198 [penwidth=3,label="198"]
    199 [penwidth=3,label="199"]
    200 [penwidth=3,label="200"]
    201 [penwidth=3,label="201"]
    202 [penwidth=3,label="202"]
    203 [penwidth=3,label="203"]
    204 [penwidth=3,label="204"]
    205 [penwidth=3,label="205"]
    206 [penwidth=3,label="206"]
    207 [penwidth=3,label="207"]
    208 [penwidth=3,label="208"]
    209 [penwidth=3,label="209"]
    210 [penwidth=3,label="210"]
    211 [penwidth=3,label="211"]
    212 [penwidth=3,label="212"]
    213 [penwidth=3,label="213"]
    214 [penwidth=3,label="214"]
    215 [penwidth=3,label="215"]
    216 [penwidth=3,label="216"]
    217 [penwidth=3,label="217"]
    218 [penwidth=3,label="218"]
    219 [penwidth=3,label="219"]
    220 [penwidth=3,label="220"]
    221 [penwidth=3,label="221"]
    222 [penwidth=3,label="222"]
    223 [penwidth=3,label="223"]
    224 [penwidth=3,label="224"]
    225 [penwidth=3,label="225"]
    226 [penwidth=3,label="226"]
    227 [penwidth=3,label="227"]
    228 [penwidth=3,label="228"]
    229 [penwidth=3,label="229"]
    230 [penwidth=3,label="230"]
    231 [penwidth=3,label="231"]
    232 [penwidth=3,label="232"]
    233 [penwidth=3,label="233"]
    234 [penwidth=3,label="234"]
    235 [penwidth=3,label="235"]
    236 [penwidth=3,label="236"]
    237 [penwidth=3,label="237"]
    238 [penwidth=3,label="238"]
    239 [penwidth=3,label="239"]
    240 [penwidth=3,label="240"]
    241 [penwidth=3,label="241"]
    242 [penwidth=3,label="242"]
    243 [penwidth=3,label="243"]
    244 [penwidth=3,label="244"]
    245 [penwidth=3,label="245"]
    246 [penwidth=3,label="246"]
    247 [penwidth=3,label="247"]
    248 [penwidth=3,label="248"]
    249 [penwidth=3,label="249"]
    250 [penwidth=3,label="250"]
    251 [penwidth=3,label="251"]
    252 [penwidth=3,label="252"]
    253 [penwidth=3,label="253"]
    254 [penwidth=3,label="254"]
    255 [penwidth=3,label="255"]
    256 [penwidth=3,label="256"]
    257 [penwidth=3,label="257"]
    258 [penwidth=3,label="258"]
    259 [penwidth=3,label="259"]
    260 [penwidth=3,label="260"]
    261 [penwidth=3,label="261"]
    262 [penwidth=3,label="262"]
    263 [penwidth=3,label="263"]
    264 [penwidth=3,label="264"]
    265 [penwidth=3,label="265"]
    266 [penwidth=3,label="266"]
    267 [penwidth=3,label="267"]
    268 [penwidth=3,label="268"]
    269 [penwidth=3,label="269"]
    270 [penwidth=3,label="270"]
    271 [penwidth=3,label="271"]
    272 [penwidth=3,label="272"]
    273 [penwidth=3,label="273"]
    274 [penwidth=3,label="274"]
    275 [penwidth=3,label="275"]
    276 [penwidth=3,label="276"]
    277 [penwidth=3,label="277"]
    278 [penwidth=3,label="278"]
    279 [penwidth=3,label="279"]
    280 [penwidth=3,label="280"]
    281 [penwidth=3,label="281"]
    282 [penwidth=3,label="282"]
    283 [penwidth=3,label="283"]
    284 [penwidth=3,label="284"]
    285 [penwidth=3,label="285"]
    286 [penwidth=3,label="286"]
    287 [penwidth=3,label="287"]
    288 [penwidth=3,label="288"]
    289 [penwidth=3,label="289"]
    290 [penwidth=3,label="290"]
    291 [penwidth=3,label="291"]
    292 [penwidth=3,label="292"]
    293 [penwidth=3,label="293"]
    294 [penwidth=3,label="294"]
    295 [penwidth=3,label="295"]
    296 [penwidth=3,label="296"]
    297 [penwidth=3,label="297"]
    298 [penwidth=3,label="298"]
    299 [penwidth=3,label="299"]
    300 [penwidth=3,label="300"]
    301 [penwidth=3,label="301"]
    302 [penwidth=3,label="302"]
    303 [penwidth=3,label="303"]
    304 [penwidth=3,label="304"]
    305 [penwidth=3,label="305"]
    306 [penwidth=3,label="306"]
    307 [penwidth=3,label="307"]
    308 [penwidth=3,label="308"]
    309 [penwidth=3,label="309"]

    169 -> 0 [penwidth=2]
    211 -> 0 [penwidth=2]
    170 -> 0 [penwidth=2]
    212 -> 0 [penwidth=2]
    171 -> 0 [penwidth=2]
    213 -> 169 [penwidth=2]
    172 -> 169 [penwidth=2]
    214 -> 169 [penwidth=2]
    173 -> 169 [penwidth=2]
    215 -> 169 [penwidth=2]
    174 -> 169 [penwidth=2]
    216 -> 169 [penwidth=2]
    175 -> 169 [penwidth=2]
    217 -> 169 [penwidth=2]
    176 -> 169 [penwidth=2]
    218 -> 169 [penwidth=2]
    177 -> 169 [penwidth=2]
    219 -> 169 [penwidth=2]
    178 -> 169 [penwidth=2]
    220 -> 169 [penwidth=2]
    179 -> 169 [penwidth=2]
    221 -> 169 [penwidth=2]
    180 -> 169 [penwidth=2]
    222 -> 169 [penwidth=2]
    181 -> 211 [penwidth=2]
    223 -> 211 [penwidth=2]
    182 -> 211 [penwidth=2]
    224 -> 211 [penwidth=2]
    183 -> 211 [penwidth=2]
    225 -> 211 [penwidth=2]
    184 -> 211 [penwidth=2]
    226 -> 211 [penwidth=2]
    185 -> 211 [penwidth=2]
    227 -> 211 [penwidth=2]
    186 -> 211 [penwidth=2]
    228 -> 211 [penwidth=2]
    187 -> 211 [penwidth=2]
    229 -> 211 [penwidth=2]
    188 -> 211 [penwidth=2]
    230 -> 211 [penwidth=2]
    189 -> 211 [penwidth=2]
    231 -> 211 [penwidth=2]
    190 -> 211 [penwidth=2]
    232 -> 211 [penwidth=2]
    191 -> 170 [penwidth=2]
    233 -> 170 [penwidth=2]
    192 -> 170 [penwidth=2]
    234 -> 170 [penwidth=2]
    193 -> 170 [penwidth=2]
    235 -> 170 [penwidth=2]
    194 -> 170 [penwidth=2]
    236 -> 170 [penwidth=2]
    195 -> 170 [penwidth=2]
    237 -> 170 [penwidth=2]
    196 -> 170 [penwidth=2]
    238 -> 170 [penwidth=2]
    197 -> 170 [penwidth=2]
    239 -> 170 [penwidth=2]
    198 -> 170 [penwidth=2]
    240 -> 170 [penwidth=2]
    199 -> 170 [penwidth=2]
    241 -> 170 [penwidth=2]
    200 -> 170 [penwidth=2]
    242 -> 170 [penwidth=2]
    201 -> 170 [penwidth=2]
    243 -> 170 [penwidth=2]
    202 -> 170 [penwidth=2]
    244 -> 170 [penwidth=2]
    203 -> 170 [penwidth=2]
    245 -> 212 [penwidth=2]
    204 -> 171 [penwidth=2]
    246 -> 171 [penwidth=2]
    205 -> 171 [penwidth=2]
    247 -> 171 [penwidth=2]
    206 -> 213 [penwidth=2]
    248 -> 213 [penwidth=2]
    207 -> 213 [penwidth=2]
    249 -> 213 [penwidth=2]
    208 -> 213 [penwidth=2]
    250 -> 213 [penwidth=2]
    209 -> 213 [penwidth=2]
    251 -> 213 [penwidth=2]
    210 -> 213 [penwidth=2]
    252 -> 213 [penwidth=2]
    127 -> 213 [penwidth=2]
    128 -> 213 [penwidth=2]
    129 -> 213 [penwidth=2]
    130 -> 213 [penwidth=2]
    131 -> 213 [penwidth=2]
    132 -> 213 [penwidth=2]
    133 -> 213 [penwidth=2]
    134 -> 213 [penwidth=2]
    135 -> 213 [penwidth=2]
    136 -> 213 [penwidth=2]
    137 -> 213 [penwidth=2]
    138 -> 213 [penwidth=2]
    139 -> 213 [penwidth=2]
    140 -> 213 [penwidth=2]
    141 -> 213 [penwidth=2]
    142 -> 213 [penwidth=2]
    143 -> 172 [penwidth=2]
    144 -> 172 [penwidth=2]
    145 -> 172 [penwidth=2]
    146 -> 172 [penwidth=2]
    147 -> 172 [penwidth=2]
    148 -> 172 [penwidth=2]
    149 -> 172 [penwidth=2]
    150 -> 172 [penwidth=2]
    151 -> 172 [penwidth=2]
    152 -> 172 [penwidth=2]
    153 -> 172 [penwidth=2]
    154 -> 172 [penwidth=2]
    155 -> 172 [penwidth=2]
    156 -> 172 [penwidth=2]
    157 -> 214 [penwidth=2]
    158 -> 214 [penwidth=2]
    159 -> 214 [penwidth=2]
    160 -> 214 [penwidth=2]
    161 -> 214 [penwidth=2]
    162 -> 214 [penwidth=2]
    163 -> 214 [penwidth=2]
    164 -> 214 [penwidth=2]
    165 -> 214 [penwidth=2]
    166 -> 214 [penwidth=2]
    167 -> 214 [penwidth=2]
    168 -> 214 [penwidth=2]
    43 -> 214 [penwidth=2]
    85 -> 214 [penwidth=2]
    44 -> 214 [penwidth=2]
    86 -> 214 [penwidth=2]
    45 -> 214 [penwidth=2]
    87 -> 214 [penwidth=2]
    46 -> 214 [penwidth=2]
    88 -> 214 [penwidth=2]
    47 -> 214 [penwidth=2]
    89 -> 214 [penwidth=2]
    48 -> 214 [penwidth=2]
    90 -> 214 [penwidth=2]
    49 -> 214 [penwidth=2]
    91 -> 173 [penwidth=2]
    50 -> 173 [penwidth=2]
    92 -> 173 [penwidth=2]
    51 -> 173 [penwidth=2]
    93 -> 173 [penwidth=2]
    52 -> 173 [penwidth=2]
    94 -> 173 [penwidth=2]
    53 -> 173 [penwidth=2]
    95 -> 173 [penwidth=2]
    54 -> 173 [penwidth=2]
    96 -> 173 [penwidth=2]
    55 -> 173 [penwidth=2]
    97 -> 173 [penwidth=2]
    56 -> 173 [penwidth=2]
    98 -> 173 [penwidth=2]
    57 -> 173 [penwidth=2]
    99 -> 173 [penwidth=2]
    58 -> 173 [penwidth=2]
    100 -> 173 [penwidth=2]
    59 -> 215 [penwidth=2]
    101 -> 215 [penwidth=2]
    60 -> 215 [penwidth=2]
    102 -> 174 [penwidth=2]
    61 -> 174 [penwidth=2]
    103 -> 174 [penwidth=2]
    62 -> 174 [penwidth=2]
    104 -> 174 [penwidth=2]
    63 -> 174 [penwidth=2]
    105 -> 174 [penwidth=2]
    64 -> 174 [penwidth=2]
    106 -> 174 [penwidth=2]
    65 -> 174 [penwidth=2]
    107 -> 174 [penwidth=2]
    66 -> 174 [penwidth=2]
    108 -> 174 [penwidth=2]
    67 -> 174 [penwidth=2]
    109 -> 174 [penwidth=2]
    68 -> 174 [penwidth=2]
    110 -> 174 [penwidth=2]
    69 -> 174 [penwidth=2]
    111 -> 174 [penwidth=2]
    70 -> 174 [penwidth=2]
    112 -> 174 [penwidth=2]
    71 -> 174 [penwidth=2]
    113 -> 216 [penwidth=2]
    72 -> 216 [penwidth=2]
    114 -> 216 [penwidth=2]
    73 -> 216 [penwidth=2]
    115 -> 216 [penwidth=2]
    74 -> 216 [penwidth=2]
    116 -> 216 [penwidth=2]
    75 -> 216 [penwidth=2]
    117 -> 216 [penwidth=2]
    76 -> 216 [penwidth=2]
    118 -> 216 [penwidth=2]
    77 -> 216 [penwidth=2]
    119 -> 216 [penwidth=2]
    78 -> 216 [penwidth=2]
    120 -> 216 [penwidth=2]
    79 -> 216 [penwidth=2]
    121 -> 216 [penwidth=2]
    80 -> 216 [penwidth=2]
    122 -> 216 [penwidth=2]
    81 -> 216 [penwidth=2]
    123 -> 216 [penwidth=2]
    82 -> 175 [penwidth=2]
    124 -> 175 [penwidth=2]
    83 -> 175 [penwidth=2]
    125 -> 175 [penwidth=2]
    84 -> 175 [penwidth=2]
    126 -> 175 [penwidth=2]
    295 -> 175 [penwidth=2]
    2 -> 175 [penwidth=2]
    296 -> 175 [penwidth=2]
    3 -> 175 [penwidth=2]
    297 -> 175 [penwidth=2]
    4 -> 217 [penwidth=2]
    298 -> 217 [penwidth=2]
    5 -> 217 [penwidth=2]
    299 -> 217 [penwidth=2]
    6 -> 217 [penwidth=2]
    300 -> 217 [penwidth=2]
    7 -> 217 [penwidth=2]
    301 -> 217 [penwidth=2]
    8 -> 217 [penwidth=2]
    302 -> 217 [penwidth=2]
    9 -> 217 [penwidth=2]
    303 -> 217 [penwidth=2]
    10 -> 217 [penwidth=2]
    304 -> 217 [penwidth=2]
    11 -> 217 [penwidth=2]
    305 -> 217 [penwidth=2]
    12 -> 217 [penwidth=2]
    306 -> 217 [penwidth=2]
    13 -> 217 [penwidth=2]
    307 -> 217 [penwidth=2]
    14 -> 217 [penwidth=2]
    308 -> 217 [penwidth=2]
    15 -> 176 [penwidth=2]
    309 -> 176 [penwidth=2]
    16 -> 176 [penwidth=2]
    17 -> 218 [penwidth=2]
    18 -> 218 [penwidth=2]
    19 -> 218 [penwidth=2]
    20 -> 218 [penwidth=2]
    21 -> 218 [penwidth=2]
    22 -> 218 [penwidth=2]
    23 -> 218 [penwidth=2]
    24 -> 218 [penwidth=2]
    25 -> 218 [penwidth=2]
    26 -> 218 [penwidth=2]
    27 -> 218 [penwidth=2]
    28 -> 218 [penwidth=2]
    29 -> 218 [penwidth=2]
    30 -> 218 [penwidth=2]
    31 -> 218 [penwidth=2]
    32 -> 218 [penwidth=2]
    33 -> 218 [penwidth=2]
    34 -> 218 [penwidth=2]
    35 -> 218 [penwidth=2]
    36 -> 218 [penwidth=2]
    37 -> 218 [penwidth=2]
    38 -> 218 [penwidth=2]
    39 -> 218 [penwidth=2]
    40 -> 218 [penwidth=2]
    41 -> 218 [penwidth=2]
    42 -> 177 [penwidth=2]
    253 -> 177 [penwidth=2]
    254 -> 177 [penwidth=2]
    255 -> 177 [penwidth=2]
    256 -> 177 [penwidth=2]
    257 -> 177 [penwidth=2]
    258 -> 177 [penwidth=2]
    259 -> 177 [penwidth=2]
    260 -> 219 [penwidth=2]
    261 -> 219 [penwidth=2]
    262 -> 219 [penwidth=2]
    263 -> 219 [penwidth=2]
    264 -> 219 [penwidth=2]
    265 -> 219 [penwidth=2]
    266 -> 219 [penwidth=2]
    267 -> 219 [penwidth=2]
    268 -> 219 [penwidth=2]
    269 -> 219 [penwidth=2]
    270 -> 219 [penwidth=2]
    271 -> 219 [penwidth=2]
    272 -> 219 [penwidth=2]
    273 -> 219 [penwidth=2]
    274 -> 219 [penwidth=2]
    275 -> 219 [penwidth=2]
    276 -> 219 [penwidth=2]
    277 -> 219 [penwidth=2]
    278 -> 219 [penwidth=2]
    279 -> 219 [penwidth=2]
    280 -> 219 [penwidth=2]
    281 -> 219 [penwidth=2]
    282 -> 219 [penwidth=2]
    283 -> 219 [penwidth=2]
    284 -> 219 [penwidth=2]
    285 -> 219 [penwidth=2]
    286 -> 178 [penwidth=2]
    287 -> 178 [penwidth=2]
    288 -> 178 [penwidth=2]
    289 -> 178 [penwidth=2]
    290 -> 178 [penwidth=2]
    291 -> 178 [penwidth=2]
    292 -> 178 [penwidth=2]
    293 -> 178 [penwidth=2]
    294 -> 178 [penwidth=2]
    1 -> 178 [penwidth=2]
    215 -> 170 [penwidth=2]
    215 -> 212 [penwidth=2]
    217 -> 212 [penwidth=2]
    217 -> 170 [penwidth=2]
    217 -> 171 [penwidth=2]
    178 -> 212 [penwidth=2]
    183 -> 169 [penwidth=2]
    194 -> 212 [penwidth=2]
    194 -> 211 [penwidth=2]
    196 -> 171 [penwidth=2]
    196 -> 169 [penwidth=2]
    241 -> 171 [penwidth=2]
    241 -> 212 [penwidth=2]
    241 -> 211 [penwidth=2]
    242 -> 212 [penwidth=2]
    246 -> 212 [penwidth=2]
    148 -> 215 [penwidth=2]
    148 -> 201 [penwidth=2]
    148 -> 231 [penwidth=2]
    148 -> 174 [penwidth=2]
    148 -> 195 [penwidth=2]
    148 -> 198 [penwidth=2]
    148 -> 205 [penwidth=2]
    148 -> 240 [penwidth=2]
    148 -> 188 [penwidth=2]
    148 -> 175 [penwidth=2]
    148 -> 185 [penwidth=2]
    148 -> 184 [penwidth=2]
    148 -> 177 [penwidth=2]
    148 -> 183 [penwidth=2]
    148 -> 200 [penwidth=2]
    148 -> 217 [penwidth=2]
    148 -> 186 [penwidth=2]
    148 -> 216 [penwidth=2]
    148 -> 220 [penwidth=2]
    148 -> 204 [penwidth=2]
    148 -> 223 [penwidth=2]
    162 -> 179 [penwidth=2]
    162 -> 218 [penwidth=2]
    162 -> 173 [penwidth=2]
    162 -> 196 [penwidth=2]
    162 -> 205 [penwidth=2]
    162 -> 190 [penwidth=2]
    162 -> 217 [penwidth=2]
    162 -> 188 [penwidth=2]
    162 -> 192 [penwidth=2]
    162 -> 197 [penwidth=2]
    162 -> 234 [penwidth=2]
    162 -> 239 [penwidth=2]
    162 -> 172 [penwidth=2]
    162 -> 223 [penwidth=2]
    162 -> 213 [penwidth=2]
    162 -> 238 [penwidth=2]
    162 -> 199 [penwidth=2]
    162 -> 215 [penwidth=2]
    162 -> 177 [penwidth=2]
    162 -> 176 [penwidth=2]
    162 -> 178 [penwidth=2]
    162 -> 219 [penwidth=2]
    162 -> 198 [penwidth=2]
    162 -> 235 [penwidth=2]
    162 -> 232 [penwidth=2]
    162 -> 240 [penwidth=2]
    162 -> 216 [penwidth=2]
    162 -> 247 [penwidth=2]
    162 -> 180 [penwidth=2]
    162 -> 187 [penwidth=2]
    162 -> 241 [penwidth=2]
    162 -> 221 [penwidth=2]
    164 -> 193 [penwidth=2]
    164 -> 239 [penwidth=2]
    164 -> 229 [penwidth=2]
    164 -> 194 [penwidth=2]
    164 -> 178 [penwidth=2]
    164 -> 222 [penwidth=2]
    164 -> 226 [penwidth=2]
    164 -> 220 [penwidth=2]
    164 -> 196 [penwidth=2]
    164 -> 172 [penwidth=2]
    164 -> 221 [penwidth=2]
    164 -> 246 [penwidth=2]
    164 -> 232 [penwidth=2]
    164 -> 213 [penwidth=2]
    164 -> 247 [penwidth=2]
    164 -> 218 [penwidth=2]
    164 -> 233 [penwidth=2]
    164 -> 240 [penwidth=2]
    164 -> 179 [penwidth=2]
    164 -> 198 [penwidth=2]
    164 -> 205 [penwidth=2]
    164 -> 203 [penwidth=2]
    164 -> 216 [penwidth=2]
    164 -> 219 [penwidth=2]
    164 -> 174 [penwidth=2]
    164 -> 181 [penwidth=2]
    164 -> 183 [penwidth=2]
    164 -> 195 [penwidth=2]
    164 -> 191 [penwidth=2]
    164 -> 175 [penwidth=2]
    164 -> 244 [penwidth=2]
    164 -> 200 [penwidth=2]
    164 -> 234 [penwidth=2]
    164 -> 242 [penwidth=2]
    164 -> 177 [penwidth=2]
    164 -> 245 [penwidth=2]
    164 -> 201 [penwidth=2]
    164 -> 227 [penwidth=2]
    164 -> 223 [penwidth=2]
    164 -> 187 [penwidth=2]
    164 -> 186 [penwidth=2]
    164 -> 225 [penwidth=2]
    164 -> 176 [penwidth=2]
    164 -> 199 [penwidth=2]
    164 -> 188 [penwidth=2]
    164 -> 197 [penwidth=2]
    164 -> 180 [penwidth=2]
    164 -> 224 [penwidth=2]
    164 -> 238 [penwidth=2]
    164 -> 215 [penwidth=2]
    164 -> 185 [penwidth=2]
    164 -> 217 [penwidth=2]
    164 -> 235 [penwidth=2]
    164 -> 231 [penwidth=2]
    93 -> 215 [penwidth=2]
    93 -> 203 [penwidth=2]
    93 -> 228 [penwidth=2]
    93 -> 218 [penwidth=2]
    93 -> 239 [penwidth=2]
    93 -> 241 [penwidth=2]
    93 -> 202 [penwidth=2]
    93 -> 205 [penwidth=2]
    93 -> 199 [penwidth=2]
    93 -> 174 [penwidth=2]
    93 -> 190 [penwidth=2]
    93 -> 243 [penwidth=2]
    93 -> 177 [penwidth=2]
    93 -> 240 [penwidth=2]
    93 -> 178 [penwidth=2]
    93 -> 223 [penwidth=2]
    93 -> 229 [penwidth=2]
    93 -> 196 [penwidth=2]
    93 -> 246 [penwidth=2]
    93 -> 192 [penwidth=2]
    93 -> 219 [penwidth=2]
    93 -> 244 [penwidth=2]
    93 -> 172 [penwidth=2]
    93 -> 214 [penwidth=2]
    93 -> 217 [penwidth=2]
    93 -> 176 [penwidth=2]
    93 -> 187 [penwidth=2]
    93 -> 213 [penwidth=2]
    93 -> 242 [penwidth=2]
    93 -> 180 [penwidth=2]
    93 -> 183 [penwidth=2]
    93 -> 182 [penwidth=2]
    93 -> 186 [penwidth=2]
    93 -> 227 [penwidth=2]
    93 -> 191 [penwidth=2]
    93 -> 247 [penwidth=2]
    93 -> 236 [penwidth=2]
    93 -> 234 [penwidth=2]
    93 -> 204 [penwidth=2]
    93 -> 188 [penwidth=2]
    99 -> 238 [penwidth=2]
    99 -> 233 [penwidth=2]
    99 -> 228 [penwidth=2]
    99 -> 182 [penwidth=2]
    99 -> 172 [penwidth=2]
    99 -> 187 [penwidth=2]
    99 -> 202 [penwidth=2]
    99 -> 205 [penwidth=2]
    99 -> 235 [penwidth=2]
    99 -> 183 [penwidth=2]
    99 -> 190 [penwidth=2]
    59 -> 239 [penwidth=2]
    59 -> 201 [penwidth=2]
    59 -> 236 [penwidth=2]
    59 -> 213 [penwidth=2]
    59 -> 181 [penwidth=2]
    59 -> 203 [penwidth=2]
    59 -> 225 [penwidth=2]
    59 -> 232 [penwidth=2]
    59 -> 245 [penwidth=2]
    59 -> 242 [penwidth=2]
    59 -> 186 [penwidth=2]
    59 -> 231 [penwidth=2]
    59 -> 244 [penwidth=2]
    59 -> 234 [penwidth=2]
    59 -> 247 [penwidth=2]
    59 -> 199 [penwidth=2]
    59 -> 180 [penwidth=2]
    59 -> 177 [penwidth=2]
    59 -> 202 [penwidth=2]
    59 -> 182 [penwidth=2]
    59 -> 172 [penwidth=2]
    59 -> 221 [penwidth=2]
    59 -> 237 [penwidth=2]
    59 -> 187 [penwidth=2]
    59 -> 174 [penwidth=2]
    59 -> 235 [penwidth=2]
    59 -> 193 [penwidth=2]
    59 -> 229 [penwidth=2]
    59 -> 190 [penwidth=2]
    59 -> 194 [penwidth=2]
    59 -> 184 [penwidth=2]
    59 -> 185 [penwidth=2]
    59 -> 216 [penwidth=2]
    59 -> 224 [penwidth=2]
    59 -> 196 [penwidth=2]
    59 -> 230 [penwidth=2]
    59 -> 192 [penwidth=2]
    59 -> 220 [penwidth=2]
    59 -> 173 [penwidth=2]
    59 -> 241 [penwidth=2]
    59 -> 243 [penwidth=2]
    59 -> 246 [penwidth=2]
    59 -> 240 [penwidth=2]
    59 -> 204 [penwidth=2]
    106 -> 181 [penwidth=2]
    106 -> 240 [penwidth=2]
    106 -> 239 [penwidth=2]
    106 -> 247 [penwidth=2]
    106 -> 205 [penwidth=2]
    106 -> 242 [penwidth=2]
    106 -> 189 [penwidth=2]
    106 -> 191 [penwidth=2]
    106 -> 187 [penwidth=2]
    106 -> 227 [penwidth=2]
    106 -> 223 [penwidth=2]
    106 -> 233 [penwidth=2]
    106 -> 177 [penwidth=2]
    106 -> 180 [penwidth=2]
    106 -> 183 [penwidth=2]
    106 -> 224 [penwidth=2]
    106 -> 231 [penwidth=2]
    106 -> 195 [penwidth=2]
    106 -> 215 [penwidth=2]
    106 -> 219 [penwidth=2]
    106 -> 198 [penwidth=2]
    106 -> 237 [penwidth=2]
    106 -> 225 [penwidth=2]
    106 -> 216 [penwidth=2]
    106 -> 204 [penwidth=2]
    106 -> 244 [penwidth=2]
    106 -> 192 [penwidth=2]
    106 -> 197 [penwidth=2]
    106 -> 218 [penwidth=2]
    106 -> 201 [penwidth=2]
    106 -> 230 [penwidth=2]
    106 -> 185 [penwidth=2]
    106 -> 213 [penwidth=2]
    106 -> 200 [penwidth=2]
    106 -> 217 [penwidth=2]
    106 -> 193 [penwidth=2]
    106 -> 241 [penwidth=2]
    106 -> 236 [penwidth=2]
    106 -> 182 [penwidth=2]
    106 -> 235 [penwidth=2]
    106 -> 229 [penwidth=2]
    106 -> 178 [penwidth=2]
    106 -> 245 [penwidth=2]
    106 -> 246 [penwidth=2]
    106 -> 186 [penwidth=2]
    106 -> 202 [penwidth=2]
    106 -> 228 [penwidth=2]
    106 -> 179 [penwidth=2]
    106 -> 190 [penwidth=2]
    106 -> 234 [penwidth=2]
    106 -> 232 [penwidth=2]
    106 -> 220 [penwidth=2]
    106 -> 203 [penwidth=2]
    106 -> 175 [penwidth=2]
    106 -> 199 [penwidth=2]
    106 -> 194 [penwidth=2]
    106 -> 188 [penwidth=2]
    106 -> 214 [penwidth=2]
    106 -> 184 [penwidth=2]
    106 -> 173 [penwidth=2]
    106 -> 172 [penwidth=2]
    111 -> 224 [penwidth=2]
    111 -> 205 [penwidth=2]
    111 -> 175 [penwidth=2]
    111 -> 197 [penwidth=2]
    111 -> 180 [penwidth=2]
    111 -> 235 [penwidth=2]
    111 -> 246 [penwidth=2]
    111 -> 198 [penwidth=2]
    111 -> 237 [penwidth=2]
    111 -> 187 [penwidth=2]
    111 -> 203 [penwidth=2]
    111 -> 201 [penwidth=2]
    111 -> 204 [penwidth=2]
    111 -> 190 [penwidth=2]
    111 -> 230 [penwidth=2]
    111 -> 220 [penwidth=2]
    111 -> 217 [penwidth=2]
    111 -> 176 [penwidth=2]
    111 -> 241 [penwidth=2]
    111 -> 234 [penwidth=2]
    111 -> 228 [penwidth=2]
    111 -> 213 [penwidth=2]
    111 -> 182 [penwidth=2]
    111 -> 242 [penwidth=2]
    111 -> 196 [penwidth=2]
    111 -> 227 [penwidth=2]
    111 -> 215 [penwidth=2]
    111 -> 240 [penwidth=2]
    111 -> 183 [penwidth=2]
    111 -> 178 [penwidth=2]
    111 -> 193 [penwidth=2]
    111 -> 172 [penwidth=2]
    111 -> 222 [penwidth=2]
    111 -> 233 [penwidth=2]
    111 -> 195 [penwidth=2]
    70 -> 217 [penwidth=2]
    70 -> 196 [penwidth=2]
    70 -> 205 [penwidth=2]
    70 -> 183 [penwidth=2]
    70 -> 173 [penwidth=2]
    70 -> 226 [penwidth=2]
    70 -> 222 [penwidth=2]
    70 -> 180 [penwidth=2]
    70 -> 231 [penwidth=2]
    70 -> 198 [penwidth=2]
    70 -> 176 [penwidth=2]
    70 -> 241 [penwidth=2]
    70 -> 215 [penwidth=2]
    70 -> 242 [penwidth=2]
    70 -> 235 [penwidth=2]
    70 -> 219 [penwidth=2]
    70 -> 175 [penwidth=2]
    70 -> 179 [penwidth=2]
    70 -> 244 [penwidth=2]
    70 -> 229 [penwidth=2]
    70 -> 195 [penwidth=2]
    70 -> 203 [penwidth=2]
    70 -> 227 [penwidth=2]
    70 -> 201 [penwidth=2]
    70 -> 221 [penwidth=2]
    70 -> 194 [penwidth=2]
    70 -> 239 [penwidth=2]
    70 -> 190 [penwidth=2]
    70 -> 197 [penwidth=2]
    70 -> 213 [penwidth=2]
    70 -> 188 [penwidth=2]
    70 -> 199 [penwidth=2]
    70 -> 247 [penwidth=2]
    70 -> 236 [penwidth=2]
    70 -> 182 [penwidth=2]
    70 -> 204 [penwidth=2]
    70 -> 214 [penwidth=2]
    75 -> 222 [penwidth=2]
    75 -> 214 [penwidth=2]
    75 -> 197 [penwidth=2]
    75 -> 247 [penwidth=2]
    75 -> 244 [penwidth=2]
    75 -> 179 [penwidth=2]
    75 -> 178 [penwidth=2]
    75 -> 194 [penwidth=2]
    75 -> 187 [penwidth=2]
    75 -> 174 [penwidth=2]
    75 -> 191 [penwidth=2]
    75 -> 243 [penwidth=2]
    75 -> 184 [penwidth=2]
    75 -> 224 [penwidth=2]
    75 -> 228 [penwidth=2]
    75 -> 226 [penwidth=2]
    75 -> 202 [penwidth=2]
    75 -> 233 [penwidth=2]
    75 -> 213 [penwidth=2]
    75 -> 219 [penwidth=2]
    75 -> 229 [penwidth=2]
    75 -> 185 [penwidth=2]
    75 -> 189 [penwidth=2]
    75 -> 180 [penwidth=2]
    75 -> 192 [penwidth=2]
    75 -> 245 [penwidth=2]
    75 -> 181 [penwidth=2]
    75 -> 193 [penwidth=2]
    75 -> 177 [penwidth=2]
    75 -> 242 [penwidth=2]
    75 -> 235 [penwidth=2]
    75 -> 234 [penwidth=2]
    75 -> 182 [penwidth=2]
    75 -> 225 [penwidth=2]
    75 -> 217 [penwidth=2]
    75 -> 190 [penwidth=2]
    75 -> 230 [penwidth=2]
    75 -> 196 [penwidth=2]
    75 -> 221 [penwidth=2]
    75 -> 227 [penwidth=2]
    75 -> 183 [penwidth=2]
    75 -> 204 [penwidth=2]
    75 -> 223 [penwidth=2]
    75 -> 199 [penwidth=2]
    75 -> 172 [penwidth=2]
    75 -> 239 [penwidth=2]
    75 -> 232 [penwidth=2]
    75 -> 198 [penwidth=2]
    75 -> 173 [penwidth=2]
    75 -> 200 [penwidth=2]
    75 -> 236 [penwidth=2]
    75 -> 238 [penwidth=2]
    75 -> 246 [penwidth=2]
    75 -> 176 [penwidth=2]
    75 -> 220 [penwidth=2]
    118 -> 204 [penwidth=2]
    118 -> 184 [penwidth=2]
    118 -> 218 [penwidth=2]
    118 -> 241 [penwidth=2]
    118 -> 213 [penwidth=2]
    118 -> 239 [penwidth=2]
    118 -> 229 [penwidth=2]
    118 -> 224 [penwidth=2]
    118 -> 228 [penwidth=2]
    118 -> 247 [penwidth=2]
    118 -> 221 [penwidth=2]
    118 -> 222 [penwidth=2]
    118 -> 225 [penwidth=2]
    118 -> 237 [penwidth=2]
    118 -> 226 [penwidth=2]
    118 -> 182 [penwidth=2]
    118 -> 217 [penwidth=2]
    118 -> 203 [penwidth=2]
    118 -> 188 [penwidth=2]
    118 -> 180 [penwidth=2]
    118 -> 172 [penwidth=2]
    118 -> 189 [penwidth=2]
    118 -> 186 [penwidth=2]
    118 -> 246 [penwidth=2]
    118 -> 197 [penwidth=2]
    118 -> 198 [penwidth=2]
    118 -> 235 [penwidth=2]
    118 -> 173 [penwidth=2]
    118 -> 242 [penwidth=2]
    118 -> 205 [penwidth=2]
    118 -> 187 [penwidth=2]
    118 -> 190 [penwidth=2]
    118 -> 193 [penwidth=2]
    118 -> 234 [penwidth=2]
    118 -> 214 [penwidth=2]
    118 -> 244 [penwidth=2]
    118 -> 176 [penwidth=2]
    118 -> 230 [penwidth=2]
    118 -> 179 [penwidth=2]
    118 -> 219 [penwidth=2]
    118 -> 191 [penwidth=2]
    118 -> 238 [penwidth=2]
    118 -> 236 [penwidth=2]
    118 -> 196 [penwidth=2]
    118 -> 178 [penwidth=2]
    118 -> 175 [penwidth=2]
    118 -> 202 [penwidth=2]
    118 -> 243 [penwidth=2]
    120 -> 226 [penwidth=2]
    120 -> 172 [penwidth=2]
    120 -> 187 [penwidth=2]
    120 -> 214 [penwidth=2]
    120 -> 195 [penwidth=2]
    121 -> 226 [penwidth=2]
    121 -> 177 [penwidth=2]
    121 -> 200 [penwidth=2]
    121 -> 181 [penwidth=2]
    121 -> 179 [penwidth=2]
    121 -> 205 [penwidth=2]
    121 -> 188 [penwidth=2]
    121 -> 215 [penwidth=2]
    121 -> 236 [penwidth=2]
    121 -> 225 [penwidth=2]
    121 -> 198 [penwidth=2]
    121 -> 223 [penwidth=2]
    121 -> 217 [penwidth=2]
    121 -> 173 [penwidth=2]
    121 -> 187 [penwidth=2]
    121 -> 214 [penwidth=2]
    121 -> 189 [penwidth=2]
    121 -> 175 [penwidth=2]
    121 -> 231 [penwidth=2]
    121 -> 213 [penwidth=2]
    121 -> 186 [penwidth=2]
    121 -> 192 [penwidth=2]
    121 -> 203 [penwidth=2]
    121 -> 234 [penwidth=2]
    121 -> 176 [penwidth=2]
    121 -> 201 [penwidth=2]
    121 -> 227 [penwidth=2]
    121 -> 191 [penwidth=2]
    121 -> 197 [penwidth=2]
    121 -> 246 [penwidth=2]
    121 -> 185 [penwidth=2]
    123 -> 180 [penwidth=2]
    123 -> 215 [penwidth=2]
    123 -> 201 [penwidth=2]
    123 -> 229 [penwidth=2]
    123 -> 241 [penwidth=2]
    123 -> 245 [penwidth=2]
    123 -> 231 [penwidth=2]
    123 -> 247 [penwidth=2]
    123 -> 200 [penwidth=2]
    123 -> 185 [penwidth=2]
    123 -> 214 [penwidth=2]
    123 -> 182 [penwidth=2]
    123 -> 223 [penwidth=2]
    123 -> 238 [penwidth=2]
    123 -> 244 [penwidth=2]
    123 -> 219 [penwidth=2]
    123 -> 194 [penwidth=2]
    123 -> 225 [penwidth=2]
    123 -> 226 [penwidth=2]
    123 -> 235 [penwidth=2]
    123 -> 188 [penwidth=2]
    123 -> 240 [penwidth=2]
    123 -> 176 [penwidth=2]
    123 -> 183 [penwidth=2]
    123 -> 196 [penwidth=2]
    123 -> 178 [penwidth=2]
    123 -> 186 [penwidth=2]
    123 -> 220 [penwidth=2]
    123 -> 189 [penwidth=2]
    123 -> 218 [penwidth=2]
    123 -> 217 [penwidth=2]
    123 -> 198 [penwidth=2]
    123 -> 228 [penwidth=2]
    123 -> 222 [penwidth=2]
    123 -> 237 [penwidth=2]
    123 -> 202 [penwidth=2]
    123 -> 187 [penwidth=2]
    123 -> 232 [penwidth=2]
    123 -> 175 [penwidth=2]
    123 -> 224 [penwidth=2]
    123 -> 213 [penwidth=2]
    123 -> 246 [penwidth=2]
    123 -> 197 [penwidth=2]
    123 -> 173 [penwidth=2]
    123 -> 172 [penwidth=2]
    123 -> 227 [penwidth=2]
    123 -> 195 [penwidth=2]
    123 -> 192 [penwidth=2]
    123 -> 177 [penwidth=2]
    123 -> 236 [penwidth=2]
    123 -> 190 [penwidth=2]
    123 -> 191 [penwidth=2]
    123 -> 203 [penwidth=2]
    123 -> 230 [penwidth=2]
    123 -> 181 [penwidth=2]
    123 -> 242 [penwidth=2]
    124 -> 241 [penwidth=2]
    124 -> 193 [penwidth=2]
    124 -> 229 [penwidth=2]
    124 -> 222 [penwidth=2]
    124 -> 191 [penwidth=2]
    124 -> 243 [penwidth=2]
    124 -> 183 [penwidth=2]
    124 -> 200 [penwidth=2]
    124 -> 195 [penwidth=2]
    124 -> 242 [penwidth=2]
    124 -> 185 [penwidth=2]
    124 -> 184 [penwidth=2]
    124 -> 235 [penwidth=2]
    124 -> 214 [penwidth=2]
    124 -> 201 [penwidth=2]
    124 -> 188 [penwidth=2]
    124 -> 202 [penwidth=2]
    124 -> 219 [penwidth=2]
    124 -> 226 [penwidth=2]
    124 -> 178 [penwidth=2]
    124 -> 224 [penwidth=2]
    124 -> 240 [penwidth=2]
    124 -> 205 [penwidth=2]
    124 -> 227 [penwidth=2]
    124 -> 225 [penwidth=2]
    124 -> 215 [penwidth=2]
    124 -> 182 [penwidth=2]
    124 -> 220 [penwidth=2]
    124 -> 228 [penwidth=2]
    124 -> 173 [penwidth=2]
    124 -> 181 [penwidth=2]
    124 -> 234 [penwidth=2]
    124 -> 238 [penwidth=2]
    124 -> 232 [penwidth=2]
    124 -> 245 [penwidth=2]
    124 -> 223 [penwidth=2]
    124 -> 236 [penwidth=2]
    124 -> 179 [penwidth=2]
    124 -> 194 [penwidth=2]
    124 -> 213 [penwidth=2]
    124 -> 174 [penwidth=2]
    124 -> 180 [penwidth=2]
    124 -> 189 [penwidth=2]
    124 -> 230 [penwidth=2]
    124 -> 177 [penwidth=2]
    124 -> 231 [penwidth=2]
    124 -> 187 [penwidth=2]
    298 -> 213 [penwidth=2]
    298 -> 239 [penwidth=2]
    298 -> 179 [penwidth=2]
    298 -> 204 [penwidth=2]
    298 -> 236 [penwidth=2]
    298 -> 195 [penwidth=2]
    298 -> 205 [penwidth=2]
    298 -> 216 [penwidth=2]
    298 -> 237 [penwidth=2]
    298 -> 220 [penwidth=2]
    298 -> 238 [penwidth=2]
    298 -> 221 [penwidth=2]
    298 -> 181 [penwidth=2]
    298 -> 199 [penwidth=2]
    298 -> 242 [penwidth=2]
    5 -> 220 [penwidth=2]
    5 -> 224 [penwidth=2]
    5 -> 198 [penwidth=2]
    305 -> 185 [penwidth=2]
    305 -> 195 [penwidth=2]
    305 -> 246 [penwidth=2]
    305 -> 180 [penwidth=2]
    305 -> 183 [penwidth=2]
    305 -> 200 [penwidth=2]
    305 -> 177 [penwidth=2]
    305 -> 240 [penwidth=2]
    305 -> 238 [penwidth=2]
    305 -> 191 [penwidth=2]
    305 -> 233 [penwidth=2]
    305 -> 214 [penwidth=2]
    305 -> 243 [penwidth=2]
    305 -> 198 [penwidth=2]
    305 -> 227 [penwidth=2]
    305 -> 187 [penwidth=2]
    305 -> 235 [penwidth=2]
    305 -> 239 [penwidth=2]
    305 -> 203 [penwidth=2]
    305 -> 245 [penwidth=2]
    305 -> 172 [penwidth=2]
    305 -> 228 [penwidth=2]
    305 -> 205 [penwidth=2]
    305 -> 176 [penwidth=2]
    305 -> 241 [penwidth=2]
    305 -> 237 [penwidth=2]
    305 -> 174 [penwidth=2]
    305 -> 194 [penwidth=2]
    305 -> 201 [penwidth=2]
    305 -> 192 [penwidth=2]
    305 -> 236 [penwidth=2]
    305 -> 189 [penwidth=2]
    305 -> 186 [penwidth=2]
    305 -> 226 [penwidth=2]
    305 -> 181 [penwidth=2]
    305 -> 179 [penwidth=2]
    305 -> 175 [penwidth=2]
    305 -> 184 [penwidth=2]
    305 -> 232 [penwidth=2]
    305 -> 213 [penwidth=2]
    305 -> 242 [penwidth=2]
    305 -> 234 [penwidth=2]
    305 -> 223 [penwidth=2]
    305 -> 215 [penwidth=2]
    305 -> 229 [penwidth=2]
    305 -> 247 [penwidth=2]
    305 -> 178 [penwidth=2]
    27 -> 234 [penwidth=2]
    27 -> 174 [penwidth=2]
    27 -> 204 [penwidth=2]
    27 -> 239 [penwidth=2]
    27 -> 192 [penwidth=2]
    27 -> 242 [penwidth=2]
    27 -> 178 [penwidth=2]
    27 -> 187 [penwidth=2]
    27 -> 215 [penwidth=2]
    27 -> 199 [penwidth=2]
    27 -> 227 [penwidth=2]
    27 -> 180 [penwidth=2]
    27 -> 219 [penwidth=2]
    27 -> 243 [penwidth=2]
    27 -> 236 [penwidth=2]
    27 -> 233 [penwidth=2]
    27 -> 198 [penwidth=2]
    27 -> 196 [penwidth=2]
    27 -> 202 [penwidth=2]
    27 -> 222 [penwidth=2]
    27 -> 175 [penwidth=2]
    27 -> 223 [penwidth=2]
    27 -> 217 [penwidth=2]
    27 -> 220 [penwidth=2]
    27 -> 197 [penwidth=2]
    27 -> 229 [penwidth=2]
    27 -> 179 [penwidth=2]
    27 -> 244 [penwidth=2]
    27 -> 246 [penwidth=2]
    27 -> 226 [penwidth=2]
    27 -> 231 [penwidth=2]
    27 -> 188 [penwidth=2]
    27 -> 228 [penwidth=2]
    27 -> 182 [penwidth=2]
    27 -> 183 [penwidth=2]
    27 -> 181 [penwidth=2]
    27 -> 184 [penwidth=2]
    27 -> 191 [penwidth=2]
    27 -> 172 [penwidth=2]
    27 -> 176 [penwidth=2]
    27 -> 194 [penwidth=2]
    27 -> 190 [penwidth=2]
    27 -> 240 [penwidth=2]
    27 -> 200 [penwidth=2]
    27 -> 241 [penwidth=2]
    27 -> 185 [penwidth=2]
    27 -> 238 [penwidth=2]
    27 -> 173 [penwidth=2]
    27 -> 203 [penwidth=2]
    27 -> 225 [penwidth=2]
    27 -> 177 [penwidth=2]
    27 -> 216 [penwidth=2]
    254 -> 190 [penwidth=2]
    254 -> 204 [penwidth=2]
    254 -> 237 [penwidth=2]
    254 -> 246 [penwidth=2]
    254 -> 247 [penwidth=2]
    254 -> 226 [penwidth=2]
    254 -> 205 [penwidth=2]
    254 -> 216 [penwidth=2]
    254 -> 183 [penwidth=2]
    262 -> 246 [penwidth=2]
    262 -> 224 [penwidth=2]
    262 -> 191 [penwidth=2]
    262 -> 193 [penwidth=2]
    270 -> 221 [penwidth=2]
    270 -> 231 [penwidth=2]
    270 -> 196 [penwidth=2]
    270 -> 184 [penwidth=2]
    270 -> 178 [penwidth=2]
    270 -> 245 [penwidth=2]
    270 -> 223 [penwidth=2]
    270 -> 247 [penwidth=2]
    270 -> 172 [penwidth=2]
    270 -> 175 [penwidth=2]
    270 -> 230 [penwidth=2]
    270 -> 225 [penwidth=2]
    270 -> 228 [penwidth=2]
    270 -> 180 [penwidth=2]
    270 -> 214 [penwidth=2]
    270 -> 179 [penwidth=2]
    270 -> 199 [penwidth=2]
    270 -> 197 [penwidth=2]
    270 -> 205 [penwidth=2]
    270 -> 200 [penwidth=2]
    270 -> 224 [penwidth=2]
    270 -> 232 [penwidth=2]
    270 -> 188 [penwidth=2]
    270 -> 240 [penwidth=2]
    270 -> 192 [penwidth=2]
    270 -> 233 [penwidth=2]
    273 -> 204 [penwidth=2]
    273 -> 216 [penwidth=2]
    273 -> 222 [penwidth=2]
    273 -> 191 [penwidth=2]
    273 -> 238 [penwidth=2]
    273 -> 187 [penwidth=2]
    273 -> 226 [penwidth=2]
    273 -> 227 [penwidth=2]
    273 -> 174 [penwidth=2]
    273 -> 243 [penwidth=2]
    273 -> 230 [penwidth=2]
    273 -> 194 [penwidth=2]
    273 -> 188 [penwidth=2]
    273 -> 183 [penwidth=2]
    273 -> 223 [penwidth=2]
    273 -> 180 [penwidth=2]
    273 -> 186 [penwidth=2]
    273 -> 173 [penwidth=2]
    273 -> 247 [penwidth=2]
    288 -> 219 [penwidth=2]
    288 -> 233 [penwidth=2]
    288 -> 197 [penwidth=2]
    288 -> 218 [penwidth=2]
    288 -> 227 [penwidth=2]
    288 -> 223 [penwidth=2]
    288 -> 177 [penwidth=2]
    288 -> 190 [penwidth=2]
    288 -> 191 [penwidth=2]
    288 -> 228 [penwidth=2]
    288 -> 183 [penwidth=2]
    288 -> 179 [penwidth=2]
    288 -> 234 [penwidth=2]
    288 -> 239 [penwidth=2]
    288 -> 174 [penwidth=2]
    288 -> 192 [penwidth=2]
    288 -> 196 [penwidth=2]
    288 -> 230 [penwidth=2]
    288 -> 205 [penwidth=2]
    288 -> 236 [penwidth=2]
    288 -> 243 [penwidth=2]
    288 -> 213 [penwidth=2]
    288 -> 172 [penwidth=2]
    288 -> 222 [penwidth=2]
    288 -> 214 [penwidth=2]
    288 -> 242 [penwidth=2]
    288 -> 203 [penwidth=2]
    288 -> 173 [penwidth=2]
    288 -> 241 [penwidth=2]
    288 -> 240 [penwidth=2]
    288 -> 195 [penwidth=2]
    288 -> 194 [penwidth=2]
    288 -> 199 [penwidth=2]
    288 -> 245 [penwidth=2]
    288 -> 237 [penwidth=2]
    288 -> 186 [penwidth=2]
    288 -> 187 [penwidth=2]
    288 -> 217 [penwidth=2]
    288 -> 176 [penwidth=2]
    288 -> 175 [penwidth=2]
    288 -> 215 [penwidth=2]
    288 -> 193 [penwidth=2]
    288 -> 246 [penwidth=2]
}