digraph G {
    0 [penwidth=3,label="0"]
    1 [penwidth=3,label="1"]
    2 [penwidth=3,label="2"]
    3 [penwidth=3,label="3"]
    4 [penwidth=3,label="4"]
    5 [penwidth=3,label="5"]
    6 [penwidth=3,label="6"]
    7 [penwidth=3,label="7"]
    8 [penwidth=3,label="8"]
    9 [penwidth=3,label="9"]
    10 [penwidth=3,label="10"]
    11 [penwidth=3,label="11"]
    12 [penwidth=3,label="12"]
    13 [penwidth=3,label="13"]
    14 [penwidth=3,label="14"]
    15 [penwidth=3,label="15"]
    16 [penwidth=3,label="16"]
    17 [penwidth=3,label="17"]
    18 [penwidth=3,label="18"]
    19 [penwidth=3,label="19"]
    20 [penwidth=3,label="20"]
    21 [penwidth=3,label="21"]
    22 [penwidth=3,label="22"]
    23 [penwidth=3,label="23"]
    24 [penwidth=3,label="24"]
    25 [penwidth=3,label="25"]
    26 [penwidth=3,label="26"]
    27 [penwidth=3,label="27"]
    28 [penwidth=3,label="28"]
    29 [penwidth=3,label="29"]
    30 [penwidth=3,label="30"]
    31 [penwidth=3,label="31"]
    32 [penwidth=3,label="32"]
    33 [penwidth=3,label="33"]
    34 [penwidth=3,label="34"]
    35 [penwidth=3,label="35"]
    36 [penwidth=3,label="36"]
    37 [penwidth=3,label="37"]
    38 [penwidth=3,label="38"]
    39 [penwidth=3,label="39"]
    40 [penwidth=3,label="40"]
    41 [penwidth=3,label="41"]
    42 [penwidth=3,label="42"]
    43 [penwidth=3,label="43"]
    44 [penwidth=3,label="44"]
    45 [penwidth=3,label="45"]
    46 [penwidth=3,label="46"]
    47 [penwidth=3,label="47"]
    48 [penwidth=3,label="48"]
    49 [penwidth=3,label="49"]
    50 [penwidth=3,label="50"]
    51 [penwidth=3,label="51"]
    52 [penwidth=3,label="52"]
    53 [penwidth=3,label="53"]
    54 [penwidth=3,label="54"]
    55 [penwidth=3,label="55"]
    56 [penwidth=3,label="56"]
    57 [penwidth=3,label="57"]
    58 [penwidth=3,label="58"]
    59 [penwidth=3,label="59"]
    60 [penwidth=3,label="60"]
    61 [penwidth=3,label="61"]
    62 [penwidth=3,label="62"]
    63 [penwidth=3,label="63"]
    64 [penwidth=3,label="64"]
    65 [penwidth=3,label="65"]
    66 [penwidth=3,label="66"]
    67 [penwidth=3,label="67"]
    68 [penwidth=3,label="68"]
    69 [penwidth=3,label="69"]
    70 [penwidth=3,label="70"]
    71 [penwidth=3,label="71"]
    72 [penwidth=3,label="72"]
    73 [penwidth=3,label="73"]
    74 [penwidth=3,label="74"]
    75 [penwidth=3,label="75"]
    76 [penwidth=3,label="76"]
    77 [penwidth=3,label="77"]
    78 [penwidth=3,label="78"]
    79 [penwidth=3,label="79"]
    80 [penwidth=3,label="80"]
    81 [penwidth=3,label="81"]
    82 [penwidth=3,label="82"]
    83 [penwidth=3,label="83"]
    84 [penwidth=3,label="84"]
    85 [penwidth=3,label="85"]
    86 [penwidth=3,label="86"]
    87 [penwidth=3,label="87"]
    88 [penwidth=3,label="88"]
    89 [penwidth=3,label="89"]
    90 [penwidth=3,label="90"]
    91 [penwidth=3,label="91"]
    92 [penwidth=3,label="92"]
    93 [penwidth=3,label="93"]
    94 [penwidth=3,label="94"]
    95 [penwidth=3,label="95"]
    96 [penwidth=3,label="96"]
    97 [penwidth=3,label="97"]
    98 [penwidth=3,label="98"]
    99 [penwidth=3,label="99"]
    100 [penwidth=3,label="100"]
    101 [penwidth=3,label="101"]
    102 [penwidth=3,label="102"]
    103 [penwidth=3,label="103"]
    104 [penwidth=3,label="104"]
    105 [penwidth=3,label="105"]
    106 [penwidth=3,label="106"]
    107 [penwidth=3,label="107"]
    108 [penwidth=3,label="108"]
    109 [penwidth=3,label="109"]
    110 [penwidth=3,label="110"]
    111 [penwidth=3,label="111"]
    112 [penwidth=3,label="112"]
    113 [penwidth=3,label="113"]
    114 [penwidth=3,label="114"]
    115 [penwidth=3,label="115"]
    116 [penwidth=3,label="116"]
    117 [penwidth=3,label="117"]
    118 [penwidth=3,label="118"]
    119 [penwidth=3,label="119"]
    120 [penwidth=3,label="120"]
    121 [penwidth=3,label="121"]
    122 [penwidth=3,label="122"]
    123 [penwidth=3,label="123"]
    124 [penwidth=3,label="124"]
    125 [penwidth=3,label="125"]
    126 [penwidth=3,label="126"]
    127 [penwidth=3,label="127"]
    128 [penwidth=3,label="128"]
    129 [penwidth=3,label="129"]
    130 [penwidth=3,label="130"]
    131 [penwidth=3,label="131"]
    132 [penwidth=3,label="132"]
    133 [penwidth=3,label="133"]
    134 [penwidth=3,label="134"]
    135 [penwidth=3,label="135"]
    136 [penwidth=3,label="136"]
    137 [penwidth=3,label="137"]
    138 [penwidth=3,label="138"]
    139 [penwidth=3,label="139"]
    140 [penwidth=3,label="140"]
    141 [penwidth=3,label="141"]
    142 [penwidth=3,label="142"]
    143 [penwidth=3,label="143"]
    144 [penwidth=3,label="144"]
    145 [penwidth=3,label="145"]
    146 [penwidth=3,label="146"]
    147 [penwidth=3,label="147"]
    148 [penwidth=3,label="148"]
    149 [penwidth=3,label="149"]
    150 [penwidth=3,label="150"]
    151 [penwidth=3,label="151"]
    152 [penwidth=3,label="152"]
    153 [penwidth=3,label="153"]
    154 [penwidth=3,label="154"]
    155 [penwidth=3,label="155"]
    156 [penwidth=3,label="156"]
    157 [penwidth=3,label="157"]
    158 [penwidth=3,label="158"]
    159 [penwidth=3,label="159"]
    160 [penwidth=3,label="160"]
    161 [penwidth=3,label="161"]
    162 [penwidth=3,label="162"]
    163 [penwidth=3,label="163"]
    164 [penwidth=3,label="164"]
    165 [penwidth=3,label="165"]
    166 [penwidth=3,label="166"]
    167 [penwidth=3,label="167"]
    168 [penwidth=3,label="168"]
    169 [penwidth=3,label="169"]
    170 [penwidth=3,label="170"]
    171 [penwidth=3,label="171"]
    172 [penwidth=3,label="172"]
    173 [penwidth=3,label="173"]
    174 [penwidth=3,label="174"]
    175 [penwidth=3,label="175"]
    176 [penwidth=3,label="176"]
    177 [penwidth=3,label="177"]
    178 [penwidth=3,label="178"]
    179 [penwidth=3,label="179"]
    180 [penwidth=3,label="180"]
    181 [penwidth=3,label="181"]
    182 [penwidth=3,label="182"]
    183 [penwidth=3,label="183"]
    184 [penwidth=3,label="184"]
    185 [penwidth=3,label="185"]
    186 [penwidth=3,label="186"]
    187 [penwidth=3,label="187"]
    188 [penwidth=3,label="188"]
    189 [penwidth=3,label="189"]
    190 [penwidth=3,label="190"]
    191 [penwidth=3,label="191"]
    192 [penwidth=3,label="192"]
    193 [penwidth=3,label="193"]
    194 [penwidth=3,label="194"]
    195 [penwidth=3,label="195"]
    196 [penwidth=3,label="196"]
    197 [penwidth=3,label="197"]
    198 [penwidth=3,label="198"]
    199 [penwidth=3,label="199"]
    200 [penwidth=3,label="200"]
    201 [penwidth=3,label="201"]
    202 [penwidth=3,label="202"]
    203 [penwidth=3,label="203"]
    204 [penwidth=3,label="204"]
    205 [penwidth=3,label="205"]
    206 [penwidth=3,label="206"]
    207 [penwidth=3,label="207"]
    208 [penwidth=3,label="208"]
    209 [penwidth=3,label="209"]
    210 [penwidth=3,label="210"]
    211 [penwidth=3,label="211"]
    212 [penwidth=3,label="212"]
    213 [penwidth=3,label="213"]
    214 [penwidth=3,label="214"]
    215 [penwidth=3,label="215"]
    216 [penwidth=3,label="216"]
    217 [penwidth=3,label="217"]
    218 [penwidth=3,label="218"]
    219 [penwidth=3,label="219"]
    220 [penwidth=3,label="220"]
    221 [penwidth=3,label="221"]
    222 [penwidth=3,label="222"]
    223 [penwidth=3,label="223"]
    224 [penwidth=3,label="224"]
    225 [penwidth=3,label="225"]
    226 [penwidth=3,label="226"]
    227 [penwidth=3,label="227"]
    228 [penwidth=3,label="228"]
    229 [penwidth=3,label="229"]
    230 [penwidth=3,label="230"]
    231 [penwidth=3,label="231"]
    232 [penwidth=3,label="232"]
    233 [penwidth=3,label="233"]
    234 [penwidth=3,label="234"]
    235 [penwidth=3,label="235"]
    236 [penwidth=3,label="236"]
    237 [penwidth=3,label="237"]
    238 [penwidth=3,label="238"]
    239 [penwidth=3,label="239"]
    240 [penwidth=3,label="240"]
    241 [penwidth=3,label="241"]
    242 [penwidth=3,label="242"]
    243 [penwidth=3,label="243"]
    244 [penwidth=3,label="244"]
    245 [penwidth=3,label="245"]
    246 [penwidth=3,label="246"]
    247 [penwidth=3,label="247"]
    248 [penwidth=3,label="248"]
    249 [penwidth=3,label="249"]
    250 [penwidth=3,label="250"]
    251 [penwidth=3,label="251"]
    252 [penwidth=3,label="252"]
    253 [penwidth=3,label="253"]
    254 [penwidth=3,label="254"]
    255 [penwidth=3,label="255"]
    256 [penwidth=3,label="256"]
    257 [penwidth=3,label="257"]
    258 [penwidth=3,label="258"]
    259 [penwidth=3,label="259"]
    260 [penwidth=3,label="260"]
    261 [penwidth=3,label="261"]
    262 [penwidth=3,label="262"]
    263 [penwidth=3,label="263"]
    264 [penwidth=3,label="264"]
    265 [penwidth=3,label="265"]
    266 [penwidth=3,label="266"]
    267 [penwidth=3,label="267"]
    268 [penwidth=3,label="268"]
    269 [penwidth=3,label="269"]
    270 [penwidth=3,label="270"]
    271 [penwidth=3,label="271"]
    272 [penwidth=3,label="272"]
    273 [penwidth=3,label="273"]
    274 [penwidth=3,label="274"]
    275 [penwidth=3,label="275"]
    276 [penwidth=3,label="276"]
    277 [penwidth=3,label="277"]
    278 [penwidth=3,label="278"]
    279 [penwidth=3,label="279"]
    280 [penwidth=3,label="280"]
    281 [penwidth=3,label="281"]
    282 [penwidth=3,label="282"]
    283 [penwidth=3,label="283"]
    284 [penwidth=3,label="284"]
    285 [penwidth=3,label="285"]
    286 [penwidth=3,label="286"]
    287 [penwidth=3,label="287"]
    288 [penwidth=3,label="288"]
    289 [penwidth=3,label="289"]
    290 [penwidth=3,label="290"]
    291 [penwidth=3,label="291"]
    292 [penwidth=3,label="292"]
    293 [penwidth=3,label="293"]
    294 [penwidth=3,label="294"]
    295 [penwidth=3,label="295"]
    296 [penwidth=3,label="296"]
    297 [penwidth=3,label="297"]
    298 [penwidth=3,label="298"]
    299 [penwidth=3,label="299"]
    300 [penwidth=3,label="300"]
    301 [penwidth=3,label="301"]
    302 [penwidth=3,label="302"]
    303 [penwidth=3,label="303"]
    304 [penwidth=3,label="304"]
    305 [penwidth=3,label="305"]
    306 [penwidth=3,label="306"]
    307 [penwidth=3,label="307"]
    308 [penwidth=3,label="308"]
    309 [penwidth=3,label="309"]

    178 -> 0 [penwidth=2]
    179 -> 0 [penwidth=2]
    180 -> 0 [penwidth=2]
    181 -> 0 [penwidth=2]
    182 -> 178 [penwidth=2]
    183 -> 178 [penwidth=2]
    184 -> 178 [penwidth=2]
    185 -> 178 [penwidth=2]
    186 -> 178 [penwidth=2]
    187 -> 178 [penwidth=2]
    188 -> 178 [penwidth=2]
    189 -> 178 [penwidth=2]
    190 -> 178 [penwidth=2]
    191 -> 178 [penwidth=2]
    192 -> 178 [penwidth=2]
    193 -> 178 [penwidth=2]
    194 -> 178 [penwidth=2]
    195 -> 178 [penwidth=2]
    196 -> 178 [penwidth=2]
    197 -> 178 [penwidth=2]
    198 -> 178 [penwidth=2]
    199 -> 179 [penwidth=2]
    200 -> 179 [penwidth=2]
    201 -> 179 [penwidth=2]
    202 -> 179 [penwidth=2]
    203 -> 179 [penwidth=2]
    204 -> 179 [penwidth=2]
    205 -> 179 [penwidth=2]
    206 -> 179 [penwidth=2]
    207 -> 179 [penwidth=2]
    208 -> 179 [penwidth=2]
    209 -> 179 [penwidth=2]
    210 -> 179 [penwidth=2]
    211 -> 179 [penwidth=2]
    212 -> 179 [penwidth=2]
    213 -> 179 [penwidth=2]
    214 -> 180 [penwidth=2]
    215 -> 180 [penwidth=2]
    216 -> 180 [penwidth=2]
    217 -> 180 [penwidth=2]
    218 -> 180 [penwidth=2]
    219 -> 180 [penwidth=2]
    94 -> 180 [penwidth=2]
    136 -> 180 [penwidth=2]
    95 -> 180 [penwidth=2]
    137 -> 180 [penwidth=2]
    96 -> 180 [penwidth=2]
    138 -> 180 [penwidth=2]
    97 -> 180 [penwidth=2]
    139 -> 180 [penwidth=2]
    98 -> 180 [penwidth=2]
    140 -> 180 [penwidth=2]
    99 -> 180 [penwidth=2]
    141 -> 180 [penwidth=2]
    100 -> 180 [penwidth=2]
    142 -> 180 [penwidth=2]
    101 -> 180 [penwidth=2]
    143 -> 181 [penwidth=2]
    102 -> 181 [penwidth=2]
    144 -> 181 [penwidth=2]
    103 -> 181 [penwidth=2]
    145 -> 181 [penwidth=2]
    104 -> 181 [penwidth=2]
    146 -> 181 [penwidth=2]
    105 -> 181 [penwidth=2]
    147 -> 181 [penwidth=2]
    106 -> 181 [penwidth=2]
    148 -> 182 [penwidth=2]
    107 -> 182 [penwidth=2]
    149 -> 182 [penwidth=2]
    108 -> 182 [penwidth=2]
    150 -> 182 [penwidth=2]
    109 -> 182 [penwidth=2]
    151 -> 182 [penwidth=2]
    110 -> 182 [penwidth=2]
    152 -> 182 [penwidth=2]
    111 -> 182 [penwidth=2]
    153 -> 182 [penwidth=2]
    112 -> 182 [penwidth=2]
    154 -> 182 [penwidth=2]
    113 -> 182 [penwidth=2]
    155 -> 182 [penwidth=2]
    114 -> 182 [penwidth=2]
    156 -> 183 [penwidth=2]
    115 -> 183 [penwidth=2]
    157 -> 183 [penwidth=2]
    116 -> 183 [penwidth=2]
    158 -> 183 [penwidth=2]
    117 -> 183 [penwidth=2]
    159 -> 183 [penwidth=2]
    118 -> 184 [penwidth=2]
    160 -> 184 [penwidth=2]
    119 -> 185 [penwidth=2]
    161 -> 185 [penwidth=2]
    120 -> 185 [penwidth=2]
    162 -> 185 [penwidth=2]
    121 -> 185 [penwidth=2]
    163 -> 185 [penwidth=2]
    122 -> 186 [penwidth=2]
    164 -> 186 [penwidth=2]
    123 -> 186 [penwidth=2]
    165 -> 186 [penwidth=2]
    124 -> 186 [penwidth=2]
    166 -> 186 [penwidth=2]
    125 -> 186 [penwidth=2]
    167 -> 186 [penwidth=2]
    126 -> 186 [penwidth=2]
    168 -> 186 [penwidth=2]
    127 -> 186 [penwidth=2]
    169 -> 186 [penwidth=2]
    128 -> 186 [penwidth=2]
    170 -> 186 [penwidth=2]
    129 -> 186 [penwidth=2]
    171 -> 187 [penwidth=2]
    130 -> 187 [penwidth=2]
    172 -> 187 [penwidth=2]
    131 -> 187 [penwidth=2]
    173 -> 187 [penwidth=2]
    132 -> 187 [penwidth=2]
    174 -> 187 [penwidth=2]
    133 -> 187 [penwidth=2]
    175 -> 187 [penwidth=2]
    134 -> 187 [penwidth=2]
    176 -> 187 [penwidth=2]
    135 -> 187 [penwidth=2]
    177 -> 188 [penwidth=2]
    52 -> 188 [penwidth=2]
    53 -> 188 [penwidth=2]
    54 -> 188 [penwidth=2]
    55 -> 188 [penwidth=2]
    56 -> 188 [penwidth=2]
    57 -> 189 [penwidth=2]
    58 -> 190 [penwidth=2]
    59 -> 190 [penwidth=2]
    60 -> 190 [penwidth=2]
    61 -> 190 [penwidth=2]
    62 -> 190 [penwidth=2]
    63 -> 190 [penwidth=2]
    64 -> 190 [penwidth=2]
    65 -> 190 [penwidth=2]
    66 -> 190 [penwidth=2]
    67 -> 190 [penwidth=2]
    68 -> 190 [penwidth=2]
    69 -> 190 [penwidth=2]
    70 -> 190 [penwidth=2]
    71 -> 190 [penwidth=2]
    72 -> 190 [penwidth=2]
    73 -> 190 [penwidth=2]
    74 -> 191 [penwidth=2]
    75 -> 191 [penwidth=2]
    76 -> 191 [penwidth=2]
    77 -> 191 [penwidth=2]
    78 -> 191 [penwidth=2]
    79 -> 191 [penwidth=2]
    80 -> 191 [penwidth=2]
    81 -> 191 [penwidth=2]
    82 -> 192 [penwidth=2]
    83 -> 192 [penwidth=2]
    84 -> 192 [penwidth=2]
    85 -> 192 [penwidth=2]
    86 -> 192 [penwidth=2]
    87 -> 192 [penwidth=2]
    88 -> 192 [penwidth=2]
    89 -> 192 [penwidth=2]
    90 -> 192 [penwidth=2]
    91 -> 192 [penwidth=2]
    92 -> 192 [penwidth=2]
    93 -> 192 [penwidth=2]
    10 -> 192 [penwidth=2]
    11 -> 192 [penwidth=2]
    12 -> 192 [penwidth=2]
    13 -> 192 [penwidth=2]
    14 -> 192 [penwidth=2]
    15 -> 192 [penwidth=2]
    16 -> 192 [penwidth=2]
    17 -> 192 [penwidth=2]
    18 -> 192 [penwidth=2]
    19 -> 192 [penwidth=2]
    20 -> 192 [penwidth=2]
    21 -> 192 [penwidth=2]
    22 -> 193 [penwidth=2]
    23 -> 193 [penwidth=2]
    24 -> 194 [penwidth=2]
    25 -> 194 [penwidth=2]
    26 -> 194 [penwidth=2]
    27 -> 194 [penwidth=2]
    28 -> 194 [penwidth=2]
    29 -> 194 [penwidth=2]
    30 -> 195 [penwidth=2]
    31 -> 195 [penwidth=2]
    32 -> 195 [penwidth=2]
    33 -> 195 [penwidth=2]
    34 -> 195 [penwidth=2]
    35 -> 196 [penwidth=2]
    36 -> 196 [penwidth=2]
    37 -> 196 [penwidth=2]
    38 -> 196 [penwidth=2]
    39 -> 196 [penwidth=2]
    40 -> 196 [penwidth=2]
    41 -> 196 [penwidth=2]
    42 -> 196 [penwidth=2]
    43 -> 196 [penwidth=2]
    44 -> 196 [penwidth=2]
    45 -> 196 [penwidth=2]
    46 -> 196 [penwidth=2]
    47 -> 196 [penwidth=2]
    48 -> 196 [penwidth=2]
    49 -> 196 [penwidth=2]
    50 -> 196 [penwidth=2]
    51 -> 197 [penwidth=2]
    304 -> 197 [penwidth=2]
    305 -> 197 [penwidth=2]
    306 -> 197 [penwidth=2]
    307 -> 197 [penwidth=2]
    308 -> 197 [penwidth=2]
    309 -> 197 [penwidth=2]
    262 -> 197 [penwidth=2]
    263 -> 198 [penwidth=2]
    264 -> 198 [penwidth=2]
    265 -> 199 [penwidth=2]
    266 -> 199 [penwidth=2]
    267 -> 199 [penwidth=2]
    268 -> 199 [penwidth=2]
    269 -> 199 [penwidth=2]
    270 -> 199 [penwidth=2]
    271 -> 199 [penwidth=2]
    272 -> 199 [penwidth=2]
    273 -> 199 [penwidth=2]
    274 -> 199 [penwidth=2]
    275 -> 199 [penwidth=2]
    276 -> 199 [penwidth=2]
    277 -> 199 [penwidth=2]
    278 -> 199 [penwidth=2]
    279 -> 199 [penwidth=2]
    280 -> 199 [penwidth=2]
    281 -> 199 [penwidth=2]
    282 -> 199 [penwidth=2]
    283 -> 199 [penwidth=2]
    284 -> 199 [penwidth=2]
    285 -> 199 [penwidth=2]
    286 -> 199 [penwidth=2]
    287 -> 200 [penwidth=2]
    288 -> 200 [penwidth=2]
    289 -> 200 [penwidth=2]
    290 -> 200 [penwidth=2]
    291 -> 200 [penwidth=2]
    292 -> 200 [penwidth=2]
    293 -> 200 [penwidth=2]
    294 -> 200 [penwidth=2]
    1 -> 200 [penwidth=2]
    295 -> 200 [penwidth=2]
    2 -> 200 [penwidth=2]
    296 -> 200 [penwidth=2]
    3 -> 200 [penwidth=2]
    297 -> 201 [penwidth=2]
    4 -> 201 [penwidth=2]
    298 -> 201 [penwidth=2]
    5 -> 201 [penwidth=2]
    299 -> 201 [penwidth=2]
    6 -> 201 [penwidth=2]
    300 -> 202 [penwidth=2]
    7 -> 202 [penwidth=2]
    301 -> 202 [penwidth=2]
    8 -> 202 [penwidth=2]
    302 -> 203 [penwidth=2]
    9 -> 203 [penwidth=2]
    303 -> 203 [penwidth=2]
    220 -> 203 [penwidth=2]
    221 -> 203 [penwidth=2]
    222 -> 203 [penwidth=2]
    223 -> 203 [penwidth=2]
    224 -> 203 [penwidth=2]
    225 -> 203 [penwidth=2]
    226 -> 203 [penwidth=2]
    227 -> 203 [penwidth=2]
    228 -> 203 [penwidth=2]
    229 -> 203 [penwidth=2]
    230 -> 203 [penwidth=2]
    231 -> 203 [penwidth=2]
    232 -> 203 [penwidth=2]
    233 -> 203 [penwidth=2]
    234 -> 203 [penwidth=2]
    235 -> 203 [penwidth=2]
    236 -> 203 [penwidth=2]
    237 -> 204 [penwidth=2]
    238 -> 204 [penwidth=2]
    239 -> 204 [penwidth=2]
    240 -> 204 [penwidth=2]
    241 -> 204 [penwidth=2]
    242 -> 204 [penwidth=2]
    243 -> 204 [penwidth=2]
    244 -> 204 [penwidth=2]
    245 -> 204 [penwidth=2]
    246 -> 204 [penwidth=2]
    247 -> 204 [penwidth=2]
    248 -> 204 [penwidth=2]
    249 -> 204 [penwidth=2]
    250 -> 204 [penwidth=2]
    251 -> 204 [penwidth=2]
    252 -> 204 [penwidth=2]
    253 -> 204 [penwidth=2]
    254 -> 204 [penwidth=2]
    255 -> 204 [penwidth=2]
    256 -> 204 [penwidth=2]
    257 -> 204 [penwidth=2]
    258 -> 204 [penwidth=2]
    259 -> 204 [penwidth=2]
    260 -> 205 [penwidth=2]
    261 -> 205 [penwidth=2]
    186 -> 180 [penwidth=2]
    194 -> 180 [penwidth=2]
    202 -> 180 [penwidth=2]
    216 -> 178 [penwidth=2]
    219 -> 181 [penwidth=2]
    219 -> 178 [penwidth=2]
    154 -> 206 [penwidth=2]
    154 -> 139 [penwidth=2]
    154 -> 195 [penwidth=2]
    154 -> 192 [penwidth=2]
    154 -> 99 [penwidth=2]
    154 -> 194 [penwidth=2]
    154 -> 212 [penwidth=2]
    154 -> 140 [penwidth=2]
    154 -> 198 [penwidth=2]
    154 -> 104 [penwidth=2]
    154 -> 196 [penwidth=2]
    154 -> 205 [penwidth=2]
    154 -> 137 [penwidth=2]
    154 -> 203 [penwidth=2]
    154 -> 185 [penwidth=2]
    154 -> 184 [penwidth=2]
    154 -> 183 [penwidth=2]
    154 -> 210 [penwidth=2]
    154 -> 101 [penwidth=2]
    154 -> 213 [penwidth=2]
    154 -> 216 [penwidth=2]
    154 -> 100 [penwidth=2]
    154 -> 201 [penwidth=2]
    154 -> 141 [penwidth=2]
    154 -> 144 [penwidth=2]
    154 -> 187 [penwidth=2]
    154 -> 146 [penwidth=2]
    154 -> 96 [penwidth=2]
    154 -> 105 [penwidth=2]
    154 -> 202 [penwidth=2]
    154 -> 190 [penwidth=2]
    154 -> 191 [penwidth=2]
    154 -> 214 [penwidth=2]
    154 -> 95 [penwidth=2]
    154 -> 189 [penwidth=2]
    154 -> 106 [penwidth=2]
    154 -> 197 [penwidth=2]
    154 -> 218 [penwidth=2]
    154 -> 204 [penwidth=2]
    154 -> 215 [penwidth=2]
    154 -> 147 [penwidth=2]
    154 -> 94 [penwidth=2]
    154 -> 199 [penwidth=2]
    154 -> 143 [penwidth=2]
    154 -> 219 [penwidth=2]
    154 -> 209 [penwidth=2]
    114 -> 195 [penwidth=2]
    114 -> 184 [penwidth=2]
    114 -> 188 [penwidth=2]
    114 -> 202 [penwidth=2]
    114 -> 105 [penwidth=2]
    114 -> 219 [penwidth=2]
    114 -> 200 [penwidth=2]
    114 -> 216 [penwidth=2]
    114 -> 191 [penwidth=2]
    114 -> 190 [penwidth=2]
    114 -> 136 [penwidth=2]
    114 -> 217 [penwidth=2]
    114 -> 140 [penwidth=2]
    114 -> 208 [penwidth=2]
    114 -> 207 [penwidth=2]
    114 -> 203 [penwidth=2]
    114 -> 213 [penwidth=2]
    114 -> 137 [penwidth=2]
    114 -> 96 [penwidth=2]
    114 -> 141 [penwidth=2]
    114 -> 193 [penwidth=2]
    114 -> 98 [penwidth=2]
    114 -> 199 [penwidth=2]
    114 -> 204 [penwidth=2]
    114 -> 103 [penwidth=2]
    114 -> 101 [penwidth=2]
    165 -> 147 [penwidth=2]
    165 -> 105 [penwidth=2]
    165 -> 141 [penwidth=2]
    165 -> 213 [penwidth=2]
    165 -> 102 [penwidth=2]
    165 -> 143 [penwidth=2]
    165 -> 190 [penwidth=2]
    165 -> 208 [penwidth=2]
    165 -> 136 [penwidth=2]
    165 -> 100 [penwidth=2]
    165 -> 97 [penwidth=2]
    165 -> 196 [penwidth=2]
    165 -> 101 [penwidth=2]
    165 -> 217 [penwidth=2]
    165 -> 192 [penwidth=2]
    165 -> 104 [penwidth=2]
    165 -> 203 [penwidth=2]
    165 -> 183 [penwidth=2]
    165 -> 145 [penwidth=2]
    165 -> 139 [penwidth=2]
    165 -> 137 [penwidth=2]
    165 -> 204 [penwidth=2]
    168 -> 189 [penwidth=2]
    168 -> 213 [penwidth=2]
    168 -> 196 [penwidth=2]
    168 -> 211 [penwidth=2]
    168 -> 147 [penwidth=2]
    168 -> 97 [penwidth=2]
    168 -> 94 [penwidth=2]
    168 -> 207 [penwidth=2]
    168 -> 184 [penwidth=2]
    168 -> 146 [penwidth=2]
    168 -> 145 [penwidth=2]
    168 -> 202 [penwidth=2]
    168 -> 105 [penwidth=2]
    168 -> 200 [penwidth=2]
    168 -> 106 [penwidth=2]
    168 -> 96 [penwidth=2]
    168 -> 212 [penwidth=2]
    168 -> 190 [penwidth=2]
    168 -> 183 [penwidth=2]
    168 -> 95 [penwidth=2]
    168 -> 204 [penwidth=2]
    168 -> 100 [penwidth=2]
    168 -> 139 [penwidth=2]
    168 -> 198 [penwidth=2]
    168 -> 188 [penwidth=2]
    168 -> 203 [penwidth=2]
    168 -> 136 [penwidth=2]
    168 -> 218 [penwidth=2]
    168 -> 101 [penwidth=2]
    168 -> 192 [penwidth=2]
    168 -> 141 [penwidth=2]
    168 -> 138 [penwidth=2]
    168 -> 142 [penwidth=2]
    168 -> 209 [penwidth=2]
    168 -> 214 [penwidth=2]
    168 -> 103 [penwidth=2]
    168 -> 102 [penwidth=2]
    168 -> 219 [penwidth=2]
    168 -> 216 [penwidth=2]
    168 -> 193 [penwidth=2]
    168 -> 215 [penwidth=2]
    168 -> 143 [penwidth=2]
    168 -> 208 [penwidth=2]
    168 -> 104 [penwidth=2]
    168 -> 144 [penwidth=2]
    168 -> 140 [penwidth=2]
    168 -> 185 [penwidth=2]
    168 -> 99 [penwidth=2]
    168 -> 182 [penwidth=2]
    168 -> 197 [penwidth=2]
    168 -> 210 [penwidth=2]
    168 -> 206 [penwidth=2]
    168 -> 205 [penwidth=2]
    168 -> 191 [penwidth=2]
    168 -> 137 [penwidth=2]
    168 -> 199 [penwidth=2]
    168 -> 195 [penwidth=2]
    171 -> 217 [penwidth=2]
    171 -> 146 [penwidth=2]
    171 -> 209 [penwidth=2]
    171 -> 188 [penwidth=2]
    171 -> 208 [penwidth=2]
    171 -> 103 [penwidth=2]
    171 -> 99 [penwidth=2]
    171 -> 105 [penwidth=2]
    171 -> 191 [penwidth=2]
    171 -> 218 [penwidth=2]
    171 -> 140 [penwidth=2]
    171 -> 137 [penwidth=2]
    171 -> 213 [penwidth=2]
    171 -> 104 [penwidth=2]
    171 -> 203 [penwidth=2]
    171 -> 215 [penwidth=2]
    171 -> 106 [penwidth=2]
    171 -> 147 [penwidth=2]
    171 -> 211 [penwidth=2]
    171 -> 101 [penwidth=2]
    171 -> 202 [penwidth=2]
    171 -> 200 [penwidth=2]
    171 -> 219 [penwidth=2]
    171 -> 206 [penwidth=2]
    171 -> 190 [penwidth=2]
    171 -> 186 [penwidth=2]
    171 -> 216 [penwidth=2]
    171 -> 139 [penwidth=2]
    171 -> 214 [penwidth=2]
    171 -> 182 [penwidth=2]
    171 -> 204 [penwidth=2]
    171 -> 212 [penwidth=2]
    171 -> 193 [penwidth=2]
    58 -> 207 [penwidth=2]
    58 -> 194 [penwidth=2]
    59 -> 210 [penwidth=2]
    59 -> 94 [penwidth=2]
    59 -> 207 [penwidth=2]
    59 -> 213 [penwidth=2]
    59 -> 98 [penwidth=2]
    59 -> 189 [penwidth=2]
    59 -> 186 [penwidth=2]
    59 -> 218 [penwidth=2]
    59 -> 200 [penwidth=2]
    59 -> 144 [penwidth=2]
    59 -> 187 [penwidth=2]
    59 -> 219 [penwidth=2]
    59 -> 196 [penwidth=2]
    59 -> 194 [penwidth=2]
    59 -> 106 [penwidth=2]
    59 -> 105 [penwidth=2]
    59 -> 199 [penwidth=2]
    59 -> 209 [penwidth=2]
    59 -> 193 [penwidth=2]
    59 -> 204 [penwidth=2]
    59 -> 183 [penwidth=2]
    59 -> 96 [penwidth=2]
    59 -> 141 [penwidth=2]
    59 -> 97 [penwidth=2]
    59 -> 142 [penwidth=2]
    59 -> 146 [penwidth=2]
    59 -> 102 [penwidth=2]
    59 -> 184 [penwidth=2]
    59 -> 103 [penwidth=2]
    59 -> 138 [penwidth=2]
    59 -> 195 [penwidth=2]
    59 -> 206 [penwidth=2]
    59 -> 95 [penwidth=2]
    59 -> 140 [penwidth=2]
    59 -> 198 [penwidth=2]
    59 -> 137 [penwidth=2]
    59 -> 214 [penwidth=2]
    59 -> 145 [penwidth=2]
    59 -> 208 [penwidth=2]
    59 -> 215 [penwidth=2]
    59 -> 191 [penwidth=2]
    59 -> 104 [penwidth=2]
    59 -> 203 [penwidth=2]
    59 -> 197 [penwidth=2]
    59 -> 100 [penwidth=2]
    59 -> 201 [penwidth=2]
    59 -> 101 [penwidth=2]
    59 -> 217 [penwidth=2]
    59 -> 99 [penwidth=2]
    59 -> 202 [penwidth=2]
    59 -> 205 [penwidth=2]
    59 -> 139 [penwidth=2]
    59 -> 136 [penwidth=2]
    78 -> 208 [penwidth=2]
    84 -> 198 [penwidth=2]
    84 -> 208 [penwidth=2]
    84 -> 105 [penwidth=2]
    84 -> 196 [penwidth=2]
    84 -> 203 [penwidth=2]
    84 -> 216 [penwidth=2]
    84 -> 213 [penwidth=2]
    84 -> 207 [penwidth=2]
    84 -> 136 [penwidth=2]
    84 -> 137 [penwidth=2]
    84 -> 146 [penwidth=2]
    84 -> 96 [penwidth=2]
    84 -> 185 [penwidth=2]
    84 -> 210 [penwidth=2]
    84 -> 206 [penwidth=2]
    84 -> 182 [penwidth=2]
    84 -> 204 [penwidth=2]
    84 -> 183 [penwidth=2]
    84 -> 99 [penwidth=2]
    84 -> 140 [penwidth=2]
    84 -> 141 [penwidth=2]
    84 -> 143 [penwidth=2]
    84 -> 138 [penwidth=2]
    84 -> 104 [penwidth=2]
    84 -> 144 [penwidth=2]
    84 -> 189 [penwidth=2]
    84 -> 142 [penwidth=2]
    84 -> 95 [penwidth=2]
    84 -> 197 [penwidth=2]
    84 -> 211 [penwidth=2]
    84 -> 102 [penwidth=2]
    84 -> 212 [penwidth=2]
    84 -> 200 [penwidth=2]
    84 -> 187 [penwidth=2]
    84 -> 194 [penwidth=2]
    84 -> 202 [penwidth=2]
    84 -> 191 [penwidth=2]
    84 -> 205 [penwidth=2]
    84 -> 218 [penwidth=2]
    84 -> 106 [penwidth=2]
    84 -> 209 [penwidth=2]
    84 -> 214 [penwidth=2]
    84 -> 188 [penwidth=2]
    84 -> 147 [penwidth=2]
    84 -> 97 [penwidth=2]
    84 -> 219 [penwidth=2]
    84 -> 193 [penwidth=2]
    84 -> 217 [penwidth=2]
    84 -> 190 [penwidth=2]
    84 -> 139 [penwidth=2]
    88 -> 216 [penwidth=2]
    88 -> 211 [penwidth=2]
    88 -> 147 [penwidth=2]
    88 -> 145 [penwidth=2]
    88 -> 193 [penwidth=2]
    88 -> 199 [penwidth=2]
    88 -> 210 [penwidth=2]
    88 -> 104 [penwidth=2]
    88 -> 204 [penwidth=2]
    88 -> 142 [penwidth=2]
    88 -> 141 [penwidth=2]
    89 -> 105 [penwidth=2]
    89 -> 182 [penwidth=2]
    89 -> 197 [penwidth=2]
    89 -> 218 [penwidth=2]
    89 -> 189 [penwidth=2]
    89 -> 142 [penwidth=2]
    89 -> 219 [penwidth=2]
    89 -> 205 [penwidth=2]
    89 -> 188 [penwidth=2]
    89 -> 137 [penwidth=2]
    13 -> 205 [penwidth=2]
    13 -> 198 [penwidth=2]
    13 -> 201 [penwidth=2]
    13 -> 188 [penwidth=2]
    13 -> 194 [penwidth=2]
    13 -> 202 [penwidth=2]
    13 -> 209 [penwidth=2]
    13 -> 219 [penwidth=2]
    13 -> 186 [penwidth=2]
    13 -> 204 [penwidth=2]
    13 -> 193 [penwidth=2]
    13 -> 182 [penwidth=2]
    13 -> 94 [penwidth=2]
    13 -> 215 [penwidth=2]
    13 -> 104 [penwidth=2]
    13 -> 98 [penwidth=2]
    13 -> 97 [penwidth=2]
    13 -> 96 [penwidth=2]
    13 -> 190 [penwidth=2]
    13 -> 216 [penwidth=2]
    13 -> 208 [penwidth=2]
    13 -> 196 [penwidth=2]
    13 -> 105 [penwidth=2]
    13 -> 212 [penwidth=2]
    13 -> 144 [penwidth=2]
    13 -> 146 [penwidth=2]
    13 -> 147 [penwidth=2]
    13 -> 139 [penwidth=2]
    13 -> 102 [penwidth=2]
    13 -> 101 [penwidth=2]
    13 -> 136 [penwidth=2]
    13 -> 213 [penwidth=2]
    13 -> 206 [penwidth=2]
    13 -> 183 [penwidth=2]
    13 -> 200 [penwidth=2]
    13 -> 217 [penwidth=2]
    13 -> 207 [penwidth=2]
    13 -> 184 [penwidth=2]
    13 -> 191 [penwidth=2]
    13 -> 100 [penwidth=2]
    13 -> 185 [penwidth=2]
    13 -> 218 [penwidth=2]
    13 -> 141 [penwidth=2]
    13 -> 138 [penwidth=2]
    13 -> 142 [penwidth=2]
    13 -> 214 [penwidth=2]
    13 -> 203 [penwidth=2]
    16 -> 200 [penwidth=2]
    16 -> 144 [penwidth=2]
    16 -> 195 [penwidth=2]
    16 -> 218 [penwidth=2]
    16 -> 217 [penwidth=2]
    16 -> 191 [penwidth=2]
    16 -> 185 [penwidth=2]
    16 -> 209 [penwidth=2]
    16 -> 98 [penwidth=2]
    16 -> 204 [penwidth=2]
    16 -> 219 [penwidth=2]
    16 -> 143 [penwidth=2]
    16 -> 101 [penwidth=2]
    16 -> 190 [penwidth=2]
    16 -> 196 [penwidth=2]
    16 -> 100 [penwidth=2]
    16 -> 189 [penwidth=2]
    16 -> 183 [penwidth=2]
    22 -> 138 [penwidth=2]
    306 -> 103 [penwidth=2]
    306 -> 198 [penwidth=2]
    306 -> 212 [penwidth=2]
    306 -> 208 [penwidth=2]
    306 -> 185 [penwidth=2]
    306 -> 196 [penwidth=2]
    306 -> 216 [penwidth=2]
    306 -> 206 [penwidth=2]
    306 -> 205 [penwidth=2]
    306 -> 188 [penwidth=2]
    306 -> 140 [penwidth=2]
    306 -> 138 [penwidth=2]
    306 -> 106 [penwidth=2]
    306 -> 203 [penwidth=2]
    306 -> 202 [penwidth=2]
    306 -> 190 [penwidth=2]
    306 -> 187 [penwidth=2]
    306 -> 207 [penwidth=2]
    306 -> 192 [penwidth=2]
    306 -> 182 [penwidth=2]
    306 -> 102 [penwidth=2]
    306 -> 193 [penwidth=2]
    306 -> 213 [penwidth=2]
    306 -> 191 [penwidth=2]
    306 -> 217 [penwidth=2]
    306 -> 104 [penwidth=2]
    306 -> 143 [penwidth=2]
    306 -> 145 [penwidth=2]
    306 -> 141 [penwidth=2]
    306 -> 215 [penwidth=2]
    306 -> 146 [penwidth=2]
    306 -> 186 [penwidth=2]
    306 -> 97 [penwidth=2]
    306 -> 136 [penwidth=2]
    306 -> 218 [penwidth=2]
    306 -> 195 [penwidth=2]
    306 -> 183 [penwidth=2]
    306 -> 204 [penwidth=2]
    306 -> 214 [penwidth=2]
    306 -> 189 [penwidth=2]
    306 -> 210 [penwidth=2]
    306 -> 99 [penwidth=2]
    306 -> 139 [penwidth=2]
    306 -> 101 [penwidth=2]
    306 -> 147 [penwidth=2]
    306 -> 95 [penwidth=2]
    306 -> 201 [penwidth=2]
    306 -> 219 [penwidth=2]
    306 -> 94 [penwidth=2]
    307 -> 141 [penwidth=2]
    307 -> 143 [penwidth=2]
    307 -> 214 [penwidth=2]
    307 -> 196 [penwidth=2]
    307 -> 144 [penwidth=2]
    307 -> 187 [penwidth=2]
    307 -> 216 [penwidth=2]
    307 -> 142 [penwidth=2]
    307 -> 212 [penwidth=2]
    307 -> 98 [penwidth=2]
    307 -> 136 [penwidth=2]
    307 -> 210 [penwidth=2]
    307 -> 97 [penwidth=2]
    307 -> 105 [penwidth=2]
    307 -> 183 [penwidth=2]
    307 -> 138 [penwidth=2]
    307 -> 182 [penwidth=2]
    307 -> 218 [penwidth=2]
    307 -> 188 [penwidth=2]
    307 -> 217 [penwidth=2]
    307 -> 139 [penwidth=2]
    307 -> 145 [penwidth=2]
    307 -> 186 [penwidth=2]
    307 -> 211 [penwidth=2]
    307 -> 208 [penwidth=2]
    307 -> 190 [penwidth=2]
    307 -> 99 [penwidth=2]
    307 -> 207 [penwidth=2]
    307 -> 209 [penwidth=2]
    307 -> 96 [penwidth=2]
    307 -> 204 [penwidth=2]
    307 -> 195 [penwidth=2]
    307 -> 213 [penwidth=2]
    307 -> 198 [penwidth=2]
    307 -> 205 [penwidth=2]
    307 -> 101 [penwidth=2]
    307 -> 185 [penwidth=2]
    307 -> 100 [penwidth=2]
    307 -> 193 [penwidth=2]
    307 -> 203 [penwidth=2]
    307 -> 200 [penwidth=2]
    307 -> 215 [penwidth=2]
    307 -> 202 [penwidth=2]
    307 -> 189 [penwidth=2]
    307 -> 194 [penwidth=2]
    307 -> 94 [penwidth=2]
    307 -> 191 [penwidth=2]
    307 -> 201 [penwidth=2]
    307 -> 146 [penwidth=2]
    307 -> 206 [penwidth=2]
    307 -> 102 [penwidth=2]
    307 -> 192 [penwidth=2]
    307 -> 147 [penwidth=2]
    307 -> 140 [penwidth=2]
    307 -> 106 [penwidth=2]
    307 -> 95 [penwidth=2]
    307 -> 219 [penwidth=2]
    264 -> 197 [penwidth=2]
    264 -> 103 [penwidth=2]
    264 -> 185 [penwidth=2]
    264 -> 201 [penwidth=2]
    264 -> 142 [penwidth=2]
    264 -> 214 [penwidth=2]
    264 -> 219 [penwidth=2]
    264 -> 102 [penwidth=2]
    264 -> 218 [penwidth=2]
    264 -> 199 [penwidth=2]
    264 -> 98 [penwidth=2]
    273 -> 185 [penwidth=2]
    273 -> 189 [penwidth=2]
    273 -> 139 [penwidth=2]
    273 -> 192 [penwidth=2]
    273 -> 103 [penwidth=2]
    273 -> 137 [penwidth=2]
    273 -> 203 [penwidth=2]
    273 -> 213 [penwidth=2]
    273 -> 200 [penwidth=2]
    273 -> 136 [penwidth=2]
    277 -> 95 [penwidth=2]
    277 -> 217 [penwidth=2]
    277 -> 184 [penwidth=2]
    277 -> 140 [penwidth=2]
    277 -> 214 [penwidth=2]
    277 -> 216 [penwidth=2]
    277 -> 94 [penwidth=2]
    277 -> 137 [penwidth=2]
    277 -> 146 [penwidth=2]
    277 -> 102 [penwidth=2]
    277 -> 192 [penwidth=2]
    277 -> 203 [penwidth=2]
    277 -> 189 [penwidth=2]
    277 -> 136 [penwidth=2]
    277 -> 209 [penwidth=2]
    277 -> 106 [penwidth=2]
    277 -> 191 [penwidth=2]
    277 -> 215 [penwidth=2]
    277 -> 206 [penwidth=2]
    277 -> 142 [penwidth=2]
    277 -> 96 [penwidth=2]
    277 -> 139 [penwidth=2]
    277 -> 144 [penwidth=2]
    277 -> 183 [penwidth=2]
    277 -> 208 [penwidth=2]
    277 -> 202 [penwidth=2]
    277 -> 190 [penwidth=2]
    277 -> 197 [penwidth=2]
    277 -> 218 [penwidth=2]
    277 -> 185 [penwidth=2]
    277 -> 204 [penwidth=2]
    277 -> 195 [penwidth=2]
    277 -> 98 [penwidth=2]
    277 -> 138 [penwidth=2]
    277 -> 143 [penwidth=2]
    277 -> 213 [penwidth=2]
    277 -> 99 [penwidth=2]
    277 -> 182 [penwidth=2]
    277 -> 186 [penwidth=2]
    277 -> 212 [penwidth=2]
    277 -> 188 [penwidth=2]
    278 -> 194 [penwidth=2]
    278 -> 98 [penwidth=2]
    278 -> 99 [penwidth=2]
    278 -> 213 [penwidth=2]
    278 -> 97 [penwidth=2]
    278 -> 106 [penwidth=2]
    278 -> 188 [penwidth=2]
    278 -> 187 [penwidth=2]
    278 -> 138 [penwidth=2]
    278 -> 206 [penwidth=2]
    278 -> 101 [penwidth=2]
    278 -> 212 [penwidth=2]
    278 -> 207 [penwidth=2]
    278 -> 195 [penwidth=2]
    278 -> 144 [penwidth=2]
    278 -> 217 [penwidth=2]
    278 -> 198 [penwidth=2]
    278 -> 102 [penwidth=2]
    278 -> 186 [penwidth=2]
    278 -> 205 [penwidth=2]
    278 -> 210 [penwidth=2]
    278 -> 140 [penwidth=2]
    278 -> 202 [penwidth=2]
    278 -> 100 [penwidth=2]
    278 -> 137 [penwidth=2]
    278 -> 185 [penwidth=2]
    278 -> 193 [penwidth=2]
    278 -> 142 [penwidth=2]
    278 -> 201 [penwidth=2]
    278 -> 208 [penwidth=2]
    278 -> 190 [penwidth=2]
    278 -> 215 [penwidth=2]
    278 -> 189 [penwidth=2]
    278 -> 214 [penwidth=2]
    290 -> 98 [penwidth=2]
    290 -> 197 [penwidth=2]
    290 -> 193 [penwidth=2]
    290 -> 94 [penwidth=2]
    290 -> 185 [penwidth=2]
    290 -> 219 [penwidth=2]
    290 -> 207 [penwidth=2]
    290 -> 213 [penwidth=2]
    290 -> 147 [penwidth=2]
    290 -> 106 [penwidth=2]
    290 -> 187 [penwidth=2]
    290 -> 136 [penwidth=2]
    290 -> 204 [penwidth=2]
    290 -> 138 [penwidth=2]
    290 -> 104 [penwidth=2]
    290 -> 216 [penwidth=2]
    290 -> 192 [penwidth=2]
    290 -> 209 [penwidth=2]
    290 -> 211 [penwidth=2]
    290 -> 183 [penwidth=2]
    290 -> 203 [penwidth=2]
    290 -> 188 [penwidth=2]
    290 -> 95 [penwidth=2]
    290 -> 201 [penwidth=2]
    290 -> 184 [penwidth=2]
    290 -> 212 [penwidth=2]
    290 -> 102 [penwidth=2]
    290 -> 196 [penwidth=2]
    290 -> 217 [penwidth=2]
    290 -> 208 [penwidth=2]
    290 -> 101 [penwidth=2]
    290 -> 143 [penwidth=2]
    290 -> 202 [penwidth=2]
    290 -> 214 [penwidth=2]
    290 -> 191 [penwidth=2]
    290 -> 199 [penwidth=2]
    290 -> 142 [penwidth=2]
    290 -> 182 [penwidth=2]
    290 -> 144 [penwidth=2]
    290 -> 139 [penwidth=2]
    2 -> 184 [penwidth=2]
    2 -> 96 [penwidth=2]
    2 -> 196 [penwidth=2]
    2 -> 195 [penwidth=2]
    2 -> 198 [penwidth=2]
    2 -> 187 [penwidth=2]
    2 -> 98 [penwidth=2]
    2 -> 100 [penwidth=2]
    2 -> 205 [penwidth=2]
    2 -> 188 [penwidth=2]
    2 -> 97 [penwidth=2]
    2 -> 199 [penwidth=2]
    2 -> 214 [penwidth=2]
    2 -> 183 [penwidth=2]
    2 -> 217 [penwidth=2]
    2 -> 94 [penwidth=2]
    2 -> 219 [penwidth=2]
    2 -> 144 [penwidth=2]
    2 -> 185 [penwidth=2]
    2 -> 143 [penwidth=2]
    2 -> 212 [penwidth=2]
    2 -> 138 [penwidth=2]
    2 -> 104 [penwidth=2]
    2 -> 203 [penwidth=2]
    2 -> 192 [penwidth=2]
    2 -> 202 [penwidth=2]
    2 -> 145 [penwidth=2]
    2 -> 102 [penwidth=2]
    2 -> 142 [penwidth=2]
    2 -> 147 [penwidth=2]
    2 -> 106 [penwidth=2]
    2 -> 137 [penwidth=2]
    2 -> 201 [penwidth=2]
    2 -> 140 [penwidth=2]
    2 -> 208 [penwidth=2]
    2 -> 99 [penwidth=2]
    2 -> 209 [penwidth=2]
    2 -> 101 [penwidth=2]
    2 -> 210 [penwidth=2]
    2 -> 191 [penwidth=2]
    2 -> 190 [penwidth=2]
    2 -> 194 [penwidth=2]
    2 -> 206 [penwidth=2]
    2 -> 186 [penwidth=2]
    2 -> 136 [penwidth=2]
    2 -> 103 [penwidth=2]
    2 -> 204 [penwidth=2]
    2 -> 197 [penwidth=2]
    2 -> 216 [penwidth=2]
    2 -> 193 [penwidth=2]
    2 -> 215 [penwidth=2]
    2 -> 139 [penwidth=2]
    2 -> 105 [penwidth=2]
    300 -> 187 [penwidth=2]
    300 -> 146 [penwidth=2]
    300 -> 219 [penwidth=2]
    300 -> 147 [penwidth=2]
    300 -> 214 [penwidth=2]
    300 -> 103 [penwidth=2]
    300 -> 215 [penwidth=2]
    300 -> 200 [penwidth=2]
    300 -> 217 [penwidth=2]
    300 -> 198 [penwidth=2]
    300 -> 205 [penwidth=2]
    300 -> 136 [penwidth=2]
    300 -> 99 [penwidth=2]
    300 -> 144 [penwidth=2]
    300 -> 203 [penwidth=2]
    300 -> 97 [penwidth=2]
    300 -> 138 [penwidth=2]
    300 -> 207 [penwidth=2]
    300 -> 218 [penwidth=2]
    300 -> 140 [penwidth=2]
    300 -> 184 [penwidth=2]
    300 -> 193 [penwidth=2]
    300 -> 139 [penwidth=2]
    300 -> 210 [penwidth=2]
    300 -> 137 [penwidth=2]
    300 -> 196 [penwidth=2]
    300 -> 197 [penwidth=2]
    300 -> 216 [penwidth=2]
    300 -> 199 [penwidth=2]
    300 -> 95 [penwidth=2]
    300 -> 143 [penwidth=2]
    300 -> 142 [penwidth=2]
    300 -> 213 [penwidth=2]
    300 -> 105 [penwidth=2]
    300 -> 188 [penwidth=2]
    300 -> 206 [penwidth=2]
    300 -> 185 [penwidth=2]
    300 -> 194 [penwidth=2]
    300 -> 186 [penwidth=2]
    300 -> 189 [penwidth=2]
    300 -> 141 [penwidth=2]
    300 -> 190 [penwidth=2]
    300 -> 94 [penwidth=2]
    300 -> 104 [penwidth=2]
    300 -> 145 [penwidth=2]
    300 -> 100 [penwidth=2]
    300 -> 96 [penwidth=2]
    300 -> 201 [penwidth=2]
    300 -> 191 [penwidth=2]
    300 -> 208 [penwidth=2]
    229 -> 94 [penwidth=2]
    229 -> 214 [penwidth=2]
    229 -> 189 [penwidth=2]
    229 -> 141 [penwidth=2]
    229 -> 143 [penwidth=2]
    229 -> 187 [penwidth=2]
    229 -> 138 [penwidth=2]
    229 -> 185 [penwidth=2]
    229 -> 193 [penwidth=2]
    229 -> 201 [penwidth=2]
    229 -> 96 [penwidth=2]
    229 -> 215 [penwidth=2]
    229 -> 183 [penwidth=2]
    229 -> 184 [penwidth=2]
    229 -> 197 [penwidth=2]
    229 -> 99 [penwidth=2]
    229 -> 103 [penwidth=2]
    229 -> 198 [penwidth=2]
    229 -> 188 [penwidth=2]
    229 -> 211 [penwidth=2]
    229 -> 144 [penwidth=2]
    229 -> 204 [penwidth=2]
    229 -> 97 [penwidth=2]
    229 -> 102 [penwidth=2]
    229 -> 207 [penwidth=2]
    229 -> 196 [penwidth=2]
    229 -> 182 [penwidth=2]
    229 -> 206 [penwidth=2]
    234 -> 102 [penwidth=2]
    234 -> 205 [penwidth=2]
    234 -> 193 [penwidth=2]
    234 -> 196 [penwidth=2]
    234 -> 96 [penwidth=2]
    234 -> 136 [penwidth=2]
    234 -> 187 [penwidth=2]
    234 -> 209 [penwidth=2]
    234 -> 216 [penwidth=2]
    234 -> 146 [penwidth=2]
    234 -> 185 [penwidth=2]
    234 -> 188 [penwidth=2]
    234 -> 182 [penwidth=2]
    234 -> 98 [penwidth=2]
    234 -> 201 [penwidth=2]
    234 -> 204 [penwidth=2]
    234 -> 197 [penwidth=2]
    234 -> 194 [penwidth=2]
    234 -> 190 [penwidth=2]
    234 -> 100 [penwidth=2]
    234 -> 212 [penwidth=2]
    234 -> 191 [penwidth=2]
    234 -> 198 [penwidth=2]
    234 -> 106 [penwidth=2]
    234 -> 94 [penwidth=2]
    234 -> 218 [penwidth=2]
    234 -> 199 [penwidth=2]
    234 -> 208 [penwidth=2]
    234 -> 184 [penwidth=2]
    234 -> 103 [penwidth=2]
    234 -> 97 [penwidth=2]
    234 -> 139 [penwidth=2]
    234 -> 140 [penwidth=2]
    234 -> 142 [penwidth=2]
    234 -> 200 [penwidth=2]
    234 -> 104 [penwidth=2]
    234 -> 183 [penwidth=2]
    234 -> 101 [penwidth=2]
    234 -> 217 [penwidth=2]
    234 -> 105 [penwidth=2]
    234 -> 215 [penwidth=2]
    234 -> 186 [penwidth=2]
    234 -> 144 [penwidth=2]
    234 -> 195 [penwidth=2]
    234 -> 138 [penwidth=2]
    251 -> 141 [penwidth=2]
    251 -> 137 [penwidth=2]
    251 -> 185 [penwidth=2]
    251 -> 186 [penwidth=2]
    251 -> 97 [penwidth=2]
    251 -> 188 [penwidth=2]
    251 -> 146 [penwidth=2]
    251 -> 211 [penwidth=2]
    251 -> 215 [penwidth=2]
    251 -> 191 [penwidth=2]
    251 -> 101 [penwidth=2]
    251 -> 144 [penwidth=2]
    251 -> 100 [penwidth=2]
    251 -> 182 [penwidth=2]
    251 -> 138 [penwidth=2]
    251 -> 192 [penwidth=2]
    251 -> 203 [penwidth=2]
    251 -> 106 [penwidth=2]
    251 -> 143 [penwidth=2]
    251 -> 103 [penwidth=2]
    251 -> 214 [penwidth=2]
    254 -> 147 [penwidth=2]
    254 -> 200 [penwidth=2]
    254 -> 142 [penwidth=2]
    254 -> 98 [penwidth=2]
    254 -> 214 [penwidth=2]
    254 -> 191 [penwidth=2]
    254 -> 211 [penwidth=2]
    254 -> 202 [penwidth=2]
    254 -> 186 [penwidth=2]
    254 -> 213 [penwidth=2]
    254 -> 209 [penwidth=2]
    260 -> 104 [penwidth=2]
    260 -> 213 [penwidth=2]
    260 -> 183 [penwidth=2]
    260 -> 137 [penwidth=2]
    260 -> 195 [penwidth=2]
    260 -> 139 [penwidth=2]
    260 -> 208 [penwidth=2]
    260 -> 189 [penwidth=2]
    260 -> 201 [penwidth=2]
    260 -> 185 [penwidth=2]
    260 -> 188 [penwidth=2]
    260 -> 182 [penwidth=2]
    260 -> 190 [penwidth=2]
}