digraph G {
    0 [penwidth=3,label="0"]
    1 [penwidth=3,label="1"]
    2 [penwidth=3,label="2"]
    3 [penwidth=3,label="3"]
    4 [penwidth=3,label="4"]
    5 [penwidth=3,label="5"]
    6 [penwidth=3,label="6"]
    7 [penwidth=3,label="7"]
    8 [penwidth=3,label="8"]
    9 [penwidth=3,label="9"]
    10 [penwidth=3,label="10"]
    11 [penwidth=3,label="11"]
    12 [penwidth=3,label="12"]
    13 [penwidth=3,label="13"]
    14 [penwidth=3,label="14"]
    15 [penwidth=3,label="15"]
    16 [penwidth=3,label="16"]
    17 [penwidth=3,label="17"]
    18 [penwidth=3,label="18"]
    19 [penwidth=3,label="19"]
    20 [penwidth=3,label="20"]
    21 [penwidth=3,label="21"]
    22 [penwidth=3,label="22"]
    23 [penwidth=3,label="23"]
    24 [penwidth=3,label="24"]
    25 [penwidth=3,label="25"]
    26 [penwidth=3,label="26"]
    27 [penwidth=3,label="27"]
    28 [penwidth=3,label="28"]
    29 [penwidth=3,label="29"]
    30 [penwidth=3,label="30"]
    31 [penwidth=3,label="31"]
    32 [penwidth=3,label="32"]
    33 [penwidth=3,label="33"]
    34 [penwidth=3,label="34"]
    35 [penwidth=3,label="35"]
    36 [penwidth=3,label="36"]
    37 [penwidth=3,label="37"]
    38 [penwidth=3,label="38"]
    39 [penwidth=3,label="39"]
    40 [penwidth=3,label="40"]
    41 [penwidth=3,label="41"]
    42 [penwidth=3,label="42"]
    43 [penwidth=3,label="43"]
    44 [penwidth=3,label="44"]
    45 [penwidth=3,label="45"]
    46 [penwidth=3,label="46"]
    47 [penwidth=3,label="47"]
    48 [penwidth=3,label="48"]
    49 [penwidth=3,label="49"]
    50 [penwidth=3,label="50"]
    51 [penwidth=3,label="51"]
    52 [penwidth=3,label="52"]
    53 [penwidth=3,label="53"]
    54 [penwidth=3,label="54"]
    55 [penwidth=3,label="55"]
    56 [penwidth=3,label="56"]
    57 [penwidth=3,label="57"]
    58 [penwidth=3,label="58"]
    59 [penwidth=3,label="59"]
    60 [penwidth=3,label="60"]
    61 [penwidth=3,label="61"]
    62 [penwidth=3,label="62"]
    63 [penwidth=3,label="63"]
    64 [penwidth=3,label="64"]
    65 [penwidth=3,label="65"]
    66 [penwidth=3,label="66"]
    67 [penwidth=3,label="67"]
    68 [penwidth=3,label="68"]
    69 [penwidth=3,label="69"]
    70 [penwidth=3,label="70"]
    71 [penwidth=3,label="71"]
    72 [penwidth=3,label="72"]
    73 [penwidth=3,label="73"]
    74 [penwidth=3,label="74"]
    75 [penwidth=3,label="75"]
    76 [penwidth=3,label="76"]
    77 [penwidth=3,label="77"]
    78 [penwidth=3,label="78"]
    79 [penwidth=3,label="79"]
    80 [penwidth=3,label="80"]
    81 [penwidth=3,label="81"]
    82 [penwidth=3,label="82"]
    83 [penwidth=3,label="83"]
    84 [penwidth=3,label="84"]
    85 [penwidth=3,label="85"]
    86 [penwidth=3,label="86"]
    87 [penwidth=3,label="87"]
    88 [penwidth=3,label="88"]
    89 [penwidth=3,label="89"]
    90 [penwidth=3,label="90"]
    91 [penwidth=3,label="91"]
    92 [penwidth=3,label="92"]
    93 [penwidth=3,label="93"]
    94 [penwidth=3,label="94"]
    95 [penwidth=3,label="95"]
    96 [penwidth=3,label="96"]
    97 [penwidth=3,label="97"]
    98 [penwidth=3,label="98"]
    99 [penwidth=3,label="99"]
    100 [penwidth=3,label="100"]
    101 [penwidth=3,label="101"]
    102 [penwidth=3,label="102"]
    103 [penwidth=3,label="103"]
    104 [penwidth=3,label="104"]
    105 [penwidth=3,label="105"]
    106 [penwidth=3,label="106"]
    107 [penwidth=3,label="107"]
    108 [penwidth=3,label="108"]
    109 [penwidth=3,label="109"]
    110 [penwidth=3,label="110"]
    111 [penwidth=3,label="111"]
    112 [penwidth=3,label="112"]
    113 [penwidth=3,label="113"]
    114 [penwidth=3,label="114"]
    115 [penwidth=3,label="115"]
    116 [penwidth=3,label="116"]
    117 [penwidth=3,label="117"]
    118 [penwidth=3,label="118"]
    119 [penwidth=3,label="119"]
    120 [penwidth=3,label="120"]
    121 [penwidth=3,label="121"]
    122 [penwidth=3,label="122"]
    123 [penwidth=3,label="123"]
    124 [penwidth=3,label="124"]
    125 [penwidth=3,label="125"]
    126 [penwidth=3,label="126"]
    127 [penwidth=3,label="127"]
    128 [penwidth=3,label="128"]
    129 [penwidth=3,label="129"]
    130 [penwidth=3,label="130"]
    131 [penwidth=3,label="131"]
    132 [penwidth=3,label="132"]
    133 [penwidth=3,label="133"]
    134 [penwidth=3,label="134"]
    135 [penwidth=3,label="135"]
    136 [penwidth=3,label="136"]
    137 [penwidth=3,label="137"]
    138 [penwidth=3,label="138"]
    139 [penwidth=3,label="139"]
    140 [penwidth=3,label="140"]
    141 [penwidth=3,label="141"]
    142 [penwidth=3,label="142"]
    143 [penwidth=3,label="143"]
    144 [penwidth=3,label="144"]
    145 [penwidth=3,label="145"]
    146 [penwidth=3,label="146"]
    147 [penwidth=3,label="147"]
    148 [penwidth=3,label="148"]
    149 [penwidth=3,label="149"]
    150 [penwidth=3,label="150"]
    151 [penwidth=3,label="151"]
    152 [penwidth=3,label="152"]
    153 [penwidth=3,label="153"]
    154 [penwidth=3,label="154"]
    155 [penwidth=3,label="155"]
    156 [penwidth=3,label="156"]
    157 [penwidth=3,label="157"]
    158 [penwidth=3,label="158"]
    159 [penwidth=3,label="159"]
    160 [penwidth=3,label="160"]
    161 [penwidth=3,label="161"]
    162 [penwidth=3,label="162"]
    163 [penwidth=3,label="163"]
    164 [penwidth=3,label="164"]
    165 [penwidth=3,label="165"]
    166 [penwidth=3,label="166"]
    167 [penwidth=3,label="167"]
    168 [penwidth=3,label="168"]
    169 [penwidth=3,label="169"]
    170 [penwidth=3,label="170"]
    171 [penwidth=3,label="171"]
    172 [penwidth=3,label="172"]
    173 [penwidth=3,label="173"]
    174 [penwidth=3,label="174"]
    175 [penwidth=3,label="175"]
    176 [penwidth=3,label="176"]
    177 [penwidth=3,label="177"]
    178 [penwidth=3,label="178"]
    179 [penwidth=3,label="179"]
    180 [penwidth=3,label="180"]
    181 [penwidth=3,label="181"]
    182 [penwidth=3,label="182"]
    183 [penwidth=3,label="183"]
    184 [penwidth=3,label="184"]
    185 [penwidth=3,label="185"]
    186 [penwidth=3,label="186"]
    187 [penwidth=3,label="187"]
    188 [penwidth=3,label="188"]
    189 [penwidth=3,label="189"]
    190 [penwidth=3,label="190"]
    191 [penwidth=3,label="191"]
    192 [penwidth=3,label="192"]
    193 [penwidth=3,label="193"]
    194 [penwidth=3,label="194"]
    195 [penwidth=3,label="195"]
    196 [penwidth=3,label="196"]
    197 [penwidth=3,label="197"]
    198 [penwidth=3,label="198"]
    199 [penwidth=3,label="199"]
    200 [penwidth=3,label="200"]
    201 [penwidth=3,label="201"]
    202 [penwidth=3,label="202"]
    203 [penwidth=3,label="203"]
    204 [penwidth=3,label="204"]
    205 [penwidth=3,label="205"]
    206 [penwidth=3,label="206"]
    207 [penwidth=3,label="207"]
    208 [penwidth=3,label="208"]
    209 [penwidth=3,label="209"]
    210 [penwidth=3,label="210"]
    211 [penwidth=3,label="211"]
    212 [penwidth=3,label="212"]
    213 [penwidth=3,label="213"]
    214 [penwidth=3,label="214"]
    215 [penwidth=3,label="215"]
    216 [penwidth=3,label="216"]
    217 [penwidth=3,label="217"]
    218 [penwidth=3,label="218"]
    219 [penwidth=3,label="219"]
    220 [penwidth=3,label="220"]
    221 [penwidth=3,label="221"]
    222 [penwidth=3,label="222"]
    223 [penwidth=3,label="223"]
    224 [penwidth=3,label="224"]
    225 [penwidth=3,label="225"]
    226 [penwidth=3,label="226"]
    227 [penwidth=3,label="227"]
    228 [penwidth=3,label="228"]
    229 [penwidth=3,label="229"]
    230 [penwidth=3,label="230"]
    231 [penwidth=3,label="231"]
    232 [penwidth=3,label="232"]
    233 [penwidth=3,label="233"]
    234 [penwidth=3,label="234"]
    235 [penwidth=3,label="235"]
    236 [penwidth=3,label="236"]
    237 [penwidth=3,label="237"]
    238 [penwidth=3,label="238"]
    239 [penwidth=3,label="239"]
    240 [penwidth=3,label="240"]
    241 [penwidth=3,label="241"]
    242 [penwidth=3,label="242"]
    243 [penwidth=3,label="243"]
    244 [penwidth=3,label="244"]
    245 [penwidth=3,label="245"]
    246 [penwidth=3,label="246"]
    247 [penwidth=3,label="247"]
    248 [penwidth=3,label="248"]
    249 [penwidth=3,label="249"]
    250 [penwidth=3,label="250"]
    251 [penwidth=3,label="251"]
    252 [penwidth=3,label="252"]
    253 [penwidth=3,label="253"]
    254 [penwidth=3,label="254"]
    255 [penwidth=3,label="255"]
    256 [penwidth=3,label="256"]
    257 [penwidth=3,label="257"]
    258 [penwidth=3,label="258"]
    259 [penwidth=3,label="259"]
    260 [penwidth=3,label="260"]
    261 [penwidth=3,label="261"]
    262 [penwidth=3,label="262"]
    263 [penwidth=3,label="263"]
    264 [penwidth=3,label="264"]
    265 [penwidth=3,label="265"]
    266 [penwidth=3,label="266"]
    267 [penwidth=3,label="267"]
    268 [penwidth=3,label="268"]
    269 [penwidth=3,label="269"]
    270 [penwidth=3,label="270"]
    271 [penwidth=3,label="271"]
    272 [penwidth=3,label="272"]
    273 [penwidth=3,label="273"]
    274 [penwidth=3,label="274"]
    275 [penwidth=3,label="275"]
    276 [penwidth=3,label="276"]
    277 [penwidth=3,label="277"]
    278 [penwidth=3,label="278"]
    279 [penwidth=3,label="279"]
    280 [penwidth=3,label="280"]
    281 [penwidth=3,label="281"]
    282 [penwidth=3,label="282"]
    283 [penwidth=3,label="283"]
    284 [penwidth=3,label="284"]
    285 [penwidth=3,label="285"]
    286 [penwidth=3,label="286"]
    287 [penwidth=3,label="287"]
    288 [penwidth=3,label="288"]
    289 [penwidth=3,label="289"]
    290 [penwidth=3,label="290"]
    291 [penwidth=3,label="291"]
    292 [penwidth=3,label="292"]
    293 [penwidth=3,label="293"]
    294 [penwidth=3,label="294"]
    295 [penwidth=3,label="295"]
    296 [penwidth=3,label="296"]
    297 [penwidth=3,label="297"]
    298 [penwidth=3,label="298"]
    299 [penwidth=3,label="299"]
    300 [penwidth=3,label="300"]
    301 [penwidth=3,label="301"]
    302 [penwidth=3,label="302"]
    303 [penwidth=3,label="303"]
    304 [penwidth=3,label="304"]
    305 [penwidth=3,label="305"]
    306 [penwidth=3,label="306"]
    307 [penwidth=3,label="307"]
    308 [penwidth=3,label="308"]
    309 [penwidth=3,label="309"]

    12 -> 0 [penwidth=2]
    13 -> 0 [penwidth=2]
    14 -> 0 [penwidth=2]
    15 -> 12 [penwidth=2]
    16 -> 12 [penwidth=2]
    17 -> 12 [penwidth=2]
    18 -> 12 [penwidth=2]
    19 -> 12 [penwidth=2]
    20 -> 12 [penwidth=2]
    21 -> 12 [penwidth=2]
    22 -> 12 [penwidth=2]
    23 -> 12 [penwidth=2]
    24 -> 12 [penwidth=2]
    25 -> 12 [penwidth=2]
    26 -> 12 [penwidth=2]
    27 -> 12 [penwidth=2]
    28 -> 12 [penwidth=2]
    29 -> 12 [penwidth=2]
    30 -> 12 [penwidth=2]
    31 -> 12 [penwidth=2]
    32 -> 12 [penwidth=2]
    33 -> 12 [penwidth=2]
    34 -> 12 [penwidth=2]
    35 -> 12 [penwidth=2]
    36 -> 12 [penwidth=2]
    37 -> 12 [penwidth=2]
    38 -> 12 [penwidth=2]
    39 -> 12 [penwidth=2]
    40 -> 13 [penwidth=2]
    41 -> 13 [penwidth=2]
    42 -> 13 [penwidth=2]
    43 -> 13 [penwidth=2]
    44 -> 13 [penwidth=2]
    45 -> 13 [penwidth=2]
    46 -> 13 [penwidth=2]
    47 -> 13 [penwidth=2]
    48 -> 13 [penwidth=2]
    49 -> 13 [penwidth=2]
    50 -> 13 [penwidth=2]
    51 -> 13 [penwidth=2]
    52 -> 13 [penwidth=2]
    53 -> 13 [penwidth=2]
    306 -> 13 [penwidth=2]
    307 -> 13 [penwidth=2]
    308 -> 13 [penwidth=2]
    309 -> 13 [penwidth=2]
    1 -> 13 [penwidth=2]
    2 -> 13 [penwidth=2]
    3 -> 13 [penwidth=2]
    4 -> 13 [penwidth=2]
    5 -> 14 [penwidth=2]
    6 -> 14 [penwidth=2]
    7 -> 14 [penwidth=2]
    8 -> 14 [penwidth=2]
    9 -> 14 [penwidth=2]
    10 -> 14 [penwidth=2]
    11 -> 14 [penwidth=2]
    264 -> 14 [penwidth=2]
    265 -> 14 [penwidth=2]
    266 -> 14 [penwidth=2]
    267 -> 14 [penwidth=2]
    268 -> 14 [penwidth=2]
    269 -> 14 [penwidth=2]
    270 -> 14 [penwidth=2]
    271 -> 14 [penwidth=2]
    272 -> 14 [penwidth=2]
    273 -> 14 [penwidth=2]
    274 -> 14 [penwidth=2]
    275 -> 14 [penwidth=2]
    276 -> 14 [penwidth=2]
    277 -> 14 [penwidth=2]
    278 -> 14 [penwidth=2]
    279 -> 14 [penwidth=2]
    280 -> 14 [penwidth=2]
    281 -> 14 [penwidth=2]
    282 -> 14 [penwidth=2]
    283 -> 15 [penwidth=2]
    284 -> 15 [penwidth=2]
    285 -> 15 [penwidth=2]
    286 -> 15 [penwidth=2]
    287 -> 15 [penwidth=2]
    288 -> 15 [penwidth=2]
    289 -> 15 [penwidth=2]
    290 -> 15 [penwidth=2]
    291 -> 15 [penwidth=2]
    292 -> 15 [penwidth=2]
    293 -> 15 [penwidth=2]
    294 -> 15 [penwidth=2]
    295 -> 15 [penwidth=2]
    296 -> 15 [penwidth=2]
    297 -> 15 [penwidth=2]
    298 -> 15 [penwidth=2]
    299 -> 15 [penwidth=2]
    300 -> 15 [penwidth=2]
    301 -> 15 [penwidth=2]
    302 -> 15 [penwidth=2]
    303 -> 15 [penwidth=2]
    304 -> 15 [penwidth=2]
    305 -> 15 [penwidth=2]
    180 -> 15 [penwidth=2]
    222 -> 16 [penwidth=2]
    181 -> 16 [penwidth=2]
    223 -> 16 [penwidth=2]
    182 -> 16 [penwidth=2]
    224 -> 16 [penwidth=2]
    183 -> 16 [penwidth=2]
    225 -> 16 [penwidth=2]
    184 -> 16 [penwidth=2]
    226 -> 16 [penwidth=2]
    185 -> 16 [penwidth=2]
    227 -> 16 [penwidth=2]
    186 -> 16 [penwidth=2]
    228 -> 16 [penwidth=2]
    187 -> 16 [penwidth=2]
    229 -> 16 [penwidth=2]
    188 -> 16 [penwidth=2]
    230 -> 17 [penwidth=2]
    189 -> 17 [penwidth=2]
    231 -> 17 [penwidth=2]
    190 -> 17 [penwidth=2]
    232 -> 17 [penwidth=2]
    191 -> 17 [penwidth=2]
    233 -> 17 [penwidth=2]
    192 -> 17 [penwidth=2]
    234 -> 17 [penwidth=2]
    193 -> 17 [penwidth=2]
    235 -> 17 [penwidth=2]
    194 -> 17 [penwidth=2]
    236 -> 17 [penwidth=2]
    195 -> 17 [penwidth=2]
    237 -> 17 [penwidth=2]
    196 -> 17 [penwidth=2]
    238 -> 17 [penwidth=2]
    197 -> 17 [penwidth=2]
    239 -> 18 [penwidth=2]
    198 -> 18 [penwidth=2]
    240 -> 18 [penwidth=2]
    199 -> 18 [penwidth=2]
    241 -> 18 [penwidth=2]
    200 -> 18 [penwidth=2]
    242 -> 18 [penwidth=2]
    201 -> 18 [penwidth=2]
    243 -> 18 [penwidth=2]
    202 -> 18 [penwidth=2]
    244 -> 18 [penwidth=2]
    203 -> 18 [penwidth=2]
    245 -> 18 [penwidth=2]
    204 -> 18 [penwidth=2]
    246 -> 18 [penwidth=2]
    205 -> 18 [penwidth=2]
    247 -> 18 [penwidth=2]
    206 -> 18 [penwidth=2]
    248 -> 18 [penwidth=2]
    207 -> 18 [penwidth=2]
    249 -> 18 [penwidth=2]
    208 -> 18 [penwidth=2]
    250 -> 18 [penwidth=2]
    209 -> 18 [penwidth=2]
    251 -> 18 [penwidth=2]
    210 -> 18 [penwidth=2]
    252 -> 19 [penwidth=2]
    211 -> 19 [penwidth=2]
    253 -> 19 [penwidth=2]
    212 -> 19 [penwidth=2]
    254 -> 19 [penwidth=2]
    213 -> 20 [penwidth=2]
    255 -> 20 [penwidth=2]
    214 -> 20 [penwidth=2]
    256 -> 20 [penwidth=2]
    215 -> 20 [penwidth=2]
    257 -> 20 [penwidth=2]
    216 -> 20 [penwidth=2]
    258 -> 20 [penwidth=2]
    217 -> 20 [penwidth=2]
    259 -> 20 [penwidth=2]
    218 -> 20 [penwidth=2]
    260 -> 20 [penwidth=2]
    219 -> 21 [penwidth=2]
    261 -> 21 [penwidth=2]
    220 -> 21 [penwidth=2]
    262 -> 21 [penwidth=2]
    221 -> 21 [penwidth=2]
    263 -> 21 [penwidth=2]
    54 -> 21 [penwidth=2]
    96 -> 21 [penwidth=2]
    138 -> 21 [penwidth=2]
    55 -> 21 [penwidth=2]
    97 -> 21 [penwidth=2]
    139 -> 21 [penwidth=2]
    56 -> 21 [penwidth=2]
    98 -> 21 [penwidth=2]
    140 -> 21 [penwidth=2]
    57 -> 22 [penwidth=2]
    99 -> 22 [penwidth=2]
    141 -> 22 [penwidth=2]
    58 -> 22 [penwidth=2]
    100 -> 22 [penwidth=2]
    142 -> 22 [penwidth=2]
    59 -> 22 [penwidth=2]
    101 -> 22 [penwidth=2]
    143 -> 22 [penwidth=2]
    60 -> 22 [penwidth=2]
    102 -> 22 [penwidth=2]
    144 -> 22 [penwidth=2]
    61 -> 23 [penwidth=2]
    103 -> 23 [penwidth=2]
    145 -> 23 [penwidth=2]
    62 -> 23 [penwidth=2]
    104 -> 23 [penwidth=2]
    146 -> 23 [penwidth=2]
    63 -> 23 [penwidth=2]
    105 -> 23 [penwidth=2]
    147 -> 23 [penwidth=2]
    64 -> 24 [penwidth=2]
    106 -> 24 [penwidth=2]
    148 -> 24 [penwidth=2]
    65 -> 24 [penwidth=2]
    107 -> 24 [penwidth=2]
    149 -> 25 [penwidth=2]
    66 -> 25 [penwidth=2]
    108 -> 25 [penwidth=2]
    150 -> 25 [penwidth=2]
    67 -> 25 [penwidth=2]
    109 -> 25 [penwidth=2]
    151 -> 25 [penwidth=2]
    68 -> 25 [penwidth=2]
    110 -> 25 [penwidth=2]
    152 -> 25 [penwidth=2]
    69 -> 25 [penwidth=2]
    111 -> 25 [penwidth=2]
    153 -> 25 [penwidth=2]
    70 -> 25 [penwidth=2]
    112 -> 25 [penwidth=2]
    154 -> 25 [penwidth=2]
    71 -> 25 [penwidth=2]
    113 -> 25 [penwidth=2]
    155 -> 25 [penwidth=2]
    72 -> 25 [penwidth=2]
    114 -> 26 [penwidth=2]
    156 -> 26 [penwidth=2]
    73 -> 26 [penwidth=2]
    115 -> 26 [penwidth=2]
    157 -> 26 [penwidth=2]
    74 -> 26 [penwidth=2]
    116 -> 26 [penwidth=2]
    158 -> 26 [penwidth=2]
    75 -> 26 [penwidth=2]
    117 -> 26 [penwidth=2]
    159 -> 26 [penwidth=2]
    76 -> 26 [penwidth=2]
    118 -> 26 [penwidth=2]
    160 -> 26 [penwidth=2]
    77 -> 26 [penwidth=2]
    119 -> 26 [penwidth=2]
    161 -> 26 [penwidth=2]
    78 -> 26 [penwidth=2]
    120 -> 26 [penwidth=2]
    162 -> 27 [penwidth=2]
    79 -> 27 [penwidth=2]
    121 -> 27 [penwidth=2]
    163 -> 27 [penwidth=2]
    80 -> 27 [penwidth=2]
    122 -> 27 [penwidth=2]
    164 -> 27 [penwidth=2]
    81 -> 27 [penwidth=2]
    123 -> 27 [penwidth=2]
    165 -> 27 [penwidth=2]
    82 -> 27 [penwidth=2]
    124 -> 27 [penwidth=2]
    166 -> 27 [penwidth=2]
    83 -> 27 [penwidth=2]
    125 -> 27 [penwidth=2]
    167 -> 27 [penwidth=2]
    84 -> 27 [penwidth=2]
    126 -> 27 [penwidth=2]
    168 -> 28 [penwidth=2]
    85 -> 28 [penwidth=2]
    127 -> 29 [penwidth=2]
    169 -> 29 [penwidth=2]
    86 -> 29 [penwidth=2]
    128 -> 29 [penwidth=2]
    170 -> 29 [penwidth=2]
    87 -> 29 [penwidth=2]
    129 -> 29 [penwidth=2]
    171 -> 29 [penwidth=2]
    88 -> 29 [penwidth=2]
    130 -> 29 [penwidth=2]
    172 -> 29 [penwidth=2]
    89 -> 30 [penwidth=2]
    131 -> 30 [penwidth=2]
    173 -> 30 [penwidth=2]
    90 -> 30 [penwidth=2]
    132 -> 30 [penwidth=2]
    174 -> 30 [penwidth=2]
    91 -> 30 [penwidth=2]
    133 -> 30 [penwidth=2]
    175 -> 30 [penwidth=2]
    92 -> 30 [penwidth=2]
    134 -> 31 [penwidth=2]
    176 -> 31 [penwidth=2]
    93 -> 31 [penwidth=2]
    135 -> 31 [penwidth=2]
    177 -> 31 [penwidth=2]
    94 -> 31 [penwidth=2]
    136 -> 31 [penwidth=2]
    178 -> 31 [penwidth=2]
    95 -> 31 [penwidth=2]
    137 -> 32 [penwidth=2]
    179 -> 32 [penwidth=2]
    21 -> 14 [penwidth=2]
    35 -> 14 [penwidth=2]
    40 -> 14 [penwidth=2]
    268 -> 13 [penwidth=2]
    271 -> 12 [penwidth=2]
    272 -> 12 [penwidth=2]
    290 -> 274 [penwidth=2]
    290 -> 48 [penwidth=2]
    290 -> 42 [penwidth=2]
    290 -> 22 [penwidth=2]
    290 -> 265 [penwidth=2]
    290 -> 280 [penwidth=2]
    290 -> 29 [penwidth=2]
    290 -> 36 [penwidth=2]
    290 -> 275 [penwidth=2]
    290 -> 49 [penwidth=2]
    290 -> 1 [penwidth=2]
    290 -> 277 [penwidth=2]
    290 -> 35 [penwidth=2]
    290 -> 53 [penwidth=2]
    290 -> 279 [penwidth=2]
    290 -> 278 [penwidth=2]
    290 -> 34 [penwidth=2]
    290 -> 40 [penwidth=2]
    290 -> 264 [penwidth=2]
    290 -> 38 [penwidth=2]
    290 -> 282 [penwidth=2]
    292 -> 52 [penwidth=2]
    292 -> 36 [penwidth=2]
    292 -> 16 [penwidth=2]
    292 -> 39 [penwidth=2]
    292 -> 2 [penwidth=2]
    292 -> 29 [penwidth=2]
    292 -> 28 [penwidth=2]
    292 -> 37 [penwidth=2]
    292 -> 50 [penwidth=2]
    292 -> 22 [penwidth=2]
    292 -> 41 [penwidth=2]
    292 -> 26 [penwidth=2]
    292 -> 49 [penwidth=2]
    292 -> 20 [penwidth=2]
    292 -> 274 [penwidth=2]
    292 -> 277 [penwidth=2]
    292 -> 32 [penwidth=2]
    292 -> 44 [penwidth=2]
    292 -> 282 [penwidth=2]
    292 -> 33 [penwidth=2]
    302 -> 35 [penwidth=2]
    302 -> 18 [penwidth=2]
    302 -> 50 [penwidth=2]
    302 -> 271 [penwidth=2]
    302 -> 48 [penwidth=2]
    302 -> 41 [penwidth=2]
    302 -> 34 [penwidth=2]
    302 -> 25 [penwidth=2]
    302 -> 44 [penwidth=2]
    302 -> 23 [penwidth=2]
    302 -> 11 [penwidth=2]
    302 -> 308 [penwidth=2]
    302 -> 16 [penwidth=2]
    302 -> 3 [penwidth=2]
    302 -> 43 [penwidth=2]
    302 -> 264 [penwidth=2]
    302 -> 26 [penwidth=2]
    302 -> 45 [penwidth=2]
    302 -> 9 [penwidth=2]
    302 -> 29 [penwidth=2]
    302 -> 276 [penwidth=2]
    302 -> 20 [penwidth=2]
    180 -> 272 [penwidth=2]
    180 -> 34 [penwidth=2]
    180 -> 49 [penwidth=2]
    180 -> 37 [penwidth=2]
    180 -> 19 [penwidth=2]
    180 -> 44 [penwidth=2]
    180 -> 4 [penwidth=2]
    180 -> 53 [penwidth=2]
    180 -> 281 [penwidth=2]
    180 -> 264 [penwidth=2]
    180 -> 50 [penwidth=2]
    180 -> 274 [penwidth=2]
    180 -> 45 [penwidth=2]
    180 -> 1 [penwidth=2]
    180 -> 51 [penwidth=2]
    180 -> 36 [penwidth=2]
    180 -> 268 [penwidth=2]
    180 -> 3 [penwidth=2]
    180 -> 28 [penwidth=2]
    180 -> 282 [penwidth=2]
    180 -> 47 [penwidth=2]
    180 -> 2 [penwidth=2]
    180 -> 25 [penwidth=2]
    180 -> 22 [penwidth=2]
    180 -> 29 [penwidth=2]
    180 -> 278 [penwidth=2]
    180 -> 6 [penwidth=2]
    180 -> 265 [penwidth=2]
    180 -> 271 [penwidth=2]
    180 -> 279 [penwidth=2]
    180 -> 39 [penwidth=2]
    180 -> 16 [penwidth=2]
    180 -> 5 [penwidth=2]
    180 -> 20 [penwidth=2]
    180 -> 48 [penwidth=2]
    180 -> 52 [penwidth=2]
    180 -> 32 [penwidth=2]
    180 -> 308 [penwidth=2]
    180 -> 280 [penwidth=2]
    180 -> 38 [penwidth=2]
    180 -> 17 [penwidth=2]
    180 -> 42 [penwidth=2]
    180 -> 266 [penwidth=2]
    180 -> 309 [penwidth=2]
    180 -> 30 [penwidth=2]
    180 -> 269 [penwidth=2]
    180 -> 275 [penwidth=2]
    180 -> 10 [penwidth=2]
    180 -> 35 [penwidth=2]
    180 -> 21 [penwidth=2]
    180 -> 11 [penwidth=2]
    180 -> 31 [penwidth=2]
    180 -> 270 [penwidth=2]
    180 -> 40 [penwidth=2]
    180 -> 33 [penwidth=2]
    180 -> 276 [penwidth=2]
    180 -> 46 [penwidth=2]
    180 -> 8 [penwidth=2]
    180 -> 307 [penwidth=2]
    180 -> 273 [penwidth=2]
    180 -> 24 [penwidth=2]
    180 -> 7 [penwidth=2]
    180 -> 267 [penwidth=2]
    180 -> 26 [penwidth=2]
    180 -> 9 [penwidth=2]
    181 -> 50 [penwidth=2]
    181 -> 35 [penwidth=2]
    181 -> 11 [penwidth=2]
    181 -> 267 [penwidth=2]
    181 -> 8 [penwidth=2]
    181 -> 280 [penwidth=2]
    181 -> 47 [penwidth=2]
    181 -> 272 [penwidth=2]
    181 -> 20 [penwidth=2]
    181 -> 46 [penwidth=2]
    181 -> 309 [penwidth=2]
    181 -> 28 [penwidth=2]
    181 -> 39 [penwidth=2]
    181 -> 9 [penwidth=2]
    181 -> 15 [penwidth=2]
    181 -> 25 [penwidth=2]
    181 -> 7 [penwidth=2]
    181 -> 18 [penwidth=2]
    181 -> 48 [penwidth=2]
    181 -> 33 [penwidth=2]
    181 -> 45 [penwidth=2]
    181 -> 307 [penwidth=2]
    181 -> 269 [penwidth=2]
    181 -> 36 [penwidth=2]
    181 -> 38 [penwidth=2]
    181 -> 3 [penwidth=2]
    181 -> 308 [penwidth=2]
    181 -> 10 [penwidth=2]
    181 -> 271 [penwidth=2]
    181 -> 274 [penwidth=2]
    181 -> 23 [penwidth=2]
    181 -> 2 [penwidth=2]
    181 -> 29 [penwidth=2]
    181 -> 268 [penwidth=2]
    181 -> 1 [penwidth=2]
    181 -> 40 [penwidth=2]
    181 -> 5 [penwidth=2]
    181 -> 22 [penwidth=2]
    181 -> 24 [penwidth=2]
    181 -> 26 [penwidth=2]
    181 -> 21 [penwidth=2]
    181 -> 266 [penwidth=2]
    181 -> 264 [penwidth=2]
    181 -> 43 [penwidth=2]
    181 -> 273 [penwidth=2]
    181 -> 279 [penwidth=2]
    181 -> 19 [penwidth=2]
    181 -> 34 [penwidth=2]
    181 -> 278 [penwidth=2]
    181 -> 270 [penwidth=2]
    181 -> 281 [penwidth=2]
    181 -> 17 [penwidth=2]
    181 -> 53 [penwidth=2]
    181 -> 6 [penwidth=2]
    181 -> 277 [penwidth=2]
    181 -> 265 [penwidth=2]
    181 -> 4 [penwidth=2]
    226 -> 1 [penwidth=2]
    226 -> 30 [penwidth=2]
    226 -> 308 [penwidth=2]
    226 -> 39 [penwidth=2]
    226 -> 4 [penwidth=2]
    226 -> 25 [penwidth=2]
    226 -> 32 [penwidth=2]
    226 -> 271 [penwidth=2]
    226 -> 7 [penwidth=2]
    226 -> 35 [penwidth=2]
    226 -> 307 [penwidth=2]
    226 -> 45 [penwidth=2]
    226 -> 40 [penwidth=2]
    226 -> 2 [penwidth=2]
    226 -> 44 [penwidth=2]
    226 -> 264 [penwidth=2]
    226 -> 273 [penwidth=2]
    226 -> 269 [penwidth=2]
    226 -> 275 [penwidth=2]
    226 -> 37 [penwidth=2]
    226 -> 53 [penwidth=2]
    226 -> 36 [penwidth=2]
    226 -> 6 [penwidth=2]
    226 -> 17 [penwidth=2]
    226 -> 28 [penwidth=2]
    226 -> 265 [penwidth=2]
    226 -> 23 [penwidth=2]
    226 -> 11 [penwidth=2]
    226 -> 5 [penwidth=2]
    226 -> 43 [penwidth=2]
    226 -> 34 [penwidth=2]
    226 -> 49 [penwidth=2]
    226 -> 31 [penwidth=2]
    226 -> 22 [penwidth=2]
    226 -> 29 [penwidth=2]
    226 -> 276 [penwidth=2]
    226 -> 52 [penwidth=2]
    226 -> 38 [penwidth=2]
    226 -> 46 [penwidth=2]
    227 -> 2 [penwidth=2]
    227 -> 6 [penwidth=2]
    227 -> 26 [penwidth=2]
    227 -> 23 [penwidth=2]
    227 -> 52 [penwidth=2]
    227 -> 46 [penwidth=2]
    227 -> 278 [penwidth=2]
    227 -> 39 [penwidth=2]
    227 -> 266 [penwidth=2]
    227 -> 45 [penwidth=2]
    227 -> 22 [penwidth=2]
    227 -> 10 [penwidth=2]
    227 -> 11 [penwidth=2]
    227 -> 44 [penwidth=2]
    227 -> 50 [penwidth=2]
    227 -> 43 [penwidth=2]
    227 -> 273 [penwidth=2]
    227 -> 275 [penwidth=2]
    227 -> 307 [penwidth=2]
    227 -> 1 [penwidth=2]
    227 -> 281 [penwidth=2]
    227 -> 30 [penwidth=2]
    227 -> 5 [penwidth=2]
    227 -> 269 [penwidth=2]
    227 -> 32 [penwidth=2]
    227 -> 19 [penwidth=2]
    227 -> 277 [penwidth=2]
    227 -> 21 [penwidth=2]
    227 -> 274 [penwidth=2]
    227 -> 271 [penwidth=2]
    227 -> 29 [penwidth=2]
    227 -> 282 [penwidth=2]
    227 -> 270 [penwidth=2]
    227 -> 267 [penwidth=2]
    227 -> 37 [penwidth=2]
    227 -> 306 [penwidth=2]
    227 -> 38 [penwidth=2]
    227 -> 3 [penwidth=2]
    227 -> 42 [penwidth=2]
    227 -> 265 [penwidth=2]
    227 -> 20 [penwidth=2]
    227 -> 264 [penwidth=2]
    227 -> 34 [penwidth=2]
    227 -> 35 [penwidth=2]
    227 -> 41 [penwidth=2]
    227 -> 9 [penwidth=2]
    227 -> 53 [penwidth=2]
    227 -> 276 [penwidth=2]
    227 -> 308 [penwidth=2]
    227 -> 309 [penwidth=2]
    227 -> 49 [penwidth=2]
    227 -> 24 [penwidth=2]
    227 -> 36 [penwidth=2]
    227 -> 279 [penwidth=2]
    227 -> 272 [penwidth=2]
    227 -> 268 [penwidth=2]
    227 -> 51 [penwidth=2]
    227 -> 17 [penwidth=2]
    227 -> 7 [penwidth=2]
    227 -> 28 [penwidth=2]
    227 -> 48 [penwidth=2]
    188 -> 27 [penwidth=2]
    188 -> 267 [penwidth=2]
    188 -> 32 [penwidth=2]
    188 -> 49 [penwidth=2]
    188 -> 29 [penwidth=2]
    188 -> 19 [penwidth=2]
    188 -> 264 [penwidth=2]
    188 -> 15 [penwidth=2]
    188 -> 308 [penwidth=2]
    188 -> 9 [penwidth=2]
    188 -> 42 [penwidth=2]
    188 -> 1 [penwidth=2]
    188 -> 47 [penwidth=2]
    188 -> 50 [penwidth=2]
    188 -> 45 [penwidth=2]
    188 -> 269 [penwidth=2]
    188 -> 281 [penwidth=2]
    188 -> 279 [penwidth=2]
    188 -> 51 [penwidth=2]
    188 -> 274 [penwidth=2]
    188 -> 271 [penwidth=2]
    188 -> 273 [penwidth=2]
    188 -> 2 [penwidth=2]
    188 -> 43 [penwidth=2]
    188 -> 265 [penwidth=2]
    188 -> 306 [penwidth=2]
    188 -> 307 [penwidth=2]
    188 -> 4 [penwidth=2]
    188 -> 272 [penwidth=2]
    188 -> 31 [penwidth=2]
    188 -> 53 [penwidth=2]
    188 -> 28 [penwidth=2]
    188 -> 6 [penwidth=2]
    188 -> 34 [penwidth=2]
    188 -> 46 [penwidth=2]
    188 -> 39 [penwidth=2]
    188 -> 5 [penwidth=2]
    188 -> 33 [penwidth=2]
    188 -> 41 [penwidth=2]
    188 -> 8 [penwidth=2]
    188 -> 268 [penwidth=2]
    188 -> 11 [penwidth=2]
    188 -> 35 [penwidth=2]
    188 -> 17 [penwidth=2]
    188 -> 277 [penwidth=2]
    188 -> 23 [penwidth=2]
    188 -> 20 [penwidth=2]
    188 -> 21 [penwidth=2]
    188 -> 10 [penwidth=2]
    188 -> 38 [penwidth=2]
    188 -> 26 [penwidth=2]
    188 -> 278 [penwidth=2]
    188 -> 275 [penwidth=2]
    188 -> 18 [penwidth=2]
    188 -> 276 [penwidth=2]
    188 -> 7 [penwidth=2]
    188 -> 25 [penwidth=2]
    188 -> 40 [penwidth=2]
    188 -> 36 [penwidth=2]
    188 -> 52 [penwidth=2]
    188 -> 44 [penwidth=2]
    240 -> 34 [penwidth=2]
    240 -> 36 [penwidth=2]
    240 -> 52 [penwidth=2]
    240 -> 10 [penwidth=2]
    240 -> 6 [penwidth=2]
    240 -> 276 [penwidth=2]
    240 -> 32 [penwidth=2]
    240 -> 39 [penwidth=2]
    240 -> 3 [penwidth=2]
    240 -> 31 [penwidth=2]
    240 -> 15 [penwidth=2]
    240 -> 25 [penwidth=2]
    240 -> 308 [penwidth=2]
    240 -> 278 [penwidth=2]
    240 -> 20 [penwidth=2]
    240 -> 269 [penwidth=2]
    240 -> 27 [penwidth=2]
    240 -> 309 [penwidth=2]
    240 -> 35 [penwidth=2]
    240 -> 44 [penwidth=2]
    240 -> 24 [penwidth=2]
    240 -> 282 [penwidth=2]
    240 -> 264 [penwidth=2]
    240 -> 43 [penwidth=2]
    240 -> 275 [penwidth=2]
    240 -> 7 [penwidth=2]
    240 -> 47 [penwidth=2]
    240 -> 46 [penwidth=2]
    240 -> 50 [penwidth=2]
    240 -> 280 [penwidth=2]
    240 -> 42 [penwidth=2]
    240 -> 23 [penwidth=2]
    240 -> 4 [penwidth=2]
    240 -> 17 [penwidth=2]
    240 -> 19 [penwidth=2]
    240 -> 53 [penwidth=2]
    240 -> 1 [penwidth=2]
    240 -> 271 [penwidth=2]
    240 -> 41 [penwidth=2]
    240 -> 29 [penwidth=2]
    240 -> 48 [penwidth=2]
    240 -> 28 [penwidth=2]
    240 -> 5 [penwidth=2]
    240 -> 33 [penwidth=2]
    240 -> 37 [penwidth=2]
    240 -> 21 [penwidth=2]
    240 -> 9 [penwidth=2]
    240 -> 279 [penwidth=2]
    240 -> 16 [penwidth=2]
    240 -> 45 [penwidth=2]
    240 -> 2 [penwidth=2]
    240 -> 265 [penwidth=2]
    240 -> 266 [penwidth=2]
    240 -> 38 [penwidth=2]
    240 -> 307 [penwidth=2]
    240 -> 267 [penwidth=2]
    240 -> 8 [penwidth=2]
    240 -> 40 [penwidth=2]
    240 -> 306 [penwidth=2]
    240 -> 272 [penwidth=2]
    241 -> 29 [penwidth=2]
    241 -> 52 [penwidth=2]
    241 -> 46 [penwidth=2]
    241 -> 43 [penwidth=2]
    241 -> 270 [penwidth=2]
    241 -> 27 [penwidth=2]
    241 -> 37 [penwidth=2]
    241 -> 275 [penwidth=2]
    241 -> 282 [penwidth=2]
    241 -> 309 [penwidth=2]
    241 -> 5 [penwidth=2]
    241 -> 40 [penwidth=2]
    241 -> 39 [penwidth=2]
    241 -> 26 [penwidth=2]
    241 -> 267 [penwidth=2]
    241 -> 308 [penwidth=2]
    241 -> 33 [penwidth=2]
    241 -> 10 [penwidth=2]
    241 -> 273 [penwidth=2]
    241 -> 306 [penwidth=2]
    241 -> 11 [penwidth=2]
    241 -> 32 [penwidth=2]
    241 -> 20 [penwidth=2]
    241 -> 49 [penwidth=2]
    241 -> 8 [penwidth=2]
    241 -> 51 [penwidth=2]
    241 -> 28 [penwidth=2]
    241 -> 264 [penwidth=2]
    241 -> 45 [penwidth=2]
    241 -> 15 [penwidth=2]
    241 -> 16 [penwidth=2]
    241 -> 266 [penwidth=2]
    241 -> 281 [penwidth=2]
    241 -> 38 [penwidth=2]
    241 -> 7 [penwidth=2]
    241 -> 31 [penwidth=2]
    241 -> 269 [penwidth=2]
    241 -> 22 [penwidth=2]
    241 -> 271 [penwidth=2]
    241 -> 274 [penwidth=2]
    241 -> 35 [penwidth=2]
    241 -> 41 [penwidth=2]
    241 -> 19 [penwidth=2]
    241 -> 30 [penwidth=2]
    241 -> 268 [penwidth=2]
    241 -> 278 [penwidth=2]
    241 -> 4 [penwidth=2]
    241 -> 307 [penwidth=2]
    249 -> 21 [penwidth=2]
    213 -> 278 [penwidth=2]
    213 -> 271 [penwidth=2]
    213 -> 19 [penwidth=2]
    213 -> 47 [penwidth=2]
    213 -> 270 [penwidth=2]
    213 -> 25 [penwidth=2]
    213 -> 38 [penwidth=2]
    213 -> 4 [penwidth=2]
    213 -> 41 [penwidth=2]
    213 -> 28 [penwidth=2]
    213 -> 274 [penwidth=2]
    213 -> 266 [penwidth=2]
    213 -> 267 [penwidth=2]
    213 -> 264 [penwidth=2]
    213 -> 48 [penwidth=2]
    213 -> 23 [penwidth=2]
    213 -> 281 [penwidth=2]
    213 -> 10 [penwidth=2]
    213 -> 15 [penwidth=2]
    213 -> 26 [penwidth=2]
    213 -> 268 [penwidth=2]
    213 -> 32 [penwidth=2]
    213 -> 40 [penwidth=2]
    213 -> 49 [penwidth=2]
    213 -> 277 [penwidth=2]
    213 -> 27 [penwidth=2]
    213 -> 3 [penwidth=2]
    213 -> 280 [penwidth=2]
    213 -> 2 [penwidth=2]
    213 -> 42 [penwidth=2]
    213 -> 17 [penwidth=2]
    213 -> 46 [penwidth=2]
    213 -> 36 [penwidth=2]
    213 -> 21 [penwidth=2]
    213 -> 6 [penwidth=2]
    213 -> 16 [penwidth=2]
    213 -> 51 [penwidth=2]
    213 -> 309 [penwidth=2]
    213 -> 7 [penwidth=2]
    213 -> 273 [penwidth=2]
    216 -> 5 [penwidth=2]
    216 -> 27 [penwidth=2]
    216 -> 18 [penwidth=2]
    216 -> 2 [penwidth=2]
    216 -> 307 [penwidth=2]
    216 -> 21 [penwidth=2]
    216 -> 22 [penwidth=2]
    216 -> 3 [penwidth=2]
    216 -> 276 [penwidth=2]
    216 -> 51 [penwidth=2]
    216 -> 6 [penwidth=2]
    216 -> 10 [penwidth=2]
    216 -> 11 [penwidth=2]
    216 -> 278 [penwidth=2]
    216 -> 309 [penwidth=2]
    216 -> 282 [penwidth=2]
    260 -> 269 [penwidth=2]
    260 -> 48 [penwidth=2]
    260 -> 26 [penwidth=2]
    260 -> 5 [penwidth=2]
    260 -> 32 [penwidth=2]
    260 -> 35 [penwidth=2]
    260 -> 49 [penwidth=2]
    260 -> 43 [penwidth=2]
    260 -> 15 [penwidth=2]
    260 -> 6 [penwidth=2]
    260 -> 270 [penwidth=2]
    260 -> 16 [penwidth=2]
    260 -> 45 [penwidth=2]
    260 -> 50 [penwidth=2]
    260 -> 9 [penwidth=2]
    260 -> 40 [penwidth=2]
    143 -> 28 [penwidth=2]
    143 -> 34 [penwidth=2]
    143 -> 41 [penwidth=2]
    143 -> 33 [penwidth=2]
    143 -> 20 [penwidth=2]
    143 -> 272 [penwidth=2]
    143 -> 35 [penwidth=2]
    143 -> 9 [penwidth=2]
    143 -> 282 [penwidth=2]
    143 -> 273 [penwidth=2]
    143 -> 281 [penwidth=2]
    143 -> 269 [penwidth=2]
    143 -> 6 [penwidth=2]
    143 -> 7 [penwidth=2]
    143 -> 46 [penwidth=2]
    143 -> 2 [penwidth=2]
    62 -> 17 [penwidth=2]
    62 -> 278 [penwidth=2]
    146 -> 49 [penwidth=2]
    146 -> 11 [penwidth=2]
    146 -> 270 [penwidth=2]
    146 -> 16 [penwidth=2]
    146 -> 46 [penwidth=2]
    146 -> 9 [penwidth=2]
    146 -> 26 [penwidth=2]
    146 -> 22 [penwidth=2]
    146 -> 27 [penwidth=2]
    146 -> 308 [penwidth=2]
    146 -> 17 [penwidth=2]
    146 -> 6 [penwidth=2]
    146 -> 1 [penwidth=2]
    146 -> 50 [penwidth=2]
    146 -> 309 [penwidth=2]
    147 -> 4 [penwidth=2]
    147 -> 39 [penwidth=2]
    147 -> 28 [penwidth=2]
    147 -> 48 [penwidth=2]
    147 -> 274 [penwidth=2]
    147 -> 309 [penwidth=2]
    147 -> 41 [penwidth=2]
    147 -> 42 [penwidth=2]
    147 -> 277 [penwidth=2]
    147 -> 268 [penwidth=2]
    147 -> 33 [penwidth=2]
    147 -> 27 [penwidth=2]
    147 -> 307 [penwidth=2]
    147 -> 16 [penwidth=2]
    147 -> 20 [penwidth=2]
    147 -> 11 [penwidth=2]
    147 -> 270 [penwidth=2]
    147 -> 21 [penwidth=2]
    147 -> 273 [penwidth=2]
    147 -> 281 [penwidth=2]
    147 -> 40 [penwidth=2]
    147 -> 306 [penwidth=2]
    147 -> 38 [penwidth=2]
    147 -> 269 [penwidth=2]
    147 -> 264 [penwidth=2]
    147 -> 37 [penwidth=2]
    147 -> 6 [penwidth=2]
    147 -> 272 [penwidth=2]
    147 -> 9 [penwidth=2]
    147 -> 282 [penwidth=2]
    147 -> 15 [penwidth=2]
    147 -> 3 [penwidth=2]
    147 -> 52 [penwidth=2]
    147 -> 31 [penwidth=2]
    147 -> 267 [penwidth=2]
    147 -> 32 [penwidth=2]
    147 -> 49 [penwidth=2]
    147 -> 43 [penwidth=2]
    147 -> 25 [penwidth=2]
    147 -> 50 [penwidth=2]
    147 -> 17 [penwidth=2]
    147 -> 8 [penwidth=2]
    147 -> 36 [penwidth=2]
    147 -> 26 [penwidth=2]
    147 -> 276 [penwidth=2]
    147 -> 7 [penwidth=2]
    147 -> 34 [penwidth=2]
    147 -> 278 [penwidth=2]
    147 -> 53 [penwidth=2]
    147 -> 24 [penwidth=2]
    147 -> 47 [penwidth=2]
    147 -> 1 [penwidth=2]
    147 -> 19 [penwidth=2]
    147 -> 29 [penwidth=2]
    147 -> 308 [penwidth=2]
    150 -> 4 [penwidth=2]
    150 -> 52 [penwidth=2]
    150 -> 27 [penwidth=2]
    116 -> 281 [penwidth=2]
    116 -> 271 [penwidth=2]
    116 -> 269 [penwidth=2]
    116 -> 279 [penwidth=2]
    116 -> 19 [penwidth=2]
    116 -> 31 [penwidth=2]
    116 -> 264 [penwidth=2]
    116 -> 6 [penwidth=2]
    116 -> 273 [penwidth=2]
    116 -> 275 [penwidth=2]
    116 -> 22 [penwidth=2]
    116 -> 20 [penwidth=2]
    116 -> 35 [penwidth=2]
    116 -> 42 [penwidth=2]
    160 -> 52 [penwidth=2]
    160 -> 272 [penwidth=2]
    160 -> 37 [penwidth=2]
    160 -> 3 [penwidth=2]
    160 -> 271 [penwidth=2]
    160 -> 275 [penwidth=2]
    160 -> 306 [penwidth=2]
    160 -> 43 [penwidth=2]
    160 -> 46 [penwidth=2]
    160 -> 11 [penwidth=2]
    160 -> 280 [penwidth=2]
    160 -> 17 [penwidth=2]
    160 -> 42 [penwidth=2]
    160 -> 49 [penwidth=2]
    160 -> 269 [penwidth=2]
    160 -> 22 [penwidth=2]
    160 -> 266 [penwidth=2]
    160 -> 5 [penwidth=2]
    160 -> 7 [penwidth=2]
    160 -> 51 [penwidth=2]
    160 -> 274 [penwidth=2]
    160 -> 281 [penwidth=2]
    77 -> 33 [penwidth=2]
    77 -> 24 [penwidth=2]
    77 -> 27 [penwidth=2]
    77 -> 29 [penwidth=2]
    77 -> 16 [penwidth=2]
    77 -> 278 [penwidth=2]
    77 -> 9 [penwidth=2]
    77 -> 39 [penwidth=2]
    77 -> 307 [penwidth=2]
    77 -> 1 [penwidth=2]
    77 -> 2 [penwidth=2]
    77 -> 36 [penwidth=2]
    77 -> 20 [penwidth=2]
    77 -> 49 [penwidth=2]
    77 -> 51 [penwidth=2]
    77 -> 45 [penwidth=2]
    77 -> 10 [penwidth=2]
    77 -> 11 [penwidth=2]
    77 -> 41 [penwidth=2]
    77 -> 270 [penwidth=2]
    77 -> 282 [penwidth=2]
    77 -> 271 [penwidth=2]
    77 -> 46 [penwidth=2]
    77 -> 8 [penwidth=2]
    77 -> 31 [penwidth=2]
    77 -> 4 [penwidth=2]
    77 -> 53 [penwidth=2]
    77 -> 15 [penwidth=2]
    77 -> 265 [penwidth=2]
    77 -> 273 [penwidth=2]
    77 -> 21 [penwidth=2]
    77 -> 23 [penwidth=2]
    77 -> 44 [penwidth=2]
    77 -> 18 [penwidth=2]
    77 -> 34 [penwidth=2]
    77 -> 35 [penwidth=2]
    77 -> 277 [penwidth=2]
    77 -> 37 [penwidth=2]
    77 -> 281 [penwidth=2]
    77 -> 276 [penwidth=2]
    77 -> 32 [penwidth=2]
    77 -> 28 [penwidth=2]
    77 -> 48 [penwidth=2]
    77 -> 17 [penwidth=2]
    77 -> 269 [penwidth=2]
    77 -> 42 [penwidth=2]
    77 -> 268 [penwidth=2]
    77 -> 19 [penwidth=2]
    121 -> 33 [penwidth=2]
    121 -> 34 [penwidth=2]
    121 -> 264 [penwidth=2]
    121 -> 268 [penwidth=2]
    121 -> 23 [penwidth=2]
    121 -> 43 [penwidth=2]
    121 -> 274 [penwidth=2]
    121 -> 26 [penwidth=2]
    121 -> 1 [penwidth=2]
    121 -> 37 [penwidth=2]
    121 -> 17 [penwidth=2]
    121 -> 39 [penwidth=2]
    121 -> 8 [penwidth=2]
    121 -> 6 [penwidth=2]
    121 -> 5 [penwidth=2]
    121 -> 46 [penwidth=2]
    121 -> 9 [penwidth=2]
    121 -> 10 [penwidth=2]
    121 -> 275 [penwidth=2]
    121 -> 36 [penwidth=2]
    121 -> 267 [penwidth=2]
    121 -> 47 [penwidth=2]
    121 -> 3 [penwidth=2]
    121 -> 276 [penwidth=2]
    121 -> 49 [penwidth=2]
    121 -> 35 [penwidth=2]
    121 -> 281 [penwidth=2]
    121 -> 11 [penwidth=2]
    121 -> 2 [penwidth=2]
    121 -> 45 [penwidth=2]
    121 -> 309 [penwidth=2]
    121 -> 50 [penwidth=2]
    121 -> 280 [penwidth=2]
    121 -> 42 [penwidth=2]
    121 -> 15 [penwidth=2]
    121 -> 265 [penwidth=2]
    121 -> 38 [penwidth=2]
    121 -> 270 [penwidth=2]
    121 -> 32 [penwidth=2]
    166 -> 282 [penwidth=2]
    166 -> 51 [penwidth=2]
    166 -> 53 [penwidth=2]
    166 -> 272 [penwidth=2]
    166 -> 308 [penwidth=2]
    166 -> 26 [penwidth=2]
    166 -> 40 [penwidth=2]
    166 -> 32 [penwidth=2]
    166 -> 22 [penwidth=2]
    166 -> 19 [penwidth=2]
    166 -> 266 [penwidth=2]
    166 -> 36 [penwidth=2]
    166 -> 43 [penwidth=2]
    166 -> 41 [penwidth=2]
    166 -> 307 [penwidth=2]
    166 -> 276 [penwidth=2]
    166 -> 46 [penwidth=2]
    166 -> 49 [penwidth=2]
    166 -> 37 [penwidth=2]
    166 -> 20 [penwidth=2]
    166 -> 45 [penwidth=2]
    166 -> 1 [penwidth=2]
    166 -> 265 [penwidth=2]
    166 -> 4 [penwidth=2]
    166 -> 7 [penwidth=2]
    166 -> 31 [penwidth=2]
    166 -> 10 [penwidth=2]
    85 -> 307 [penwidth=2]
    85 -> 38 [penwidth=2]
    85 -> 40 [penwidth=2]
    85 -> 49 [penwidth=2]
    85 -> 42 [penwidth=2]
    85 -> 309 [penwidth=2]
    85 -> 50 [penwidth=2]
    85 -> 25 [penwidth=2]
    85 -> 39 [penwidth=2]
    85 -> 17 [penwidth=2]
    85 -> 8 [penwidth=2]
    85 -> 32 [penwidth=2]
    85 -> 3 [penwidth=2]
    85 -> 53 [penwidth=2]
    85 -> 273 [penwidth=2]
    85 -> 5 [penwidth=2]
    85 -> 2 [penwidth=2]
    85 -> 48 [penwidth=2]
    85 -> 306 [penwidth=2]
    85 -> 266 [penwidth=2]
    85 -> 23 [penwidth=2]
    85 -> 275 [penwidth=2]
    85 -> 11 [penwidth=2]
    85 -> 18 [penwidth=2]
    85 -> 21 [penwidth=2]
    85 -> 52 [penwidth=2]
    85 -> 4 [penwidth=2]
    85 -> 31 [penwidth=2]
    85 -> 26 [penwidth=2]
    85 -> 45 [penwidth=2]
    85 -> 34 [penwidth=2]
    85 -> 277 [penwidth=2]
    85 -> 271 [penwidth=2]
    85 -> 22 [penwidth=2]
    85 -> 20 [penwidth=2]
    85 -> 19 [penwidth=2]
    85 -> 29 [penwidth=2]
    85 -> 10 [penwidth=2]
    85 -> 6 [penwidth=2]
    85 -> 267 [penwidth=2]
    85 -> 269 [penwidth=2]
    85 -> 16 [penwidth=2]
    85 -> 30 [penwidth=2]
    85 -> 308 [penwidth=2]
    85 -> 279 [penwidth=2]
    85 -> 1 [penwidth=2]
    85 -> 272 [penwidth=2]
    85 -> 9 [penwidth=2]
    85 -> 276 [penwidth=2]
    85 -> 37 [penwidth=2]
    85 -> 15 [penwidth=2]
    85 -> 264 [penwidth=2]
    85 -> 51 [penwidth=2]
    85 -> 46 [penwidth=2]
    85 -> 274 [penwidth=2]
    85 -> 265 [penwidth=2]
    85 -> 280 [penwidth=2]
    85 -> 270 [penwidth=2]
    85 -> 7 [penwidth=2]
    87 -> 2 [penwidth=2]
    87 -> 38 [penwidth=2]
    87 -> 279 [penwidth=2]
    87 -> 18 [penwidth=2]
    87 -> 32 [penwidth=2]
    87 -> 42 [penwidth=2]
    87 -> 37 [penwidth=2]
    87 -> 4 [penwidth=2]
    87 -> 280 [penwidth=2]
    87 -> 19 [penwidth=2]
    87 -> 277 [penwidth=2]
    87 -> 17 [penwidth=2]
    87 -> 306 [penwidth=2]
    87 -> 45 [penwidth=2]
    87 -> 276 [penwidth=2]
    87 -> 41 [penwidth=2]
    87 -> 266 [penwidth=2]
    87 -> 10 [penwidth=2]
    87 -> 25 [penwidth=2]
    87 -> 23 [penwidth=2]
    87 -> 27 [penwidth=2]
    87 -> 35 [penwidth=2]
    87 -> 20 [penwidth=2]
    87 -> 21 [penwidth=2]
    87 -> 43 [penwidth=2]
    87 -> 50 [penwidth=2]
    87 -> 264 [penwidth=2]
    87 -> 272 [penwidth=2]
    87 -> 307 [penwidth=2]
    87 -> 36 [penwidth=2]
    87 -> 309 [penwidth=2]
    87 -> 51 [penwidth=2]
    87 -> 281 [penwidth=2]
    87 -> 30 [penwidth=2]
    87 -> 44 [penwidth=2]
    87 -> 1 [penwidth=2]
    87 -> 47 [penwidth=2]
    87 -> 11 [penwidth=2]
    87 -> 28 [penwidth=2]
    87 -> 271 [penwidth=2]
    87 -> 31 [penwidth=2]
    87 -> 265 [penwidth=2]
    87 -> 308 [penwidth=2]
    87 -> 46 [penwidth=2]
    87 -> 24 [penwidth=2]
    87 -> 49 [penwidth=2]
    91 -> 275 [penwidth=2]
    95 -> 307 [penwidth=2]
    95 -> 36 [penwidth=2]
    95 -> 29 [penwidth=2]
    95 -> 41 [penwidth=2]
    95 -> 45 [penwidth=2]
    95 -> 308 [penwidth=2]
    95 -> 27 [penwidth=2]
    95 -> 37 [penwidth=2]
    95 -> 279 [penwidth=2]
    95 -> 274 [penwidth=2]
    95 -> 281 [penwidth=2]
    95 -> 19 [penwidth=2]
    95 -> 30 [penwidth=2]
    95 -> 21 [penwidth=2]
    95 -> 6 [penwidth=2]
    95 -> 306 [penwidth=2]
    95 -> 278 [penwidth=2]
    95 -> 24 [penwidth=2]
    95 -> 49 [penwidth=2]
    95 -> 266 [penwidth=2]
    95 -> 275 [penwidth=2]
    95 -> 25 [penwidth=2]
    95 -> 277 [penwidth=2]
    95 -> 52 [penwidth=2]
    95 -> 1 [penwidth=2]
    95 -> 43 [penwidth=2]
    95 -> 53 [penwidth=2]
    95 -> 46 [penwidth=2]
    95 -> 273 [penwidth=2]
    95 -> 5 [penwidth=2]
    95 -> 22 [penwidth=2]
    95 -> 7 [penwidth=2]
    95 -> 42 [penwidth=2]
    95 -> 47 [penwidth=2]
    95 -> 270 [penwidth=2]
    95 -> 50 [penwidth=2]
    95 -> 28 [penwidth=2]
    95 -> 32 [penwidth=2]
    95 -> 9 [penwidth=2]
    95 -> 39 [penwidth=2]
    95 -> 272 [penwidth=2]
    95 -> 309 [penwidth=2]
    95 -> 16 [penwidth=2]
    95 -> 282 [penwidth=2]
    95 -> 48 [penwidth=2]
    95 -> 34 [penwidth=2]
    95 -> 15 [penwidth=2]
    95 -> 268 [penwidth=2]
    95 -> 23 [penwidth=2]
    95 -> 10 [penwidth=2]
    95 -> 269 [penwidth=2]
    95 -> 11 [penwidth=2]
    95 -> 38 [penwidth=2]
    95 -> 276 [penwidth=2]
    95 -> 26 [penwidth=2]
    95 -> 3 [penwidth=2]
    95 -> 17 [penwidth=2]
    95 -> 40 [penwidth=2]
    95 -> 33 [penwidth=2]
    95 -> 267 [penwidth=2]
    95 -> 4 [penwidth=2]
    95 -> 280 [penwidth=2]
    95 -> 264 [penwidth=2]
    95 -> 265 [penwidth=2]
    95 -> 44 [penwidth=2]
    95 -> 51 [penwidth=2]
    95 -> 271 [penwidth=2]
    95 -> 8 [penwidth=2]
    95 -> 35 [penwidth=2]
    95 -> 20 [penwidth=2]
}