digraph G {
    0 [penwidth=3,label="0"]
    1 [penwidth=3,label="1"]
    2 [penwidth=3,label="2"]
    3 [penwidth=3,label="3"]
    4 [penwidth=3,label="4"]
    5 [penwidth=3,label="5"]
    6 [penwidth=3,label="6"]
    7 [penwidth=3,label="7"]
    8 [penwidth=3,label="8"]
    9 [penwidth=3,label="9"]
    10 [penwidth=3,label="10"]
    11 [penwidth=3,label="11"]
    12 [penwidth=3,label="12"]
    13 [penwidth=3,label="13"]
    14 [penwidth=3,label="14"]
    15 [penwidth=3,label="15"]
    16 [penwidth=3,label="16"]
    17 [penwidth=3,label="17"]
    18 [penwidth=3,label="18"]
    19 [penwidth=3,label="19"]
    20 [penwidth=3,label="20"]
    21 [penwidth=3,label="21"]
    22 [penwidth=3,label="22"]
    23 [penwidth=3,label="23"]
    24 [penwidth=3,label="24"]
    25 [penwidth=3,label="25"]
    26 [penwidth=3,label="26"]
    27 [penwidth=3,label="27"]
    28 [penwidth=3,label="28"]
    29 [penwidth=3,label="29"]
    30 [penwidth=3,label="30"]
    31 [penwidth=3,label="31"]
    32 [penwidth=3,label="32"]
    33 [penwidth=3,label="33"]
    34 [penwidth=3,label="34"]
    35 [penwidth=3,label="35"]
    36 [penwidth=3,label="36"]
    37 [penwidth=3,label="37"]
    38 [penwidth=3,label="38"]
    39 [penwidth=3,label="39"]
    40 [penwidth=3,label="40"]
    41 [penwidth=3,label="41"]
    42 [penwidth=3,label="42"]
    43 [penwidth=3,label="43"]
    44 [penwidth=3,label="44"]
    45 [penwidth=3,label="45"]
    46 [penwidth=3,label="46"]
    47 [penwidth=3,label="47"]
    48 [penwidth=3,label="48"]
    49 [penwidth=3,label="49"]
    50 [penwidth=3,label="50"]
    51 [penwidth=3,label="51"]
    52 [penwidth=3,label="52"]
    53 [penwidth=3,label="53"]
    54 [penwidth=3,label="54"]
    55 [penwidth=3,label="55"]
    56 [penwidth=3,label="56"]
    57 [penwidth=3,label="57"]
    58 [penwidth=3,label="58"]
    59 [penwidth=3,label="59"]
    60 [penwidth=3,label="60"]
    61 [penwidth=3,label="61"]
    62 [penwidth=3,label="62"]
    63 [penwidth=3,label="63"]
    64 [penwidth=3,label="64"]
    65 [penwidth=3,label="65"]
    66 [penwidth=3,label="66"]
    67 [penwidth=3,label="67"]
    68 [penwidth=3,label="68"]
    69 [penwidth=3,label="69"]
    70 [penwidth=3,label="70"]
    71 [penwidth=3,label="71"]
    72 [penwidth=3,label="72"]
    73 [penwidth=3,label="73"]
    74 [penwidth=3,label="74"]
    75 [penwidth=3,label="75"]
    76 [penwidth=3,label="76"]
    77 [penwidth=3,label="77"]
    78 [penwidth=3,label="78"]
    79 [penwidth=3,label="79"]
    80 [penwidth=3,label="80"]
    81 [penwidth=3,label="81"]
    82 [penwidth=3,label="82"]
    83 [penwidth=3,label="83"]
    84 [penwidth=3,label="84"]
    85 [penwidth=3,label="85"]
    86 [penwidth=3,label="86"]
    87 [penwidth=3,label="87"]
    88 [penwidth=3,label="88"]
    89 [penwidth=3,label="89"]
    90 [penwidth=3,label="90"]
    91 [penwidth=3,label="91"]
    92 [penwidth=3,label="92"]
    93 [penwidth=3,label="93"]
    94 [penwidth=3,label="94"]
    95 [penwidth=3,label="95"]
    96 [penwidth=3,label="96"]
    97 [penwidth=3,label="97"]
    98 [penwidth=3,label="98"]
    99 [penwidth=3,label="99"]
    100 [penwidth=3,label="100"]
    101 [penwidth=3,label="101"]
    102 [penwidth=3,label="102"]
    103 [penwidth=3,label="103"]
    104 [penwidth=3,label="104"]
    105 [penwidth=3,label="105"]
    106 [penwidth=3,label="106"]
    107 [penwidth=3,label="107"]
    108 [penwidth=3,label="108"]
    109 [penwidth=3,label="109"]
    110 [penwidth=3,label="110"]
    111 [penwidth=3,label="111"]
    112 [penwidth=3,label="112"]
    113 [penwidth=3,label="113"]
    114 [penwidth=3,label="114"]
    115 [penwidth=3,label="115"]
    116 [penwidth=3,label="116"]
    117 [penwidth=3,label="117"]
    118 [penwidth=3,label="118"]
    119 [penwidth=3,label="119"]
    120 [penwidth=3,label="120"]
    121 [penwidth=3,label="121"]
    122 [penwidth=3,label="122"]
    123 [penwidth=3,label="123"]
    124 [penwidth=3,label="124"]
    125 [penwidth=3,label="125"]
    126 [penwidth=3,label="126"]
    127 [penwidth=3,label="127"]
    128 [penwidth=3,label="128"]
    129 [penwidth=3,label="129"]
    130 [penwidth=3,label="130"]
    131 [penwidth=3,label="131"]
    132 [penwidth=3,label="132"]
    133 [penwidth=3,label="133"]
    134 [penwidth=3,label="134"]
    135 [penwidth=3,label="135"]
    136 [penwidth=3,label="136"]
    137 [penwidth=3,label="137"]
    138 [penwidth=3,label="138"]
    139 [penwidth=3,label="139"]
    140 [penwidth=3,label="140"]
    141 [penwidth=3,label="141"]
    142 [penwidth=3,label="142"]
    143 [penwidth=3,label="143"]
    144 [penwidth=3,label="144"]
    145 [penwidth=3,label="145"]
    146 [penwidth=3,label="146"]
    147 [penwidth=3,label="147"]
    148 [penwidth=3,label="148"]
    149 [penwidth=3,label="149"]
    150 [penwidth=3,label="150"]
    151 [penwidth=3,label="151"]
    152 [penwidth=3,label="152"]
    153 [penwidth=3,label="153"]
    154 [penwidth=3,label="154"]
    155 [penwidth=3,label="155"]
    156 [penwidth=3,label="156"]
    157 [penwidth=3,label="157"]
    158 [penwidth=3,label="158"]
    159 [penwidth=3,label="159"]
    160 [penwidth=3,label="160"]
    161 [penwidth=3,label="161"]
    162 [penwidth=3,label="162"]
    163 [penwidth=3,label="163"]
    164 [penwidth=3,label="164"]
    165 [penwidth=3,label="165"]
    166 [penwidth=3,label="166"]
    167 [penwidth=3,label="167"]
    168 [penwidth=3,label="168"]
    169 [penwidth=3,label="169"]
    170 [penwidth=3,label="170"]
    171 [penwidth=3,label="171"]
    172 [penwidth=3,label="172"]
    173 [penwidth=3,label="173"]
    174 [penwidth=3,label="174"]
    175 [penwidth=3,label="175"]
    176 [penwidth=3,label="176"]
    177 [penwidth=3,label="177"]
    178 [penwidth=3,label="178"]
    179 [penwidth=3,label="179"]
    180 [penwidth=3,label="180"]
    181 [penwidth=3,label="181"]
    182 [penwidth=3,label="182"]
    183 [penwidth=3,label="183"]
    184 [penwidth=3,label="184"]
    185 [penwidth=3,label="185"]
    186 [penwidth=3,label="186"]
    187 [penwidth=3,label="187"]
    188 [penwidth=3,label="188"]
    189 [penwidth=3,label="189"]
    190 [penwidth=3,label="190"]
    191 [penwidth=3,label="191"]
    192 [penwidth=3,label="192"]
    193 [penwidth=3,label="193"]
    194 [penwidth=3,label="194"]
    195 [penwidth=3,label="195"]
    196 [penwidth=3,label="196"]
    197 [penwidth=3,label="197"]
    198 [penwidth=3,label="198"]
    199 [penwidth=3,label="199"]
    200 [penwidth=3,label="200"]
    201 [penwidth=3,label="201"]
    202 [penwidth=3,label="202"]
    203 [penwidth=3,label="203"]
    204 [penwidth=3,label="204"]
    205 [penwidth=3,label="205"]
    206 [penwidth=3,label="206"]
    207 [penwidth=3,label="207"]
    208 [penwidth=3,label="208"]
    209 [penwidth=3,label="209"]
    210 [penwidth=3,label="210"]
    211 [penwidth=3,label="211"]
    212 [penwidth=3,label="212"]
    213 [penwidth=3,label="213"]
    214 [penwidth=3,label="214"]
    215 [penwidth=3,label="215"]
    216 [penwidth=3,label="216"]
    217 [penwidth=3,label="217"]
    218 [penwidth=3,label="218"]
    219 [penwidth=3,label="219"]
    220 [penwidth=3,label="220"]
    221 [penwidth=3,label="221"]
    222 [penwidth=3,label="222"]
    223 [penwidth=3,label="223"]
    224 [penwidth=3,label="224"]
    225 [penwidth=3,label="225"]
    226 [penwidth=3,label="226"]
    227 [penwidth=3,label="227"]
    228 [penwidth=3,label="228"]
    229 [penwidth=3,label="229"]
    230 [penwidth=3,label="230"]
    231 [penwidth=3,label="231"]
    232 [penwidth=3,label="232"]
    233 [penwidth=3,label="233"]
    234 [penwidth=3,label="234"]
    235 [penwidth=3,label="235"]
    236 [penwidth=3,label="236"]
    237 [penwidth=3,label="237"]
    238 [penwidth=3,label="238"]
    239 [penwidth=3,label="239"]
    240 [penwidth=3,label="240"]
    241 [penwidth=3,label="241"]
    242 [penwidth=3,label="242"]
    243 [penwidth=3,label="243"]
    244 [penwidth=3,label="244"]
    245 [penwidth=3,label="245"]
    246 [penwidth=3,label="246"]
    247 [penwidth=3,label="247"]
    248 [penwidth=3,label="248"]
    249 [penwidth=3,label="249"]
    250 [penwidth=3,label="250"]
    251 [penwidth=3,label="251"]
    252 [penwidth=3,label="252"]
    253 [penwidth=3,label="253"]
    254 [penwidth=3,label="254"]
    255 [penwidth=3,label="255"]
    256 [penwidth=3,label="256"]
    257 [penwidth=3,label="257"]
    258 [penwidth=3,label="258"]
    259 [penwidth=3,label="259"]
    260 [penwidth=3,label="260"]
    261 [penwidth=3,label="261"]
    262 [penwidth=3,label="262"]
    263 [penwidth=3,label="263"]
    264 [penwidth=3,label="264"]
    265 [penwidth=3,label="265"]
    266 [penwidth=3,label="266"]
    267 [penwidth=3,label="267"]
    268 [penwidth=3,label="268"]
    269 [penwidth=3,label="269"]
    270 [penwidth=3,label="270"]
    271 [penwidth=3,label="271"]
    272 [penwidth=3,label="272"]
    273 [penwidth=3,label="273"]
    274 [penwidth=3,label="274"]
    275 [penwidth=3,label="275"]
    276 [penwidth=3,label="276"]
    277 [penwidth=3,label="277"]
    278 [penwidth=3,label="278"]
    279 [penwidth=3,label="279"]
    280 [penwidth=3,label="280"]
    281 [penwidth=3,label="281"]
    282 [penwidth=3,label="282"]
    283 [penwidth=3,label="283"]
    284 [penwidth=3,label="284"]
    285 [penwidth=3,label="285"]
    286 [penwidth=3,label="286"]
    287 [penwidth=3,label="287"]
    288 [penwidth=3,label="288"]
    289 [penwidth=3,label="289"]
    290 [penwidth=3,label="290"]
    291 [penwidth=3,label="291"]
    292 [penwidth=3,label="292"]
    293 [penwidth=3,label="293"]
    294 [penwidth=3,label="294"]
    295 [penwidth=3,label="295"]
    296 [penwidth=3,label="296"]
    297 [penwidth=3,label="297"]
    298 [penwidth=3,label="298"]
    299 [penwidth=3,label="299"]
    300 [penwidth=3,label="300"]
    301 [penwidth=3,label="301"]
    302 [penwidth=3,label="302"]
    303 [penwidth=3,label="303"]
    304 [penwidth=3,label="304"]
    305 [penwidth=3,label="305"]
    306 [penwidth=3,label="306"]
    307 [penwidth=3,label="307"]
    308 [penwidth=3,label="308"]
    309 [penwidth=3,label="309"]

    272 -> 0 [penwidth=2]
    273 -> 0 [penwidth=2]
    274 -> 0 [penwidth=2]
    275 -> 0 [penwidth=2]
    276 -> 0 [penwidth=2]
    277 -> 0 [penwidth=2]
    278 -> 272 [penwidth=2]
    279 -> 272 [penwidth=2]
    280 -> 272 [penwidth=2]
    281 -> 272 [penwidth=2]
    282 -> 272 [penwidth=2]
    283 -> 272 [penwidth=2]
    284 -> 272 [penwidth=2]
    285 -> 272 [penwidth=2]
    286 -> 272 [penwidth=2]
    287 -> 272 [penwidth=2]
    288 -> 272 [penwidth=2]
    289 -> 272 [penwidth=2]
    290 -> 272 [penwidth=2]
    291 -> 272 [penwidth=2]
    292 -> 272 [penwidth=2]
    293 -> 273 [penwidth=2]
    294 -> 273 [penwidth=2]
    295 -> 273 [penwidth=2]
    296 -> 273 [penwidth=2]
    297 -> 273 [penwidth=2]
    298 -> 273 [penwidth=2]
    299 -> 273 [penwidth=2]
    300 -> 273 [penwidth=2]
    301 -> 273 [penwidth=2]
    302 -> 274 [penwidth=2]
    303 -> 274 [penwidth=2]
    304 -> 274 [penwidth=2]
    305 -> 274 [penwidth=2]
    306 -> 274 [penwidth=2]
    307 -> 274 [penwidth=2]
    308 -> 274 [penwidth=2]
    309 -> 274 [penwidth=2]
    230 -> 274 [penwidth=2]
    231 -> 274 [penwidth=2]
    232 -> 274 [penwidth=2]
    233 -> 274 [penwidth=2]
    234 -> 274 [penwidth=2]
    235 -> 274 [penwidth=2]
    236 -> 274 [penwidth=2]
    237 -> 274 [penwidth=2]
    238 -> 275 [penwidth=2]
    239 -> 275 [penwidth=2]
    240 -> 275 [penwidth=2]
    241 -> 275 [penwidth=2]
    242 -> 275 [penwidth=2]
    243 -> 275 [penwidth=2]
    244 -> 275 [penwidth=2]
    245 -> 275 [penwidth=2]
    246 -> 275 [penwidth=2]
    247 -> 275 [penwidth=2]
    248 -> 275 [penwidth=2]
    249 -> 275 [penwidth=2]
    250 -> 275 [penwidth=2]
    251 -> 275 [penwidth=2]
    252 -> 275 [penwidth=2]
    253 -> 275 [penwidth=2]
    254 -> 275 [penwidth=2]
    255 -> 275 [penwidth=2]
    256 -> 275 [penwidth=2]
    257 -> 275 [penwidth=2]
    258 -> 275 [penwidth=2]
    259 -> 275 [penwidth=2]
    260 -> 275 [penwidth=2]
    261 -> 275 [penwidth=2]
    262 -> 276 [penwidth=2]
    263 -> 276 [penwidth=2]
    264 -> 276 [penwidth=2]
    265 -> 276 [penwidth=2]
    266 -> 276 [penwidth=2]
    267 -> 276 [penwidth=2]
    268 -> 276 [penwidth=2]
    269 -> 276 [penwidth=2]
    270 -> 276 [penwidth=2]
    271 -> 276 [penwidth=2]
    104 -> 276 [penwidth=2]
    146 -> 277 [penwidth=2]
    188 -> 277 [penwidth=2]
    105 -> 277 [penwidth=2]
    147 -> 277 [penwidth=2]
    189 -> 277 [penwidth=2]
    106 -> 277 [penwidth=2]
    148 -> 277 [penwidth=2]
    190 -> 277 [penwidth=2]
    107 -> 278 [penwidth=2]
    149 -> 278 [penwidth=2]
    191 -> 278 [penwidth=2]
    108 -> 278 [penwidth=2]
    150 -> 278 [penwidth=2]
    192 -> 278 [penwidth=2]
    109 -> 278 [penwidth=2]
    151 -> 278 [penwidth=2]
    193 -> 278 [penwidth=2]
    110 -> 278 [penwidth=2]
    152 -> 278 [penwidth=2]
    194 -> 278 [penwidth=2]
    111 -> 278 [penwidth=2]
    153 -> 278 [penwidth=2]
    195 -> 278 [penwidth=2]
    112 -> 279 [penwidth=2]
    154 -> 279 [penwidth=2]
    196 -> 279 [penwidth=2]
    113 -> 279 [penwidth=2]
    155 -> 279 [penwidth=2]
    197 -> 279 [penwidth=2]
    114 -> 279 [penwidth=2]
    156 -> 279 [penwidth=2]
    198 -> 279 [penwidth=2]
    115 -> 279 [penwidth=2]
    157 -> 279 [penwidth=2]
    199 -> 279 [penwidth=2]
    116 -> 279 [penwidth=2]
    158 -> 279 [penwidth=2]
    200 -> 279 [penwidth=2]
    117 -> 280 [penwidth=2]
    159 -> 280 [penwidth=2]
    201 -> 280 [penwidth=2]
    118 -> 280 [penwidth=2]
    160 -> 280 [penwidth=2]
    202 -> 280 [penwidth=2]
    119 -> 280 [penwidth=2]
    161 -> 280 [penwidth=2]
    203 -> 280 [penwidth=2]
    120 -> 280 [penwidth=2]
    162 -> 280 [penwidth=2]
    204 -> 280 [penwidth=2]
    121 -> 280 [penwidth=2]
    163 -> 280 [penwidth=2]
    205 -> 280 [penwidth=2]
    122 -> 280 [penwidth=2]
    164 -> 280 [penwidth=2]
    206 -> 280 [penwidth=2]
    123 -> 280 [penwidth=2]
    165 -> 280 [penwidth=2]
    207 -> 280 [penwidth=2]
    124 -> 281 [penwidth=2]
    166 -> 281 [penwidth=2]
    208 -> 281 [penwidth=2]
    125 -> 281 [penwidth=2]
    167 -> 281 [penwidth=2]
    209 -> 281 [penwidth=2]
    126 -> 281 [penwidth=2]
    168 -> 281 [penwidth=2]
    210 -> 281 [penwidth=2]
    1 -> 281 [penwidth=2]
    127 -> 281 [penwidth=2]
    169 -> 281 [penwidth=2]
    211 -> 281 [penwidth=2]
    2 -> 281 [penwidth=2]
    128 -> 281 [penwidth=2]
    170 -> 281 [penwidth=2]
    212 -> 281 [penwidth=2]
    3 -> 281 [penwidth=2]
    129 -> 281 [penwidth=2]
    171 -> 281 [penwidth=2]
    213 -> 281 [penwidth=2]
    4 -> 281 [penwidth=2]
    130 -> 282 [penwidth=2]
    172 -> 282 [penwidth=2]
    214 -> 283 [penwidth=2]
    5 -> 283 [penwidth=2]
    131 -> 283 [penwidth=2]
    173 -> 283 [penwidth=2]
    215 -> 283 [penwidth=2]
    6 -> 283 [penwidth=2]
    132 -> 283 [penwidth=2]
    174 -> 283 [penwidth=2]
    216 -> 283 [penwidth=2]
    7 -> 283 [penwidth=2]
    133 -> 283 [penwidth=2]
    175 -> 283 [penwidth=2]
    217 -> 283 [penwidth=2]
    8 -> 283 [penwidth=2]
    134 -> 283 [penwidth=2]
    176 -> 283 [penwidth=2]
    218 -> 283 [penwidth=2]
    9 -> 283 [penwidth=2]
    135 -> 283 [penwidth=2]
    177 -> 284 [penwidth=2]
    219 -> 284 [penwidth=2]
    10 -> 284 [penwidth=2]
    136 -> 285 [penwidth=2]
    178 -> 285 [penwidth=2]
    220 -> 285 [penwidth=2]
    11 -> 285 [penwidth=2]
    137 -> 285 [penwidth=2]
    179 -> 285 [penwidth=2]
    221 -> 285 [penwidth=2]
    12 -> 286 [penwidth=2]
    138 -> 286 [penwidth=2]
    180 -> 286 [penwidth=2]
    222 -> 286 [penwidth=2]
    13 -> 286 [penwidth=2]
    139 -> 286 [penwidth=2]
    181 -> 286 [penwidth=2]
    223 -> 286 [penwidth=2]
    14 -> 286 [penwidth=2]
    140 -> 286 [penwidth=2]
    182 -> 286 [penwidth=2]
    224 -> 286 [penwidth=2]
    15 -> 286 [penwidth=2]
    141 -> 286 [penwidth=2]
    183 -> 286 [penwidth=2]
    225 -> 286 [penwidth=2]
    16 -> 286 [penwidth=2]
    142 -> 286 [penwidth=2]
    184 -> 286 [penwidth=2]
    226 -> 286 [penwidth=2]
    17 -> 286 [penwidth=2]
    143 -> 286 [penwidth=2]
    185 -> 286 [penwidth=2]
    227 -> 286 [penwidth=2]
    18 -> 286 [penwidth=2]
    144 -> 287 [penwidth=2]
    186 -> 287 [penwidth=2]
    228 -> 287 [penwidth=2]
    19 -> 287 [penwidth=2]
    145 -> 287 [penwidth=2]
    187 -> 287 [penwidth=2]
    229 -> 287 [penwidth=2]
    20 -> 287 [penwidth=2]
    62 -> 287 [penwidth=2]
    21 -> 287 [penwidth=2]
    63 -> 287 [penwidth=2]
    22 -> 287 [penwidth=2]
    64 -> 287 [penwidth=2]
    23 -> 287 [penwidth=2]
    65 -> 287 [penwidth=2]
    24 -> 287 [penwidth=2]
    66 -> 287 [penwidth=2]
    25 -> 287 [penwidth=2]
    67 -> 287 [penwidth=2]
    26 -> 287 [penwidth=2]
    68 -> 288 [penwidth=2]
    27 -> 288 [penwidth=2]
    69 -> 288 [penwidth=2]
    28 -> 288 [penwidth=2]
    70 -> 288 [penwidth=2]
    29 -> 288 [penwidth=2]
    71 -> 288 [penwidth=2]
    30 -> 288 [penwidth=2]
    72 -> 288 [penwidth=2]
    31 -> 288 [penwidth=2]
    73 -> 288 [penwidth=2]
    32 -> 288 [penwidth=2]
    74 -> 288 [penwidth=2]
    33 -> 288 [penwidth=2]
    75 -> 288 [penwidth=2]
    34 -> 288 [penwidth=2]
    76 -> 288 [penwidth=2]
    35 -> 288 [penwidth=2]
    77 -> 289 [penwidth=2]
    36 -> 289 [penwidth=2]
    78 -> 289 [penwidth=2]
    37 -> 289 [penwidth=2]
    79 -> 289 [penwidth=2]
    38 -> 289 [penwidth=2]
    80 -> 289 [penwidth=2]
    39 -> 289 [penwidth=2]
    81 -> 289 [penwidth=2]
    40 -> 289 [penwidth=2]
    82 -> 290 [penwidth=2]
    41 -> 290 [penwidth=2]
    83 -> 290 [penwidth=2]
    42 -> 290 [penwidth=2]
    84 -> 290 [penwidth=2]
    43 -> 290 [penwidth=2]
    85 -> 290 [penwidth=2]
    44 -> 290 [penwidth=2]
    86 -> 290 [penwidth=2]
    45 -> 290 [penwidth=2]
    87 -> 290 [penwidth=2]
    46 -> 290 [penwidth=2]
    88 -> 290 [penwidth=2]
    47 -> 290 [penwidth=2]
    89 -> 290 [penwidth=2]
    48 -> 290 [penwidth=2]
    90 -> 290 [penwidth=2]
    49 -> 290 [penwidth=2]
    91 -> 290 [penwidth=2]
    50 -> 290 [penwidth=2]
    92 -> 290 [penwidth=2]
    51 -> 290 [penwidth=2]
    93 -> 290 [penwidth=2]
    52 -> 290 [penwidth=2]
    94 -> 290 [penwidth=2]
    53 -> 290 [penwidth=2]
    95 -> 291 [penwidth=2]
    54 -> 291 [penwidth=2]
    96 -> 291 [penwidth=2]
    55 -> 291 [penwidth=2]
    97 -> 291 [penwidth=2]
    56 -> 291 [penwidth=2]
    98 -> 291 [penwidth=2]
    57 -> 291 [penwidth=2]
    99 -> 291 [penwidth=2]
    58 -> 291 [penwidth=2]
    100 -> 291 [penwidth=2]
    59 -> 291 [penwidth=2]
    101 -> 291 [penwidth=2]
    60 -> 291 [penwidth=2]
    102 -> 291 [penwidth=2]
    103 -> 291 [penwidth=2]
    61 -> 291 [penwidth=2]
    300 -> 277 [penwidth=2]
    305 -> 275 [penwidth=2]
    231 -> 275 [penwidth=2]
    238 -> 277 [penwidth=2]
    243 -> 276 [penwidth=2]
    245 -> 273 [penwidth=2]
    245 -> 276 [penwidth=2]
    245 -> 272 [penwidth=2]
    248 -> 277 [penwidth=2]
    248 -> 274 [penwidth=2]
    257 -> 277 [penwidth=2]
    260 -> 273 [penwidth=2]
    110 -> 292 [penwidth=2]
    110 -> 267 [penwidth=2]
    110 -> 249 [penwidth=2]
    110 -> 290 [penwidth=2]
    110 -> 294 [penwidth=2]
    110 -> 233 [penwidth=2]
    110 -> 283 [penwidth=2]
    110 -> 305 [penwidth=2]
    110 -> 299 [penwidth=2]
    110 -> 241 [penwidth=2]
    110 -> 304 [penwidth=2]
    110 -> 248 [penwidth=2]
    110 -> 243 [penwidth=2]
    110 -> 188 [penwidth=2]
    110 -> 268 [penwidth=2]
    110 -> 270 [penwidth=2]
    110 -> 247 [penwidth=2]
    110 -> 260 [penwidth=2]
    110 -> 253 [penwidth=2]
    110 -> 242 [penwidth=2]
    110 -> 287 [penwidth=2]
    110 -> 106 [penwidth=2]
    110 -> 148 [penwidth=2]
    110 -> 293 [penwidth=2]
    110 -> 307 [penwidth=2]
    110 -> 234 [penwidth=2]
    110 -> 259 [penwidth=2]
    110 -> 147 [penwidth=2]
    110 -> 286 [penwidth=2]
    110 -> 308 [penwidth=2]
    110 -> 189 [penwidth=2]
    110 -> 258 [penwidth=2]
    110 -> 256 [penwidth=2]
    110 -> 231 [penwidth=2]
    110 -> 232 [penwidth=2]
    110 -> 105 [penwidth=2]
    110 -> 257 [penwidth=2]
    110 -> 297 [penwidth=2]
    110 -> 255 [penwidth=2]
    110 -> 271 [penwidth=2]
    110 -> 254 [penwidth=2]
    110 -> 236 [penwidth=2]
    110 -> 309 [penwidth=2]
    110 -> 289 [penwidth=2]
    110 -> 246 [penwidth=2]
    110 -> 239 [penwidth=2]
    110 -> 104 [penwidth=2]
    110 -> 250 [penwidth=2]
    110 -> 263 [penwidth=2]
    110 -> 235 [penwidth=2]
    110 -> 266 [penwidth=2]
    110 -> 285 [penwidth=2]
    110 -> 146 [penwidth=2]
    110 -> 240 [penwidth=2]
    110 -> 245 [penwidth=2]
    110 -> 284 [penwidth=2]
    110 -> 244 [penwidth=2]
    110 -> 265 [penwidth=2]
    110 -> 261 [penwidth=2]
    110 -> 238 [penwidth=2]
    110 -> 190 [penwidth=2]
    110 -> 264 [penwidth=2]
    110 -> 262 [penwidth=2]
    110 -> 230 [penwidth=2]
    110 -> 303 [penwidth=2]
    110 -> 281 [penwidth=2]
    110 -> 296 [penwidth=2]
    110 -> 269 [penwidth=2]
    110 -> 252 [penwidth=2]
    110 -> 288 [penwidth=2]
    110 -> 301 [penwidth=2]
    110 -> 298 [penwidth=2]
    110 -> 291 [penwidth=2]
    110 -> 280 [penwidth=2]
    110 -> 306 [penwidth=2]
    110 -> 251 [penwidth=2]
    110 -> 282 [penwidth=2]
    110 -> 237 [penwidth=2]
    110 -> 300 [penwidth=2]
    110 -> 295 [penwidth=2]
    197 -> 303 [penwidth=2]
    197 -> 265 [penwidth=2]
    197 -> 234 [penwidth=2]
    197 -> 307 [penwidth=2]
    197 -> 241 [penwidth=2]
    197 -> 289 [penwidth=2]
    197 -> 284 [penwidth=2]
    197 -> 301 [penwidth=2]
    197 -> 292 [penwidth=2]
    197 -> 232 [penwidth=2]
    197 -> 236 [penwidth=2]
    197 -> 268 [penwidth=2]
    197 -> 238 [penwidth=2]
    197 -> 270 [penwidth=2]
    197 -> 240 [penwidth=2]
    197 -> 258 [penwidth=2]
    197 -> 294 [penwidth=2]
    197 -> 306 [penwidth=2]
    197 -> 267 [penwidth=2]
    197 -> 266 [penwidth=2]
    197 -> 269 [penwidth=2]
    197 -> 304 [penwidth=2]
    197 -> 309 [penwidth=2]
    197 -> 239 [penwidth=2]
    197 -> 305 [penwidth=2]
    197 -> 252 [penwidth=2]
    197 -> 298 [penwidth=2]
    197 -> 280 [penwidth=2]
    197 -> 254 [penwidth=2]
    197 -> 230 [penwidth=2]
    197 -> 251 [penwidth=2]
    197 -> 146 [penwidth=2]
    197 -> 190 [penwidth=2]
    197 -> 105 [penwidth=2]
    197 -> 260 [penwidth=2]
    197 -> 245 [penwidth=2]
    197 -> 147 [penwidth=2]
    197 -> 256 [penwidth=2]
    197 -> 308 [penwidth=2]
    197 -> 235 [penwidth=2]
    197 -> 300 [penwidth=2]
    197 -> 253 [penwidth=2]
    197 -> 233 [penwidth=2]
    197 -> 257 [penwidth=2]
    197 -> 188 [penwidth=2]
    197 -> 242 [penwidth=2]
    197 -> 237 [penwidth=2]
    197 -> 248 [penwidth=2]
    197 -> 148 [penwidth=2]
    197 -> 288 [penwidth=2]
    197 -> 262 [penwidth=2]
    197 -> 106 [penwidth=2]
    197 -> 299 [penwidth=2]
    197 -> 271 [penwidth=2]
    197 -> 255 [penwidth=2]
    197 -> 290 [penwidth=2]
    197 -> 246 [penwidth=2]
    197 -> 285 [penwidth=2]
    197 -> 263 [penwidth=2]
    197 -> 286 [penwidth=2]
    197 -> 302 [penwidth=2]
    197 -> 249 [penwidth=2]
    197 -> 104 [penwidth=2]
    197 -> 278 [penwidth=2]
    197 -> 295 [penwidth=2]
    197 -> 247 [penwidth=2]
    197 -> 231 [penwidth=2]
    115 -> 248 [penwidth=2]
    115 -> 244 [penwidth=2]
    115 -> 236 [penwidth=2]
    115 -> 294 [penwidth=2]
    115 -> 301 [penwidth=2]
    115 -> 280 [penwidth=2]
    115 -> 257 [penwidth=2]
    115 -> 262 [penwidth=2]
    115 -> 146 [penwidth=2]
    115 -> 232 [penwidth=2]
    115 -> 230 [penwidth=2]
    115 -> 282 [penwidth=2]
    115 -> 286 [penwidth=2]
    115 -> 233 [penwidth=2]
    115 -> 289 [penwidth=2]
    115 -> 308 [penwidth=2]
    115 -> 278 [penwidth=2]
    115 -> 245 [penwidth=2]
    115 -> 106 [penwidth=2]
    115 -> 190 [penwidth=2]
    115 -> 231 [penwidth=2]
    115 -> 303 [penwidth=2]
    115 -> 250 [penwidth=2]
    115 -> 287 [penwidth=2]
    115 -> 265 [penwidth=2]
    115 -> 297 [penwidth=2]
    115 -> 261 [penwidth=2]
    115 -> 241 [penwidth=2]
    115 -> 247 [penwidth=2]
    115 -> 148 [penwidth=2]
    115 -> 281 [penwidth=2]
    115 -> 298 [penwidth=2]
    115 -> 251 [penwidth=2]
    158 -> 148 [penwidth=2]
    158 -> 305 [penwidth=2]
    158 -> 293 [penwidth=2]
    158 -> 247 [penwidth=2]
    158 -> 241 [penwidth=2]
    158 -> 242 [penwidth=2]
    158 -> 255 [penwidth=2]
    158 -> 284 [penwidth=2]
    158 -> 240 [penwidth=2]
    158 -> 256 [penwidth=2]
    158 -> 260 [penwidth=2]
    158 -> 309 [penwidth=2]
    158 -> 266 [penwidth=2]
    158 -> 270 [penwidth=2]
    158 -> 246 [penwidth=2]
    158 -> 146 [penwidth=2]
    158 -> 287 [penwidth=2]
    158 -> 291 [penwidth=2]
    158 -> 189 [penwidth=2]
    158 -> 237 [penwidth=2]
    158 -> 249 [penwidth=2]
    158 -> 296 [penwidth=2]
    158 -> 271 [penwidth=2]
    158 -> 292 [penwidth=2]
    158 -> 264 [penwidth=2]
    158 -> 299 [penwidth=2]
    158 -> 236 [penwidth=2]
    158 -> 300 [penwidth=2]
    158 -> 245 [penwidth=2]
    158 -> 289 [penwidth=2]
    158 -> 262 [penwidth=2]
    158 -> 261 [penwidth=2]
    158 -> 238 [penwidth=2]
    158 -> 258 [penwidth=2]
    158 -> 233 [penwidth=2]
    158 -> 308 [penwidth=2]
    158 -> 303 [penwidth=2]
    158 -> 234 [penwidth=2]
    158 -> 147 [penwidth=2]
    158 -> 190 [penwidth=2]
    158 -> 307 [penwidth=2]
    158 -> 304 [penwidth=2]
    158 -> 106 [penwidth=2]
    158 -> 104 [penwidth=2]
    158 -> 250 [penwidth=2]
    158 -> 294 [penwidth=2]
    158 -> 239 [penwidth=2]
    158 -> 298 [penwidth=2]
    158 -> 282 [penwidth=2]
    158 -> 244 [penwidth=2]
    158 -> 248 [penwidth=2]
    158 -> 288 [penwidth=2]
    158 -> 306 [penwidth=2]
    158 -> 253 [penwidth=2]
    158 -> 290 [penwidth=2]
    158 -> 259 [penwidth=2]
    158 -> 231 [penwidth=2]
    158 -> 243 [penwidth=2]
    158 -> 251 [penwidth=2]
    158 -> 280 [penwidth=2]
    158 -> 278 [penwidth=2]
    158 -> 281 [penwidth=2]
    158 -> 283 [penwidth=2]
    158 -> 268 [penwidth=2]
    158 -> 265 [penwidth=2]
    158 -> 252 [penwidth=2]
    158 -> 257 [penwidth=2]
    158 -> 263 [penwidth=2]
    158 -> 269 [penwidth=2]
    158 -> 188 [penwidth=2]
    158 -> 235 [penwidth=2]
    158 -> 286 [penwidth=2]
    158 -> 230 [penwidth=2]
    158 -> 105 [penwidth=2]
    158 -> 285 [penwidth=2]
    158 -> 232 [penwidth=2]
    158 -> 295 [penwidth=2]
    158 -> 301 [penwidth=2]
    158 -> 297 [penwidth=2]
    158 -> 267 [penwidth=2]
    117 -> 247 [penwidth=2]
    117 -> 106 [penwidth=2]
    117 -> 287 [penwidth=2]
    117 -> 246 [penwidth=2]
    117 -> 292 [penwidth=2]
    117 -> 255 [penwidth=2]
    117 -> 267 [penwidth=2]
    117 -> 289 [penwidth=2]
    117 -> 245 [penwidth=2]
    117 -> 253 [penwidth=2]
    117 -> 190 [penwidth=2]
    117 -> 291 [penwidth=2]
    117 -> 262 [penwidth=2]
    117 -> 284 [penwidth=2]
    117 -> 304 [penwidth=2]
    117 -> 307 [penwidth=2]
    117 -> 296 [penwidth=2]
    117 -> 257 [penwidth=2]
    117 -> 288 [penwidth=2]
    117 -> 252 [penwidth=2]
    117 -> 231 [penwidth=2]
    117 -> 236 [penwidth=2]
    117 -> 299 [penwidth=2]
    117 -> 258 [penwidth=2]
    117 -> 251 [penwidth=2]
    117 -> 242 [penwidth=2]
    117 -> 240 [penwidth=2]
    117 -> 249 [penwidth=2]
    117 -> 234 [penwidth=2]
    117 -> 305 [penwidth=2]
    117 -> 266 [penwidth=2]
    117 -> 104 [penwidth=2]
    117 -> 301 [penwidth=2]
    117 -> 271 [penwidth=2]
    117 -> 260 [penwidth=2]
    117 -> 306 [penwidth=2]
    117 -> 282 [penwidth=2]
    117 -> 264 [penwidth=2]
    117 -> 189 [penwidth=2]
    117 -> 268 [penwidth=2]
    117 -> 298 [penwidth=2]
    117 -> 241 [penwidth=2]
    117 -> 300 [penwidth=2]
    117 -> 294 [penwidth=2]
    117 -> 105 [penwidth=2]
    117 -> 297 [penwidth=2]
    117 -> 279 [penwidth=2]
    117 -> 243 [penwidth=2]
    117 -> 302 [penwidth=2]
    117 -> 237 [penwidth=2]
    117 -> 147 [penwidth=2]
    117 -> 244 [penwidth=2]
    117 -> 146 [penwidth=2]
    117 -> 238 [penwidth=2]
    117 -> 265 [penwidth=2]
    117 -> 309 [penwidth=2]
    117 -> 235 [penwidth=2]
    117 -> 263 [penwidth=2]
    117 -> 261 [penwidth=2]
    117 -> 256 [penwidth=2]
    117 -> 188 [penwidth=2]
    117 -> 281 [penwidth=2]
    117 -> 283 [penwidth=2]
    117 -> 233 [penwidth=2]
    117 -> 285 [penwidth=2]
    117 -> 148 [penwidth=2]
    117 -> 254 [penwidth=2]
    117 -> 230 [penwidth=2]
    117 -> 250 [penwidth=2]
    117 -> 239 [penwidth=2]
    117 -> 308 [penwidth=2]
    117 -> 259 [penwidth=2]
    117 -> 295 [penwidth=2]
    117 -> 232 [penwidth=2]
    133 -> 302 [penwidth=2]
    133 -> 304 [penwidth=2]
    133 -> 281 [penwidth=2]
    133 -> 244 [penwidth=2]
    133 -> 269 [penwidth=2]
    133 -> 299 [penwidth=2]
    133 -> 308 [penwidth=2]
    133 -> 240 [penwidth=2]
    133 -> 257 [penwidth=2]
    133 -> 259 [penwidth=2]
    133 -> 250 [penwidth=2]
    133 -> 256 [penwidth=2]
    133 -> 289 [penwidth=2]
    133 -> 241 [penwidth=2]
    133 -> 278 [penwidth=2]
    133 -> 239 [penwidth=2]
    133 -> 231 [penwidth=2]
    133 -> 291 [penwidth=2]
    133 -> 252 [penwidth=2]
    133 -> 306 [penwidth=2]
    133 -> 293 [penwidth=2]
    133 -> 266 [penwidth=2]
    133 -> 249 [penwidth=2]
    133 -> 247 [penwidth=2]
    133 -> 271 [penwidth=2]
    133 -> 309 [penwidth=2]
    133 -> 238 [penwidth=2]
    133 -> 242 [penwidth=2]
    133 -> 287 [penwidth=2]
    133 -> 265 [penwidth=2]
    175 -> 285 [penwidth=2]
    175 -> 148 [penwidth=2]
    175 -> 106 [penwidth=2]
    175 -> 305 [penwidth=2]
    175 -> 270 [penwidth=2]
    175 -> 271 [penwidth=2]
    175 -> 269 [penwidth=2]
    175 -> 261 [penwidth=2]
    175 -> 260 [penwidth=2]
    175 -> 262 [penwidth=2]
    175 -> 308 [penwidth=2]
    175 -> 279 [penwidth=2]
    175 -> 241 [penwidth=2]
    175 -> 235 [penwidth=2]
    175 -> 254 [penwidth=2]
    175 -> 240 [penwidth=2]
    175 -> 266 [penwidth=2]
    175 -> 278 [penwidth=2]
    175 -> 301 [penwidth=2]
    175 -> 258 [penwidth=2]
    175 -> 309 [penwidth=2]
    175 -> 267 [penwidth=2]
    175 -> 250 [penwidth=2]
    175 -> 249 [penwidth=2]
    175 -> 268 [penwidth=2]
    175 -> 242 [penwidth=2]
    175 -> 287 [penwidth=2]
    175 -> 297 [penwidth=2]
    175 -> 282 [penwidth=2]
    175 -> 299 [penwidth=2]
    175 -> 306 [penwidth=2]
    175 -> 230 [penwidth=2]
    175 -> 188 [penwidth=2]
    175 -> 238 [penwidth=2]
    175 -> 291 [penwidth=2]
    175 -> 281 [penwidth=2]
    175 -> 244 [penwidth=2]
    175 -> 293 [penwidth=2]
    175 -> 302 [penwidth=2]
    175 -> 292 [penwidth=2]
    175 -> 232 [penwidth=2]
    175 -> 264 [penwidth=2]
    175 -> 253 [penwidth=2]
    175 -> 304 [penwidth=2]
    175 -> 294 [penwidth=2]
    9 -> 293 [penwidth=2]
    9 -> 246 [penwidth=2]
    9 -> 263 [penwidth=2]
    9 -> 104 [penwidth=2]
    9 -> 279 [penwidth=2]
    9 -> 237 [penwidth=2]
    9 -> 235 [penwidth=2]
    9 -> 296 [penwidth=2]
    9 -> 289 [penwidth=2]
    9 -> 239 [penwidth=2]
    9 -> 302 [penwidth=2]
    9 -> 281 [penwidth=2]
    9 -> 294 [penwidth=2]
    9 -> 300 [penwidth=2]
    9 -> 241 [penwidth=2]
    9 -> 308 [penwidth=2]
    9 -> 253 [penwidth=2]
    9 -> 259 [penwidth=2]
    9 -> 258 [penwidth=2]
    9 -> 249 [penwidth=2]
    9 -> 244 [penwidth=2]
    9 -> 252 [penwidth=2]
    9 -> 250 [penwidth=2]
    9 -> 236 [penwidth=2]
    9 -> 245 [penwidth=2]
    9 -> 278 [penwidth=2]
    9 -> 290 [penwidth=2]
    9 -> 261 [penwidth=2]
    9 -> 238 [penwidth=2]
    9 -> 147 [penwidth=2]
    9 -> 146 [penwidth=2]
    9 -> 254 [penwidth=2]
    9 -> 295 [penwidth=2]
    9 -> 285 [penwidth=2]
    9 -> 232 [penwidth=2]
    9 -> 260 [penwidth=2]
    9 -> 230 [penwidth=2]
    9 -> 256 [penwidth=2]
    9 -> 270 [penwidth=2]
    9 -> 297 [penwidth=2]
    9 -> 303 [penwidth=2]
    9 -> 264 [penwidth=2]
    9 -> 265 [penwidth=2]
    9 -> 148 [penwidth=2]
    9 -> 234 [penwidth=2]
    9 -> 306 [penwidth=2]
    9 -> 280 [penwidth=2]
    9 -> 243 [penwidth=2]
    9 -> 255 [penwidth=2]
    9 -> 301 [penwidth=2]
    9 -> 305 [penwidth=2]
    179 -> 240 [penwidth=2]
    179 -> 293 [penwidth=2]
    179 -> 263 [penwidth=2]
    179 -> 269 [penwidth=2]
    179 -> 234 [penwidth=2]
    179 -> 258 [penwidth=2]
    179 -> 294 [penwidth=2]
    179 -> 247 [penwidth=2]
    179 -> 147 [penwidth=2]
    179 -> 249 [penwidth=2]
    179 -> 287 [penwidth=2]
    179 -> 232 [penwidth=2]
    179 -> 248 [penwidth=2]
    179 -> 307 [penwidth=2]
    179 -> 239 [penwidth=2]
    179 -> 265 [penwidth=2]
    179 -> 244 [penwidth=2]
    179 -> 242 [penwidth=2]
    179 -> 231 [penwidth=2]
    179 -> 282 [penwidth=2]
    179 -> 303 [penwidth=2]
    179 -> 233 [penwidth=2]
    179 -> 262 [penwidth=2]
    179 -> 271 [penwidth=2]
    179 -> 306 [penwidth=2]
    179 -> 255 [penwidth=2]
    179 -> 283 [penwidth=2]
    179 -> 148 [penwidth=2]
    179 -> 189 [penwidth=2]
    179 -> 260 [penwidth=2]
    179 -> 256 [penwidth=2]
    179 -> 190 [penwidth=2]
    179 -> 291 [penwidth=2]
    179 -> 279 [penwidth=2]
    179 -> 230 [penwidth=2]
    179 -> 243 [penwidth=2]
    179 -> 280 [penwidth=2]
    179 -> 252 [penwidth=2]
    179 -> 257 [penwidth=2]
    179 -> 292 [penwidth=2]
    179 -> 105 [penwidth=2]
    179 -> 299 [penwidth=2]
    179 -> 251 [penwidth=2]
    179 -> 296 [penwidth=2]
    179 -> 300 [penwidth=2]
    179 -> 309 [penwidth=2]
    179 -> 304 [penwidth=2]
    179 -> 290 [penwidth=2]
    179 -> 284 [penwidth=2]
    179 -> 246 [penwidth=2]
    179 -> 308 [penwidth=2]
    179 -> 188 [penwidth=2]
    179 -> 302 [penwidth=2]
    179 -> 245 [penwidth=2]
    179 -> 297 [penwidth=2]
    179 -> 289 [penwidth=2]
    179 -> 254 [penwidth=2]
    179 -> 305 [penwidth=2]
    221 -> 146 [penwidth=2]
    221 -> 104 [penwidth=2]
    221 -> 280 [penwidth=2]
    221 -> 257 [penwidth=2]
    221 -> 105 [penwidth=2]
    221 -> 255 [penwidth=2]
    221 -> 235 [penwidth=2]
    221 -> 300 [penwidth=2]
    221 -> 294 [penwidth=2]
    221 -> 248 [penwidth=2]
    221 -> 304 [penwidth=2]
    221 -> 292 [penwidth=2]
    221 -> 302 [penwidth=2]
    221 -> 269 [penwidth=2]
    221 -> 250 [penwidth=2]
    221 -> 241 [penwidth=2]
    221 -> 264 [penwidth=2]
    221 -> 245 [penwidth=2]
    221 -> 249 [penwidth=2]
    221 -> 232 [penwidth=2]
    221 -> 238 [penwidth=2]
    221 -> 189 [penwidth=2]
    221 -> 251 [penwidth=2]
    221 -> 256 [penwidth=2]
    221 -> 270 [penwidth=2]
    221 -> 271 [penwidth=2]
    221 -> 288 [penwidth=2]
    221 -> 247 [penwidth=2]
    221 -> 259 [penwidth=2]
    221 -> 283 [penwidth=2]
    221 -> 293 [penwidth=2]
    221 -> 298 [penwidth=2]
    221 -> 246 [penwidth=2]
    221 -> 240 [penwidth=2]
    142 -> 278 [penwidth=2]
    227 -> 235 [penwidth=2]
    227 -> 284 [penwidth=2]
    227 -> 297 [penwidth=2]
    227 -> 262 [penwidth=2]
    227 -> 289 [penwidth=2]
    227 -> 148 [penwidth=2]
    227 -> 291 [penwidth=2]
    227 -> 305 [penwidth=2]
    22 -> 106 [penwidth=2]
    22 -> 280 [penwidth=2]
    22 -> 297 [penwidth=2]
    22 -> 296 [penwidth=2]
    22 -> 235 [penwidth=2]
    22 -> 233 [penwidth=2]
    22 -> 241 [penwidth=2]
    22 -> 257 [penwidth=2]
    22 -> 260 [penwidth=2]
    22 -> 305 [penwidth=2]
    22 -> 291 [penwidth=2]
    22 -> 262 [penwidth=2]
    22 -> 267 [penwidth=2]
    22 -> 290 [penwidth=2]
    22 -> 263 [penwidth=2]
    22 -> 147 [penwidth=2]
    22 -> 247 [penwidth=2]
    22 -> 250 [penwidth=2]
    22 -> 146 [penwidth=2]
    22 -> 231 [penwidth=2]
    22 -> 278 [penwidth=2]
    22 -> 295 [penwidth=2]
    22 -> 238 [penwidth=2]
    22 -> 298 [penwidth=2]
    22 -> 261 [penwidth=2]
    22 -> 230 [penwidth=2]
    22 -> 256 [penwidth=2]
    22 -> 288 [penwidth=2]
    22 -> 240 [penwidth=2]
    22 -> 289 [penwidth=2]
    22 -> 189 [penwidth=2]
    22 -> 284 [penwidth=2]
    22 -> 259 [penwidth=2]
    22 -> 237 [penwidth=2]
    22 -> 281 [penwidth=2]
    22 -> 294 [penwidth=2]
    22 -> 285 [penwidth=2]
    22 -> 251 [penwidth=2]
    22 -> 265 [penwidth=2]
    22 -> 286 [penwidth=2]
    22 -> 303 [penwidth=2]
    22 -> 268 [penwidth=2]
    22 -> 307 [penwidth=2]
    22 -> 282 [penwidth=2]
    22 -> 304 [penwidth=2]
    22 -> 309 [penwidth=2]
    22 -> 249 [penwidth=2]
    22 -> 243 [penwidth=2]
    22 -> 269 [penwidth=2]
    22 -> 239 [penwidth=2]
    22 -> 236 [penwidth=2]
    22 -> 252 [penwidth=2]
    22 -> 242 [penwidth=2]
    22 -> 255 [penwidth=2]
    22 -> 279 [penwidth=2]
    22 -> 301 [penwidth=2]
    22 -> 264 [penwidth=2]
    22 -> 302 [penwidth=2]
    22 -> 270 [penwidth=2]
    22 -> 245 [penwidth=2]
    22 -> 234 [penwidth=2]
    22 -> 299 [penwidth=2]
    22 -> 258 [penwidth=2]
    22 -> 244 [penwidth=2]
    22 -> 232 [penwidth=2]
    22 -> 283 [penwidth=2]
    22 -> 246 [penwidth=2]
    22 -> 105 [penwidth=2]
    69 -> 106 [penwidth=2]
    69 -> 250 [penwidth=2]
    69 -> 294 [penwidth=2]
    69 -> 231 [penwidth=2]
    69 -> 238 [penwidth=2]
    69 -> 246 [penwidth=2]
    69 -> 309 [penwidth=2]
    69 -> 286 [penwidth=2]
    69 -> 242 [penwidth=2]
    69 -> 298 [penwidth=2]
    69 -> 245 [penwidth=2]
    69 -> 271 [penwidth=2]
    69 -> 289 [penwidth=2]
    69 -> 241 [penwidth=2]
    69 -> 306 [penwidth=2]
    69 -> 235 [penwidth=2]
    69 -> 292 [penwidth=2]
    69 -> 282 [penwidth=2]
    69 -> 146 [penwidth=2]
    69 -> 278 [penwidth=2]
    69 -> 305 [penwidth=2]
    69 -> 280 [penwidth=2]
    69 -> 303 [penwidth=2]
    32 -> 146 [penwidth=2]
    32 -> 255 [penwidth=2]
    32 -> 241 [penwidth=2]
    32 -> 256 [penwidth=2]
    32 -> 147 [penwidth=2]
    32 -> 279 [penwidth=2]
    32 -> 235 [penwidth=2]
    32 -> 282 [penwidth=2]
    32 -> 254 [penwidth=2]
    32 -> 242 [penwidth=2]
    32 -> 309 [penwidth=2]
    32 -> 236 [penwidth=2]
    32 -> 244 [penwidth=2]
    32 -> 237 [penwidth=2]
    32 -> 298 [penwidth=2]
    32 -> 104 [penwidth=2]
    32 -> 233 [penwidth=2]
    32 -> 300 [penwidth=2]
    32 -> 304 [penwidth=2]
    32 -> 105 [penwidth=2]
    32 -> 247 [penwidth=2]
    32 -> 250 [penwidth=2]
    32 -> 251 [penwidth=2]
    32 -> 231 [penwidth=2]
    32 -> 292 [penwidth=2]
    32 -> 287 [penwidth=2]
    32 -> 263 [penwidth=2]
    32 -> 306 [penwidth=2]
    32 -> 285 [penwidth=2]
    32 -> 246 [penwidth=2]
    32 -> 190 [penwidth=2]
    32 -> 252 [penwidth=2]
    32 -> 261 [penwidth=2]
    32 -> 258 [penwidth=2]
    32 -> 280 [penwidth=2]
    32 -> 301 [penwidth=2]
    32 -> 297 [penwidth=2]
    32 -> 189 [penwidth=2]
    32 -> 266 [penwidth=2]
    32 -> 264 [penwidth=2]
    32 -> 240 [penwidth=2]
    32 -> 296 [penwidth=2]
    32 -> 268 [penwidth=2]
    32 -> 294 [penwidth=2]
    32 -> 289 [penwidth=2]
    32 -> 305 [penwidth=2]
    32 -> 148 [penwidth=2]
    32 -> 230 [penwidth=2]
    32 -> 291 [penwidth=2]
    32 -> 278 [penwidth=2]
    32 -> 188 [penwidth=2]
    32 -> 259 [penwidth=2]
    32 -> 308 [penwidth=2]
    32 -> 290 [penwidth=2]
    32 -> 234 [penwidth=2]
    32 -> 245 [penwidth=2]
    32 -> 257 [penwidth=2]
    32 -> 269 [penwidth=2]
    32 -> 283 [penwidth=2]
    32 -> 284 [penwidth=2]
    32 -> 253 [penwidth=2]
    32 -> 302 [penwidth=2]
    32 -> 307 [penwidth=2]
    32 -> 295 [penwidth=2]
    32 -> 106 [penwidth=2]
    32 -> 243 [penwidth=2]
    32 -> 270 [penwidth=2]
    32 -> 293 [penwidth=2]
    32 -> 232 [penwidth=2]
    32 -> 262 [penwidth=2]
    32 -> 238 [penwidth=2]
    32 -> 271 [penwidth=2]
    32 -> 281 [penwidth=2]
    32 -> 286 [penwidth=2]
    32 -> 299 [penwidth=2]
    42 -> 252 [penwidth=2]
    42 -> 309 [penwidth=2]
    42 -> 266 [penwidth=2]
    42 -> 303 [penwidth=2]
    42 -> 296 [penwidth=2]
    42 -> 189 [penwidth=2]
    42 -> 264 [penwidth=2]
    42 -> 302 [penwidth=2]
    42 -> 146 [penwidth=2]
    42 -> 242 [penwidth=2]
    42 -> 285 [penwidth=2]
    42 -> 254 [penwidth=2]
    42 -> 270 [penwidth=2]
    42 -> 230 [penwidth=2]
    42 -> 278 [penwidth=2]
    42 -> 280 [penwidth=2]
    42 -> 245 [penwidth=2]
    42 -> 297 [penwidth=2]
    42 -> 248 [penwidth=2]
    42 -> 243 [penwidth=2]
    48 -> 148 [penwidth=2]
    48 -> 303 [penwidth=2]
    48 -> 256 [penwidth=2]
    48 -> 262 [penwidth=2]
    48 -> 250 [penwidth=2]
    48 -> 269 [penwidth=2]
    48 -> 266 [penwidth=2]
    48 -> 231 [penwidth=2]
    48 -> 249 [penwidth=2]
    48 -> 304 [penwidth=2]
    48 -> 302 [penwidth=2]
    48 -> 242 [penwidth=2]
    48 -> 237 [penwidth=2]
    48 -> 284 [penwidth=2]
    48 -> 295 [penwidth=2]
    48 -> 104 [penwidth=2]
    49 -> 296 [penwidth=2]
    49 -> 307 [penwidth=2]
    49 -> 254 [penwidth=2]
    49 -> 302 [penwidth=2]
    49 -> 238 [penwidth=2]
    49 -> 231 [penwidth=2]
    49 -> 270 [penwidth=2]
    102 -> 260 [penwidth=2]
    102 -> 240 [penwidth=2]
    102 -> 279 [penwidth=2]
    102 -> 188 [penwidth=2]
    102 -> 146 [penwidth=2]
    102 -> 270 [penwidth=2]
    102 -> 255 [penwidth=2]
    102 -> 307 [penwidth=2]
    102 -> 286 [penwidth=2]
    102 -> 299 [penwidth=2]
    102 -> 252 [penwidth=2]
    102 -> 288 [penwidth=2]
    102 -> 265 [penwidth=2]
    102 -> 278 [penwidth=2]
    102 -> 106 [penwidth=2]
    102 -> 249 [penwidth=2]
    102 -> 236 [penwidth=2]
    102 -> 296 [penwidth=2]
    102 -> 289 [penwidth=2]
    102 -> 248 [penwidth=2]
    102 -> 257 [penwidth=2]
    102 -> 231 [penwidth=2]
    102 -> 282 [penwidth=2]
    102 -> 261 [penwidth=2]
    102 -> 264 [penwidth=2]
    102 -> 243 [penwidth=2]
    102 -> 281 [penwidth=2]
    102 -> 232 [penwidth=2]
    102 -> 269 [penwidth=2]
    102 -> 267 [penwidth=2]
    102 -> 284 [penwidth=2]
    102 -> 245 [penwidth=2]
    102 -> 238 [penwidth=2]
    102 -> 259 [penwidth=2]
    102 -> 233 [penwidth=2]
    102 -> 294 [penwidth=2]
    102 -> 287 [penwidth=2]
    102 -> 148 [penwidth=2]
    102 -> 304 [penwidth=2]
    102 -> 104 [penwidth=2]
    102 -> 309 [penwidth=2]
    102 -> 234 [penwidth=2]
    102 -> 244 [penwidth=2]
    102 -> 268 [penwidth=2]
    102 -> 306 [penwidth=2]
    102 -> 241 [penwidth=2]
    102 -> 253 [penwidth=2]
    102 -> 258 [penwidth=2]
    102 -> 247 [penwidth=2]
    102 -> 271 [penwidth=2]
    102 -> 254 [penwidth=2]
    102 -> 280 [penwidth=2]
    102 -> 251 [penwidth=2]
    102 -> 263 [penwidth=2]
    102 -> 283 [penwidth=2]
    102 -> 105 [penwidth=2]
    102 -> 230 [penwidth=2]
    102 -> 297 [penwidth=2]
    102 -> 256 [penwidth=2]
}