digraph G {
    0 [penwidth=3,label="0"]
    1 [penwidth=3,label="1"]
    2 [penwidth=3,label="2"]
    3 [penwidth=3,label="3"]
    4 [penwidth=3,label="4"]
    5 [penwidth=3,label="5"]
    6 [penwidth=3,label="6"]
    7 [penwidth=3,label="7"]
    8 [penwidth=3,label="8"]
    9 [penwidth=3,label="9"]
    10 [penwidth=3,label="10"]
    11 [penwidth=3,label="11"]
    12 [penwidth=3,label="12"]
    13 [penwidth=3,label="13"]
    14 [penwidth=3,label="14"]
    15 [penwidth=3,label="15"]
    16 [penwidth=3,label="16"]
    17 [penwidth=3,label="17"]
    18 [penwidth=3,label="18"]
    19 [penwidth=3,label="19"]
    20 [penwidth=3,label="20"]
    21 [penwidth=3,label="21"]
    22 [penwidth=3,label="22"]
    23 [penwidth=3,label="23"]
    24 [penwidth=3,label="24"]
    25 [penwidth=3,label="25"]
    26 [penwidth=3,label="26"]
    27 [penwidth=3,label="27"]
    28 [penwidth=3,label="28"]
    29 [penwidth=3,label="29"]
    30 [penwidth=3,label="30"]
    31 [penwidth=3,label="31"]
    32 [penwidth=3,label="32"]
    33 [penwidth=3,label="33"]
    34 [penwidth=3,label="34"]
    35 [penwidth=3,label="35"]
    36 [penwidth=3,label="36"]
    37 [penwidth=3,label="37"]
    38 [penwidth=3,label="38"]
    39 [penwidth=3,label="39"]
    40 [penwidth=3,label="40"]
    41 [penwidth=3,label="41"]
    42 [penwidth=3,label="42"]
    43 [penwidth=3,label="43"]
    44 [penwidth=3,label="44"]
    45 [penwidth=3,label="45"]
    46 [penwidth=3,label="46"]
    47 [penwidth=3,label="47"]
    48 [penwidth=3,label="48"]
    49 [penwidth=3,label="49"]
    50 [penwidth=3,label="50"]
    51 [penwidth=3,label="51"]
    52 [penwidth=3,label="52"]
    53 [penwidth=3,label="53"]
    54 [penwidth=3,label="54"]
    55 [penwidth=3,label="55"]
    56 [penwidth=3,label="56"]
    57 [penwidth=3,label="57"]
    58 [penwidth=3,label="58"]
    59 [penwidth=3,label="59"]
    60 [penwidth=3,label="60"]
    61 [penwidth=3,label="61"]
    62 [penwidth=3,label="62"]
    63 [penwidth=3,label="63"]
    64 [penwidth=3,label="64"]
    65 [penwidth=3,label="65"]
    66 [penwidth=3,label="66"]
    67 [penwidth=3,label="67"]
    68 [penwidth=3,label="68"]
    69 [penwidth=3,label="69"]
    70 [penwidth=3,label="70"]
    71 [penwidth=3,label="71"]
    72 [penwidth=3,label="72"]
    73 [penwidth=3,label="73"]
    74 [penwidth=3,label="74"]
    75 [penwidth=3,label="75"]
    76 [penwidth=3,label="76"]
    77 [penwidth=3,label="77"]
    78 [penwidth=3,label="78"]
    79 [penwidth=3,label="79"]
    80 [penwidth=3,label="80"]
    81 [penwidth=3,label="81"]
    82 [penwidth=3,label="82"]
    83 [penwidth=3,label="83"]
    84 [penwidth=3,label="84"]
    85 [penwidth=3,label="85"]
    86 [penwidth=3,label="86"]
    87 [penwidth=3,label="87"]
    88 [penwidth=3,label="88"]
    89 [penwidth=3,label="89"]
    90 [penwidth=3,label="90"]
    91 [penwidth=3,label="91"]
    92 [penwidth=3,label="92"]
    93 [penwidth=3,label="93"]
    94 [penwidth=3,label="94"]
    95 [penwidth=3,label="95"]
    96 [penwidth=3,label="96"]
    97 [penwidth=3,label="97"]
    98 [penwidth=3,label="98"]
    99 [penwidth=3,label="99"]
    100 [penwidth=3,label="100"]
    101 [penwidth=3,label="101"]
    102 [penwidth=3,label="102"]
    103 [penwidth=3,label="103"]
    104 [penwidth=3,label="104"]
    105 [penwidth=3,label="105"]
    106 [penwidth=3,label="106"]
    107 [penwidth=3,label="107"]
    108 [penwidth=3,label="108"]
    109 [penwidth=3,label="109"]
    110 [penwidth=3,label="110"]
    111 [penwidth=3,label="111"]
    112 [penwidth=3,label="112"]
    113 [penwidth=3,label="113"]
    114 [penwidth=3,label="114"]
    115 [penwidth=3,label="115"]
    116 [penwidth=3,label="116"]
    117 [penwidth=3,label="117"]
    118 [penwidth=3,label="118"]
    119 [penwidth=3,label="119"]
    120 [penwidth=3,label="120"]
    121 [penwidth=3,label="121"]
    122 [penwidth=3,label="122"]
    123 [penwidth=3,label="123"]
    124 [penwidth=3,label="124"]
    125 [penwidth=3,label="125"]
    126 [penwidth=3,label="126"]
    127 [penwidth=3,label="127"]
    128 [penwidth=3,label="128"]
    129 [penwidth=3,label="129"]
    130 [penwidth=3,label="130"]
    131 [penwidth=3,label="131"]
    132 [penwidth=3,label="132"]
    133 [penwidth=3,label="133"]
    134 [penwidth=3,label="134"]
    135 [penwidth=3,label="135"]
    136 [penwidth=3,label="136"]
    137 [penwidth=3,label="137"]
    138 [penwidth=3,label="138"]
    139 [penwidth=3,label="139"]
    140 [penwidth=3,label="140"]
    141 [penwidth=3,label="141"]
    142 [penwidth=3,label="142"]
    143 [penwidth=3,label="143"]
    144 [penwidth=3,label="144"]
    145 [penwidth=3,label="145"]
    146 [penwidth=3,label="146"]
    147 [penwidth=3,label="147"]
    148 [penwidth=3,label="148"]
    149 [penwidth=3,label="149"]
    150 [penwidth=3,label="150"]
    151 [penwidth=3,label="151"]
    152 [penwidth=3,label="152"]
    153 [penwidth=3,label="153"]
    154 [penwidth=3,label="154"]
    155 [penwidth=3,label="155"]
    156 [penwidth=3,label="156"]
    157 [penwidth=3,label="157"]
    158 [penwidth=3,label="158"]
    159 [penwidth=3,label="159"]
    160 [penwidth=3,label="160"]
    161 [penwidth=3,label="161"]
    162 [penwidth=3,label="162"]
    163 [penwidth=3,label="163"]
    164 [penwidth=3,label="164"]
    165 [penwidth=3,label="165"]
    166 [penwidth=3,label="166"]
    167 [penwidth=3,label="167"]
    168 [penwidth=3,label="168"]
    169 [penwidth=3,label="169"]
    170 [penwidth=3,label="170"]
    171 [penwidth=3,label="171"]
    172 [penwidth=3,label="172"]
    173 [penwidth=3,label="173"]
    174 [penwidth=3,label="174"]
    175 [penwidth=3,label="175"]
    176 [penwidth=3,label="176"]
    177 [penwidth=3,label="177"]
    178 [penwidth=3,label="178"]
    179 [penwidth=3,label="179"]
    180 [penwidth=3,label="180"]
    181 [penwidth=3,label="181"]
    182 [penwidth=3,label="182"]
    183 [penwidth=3,label="183"]
    184 [penwidth=3,label="184"]
    185 [penwidth=3,label="185"]
    186 [penwidth=3,label="186"]
    187 [penwidth=3,label="187"]
    188 [penwidth=3,label="188"]
    189 [penwidth=3,label="189"]
    190 [penwidth=3,label="190"]
    191 [penwidth=3,label="191"]
    192 [penwidth=3,label="192"]
    193 [penwidth=3,label="193"]
    194 [penwidth=3,label="194"]
    195 [penwidth=3,label="195"]
    196 [penwidth=3,label="196"]
    197 [penwidth=3,label="197"]
    198 [penwidth=3,label="198"]
    199 [penwidth=3,label="199"]
    200 [penwidth=3,label="200"]
    201 [penwidth=3,label="201"]
    202 [penwidth=3,label="202"]
    203 [penwidth=3,label="203"]
    204 [penwidth=3,label="204"]
    205 [penwidth=3,label="205"]
    206 [penwidth=3,label="206"]
    207 [penwidth=3,label="207"]
    208 [penwidth=3,label="208"]
    209 [penwidth=3,label="209"]
    210 [penwidth=3,label="210"]
    211 [penwidth=3,label="211"]
    212 [penwidth=3,label="212"]
    213 [penwidth=3,label="213"]
    214 [penwidth=3,label="214"]
    215 [penwidth=3,label="215"]
    216 [penwidth=3,label="216"]
    217 [penwidth=3,label="217"]
    218 [penwidth=3,label="218"]
    219 [penwidth=3,label="219"]
    220 [penwidth=3,label="220"]
    221 [penwidth=3,label="221"]
    222 [penwidth=3,label="222"]
    223 [penwidth=3,label="223"]
    224 [penwidth=3,label="224"]
    225 [penwidth=3,label="225"]
    226 [penwidth=3,label="226"]
    227 [penwidth=3,label="227"]
    228 [penwidth=3,label="228"]
    229 [penwidth=3,label="229"]
    230 [penwidth=3,label="230"]
    231 [penwidth=3,label="231"]
    232 [penwidth=3,label="232"]
    233 [penwidth=3,label="233"]
    234 [penwidth=3,label="234"]
    235 [penwidth=3,label="235"]
    236 [penwidth=3,label="236"]
    237 [penwidth=3,label="237"]
    238 [penwidth=3,label="238"]
    239 [penwidth=3,label="239"]
    240 [penwidth=3,label="240"]
    241 [penwidth=3,label="241"]
    242 [penwidth=3,label="242"]
    243 [penwidth=3,label="243"]
    244 [penwidth=3,label="244"]
    245 [penwidth=3,label="245"]
    246 [penwidth=3,label="246"]
    247 [penwidth=3,label="247"]
    248 [penwidth=3,label="248"]
    249 [penwidth=3,label="249"]
    250 [penwidth=3,label="250"]
    251 [penwidth=3,label="251"]
    252 [penwidth=3,label="252"]
    253 [penwidth=3,label="253"]
    254 [penwidth=3,label="254"]
    255 [penwidth=3,label="255"]
    256 [penwidth=3,label="256"]
    257 [penwidth=3,label="257"]
    258 [penwidth=3,label="258"]
    259 [penwidth=3,label="259"]
    260 [penwidth=3,label="260"]
    261 [penwidth=3,label="261"]
    262 [penwidth=3,label="262"]
    263 [penwidth=3,label="263"]
    264 [penwidth=3,label="264"]
    265 [penwidth=3,label="265"]
    266 [penwidth=3,label="266"]
    267 [penwidth=3,label="267"]
    268 [penwidth=3,label="268"]
    269 [penwidth=3,label="269"]
    270 [penwidth=3,label="270"]
    271 [penwidth=3,label="271"]
    272 [penwidth=3,label="272"]
    273 [penwidth=3,label="273"]
    274 [penwidth=3,label="274"]
    275 [penwidth=3,label="275"]
    276 [penwidth=3,label="276"]
    277 [penwidth=3,label="277"]
    278 [penwidth=3,label="278"]
    279 [penwidth=3,label="279"]
    280 [penwidth=3,label="280"]
    281 [penwidth=3,label="281"]
    282 [penwidth=3,label="282"]
    283 [penwidth=3,label="283"]
    284 [penwidth=3,label="284"]
    285 [penwidth=3,label="285"]
    286 [penwidth=3,label="286"]
    287 [penwidth=3,label="287"]
    288 [penwidth=3,label="288"]
    289 [penwidth=3,label="289"]
    290 [penwidth=3,label="290"]
    291 [penwidth=3,label="291"]
    292 [penwidth=3,label="292"]
    293 [penwidth=3,label="293"]
    294 [penwidth=3,label="294"]
    295 [penwidth=3,label="295"]
    296 [penwidth=3,label="296"]
    297 [penwidth=3,label="297"]
    298 [penwidth=3,label="298"]
    299 [penwidth=3,label="299"]
    300 [penwidth=3,label="300"]
    301 [penwidth=3,label="301"]
    302 [penwidth=3,label="302"]
    303 [penwidth=3,label="303"]
    304 [penwidth=3,label="304"]
    305 [penwidth=3,label="305"]
    306 [penwidth=3,label="306"]
    307 [penwidth=3,label="307"]
    308 [penwidth=3,label="308"]
    309 [penwidth=3,label="309"]

    51 -> 0 [penwidth=2]
    93 -> 0 [penwidth=2]
    135 -> 51 [penwidth=2]
    52 -> 51 [penwidth=2]
    94 -> 51 [penwidth=2]
    136 -> 51 [penwidth=2]
    53 -> 51 [penwidth=2]
    95 -> 51 [penwidth=2]
    137 -> 51 [penwidth=2]
    54 -> 51 [penwidth=2]
    96 -> 51 [penwidth=2]
    138 -> 51 [penwidth=2]
    55 -> 51 [penwidth=2]
    97 -> 93 [penwidth=2]
    139 -> 93 [penwidth=2]
    56 -> 93 [penwidth=2]
    98 -> 93 [penwidth=2]
    140 -> 93 [penwidth=2]
    57 -> 93 [penwidth=2]
    99 -> 135 [penwidth=2]
    141 -> 135 [penwidth=2]
    58 -> 135 [penwidth=2]
    100 -> 135 [penwidth=2]
    142 -> 135 [penwidth=2]
    59 -> 135 [penwidth=2]
    101 -> 135 [penwidth=2]
    143 -> 135 [penwidth=2]
    60 -> 135 [penwidth=2]
    102 -> 135 [penwidth=2]
    144 -> 135 [penwidth=2]
    61 -> 135 [penwidth=2]
    103 -> 135 [penwidth=2]
    145 -> 135 [penwidth=2]
    62 -> 135 [penwidth=2]
    104 -> 135 [penwidth=2]
    146 -> 135 [penwidth=2]
    63 -> 135 [penwidth=2]
    105 -> 135 [penwidth=2]
    147 -> 52 [penwidth=2]
    64 -> 52 [penwidth=2]
    106 -> 52 [penwidth=2]
    148 -> 52 [penwidth=2]
    65 -> 52 [penwidth=2]
    107 -> 52 [penwidth=2]
    149 -> 52 [penwidth=2]
    66 -> 52 [penwidth=2]
    108 -> 52 [penwidth=2]
    150 -> 52 [penwidth=2]
    67 -> 52 [penwidth=2]
    109 -> 52 [penwidth=2]
    151 -> 94 [penwidth=2]
    68 -> 94 [penwidth=2]
    110 -> 94 [penwidth=2]
    152 -> 94 [penwidth=2]
    69 -> 94 [penwidth=2]
    111 -> 94 [penwidth=2]
    153 -> 94 [penwidth=2]
    70 -> 94 [penwidth=2]
    112 -> 94 [penwidth=2]
    154 -> 94 [penwidth=2]
    71 -> 94 [penwidth=2]
    113 -> 94 [penwidth=2]
    155 -> 94 [penwidth=2]
    72 -> 94 [penwidth=2]
    114 -> 94 [penwidth=2]
    156 -> 94 [penwidth=2]
    73 -> 94 [penwidth=2]
    115 -> 94 [penwidth=2]
    157 -> 94 [penwidth=2]
    74 -> 94 [penwidth=2]
    116 -> 94 [penwidth=2]
    158 -> 94 [penwidth=2]
    75 -> 94 [penwidth=2]
    117 -> 94 [penwidth=2]
    159 -> 94 [penwidth=2]
    76 -> 94 [penwidth=2]
    118 -> 136 [penwidth=2]
    160 -> 136 [penwidth=2]
    77 -> 136 [penwidth=2]
    119 -> 136 [penwidth=2]
    161 -> 136 [penwidth=2]
    78 -> 136 [penwidth=2]
    120 -> 136 [penwidth=2]
    162 -> 53 [penwidth=2]
    79 -> 53 [penwidth=2]
    121 -> 95 [penwidth=2]
    163 -> 95 [penwidth=2]
    80 -> 95 [penwidth=2]
    122 -> 95 [penwidth=2]
    164 -> 95 [penwidth=2]
    81 -> 95 [penwidth=2]
    123 -> 95 [penwidth=2]
    165 -> 95 [penwidth=2]
    82 -> 95 [penwidth=2]
    124 -> 95 [penwidth=2]
    166 -> 95 [penwidth=2]
    83 -> 95 [penwidth=2]
    125 -> 95 [penwidth=2]
    167 -> 95 [penwidth=2]
    84 -> 95 [penwidth=2]
    126 -> 95 [penwidth=2]
    168 -> 95 [penwidth=2]
    85 -> 95 [penwidth=2]
    127 -> 95 [penwidth=2]
    169 -> 95 [penwidth=2]
    86 -> 95 [penwidth=2]
    128 -> 95 [penwidth=2]
    170 -> 95 [penwidth=2]
    87 -> 137 [penwidth=2]
    129 -> 137 [penwidth=2]
    171 -> 54 [penwidth=2]
    88 -> 54 [penwidth=2]
    130 -> 54 [penwidth=2]
    172 -> 54 [penwidth=2]
    89 -> 54 [penwidth=2]
    131 -> 54 [penwidth=2]
    173 -> 54 [penwidth=2]
    90 -> 54 [penwidth=2]
    132 -> 54 [penwidth=2]
    174 -> 54 [penwidth=2]
    91 -> 54 [penwidth=2]
    133 -> 96 [penwidth=2]
    175 -> 96 [penwidth=2]
    92 -> 96 [penwidth=2]
    134 -> 96 [penwidth=2]
    176 -> 96 [penwidth=2]
    9 -> 96 [penwidth=2]
    10 -> 96 [penwidth=2]
    11 -> 96 [penwidth=2]
    12 -> 96 [penwidth=2]
    13 -> 96 [penwidth=2]
    14 -> 96 [penwidth=2]
    15 -> 96 [penwidth=2]
    16 -> 96 [penwidth=2]
    17 -> 96 [penwidth=2]
    18 -> 96 [penwidth=2]
    19 -> 96 [penwidth=2]
    20 -> 96 [penwidth=2]
    21 -> 138 [penwidth=2]
    22 -> 138 [penwidth=2]
    23 -> 138 [penwidth=2]
    24 -> 138 [penwidth=2]
    25 -> 138 [penwidth=2]
    26 -> 138 [penwidth=2]
    27 -> 138 [penwidth=2]
    28 -> 55 [penwidth=2]
    29 -> 55 [penwidth=2]
    30 -> 55 [penwidth=2]
    31 -> 55 [penwidth=2]
    32 -> 97 [penwidth=2]
    33 -> 97 [penwidth=2]
    34 -> 139 [penwidth=2]
    35 -> 139 [penwidth=2]
    36 -> 139 [penwidth=2]
    37 -> 139 [penwidth=2]
    38 -> 56 [penwidth=2]
    39 -> 56 [penwidth=2]
    40 -> 56 [penwidth=2]
    41 -> 56 [penwidth=2]
    42 -> 56 [penwidth=2]
    43 -> 56 [penwidth=2]
    44 -> 56 [penwidth=2]
    45 -> 56 [penwidth=2]
    46 -> 56 [penwidth=2]
    47 -> 56 [penwidth=2]
    48 -> 56 [penwidth=2]
    49 -> 56 [penwidth=2]
    50 -> 56 [penwidth=2]
    303 -> 56 [penwidth=2]
    304 -> 56 [penwidth=2]
    305 -> 56 [penwidth=2]
    306 -> 56 [penwidth=2]
    307 -> 56 [penwidth=2]
    308 -> 56 [penwidth=2]
    309 -> 56 [penwidth=2]
    1 -> 56 [penwidth=2]
    2 -> 56 [penwidth=2]
    3 -> 56 [penwidth=2]
    4 -> 56 [penwidth=2]
    5 -> 56 [penwidth=2]
    6 -> 56 [penwidth=2]
    7 -> 98 [penwidth=2]
    8 -> 98 [penwidth=2]
    261 -> 98 [penwidth=2]
    262 -> 98 [penwidth=2]
    263 -> 98 [penwidth=2]
    264 -> 98 [penwidth=2]
    265 -> 57 [penwidth=2]
    266 -> 57 [penwidth=2]
    267 -> 57 [penwidth=2]
    268 -> 57 [penwidth=2]
    269 -> 57 [penwidth=2]
    270 -> 57 [penwidth=2]
    271 -> 57 [penwidth=2]
    272 -> 57 [penwidth=2]
    273 -> 57 [penwidth=2]
    274 -> 57 [penwidth=2]
    275 -> 57 [penwidth=2]
    276 -> 57 [penwidth=2]
    277 -> 57 [penwidth=2]
    278 -> 57 [penwidth=2]
    279 -> 57 [penwidth=2]
    280 -> 57 [penwidth=2]
    281 -> 57 [penwidth=2]
    282 -> 57 [penwidth=2]
    283 -> 57 [penwidth=2]
    284 -> 57 [penwidth=2]
    285 -> 57 [penwidth=2]
    286 -> 57 [penwidth=2]
    287 -> 57 [penwidth=2]
    288 -> 57 [penwidth=2]
    289 -> 57 [penwidth=2]
    290 -> 57 [penwidth=2]
    291 -> 99 [penwidth=2]
    292 -> 99 [penwidth=2]
    293 -> 99 [penwidth=2]
    294 -> 99 [penwidth=2]
    295 -> 99 [penwidth=2]
    296 -> 99 [penwidth=2]
    297 -> 141 [penwidth=2]
    298 -> 141 [penwidth=2]
    299 -> 141 [penwidth=2]
    300 -> 141 [penwidth=2]
    301 -> 141 [penwidth=2]
    302 -> 141 [penwidth=2]
    177 -> 141 [penwidth=2]
    219 -> 141 [penwidth=2]
    178 -> 141 [penwidth=2]
    220 -> 141 [penwidth=2]
    179 -> 141 [penwidth=2]
    221 -> 141 [penwidth=2]
    180 -> 141 [penwidth=2]
    222 -> 141 [penwidth=2]
    181 -> 141 [penwidth=2]
    223 -> 141 [penwidth=2]
    182 -> 141 [penwidth=2]
    224 -> 58 [penwidth=2]
    183 -> 58 [penwidth=2]
    225 -> 58 [penwidth=2]
    184 -> 58 [penwidth=2]
    226 -> 58 [penwidth=2]
    185 -> 58 [penwidth=2]
    227 -> 58 [penwidth=2]
    186 -> 58 [penwidth=2]
    228 -> 58 [penwidth=2]
    187 -> 58 [penwidth=2]
    229 -> 58 [penwidth=2]
    188 -> 58 [penwidth=2]
    230 -> 100 [penwidth=2]
    189 -> 100 [penwidth=2]
    231 -> 100 [penwidth=2]
    190 -> 100 [penwidth=2]
    232 -> 100 [penwidth=2]
    191 -> 100 [penwidth=2]
    233 -> 100 [penwidth=2]
    192 -> 100 [penwidth=2]
    234 -> 100 [penwidth=2]
    193 -> 100 [penwidth=2]
    235 -> 100 [penwidth=2]
    194 -> 100 [penwidth=2]
    236 -> 100 [penwidth=2]
    195 -> 100 [penwidth=2]
    237 -> 100 [penwidth=2]
    196 -> 100 [penwidth=2]
    238 -> 100 [penwidth=2]
    197 -> 100 [penwidth=2]
    239 -> 100 [penwidth=2]
    198 -> 100 [penwidth=2]
    240 -> 142 [penwidth=2]
    199 -> 59 [penwidth=2]
    241 -> 59 [penwidth=2]
    200 -> 59 [penwidth=2]
    242 -> 59 [penwidth=2]
    201 -> 59 [penwidth=2]
    243 -> 59 [penwidth=2]
    202 -> 59 [penwidth=2]
    244 -> 59 [penwidth=2]
    203 -> 59 [penwidth=2]
    245 -> 59 [penwidth=2]
    204 -> 59 [penwidth=2]
    246 -> 59 [penwidth=2]
    205 -> 59 [penwidth=2]
    247 -> 59 [penwidth=2]
    206 -> 101 [penwidth=2]
    248 -> 101 [penwidth=2]
    207 -> 101 [penwidth=2]
    249 -> 101 [penwidth=2]
    208 -> 101 [penwidth=2]
    250 -> 101 [penwidth=2]
    209 -> 101 [penwidth=2]
    251 -> 101 [penwidth=2]
    210 -> 101 [penwidth=2]
    252 -> 101 [penwidth=2]
    211 -> 101 [penwidth=2]
    253 -> 101 [penwidth=2]
    212 -> 101 [penwidth=2]
    254 -> 101 [penwidth=2]
    213 -> 101 [penwidth=2]
    255 -> 101 [penwidth=2]
    214 -> 101 [penwidth=2]
    256 -> 101 [penwidth=2]
    215 -> 101 [penwidth=2]
    257 -> 101 [penwidth=2]
    258 -> 101 [penwidth=2]
    216 -> 101 [penwidth=2]
    217 -> 101 [penwidth=2]
    259 -> 101 [penwidth=2]
    218 -> 143 [penwidth=2]
    260 -> 143 [penwidth=2]
    94 -> 93 [penwidth=2]
    137 -> 93 [penwidth=2]
    67 -> 136 [penwidth=2]
    67 -> 94 [penwidth=2]
    67 -> 54 [penwidth=2]
    67 -> 135 [penwidth=2]
    67 -> 137 [penwidth=2]
    67 -> 57 [penwidth=2]
    67 -> 96 [penwidth=2]
    67 -> 53 [penwidth=2]
    67 -> 98 [penwidth=2]
    109 -> 57 [penwidth=2]
    109 -> 139 [penwidth=2]
    109 -> 97 [penwidth=2]
    109 -> 55 [penwidth=2]
    109 -> 136 [penwidth=2]
    109 -> 94 [penwidth=2]
    109 -> 135 [penwidth=2]
    109 -> 138 [penwidth=2]
    151 -> 138 [penwidth=2]
    151 -> 96 [penwidth=2]
    151 -> 137 [penwidth=2]
    152 -> 138 [penwidth=2]
    152 -> 135 [penwidth=2]
    152 -> 136 [penwidth=2]
    152 -> 52 [penwidth=2]
    152 -> 140 [penwidth=2]
    152 -> 55 [penwidth=2]
    152 -> 96 [penwidth=2]
    152 -> 98 [penwidth=2]
    152 -> 95 [penwidth=2]
    112 -> 98 [penwidth=2]
    112 -> 138 [penwidth=2]
    112 -> 139 [penwidth=2]
    73 -> 96 [penwidth=2]
    73 -> 97 [penwidth=2]
    73 -> 137 [penwidth=2]
    73 -> 138 [penwidth=2]
    73 -> 56 [penwidth=2]
    73 -> 139 [penwidth=2]
    73 -> 52 [penwidth=2]
    73 -> 135 [penwidth=2]
    73 -> 57 [penwidth=2]
    73 -> 95 [penwidth=2]
    73 -> 98 [penwidth=2]
    160 -> 56 [penwidth=2]
    160 -> 97 [penwidth=2]
    161 -> 135 [penwidth=2]
    161 -> 138 [penwidth=2]
    161 -> 137 [penwidth=2]
    161 -> 139 [penwidth=2]
    161 -> 96 [penwidth=2]
    161 -> 55 [penwidth=2]
    161 -> 54 [penwidth=2]
    161 -> 95 [penwidth=2]
    161 -> 98 [penwidth=2]
    161 -> 97 [penwidth=2]
    161 -> 140 [penwidth=2]
    161 -> 52 [penwidth=2]
    161 -> 56 [penwidth=2]
    161 -> 53 [penwidth=2]
    84 -> 57 [penwidth=2]
    84 -> 98 [penwidth=2]
    84 -> 137 [penwidth=2]
    84 -> 52 [penwidth=2]
    170 -> 53 [penwidth=2]
    170 -> 97 [penwidth=2]
    170 -> 140 [penwidth=2]
    170 -> 56 [penwidth=2]
    170 -> 54 [penwidth=2]
    170 -> 57 [penwidth=2]
    170 -> 136 [penwidth=2]
    170 -> 52 [penwidth=2]
    170 -> 138 [penwidth=2]
    174 -> 96 [penwidth=2]
    133 -> 53 [penwidth=2]
    133 -> 56 [penwidth=2]
    12 -> 138 [penwidth=2]
    12 -> 140 [penwidth=2]
    12 -> 97 [penwidth=2]
    12 -> 95 [penwidth=2]
    12 -> 57 [penwidth=2]
    12 -> 55 [penwidth=2]
    12 -> 139 [penwidth=2]
    12 -> 56 [penwidth=2]
    12 -> 136 [penwidth=2]
    12 -> 98 [penwidth=2]
    16 -> 95 [penwidth=2]
    16 -> 137 [penwidth=2]
    16 -> 136 [penwidth=2]
    16 -> 57 [penwidth=2]
    16 -> 56 [penwidth=2]
    16 -> 139 [penwidth=2]
    16 -> 97 [penwidth=2]
    16 -> 55 [penwidth=2]
    16 -> 53 [penwidth=2]
    16 -> 138 [penwidth=2]
    16 -> 135 [penwidth=2]
    17 -> 95 [penwidth=2]
    17 -> 140 [penwidth=2]
    17 -> 137 [penwidth=2]
    17 -> 135 [penwidth=2]
    17 -> 56 [penwidth=2]
    28 -> 96 [penwidth=2]
    28 -> 95 [penwidth=2]
    28 -> 56 [penwidth=2]
    28 -> 139 [penwidth=2]
    28 -> 97 [penwidth=2]
    28 -> 94 [penwidth=2]
    28 -> 57 [penwidth=2]
    28 -> 98 [penwidth=2]
    28 -> 135 [penwidth=2]
    28 -> 136 [penwidth=2]
    28 -> 54 [penwidth=2]
    33 -> 52 [penwidth=2]
    33 -> 56 [penwidth=2]
    33 -> 98 [penwidth=2]
    33 -> 138 [penwidth=2]
    33 -> 55 [penwidth=2]
    33 -> 57 [penwidth=2]
    33 -> 94 [penwidth=2]
    33 -> 136 [penwidth=2]
    33 -> 135 [penwidth=2]
    33 -> 137 [penwidth=2]
    33 -> 95 [penwidth=2]
    33 -> 140 [penwidth=2]
    33 -> 96 [penwidth=2]
    33 -> 139 [penwidth=2]
    36 -> 136 [penwidth=2]
    36 -> 98 [penwidth=2]
    36 -> 57 [penwidth=2]
    36 -> 94 [penwidth=2]
    36 -> 140 [penwidth=2]
    36 -> 56 [penwidth=2]
    36 -> 55 [penwidth=2]
    36 -> 135 [penwidth=2]
    36 -> 96 [penwidth=2]
    36 -> 95 [penwidth=2]
    36 -> 54 [penwidth=2]
    36 -> 53 [penwidth=2]
    36 -> 52 [penwidth=2]
    36 -> 97 [penwidth=2]
    36 -> 137 [penwidth=2]
    44 -> 55 [penwidth=2]
    44 -> 53 [penwidth=2]
    44 -> 138 [penwidth=2]
    44 -> 135 [penwidth=2]
    44 -> 97 [penwidth=2]
    44 -> 94 [penwidth=2]
    44 -> 139 [penwidth=2]
    44 -> 136 [penwidth=2]
    44 -> 54 [penwidth=2]
    44 -> 98 [penwidth=2]
    44 -> 96 [penwidth=2]
    44 -> 137 [penwidth=2]
    46 -> 98 [penwidth=2]
    46 -> 138 [penwidth=2]
    46 -> 140 [penwidth=2]
    306 -> 136 [penwidth=2]
    306 -> 97 [penwidth=2]
    308 -> 57 [penwidth=2]
    261 -> 57 [penwidth=2]
    261 -> 95 [penwidth=2]
    261 -> 94 [penwidth=2]
    261 -> 53 [penwidth=2]
    261 -> 97 [penwidth=2]
    261 -> 96 [penwidth=2]
    261 -> 55 [penwidth=2]
    266 -> 140 [penwidth=2]
    270 -> 53 [penwidth=2]
    270 -> 138 [penwidth=2]
    270 -> 94 [penwidth=2]
    270 -> 95 [penwidth=2]
    270 -> 139 [penwidth=2]
    289 -> 94 [penwidth=2]
    289 -> 52 [penwidth=2]
    289 -> 53 [penwidth=2]
    289 -> 136 [penwidth=2]
    289 -> 135 [penwidth=2]
    289 -> 137 [penwidth=2]
    298 -> 109 [penwidth=2]
    298 -> 117 [penwidth=2]
    298 -> 18 [penwidth=2]
    298 -> 14 [penwidth=2]
    298 -> 281 [penwidth=2]
    298 -> 277 [penwidth=2]
    298 -> 132 [penwidth=2]
    298 -> 269 [penwidth=2]
    298 -> 25 [penwidth=2]
    298 -> 92 [penwidth=2]
    298 -> 4 [penwidth=2]
    298 -> 166 [penwidth=2]
    298 -> 78 [penwidth=2]
    298 -> 263 [penwidth=2]
    298 -> 143 [penwidth=2]
    298 -> 156 [penwidth=2]
    298 -> 19 [penwidth=2]
    298 -> 26 [penwidth=2]
    298 -> 90 [penwidth=2]
    298 -> 64 [penwidth=2]
    298 -> 127 [penwidth=2]
    298 -> 15 [penwidth=2]
    298 -> 274 [penwidth=2]
    298 -> 271 [penwidth=2]
    298 -> 8 [penwidth=2]
    298 -> 286 [penwidth=2]
    298 -> 289 [penwidth=2]
    298 -> 87 [penwidth=2]
    298 -> 270 [penwidth=2]
    298 -> 170 [penwidth=2]
    298 -> 174 [penwidth=2]
    298 -> 88 [penwidth=2]
    298 -> 276 [penwidth=2]
    298 -> 113 [penwidth=2]
    298 -> 265 [penwidth=2]
    298 -> 147 [penwidth=2]
    298 -> 124 [penwidth=2]
    298 -> 40 [penwidth=2]
    298 -> 152 [penwidth=2]
    298 -> 167 [penwidth=2]
    298 -> 28 [penwidth=2]
    298 -> 76 [penwidth=2]
    298 -> 42 [penwidth=2]
    298 -> 273 [penwidth=2]
    298 -> 70 [penwidth=2]
    298 -> 279 [penwidth=2]
    298 -> 20 [penwidth=2]
    298 -> 71 [penwidth=2]
    298 -> 17 [penwidth=2]
    298 -> 171 [penwidth=2]
    298 -> 112 [penwidth=2]
    298 -> 262 [penwidth=2]
    298 -> 134 [penwidth=2]
    298 -> 63 [penwidth=2]
    298 -> 165 [penwidth=2]
    298 -> 74 [penwidth=2]
    298 -> 77 [penwidth=2]
    298 -> 144 [penwidth=2]
    298 -> 175 [penwidth=2]
    298 -> 266 [penwidth=2]
    298 -> 30 [penwidth=2]
    298 -> 32 [penwidth=2]
    298 -> 79 [penwidth=2]
    298 -> 160 [penwidth=2]
    298 -> 129 [penwidth=2]
    298 -> 69 [penwidth=2]
    298 -> 29 [penwidth=2]
    298 -> 154 [penwidth=2]
    298 -> 261 [penwidth=2]
    298 -> 10 [penwidth=2]
    298 -> 43 [penwidth=2]
    298 -> 163 [penwidth=2]
    298 -> 305 [penwidth=2]
    298 -> 121 [penwidth=2]
    298 -> 283 [penwidth=2]
    298 -> 21 [penwidth=2]
    298 -> 59 [penwidth=2]
    298 -> 149 [penwidth=2]
    298 -> 39 [penwidth=2]
    298 -> 272 [penwidth=2]
    298 -> 99 [penwidth=2]
    298 -> 278 [penwidth=2]
    298 -> 73 [penwidth=2]
    298 -> 50 [penwidth=2]
    298 -> 307 [penwidth=2]
    298 -> 288 [penwidth=2]
    298 -> 125 [penwidth=2]
    298 -> 157 [penwidth=2]
    298 -> 101 [penwidth=2]
    298 -> 151 [penwidth=2]
    298 -> 126 [penwidth=2]
    298 -> 267 [penwidth=2]
    298 -> 80 [penwidth=2]
    298 -> 130 [penwidth=2]
    298 -> 60 [penwidth=2]
    298 -> 36 [penwidth=2]
    298 -> 290 [penwidth=2]
    298 -> 104 [penwidth=2]
    298 -> 37 [penwidth=2]
    298 -> 116 [penwidth=2]
    298 -> 91 [penwidth=2]
    298 -> 48 [penwidth=2]
    298 -> 275 [penwidth=2]
    298 -> 168 [penwidth=2]
    298 -> 155 [penwidth=2]
    298 -> 161 [penwidth=2]
    298 -> 58 [penwidth=2]
    298 -> 67 [penwidth=2]
    298 -> 119 [penwidth=2]
    298 -> 123 [penwidth=2]
    298 -> 85 [penwidth=2]
    298 -> 162 [penwidth=2]
    298 -> 176 [penwidth=2]
    298 -> 86 [penwidth=2]
    298 -> 111 [penwidth=2]
    298 -> 309 [penwidth=2]
    298 -> 115 [penwidth=2]
    298 -> 31 [penwidth=2]
    298 -> 16 [penwidth=2]
    298 -> 44 [penwidth=2]
    298 -> 89 [penwidth=2]
    298 -> 158 [penwidth=2]
    298 -> 66 [penwidth=2]
    298 -> 12 [penwidth=2]
    298 -> 280 [penwidth=2]
    298 -> 41 [penwidth=2]
    298 -> 148 [penwidth=2]
    298 -> 287 [penwidth=2]
    298 -> 35 [penwidth=2]
    298 -> 81 [penwidth=2]
    298 -> 146 [penwidth=2]
    298 -> 2 [penwidth=2]
    298 -> 169 [penwidth=2]
    298 -> 9 [penwidth=2]
    298 -> 120 [penwidth=2]
    298 -> 118 [penwidth=2]
    298 -> 23 [penwidth=2]
    298 -> 83 [penwidth=2]
    298 -> 33 [penwidth=2]
    298 -> 38 [penwidth=2]
    298 -> 46 [penwidth=2]
    298 -> 49 [penwidth=2]
    298 -> 106 [penwidth=2]
    298 -> 110 [penwidth=2]
    298 -> 159 [penwidth=2]
    298 -> 304 [penwidth=2]
    298 -> 62 [penwidth=2]
    298 -> 308 [penwidth=2]
    191 -> 64 [penwidth=2]
    191 -> 175 [penwidth=2]
    191 -> 277 [penwidth=2]
    191 -> 26 [penwidth=2]
    191 -> 19 [penwidth=2]
    191 -> 279 [penwidth=2]
    191 -> 159 [penwidth=2]
    191 -> 89 [penwidth=2]
    191 -> 272 [penwidth=2]
    191 -> 12 [penwidth=2]
    191 -> 1 [penwidth=2]
    191 -> 23 [penwidth=2]
    191 -> 283 [penwidth=2]
    191 -> 62 [penwidth=2]
    191 -> 289 [penwidth=2]
    191 -> 80 [penwidth=2]
    191 -> 162 [penwidth=2]
    191 -> 14 [penwidth=2]
    191 -> 265 [penwidth=2]
    191 -> 91 [penwidth=2]
    191 -> 118 [penwidth=2]
    191 -> 61 [penwidth=2]
    191 -> 29 [penwidth=2]
    191 -> 82 [penwidth=2]
    191 -> 172 [penwidth=2]
    191 -> 105 [penwidth=2]
    236 -> 133 [penwidth=2]
    236 -> 287 [penwidth=2]
    236 -> 92 [penwidth=2]
    236 -> 150 [penwidth=2]
    236 -> 132 [penwidth=2]
    236 -> 284 [penwidth=2]
    236 -> 268 [penwidth=2]
    236 -> 42 [penwidth=2]
    236 -> 20 [penwidth=2]
    236 -> 49 [penwidth=2]
    236 -> 144 [penwidth=2]
    236 -> 6 [penwidth=2]
    236 -> 13 [penwidth=2]
    236 -> 47 [penwidth=2]
    236 -> 290 [penwidth=2]
    236 -> 37 [penwidth=2]
    236 -> 28 [penwidth=2]
    236 -> 48 [penwidth=2]
    236 -> 81 [penwidth=2]
    236 -> 72 [penwidth=2]
    236 -> 288 [penwidth=2]
    236 -> 30 [penwidth=2]
    236 -> 79 [penwidth=2]
    236 -> 146 [penwidth=2]
    236 -> 4 [penwidth=2]
    236 -> 129 [penwidth=2]
    236 -> 128 [penwidth=2]
    236 -> 148 [penwidth=2]
    236 -> 155 [penwidth=2]
    236 -> 10 [penwidth=2]
    236 -> 303 [penwidth=2]
    208 -> 172 [penwidth=2]
    208 -> 284 [penwidth=2]
    208 -> 11 [penwidth=2]
    208 -> 282 [penwidth=2]
    208 -> 171 [penwidth=2]
    208 -> 18 [penwidth=2]
    208 -> 276 [penwidth=2]
    208 -> 162 [penwidth=2]
    208 -> 114 [penwidth=2]
    208 -> 286 [penwidth=2]
    208 -> 147 [penwidth=2]
    208 -> 115 [penwidth=2]
    208 -> 7 [penwidth=2]
    208 -> 10 [penwidth=2]
    208 -> 8 [penwidth=2]
    208 -> 142 [penwidth=2]
    208 -> 262 [penwidth=2]
    208 -> 6 [penwidth=2]
    208 -> 160 [penwidth=2]
    208 -> 31 [penwidth=2]
    208 -> 125 [penwidth=2]
    208 -> 45 [penwidth=2]
    208 -> 19 [penwidth=2]
    208 -> 29 [penwidth=2]
    208 -> 88 [penwidth=2]
    208 -> 154 [penwidth=2]
    208 -> 107 [penwidth=2]
    208 -> 119 [penwidth=2]
    208 -> 278 [penwidth=2]
    208 -> 60 [penwidth=2]
    208 -> 17 [penwidth=2]
    208 -> 20 [penwidth=2]
    208 -> 288 [penwidth=2]
    208 -> 281 [penwidth=2]
    208 -> 47 [penwidth=2]
    208 -> 287 [penwidth=2]
    208 -> 64 [penwidth=2]
    208 -> 27 [penwidth=2]
    208 -> 285 [penwidth=2]
    208 -> 156 [penwidth=2]
    208 -> 23 [penwidth=2]
    208 -> 290 [penwidth=2]
    208 -> 33 [penwidth=2]
    208 -> 150 [penwidth=2]
    208 -> 12 [penwidth=2]
    208 -> 104 [penwidth=2]
    208 -> 28 [penwidth=2]
    208 -> 100 [penwidth=2]
    208 -> 277 [penwidth=2]
    208 -> 22 [penwidth=2]
    208 -> 49 [penwidth=2]
    208 -> 168 [penwidth=2]
    208 -> 91 [penwidth=2]
    208 -> 105 [penwidth=2]
    208 -> 81 [penwidth=2]
    208 -> 14 [penwidth=2]
    208 -> 158 [penwidth=2]
    208 -> 122 [penwidth=2]
    208 -> 44 [penwidth=2]
    208 -> 157 [penwidth=2]
    208 -> 270 [penwidth=2]
    208 -> 153 [penwidth=2]
    208 -> 16 [penwidth=2]
    208 -> 61 [penwidth=2]
    208 -> 1 [penwidth=2]
    250 -> 173 [penwidth=2]
    257 -> 263 [penwidth=2]
    257 -> 144 [penwidth=2]
    257 -> 5 [penwidth=2]
    257 -> 41 [penwidth=2]
    257 -> 45 [penwidth=2]
    257 -> 27 [penwidth=2]
    257 -> 151 [penwidth=2]
    257 -> 108 [penwidth=2]
    257 -> 107 [penwidth=2]
    257 -> 120 [penwidth=2]
    257 -> 123 [penwidth=2]
    257 -> 134 [penwidth=2]
    257 -> 264 [penwidth=2]
    257 -> 32 [penwidth=2]
    257 -> 88 [penwidth=2]
    257 -> 161 [penwidth=2]
    257 -> 150 [penwidth=2]
    257 -> 87 [penwidth=2]
    257 -> 309 [penwidth=2]
    257 -> 305 [penwidth=2]
    257 -> 157 [penwidth=2]
    257 -> 269 [penwidth=2]
    257 -> 275 [penwidth=2]
    257 -> 80 [penwidth=2]
    257 -> 37 [penwidth=2]
    257 -> 119 [penwidth=2]
    257 -> 4 [penwidth=2]
    257 -> 31 [penwidth=2]
    257 -> 112 [penwidth=2]
    257 -> 164 [penwidth=2]
    257 -> 46 [penwidth=2]
    257 -> 125 [penwidth=2]
    257 -> 171 [penwidth=2]
    257 -> 304 [penwidth=2]
    257 -> 132 [penwidth=2]
    257 -> 90 [penwidth=2]
    257 -> 115 [penwidth=2]
    257 -> 116 [penwidth=2]
    257 -> 158 [penwidth=2]
    257 -> 92 [penwidth=2]
    257 -> 308 [penwidth=2]
    257 -> 113 [penwidth=2]
    257 -> 67 [penwidth=2]
    257 -> 58 [penwidth=2]
    257 -> 133 [penwidth=2]
    257 -> 61 [penwidth=2]
    257 -> 105 [penwidth=2]
    257 -> 29 [penwidth=2]
    257 -> 66 [penwidth=2]
    257 -> 261 [penwidth=2]
    257 -> 106 [penwidth=2]
    257 -> 117 [penwidth=2]
    257 -> 163 [penwidth=2]
    257 -> 114 [penwidth=2]
    257 -> 280 [penwidth=2]
    257 -> 104 [penwidth=2]
    257 -> 289 [penwidth=2]
    257 -> 162 [penwidth=2]
    257 -> 143 [penwidth=2]
    257 -> 86 [penwidth=2]
    257 -> 20 [penwidth=2]
    257 -> 306 [penwidth=2]
    257 -> 12 [penwidth=2]
    257 -> 39 [penwidth=2]
    257 -> 290 [penwidth=2]
    257 -> 75 [penwidth=2]
    257 -> 146 [penwidth=2]
    257 -> 84 [penwidth=2]
    257 -> 268 [penwidth=2]
    257 -> 286 [penwidth=2]
    257 -> 6 [penwidth=2]
    257 -> 8 [penwidth=2]
    257 -> 83 [penwidth=2]
    257 -> 152 [penwidth=2]
    257 -> 34 [penwidth=2]
    257 -> 49 [penwidth=2]
    257 -> 266 [penwidth=2]
    257 -> 65 [penwidth=2]
    257 -> 91 [penwidth=2]
    257 -> 78 [penwidth=2]
    257 -> 285 [penwidth=2]
    257 -> 131 [penwidth=2]
    257 -> 18 [penwidth=2]
    257 -> 44 [penwidth=2]
    257 -> 173 [penwidth=2]
    257 -> 35 [penwidth=2]
    257 -> 287 [penwidth=2]
    257 -> 50 [penwidth=2]
    257 -> 166 [penwidth=2]
    257 -> 16 [penwidth=2]
    257 -> 59 [penwidth=2]
    257 -> 160 [penwidth=2]
    257 -> 33 [penwidth=2]
    257 -> 40 [penwidth=2]
    257 -> 274 [penwidth=2]
    257 -> 28 [penwidth=2]
    257 -> 2 [penwidth=2]
    257 -> 7 [penwidth=2]
    257 -> 64 [penwidth=2]
    257 -> 159 [penwidth=2]
    257 -> 272 [penwidth=2]
    257 -> 111 [penwidth=2]
    257 -> 170 [penwidth=2]
    257 -> 74 [penwidth=2]
    257 -> 38 [penwidth=2]
    257 -> 77 [penwidth=2]
    257 -> 283 [penwidth=2]
    257 -> 25 [penwidth=2]
    257 -> 73 [penwidth=2]
    257 -> 42 [penwidth=2]
    257 -> 23 [penwidth=2]
    257 -> 3 [penwidth=2]
    257 -> 60 [penwidth=2]
    257 -> 129 [penwidth=2]
    257 -> 11 [penwidth=2]
    257 -> 288 [penwidth=2]
    257 -> 124 [penwidth=2]
    257 -> 1 [penwidth=2]
    257 -> 82 [penwidth=2]
    257 -> 14 [penwidth=2]
    257 -> 102 [penwidth=2]
    257 -> 48 [penwidth=2]
    257 -> 89 [penwidth=2]
    257 -> 142 [penwidth=2]
    257 -> 68 [penwidth=2]
    257 -> 145 [penwidth=2]
    257 -> 278 [penwidth=2]
    257 -> 281 [penwidth=2]
    257 -> 47 [penwidth=2]
    257 -> 79 [penwidth=2]
    257 -> 307 [penwidth=2]
    257 -> 303 [penwidth=2]
    257 -> 149 [penwidth=2]
    257 -> 154 [penwidth=2]
    257 -> 85 [penwidth=2]
    257 -> 277 [penwidth=2]
    257 -> 273 [penwidth=2]
    257 -> 22 [penwidth=2]
    257 -> 118 [penwidth=2]
    257 -> 270 [penwidth=2]
    257 -> 13 [penwidth=2]
    257 -> 172 [penwidth=2]
    257 -> 153 [penwidth=2]
    257 -> 71 [penwidth=2]
    257 -> 167 [penwidth=2]
    257 -> 122 [penwidth=2]
    257 -> 147 [penwidth=2]
    257 -> 103 [penwidth=2]
    257 -> 109 [penwidth=2]
    257 -> 176 [penwidth=2]
    257 -> 168 [penwidth=2]
    257 -> 69 [penwidth=2]
    257 -> 279 [penwidth=2]
    257 -> 36 [penwidth=2]
    257 -> 128 [penwidth=2]
    257 -> 148 [penwidth=2]
    257 -> 72 [penwidth=2]
    257 -> 62 [penwidth=2]
    257 -> 43 [penwidth=2]
    257 -> 100 [penwidth=2]
    257 -> 284 [penwidth=2]
    257 -> 165 [penwidth=2]
    257 -> 76 [penwidth=2]
    257 -> 26 [penwidth=2]
    257 -> 267 [penwidth=2]
    257 -> 155 [penwidth=2]
    257 -> 282 [penwidth=2]
    257 -> 70 [penwidth=2]
    257 -> 99 [penwidth=2]
    257 -> 17 [penwidth=2]
    257 -> 169 [penwidth=2]
    257 -> 21 [penwidth=2]
    257 -> 141 [penwidth=2]
    257 -> 15 [penwidth=2]
    257 -> 175 [penwidth=2]
    257 -> 276 [penwidth=2]
    257 -> 121 [penwidth=2]
    257 -> 81 [penwidth=2]
    257 -> 24 [penwidth=2]
    257 -> 126 [penwidth=2]
    257 -> 110 [penwidth=2]
    257 -> 10 [penwidth=2]
    257 -> 30 [penwidth=2]
    257 -> 156 [penwidth=2]
    257 -> 9 [penwidth=2]
    257 -> 63 [penwidth=2]
    257 -> 174 [penwidth=2]
    257 -> 271 [penwidth=2]
    260 -> 175 [penwidth=2]
    260 -> 271 [penwidth=2]
    260 -> 305 [penwidth=2]
    260 -> 127 [penwidth=2]
    260 -> 59 [penwidth=2]
    260 -> 122 [penwidth=2]
    260 -> 3 [penwidth=2]
    260 -> 169 [penwidth=2]
    260 -> 125 [penwidth=2]
    260 -> 87 [penwidth=2]
    260 -> 35 [penwidth=2]
    260 -> 126 [penwidth=2]
    260 -> 78 [penwidth=2]
    260 -> 79 [penwidth=2]
    260 -> 1 [penwidth=2]
    260 -> 306 [penwidth=2]
    260 -> 27 [penwidth=2]
    260 -> 130 [penwidth=2]
    260 -> 21 [penwidth=2]
    260 -> 172 [penwidth=2]
    260 -> 176 [penwidth=2]
    260 -> 111 [penwidth=2]
    260 -> 288 [penwidth=2]
    260 -> 73 [penwidth=2]
    260 -> 113 [penwidth=2]
    260 -> 149 [penwidth=2]
    260 -> 71 [penwidth=2]
    260 -> 26 [penwidth=2]
    260 -> 276 [penwidth=2]
    260 -> 167 [penwidth=2]
    260 -> 50 [penwidth=2]
    260 -> 104 [penwidth=2]
    260 -> 171 [penwidth=2]
    260 -> 23 [penwidth=2]
    260 -> 33 [penwidth=2]
    260 -> 114 [penwidth=2]
    260 -> 65 [penwidth=2]
    260 -> 290 [penwidth=2]
    260 -> 303 [penwidth=2]
    260 -> 277 [penwidth=2]
    260 -> 272 [penwidth=2]
    260 -> 308 [penwidth=2]
    260 -> 42 [penwidth=2]
    260 -> 99 [penwidth=2]
    260 -> 165 [penwidth=2]
    260 -> 309 [penwidth=2]
    260 -> 284 [penwidth=2]
    260 -> 173 [penwidth=2]
    260 -> 37 [penwidth=2]
    260 -> 32 [penwidth=2]
    260 -> 267 [penwidth=2]
    260 -> 9 [penwidth=2]
    260 -> 307 [penwidth=2]
    260 -> 153 [penwidth=2]
    260 -> 158 [penwidth=2]
    260 -> 160 [penwidth=2]
    260 -> 10 [penwidth=2]
    260 -> 88 [penwidth=2]
    260 -> 82 [penwidth=2]
    260 -> 39 [penwidth=2]
    260 -> 14 [penwidth=2]
    260 -> 269 [penwidth=2]
    260 -> 69 [penwidth=2]
    260 -> 67 [penwidth=2]
    260 -> 262 [penwidth=2]
    260 -> 2 [penwidth=2]
    260 -> 286 [penwidth=2]
    260 -> 132 [penwidth=2]
    260 -> 133 [penwidth=2]
    260 -> 108 [penwidth=2]
    260 -> 145 [penwidth=2]
    260 -> 28 [penwidth=2]
    260 -> 58 [penwidth=2]
    260 -> 30 [penwidth=2]
    260 -> 264 [penwidth=2]
    260 -> 43 [penwidth=2]
    260 -> 289 [penwidth=2]
    260 -> 144 [penwidth=2]
    260 -> 25 [penwidth=2]
    260 -> 84 [penwidth=2]
    260 -> 38 [penwidth=2]
    260 -> 155 [penwidth=2]
    260 -> 112 [penwidth=2]
    260 -> 152 [penwidth=2]
    260 -> 275 [penwidth=2]
    260 -> 134 [penwidth=2]
    260 -> 76 [penwidth=2]
    260 -> 86 [penwidth=2]
    260 -> 16 [penwidth=2]
    260 -> 80 [penwidth=2]
    260 -> 77 [penwidth=2]
    260 -> 115 [penwidth=2]
    260 -> 156 [penwidth=2]
    260 -> 41 [penwidth=2]
    260 -> 283 [penwidth=2]
    260 -> 147 [penwidth=2]
    260 -> 150 [penwidth=2]
    260 -> 128 [penwidth=2]
    260 -> 63 [penwidth=2]
    260 -> 265 [penwidth=2]
    260 -> 162 [penwidth=2]
    260 -> 64 [penwidth=2]
    260 -> 49 [penwidth=2]
    260 -> 8 [penwidth=2]
    260 -> 46 [penwidth=2]
    260 -> 154 [penwidth=2]
    260 -> 18 [penwidth=2]
    260 -> 163 [penwidth=2]
    260 -> 75 [penwidth=2]
    260 -> 34 [penwidth=2]
    260 -> 159 [penwidth=2]
    260 -> 61 [penwidth=2]
    260 -> 110 [penwidth=2]
    260 -> 70 [penwidth=2]
    260 -> 141 [penwidth=2]
    260 -> 83 [penwidth=2]
    260 -> 12 [penwidth=2]
    260 -> 6 [penwidth=2]
    260 -> 13 [penwidth=2]
    260 -> 36 [penwidth=2]
    260 -> 92 [penwidth=2]
    260 -> 62 [penwidth=2]
    260 -> 117 [penwidth=2]
    260 -> 101 [penwidth=2]
    260 -> 72 [penwidth=2]
    260 -> 89 [penwidth=2]
    260 -> 168 [penwidth=2]
    260 -> 106 [penwidth=2]
    260 -> 274 [penwidth=2]
    260 -> 48 [penwidth=2]
    260 -> 161 [penwidth=2]
    260 -> 142 [penwidth=2]
    260 -> 4 [penwidth=2]
    260 -> 170 [penwidth=2]
    260 -> 66 [penwidth=2]
    260 -> 273 [penwidth=2]
    260 -> 17 [penwidth=2]
    260 -> 90 [penwidth=2]
    260 -> 118 [penwidth=2]
    260 -> 285 [penwidth=2]
    260 -> 19 [penwidth=2]
    260 -> 11 [penwidth=2]
    260 -> 7 [penwidth=2]
    260 -> 74 [penwidth=2]
    260 -> 29 [penwidth=2]
    260 -> 304 [penwidth=2]
    260 -> 263 [penwidth=2]
    260 -> 100 [penwidth=2]
    260 -> 131 [penwidth=2]
    260 -> 60 [penwidth=2]
    260 -> 124 [penwidth=2]
    260 -> 282 [penwidth=2]
    260 -> 105 [penwidth=2]
    260 -> 68 [penwidth=2]
}