digraph G {
    0 [penwidth=3,label="0"]
    1 [penwidth=3,label="1"]
    2 [penwidth=3,label="2"]
    3 [penwidth=3,label="3"]
    4 [penwidth=3,label="4"]
    5 [penwidth=3,label="5"]
    6 [penwidth=3,label="6"]
    7 [penwidth=3,label="7"]
    8 [penwidth=3,label="8"]
    9 [penwidth=3,label="9"]
    10 [penwidth=3,label="10"]
    11 [penwidth=3,label="11"]
    12 [penwidth=3,label="12"]
    13 [penwidth=3,label="13"]
    14 [penwidth=3,label="14"]
    15 [penwidth=3,label="15"]
    16 [penwidth=3,label="16"]
    17 [penwidth=3,label="17"]
    18 [penwidth=3,label="18"]
    19 [penwidth=3,label="19"]
    20 [penwidth=3,label="20"]
    21 [penwidth=3,label="21"]
    22 [penwidth=3,label="22"]
    23 [penwidth=3,label="23"]
    24 [penwidth=3,label="24"]
    25 [penwidth=3,label="25"]
    26 [penwidth=3,label="26"]
    27 [penwidth=3,label="27"]
    28 [penwidth=3,label="28"]
    29 [penwidth=3,label="29"]
    30 [penwidth=3,label="30"]
    31 [penwidth=3,label="31"]
    32 [penwidth=3,label="32"]
    33 [penwidth=3,label="33"]
    34 [penwidth=3,label="34"]
    35 [penwidth=3,label="35"]
    36 [penwidth=3,label="36"]
    37 [penwidth=3,label="37"]
    38 [penwidth=3,label="38"]
    39 [penwidth=3,label="39"]
    40 [penwidth=3,label="40"]
    41 [penwidth=3,label="41"]
    42 [penwidth=3,label="42"]
    43 [penwidth=3,label="43"]
    44 [penwidth=3,label="44"]
    45 [penwidth=3,label="45"]
    46 [penwidth=3,label="46"]
    47 [penwidth=3,label="47"]
    48 [penwidth=3,label="48"]
    49 [penwidth=3,label="49"]
    50 [penwidth=3,label="50"]
    51 [penwidth=3,label="51"]
    52 [penwidth=3,label="52"]
    53 [penwidth=3,label="53"]
    54 [penwidth=3,label="54"]
    55 [penwidth=3,label="55"]
    56 [penwidth=3,label="56"]
    57 [penwidth=3,label="57"]
    58 [penwidth=3,label="58"]
    59 [penwidth=3,label="59"]
    60 [penwidth=3,label="60"]
    61 [penwidth=3,label="61"]
    62 [penwidth=3,label="62"]
    63 [penwidth=3,label="63"]
    64 [penwidth=3,label="64"]
    65 [penwidth=3,label="65"]
    66 [penwidth=3,label="66"]
    67 [penwidth=3,label="67"]
    68 [penwidth=3,label="68"]
    69 [penwidth=3,label="69"]
    70 [penwidth=3,label="70"]
    71 [penwidth=3,label="71"]
    72 [penwidth=3,label="72"]
    73 [penwidth=3,label="73"]
    74 [penwidth=3,label="74"]
    75 [penwidth=3,label="75"]
    76 [penwidth=3,label="76"]
    77 [penwidth=3,label="77"]
    78 [penwidth=3,label="78"]
    79 [penwidth=3,label="79"]
    80 [penwidth=3,label="80"]
    81 [penwidth=3,label="81"]
    82 [penwidth=3,label="82"]
    83 [penwidth=3,label="83"]
    84 [penwidth=3,label="84"]
    85 [penwidth=3,label="85"]
    86 [penwidth=3,label="86"]
    87 [penwidth=3,label="87"]
    88 [penwidth=3,label="88"]
    89 [penwidth=3,label="89"]
    90 [penwidth=3,label="90"]
    91 [penwidth=3,label="91"]
    92 [penwidth=3,label="92"]
    93 [penwidth=3,label="93"]
    94 [penwidth=3,label="94"]
    95 [penwidth=3,label="95"]
    96 [penwidth=3,label="96"]
    97 [penwidth=3,label="97"]
    98 [penwidth=3,label="98"]
    99 [penwidth=3,label="99"]
    100 [penwidth=3,label="100"]
    101 [penwidth=3,label="101"]
    102 [penwidth=3,label="102"]
    103 [penwidth=3,label="103"]
    104 [penwidth=3,label="104"]
    105 [penwidth=3,label="105"]
    106 [penwidth=3,label="106"]
    107 [penwidth=3,label="107"]
    108 [penwidth=3,label="108"]
    109 [penwidth=3,label="109"]
    110 [penwidth=3,label="110"]
    111 [penwidth=3,label="111"]
    112 [penwidth=3,label="112"]
    113 [penwidth=3,label="113"]
    114 [penwidth=3,label="114"]
    115 [penwidth=3,label="115"]
    116 [penwidth=3,label="116"]
    117 [penwidth=3,label="117"]
    118 [penwidth=3,label="118"]
    119 [penwidth=3,label="119"]
    120 [penwidth=3,label="120"]
    121 [penwidth=3,label="121"]
    122 [penwidth=3,label="122"]
    123 [penwidth=3,label="123"]
    124 [penwidth=3,label="124"]
    125 [penwidth=3,label="125"]
    126 [penwidth=3,label="126"]
    127 [penwidth=3,label="127"]
    128 [penwidth=3,label="128"]
    129 [penwidth=3,label="129"]
    130 [penwidth=3,label="130"]
    131 [penwidth=3,label="131"]
    132 [penwidth=3,label="132"]
    133 [penwidth=3,label="133"]
    134 [penwidth=3,label="134"]
    135 [penwidth=3,label="135"]
    136 [penwidth=3,label="136"]
    137 [penwidth=3,label="137"]
    138 [penwidth=3,label="138"]
    139 [penwidth=3,label="139"]
    140 [penwidth=3,label="140"]
    141 [penwidth=3,label="141"]
    142 [penwidth=3,label="142"]
    143 [penwidth=3,label="143"]
    144 [penwidth=3,label="144"]
    145 [penwidth=3,label="145"]
    146 [penwidth=3,label="146"]
    147 [penwidth=3,label="147"]
    148 [penwidth=3,label="148"]
    149 [penwidth=3,label="149"]
    150 [penwidth=3,label="150"]
    151 [penwidth=3,label="151"]
    152 [penwidth=3,label="152"]
    153 [penwidth=3,label="153"]
    154 [penwidth=3,label="154"]
    155 [penwidth=3,label="155"]
    156 [penwidth=3,label="156"]
    157 [penwidth=3,label="157"]
    158 [penwidth=3,label="158"]
    159 [penwidth=3,label="159"]
    160 [penwidth=3,label="160"]
    161 [penwidth=3,label="161"]
    162 [penwidth=3,label="162"]
    163 [penwidth=3,label="163"]
    164 [penwidth=3,label="164"]
    165 [penwidth=3,label="165"]
    166 [penwidth=3,label="166"]
    167 [penwidth=3,label="167"]
    168 [penwidth=3,label="168"]
    169 [penwidth=3,label="169"]
    170 [penwidth=3,label="170"]
    171 [penwidth=3,label="171"]
    172 [penwidth=3,label="172"]
    173 [penwidth=3,label="173"]
    174 [penwidth=3,label="174"]
    175 [penwidth=3,label="175"]
    176 [penwidth=3,label="176"]
    177 [penwidth=3,label="177"]
    178 [penwidth=3,label="178"]
    179 [penwidth=3,label="179"]
    180 [penwidth=3,label="180"]
    181 [penwidth=3,label="181"]
    182 [penwidth=3,label="182"]
    183 [penwidth=3,label="183"]
    184 [penwidth=3,label="184"]
    185 [penwidth=3,label="185"]
    186 [penwidth=3,label="186"]
    187 [penwidth=3,label="187"]
    188 [penwidth=3,label="188"]
    189 [penwidth=3,label="189"]
    190 [penwidth=3,label="190"]
    191 [penwidth=3,label="191"]
    192 [penwidth=3,label="192"]
    193 [penwidth=3,label="193"]
    194 [penwidth=3,label="194"]
    195 [penwidth=3,label="195"]
    196 [penwidth=3,label="196"]
    197 [penwidth=3,label="197"]
    198 [penwidth=3,label="198"]
    199 [penwidth=3,label="199"]
    200 [penwidth=3,label="200"]
    201 [penwidth=3,label="201"]
    202 [penwidth=3,label="202"]
    203 [penwidth=3,label="203"]
    204 [penwidth=3,label="204"]
    205 [penwidth=3,label="205"]
    206 [penwidth=3,label="206"]
    207 [penwidth=3,label="207"]
    208 [penwidth=3,label="208"]
    209 [penwidth=3,label="209"]
    210 [penwidth=3,label="210"]
    211 [penwidth=3,label="211"]
    212 [penwidth=3,label="212"]
    213 [penwidth=3,label="213"]
    214 [penwidth=3,label="214"]
    215 [penwidth=3,label="215"]
    216 [penwidth=3,label="216"]
    217 [penwidth=3,label="217"]
    218 [penwidth=3,label="218"]
    219 [penwidth=3,label="219"]
    220 [penwidth=3,label="220"]
    221 [penwidth=3,label="221"]
    222 [penwidth=3,label="222"]
    223 [penwidth=3,label="223"]
    224 [penwidth=3,label="224"]
    225 [penwidth=3,label="225"]
    226 [penwidth=3,label="226"]
    227 [penwidth=3,label="227"]
    228 [penwidth=3,label="228"]
    229 [penwidth=3,label="229"]
    230 [penwidth=3,label="230"]
    231 [penwidth=3,label="231"]
    232 [penwidth=3,label="232"]
    233 [penwidth=3,label="233"]
    234 [penwidth=3,label="234"]
    235 [penwidth=3,label="235"]
    236 [penwidth=3,label="236"]
    237 [penwidth=3,label="237"]
    238 [penwidth=3,label="238"]
    239 [penwidth=3,label="239"]
    240 [penwidth=3,label="240"]
    241 [penwidth=3,label="241"]
    242 [penwidth=3,label="242"]
    243 [penwidth=3,label="243"]
    244 [penwidth=3,label="244"]
    245 [penwidth=3,label="245"]
    246 [penwidth=3,label="246"]
    247 [penwidth=3,label="247"]
    248 [penwidth=3,label="248"]
    249 [penwidth=3,label="249"]
    250 [penwidth=3,label="250"]
    251 [penwidth=3,label="251"]
    252 [penwidth=3,label="252"]
    253 [penwidth=3,label="253"]
    254 [penwidth=3,label="254"]
    255 [penwidth=3,label="255"]
    256 [penwidth=3,label="256"]
    257 [penwidth=3,label="257"]
    258 [penwidth=3,label="258"]
    259 [penwidth=3,label="259"]
    260 [penwidth=3,label="260"]
    261 [penwidth=3,label="261"]
    262 [penwidth=3,label="262"]
    263 [penwidth=3,label="263"]
    264 [penwidth=3,label="264"]
    265 [penwidth=3,label="265"]
    266 [penwidth=3,label="266"]
    267 [penwidth=3,label="267"]
    268 [penwidth=3,label="268"]
    269 [penwidth=3,label="269"]
    270 [penwidth=3,label="270"]
    271 [penwidth=3,label="271"]
    272 [penwidth=3,label="272"]
    273 [penwidth=3,label="273"]
    274 [penwidth=3,label="274"]
    275 [penwidth=3,label="275"]
    276 [penwidth=3,label="276"]
    277 [penwidth=3,label="277"]
    278 [penwidth=3,label="278"]
    279 [penwidth=3,label="279"]
    280 [penwidth=3,label="280"]
    281 [penwidth=3,label="281"]
    282 [penwidth=3,label="282"]
    283 [penwidth=3,label="283"]
    284 [penwidth=3,label="284"]
    285 [penwidth=3,label="285"]
    286 [penwidth=3,label="286"]
    287 [penwidth=3,label="287"]
    288 [penwidth=3,label="288"]
    289 [penwidth=3,label="289"]
    290 [penwidth=3,label="290"]
    291 [penwidth=3,label="291"]
    292 [penwidth=3,label="292"]
    293 [penwidth=3,label="293"]
    294 [penwidth=3,label="294"]
    295 [penwidth=3,label="295"]
    296 [penwidth=3,label="296"]
    297 [penwidth=3,label="297"]
    298 [penwidth=3,label="298"]
    299 [penwidth=3,label="299"]
    300 [penwidth=3,label="300"]
    301 [penwidth=3,label="301"]
    302 [penwidth=3,label="302"]
    303 [penwidth=3,label="303"]
    304 [penwidth=3,label="304"]
    305 [penwidth=3,label="305"]
    306 [penwidth=3,label="306"]
    307 [penwidth=3,label="307"]
    308 [penwidth=3,label="308"]
    309 [penwidth=3,label="309"]

    216 -> 0 [penwidth=2]
    217 -> 0 [penwidth=2]
    218 -> 0 [penwidth=2]
    219 -> 0 [penwidth=2]
    220 -> 0 [penwidth=2]
    221 -> 0 [penwidth=2]
    222 -> 0 [penwidth=2]
    223 -> 216 [penwidth=2]
    224 -> 217 [penwidth=2]
    225 -> 217 [penwidth=2]
    226 -> 217 [penwidth=2]
    227 -> 217 [penwidth=2]
    228 -> 217 [penwidth=2]
    229 -> 217 [penwidth=2]
    230 -> 217 [penwidth=2]
    231 -> 217 [penwidth=2]
    232 -> 217 [penwidth=2]
    233 -> 217 [penwidth=2]
    234 -> 217 [penwidth=2]
    235 -> 217 [penwidth=2]
    236 -> 217 [penwidth=2]
    237 -> 217 [penwidth=2]
    238 -> 217 [penwidth=2]
    239 -> 217 [penwidth=2]
    240 -> 217 [penwidth=2]
    241 -> 217 [penwidth=2]
    242 -> 217 [penwidth=2]
    243 -> 218 [penwidth=2]
    244 -> 218 [penwidth=2]
    245 -> 218 [penwidth=2]
    246 -> 218 [penwidth=2]
    247 -> 218 [penwidth=2]
    248 -> 218 [penwidth=2]
    249 -> 218 [penwidth=2]
    250 -> 218 [penwidth=2]
    251 -> 218 [penwidth=2]
    252 -> 218 [penwidth=2]
    253 -> 218 [penwidth=2]
    254 -> 218 [penwidth=2]
    255 -> 218 [penwidth=2]
    256 -> 218 [penwidth=2]
    257 -> 218 [penwidth=2]
    132 -> 218 [penwidth=2]
    174 -> 218 [penwidth=2]
    133 -> 218 [penwidth=2]
    175 -> 218 [penwidth=2]
    134 -> 218 [penwidth=2]
    176 -> 218 [penwidth=2]
    135 -> 218 [penwidth=2]
    177 -> 218 [penwidth=2]
    136 -> 218 [penwidth=2]
    178 -> 218 [penwidth=2]
    137 -> 218 [penwidth=2]
    179 -> 219 [penwidth=2]
    138 -> 219 [penwidth=2]
    180 -> 219 [penwidth=2]
    139 -> 219 [penwidth=2]
    181 -> 219 [penwidth=2]
    140 -> 219 [penwidth=2]
    182 -> 219 [penwidth=2]
    141 -> 219 [penwidth=2]
    183 -> 219 [penwidth=2]
    142 -> 219 [penwidth=2]
    184 -> 219 [penwidth=2]
    143 -> 219 [penwidth=2]
    185 -> 219 [penwidth=2]
    144 -> 219 [penwidth=2]
    186 -> 219 [penwidth=2]
    145 -> 219 [penwidth=2]
    187 -> 219 [penwidth=2]
    146 -> 219 [penwidth=2]
    188 -> 219 [penwidth=2]
    147 -> 219 [penwidth=2]
    189 -> 219 [penwidth=2]
    148 -> 219 [penwidth=2]
    190 -> 219 [penwidth=2]
    149 -> 219 [penwidth=2]
    191 -> 219 [penwidth=2]
    150 -> 219 [penwidth=2]
    192 -> 220 [penwidth=2]
    151 -> 220 [penwidth=2]
    193 -> 220 [penwidth=2]
    152 -> 220 [penwidth=2]
    194 -> 220 [penwidth=2]
    153 -> 220 [penwidth=2]
    195 -> 220 [penwidth=2]
    154 -> 220 [penwidth=2]
    196 -> 220 [penwidth=2]
    155 -> 220 [penwidth=2]
    197 -> 220 [penwidth=2]
    156 -> 220 [penwidth=2]
    198 -> 220 [penwidth=2]
    157 -> 221 [penwidth=2]
    199 -> 221 [penwidth=2]
    158 -> 221 [penwidth=2]
    200 -> 221 [penwidth=2]
    159 -> 222 [penwidth=2]
    201 -> 222 [penwidth=2]
    160 -> 222 [penwidth=2]
    202 -> 222 [penwidth=2]
    161 -> 223 [penwidth=2]
    203 -> 223 [penwidth=2]
    162 -> 223 [penwidth=2]
    204 -> 223 [penwidth=2]
    163 -> 223 [penwidth=2]
    205 -> 223 [penwidth=2]
    164 -> 223 [penwidth=2]
    206 -> 223 [penwidth=2]
    165 -> 223 [penwidth=2]
    207 -> 223 [penwidth=2]
    166 -> 223 [penwidth=2]
    208 -> 223 [penwidth=2]
    167 -> 223 [penwidth=2]
    209 -> 223 [penwidth=2]
    168 -> 223 [penwidth=2]
    210 -> 223 [penwidth=2]
    169 -> 223 [penwidth=2]
    211 -> 223 [penwidth=2]
    170 -> 223 [penwidth=2]
    212 -> 223 [penwidth=2]
    171 -> 223 [penwidth=2]
    213 -> 223 [penwidth=2]
    172 -> 223 [penwidth=2]
    214 -> 224 [penwidth=2]
    173 -> 224 [penwidth=2]
    215 -> 224 [penwidth=2]
    90 -> 224 [penwidth=2]
    300 -> 224 [penwidth=2]
    91 -> 224 [penwidth=2]
    301 -> 224 [penwidth=2]
    92 -> 224 [penwidth=2]
    302 -> 224 [penwidth=2]
    93 -> 224 [penwidth=2]
    303 -> 224 [penwidth=2]
    94 -> 224 [penwidth=2]
    304 -> 224 [penwidth=2]
    95 -> 224 [penwidth=2]
    305 -> 224 [penwidth=2]
    96 -> 224 [penwidth=2]
    306 -> 224 [penwidth=2]
    97 -> 224 [penwidth=2]
    307 -> 224 [penwidth=2]
    98 -> 224 [penwidth=2]
    308 -> 225 [penwidth=2]
    99 -> 225 [penwidth=2]
    309 -> 225 [penwidth=2]
    100 -> 226 [penwidth=2]
    101 -> 226 [penwidth=2]
    102 -> 226 [penwidth=2]
    103 -> 226 [penwidth=2]
    104 -> 226 [penwidth=2]
    105 -> 226 [penwidth=2]
    106 -> 226 [penwidth=2]
    107 -> 226 [penwidth=2]
    108 -> 226 [penwidth=2]
    109 -> 226 [penwidth=2]
    110 -> 226 [penwidth=2]
    111 -> 226 [penwidth=2]
    112 -> 226 [penwidth=2]
    113 -> 226 [penwidth=2]
    114 -> 226 [penwidth=2]
    115 -> 226 [penwidth=2]
    116 -> 226 [penwidth=2]
    117 -> 226 [penwidth=2]
    118 -> 226 [penwidth=2]
    119 -> 226 [penwidth=2]
    120 -> 227 [penwidth=2]
    121 -> 227 [penwidth=2]
    122 -> 227 [penwidth=2]
    123 -> 227 [penwidth=2]
    124 -> 227 [penwidth=2]
    125 -> 227 [penwidth=2]
    126 -> 227 [penwidth=2]
    127 -> 227 [penwidth=2]
    128 -> 227 [penwidth=2]
    129 -> 227 [penwidth=2]
    130 -> 227 [penwidth=2]
    131 -> 227 [penwidth=2]
    48 -> 227 [penwidth=2]
    49 -> 227 [penwidth=2]
    50 -> 227 [penwidth=2]
    51 -> 227 [penwidth=2]
    52 -> 227 [penwidth=2]
    53 -> 227 [penwidth=2]
    54 -> 227 [penwidth=2]
    55 -> 227 [penwidth=2]
    56 -> 227 [penwidth=2]
    57 -> 227 [penwidth=2]
    58 -> 227 [penwidth=2]
    59 -> 227 [penwidth=2]
    60 -> 227 [penwidth=2]
    61 -> 227 [penwidth=2]
    62 -> 228 [penwidth=2]
    63 -> 228 [penwidth=2]
    64 -> 228 [penwidth=2]
    65 -> 228 [penwidth=2]
    66 -> 228 [penwidth=2]
    67 -> 228 [penwidth=2]
    68 -> 228 [penwidth=2]
    69 -> 228 [penwidth=2]
    70 -> 228 [penwidth=2]
    71 -> 229 [penwidth=2]
    72 -> 229 [penwidth=2]
    73 -> 229 [penwidth=2]
    74 -> 229 [penwidth=2]
    75 -> 229 [penwidth=2]
    76 -> 229 [penwidth=2]
    77 -> 229 [penwidth=2]
    78 -> 229 [penwidth=2]
    79 -> 229 [penwidth=2]
    80 -> 229 [penwidth=2]
    81 -> 229 [penwidth=2]
    82 -> 229 [penwidth=2]
    83 -> 229 [penwidth=2]
    84 -> 229 [penwidth=2]
    85 -> 229 [penwidth=2]
    86 -> 229 [penwidth=2]
    87 -> 229 [penwidth=2]
    88 -> 229 [penwidth=2]
    89 -> 229 [penwidth=2]
    6 -> 229 [penwidth=2]
    7 -> 229 [penwidth=2]
    8 -> 230 [penwidth=2]
    9 -> 230 [penwidth=2]
    10 -> 230 [penwidth=2]
    11 -> 230 [penwidth=2]
    12 -> 231 [penwidth=2]
    13 -> 231 [penwidth=2]
    14 -> 231 [penwidth=2]
    15 -> 231 [penwidth=2]
    16 -> 231 [penwidth=2]
    17 -> 231 [penwidth=2]
    18 -> 232 [penwidth=2]
    19 -> 232 [penwidth=2]
    20 -> 232 [penwidth=2]
    21 -> 232 [penwidth=2]
    22 -> 232 [penwidth=2]
    23 -> 232 [penwidth=2]
    24 -> 232 [penwidth=2]
    25 -> 232 [penwidth=2]
    26 -> 232 [penwidth=2]
    27 -> 232 [penwidth=2]
    28 -> 232 [penwidth=2]
    29 -> 232 [penwidth=2]
    30 -> 232 [penwidth=2]
    31 -> 232 [penwidth=2]
    32 -> 232 [penwidth=2]
    33 -> 232 [penwidth=2]
    34 -> 232 [penwidth=2]
    35 -> 232 [penwidth=2]
    36 -> 232 [penwidth=2]
    37 -> 232 [penwidth=2]
    38 -> 232 [penwidth=2]
    39 -> 232 [penwidth=2]
    40 -> 232 [penwidth=2]
    41 -> 232 [penwidth=2]
    42 -> 232 [penwidth=2]
    1 -> 232 [penwidth=2]
    43 -> 233 [penwidth=2]
    2 -> 233 [penwidth=2]
    44 -> 233 [penwidth=2]
    3 -> 233 [penwidth=2]
    45 -> 233 [penwidth=2]
    4 -> 233 [penwidth=2]
    46 -> 233 [penwidth=2]
    5 -> 233 [penwidth=2]
    47 -> 233 [penwidth=2]
    258 -> 233 [penwidth=2]
    259 -> 233 [penwidth=2]
    260 -> 233 [penwidth=2]
    261 -> 233 [penwidth=2]
    262 -> 233 [penwidth=2]
    263 -> 233 [penwidth=2]
    264 -> 234 [penwidth=2]
    265 -> 234 [penwidth=2]
    266 -> 234 [penwidth=2]
    267 -> 234 [penwidth=2]
    268 -> 234 [penwidth=2]
    269 -> 234 [penwidth=2]
    270 -> 234 [penwidth=2]
    271 -> 234 [penwidth=2]
    272 -> 235 [penwidth=2]
    273 -> 235 [penwidth=2]
    274 -> 235 [penwidth=2]
    275 -> 235 [penwidth=2]
    276 -> 235 [penwidth=2]
    277 -> 235 [penwidth=2]
    278 -> 235 [penwidth=2]
    279 -> 235 [penwidth=2]
    280 -> 235 [penwidth=2]
    281 -> 235 [penwidth=2]
    282 -> 235 [penwidth=2]
    283 -> 235 [penwidth=2]
    284 -> 235 [penwidth=2]
    285 -> 235 [penwidth=2]
    286 -> 235 [penwidth=2]
    287 -> 235 [penwidth=2]
    288 -> 235 [penwidth=2]
    289 -> 235 [penwidth=2]
    290 -> 235 [penwidth=2]
    291 -> 235 [penwidth=2]
    292 -> 235 [penwidth=2]
    293 -> 235 [penwidth=2]
    294 -> 236 [penwidth=2]
    295 -> 236 [penwidth=2]
    296 -> 236 [penwidth=2]
    297 -> 236 [penwidth=2]
    298 -> 236 [penwidth=2]
    299 -> 236 [penwidth=2]
    227 -> 218 [penwidth=2]
    227 -> 221 [penwidth=2]
    227 -> 220 [penwidth=2]
    229 -> 218 [penwidth=2]
    239 -> 216 [penwidth=2]
    239 -> 219 [penwidth=2]
    239 -> 221 [penwidth=2]
    239 -> 218 [penwidth=2]
    239 -> 222 [penwidth=2]
    248 -> 216 [penwidth=2]
    248 -> 220 [penwidth=2]
    248 -> 222 [penwidth=2]
    248 -> 221 [penwidth=2]
    248 -> 219 [penwidth=2]
    174 -> 220 [penwidth=2]
    174 -> 221 [penwidth=2]
    177 -> 216 [penwidth=2]
    177 -> 221 [penwidth=2]
    177 -> 217 [penwidth=2]
    177 -> 220 [penwidth=2]
    184 -> 221 [penwidth=2]
    184 -> 217 [penwidth=2]
    184 -> 218 [penwidth=2]
    185 -> 222 [penwidth=2]
    188 -> 221 [penwidth=2]
    194 -> 222 [penwidth=2]
    200 -> 217 [penwidth=2]
    200 -> 219 [penwidth=2]
    200 -> 218 [penwidth=2]
    200 -> 220 [penwidth=2]
    200 -> 216 [penwidth=2]
    202 -> 218 [penwidth=2]
    202 -> 220 [penwidth=2]
    202 -> 217 [penwidth=2]
    202 -> 221 [penwidth=2]
    202 -> 216 [penwidth=2]
    164 -> 224 [penwidth=2]
    164 -> 201 [penwidth=2]
    164 -> 177 [penwidth=2]
    164 -> 134 [penwidth=2]
    164 -> 197 [penwidth=2]
    164 -> 191 [penwidth=2]
    164 -> 133 [penwidth=2]
    164 -> 245 [penwidth=2]
    164 -> 230 [penwidth=2]
    164 -> 249 [penwidth=2]
    164 -> 148 [penwidth=2]
    164 -> 174 [penwidth=2]
    164 -> 229 [penwidth=2]
    164 -> 151 [penwidth=2]
    164 -> 239 [penwidth=2]
    164 -> 199 [penwidth=2]
    164 -> 256 [penwidth=2]
    164 -> 196 [penwidth=2]
    207 -> 239 [penwidth=2]
    207 -> 192 [penwidth=2]
    207 -> 146 [penwidth=2]
    207 -> 226 [penwidth=2]
    207 -> 144 [penwidth=2]
    207 -> 134 [penwidth=2]
    207 -> 157 [penwidth=2]
    207 -> 153 [penwidth=2]
    207 -> 199 [penwidth=2]
    207 -> 230 [penwidth=2]
    207 -> 149 [penwidth=2]
    207 -> 248 [penwidth=2]
    207 -> 174 [penwidth=2]
    207 -> 200 [penwidth=2]
    207 -> 236 [penwidth=2]
    207 -> 243 [penwidth=2]
    207 -> 195 [penwidth=2]
    207 -> 225 [penwidth=2]
    207 -> 145 [penwidth=2]
    207 -> 175 [penwidth=2]
    207 -> 154 [penwidth=2]
    207 -> 227 [penwidth=2]
    207 -> 187 [penwidth=2]
    207 -> 190 [penwidth=2]
    207 -> 143 [penwidth=2]
    207 -> 247 [penwidth=2]
    207 -> 228 [penwidth=2]
    207 -> 231 [penwidth=2]
    207 -> 132 [penwidth=2]
    207 -> 242 [penwidth=2]
    207 -> 186 [penwidth=2]
    207 -> 249 [penwidth=2]
    207 -> 201 [penwidth=2]
    207 -> 155 [penwidth=2]
    207 -> 178 [penwidth=2]
    207 -> 254 [penwidth=2]
    207 -> 158 [penwidth=2]
    207 -> 141 [penwidth=2]
    207 -> 152 [penwidth=2]
    207 -> 245 [penwidth=2]
    207 -> 224 [penwidth=2]
    207 -> 202 [penwidth=2]
    207 -> 235 [penwidth=2]
    207 -> 151 [penwidth=2]
    207 -> 135 [penwidth=2]
    207 -> 179 [penwidth=2]
    207 -> 198 [penwidth=2]
    207 -> 191 [penwidth=2]
    207 -> 148 [penwidth=2]
    207 -> 252 [penwidth=2]
    207 -> 250 [penwidth=2]
    207 -> 197 [penwidth=2]
    207 -> 133 [penwidth=2]
    207 -> 136 [penwidth=2]
    207 -> 229 [penwidth=2]
    207 -> 256 [penwidth=2]
    207 -> 255 [penwidth=2]
    207 -> 182 [penwidth=2]
    207 -> 181 [penwidth=2]
    207 -> 232 [penwidth=2]
    207 -> 180 [penwidth=2]
    207 -> 183 [penwidth=2]
    166 -> 242 [penwidth=2]
    166 -> 184 [penwidth=2]
    166 -> 151 [penwidth=2]
    166 -> 229 [penwidth=2]
    166 -> 227 [penwidth=2]
    166 -> 136 [penwidth=2]
    166 -> 202 [penwidth=2]
    166 -> 254 [penwidth=2]
    166 -> 182 [penwidth=2]
    166 -> 191 [penwidth=2]
    166 -> 154 [penwidth=2]
    166 -> 233 [penwidth=2]
    166 -> 187 [penwidth=2]
    166 -> 155 [penwidth=2]
    166 -> 243 [penwidth=2]
    166 -> 152 [penwidth=2]
    166 -> 141 [penwidth=2]
    166 -> 251 [penwidth=2]
    166 -> 196 [penwidth=2]
    166 -> 140 [penwidth=2]
    166 -> 193 [penwidth=2]
    166 -> 244 [penwidth=2]
    166 -> 153 [penwidth=2]
    166 -> 138 [penwidth=2]
    166 -> 231 [penwidth=2]
    166 -> 252 [penwidth=2]
    166 -> 224 [penwidth=2]
    166 -> 149 [penwidth=2]
    166 -> 239 [penwidth=2]
    166 -> 255 [penwidth=2]
    166 -> 237 [penwidth=2]
    166 -> 158 [penwidth=2]
    166 -> 250 [penwidth=2]
    166 -> 190 [penwidth=2]
    166 -> 197 [penwidth=2]
    166 -> 144 [penwidth=2]
    166 -> 232 [penwidth=2]
    166 -> 194 [penwidth=2]
    166 -> 241 [penwidth=2]
    166 -> 132 [penwidth=2]
    166 -> 178 [penwidth=2]
    166 -> 183 [penwidth=2]
    166 -> 253 [penwidth=2]
    166 -> 248 [penwidth=2]
    166 -> 192 [penwidth=2]
    166 -> 145 [penwidth=2]
    166 -> 175 [penwidth=2]
    166 -> 150 [penwidth=2]
    166 -> 134 [penwidth=2]
    166 -> 185 [penwidth=2]
    166 -> 180 [penwidth=2]
    166 -> 230 [penwidth=2]
    166 -> 135 [penwidth=2]
    166 -> 245 [penwidth=2]
    166 -> 195 [penwidth=2]
    166 -> 143 [penwidth=2]
    166 -> 139 [penwidth=2]
    166 -> 177 [penwidth=2]
    166 -> 174 [penwidth=2]
    166 -> 238 [penwidth=2]
    166 -> 198 [penwidth=2]
    166 -> 200 [penwidth=2]
    166 -> 142 [penwidth=2]
    166 -> 249 [penwidth=2]
    166 -> 181 [penwidth=2]
    166 -> 147 [penwidth=2]
    166 -> 179 [penwidth=2]
    166 -> 156 [penwidth=2]
    166 -> 137 [penwidth=2]
    166 -> 235 [penwidth=2]
    166 -> 186 [penwidth=2]
    166 -> 225 [penwidth=2]
    166 -> 240 [penwidth=2]
    166 -> 257 [penwidth=2]
    166 -> 176 [penwidth=2]
    166 -> 236 [penwidth=2]
    166 -> 189 [penwidth=2]
    166 -> 246 [penwidth=2]
    166 -> 256 [penwidth=2]
    166 -> 226 [penwidth=2]
    166 -> 148 [penwidth=2]
    166 -> 234 [penwidth=2]
    171 -> 227 [penwidth=2]
    171 -> 256 [penwidth=2]
    171 -> 235 [penwidth=2]
    171 -> 158 [penwidth=2]
    171 -> 178 [penwidth=2]
    171 -> 247 [penwidth=2]
    171 -> 192 [penwidth=2]
    171 -> 137 [penwidth=2]
    171 -> 139 [penwidth=2]
    171 -> 248 [penwidth=2]
    171 -> 180 [penwidth=2]
    171 -> 187 [penwidth=2]
    171 -> 182 [penwidth=2]
    171 -> 239 [penwidth=2]
    171 -> 231 [penwidth=2]
    171 -> 196 [penwidth=2]
    95 -> 196 [penwidth=2]
    95 -> 149 [penwidth=2]
    95 -> 247 [penwidth=2]
    95 -> 197 [penwidth=2]
    95 -> 246 [penwidth=2]
    95 -> 180 [penwidth=2]
    95 -> 244 [penwidth=2]
    95 -> 137 [penwidth=2]
    95 -> 195 [penwidth=2]
    95 -> 134 [penwidth=2]
    95 -> 153 [penwidth=2]
    95 -> 248 [penwidth=2]
    95 -> 192 [penwidth=2]
    95 -> 238 [penwidth=2]
    95 -> 229 [penwidth=2]
    95 -> 233 [penwidth=2]
    95 -> 199 [penwidth=2]
    95 -> 232 [penwidth=2]
    95 -> 241 [penwidth=2]
    95 -> 252 [penwidth=2]
    95 -> 202 [penwidth=2]
    95 -> 187 [penwidth=2]
    95 -> 138 [penwidth=2]
    95 -> 157 [penwidth=2]
    95 -> 190 [penwidth=2]
    95 -> 142 [penwidth=2]
    95 -> 152 [penwidth=2]
    95 -> 132 [penwidth=2]
    95 -> 177 [penwidth=2]
    95 -> 183 [penwidth=2]
    95 -> 245 [penwidth=2]
    95 -> 143 [penwidth=2]
    95 -> 147 [penwidth=2]
    95 -> 250 [penwidth=2]
    95 -> 174 [penwidth=2]
    95 -> 179 [penwidth=2]
    95 -> 145 [penwidth=2]
    95 -> 235 [penwidth=2]
    95 -> 155 [penwidth=2]
    95 -> 188 [penwidth=2]
    95 -> 257 [penwidth=2]
    95 -> 253 [penwidth=2]
    95 -> 159 [penwidth=2]
    95 -> 154 [penwidth=2]
    95 -> 150 [penwidth=2]
    305 -> 236 [penwidth=2]
    305 -> 177 [penwidth=2]
    305 -> 201 [penwidth=2]
    305 -> 183 [penwidth=2]
    305 -> 160 [penwidth=2]
    305 -> 176 [penwidth=2]
    305 -> 141 [penwidth=2]
    305 -> 139 [penwidth=2]
    305 -> 244 [penwidth=2]
    305 -> 145 [penwidth=2]
    305 -> 185 [penwidth=2]
    305 -> 195 [penwidth=2]
    305 -> 178 [penwidth=2]
    305 -> 200 [penwidth=2]
    305 -> 186 [penwidth=2]
    305 -> 246 [penwidth=2]
    305 -> 189 [penwidth=2]
    305 -> 251 [penwidth=2]
    305 -> 158 [penwidth=2]
    305 -> 179 [penwidth=2]
    305 -> 134 [penwidth=2]
    305 -> 155 [penwidth=2]
    118 -> 231 [penwidth=2]
    118 -> 183 [penwidth=2]
    118 -> 228 [penwidth=2]
    118 -> 248 [penwidth=2]
    118 -> 144 [penwidth=2]
    118 -> 201 [penwidth=2]
    118 -> 189 [penwidth=2]
    118 -> 145 [penwidth=2]
    118 -> 143 [penwidth=2]
    118 -> 180 [penwidth=2]
    50 -> 154 [penwidth=2]
    50 -> 175 [penwidth=2]
    50 -> 246 [penwidth=2]
    50 -> 244 [penwidth=2]
    50 -> 146 [penwidth=2]
    50 -> 132 [penwidth=2]
    50 -> 143 [penwidth=2]
    50 -> 240 [penwidth=2]
    50 -> 254 [penwidth=2]
    50 -> 225 [penwidth=2]
    50 -> 248 [penwidth=2]
    50 -> 232 [penwidth=2]
    50 -> 243 [penwidth=2]
    50 -> 194 [penwidth=2]
    50 -> 188 [penwidth=2]
    50 -> 223 [penwidth=2]
    50 -> 144 [penwidth=2]
    50 -> 135 [penwidth=2]
    50 -> 228 [penwidth=2]
    50 -> 140 [penwidth=2]
    50 -> 196 [penwidth=2]
    50 -> 153 [penwidth=2]
    50 -> 145 [penwidth=2]
    50 -> 160 [penwidth=2]
    50 -> 134 [penwidth=2]
    50 -> 139 [penwidth=2]
    50 -> 142 [penwidth=2]
    50 -> 237 [penwidth=2]
    50 -> 136 [penwidth=2]
    50 -> 158 [penwidth=2]
    50 -> 183 [penwidth=2]
    50 -> 152 [penwidth=2]
    50 -> 159 [penwidth=2]
    50 -> 149 [penwidth=2]
    50 -> 241 [penwidth=2]
    50 -> 229 [penwidth=2]
    50 -> 185 [penwidth=2]
    50 -> 236 [penwidth=2]
    50 -> 181 [penwidth=2]
    50 -> 238 [penwidth=2]
    50 -> 226 [penwidth=2]
    50 -> 177 [penwidth=2]
    50 -> 200 [penwidth=2]
    50 -> 180 [penwidth=2]
    50 -> 190 [penwidth=2]
    50 -> 256 [penwidth=2]
    50 -> 157 [penwidth=2]
    50 -> 138 [penwidth=2]
    50 -> 192 [penwidth=2]
    50 -> 199 [penwidth=2]
    50 -> 250 [penwidth=2]
    50 -> 242 [penwidth=2]
    50 -> 197 [penwidth=2]
    50 -> 201 [penwidth=2]
    50 -> 255 [penwidth=2]
    50 -> 151 [penwidth=2]
    50 -> 245 [penwidth=2]
    57 -> 189 [penwidth=2]
    57 -> 248 [penwidth=2]
    57 -> 197 [penwidth=2]
    60 -> 234 [penwidth=2]
    60 -> 251 [penwidth=2]
    60 -> 244 [penwidth=2]
    60 -> 249 [penwidth=2]
    60 -> 138 [penwidth=2]
    60 -> 144 [penwidth=2]
    60 -> 189 [penwidth=2]
    60 -> 135 [penwidth=2]
    60 -> 231 [penwidth=2]
    60 -> 233 [penwidth=2]
    60 -> 191 [penwidth=2]
    60 -> 147 [penwidth=2]
    60 -> 134 [penwidth=2]
    60 -> 179 [penwidth=2]
    60 -> 253 [penwidth=2]
    60 -> 246 [penwidth=2]
    60 -> 152 [penwidth=2]
    60 -> 190 [penwidth=2]
    60 -> 151 [penwidth=2]
    60 -> 193 [penwidth=2]
    60 -> 188 [penwidth=2]
    60 -> 225 [penwidth=2]
    60 -> 238 [penwidth=2]
    60 -> 154 [penwidth=2]
    60 -> 194 [penwidth=2]
    60 -> 245 [penwidth=2]
    60 -> 239 [penwidth=2]
    66 -> 148 [penwidth=2]
    66 -> 191 [penwidth=2]
    66 -> 235 [penwidth=2]
    66 -> 249 [penwidth=2]
    66 -> 134 [penwidth=2]
    66 -> 254 [penwidth=2]
    66 -> 201 [penwidth=2]
    66 -> 141 [penwidth=2]
    66 -> 155 [penwidth=2]
    66 -> 255 [penwidth=2]
    66 -> 136 [penwidth=2]
    66 -> 189 [penwidth=2]
    66 -> 149 [penwidth=2]
    66 -> 190 [penwidth=2]
    66 -> 233 [penwidth=2]
    66 -> 185 [penwidth=2]
    66 -> 180 [penwidth=2]
    66 -> 243 [penwidth=2]
    66 -> 159 [penwidth=2]
    66 -> 187 [penwidth=2]
    66 -> 250 [penwidth=2]
    66 -> 139 [penwidth=2]
    66 -> 237 [penwidth=2]
    66 -> 158 [penwidth=2]
    66 -> 257 [penwidth=2]
    66 -> 199 [penwidth=2]
    66 -> 230 [penwidth=2]
    66 -> 145 [penwidth=2]
    66 -> 246 [penwidth=2]
    66 -> 198 [penwidth=2]
    66 -> 241 [penwidth=2]
    66 -> 147 [penwidth=2]
    66 -> 140 [penwidth=2]
    66 -> 146 [penwidth=2]
    66 -> 135 [penwidth=2]
    66 -> 197 [penwidth=2]
    66 -> 157 [penwidth=2]
    66 -> 138 [penwidth=2]
    66 -> 240 [penwidth=2]
    66 -> 179 [penwidth=2]
    66 -> 194 [penwidth=2]
    66 -> 132 [penwidth=2]
    66 -> 188 [penwidth=2]
    66 -> 154 [penwidth=2]
    66 -> 248 [penwidth=2]
    66 -> 144 [penwidth=2]
    66 -> 224 [penwidth=2]
    66 -> 251 [penwidth=2]
    66 -> 242 [penwidth=2]
    66 -> 176 [penwidth=2]
    66 -> 143 [penwidth=2]
    66 -> 183 [penwidth=2]
    67 -> 144 [penwidth=2]
    67 -> 232 [penwidth=2]
    67 -> 154 [penwidth=2]
    67 -> 225 [penwidth=2]
    67 -> 252 [penwidth=2]
    67 -> 178 [penwidth=2]
    67 -> 193 [penwidth=2]
    67 -> 180 [penwidth=2]
    67 -> 136 [penwidth=2]
    67 -> 145 [penwidth=2]
    67 -> 196 [penwidth=2]
    67 -> 235 [penwidth=2]
    67 -> 176 [penwidth=2]
    67 -> 137 [penwidth=2]
    67 -> 201 [penwidth=2]
    67 -> 244 [penwidth=2]
    71 -> 250 [penwidth=2]
    71 -> 155 [penwidth=2]
    71 -> 156 [penwidth=2]
    71 -> 227 [penwidth=2]
    71 -> 195 [penwidth=2]
    71 -> 235 [penwidth=2]
    71 -> 145 [penwidth=2]
    71 -> 132 [penwidth=2]
    71 -> 152 [penwidth=2]
    71 -> 256 [penwidth=2]
    71 -> 143 [penwidth=2]
    71 -> 136 [penwidth=2]
    71 -> 257 [penwidth=2]
    71 -> 179 [penwidth=2]
    71 -> 240 [penwidth=2]
    71 -> 149 [penwidth=2]
    71 -> 181 [penwidth=2]
    71 -> 247 [penwidth=2]
    71 -> 160 [penwidth=2]
    71 -> 147 [penwidth=2]
    71 -> 153 [penwidth=2]
    71 -> 255 [penwidth=2]
    71 -> 176 [penwidth=2]
    71 -> 233 [penwidth=2]
    71 -> 228 [penwidth=2]
    71 -> 199 [penwidth=2]
    71 -> 144 [penwidth=2]
    78 -> 245 [penwidth=2]
    78 -> 132 [penwidth=2]
    78 -> 181 [penwidth=2]
    78 -> 231 [penwidth=2]
    78 -> 184 [penwidth=2]
    78 -> 198 [penwidth=2]
    78 -> 159 [penwidth=2]
    78 -> 227 [penwidth=2]
    78 -> 152 [penwidth=2]
    78 -> 233 [penwidth=2]
    78 -> 190 [penwidth=2]
    78 -> 175 [penwidth=2]
    78 -> 243 [penwidth=2]
    78 -> 135 [penwidth=2]
    78 -> 147 [penwidth=2]
    78 -> 176 [penwidth=2]
    78 -> 236 [penwidth=2]
    78 -> 179 [penwidth=2]
    78 -> 242 [penwidth=2]
    78 -> 156 [penwidth=2]
    78 -> 244 [penwidth=2]
    78 -> 238 [penwidth=2]
    78 -> 180 [penwidth=2]
    78 -> 223 [penwidth=2]
    78 -> 143 [penwidth=2]
    78 -> 225 [penwidth=2]
    78 -> 154 [penwidth=2]
    78 -> 239 [penwidth=2]
    78 -> 138 [penwidth=2]
    78 -> 254 [penwidth=2]
    78 -> 145 [penwidth=2]
    78 -> 202 [penwidth=2]
    78 -> 257 [penwidth=2]
    78 -> 144 [penwidth=2]
    78 -> 193 [penwidth=2]
    78 -> 249 [penwidth=2]
    78 -> 191 [penwidth=2]
    78 -> 189 [penwidth=2]
    78 -> 228 [penwidth=2]
    78 -> 234 [penwidth=2]
    78 -> 195 [penwidth=2]
    78 -> 137 [penwidth=2]
    78 -> 150 [penwidth=2]
    78 -> 240 [penwidth=2]
    78 -> 158 [penwidth=2]
    78 -> 134 [penwidth=2]
    78 -> 194 [penwidth=2]
    78 -> 155 [penwidth=2]
    78 -> 149 [penwidth=2]
    78 -> 192 [penwidth=2]
    78 -> 136 [penwidth=2]
    78 -> 178 [penwidth=2]
    78 -> 183 [penwidth=2]
    78 -> 142 [penwidth=2]
    78 -> 256 [penwidth=2]
    78 -> 133 [penwidth=2]
    78 -> 151 [penwidth=2]
    23 -> 183 [penwidth=2]
    23 -> 226 [penwidth=2]
    23 -> 256 [penwidth=2]
    23 -> 230 [penwidth=2]
    23 -> 135 [penwidth=2]
    23 -> 244 [penwidth=2]
    23 -> 141 [penwidth=2]
    23 -> 248 [penwidth=2]
    23 -> 159 [penwidth=2]
    23 -> 194 [penwidth=2]
    23 -> 146 [penwidth=2]
    23 -> 193 [penwidth=2]
    23 -> 201 [penwidth=2]
    23 -> 177 [penwidth=2]
    23 -> 132 [penwidth=2]
    23 -> 237 [penwidth=2]
    23 -> 253 [penwidth=2]
    23 -> 138 [penwidth=2]
    23 -> 231 [penwidth=2]
    23 -> 185 [penwidth=2]
    23 -> 200 [penwidth=2]
    23 -> 198 [penwidth=2]
    23 -> 144 [penwidth=2]
    23 -> 178 [penwidth=2]
    23 -> 255 [penwidth=2]
    23 -> 249 [penwidth=2]
    23 -> 246 [penwidth=2]
    24 -> 254 [penwidth=2]
    24 -> 230 [penwidth=2]
    24 -> 155 [penwidth=2]
    24 -> 157 [penwidth=2]
    24 -> 158 [penwidth=2]
    24 -> 228 [penwidth=2]
    24 -> 249 [penwidth=2]
    24 -> 240 [penwidth=2]
    24 -> 193 [penwidth=2]
    24 -> 202 [penwidth=2]
    24 -> 182 [penwidth=2]
    24 -> 143 [penwidth=2]
    24 -> 133 [penwidth=2]
    24 -> 201 [penwidth=2]
    24 -> 229 [penwidth=2]
    24 -> 250 [penwidth=2]
    24 -> 253 [penwidth=2]
    24 -> 175 [penwidth=2]
    24 -> 176 [penwidth=2]
    24 -> 241 [penwidth=2]
    24 -> 231 [penwidth=2]
    24 -> 159 [penwidth=2]
    24 -> 186 [penwidth=2]
    24 -> 188 [penwidth=2]
    24 -> 225 [penwidth=2]
    24 -> 242 [penwidth=2]
    24 -> 226 [penwidth=2]
    24 -> 234 [penwidth=2]
    24 -> 136 [penwidth=2]
    24 -> 245 [penwidth=2]
    24 -> 144 [penwidth=2]
    24 -> 224 [penwidth=2]
    24 -> 178 [penwidth=2]
    24 -> 148 [penwidth=2]
    24 -> 185 [penwidth=2]
    24 -> 150 [penwidth=2]
    24 -> 132 [penwidth=2]
    24 -> 236 [penwidth=2]
    24 -> 137 [penwidth=2]
    24 -> 179 [penwidth=2]
    24 -> 251 [penwidth=2]
    24 -> 255 [penwidth=2]
    24 -> 183 [penwidth=2]
    24 -> 196 [penwidth=2]
    24 -> 156 [penwidth=2]
    24 -> 257 [penwidth=2]
    24 -> 194 [penwidth=2]
    24 -> 152 [penwidth=2]
    24 -> 149 [penwidth=2]
    24 -> 139 [penwidth=2]
    24 -> 141 [penwidth=2]
    24 -> 145 [penwidth=2]
    24 -> 199 [penwidth=2]
    24 -> 256 [penwidth=2]
    24 -> 197 [penwidth=2]
    24 -> 142 [penwidth=2]
    24 -> 160 [penwidth=2]
    24 -> 247 [penwidth=2]
    24 -> 238 [penwidth=2]
    24 -> 146 [penwidth=2]
    24 -> 246 [penwidth=2]
    24 -> 237 [penwidth=2]
    24 -> 140 [penwidth=2]
    24 -> 153 [penwidth=2]
    24 -> 154 [penwidth=2]
    24 -> 200 [penwidth=2]
    24 -> 134 [penwidth=2]
    24 -> 187 [penwidth=2]
    24 -> 227 [penwidth=2]
    24 -> 138 [penwidth=2]
    24 -> 252 [penwidth=2]
    24 -> 233 [penwidth=2]
    24 -> 174 [penwidth=2]
    24 -> 181 [penwidth=2]
    24 -> 151 [penwidth=2]
    24 -> 239 [penwidth=2]
    24 -> 190 [penwidth=2]
    24 -> 235 [penwidth=2]
    24 -> 189 [penwidth=2]
    24 -> 177 [penwidth=2]
    24 -> 191 [penwidth=2]
    24 -> 223 [penwidth=2]
    260 -> 225 [penwidth=2]
    260 -> 256 [penwidth=2]
    260 -> 141 [penwidth=2]
    260 -> 191 [penwidth=2]
    260 -> 157 [penwidth=2]
    260 -> 230 [penwidth=2]
    260 -> 250 [penwidth=2]
    260 -> 247 [penwidth=2]
    260 -> 196 [penwidth=2]
    260 -> 137 [penwidth=2]
    260 -> 236 [penwidth=2]
    260 -> 159 [penwidth=2]
    260 -> 140 [penwidth=2]
    260 -> 194 [penwidth=2]
    260 -> 241 [penwidth=2]
    264 -> 200 [penwidth=2]
    264 -> 138 [penwidth=2]
    264 -> 202 [penwidth=2]
    264 -> 182 [penwidth=2]
    264 -> 134 [penwidth=2]
    264 -> 246 [penwidth=2]
    264 -> 150 [penwidth=2]
    264 -> 146 [penwidth=2]
    264 -> 197 [penwidth=2]
    264 -> 174 [penwidth=2]
    264 -> 226 [penwidth=2]
    264 -> 160 [penwidth=2]
    264 -> 179 [penwidth=2]
    264 -> 155 [penwidth=2]
    264 -> 156 [penwidth=2]
    264 -> 224 [penwidth=2]
    264 -> 236 [penwidth=2]
    264 -> 227 [penwidth=2]
    264 -> 237 [penwidth=2]
    264 -> 253 [penwidth=2]
    264 -> 193 [penwidth=2]
    264 -> 148 [penwidth=2]
    264 -> 241 [penwidth=2]
    264 -> 247 [penwidth=2]
    264 -> 157 [penwidth=2]
    264 -> 158 [penwidth=2]
    264 -> 159 [penwidth=2]
    264 -> 140 [penwidth=2]
    264 -> 177 [penwidth=2]
    264 -> 153 [penwidth=2]
    264 -> 243 [penwidth=2]
    264 -> 143 [penwidth=2]
    264 -> 229 [penwidth=2]
    264 -> 154 [penwidth=2]
    264 -> 189 [penwidth=2]
    264 -> 176 [penwidth=2]
    264 -> 199 [penwidth=2]
    264 -> 235 [penwidth=2]
    264 -> 245 [penwidth=2]
    264 -> 196 [penwidth=2]
    264 -> 192 [penwidth=2]
    264 -> 239 [penwidth=2]
    264 -> 194 [penwidth=2]
    264 -> 254 [penwidth=2]
    264 -> 152 [penwidth=2]
    264 -> 251 [penwidth=2]
    264 -> 231 [penwidth=2]
    264 -> 141 [penwidth=2]
    264 -> 185 [penwidth=2]
    264 -> 195 [penwidth=2]
    264 -> 188 [penwidth=2]
    264 -> 201 [penwidth=2]
    264 -> 135 [penwidth=2]
    264 -> 142 [penwidth=2]
    264 -> 240 [penwidth=2]
    264 -> 228 [penwidth=2]
    264 -> 256 [penwidth=2]
    264 -> 190 [penwidth=2]
    264 -> 250 [penwidth=2]
    264 -> 145 [penwidth=2]
    264 -> 180 [penwidth=2]
    264 -> 186 [penwidth=2]
    285 -> 156 [penwidth=2]
    285 -> 134 [penwidth=2]
    285 -> 236 [penwidth=2]
    285 -> 195 [penwidth=2]
    285 -> 227 [penwidth=2]
    285 -> 185 [penwidth=2]
    285 -> 142 [penwidth=2]
    285 -> 244 [penwidth=2]
    285 -> 147 [penwidth=2]
    285 -> 239 [penwidth=2]
    285 -> 132 [penwidth=2]
    285 -> 255 [penwidth=2]
    285 -> 251 [penwidth=2]
    285 -> 140 [penwidth=2]
    285 -> 133 [penwidth=2]
    285 -> 194 [penwidth=2]
    285 -> 240 [penwidth=2]
    285 -> 159 [penwidth=2]
    285 -> 199 [penwidth=2]
    285 -> 248 [penwidth=2]
    285 -> 257 [penwidth=2]
    285 -> 253 [penwidth=2]
    285 -> 138 [penwidth=2]
    285 -> 231 [penwidth=2]
    285 -> 230 [penwidth=2]
    285 -> 254 [penwidth=2]
    285 -> 190 [penwidth=2]
    285 -> 223 [penwidth=2]
    285 -> 141 [penwidth=2]
    285 -> 225 [penwidth=2]
    285 -> 228 [penwidth=2]
    285 -> 152 [penwidth=2]
    285 -> 232 [penwidth=2]
    285 -> 200 [penwidth=2]
    285 -> 143 [penwidth=2]
    285 -> 157 [penwidth=2]
    285 -> 201 [penwidth=2]
    285 -> 154 [penwidth=2]
    285 -> 179 [penwidth=2]
    285 -> 176 [penwidth=2]
    285 -> 186 [penwidth=2]
    285 -> 175 [penwidth=2]
    285 -> 137 [penwidth=2]
    285 -> 192 [penwidth=2]
    285 -> 151 [penwidth=2]
    285 -> 252 [penwidth=2]
    285 -> 181 [penwidth=2]
    285 -> 135 [penwidth=2]
    285 -> 224 [penwidth=2]
    285 -> 153 [penwidth=2]
    285 -> 145 [penwidth=2]
    285 -> 184 [penwidth=2]
    285 -> 189 [penwidth=2]
    285 -> 245 [penwidth=2]
    285 -> 198 [penwidth=2]
    285 -> 183 [penwidth=2]
    285 -> 241 [penwidth=2]
    285 -> 243 [penwidth=2]
    285 -> 188 [penwidth=2]
    285 -> 177 [penwidth=2]
    285 -> 174 [penwidth=2]
    285 -> 233 [penwidth=2]
    285 -> 149 [penwidth=2]
    285 -> 237 [penwidth=2]
    285 -> 197 [penwidth=2]
    285 -> 246 [penwidth=2]
    285 -> 196 [penwidth=2]
    285 -> 229 [penwidth=2]
    285 -> 226 [penwidth=2]
    285 -> 148 [penwidth=2]
    285 -> 180 [penwidth=2]
    285 -> 144 [penwidth=2]
    285 -> 139 [penwidth=2]
    285 -> 146 [penwidth=2]
    285 -> 155 [penwidth=2]
    285 -> 182 [penwidth=2]
    285 -> 250 [penwidth=2]
    285 -> 247 [penwidth=2]
    285 -> 249 [penwidth=2]
    285 -> 193 [penwidth=2]
    285 -> 158 [penwidth=2]
    285 -> 178 [penwidth=2]
    285 -> 191 [penwidth=2]
    285 -> 256 [penwidth=2]
    285 -> 187 [penwidth=2]
    285 -> 160 [penwidth=2]
    285 -> 136 [penwidth=2]
    285 -> 234 [penwidth=2]
    285 -> 202 [penwidth=2]
    285 -> 150 [penwidth=2]
    285 -> 242 [penwidth=2]
    287 -> 186 [penwidth=2]
    287 -> 135 [penwidth=2]
    287 -> 232 [penwidth=2]
    287 -> 150 [penwidth=2]
    287 -> 228 [penwidth=2]
    287 -> 141 [penwidth=2]
    287 -> 233 [penwidth=2]
    287 -> 145 [penwidth=2]
    287 -> 148 [penwidth=2]
    287 -> 160 [penwidth=2]
    287 -> 237 [penwidth=2]
    287 -> 257 [penwidth=2]
    287 -> 147 [penwidth=2]
    287 -> 225 [penwidth=2]
    287 -> 238 [penwidth=2]
    287 -> 242 [penwidth=2]
    287 -> 201 [penwidth=2]
    287 -> 152 [penwidth=2]
    287 -> 181 [penwidth=2]
    287 -> 136 [penwidth=2]
    287 -> 252 [penwidth=2]
    287 -> 251 [penwidth=2]
    287 -> 139 [penwidth=2]
    287 -> 197 [penwidth=2]
    287 -> 253 [penwidth=2]
    287 -> 182 [penwidth=2]
    287 -> 243 [penwidth=2]
    287 -> 154 [penwidth=2]
    287 -> 245 [penwidth=2]
    287 -> 191 [penwidth=2]
    287 -> 229 [penwidth=2]
    287 -> 143 [penwidth=2]
    287 -> 192 [penwidth=2]
    287 -> 227 [penwidth=2]
    287 -> 149 [penwidth=2]
    287 -> 138 [penwidth=2]
    287 -> 137 [penwidth=2]
    287 -> 184 [penwidth=2]
    287 -> 144 [penwidth=2]
    287 -> 180 [penwidth=2]
    287 -> 190 [penwidth=2]
    287 -> 133 [penwidth=2]
    287 -> 202 [penwidth=2]
    287 -> 158 [penwidth=2]
    287 -> 159 [penwidth=2]
    287 -> 250 [penwidth=2]
    287 -> 198 [penwidth=2]
    287 -> 240 [penwidth=2]
    287 -> 151 [penwidth=2]
    287 -> 153 [penwidth=2]
    287 -> 140 [penwidth=2]
    287 -> 175 [penwidth=2]
    287 -> 239 [penwidth=2]
    287 -> 155 [penwidth=2]
    295 -> 240 [penwidth=2]
    295 -> 174 [penwidth=2]
    295 -> 192 [penwidth=2]
    295 -> 136 [penwidth=2]
    295 -> 146 [penwidth=2]
    295 -> 233 [penwidth=2]
    295 -> 148 [penwidth=2]
    295 -> 178 [penwidth=2]
    295 -> 244 [penwidth=2]
    295 -> 239 [penwidth=2]
    295 -> 132 [penwidth=2]
    295 -> 147 [penwidth=2]
    295 -> 257 [penwidth=2]
    295 -> 229 [penwidth=2]
    295 -> 184 [penwidth=2]
    295 -> 193 [penwidth=2]
    295 -> 243 [penwidth=2]
    295 -> 183 [penwidth=2]
    295 -> 242 [penwidth=2]
    295 -> 179 [penwidth=2]
    295 -> 188 [penwidth=2]
    295 -> 195 [penwidth=2]
    295 -> 225 [penwidth=2]
    295 -> 145 [penwidth=2]
    295 -> 194 [penwidth=2]
    295 -> 245 [penwidth=2]
    295 -> 254 [penwidth=2]
    295 -> 137 [penwidth=2]
    295 -> 177 [penwidth=2]
    295 -> 181 [penwidth=2]
    295 -> 142 [penwidth=2]
    295 -> 143 [penwidth=2]
    295 -> 175 [penwidth=2]
    295 -> 190 [penwidth=2]
    295 -> 159 [penwidth=2]
    295 -> 138 [penwidth=2]
    295 -> 250 [penwidth=2]
    295 -> 149 [penwidth=2]
    295 -> 191 [penwidth=2]
    295 -> 200 [penwidth=2]
    295 -> 197 [penwidth=2]
    295 -> 150 [penwidth=2]
    295 -> 187 [penwidth=2]
    295 -> 154 [penwidth=2]
    295 -> 153 [penwidth=2]
    295 -> 230 [penwidth=2]
    295 -> 198 [penwidth=2]
    295 -> 155 [penwidth=2]
    295 -> 241 [penwidth=2]
    295 -> 180 [penwidth=2]
    295 -> 156 [penwidth=2]
    295 -> 185 [penwidth=2]
    295 -> 255 [penwidth=2]
    295 -> 227 [penwidth=2]
    295 -> 246 [penwidth=2]
    295 -> 252 [penwidth=2]
    295 -> 140 [penwidth=2]
    295 -> 151 [penwidth=2]
    295 -> 256 [penwidth=2]
    295 -> 189 [penwidth=2]
    295 -> 144 [penwidth=2]
    295 -> 238 [penwidth=2]
    295 -> 199 [penwidth=2]
    295 -> 141 [penwidth=2]
    295 -> 249 [penwidth=2]
    295 -> 160 [penwidth=2]
    295 -> 231 [penwidth=2]
    295 -> 133 [penwidth=2]
    295 -> 232 [penwidth=2]
    295 -> 251 [penwidth=2]
    295 -> 186 [penwidth=2]
    295 -> 202 [penwidth=2]
    295 -> 234 [penwidth=2]
}