digraph G {
    0 [penwidth=3,label="0"]
    1 [penwidth=3,label="1"]
    2 [penwidth=3,label="2"]
    3 [penwidth=3,label="3"]
    4 [penwidth=3,label="4"]
    5 [penwidth=3,label="5"]
    6 [penwidth=3,label="6"]
    7 [penwidth=3,label="7"]
    8 [penwidth=3,label="8"]
    9 [penwidth=3,label="9"]
    10 [penwidth=3,label="10"]
    11 [penwidth=3,label="11"]
    12 [penwidth=3,label="12"]
    13 [penwidth=3,label="13"]
    14 [penwidth=3,label="14"]
    15 [penwidth=3,label="15"]
    16 [penwidth=3,label="16"]
    17 [penwidth=3,label="17"]
    18 [penwidth=3,label="18"]
    19 [penwidth=3,label="19"]
    20 [penwidth=3,label="20"]
    21 [penwidth=3,label="21"]
    22 [penwidth=3,label="22"]
    23 [penwidth=3,label="23"]
    24 [penwidth=3,label="24"]
    25 [penwidth=3,label="25"]
    26 [penwidth=3,label="26"]
    27 [penwidth=3,label="27"]
    28 [penwidth=3,label="28"]
    29 [penwidth=3,label="29"]
    30 [penwidth=3,label="30"]
    31 [penwidth=3,label="31"]
    32 [penwidth=3,label="32"]
    33 [penwidth=3,label="33"]
    34 [penwidth=3,label="34"]
    35 [penwidth=3,label="35"]
    36 [penwidth=3,label="36"]
    37 [penwidth=3,label="37"]
    38 [penwidth=3,label="38"]
    39 [penwidth=3,label="39"]
    40 [penwidth=3,label="40"]
    41 [penwidth=3,label="41"]
    42 [penwidth=3,label="42"]
    43 [penwidth=3,label="43"]
    44 [penwidth=3,label="44"]
    45 [penwidth=3,label="45"]
    46 [penwidth=3,label="46"]
    47 [penwidth=3,label="47"]
    48 [penwidth=3,label="48"]
    49 [penwidth=3,label="49"]
    50 [penwidth=3,label="50"]
    51 [penwidth=3,label="51"]
    52 [penwidth=3,label="52"]
    53 [penwidth=3,label="53"]
    54 [penwidth=3,label="54"]
    55 [penwidth=3,label="55"]
    56 [penwidth=3,label="56"]
    57 [penwidth=3,label="57"]
    58 [penwidth=3,label="58"]
    59 [penwidth=3,label="59"]
    60 [penwidth=3,label="60"]
    61 [penwidth=3,label="61"]
    62 [penwidth=3,label="62"]
    63 [penwidth=3,label="63"]
    64 [penwidth=3,label="64"]
    65 [penwidth=3,label="65"]
    66 [penwidth=3,label="66"]
    67 [penwidth=3,label="67"]
    68 [penwidth=3,label="68"]
    69 [penwidth=3,label="69"]
    70 [penwidth=3,label="70"]
    71 [penwidth=3,label="71"]
    72 [penwidth=3,label="72"]
    73 [penwidth=3,label="73"]
    74 [penwidth=3,label="74"]
    75 [penwidth=3,label="75"]
    76 [penwidth=3,label="76"]
    77 [penwidth=3,label="77"]
    78 [penwidth=3,label="78"]
    79 [penwidth=3,label="79"]
    80 [penwidth=3,label="80"]
    81 [penwidth=3,label="81"]
    82 [penwidth=3,label="82"]
    83 [penwidth=3,label="83"]
    84 [penwidth=3,label="84"]
    85 [penwidth=3,label="85"]
    86 [penwidth=3,label="86"]
    87 [penwidth=3,label="87"]
    88 [penwidth=3,label="88"]
    89 [penwidth=3,label="89"]
    90 [penwidth=3,label="90"]
    91 [penwidth=3,label="91"]
    92 [penwidth=3,label="92"]
    93 [penwidth=3,label="93"]
    94 [penwidth=3,label="94"]
    95 [penwidth=3,label="95"]
    96 [penwidth=3,label="96"]
    97 [penwidth=3,label="97"]
    98 [penwidth=3,label="98"]
    99 [penwidth=3,label="99"]
    100 [penwidth=3,label="100"]
    101 [penwidth=3,label="101"]
    102 [penwidth=3,label="102"]
    103 [penwidth=3,label="103"]
    104 [penwidth=3,label="104"]
    105 [penwidth=3,label="105"]
    106 [penwidth=3,label="106"]
    107 [penwidth=3,label="107"]
    108 [penwidth=3,label="108"]
    109 [penwidth=3,label="109"]
    110 [penwidth=3,label="110"]
    111 [penwidth=3,label="111"]
    112 [penwidth=3,label="112"]
    113 [penwidth=3,label="113"]
    114 [penwidth=3,label="114"]
    115 [penwidth=3,label="115"]
    116 [penwidth=3,label="116"]
    117 [penwidth=3,label="117"]
    118 [penwidth=3,label="118"]
    119 [penwidth=3,label="119"]
    120 [penwidth=3,label="120"]
    121 [penwidth=3,label="121"]
    122 [penwidth=3,label="122"]
    123 [penwidth=3,label="123"]
    124 [penwidth=3,label="124"]
    125 [penwidth=3,label="125"]
    126 [penwidth=3,label="126"]
    127 [penwidth=3,label="127"]
    128 [penwidth=3,label="128"]
    129 [penwidth=3,label="129"]
    130 [penwidth=3,label="130"]
    131 [penwidth=3,label="131"]
    132 [penwidth=3,label="132"]
    133 [penwidth=3,label="133"]
    134 [penwidth=3,label="134"]
    135 [penwidth=3,label="135"]
    136 [penwidth=3,label="136"]
    137 [penwidth=3,label="137"]
    138 [penwidth=3,label="138"]
    139 [penwidth=3,label="139"]
    140 [penwidth=3,label="140"]
    141 [penwidth=3,label="141"]
    142 [penwidth=3,label="142"]
    143 [penwidth=3,label="143"]
    144 [penwidth=3,label="144"]
    145 [penwidth=3,label="145"]
    146 [penwidth=3,label="146"]
    147 [penwidth=3,label="147"]
    148 [penwidth=3,label="148"]
    149 [penwidth=3,label="149"]
    150 [penwidth=3,label="150"]
    151 [penwidth=3,label="151"]
    152 [penwidth=3,label="152"]
    153 [penwidth=3,label="153"]
    154 [penwidth=3,label="154"]
    155 [penwidth=3,label="155"]
    156 [penwidth=3,label="156"]
    157 [penwidth=3,label="157"]
    158 [penwidth=3,label="158"]
    159 [penwidth=3,label="159"]
    160 [penwidth=3,label="160"]
    161 [penwidth=3,label="161"]
    162 [penwidth=3,label="162"]
    163 [penwidth=3,label="163"]
    164 [penwidth=3,label="164"]
    165 [penwidth=3,label="165"]
    166 [penwidth=3,label="166"]
    167 [penwidth=3,label="167"]
    168 [penwidth=3,label="168"]
    169 [penwidth=3,label="169"]
    170 [penwidth=3,label="170"]
    171 [penwidth=3,label="171"]
    172 [penwidth=3,label="172"]
    173 [penwidth=3,label="173"]
    174 [penwidth=3,label="174"]
    175 [penwidth=3,label="175"]
    176 [penwidth=3,label="176"]
    177 [penwidth=3,label="177"]
    178 [penwidth=3,label="178"]
    179 [penwidth=3,label="179"]
    180 [penwidth=3,label="180"]
    181 [penwidth=3,label="181"]
    182 [penwidth=3,label="182"]
    183 [penwidth=3,label="183"]
    184 [penwidth=3,label="184"]
    185 [penwidth=3,label="185"]
    186 [penwidth=3,label="186"]
    187 [penwidth=3,label="187"]
    188 [penwidth=3,label="188"]
    189 [penwidth=3,label="189"]
    190 [penwidth=3,label="190"]
    191 [penwidth=3,label="191"]
    192 [penwidth=3,label="192"]
    193 [penwidth=3,label="193"]
    194 [penwidth=3,label="194"]
    195 [penwidth=3,label="195"]
    196 [penwidth=3,label="196"]
    197 [penwidth=3,label="197"]
    198 [penwidth=3,label="198"]
    199 [penwidth=3,label="199"]
    200 [penwidth=3,label="200"]
    201 [penwidth=3,label="201"]
    202 [penwidth=3,label="202"]
    203 [penwidth=3,label="203"]
    204 [penwidth=3,label="204"]
    205 [penwidth=3,label="205"]
    206 [penwidth=3,label="206"]
    207 [penwidth=3,label="207"]
    208 [penwidth=3,label="208"]
    209 [penwidth=3,label="209"]
    210 [penwidth=3,label="210"]
    211 [penwidth=3,label="211"]
    212 [penwidth=3,label="212"]
    213 [penwidth=3,label="213"]
    214 [penwidth=3,label="214"]
    215 [penwidth=3,label="215"]
    216 [penwidth=3,label="216"]
    217 [penwidth=3,label="217"]
    218 [penwidth=3,label="218"]
    219 [penwidth=3,label="219"]
    220 [penwidth=3,label="220"]
    221 [penwidth=3,label="221"]
    222 [penwidth=3,label="222"]
    223 [penwidth=3,label="223"]
    224 [penwidth=3,label="224"]
    225 [penwidth=3,label="225"]
    226 [penwidth=3,label="226"]
    227 [penwidth=3,label="227"]
    228 [penwidth=3,label="228"]
    229 [penwidth=3,label="229"]
    230 [penwidth=3,label="230"]
    231 [penwidth=3,label="231"]
    232 [penwidth=3,label="232"]
    233 [penwidth=3,label="233"]
    234 [penwidth=3,label="234"]
    235 [penwidth=3,label="235"]
    236 [penwidth=3,label="236"]
    237 [penwidth=3,label="237"]
    238 [penwidth=3,label="238"]
    239 [penwidth=3,label="239"]
    240 [penwidth=3,label="240"]
    241 [penwidth=3,label="241"]
    242 [penwidth=3,label="242"]
    243 [penwidth=3,label="243"]
    244 [penwidth=3,label="244"]
    245 [penwidth=3,label="245"]
    246 [penwidth=3,label="246"]
    247 [penwidth=3,label="247"]
    248 [penwidth=3,label="248"]
    249 [penwidth=3,label="249"]
    250 [penwidth=3,label="250"]
    251 [penwidth=3,label="251"]
    252 [penwidth=3,label="252"]
    253 [penwidth=3,label="253"]
    254 [penwidth=3,label="254"]
    255 [penwidth=3,label="255"]
    256 [penwidth=3,label="256"]
    257 [penwidth=3,label="257"]
    258 [penwidth=3,label="258"]
    259 [penwidth=3,label="259"]
    260 [penwidth=3,label="260"]
    261 [penwidth=3,label="261"]
    262 [penwidth=3,label="262"]
    263 [penwidth=3,label="263"]
    264 [penwidth=3,label="264"]
    265 [penwidth=3,label="265"]
    266 [penwidth=3,label="266"]
    267 [penwidth=3,label="267"]
    268 [penwidth=3,label="268"]
    269 [penwidth=3,label="269"]
    270 [penwidth=3,label="270"]
    271 [penwidth=3,label="271"]
    272 [penwidth=3,label="272"]
    273 [penwidth=3,label="273"]
    274 [penwidth=3,label="274"]
    275 [penwidth=3,label="275"]
    276 [penwidth=3,label="276"]
    277 [penwidth=3,label="277"]
    278 [penwidth=3,label="278"]
    279 [penwidth=3,label="279"]
    280 [penwidth=3,label="280"]
    281 [penwidth=3,label="281"]
    282 [penwidth=3,label="282"]
    283 [penwidth=3,label="283"]
    284 [penwidth=3,label="284"]
    285 [penwidth=3,label="285"]
    286 [penwidth=3,label="286"]
    287 [penwidth=3,label="287"]
    288 [penwidth=3,label="288"]
    289 [penwidth=3,label="289"]
    290 [penwidth=3,label="290"]
    291 [penwidth=3,label="291"]
    292 [penwidth=3,label="292"]
    293 [penwidth=3,label="293"]
    294 [penwidth=3,label="294"]
    295 [penwidth=3,label="295"]
    296 [penwidth=3,label="296"]
    297 [penwidth=3,label="297"]
    298 [penwidth=3,label="298"]
    299 [penwidth=3,label="299"]
    300 [penwidth=3,label="300"]
    301 [penwidth=3,label="301"]
    302 [penwidth=3,label="302"]
    303 [penwidth=3,label="303"]
    304 [penwidth=3,label="304"]
    305 [penwidth=3,label="305"]
    306 [penwidth=3,label="306"]
    307 [penwidth=3,label="307"]
    308 [penwidth=3,label="308"]
    309 [penwidth=3,label="309"]

    87 -> 0 [penwidth=2]
    129 -> 0 [penwidth=2]
    88 -> 0 [penwidth=2]
    130 -> 0 [penwidth=2]
    89 -> 0 [penwidth=2]
    131 -> 0 [penwidth=2]
    90 -> 0 [penwidth=2]
    132 -> 87 [penwidth=2]
    91 -> 87 [penwidth=2]
    133 -> 87 [penwidth=2]
    92 -> 87 [penwidth=2]
    134 -> 87 [penwidth=2]
    93 -> 87 [penwidth=2]
    135 -> 87 [penwidth=2]
    94 -> 87 [penwidth=2]
    136 -> 87 [penwidth=2]
    95 -> 87 [penwidth=2]
    137 -> 87 [penwidth=2]
    96 -> 87 [penwidth=2]
    138 -> 87 [penwidth=2]
    97 -> 87 [penwidth=2]
    139 -> 87 [penwidth=2]
    98 -> 87 [penwidth=2]
    140 -> 87 [penwidth=2]
    99 -> 87 [penwidth=2]
    141 -> 87 [penwidth=2]
    100 -> 129 [penwidth=2]
    142 -> 129 [penwidth=2]
    101 -> 129 [penwidth=2]
    143 -> 129 [penwidth=2]
    102 -> 129 [penwidth=2]
    144 -> 129 [penwidth=2]
    103 -> 129 [penwidth=2]
    145 -> 129 [penwidth=2]
    104 -> 129 [penwidth=2]
    146 -> 129 [penwidth=2]
    105 -> 88 [penwidth=2]
    147 -> 88 [penwidth=2]
    106 -> 88 [penwidth=2]
    148 -> 88 [penwidth=2]
    107 -> 88 [penwidth=2]
    149 -> 88 [penwidth=2]
    108 -> 88 [penwidth=2]
    150 -> 88 [penwidth=2]
    109 -> 88 [penwidth=2]
    151 -> 88 [penwidth=2]
    110 -> 88 [penwidth=2]
    152 -> 88 [penwidth=2]
    111 -> 88 [penwidth=2]
    153 -> 88 [penwidth=2]
    112 -> 88 [penwidth=2]
    154 -> 88 [penwidth=2]
    113 -> 88 [penwidth=2]
    155 -> 88 [penwidth=2]
    114 -> 88 [penwidth=2]
    156 -> 88 [penwidth=2]
    115 -> 88 [penwidth=2]
    157 -> 88 [penwidth=2]
    116 -> 88 [penwidth=2]
    158 -> 88 [penwidth=2]
    117 -> 88 [penwidth=2]
    159 -> 130 [penwidth=2]
    118 -> 130 [penwidth=2]
    160 -> 130 [penwidth=2]
    119 -> 130 [penwidth=2]
    161 -> 130 [penwidth=2]
    120 -> 130 [penwidth=2]
    162 -> 130 [penwidth=2]
    121 -> 130 [penwidth=2]
    163 -> 130 [penwidth=2]
    122 -> 130 [penwidth=2]
    164 -> 130 [penwidth=2]
    123 -> 130 [penwidth=2]
    165 -> 130 [penwidth=2]
    124 -> 130 [penwidth=2]
    166 -> 130 [penwidth=2]
    125 -> 130 [penwidth=2]
    167 -> 130 [penwidth=2]
    126 -> 130 [penwidth=2]
    168 -> 130 [penwidth=2]
    127 -> 130 [penwidth=2]
    169 -> 130 [penwidth=2]
    128 -> 130 [penwidth=2]
    170 -> 89 [penwidth=2]
    45 -> 89 [penwidth=2]
    46 -> 89 [penwidth=2]
    47 -> 89 [penwidth=2]
    48 -> 131 [penwidth=2]
    49 -> 131 [penwidth=2]
    50 -> 131 [penwidth=2]
    51 -> 131 [penwidth=2]
    52 -> 131 [penwidth=2]
    53 -> 131 [penwidth=2]
    54 -> 131 [penwidth=2]
    55 -> 131 [penwidth=2]
    56 -> 131 [penwidth=2]
    57 -> 131 [penwidth=2]
    58 -> 131 [penwidth=2]
    59 -> 131 [penwidth=2]
    60 -> 131 [penwidth=2]
    61 -> 131 [penwidth=2]
    62 -> 131 [penwidth=2]
    63 -> 131 [penwidth=2]
    64 -> 131 [penwidth=2]
    65 -> 131 [penwidth=2]
    66 -> 131 [penwidth=2]
    67 -> 131 [penwidth=2]
    68 -> 131 [penwidth=2]
    69 -> 131 [penwidth=2]
    70 -> 90 [penwidth=2]
    71 -> 90 [penwidth=2]
    72 -> 90 [penwidth=2]
    73 -> 90 [penwidth=2]
    74 -> 90 [penwidth=2]
    75 -> 90 [penwidth=2]
    76 -> 90 [penwidth=2]
    77 -> 90 [penwidth=2]
    78 -> 90 [penwidth=2]
    79 -> 90 [penwidth=2]
    80 -> 90 [penwidth=2]
    81 -> 90 [penwidth=2]
    82 -> 90 [penwidth=2]
    83 -> 132 [penwidth=2]
    84 -> 132 [penwidth=2]
    85 -> 132 [penwidth=2]
    86 -> 132 [penwidth=2]
    3 -> 132 [penwidth=2]
    297 -> 132 [penwidth=2]
    4 -> 132 [penwidth=2]
    298 -> 132 [penwidth=2]
    5 -> 132 [penwidth=2]
    299 -> 132 [penwidth=2]
    6 -> 132 [penwidth=2]
    300 -> 132 [penwidth=2]
    7 -> 132 [penwidth=2]
    301 -> 132 [penwidth=2]
    8 -> 132 [penwidth=2]
    302 -> 132 [penwidth=2]
    9 -> 132 [penwidth=2]
    303 -> 132 [penwidth=2]
    10 -> 132 [penwidth=2]
    304 -> 132 [penwidth=2]
    11 -> 132 [penwidth=2]
    305 -> 132 [penwidth=2]
    12 -> 91 [penwidth=2]
    306 -> 91 [penwidth=2]
    13 -> 91 [penwidth=2]
    307 -> 91 [penwidth=2]
    14 -> 91 [penwidth=2]
    308 -> 91 [penwidth=2]
    15 -> 91 [penwidth=2]
    309 -> 91 [penwidth=2]
    16 -> 91 [penwidth=2]
    17 -> 91 [penwidth=2]
    18 -> 91 [penwidth=2]
    19 -> 91 [penwidth=2]
    20 -> 91 [penwidth=2]
    21 -> 91 [penwidth=2]
    22 -> 91 [penwidth=2]
    23 -> 91 [penwidth=2]
    24 -> 91 [penwidth=2]
    25 -> 91 [penwidth=2]
    26 -> 91 [penwidth=2]
    27 -> 133 [penwidth=2]
    28 -> 133 [penwidth=2]
    29 -> 133 [penwidth=2]
    30 -> 133 [penwidth=2]
    31 -> 133 [penwidth=2]
    32 -> 133 [penwidth=2]
    33 -> 133 [penwidth=2]
    34 -> 133 [penwidth=2]
    35 -> 133 [penwidth=2]
    36 -> 133 [penwidth=2]
    37 -> 133 [penwidth=2]
    38 -> 133 [penwidth=2]
    39 -> 133 [penwidth=2]
    40 -> 133 [penwidth=2]
    41 -> 133 [penwidth=2]
    42 -> 133 [penwidth=2]
    43 -> 133 [penwidth=2]
    44 -> 92 [penwidth=2]
    255 -> 92 [penwidth=2]
    256 -> 92 [penwidth=2]
    257 -> 92 [penwidth=2]
    258 -> 92 [penwidth=2]
    259 -> 92 [penwidth=2]
    260 -> 92 [penwidth=2]
    261 -> 92 [penwidth=2]
    262 -> 92 [penwidth=2]
    263 -> 92 [penwidth=2]
    264 -> 92 [penwidth=2]
    265 -> 92 [penwidth=2]
    266 -> 92 [penwidth=2]
    267 -> 92 [penwidth=2]
    268 -> 134 [penwidth=2]
    269 -> 134 [penwidth=2]
    270 -> 134 [penwidth=2]
    271 -> 134 [penwidth=2]
    272 -> 134 [penwidth=2]
    273 -> 134 [penwidth=2]
    274 -> 134 [penwidth=2]
    275 -> 134 [penwidth=2]
    276 -> 134 [penwidth=2]
    277 -> 93 [penwidth=2]
    278 -> 93 [penwidth=2]
    279 -> 93 [penwidth=2]
    280 -> 93 [penwidth=2]
    281 -> 135 [penwidth=2]
    282 -> 135 [penwidth=2]
    283 -> 135 [penwidth=2]
    284 -> 135 [penwidth=2]
    285 -> 135 [penwidth=2]
    286 -> 135 [penwidth=2]
    287 -> 135 [penwidth=2]
    288 -> 135 [penwidth=2]
    289 -> 135 [penwidth=2]
    290 -> 135 [penwidth=2]
    291 -> 135 [penwidth=2]
    292 -> 135 [penwidth=2]
    293 -> 135 [penwidth=2]
    294 -> 135 [penwidth=2]
    1 -> 135 [penwidth=2]
    295 -> 135 [penwidth=2]
    296 -> 135 [penwidth=2]
    2 -> 135 [penwidth=2]
    213 -> 135 [penwidth=2]
    214 -> 135 [penwidth=2]
    215 -> 135 [penwidth=2]
    216 -> 135 [penwidth=2]
    217 -> 94 [penwidth=2]
    218 -> 94 [penwidth=2]
    219 -> 94 [penwidth=2]
    220 -> 136 [penwidth=2]
    221 -> 136 [penwidth=2]
    222 -> 136 [penwidth=2]
    223 -> 136 [penwidth=2]
    224 -> 136 [penwidth=2]
    225 -> 95 [penwidth=2]
    226 -> 95 [penwidth=2]
    227 -> 95 [penwidth=2]
    228 -> 95 [penwidth=2]
    229 -> 95 [penwidth=2]
    230 -> 95 [penwidth=2]
    231 -> 95 [penwidth=2]
    232 -> 95 [penwidth=2]
    233 -> 95 [penwidth=2]
    234 -> 95 [penwidth=2]
    235 -> 95 [penwidth=2]
    236 -> 95 [penwidth=2]
    237 -> 95 [penwidth=2]
    238 -> 95 [penwidth=2]
    239 -> 95 [penwidth=2]
    240 -> 95 [penwidth=2]
    241 -> 95 [penwidth=2]
    242 -> 95 [penwidth=2]
    243 -> 95 [penwidth=2]
    244 -> 95 [penwidth=2]
    245 -> 95 [penwidth=2]
    246 -> 95 [penwidth=2]
    247 -> 137 [penwidth=2]
    248 -> 137 [penwidth=2]
    249 -> 137 [penwidth=2]
    250 -> 137 [penwidth=2]
    251 -> 137 [penwidth=2]
    252 -> 137 [penwidth=2]
    253 -> 137 [penwidth=2]
    254 -> 137 [penwidth=2]
    171 -> 137 [penwidth=2]
    172 -> 96 [penwidth=2]
    173 -> 96 [penwidth=2]
    174 -> 96 [penwidth=2]
    175 -> 96 [penwidth=2]
    176 -> 96 [penwidth=2]
    177 -> 96 [penwidth=2]
    178 -> 96 [penwidth=2]
    179 -> 96 [penwidth=2]
    180 -> 96 [penwidth=2]
    181 -> 96 [penwidth=2]
    182 -> 96 [penwidth=2]
    183 -> 96 [penwidth=2]
    184 -> 96 [penwidth=2]
    185 -> 138 [penwidth=2]
    186 -> 138 [penwidth=2]
    187 -> 138 [penwidth=2]
    188 -> 138 [penwidth=2]
    189 -> 138 [penwidth=2]
    190 -> 138 [penwidth=2]
    191 -> 138 [penwidth=2]
    192 -> 138 [penwidth=2]
    193 -> 138 [penwidth=2]
    194 -> 138 [penwidth=2]
    195 -> 138 [penwidth=2]
    196 -> 138 [penwidth=2]
    197 -> 138 [penwidth=2]
    198 -> 138 [penwidth=2]
    199 -> 138 [penwidth=2]
    200 -> 138 [penwidth=2]
    201 -> 138 [penwidth=2]
    202 -> 138 [penwidth=2]
    203 -> 138 [penwidth=2]
    204 -> 138 [penwidth=2]
    205 -> 97 [penwidth=2]
    206 -> 97 [penwidth=2]
    207 -> 97 [penwidth=2]
    208 -> 97 [penwidth=2]
    209 -> 97 [penwidth=2]
    210 -> 97 [penwidth=2]
    211 -> 97 [penwidth=2]
    212 -> 97 [penwidth=2]
    141 -> 130 [penwidth=2]
    100 -> 87 [penwidth=2]
    100 -> 90 [penwidth=2]
    100 -> 88 [penwidth=2]
    100 -> 89 [penwidth=2]
    108 -> 130 [penwidth=2]
    109 -> 90 [penwidth=2]
    109 -> 130 [penwidth=2]
    109 -> 129 [penwidth=2]
    110 -> 130 [penwidth=2]
    110 -> 89 [penwidth=2]
    110 -> 129 [penwidth=2]
    153 -> 131 [penwidth=2]
    153 -> 129 [penwidth=2]
    153 -> 90 [penwidth=2]
    160 -> 129 [penwidth=2]
    166 -> 89 [penwidth=2]
    166 -> 90 [penwidth=2]
    128 -> 131 [penwidth=2]
    128 -> 129 [penwidth=2]
    128 -> 90 [penwidth=2]
    128 -> 87 [penwidth=2]
    128 -> 89 [penwidth=2]
    49 -> 90 [penwidth=2]
    49 -> 87 [penwidth=2]
    53 -> 90 [penwidth=2]
    9 -> 65 [penwidth=2]
    9 -> 148 [penwidth=2]
    9 -> 68 [penwidth=2]
    9 -> 97 [penwidth=2]
    9 -> 48 [penwidth=2]
    9 -> 94 [penwidth=2]
    9 -> 116 [penwidth=2]
    9 -> 155 [penwidth=2]
    9 -> 137 [penwidth=2]
    9 -> 70 [penwidth=2]
    9 -> 134 [penwidth=2]
    9 -> 110 [penwidth=2]
    9 -> 127 [penwidth=2]
    9 -> 72 [penwidth=2]
    9 -> 79 [penwidth=2]
    9 -> 62 [penwidth=2]
    9 -> 69 [penwidth=2]
    9 -> 146 [penwidth=2]
    9 -> 95 [penwidth=2]
    9 -> 96 [penwidth=2]
    9 -> 150 [penwidth=2]
    9 -> 60 [penwidth=2]
    9 -> 161 [penwidth=2]
    9 -> 105 [penwidth=2]
    9 -> 53 [penwidth=2]
    9 -> 124 [penwidth=2]
    9 -> 135 [penwidth=2]
    9 -> 102 [penwidth=2]
    9 -> 55 [penwidth=2]
    9 -> 80 [penwidth=2]
    9 -> 111 [penwidth=2]
    9 -> 47 [penwidth=2]
    9 -> 117 [penwidth=2]
    9 -> 120 [penwidth=2]
    9 -> 77 [penwidth=2]
    9 -> 50 [penwidth=2]
    9 -> 154 [penwidth=2]
    9 -> 54 [penwidth=2]
    9 -> 109 [penwidth=2]
    9 -> 121 [penwidth=2]
    9 -> 92 [penwidth=2]
    9 -> 71 [penwidth=2]
    9 -> 160 [penwidth=2]
    9 -> 52 [penwidth=2]
    9 -> 66 [penwidth=2]
    9 -> 170 [penwidth=2]
    9 -> 106 [penwidth=2]
    9 -> 167 [penwidth=2]
    9 -> 163 [penwidth=2]
    9 -> 100 [penwidth=2]
    9 -> 168 [penwidth=2]
    9 -> 166 [penwidth=2]
    9 -> 101 [penwidth=2]
    9 -> 123 [penwidth=2]
    9 -> 76 [penwidth=2]
    9 -> 59 [penwidth=2]
    9 -> 107 [penwidth=2]
    9 -> 91 [penwidth=2]
    9 -> 58 [penwidth=2]
    9 -> 45 [penwidth=2]
    9 -> 139 [penwidth=2]
    9 -> 73 [penwidth=2]
    9 -> 122 [penwidth=2]
    9 -> 144 [penwidth=2]
    9 -> 63 [penwidth=2]
    9 -> 133 [penwidth=2]
    9 -> 142 [penwidth=2]
    9 -> 56 [penwidth=2]
    9 -> 98 [penwidth=2]
    9 -> 128 [penwidth=2]
    9 -> 149 [penwidth=2]
    9 -> 136 [penwidth=2]
    9 -> 141 [penwidth=2]
    9 -> 143 [penwidth=2]
    9 -> 151 [penwidth=2]
    9 -> 112 [penwidth=2]
    9 -> 57 [penwidth=2]
    9 -> 114 [penwidth=2]
    9 -> 108 [penwidth=2]
    9 -> 82 [penwidth=2]
    9 -> 119 [penwidth=2]
    9 -> 67 [penwidth=2]
    9 -> 147 [penwidth=2]
    9 -> 157 [penwidth=2]
    9 -> 156 [penwidth=2]
    9 -> 103 [penwidth=2]
    9 -> 118 [penwidth=2]
    9 -> 49 [penwidth=2]
    9 -> 115 [penwidth=2]
    9 -> 159 [penwidth=2]
    9 -> 74 [penwidth=2]
    9 -> 125 [penwidth=2]
    9 -> 61 [penwidth=2]
    9 -> 46 [penwidth=2]
    9 -> 169 [penwidth=2]
    9 -> 78 [penwidth=2]
    9 -> 93 [penwidth=2]
    9 -> 162 [penwidth=2]
    9 -> 140 [penwidth=2]
    9 -> 145 [penwidth=2]
    9 -> 126 [penwidth=2]
    9 -> 113 [penwidth=2]
    9 -> 104 [penwidth=2]
    9 -> 152 [penwidth=2]
    9 -> 153 [penwidth=2]
    9 -> 164 [penwidth=2]
    9 -> 99 [penwidth=2]
    13 -> 166 [penwidth=2]
    13 -> 143 [penwidth=2]
    13 -> 69 [penwidth=2]
    13 -> 133 [penwidth=2]
    13 -> 168 [penwidth=2]
    13 -> 111 [penwidth=2]
    13 -> 149 [penwidth=2]
    13 -> 152 [penwidth=2]
    13 -> 109 [penwidth=2]
    13 -> 101 [penwidth=2]
    13 -> 94 [penwidth=2]
    13 -> 163 [penwidth=2]
    13 -> 147 [penwidth=2]
    13 -> 170 [penwidth=2]
    13 -> 165 [penwidth=2]
    13 -> 48 [penwidth=2]
    13 -> 50 [penwidth=2]
    13 -> 139 [penwidth=2]
    13 -> 141 [penwidth=2]
    13 -> 127 [penwidth=2]
    13 -> 134 [penwidth=2]
    13 -> 160 [penwidth=2]
    13 -> 123 [penwidth=2]
    13 -> 157 [penwidth=2]
    13 -> 70 [penwidth=2]
    13 -> 97 [penwidth=2]
    13 -> 51 [penwidth=2]
    13 -> 68 [penwidth=2]
    13 -> 118 [penwidth=2]
    13 -> 71 [penwidth=2]
    13 -> 82 [penwidth=2]
    13 -> 60 [penwidth=2]
    13 -> 75 [penwidth=2]
    13 -> 119 [penwidth=2]
    13 -> 99 [penwidth=2]
    13 -> 155 [penwidth=2]
    13 -> 124 [penwidth=2]
    13 -> 65 [penwidth=2]
    13 -> 115 [penwidth=2]
    13 -> 49 [penwidth=2]
    13 -> 162 [penwidth=2]
    13 -> 81 [penwidth=2]
    13 -> 144 [penwidth=2]
    13 -> 106 [penwidth=2]
    13 -> 67 [penwidth=2]
    15 -> 149 [penwidth=2]
    15 -> 163 [penwidth=2]
    15 -> 132 [penwidth=2]
    15 -> 97 [penwidth=2]
    15 -> 114 [penwidth=2]
    15 -> 73 [penwidth=2]
    15 -> 160 [penwidth=2]
    15 -> 167 [penwidth=2]
    15 -> 82 [penwidth=2]
    15 -> 155 [penwidth=2]
    15 -> 81 [penwidth=2]
    15 -> 70 [penwidth=2]
    15 -> 113 [penwidth=2]
    15 -> 168 [penwidth=2]
    15 -> 159 [penwidth=2]
    15 -> 125 [penwidth=2]
    15 -> 49 [penwidth=2]
    15 -> 127 [penwidth=2]
    15 -> 134 [penwidth=2]
    15 -> 162 [penwidth=2]
    15 -> 141 [penwidth=2]
    15 -> 45 [penwidth=2]
    15 -> 135 [penwidth=2]
    15 -> 139 [penwidth=2]
    15 -> 67 [penwidth=2]
    15 -> 55 [penwidth=2]
    15 -> 65 [penwidth=2]
    15 -> 50 [penwidth=2]
    15 -> 157 [penwidth=2]
    15 -> 115 [penwidth=2]
    15 -> 71 [penwidth=2]
    15 -> 99 [penwidth=2]
    15 -> 96 [penwidth=2]
    15 -> 63 [penwidth=2]
    15 -> 121 [penwidth=2]
    15 -> 146 [penwidth=2]
    15 -> 150 [penwidth=2]
    15 -> 94 [penwidth=2]
    15 -> 108 [penwidth=2]
    15 -> 47 [penwidth=2]
    15 -> 52 [penwidth=2]
    15 -> 124 [penwidth=2]
    15 -> 62 [penwidth=2]
    15 -> 76 [penwidth=2]
    15 -> 75 [penwidth=2]
    15 -> 95 [penwidth=2]
    15 -> 77 [penwidth=2]
    15 -> 60 [penwidth=2]
    15 -> 112 [penwidth=2]
    15 -> 59 [penwidth=2]
    15 -> 72 [penwidth=2]
    15 -> 164 [penwidth=2]
    15 -> 154 [penwidth=2]
    15 -> 69 [penwidth=2]
    15 -> 53 [penwidth=2]
    15 -> 133 [penwidth=2]
    15 -> 103 [penwidth=2]
    15 -> 78 [penwidth=2]
    15 -> 106 [penwidth=2]
    15 -> 61 [penwidth=2]
    15 -> 147 [penwidth=2]
    15 -> 138 [penwidth=2]
    15 -> 169 [penwidth=2]
    15 -> 153 [penwidth=2]
    15 -> 66 [penwidth=2]
    15 -> 93 [penwidth=2]
    15 -> 102 [penwidth=2]
    15 -> 156 [penwidth=2]
    15 -> 142 [penwidth=2]
    15 -> 166 [penwidth=2]
    15 -> 74 [penwidth=2]
    15 -> 161 [penwidth=2]
    15 -> 148 [penwidth=2]
    15 -> 92 [penwidth=2]
    15 -> 54 [penwidth=2]
    15 -> 140 [penwidth=2]
    15 -> 64 [penwidth=2]
    15 -> 79 [penwidth=2]
    15 -> 48 [penwidth=2]
    15 -> 116 [penwidth=2]
    15 -> 165 [penwidth=2]
    309 -> 155 [penwidth=2]
    309 -> 104 [penwidth=2]
    309 -> 160 [penwidth=2]
    309 -> 151 [penwidth=2]
    309 -> 62 [penwidth=2]
    309 -> 78 [penwidth=2]
    309 -> 170 [penwidth=2]
    309 -> 77 [penwidth=2]
    309 -> 168 [penwidth=2]
    309 -> 139 [penwidth=2]
    309 -> 73 [penwidth=2]
    309 -> 96 [penwidth=2]
    309 -> 108 [penwidth=2]
    309 -> 100 [penwidth=2]
    309 -> 126 [penwidth=2]
    309 -> 120 [penwidth=2]
    309 -> 163 [penwidth=2]
    309 -> 45 [penwidth=2]
    309 -> 111 [penwidth=2]
    309 -> 145 [penwidth=2]
    309 -> 132 [penwidth=2]
    309 -> 105 [penwidth=2]
    309 -> 158 [penwidth=2]
    309 -> 116 [penwidth=2]
    309 -> 159 [penwidth=2]
    309 -> 125 [penwidth=2]
    309 -> 138 [penwidth=2]
    309 -> 122 [penwidth=2]
    309 -> 143 [penwidth=2]
    309 -> 61 [penwidth=2]
    309 -> 58 [penwidth=2]
    309 -> 65 [penwidth=2]
    309 -> 67 [penwidth=2]
    309 -> 56 [penwidth=2]
    309 -> 133 [penwidth=2]
    309 -> 106 [penwidth=2]
    309 -> 99 [penwidth=2]
    309 -> 112 [penwidth=2]
    309 -> 74 [penwidth=2]
    309 -> 80 [penwidth=2]
    309 -> 53 [penwidth=2]
    309 -> 63 [penwidth=2]
    309 -> 109 [penwidth=2]
    309 -> 71 [penwidth=2]
    309 -> 167 [penwidth=2]
    309 -> 70 [penwidth=2]
    309 -> 148 [penwidth=2]
    309 -> 49 [penwidth=2]
    309 -> 103 [penwidth=2]
    309 -> 164 [penwidth=2]
    309 -> 153 [penwidth=2]
    309 -> 76 [penwidth=2]
    309 -> 93 [penwidth=2]
    309 -> 140 [penwidth=2]
    309 -> 60 [penwidth=2]
    309 -> 118 [penwidth=2]
    309 -> 137 [penwidth=2]
    309 -> 154 [penwidth=2]
    309 -> 114 [penwidth=2]
    309 -> 113 [penwidth=2]
    309 -> 128 [penwidth=2]
    309 -> 142 [penwidth=2]
    309 -> 102 [penwidth=2]
    309 -> 161 [penwidth=2]
    309 -> 119 [penwidth=2]
    309 -> 127 [penwidth=2]
    309 -> 141 [penwidth=2]
    309 -> 94 [penwidth=2]
    309 -> 92 [penwidth=2]
    309 -> 55 [penwidth=2]
    309 -> 64 [penwidth=2]
    309 -> 166 [penwidth=2]
    309 -> 59 [penwidth=2]
    309 -> 72 [penwidth=2]
    309 -> 81 [penwidth=2]
    309 -> 115 [penwidth=2]
    309 -> 144 [penwidth=2]
    309 -> 69 [penwidth=2]
    309 -> 123 [penwidth=2]
    309 -> 95 [penwidth=2]
    309 -> 121 [penwidth=2]
    309 -> 136 [penwidth=2]
    309 -> 156 [penwidth=2]
    309 -> 48 [penwidth=2]
    309 -> 57 [penwidth=2]
    309 -> 157 [penwidth=2]
    309 -> 51 [penwidth=2]
    309 -> 75 [penwidth=2]
    309 -> 146 [penwidth=2]
    309 -> 107 [penwidth=2]
    309 -> 52 [penwidth=2]
    309 -> 68 [penwidth=2]
    309 -> 169 [penwidth=2]
    309 -> 110 [penwidth=2]
    309 -> 97 [penwidth=2]
    309 -> 98 [penwidth=2]
    309 -> 47 [penwidth=2]
    309 -> 101 [penwidth=2]
    309 -> 152 [penwidth=2]
    309 -> 46 [penwidth=2]
    309 -> 54 [penwidth=2]
    309 -> 124 [penwidth=2]
    309 -> 150 [penwidth=2]
    309 -> 147 [penwidth=2]
    309 -> 165 [penwidth=2]
    309 -> 149 [penwidth=2]
    309 -> 162 [penwidth=2]
    309 -> 135 [penwidth=2]
    309 -> 79 [penwidth=2]
    309 -> 134 [penwidth=2]
    309 -> 117 [penwidth=2]
    17 -> 167 [penwidth=2]
    17 -> 61 [penwidth=2]
    17 -> 116 [penwidth=2]
    17 -> 107 [penwidth=2]
    17 -> 120 [penwidth=2]
    17 -> 100 [penwidth=2]
    17 -> 70 [penwidth=2]
    17 -> 62 [penwidth=2]
    17 -> 102 [penwidth=2]
    17 -> 158 [penwidth=2]
    17 -> 123 [penwidth=2]
    17 -> 148 [penwidth=2]
    17 -> 137 [penwidth=2]
    17 -> 146 [penwidth=2]
    17 -> 118 [penwidth=2]
    17 -> 95 [penwidth=2]
    17 -> 117 [penwidth=2]
    17 -> 138 [penwidth=2]
    17 -> 159 [penwidth=2]
    17 -> 149 [penwidth=2]
    17 -> 74 [penwidth=2]
    17 -> 153 [penwidth=2]
    17 -> 49 [penwidth=2]
    17 -> 75 [penwidth=2]
    17 -> 73 [penwidth=2]
    17 -> 140 [penwidth=2]
    17 -> 170 [penwidth=2]
    17 -> 147 [penwidth=2]
    17 -> 145 [penwidth=2]
    17 -> 128 [penwidth=2]
    17 -> 113 [penwidth=2]
    17 -> 156 [penwidth=2]
    17 -> 161 [penwidth=2]
    17 -> 92 [penwidth=2]
    17 -> 45 [penwidth=2]
    17 -> 163 [penwidth=2]
    17 -> 64 [penwidth=2]
    17 -> 164 [penwidth=2]
    17 -> 69 [penwidth=2]
    17 -> 51 [penwidth=2]
    20 -> 138 [penwidth=2]
    20 -> 106 [penwidth=2]
    20 -> 77 [penwidth=2]
    20 -> 150 [penwidth=2]
    20 -> 79 [penwidth=2]
    20 -> 73 [penwidth=2]
    20 -> 117 [penwidth=2]
    20 -> 78 [penwidth=2]
    20 -> 95 [penwidth=2]
    20 -> 133 [penwidth=2]
    20 -> 61 [penwidth=2]
    20 -> 156 [penwidth=2]
    20 -> 75 [penwidth=2]
    20 -> 170 [penwidth=2]
    20 -> 103 [penwidth=2]
    20 -> 55 [penwidth=2]
    20 -> 153 [penwidth=2]
    20 -> 141 [penwidth=2]
    20 -> 62 [penwidth=2]
    20 -> 160 [penwidth=2]
    20 -> 135 [penwidth=2]
    20 -> 80 [penwidth=2]
    20 -> 158 [penwidth=2]
    20 -> 65 [penwidth=2]
    20 -> 163 [penwidth=2]
    20 -> 81 [penwidth=2]
    20 -> 164 [penwidth=2]
    20 -> 127 [penwidth=2]
    20 -> 134 [penwidth=2]
    20 -> 60 [penwidth=2]
    20 -> 155 [penwidth=2]
    20 -> 70 [penwidth=2]
    23 -> 65 [penwidth=2]
    23 -> 164 [penwidth=2]
    23 -> 135 [penwidth=2]
    23 -> 157 [penwidth=2]
    23 -> 95 [penwidth=2]
    23 -> 166 [penwidth=2]
    23 -> 82 [penwidth=2]
    23 -> 75 [penwidth=2]
    23 -> 137 [penwidth=2]
    23 -> 155 [penwidth=2]
    23 -> 162 [penwidth=2]
    23 -> 78 [penwidth=2]
    23 -> 59 [penwidth=2]
    23 -> 60 [penwidth=2]
    23 -> 77 [penwidth=2]
    23 -> 53 [penwidth=2]
    23 -> 100 [penwidth=2]
    23 -> 165 [penwidth=2]
    23 -> 96 [penwidth=2]
    23 -> 126 [penwidth=2]
    23 -> 146 [penwidth=2]
    23 -> 69 [penwidth=2]
    23 -> 142 [penwidth=2]
    23 -> 68 [penwidth=2]
    23 -> 134 [penwidth=2]
    23 -> 122 [penwidth=2]
    23 -> 127 [penwidth=2]
    23 -> 74 [penwidth=2]
    23 -> 133 [penwidth=2]
    23 -> 115 [penwidth=2]
    23 -> 123 [penwidth=2]
    23 -> 94 [penwidth=2]
    23 -> 107 [penwidth=2]
    23 -> 76 [penwidth=2]
    23 -> 51 [penwidth=2]
    23 -> 136 [penwidth=2]
    23 -> 63 [penwidth=2]
    23 -> 102 [penwidth=2]
    23 -> 152 [penwidth=2]
    23 -> 120 [penwidth=2]
    23 -> 116 [penwidth=2]
    23 -> 58 [penwidth=2]
    23 -> 99 [penwidth=2]
    23 -> 62 [penwidth=2]
    23 -> 66 [penwidth=2]
    23 -> 113 [penwidth=2]
    23 -> 117 [penwidth=2]
    23 -> 49 [penwidth=2]
    23 -> 108 [penwidth=2]
    23 -> 156 [penwidth=2]
    23 -> 138 [penwidth=2]
    23 -> 79 [penwidth=2]
    23 -> 92 [penwidth=2]
    23 -> 154 [penwidth=2]
    23 -> 106 [penwidth=2]
    23 -> 64 [penwidth=2]
    23 -> 61 [penwidth=2]
    23 -> 124 [penwidth=2]
    23 -> 144 [penwidth=2]
    23 -> 98 [penwidth=2]
    23 -> 103 [penwidth=2]
    23 -> 80 [penwidth=2]
    23 -> 110 [penwidth=2]
    23 -> 118 [penwidth=2]
    23 -> 54 [penwidth=2]
    23 -> 128 [penwidth=2]
    23 -> 81 [penwidth=2]
    23 -> 57 [penwidth=2]
    23 -> 50 [penwidth=2]
    23 -> 47 [penwidth=2]
    23 -> 145 [penwidth=2]
    23 -> 72 [penwidth=2]
    23 -> 163 [penwidth=2]
    23 -> 67 [penwidth=2]
    23 -> 93 [penwidth=2]
    23 -> 48 [penwidth=2]
    23 -> 149 [penwidth=2]
    23 -> 46 [penwidth=2]
    23 -> 104 [penwidth=2]
    23 -> 45 [penwidth=2]
    23 -> 125 [penwidth=2]
    23 -> 159 [penwidth=2]
    23 -> 151 [penwidth=2]
    23 -> 97 [penwidth=2]
    23 -> 150 [penwidth=2]
    23 -> 112 [penwidth=2]
    23 -> 121 [penwidth=2]
    23 -> 143 [penwidth=2]
    23 -> 101 [penwidth=2]
    23 -> 105 [penwidth=2]
    23 -> 153 [penwidth=2]
    23 -> 119 [penwidth=2]
    23 -> 161 [penwidth=2]
    23 -> 160 [penwidth=2]
    23 -> 139 [penwidth=2]
    23 -> 55 [penwidth=2]
    23 -> 109 [penwidth=2]
    23 -> 52 [penwidth=2]
    23 -> 132 [penwidth=2]
    23 -> 169 [penwidth=2]
    23 -> 111 [penwidth=2]
    23 -> 140 [penwidth=2]
    23 -> 168 [penwidth=2]
    23 -> 114 [penwidth=2]
    23 -> 56 [penwidth=2]
    26 -> 60 [penwidth=2]
    26 -> 96 [penwidth=2]
    26 -> 160 [penwidth=2]
    26 -> 128 [penwidth=2]
    26 -> 63 [penwidth=2]
    26 -> 148 [penwidth=2]
    26 -> 156 [penwidth=2]
    26 -> 126 [penwidth=2]
    26 -> 103 [penwidth=2]
    26 -> 101 [penwidth=2]
    26 -> 53 [penwidth=2]
    26 -> 138 [penwidth=2]
    26 -> 136 [penwidth=2]
    26 -> 100 [penwidth=2]
    26 -> 45 [penwidth=2]
    26 -> 158 [penwidth=2]
    26 -> 74 [penwidth=2]
    26 -> 78 [penwidth=2]
    26 -> 145 [penwidth=2]
    26 -> 113 [penwidth=2]
    26 -> 71 [penwidth=2]
    26 -> 81 [penwidth=2]
    26 -> 50 [penwidth=2]
    26 -> 75 [penwidth=2]
    26 -> 146 [penwidth=2]
    26 -> 47 [penwidth=2]
    26 -> 46 [penwidth=2]
    26 -> 114 [penwidth=2]
    26 -> 117 [penwidth=2]
    26 -> 56 [penwidth=2]
    26 -> 49 [penwidth=2]
    26 -> 115 [penwidth=2]
    26 -> 94 [penwidth=2]
    26 -> 142 [penwidth=2]
    26 -> 154 [penwidth=2]
    26 -> 143 [penwidth=2]
    26 -> 108 [penwidth=2]
    26 -> 157 [penwidth=2]
    26 -> 79 [penwidth=2]
    26 -> 152 [penwidth=2]
    26 -> 119 [penwidth=2]
    26 -> 69 [penwidth=2]
    26 -> 120 [penwidth=2]
    26 -> 161 [penwidth=2]
    26 -> 106 [penwidth=2]
    26 -> 55 [penwidth=2]
    26 -> 76 [penwidth=2]
    26 -> 134 [penwidth=2]
    26 -> 116 [penwidth=2]
    26 -> 123 [penwidth=2]
    26 -> 64 [penwidth=2]
    26 -> 121 [penwidth=2]
    26 -> 77 [penwidth=2]
    26 -> 58 [penwidth=2]
    26 -> 65 [penwidth=2]
    26 -> 80 [penwidth=2]
    26 -> 110 [penwidth=2]
    26 -> 72 [penwidth=2]
    26 -> 165 [penwidth=2]
    26 -> 66 [penwidth=2]
    26 -> 102 [penwidth=2]
    26 -> 73 [penwidth=2]
    26 -> 61 [penwidth=2]
    26 -> 54 [penwidth=2]
    26 -> 118 [penwidth=2]
    26 -> 122 [penwidth=2]
    26 -> 92 [penwidth=2]
    26 -> 67 [penwidth=2]
    26 -> 150 [penwidth=2]
    26 -> 155 [penwidth=2]
    26 -> 153 [penwidth=2]
    26 -> 97 [penwidth=2]
    26 -> 151 [penwidth=2]
    26 -> 68 [penwidth=2]
    26 -> 104 [penwidth=2]
    26 -> 105 [penwidth=2]
    26 -> 93 [penwidth=2]
    26 -> 170 [penwidth=2]
    26 -> 112 [penwidth=2]
    26 -> 98 [penwidth=2]
    26 -> 59 [penwidth=2]
    26 -> 48 [penwidth=2]
    26 -> 159 [penwidth=2]
    26 -> 167 [penwidth=2]
    26 -> 137 [penwidth=2]
    26 -> 144 [penwidth=2]
    26 -> 125 [penwidth=2]
    26 -> 147 [penwidth=2]
    26 -> 127 [penwidth=2]
    26 -> 132 [penwidth=2]
    26 -> 62 [penwidth=2]
    26 -> 95 [penwidth=2]
    26 -> 57 [penwidth=2]
    26 -> 111 [penwidth=2]
    26 -> 140 [penwidth=2]
    26 -> 169 [penwidth=2]
    26 -> 139 [penwidth=2]
    26 -> 135 [penwidth=2]
    26 -> 52 [penwidth=2]
    26 -> 149 [penwidth=2]
    26 -> 51 [penwidth=2]
    26 -> 109 [penwidth=2]
    26 -> 163 [penwidth=2]
    26 -> 99 [penwidth=2]
    26 -> 70 [penwidth=2]
    26 -> 107 [penwidth=2]
    26 -> 82 [penwidth=2]
    26 -> 166 [penwidth=2]
    26 -> 124 [penwidth=2]
    26 -> 164 [penwidth=2]
    26 -> 168 [penwidth=2]
    26 -> 133 [penwidth=2]
    35 -> 128 [penwidth=2]
    35 -> 135 [penwidth=2]
    35 -> 158 [penwidth=2]
    35 -> 169 [penwidth=2]
    35 -> 141 [penwidth=2]
    35 -> 106 [penwidth=2]
    35 -> 138 [penwidth=2]
    35 -> 71 [penwidth=2]
    35 -> 79 [penwidth=2]
    35 -> 104 [penwidth=2]
    35 -> 154 [penwidth=2]
    35 -> 120 [penwidth=2]
    35 -> 156 [penwidth=2]
    35 -> 76 [penwidth=2]
    35 -> 57 [penwidth=2]
    35 -> 96 [penwidth=2]
    35 -> 60 [penwidth=2]
    35 -> 99 [penwidth=2]
    35 -> 46 [penwidth=2]
    35 -> 139 [penwidth=2]
    258 -> 52 [penwidth=2]
    258 -> 154 [penwidth=2]
    258 -> 160 [penwidth=2]
    258 -> 102 [penwidth=2]
    258 -> 61 [penwidth=2]
    258 -> 112 [penwidth=2]
    258 -> 57 [penwidth=2]
    258 -> 76 [penwidth=2]
    258 -> 121 [penwidth=2]
    258 -> 108 [penwidth=2]
    258 -> 128 [penwidth=2]
    258 -> 82 [penwidth=2]
    268 -> 143 [penwidth=2]
    268 -> 148 [penwidth=2]
    268 -> 98 [penwidth=2]
    268 -> 127 [penwidth=2]
    268 -> 133 [penwidth=2]
    268 -> 75 [penwidth=2]
    268 -> 79 [penwidth=2]
    270 -> 164 [penwidth=2]
    270 -> 127 [penwidth=2]
    270 -> 165 [penwidth=2]
    270 -> 139 [penwidth=2]
    270 -> 93 [penwidth=2]
    270 -> 98 [penwidth=2]
    270 -> 135 [penwidth=2]
    270 -> 52 [penwidth=2]
    270 -> 104 [penwidth=2]
    270 -> 65 [penwidth=2]
    270 -> 142 [penwidth=2]
    270 -> 141 [penwidth=2]
    270 -> 81 [penwidth=2]
    270 -> 105 [penwidth=2]
    270 -> 136 [penwidth=2]
    270 -> 167 [penwidth=2]
    270 -> 70 [penwidth=2]
    270 -> 170 [penwidth=2]
    270 -> 63 [penwidth=2]
    270 -> 155 [penwidth=2]
    270 -> 77 [penwidth=2]
    270 -> 121 [penwidth=2]
    270 -> 132 [penwidth=2]
    270 -> 59 [penwidth=2]
    270 -> 71 [penwidth=2]
    270 -> 126 [penwidth=2]
    270 -> 54 [penwidth=2]
    270 -> 80 [penwidth=2]
    270 -> 62 [penwidth=2]
    270 -> 160 [penwidth=2]
    270 -> 108 [penwidth=2]
    270 -> 112 [penwidth=2]
    270 -> 123 [penwidth=2]
    270 -> 67 [penwidth=2]
    270 -> 113 [penwidth=2]
    270 -> 66 [penwidth=2]
    270 -> 69 [penwidth=2]
    270 -> 116 [penwidth=2]
    270 -> 61 [penwidth=2]
    270 -> 147 [penwidth=2]
    270 -> 46 [penwidth=2]
    270 -> 82 [penwidth=2]
    270 -> 145 [penwidth=2]
    270 -> 109 [penwidth=2]
    270 -> 100 [penwidth=2]
    270 -> 158 [penwidth=2]
    270 -> 166 [penwidth=2]
    270 -> 168 [penwidth=2]
    270 -> 73 [penwidth=2]
    270 -> 150 [penwidth=2]
    270 -> 125 [penwidth=2]
    270 -> 48 [penwidth=2]
    270 -> 157 [penwidth=2]
    270 -> 95 [penwidth=2]
    270 -> 118 [penwidth=2]
    270 -> 161 [penwidth=2]
    270 -> 110 [penwidth=2]
    270 -> 49 [penwidth=2]
    270 -> 124 [penwidth=2]
    270 -> 119 [penwidth=2]
    270 -> 56 [penwidth=2]
    270 -> 101 [penwidth=2]
    270 -> 78 [penwidth=2]
    270 -> 143 [penwidth=2]
    270 -> 156 [penwidth=2]
    270 -> 68 [penwidth=2]
    270 -> 55 [penwidth=2]
    270 -> 153 [penwidth=2]
    270 -> 64 [penwidth=2]
    270 -> 148 [penwidth=2]
    270 -> 72 [penwidth=2]
    282 -> 105 [penwidth=2]
    282 -> 150 [penwidth=2]
    282 -> 170 [penwidth=2]
    282 -> 45 [penwidth=2]
    282 -> 109 [penwidth=2]
    282 -> 114 [penwidth=2]
    282 -> 163 [penwidth=2]
    282 -> 107 [penwidth=2]
    282 -> 103 [penwidth=2]
    293 -> 59 [penwidth=2]
    293 -> 52 [penwidth=2]
    293 -> 72 [penwidth=2]
    293 -> 146 [penwidth=2]
    293 -> 73 [penwidth=2]
    293 -> 158 [penwidth=2]
    293 -> 113 [penwidth=2]
    293 -> 47 [penwidth=2]
    293 -> 61 [penwidth=2]
    293 -> 128 [penwidth=2]
    293 -> 58 [penwidth=2]
    293 -> 150 [penwidth=2]
    293 -> 110 [penwidth=2]
    293 -> 119 [penwidth=2]
    293 -> 94 [penwidth=2]
    293 -> 104 [penwidth=2]
    293 -> 51 [penwidth=2]
    293 -> 114 [penwidth=2]
    293 -> 139 [penwidth=2]
    293 -> 162 [penwidth=2]
    293 -> 69 [penwidth=2]
    293 -> 76 [penwidth=2]
    293 -> 74 [penwidth=2]
    293 -> 161 [penwidth=2]
    293 -> 111 [penwidth=2]
    293 -> 79 [penwidth=2]
    293 -> 132 [penwidth=2]
    293 -> 170 [penwidth=2]
    293 -> 53 [penwidth=2]
    293 -> 142 [penwidth=2]
    293 -> 77 [penwidth=2]
    293 -> 153 [penwidth=2]
    293 -> 56 [penwidth=2]
    293 -> 70 [penwidth=2]
    293 -> 107 [penwidth=2]
    293 -> 140 [penwidth=2]
    293 -> 160 [penwidth=2]
    293 -> 118 [penwidth=2]
    293 -> 137 [penwidth=2]
    293 -> 136 [penwidth=2]
    293 -> 134 [penwidth=2]
    293 -> 165 [penwidth=2]
    293 -> 78 [penwidth=2]
    293 -> 125 [penwidth=2]
    293 -> 163 [penwidth=2]
    293 -> 93 [penwidth=2]
    293 -> 46 [penwidth=2]
    293 -> 159 [penwidth=2]
    293 -> 81 [penwidth=2]
    293 -> 112 [penwidth=2]
    293 -> 124 [penwidth=2]
    293 -> 92 [penwidth=2]
    293 -> 151 [penwidth=2]
    293 -> 98 [penwidth=2]
    293 -> 71 [penwidth=2]
    293 -> 55 [penwidth=2]
    293 -> 48 [penwidth=2]
    293 -> 155 [penwidth=2]
    293 -> 166 [penwidth=2]
    293 -> 168 [penwidth=2]
    293 -> 120 [penwidth=2]
    295 -> 119 [penwidth=2]
    295 -> 49 [penwidth=2]
    295 -> 121 [penwidth=2]
    295 -> 82 [penwidth=2]
    295 -> 106 [penwidth=2]
    295 -> 120 [penwidth=2]
    295 -> 156 [penwidth=2]
    295 -> 150 [penwidth=2]
    295 -> 56 [penwidth=2]
    295 -> 152 [penwidth=2]
    295 -> 110 [penwidth=2]
    295 -> 50 [penwidth=2]
    295 -> 132 [penwidth=2]
    295 -> 163 [penwidth=2]
    295 -> 95 [penwidth=2]
    295 -> 127 [penwidth=2]
    295 -> 98 [penwidth=2]
    295 -> 48 [penwidth=2]
    295 -> 123 [penwidth=2]
    295 -> 122 [penwidth=2]
    295 -> 137 [penwidth=2]
    295 -> 117 [penwidth=2]
    295 -> 101 [penwidth=2]
    295 -> 170 [penwidth=2]
    295 -> 103 [penwidth=2]
    295 -> 73 [penwidth=2]
    295 -> 81 [penwidth=2]
    295 -> 159 [penwidth=2]
    295 -> 118 [penwidth=2]
    295 -> 147 [penwidth=2]
    295 -> 75 [penwidth=2]
    295 -> 138 [penwidth=2]
    295 -> 99 [penwidth=2]
    295 -> 160 [penwidth=2]
    295 -> 140 [penwidth=2]
    295 -> 92 [penwidth=2]
    295 -> 143 [penwidth=2]
    295 -> 142 [penwidth=2]
    295 -> 145 [penwidth=2]
    295 -> 109 [penwidth=2]
    295 -> 80 [penwidth=2]
    295 -> 70 [penwidth=2]
    295 -> 54 [penwidth=2]
    295 -> 107 [penwidth=2]
    295 -> 69 [penwidth=2]
    295 -> 141 [penwidth=2]
    295 -> 63 [penwidth=2]
    295 -> 72 [penwidth=2]
    295 -> 76 [penwidth=2]
    295 -> 51 [penwidth=2]
    295 -> 165 [penwidth=2]
    295 -> 154 [penwidth=2]
    295 -> 114 [penwidth=2]
    295 -> 155 [penwidth=2]
    295 -> 46 [penwidth=2]
    295 -> 65 [penwidth=2]
    295 -> 79 [penwidth=2]
    295 -> 162 [penwidth=2]
    295 -> 62 [penwidth=2]
    295 -> 61 [penwidth=2]
    295 -> 60 [penwidth=2]
    295 -> 45 [penwidth=2]
    295 -> 115 [penwidth=2]
    295 -> 164 [penwidth=2]
    295 -> 104 [penwidth=2]
    295 -> 64 [penwidth=2]
    295 -> 167 [penwidth=2]
    295 -> 136 [penwidth=2]
    295 -> 93 [penwidth=2]
    295 -> 102 [penwidth=2]
    227 -> 115 [penwidth=2]
    227 -> 102 [penwidth=2]
    227 -> 147 [penwidth=2]
    241 -> 162 [penwidth=2]
    241 -> 157 [penwidth=2]
    241 -> 101 [penwidth=2]
    241 -> 108 [penwidth=2]
    241 -> 48 [penwidth=2]
    241 -> 47 [penwidth=2]
    241 -> 94 [penwidth=2]
    241 -> 112 [penwidth=2]
    241 -> 155 [penwidth=2]
    241 -> 69 [penwidth=2]
    241 -> 78 [penwidth=2]
    241 -> 170 [penwidth=2]
    241 -> 169 [penwidth=2]
    241 -> 50 [penwidth=2]
    241 -> 150 [penwidth=2]
    241 -> 58 [penwidth=2]
    241 -> 111 [penwidth=2]
    241 -> 63 [penwidth=2]
    241 -> 100 [penwidth=2]
    241 -> 96 [penwidth=2]
    241 -> 151 [penwidth=2]
    241 -> 125 [penwidth=2]
    241 -> 115 [penwidth=2]
    241 -> 154 [penwidth=2]
    241 -> 93 [penwidth=2]
    241 -> 127 [penwidth=2]
    241 -> 164 [penwidth=2]
    241 -> 54 [penwidth=2]
    241 -> 67 [penwidth=2]
    241 -> 149 [penwidth=2]
    241 -> 142 [penwidth=2]
    241 -> 79 [penwidth=2]
    241 -> 141 [penwidth=2]
    241 -> 51 [penwidth=2]
    241 -> 59 [penwidth=2]
    241 -> 122 [penwidth=2]
    241 -> 97 [penwidth=2]
    241 -> 140 [penwidth=2]
    241 -> 106 [penwidth=2]
    241 -> 52 [penwidth=2]
    241 -> 113 [penwidth=2]
    241 -> 146 [penwidth=2]
    241 -> 62 [penwidth=2]
    241 -> 159 [penwidth=2]
    241 -> 98 [penwidth=2]
    241 -> 99 [penwidth=2]
    241 -> 46 [penwidth=2]
    241 -> 120 [penwidth=2]
    241 -> 128 [penwidth=2]
    241 -> 134 [penwidth=2]
    241 -> 158 [penwidth=2]
    241 -> 49 [penwidth=2]
    241 -> 66 [penwidth=2]
    241 -> 160 [penwidth=2]
    241 -> 114 [penwidth=2]
    241 -> 71 [penwidth=2]
    241 -> 152 [penwidth=2]
    241 -> 80 [penwidth=2]
    241 -> 61 [penwidth=2]
    241 -> 109 [penwidth=2]
    241 -> 68 [penwidth=2]
    241 -> 166 [penwidth=2]
    241 -> 105 [penwidth=2]
    241 -> 75 [penwidth=2]
    241 -> 92 [penwidth=2]
    241 -> 102 [penwidth=2]
    254 -> 54 [penwidth=2]
    254 -> 72 [penwidth=2]
    254 -> 163 [penwidth=2]
    254 -> 124 [penwidth=2]
    254 -> 166 [penwidth=2]
    254 -> 159 [penwidth=2]
    254 -> 71 [penwidth=2]
    254 -> 149 [penwidth=2]
    254 -> 92 [penwidth=2]
    254 -> 65 [penwidth=2]
    254 -> 158 [penwidth=2]
    254 -> 74 [penwidth=2]
    254 -> 98 [penwidth=2]
    254 -> 142 [penwidth=2]
    254 -> 116 [penwidth=2]
    254 -> 50 [penwidth=2]
    254 -> 76 [penwidth=2]
    254 -> 162 [penwidth=2]
    254 -> 103 [penwidth=2]
    254 -> 112 [penwidth=2]
    254 -> 117 [penwidth=2]
    254 -> 55 [penwidth=2]
    254 -> 61 [penwidth=2]
    254 -> 160 [penwidth=2]
    254 -> 93 [penwidth=2]
    254 -> 104 [penwidth=2]
    254 -> 82 [penwidth=2]
    254 -> 109 [penwidth=2]
    254 -> 101 [penwidth=2]
    254 -> 119 [penwidth=2]
    254 -> 77 [penwidth=2]
    254 -> 164 [penwidth=2]
    254 -> 135 [penwidth=2]
    254 -> 148 [penwidth=2]
    254 -> 153 [penwidth=2]
    254 -> 97 [penwidth=2]
    254 -> 106 [penwidth=2]
    254 -> 102 [penwidth=2]
    254 -> 75 [penwidth=2]
    254 -> 114 [penwidth=2]
    254 -> 56 [penwidth=2]
    254 -> 120 [penwidth=2]
    254 -> 68 [penwidth=2]
    254 -> 96 [penwidth=2]
    254 -> 155 [penwidth=2]
    254 -> 122 [penwidth=2]
    254 -> 69 [penwidth=2]
    254 -> 126 [penwidth=2]
    254 -> 139 [penwidth=2]
    254 -> 133 [penwidth=2]
    254 -> 118 [penwidth=2]
    254 -> 123 [penwidth=2]
    254 -> 141 [penwidth=2]
    254 -> 136 [penwidth=2]
    254 -> 62 [penwidth=2]
    254 -> 45 [penwidth=2]
    177 -> 124 [penwidth=2]
    177 -> 110 [penwidth=2]
    177 -> 118 [penwidth=2]
    177 -> 47 [penwidth=2]
    177 -> 72 [penwidth=2]
    177 -> 155 [penwidth=2]
    177 -> 62 [penwidth=2]
    177 -> 153 [penwidth=2]
    177 -> 73 [penwidth=2]
    177 -> 99 [penwidth=2]
    177 -> 101 [penwidth=2]
    177 -> 150 [penwidth=2]
    177 -> 115 [penwidth=2]
    177 -> 121 [penwidth=2]
    177 -> 134 [penwidth=2]
    177 -> 116 [penwidth=2]
    177 -> 107 [penwidth=2]
    177 -> 54 [penwidth=2]
    177 -> 81 [penwidth=2]
    177 -> 97 [penwidth=2]
    177 -> 61 [penwidth=2]
    177 -> 78 [penwidth=2]
    177 -> 109 [penwidth=2]
    177 -> 68 [penwidth=2]
    177 -> 167 [penwidth=2]
    177 -> 49 [penwidth=2]
    177 -> 112 [penwidth=2]
    177 -> 141 [penwidth=2]
    177 -> 142 [penwidth=2]
    177 -> 64 [penwidth=2]
    177 -> 104 [penwidth=2]
    177 -> 139 [penwidth=2]
    177 -> 91 [penwidth=2]
    191 -> 93 [penwidth=2]
    191 -> 167 [penwidth=2]
    191 -> 50 [penwidth=2]
    191 -> 152 [penwidth=2]
    191 -> 52 [penwidth=2]
    191 -> 63 [penwidth=2]
    191 -> 51 [penwidth=2]
    191 -> 168 [penwidth=2]
    191 -> 56 [penwidth=2]
    191 -> 81 [penwidth=2]
    191 -> 139 [penwidth=2]
    191 -> 144 [penwidth=2]
    191 -> 55 [penwidth=2]
    191 -> 115 [penwidth=2]
    191 -> 158 [penwidth=2]
    191 -> 150 [penwidth=2]
    191 -> 69 [penwidth=2]
    191 -> 169 [penwidth=2]
    191 -> 140 [penwidth=2]
    191 -> 77 [penwidth=2]
    191 -> 114 [penwidth=2]
    191 -> 121 [penwidth=2]
    191 -> 101 [penwidth=2]
    191 -> 66 [penwidth=2]
    191 -> 128 [penwidth=2]
    191 -> 116 [penwidth=2]
    191 -> 110 [penwidth=2]
    191 -> 67 [penwidth=2]
    191 -> 45 [penwidth=2]
    191 -> 157 [penwidth=2]
    191 -> 120 [penwidth=2]
    191 -> 61 [penwidth=2]
    191 -> 76 [penwidth=2]
    191 -> 100 [penwidth=2]
    191 -> 124 [penwidth=2]
    191 -> 53 [penwidth=2]
    191 -> 64 [penwidth=2]
    191 -> 98 [penwidth=2]
    191 -> 99 [penwidth=2]
    191 -> 112 [penwidth=2]
    191 -> 103 [penwidth=2]
    191 -> 105 [penwidth=2]
    191 -> 141 [penwidth=2]
    191 -> 80 [penwidth=2]
    191 -> 70 [penwidth=2]
    191 -> 156 [penwidth=2]
    191 -> 78 [penwidth=2]
    191 -> 147 [penwidth=2]
    191 -> 161 [penwidth=2]
    191 -> 108 [penwidth=2]
    191 -> 95 [penwidth=2]
    191 -> 146 [penwidth=2]
    191 -> 106 [penwidth=2]
    191 -> 159 [penwidth=2]
    191 -> 54 [penwidth=2]
    191 -> 60 [penwidth=2]
    191 -> 143 [penwidth=2]
    191 -> 102 [penwidth=2]
    191 -> 96 [penwidth=2]
    191 -> 74 [penwidth=2]
    191 -> 58 [penwidth=2]
    191 -> 163 [penwidth=2]
    191 -> 75 [penwidth=2]
    191 -> 94 [penwidth=2]
    191 -> 59 [penwidth=2]
    191 -> 148 [penwidth=2]
    191 -> 57 [penwidth=2]
    191 -> 113 [penwidth=2]
    191 -> 126 [penwidth=2]
    191 -> 92 [penwidth=2]
    191 -> 72 [penwidth=2]
    191 -> 137 [penwidth=2]
    191 -> 73 [penwidth=2]
    191 -> 166 [penwidth=2]
    191 -> 68 [penwidth=2]
    191 -> 123 [penwidth=2]
    191 -> 47 [penwidth=2]
    191 -> 136 [penwidth=2]
    191 -> 149 [penwidth=2]
    191 -> 91 [penwidth=2]
    191 -> 65 [penwidth=2]
    191 -> 48 [penwidth=2]
    191 -> 170 [penwidth=2]
    191 -> 151 [penwidth=2]
    191 -> 49 [penwidth=2]
    195 -> 74 [penwidth=2]
    195 -> 124 [penwidth=2]
    195 -> 50 [penwidth=2]
    195 -> 58 [penwidth=2]
    195 -> 99 [penwidth=2]
    195 -> 93 [penwidth=2]
}