digraph G {
    0 [penwidth=3,label="0"]
    1 [penwidth=3,label="1"]
    2 [penwidth=3,label="2"]
    3 [penwidth=3,label="3"]
    4 [penwidth=3,label="4"]
    5 [penwidth=3,label="5"]
    6 [penwidth=3,label="6"]
    7 [penwidth=3,label="7"]
    8 [penwidth=3,label="8"]
    9 [penwidth=3,label="9"]
    10 [penwidth=3,label="10"]
    11 [penwidth=3,label="11"]
    12 [penwidth=3,label="12"]
    13 [penwidth=3,label="13"]
    14 [penwidth=3,label="14"]
    15 [penwidth=3,label="15"]
    16 [penwidth=3,label="16"]
    17 [penwidth=3,label="17"]
    18 [penwidth=3,label="18"]
    19 [penwidth=3,label="19"]
    20 [penwidth=3,label="20"]
    21 [penwidth=3,label="21"]
    22 [penwidth=3,label="22"]
    23 [penwidth=3,label="23"]
    24 [penwidth=3,label="24"]
    25 [penwidth=3,label="25"]
    26 [penwidth=3,label="26"]
    27 [penwidth=3,label="27"]
    28 [penwidth=3,label="28"]
    29 [penwidth=3,label="29"]
    30 [penwidth=3,label="30"]
    31 [penwidth=3,label="31"]
    32 [penwidth=3,label="32"]
    33 [penwidth=3,label="33"]
    34 [penwidth=3,label="34"]
    35 [penwidth=3,label="35"]
    36 [penwidth=3,label="36"]
    37 [penwidth=3,label="37"]
    38 [penwidth=3,label="38"]
    39 [penwidth=3,label="39"]
    40 [penwidth=3,label="40"]
    41 [penwidth=3,label="41"]
    42 [penwidth=3,label="42"]
    43 [penwidth=3,label="43"]
    44 [penwidth=3,label="44"]
    45 [penwidth=3,label="45"]
    46 [penwidth=3,label="46"]
    47 [penwidth=3,label="47"]
    48 [penwidth=3,label="48"]
    49 [penwidth=3,label="49"]
    50 [penwidth=3,label="50"]
    51 [penwidth=3,label="51"]
    52 [penwidth=3,label="52"]
    53 [penwidth=3,label="53"]
    54 [penwidth=3,label="54"]
    55 [penwidth=3,label="55"]
    56 [penwidth=3,label="56"]
    57 [penwidth=3,label="57"]
    58 [penwidth=3,label="58"]
    59 [penwidth=3,label="59"]
    60 [penwidth=3,label="60"]
    61 [penwidth=3,label="61"]
    62 [penwidth=3,label="62"]
    63 [penwidth=3,label="63"]
    64 [penwidth=3,label="64"]
    65 [penwidth=3,label="65"]
    66 [penwidth=3,label="66"]
    67 [penwidth=3,label="67"]
    68 [penwidth=3,label="68"]
    69 [penwidth=3,label="69"]
    70 [penwidth=3,label="70"]
    71 [penwidth=3,label="71"]
    72 [penwidth=3,label="72"]
    73 [penwidth=3,label="73"]
    74 [penwidth=3,label="74"]
    75 [penwidth=3,label="75"]
    76 [penwidth=3,label="76"]
    77 [penwidth=3,label="77"]
    78 [penwidth=3,label="78"]
    79 [penwidth=3,label="79"]
    80 [penwidth=3,label="80"]
    81 [penwidth=3,label="81"]
    82 [penwidth=3,label="82"]
    83 [penwidth=3,label="83"]
    84 [penwidth=3,label="84"]
    85 [penwidth=3,label="85"]
    86 [penwidth=3,label="86"]
    87 [penwidth=3,label="87"]
    88 [penwidth=3,label="88"]
    89 [penwidth=3,label="89"]
    90 [penwidth=3,label="90"]
    91 [penwidth=3,label="91"]
    92 [penwidth=3,label="92"]
    93 [penwidth=3,label="93"]
    94 [penwidth=3,label="94"]
    95 [penwidth=3,label="95"]
    96 [penwidth=3,label="96"]
    97 [penwidth=3,label="97"]
    98 [penwidth=3,label="98"]
    99 [penwidth=3,label="99"]
    100 [penwidth=3,label="100"]
    101 [penwidth=3,label="101"]
    102 [penwidth=3,label="102"]
    103 [penwidth=3,label="103"]
    104 [penwidth=3,label="104"]
    105 [penwidth=3,label="105"]
    106 [penwidth=3,label="106"]
    107 [penwidth=3,label="107"]
    108 [penwidth=3,label="108"]
    109 [penwidth=3,label="109"]
    110 [penwidth=3,label="110"]
    111 [penwidth=3,label="111"]
    112 [penwidth=3,label="112"]
    113 [penwidth=3,label="113"]
    114 [penwidth=3,label="114"]
    115 [penwidth=3,label="115"]
    116 [penwidth=3,label="116"]
    117 [penwidth=3,label="117"]
    118 [penwidth=3,label="118"]
    119 [penwidth=3,label="119"]
    120 [penwidth=3,label="120"]
    121 [penwidth=3,label="121"]
    122 [penwidth=3,label="122"]
    123 [penwidth=3,label="123"]
    124 [penwidth=3,label="124"]
    125 [penwidth=3,label="125"]
    126 [penwidth=3,label="126"]
    127 [penwidth=3,label="127"]
    128 [penwidth=3,label="128"]
    129 [penwidth=3,label="129"]
    130 [penwidth=3,label="130"]
    131 [penwidth=3,label="131"]
    132 [penwidth=3,label="132"]
    133 [penwidth=3,label="133"]
    134 [penwidth=3,label="134"]
    135 [penwidth=3,label="135"]
    136 [penwidth=3,label="136"]
    137 [penwidth=3,label="137"]
    138 [penwidth=3,label="138"]
    139 [penwidth=3,label="139"]
    140 [penwidth=3,label="140"]
    141 [penwidth=3,label="141"]
    142 [penwidth=3,label="142"]
    143 [penwidth=3,label="143"]
    144 [penwidth=3,label="144"]
    145 [penwidth=3,label="145"]
    146 [penwidth=3,label="146"]
    147 [penwidth=3,label="147"]
    148 [penwidth=3,label="148"]
    149 [penwidth=3,label="149"]
    150 [penwidth=3,label="150"]
    151 [penwidth=3,label="151"]
    152 [penwidth=3,label="152"]
    153 [penwidth=3,label="153"]
    154 [penwidth=3,label="154"]
    155 [penwidth=3,label="155"]
    156 [penwidth=3,label="156"]
    157 [penwidth=3,label="157"]
    158 [penwidth=3,label="158"]
    159 [penwidth=3,label="159"]
    160 [penwidth=3,label="160"]
    161 [penwidth=3,label="161"]
    162 [penwidth=3,label="162"]
    163 [penwidth=3,label="163"]
    164 [penwidth=3,label="164"]
    165 [penwidth=3,label="165"]
    166 [penwidth=3,label="166"]
    167 [penwidth=3,label="167"]
    168 [penwidth=3,label="168"]
    169 [penwidth=3,label="169"]
    170 [penwidth=3,label="170"]
    171 [penwidth=3,label="171"]
    172 [penwidth=3,label="172"]
    173 [penwidth=3,label="173"]
    174 [penwidth=3,label="174"]
    175 [penwidth=3,label="175"]
    176 [penwidth=3,label="176"]
    177 [penwidth=3,label="177"]
    178 [penwidth=3,label="178"]
    179 [penwidth=3,label="179"]
    180 [penwidth=3,label="180"]
    181 [penwidth=3,label="181"]
    182 [penwidth=3,label="182"]
    183 [penwidth=3,label="183"]
    184 [penwidth=3,label="184"]
    185 [penwidth=3,label="185"]
    186 [penwidth=3,label="186"]
    187 [penwidth=3,label="187"]
    188 [penwidth=3,label="188"]
    189 [penwidth=3,label="189"]
    190 [penwidth=3,label="190"]
    191 [penwidth=3,label="191"]
    192 [penwidth=3,label="192"]
    193 [penwidth=3,label="193"]
    194 [penwidth=3,label="194"]
    195 [penwidth=3,label="195"]
    196 [penwidth=3,label="196"]
    197 [penwidth=3,label="197"]
    198 [penwidth=3,label="198"]
    199 [penwidth=3,label="199"]
    200 [penwidth=3,label="200"]
    201 [penwidth=3,label="201"]
    202 [penwidth=3,label="202"]
    203 [penwidth=3,label="203"]
    204 [penwidth=3,label="204"]
    205 [penwidth=3,label="205"]
    206 [penwidth=3,label="206"]
    207 [penwidth=3,label="207"]
    208 [penwidth=3,label="208"]
    209 [penwidth=3,label="209"]
    210 [penwidth=3,label="210"]
    211 [penwidth=3,label="211"]
    212 [penwidth=3,label="212"]
    213 [penwidth=3,label="213"]
    214 [penwidth=3,label="214"]
    215 [penwidth=3,label="215"]
    216 [penwidth=3,label="216"]
    217 [penwidth=3,label="217"]
    218 [penwidth=3,label="218"]
    219 [penwidth=3,label="219"]
    220 [penwidth=3,label="220"]
    221 [penwidth=3,label="221"]
    222 [penwidth=3,label="222"]
    223 [penwidth=3,label="223"]
    224 [penwidth=3,label="224"]
    225 [penwidth=3,label="225"]
    226 [penwidth=3,label="226"]
    227 [penwidth=3,label="227"]
    228 [penwidth=3,label="228"]
    229 [penwidth=3,label="229"]
    230 [penwidth=3,label="230"]
    231 [penwidth=3,label="231"]
    232 [penwidth=3,label="232"]
    233 [penwidth=3,label="233"]
    234 [penwidth=3,label="234"]
    235 [penwidth=3,label="235"]
    236 [penwidth=3,label="236"]
    237 [penwidth=3,label="237"]
    238 [penwidth=3,label="238"]
    239 [penwidth=3,label="239"]
    240 [penwidth=3,label="240"]
    241 [penwidth=3,label="241"]
    242 [penwidth=3,label="242"]
    243 [penwidth=3,label="243"]
    244 [penwidth=3,label="244"]
    245 [penwidth=3,label="245"]
    246 [penwidth=3,label="246"]
    247 [penwidth=3,label="247"]
    248 [penwidth=3,label="248"]
    249 [penwidth=3,label="249"]
    250 [penwidth=3,label="250"]
    251 [penwidth=3,label="251"]
    252 [penwidth=3,label="252"]
    253 [penwidth=3,label="253"]
    254 [penwidth=3,label="254"]
    255 [penwidth=3,label="255"]
    256 [penwidth=3,label="256"]
    257 [penwidth=3,label="257"]
    258 [penwidth=3,label="258"]
    259 [penwidth=3,label="259"]
    260 [penwidth=3,label="260"]
    261 [penwidth=3,label="261"]
    262 [penwidth=3,label="262"]
    263 [penwidth=3,label="263"]
    264 [penwidth=3,label="264"]
    265 [penwidth=3,label="265"]
    266 [penwidth=3,label="266"]
    267 [penwidth=3,label="267"]
    268 [penwidth=3,label="268"]
    269 [penwidth=3,label="269"]
    270 [penwidth=3,label="270"]
    271 [penwidth=3,label="271"]
    272 [penwidth=3,label="272"]
    273 [penwidth=3,label="273"]
    274 [penwidth=3,label="274"]
    275 [penwidth=3,label="275"]
    276 [penwidth=3,label="276"]
    277 [penwidth=3,label="277"]
    278 [penwidth=3,label="278"]
    279 [penwidth=3,label="279"]
    280 [penwidth=3,label="280"]
    281 [penwidth=3,label="281"]
    282 [penwidth=3,label="282"]
    283 [penwidth=3,label="283"]
    284 [penwidth=3,label="284"]
    285 [penwidth=3,label="285"]
    286 [penwidth=3,label="286"]
    287 [penwidth=3,label="287"]
    288 [penwidth=3,label="288"]
    289 [penwidth=3,label="289"]
    290 [penwidth=3,label="290"]
    291 [penwidth=3,label="291"]
    292 [penwidth=3,label="292"]
    293 [penwidth=3,label="293"]
    294 [penwidth=3,label="294"]
    295 [penwidth=3,label="295"]
    296 [penwidth=3,label="296"]
    297 [penwidth=3,label="297"]
    298 [penwidth=3,label="298"]
    299 [penwidth=3,label="299"]
    300 [penwidth=3,label="300"]
    301 [penwidth=3,label="301"]
    302 [penwidth=3,label="302"]
    303 [penwidth=3,label="303"]
    304 [penwidth=3,label="304"]
    305 [penwidth=3,label="305"]
    306 [penwidth=3,label="306"]
    307 [penwidth=3,label="307"]
    308 [penwidth=3,label="308"]
    309 [penwidth=3,label="309"]

    249 -> 0 [penwidth=2]
    250 -> 0 [penwidth=2]
    251 -> 0 [penwidth=2]
    252 -> 0 [penwidth=2]
    253 -> 0 [penwidth=2]
    254 -> 0 [penwidth=2]
    255 -> 0 [penwidth=2]
    256 -> 0 [penwidth=2]
    257 -> 249 [penwidth=2]
    258 -> 249 [penwidth=2]
    259 -> 249 [penwidth=2]
    260 -> 249 [penwidth=2]
    261 -> 249 [penwidth=2]
    262 -> 249 [penwidth=2]
    263 -> 250 [penwidth=2]
    264 -> 250 [penwidth=2]
    265 -> 250 [penwidth=2]
    266 -> 250 [penwidth=2]
    267 -> 250 [penwidth=2]
    268 -> 251 [penwidth=2]
    269 -> 251 [penwidth=2]
    270 -> 251 [penwidth=2]
    271 -> 251 [penwidth=2]
    272 -> 252 [penwidth=2]
    273 -> 253 [penwidth=2]
    274 -> 253 [penwidth=2]
    275 -> 253 [penwidth=2]
    276 -> 253 [penwidth=2]
    277 -> 253 [penwidth=2]
    278 -> 253 [penwidth=2]
    279 -> 253 [penwidth=2]
    280 -> 253 [penwidth=2]
    281 -> 253 [penwidth=2]
    282 -> 253 [penwidth=2]
    283 -> 253 [penwidth=2]
    284 -> 253 [penwidth=2]
    285 -> 253 [penwidth=2]
    286 -> 253 [penwidth=2]
    287 -> 253 [penwidth=2]
    288 -> 253 [penwidth=2]
    289 -> 253 [penwidth=2]
    290 -> 254 [penwidth=2]
    165 -> 254 [penwidth=2]
    166 -> 254 [penwidth=2]
    167 -> 254 [penwidth=2]
    168 -> 254 [penwidth=2]
    169 -> 254 [penwidth=2]
    170 -> 254 [penwidth=2]
    171 -> 254 [penwidth=2]
    172 -> 254 [penwidth=2]
    173 -> 254 [penwidth=2]
    174 -> 254 [penwidth=2]
    175 -> 254 [penwidth=2]
    176 -> 254 [penwidth=2]
    177 -> 254 [penwidth=2]
    178 -> 254 [penwidth=2]
    179 -> 254 [penwidth=2]
    180 -> 254 [penwidth=2]
    181 -> 254 [penwidth=2]
    182 -> 254 [penwidth=2]
    183 -> 255 [penwidth=2]
    184 -> 255 [penwidth=2]
    185 -> 255 [penwidth=2]
    186 -> 255 [penwidth=2]
    187 -> 255 [penwidth=2]
    188 -> 255 [penwidth=2]
    189 -> 255 [penwidth=2]
    190 -> 256 [penwidth=2]
    191 -> 256 [penwidth=2]
    192 -> 256 [penwidth=2]
    193 -> 256 [penwidth=2]
    194 -> 256 [penwidth=2]
    195 -> 256 [penwidth=2]
    196 -> 256 [penwidth=2]
    197 -> 256 [penwidth=2]
    198 -> 256 [penwidth=2]
    199 -> 256 [penwidth=2]
    200 -> 256 [penwidth=2]
    201 -> 256 [penwidth=2]
    202 -> 256 [penwidth=2]
    203 -> 256 [penwidth=2]
    204 -> 257 [penwidth=2]
    205 -> 257 [penwidth=2]
    206 -> 257 [penwidth=2]
    207 -> 257 [penwidth=2]
    208 -> 257 [penwidth=2]
    209 -> 257 [penwidth=2]
    210 -> 257 [penwidth=2]
    211 -> 257 [penwidth=2]
    212 -> 257 [penwidth=2]
    213 -> 257 [penwidth=2]
    214 -> 257 [penwidth=2]
    215 -> 257 [penwidth=2]
    216 -> 257 [penwidth=2]
    217 -> 257 [penwidth=2]
    218 -> 257 [penwidth=2]
    219 -> 257 [penwidth=2]
    220 -> 257 [penwidth=2]
    221 -> 257 [penwidth=2]
    222 -> 257 [penwidth=2]
    223 -> 258 [penwidth=2]
    224 -> 258 [penwidth=2]
    225 -> 258 [penwidth=2]
    226 -> 259 [penwidth=2]
    227 -> 259 [penwidth=2]
    228 -> 259 [penwidth=2]
    229 -> 259 [penwidth=2]
    230 -> 259 [penwidth=2]
    231 -> 259 [penwidth=2]
    232 -> 260 [penwidth=2]
    233 -> 260 [penwidth=2]
    234 -> 260 [penwidth=2]
    235 -> 260 [penwidth=2]
    236 -> 260 [penwidth=2]
    237 -> 260 [penwidth=2]
    238 -> 260 [penwidth=2]
    239 -> 260 [penwidth=2]
    240 -> 260 [penwidth=2]
    241 -> 260 [penwidth=2]
    242 -> 260 [penwidth=2]
    243 -> 260 [penwidth=2]
    244 -> 260 [penwidth=2]
    245 -> 260 [penwidth=2]
    246 -> 260 [penwidth=2]
    247 -> 260 [penwidth=2]
    248 -> 260 [penwidth=2]
    39 -> 260 [penwidth=2]
    291 -> 260 [penwidth=2]
    40 -> 260 [penwidth=2]
    292 -> 260 [penwidth=2]
    41 -> 260 [penwidth=2]
    293 -> 260 [penwidth=2]
    42 -> 261 [penwidth=2]
    294 -> 261 [penwidth=2]
    1 -> 261 [penwidth=2]
    43 -> 261 [penwidth=2]
    295 -> 261 [penwidth=2]
    2 -> 261 [penwidth=2]
    44 -> 261 [penwidth=2]
    296 -> 261 [penwidth=2]
    3 -> 261 [penwidth=2]
    45 -> 262 [penwidth=2]
    297 -> 262 [penwidth=2]
    4 -> 262 [penwidth=2]
    46 -> 262 [penwidth=2]
    298 -> 262 [penwidth=2]
    5 -> 263 [penwidth=2]
    47 -> 263 [penwidth=2]
    299 -> 263 [penwidth=2]
    6 -> 263 [penwidth=2]
    48 -> 263 [penwidth=2]
    300 -> 263 [penwidth=2]
    7 -> 263 [penwidth=2]
    49 -> 263 [penwidth=2]
    301 -> 263 [penwidth=2]
    8 -> 263 [penwidth=2]
    50 -> 263 [penwidth=2]
    302 -> 263 [penwidth=2]
    9 -> 263 [penwidth=2]
    51 -> 263 [penwidth=2]
    303 -> 263 [penwidth=2]
    10 -> 263 [penwidth=2]
    52 -> 263 [penwidth=2]
    304 -> 263 [penwidth=2]
    11 -> 263 [penwidth=2]
    53 -> 264 [penwidth=2]
    305 -> 264 [penwidth=2]
    12 -> 264 [penwidth=2]
    54 -> 265 [penwidth=2]
    306 -> 265 [penwidth=2]
    13 -> 265 [penwidth=2]
    55 -> 265 [penwidth=2]
    307 -> 265 [penwidth=2]
    14 -> 265 [penwidth=2]
    56 -> 265 [penwidth=2]
    308 -> 265 [penwidth=2]
    15 -> 265 [penwidth=2]
    57 -> 265 [penwidth=2]
    309 -> 265 [penwidth=2]
    16 -> 265 [penwidth=2]
    58 -> 265 [penwidth=2]
    59 -> 265 [penwidth=2]
    17 -> 265 [penwidth=2]
    18 -> 265 [penwidth=2]
    60 -> 265 [penwidth=2]
    19 -> 265 [penwidth=2]
    61 -> 266 [penwidth=2]
    20 -> 266 [penwidth=2]
    62 -> 266 [penwidth=2]
    21 -> 266 [penwidth=2]
    63 -> 266 [penwidth=2]
    22 -> 266 [penwidth=2]
    64 -> 266 [penwidth=2]
    23 -> 266 [penwidth=2]
    65 -> 266 [penwidth=2]
    24 -> 266 [penwidth=2]
    66 -> 266 [penwidth=2]
    25 -> 266 [penwidth=2]
    67 -> 266 [penwidth=2]
    26 -> 266 [penwidth=2]
    68 -> 266 [penwidth=2]
    27 -> 266 [penwidth=2]
    69 -> 266 [penwidth=2]
    28 -> 266 [penwidth=2]
    70 -> 266 [penwidth=2]
    29 -> 266 [penwidth=2]
    71 -> 266 [penwidth=2]
    30 -> 266 [penwidth=2]
    72 -> 266 [penwidth=2]
    31 -> 266 [penwidth=2]
    73 -> 267 [penwidth=2]
    32 -> 267 [penwidth=2]
    74 -> 267 [penwidth=2]
    33 -> 267 [penwidth=2]
    75 -> 267 [penwidth=2]
    34 -> 267 [penwidth=2]
    76 -> 267 [penwidth=2]
    35 -> 267 [penwidth=2]
    77 -> 267 [penwidth=2]
    36 -> 267 [penwidth=2]
    78 -> 267 [penwidth=2]
    37 -> 267 [penwidth=2]
    79 -> 267 [penwidth=2]
    38 -> 268 [penwidth=2]
    80 -> 268 [penwidth=2]
    123 -> 268 [penwidth=2]
    124 -> 268 [penwidth=2]
    125 -> 269 [penwidth=2]
    126 -> 269 [penwidth=2]
    127 -> 269 [penwidth=2]
    128 -> 269 [penwidth=2]
    129 -> 269 [penwidth=2]
    130 -> 269 [penwidth=2]
    131 -> 269 [penwidth=2]
    132 -> 270 [penwidth=2]
    133 -> 270 [penwidth=2]
    134 -> 270 [penwidth=2]
    135 -> 270 [penwidth=2]
    136 -> 270 [penwidth=2]
    137 -> 270 [penwidth=2]
    138 -> 270 [penwidth=2]
    139 -> 270 [penwidth=2]
    140 -> 270 [penwidth=2]
    141 -> 270 [penwidth=2]
    142 -> 270 [penwidth=2]
    143 -> 270 [penwidth=2]
    144 -> 270 [penwidth=2]
    145 -> 270 [penwidth=2]
    146 -> 270 [penwidth=2]
    147 -> 270 [penwidth=2]
    148 -> 270 [penwidth=2]
    149 -> 270 [penwidth=2]
    150 -> 270 [penwidth=2]
    151 -> 271 [penwidth=2]
    152 -> 271 [penwidth=2]
    153 -> 271 [penwidth=2]
    154 -> 271 [penwidth=2]
    155 -> 271 [penwidth=2]
    156 -> 271 [penwidth=2]
    157 -> 271 [penwidth=2]
    158 -> 271 [penwidth=2]
    159 -> 271 [penwidth=2]
    160 -> 271 [penwidth=2]
    161 -> 271 [penwidth=2]
    162 -> 271 [penwidth=2]
    163 -> 271 [penwidth=2]
    164 -> 271 [penwidth=2]
    122 -> 271 [penwidth=2]
    121 -> 271 [penwidth=2]
    120 -> 271 [penwidth=2]
    119 -> 271 [penwidth=2]
    118 -> 271 [penwidth=2]
    117 -> 271 [penwidth=2]
    116 -> 271 [penwidth=2]
    115 -> 271 [penwidth=2]
    114 -> 272 [penwidth=2]
    113 -> 272 [penwidth=2]
    112 -> 272 [penwidth=2]
    111 -> 272 [penwidth=2]
    110 -> 272 [penwidth=2]
    109 -> 272 [penwidth=2]
    108 -> 272 [penwidth=2]
    107 -> 272 [penwidth=2]
    106 -> 272 [penwidth=2]
    105 -> 273 [penwidth=2]
    104 -> 273 [penwidth=2]
    81 -> 273 [penwidth=2]
    103 -> 273 [penwidth=2]
    102 -> 273 [penwidth=2]
    101 -> 273 [penwidth=2]
    100 -> 273 [penwidth=2]
    99 -> 273 [penwidth=2]
    98 -> 273 [penwidth=2]
    97 -> 273 [penwidth=2]
    96 -> 273 [penwidth=2]
    95 -> 273 [penwidth=2]
    94 -> 273 [penwidth=2]
    93 -> 273 [penwidth=2]
    92 -> 273 [penwidth=2]
    91 -> 273 [penwidth=2]
    90 -> 273 [penwidth=2]
    89 -> 274 [penwidth=2]
    88 -> 274 [penwidth=2]
    87 -> 274 [penwidth=2]
    86 -> 274 [penwidth=2]
    85 -> 274 [penwidth=2]
    84 -> 274 [penwidth=2]
    83 -> 274 [penwidth=2]
    82 -> 274 [penwidth=2]
    258 -> 254 [penwidth=2]
    258 -> 251 [penwidth=2]
    258 -> 252 [penwidth=2]
    265 -> 249 [penwidth=2]
    265 -> 254 [penwidth=2]
    265 -> 251 [penwidth=2]
    268 -> 250 [penwidth=2]
    268 -> 256 [penwidth=2]
    268 -> 249 [penwidth=2]
    268 -> 255 [penwidth=2]
    281 -> 256 [penwidth=2]
    281 -> 252 [penwidth=2]
    281 -> 249 [penwidth=2]
    281 -> 255 [penwidth=2]
    281 -> 250 [penwidth=2]
    281 -> 251 [penwidth=2]
    170 -> 251 [penwidth=2]
    183 -> 250 [penwidth=2]
    183 -> 254 [penwidth=2]
    183 -> 253 [penwidth=2]
    199 -> 252 [penwidth=2]
    199 -> 251 [penwidth=2]
    199 -> 254 [penwidth=2]
    199 -> 255 [penwidth=2]
    199 -> 253 [penwidth=2]
    199 -> 249 [penwidth=2]
    203 -> 249 [penwidth=2]
    203 -> 254 [penwidth=2]
    203 -> 252 [penwidth=2]
    203 -> 255 [penwidth=2]
    210 -> 259 [penwidth=2]
    223 -> 264 [penwidth=2]
    223 -> 166 [penwidth=2]
    223 -> 168 [penwidth=2]
    223 -> 201 [penwidth=2]
    223 -> 197 [penwidth=2]
    223 -> 273 [penwidth=2]
    223 -> 170 [penwidth=2]
    223 -> 271 [penwidth=2]
    223 -> 281 [penwidth=2]
    223 -> 169 [penwidth=2]
    223 -> 180 [penwidth=2]
    223 -> 275 [penwidth=2]
    223 -> 280 [penwidth=2]
    223 -> 269 [penwidth=2]
    223 -> 284 [penwidth=2]
    223 -> 289 [penwidth=2]
    223 -> 272 [penwidth=2]
    223 -> 174 [penwidth=2]
    223 -> 260 [penwidth=2]
    223 -> 199 [penwidth=2]
    223 -> 288 [penwidth=2]
    223 -> 200 [penwidth=2]
    223 -> 263 [penwidth=2]
    223 -> 179 [penwidth=2]
    223 -> 191 [penwidth=2]
    223 -> 192 [penwidth=2]
    223 -> 182 [penwidth=2]
    223 -> 198 [penwidth=2]
    223 -> 283 [penwidth=2]
    223 -> 171 [penwidth=2]
    223 -> 268 [penwidth=2]
    223 -> 195 [penwidth=2]
    223 -> 261 [penwidth=2]
    223 -> 181 [penwidth=2]
    223 -> 172 [penwidth=2]
    223 -> 185 [penwidth=2]
    223 -> 165 [penwidth=2]
    223 -> 202 [penwidth=2]
    223 -> 189 [penwidth=2]
    223 -> 257 [penwidth=2]
    223 -> 184 [penwidth=2]
    223 -> 173 [penwidth=2]
    223 -> 262 [penwidth=2]
    223 -> 276 [penwidth=2]
    223 -> 203 [penwidth=2]
    223 -> 187 [penwidth=2]
    223 -> 259 [penwidth=2]
    223 -> 175 [penwidth=2]
    223 -> 186 [penwidth=2]
    223 -> 196 [penwidth=2]
    223 -> 177 [penwidth=2]
    228 -> 172 [penwidth=2]
    228 -> 201 [penwidth=2]
    228 -> 284 [penwidth=2]
    228 -> 200 [penwidth=2]
    228 -> 169 [penwidth=2]
    228 -> 288 [penwidth=2]
    228 -> 258 [penwidth=2]
    228 -> 271 [penwidth=2]
    228 -> 183 [penwidth=2]
    228 -> 187 [penwidth=2]
    228 -> 202 [penwidth=2]
    228 -> 270 [penwidth=2]
    228 -> 278 [penwidth=2]
    228 -> 166 [penwidth=2]
    228 -> 262 [penwidth=2]
    228 -> 289 [penwidth=2]
    228 -> 174 [penwidth=2]
    228 -> 191 [penwidth=2]
    228 -> 176 [penwidth=2]
    228 -> 281 [penwidth=2]
    228 -> 165 [penwidth=2]
    228 -> 263 [penwidth=2]
    228 -> 179 [penwidth=2]
    228 -> 181 [penwidth=2]
    228 -> 266 [penwidth=2]
    228 -> 269 [penwidth=2]
    228 -> 197 [penwidth=2]
    228 -> 273 [penwidth=2]
    228 -> 276 [penwidth=2]
    228 -> 280 [penwidth=2]
    228 -> 257 [penwidth=2]
    228 -> 177 [penwidth=2]
    228 -> 184 [penwidth=2]
    228 -> 198 [penwidth=2]
    228 -> 274 [penwidth=2]
    228 -> 178 [penwidth=2]
    228 -> 277 [penwidth=2]
    231 -> 199 [penwidth=2]
    231 -> 191 [penwidth=2]
    231 -> 192 [penwidth=2]
    231 -> 285 [penwidth=2]
    231 -> 267 [penwidth=2]
    231 -> 178 [penwidth=2]
    231 -> 274 [penwidth=2]
    231 -> 176 [penwidth=2]
    231 -> 283 [penwidth=2]
    231 -> 198 [penwidth=2]
    231 -> 287 [penwidth=2]
    231 -> 290 [penwidth=2]
    231 -> 169 [penwidth=2]
    231 -> 270 [penwidth=2]
    231 -> 258 [penwidth=2]
    231 -> 171 [penwidth=2]
    231 -> 182 [penwidth=2]
    231 -> 272 [penwidth=2]
    231 -> 179 [penwidth=2]
    231 -> 187 [penwidth=2]
    231 -> 288 [penwidth=2]
    231 -> 278 [penwidth=2]
    231 -> 286 [penwidth=2]
    231 -> 202 [penwidth=2]
    231 -> 277 [penwidth=2]
    231 -> 203 [penwidth=2]
    231 -> 279 [penwidth=2]
    231 -> 282 [penwidth=2]
    239 -> 202 [penwidth=2]
    239 -> 175 [penwidth=2]
    239 -> 282 [penwidth=2]
    239 -> 172 [penwidth=2]
    3 -> 283 [penwidth=2]
    3 -> 263 [penwidth=2]
    3 -> 285 [penwidth=2]
    3 -> 186 [penwidth=2]
    3 -> 203 [penwidth=2]
    3 -> 167 [penwidth=2]
    3 -> 199 [penwidth=2]
    3 -> 182 [penwidth=2]
    3 -> 195 [penwidth=2]
    3 -> 166 [penwidth=2]
    3 -> 274 [penwidth=2]
    3 -> 264 [penwidth=2]
    3 -> 258 [penwidth=2]
    3 -> 188 [penwidth=2]
    3 -> 184 [penwidth=2]
    3 -> 172 [penwidth=2]
    3 -> 198 [penwidth=2]
    3 -> 181 [penwidth=2]
    3 -> 269 [penwidth=2]
    3 -> 273 [penwidth=2]
    3 -> 168 [penwidth=2]
    3 -> 193 [penwidth=2]
    3 -> 257 [penwidth=2]
    3 -> 200 [penwidth=2]
    3 -> 174 [penwidth=2]
    3 -> 173 [penwidth=2]
    3 -> 262 [penwidth=2]
    3 -> 284 [penwidth=2]
    3 -> 280 [penwidth=2]
    3 -> 169 [penwidth=2]
    3 -> 189 [penwidth=2]
    3 -> 192 [penwidth=2]
    3 -> 183 [penwidth=2]
    3 -> 201 [penwidth=2]
    3 -> 282 [penwidth=2]
    3 -> 278 [penwidth=2]
    3 -> 197 [penwidth=2]
    3 -> 202 [penwidth=2]
    3 -> 275 [penwidth=2]
    3 -> 286 [penwidth=2]
    3 -> 281 [penwidth=2]
    3 -> 265 [penwidth=2]
    3 -> 170 [penwidth=2]
    6 -> 177 [penwidth=2]
    6 -> 203 [penwidth=2]
    301 -> 176 [penwidth=2]
    301 -> 179 [penwidth=2]
    301 -> 183 [penwidth=2]
    301 -> 190 [penwidth=2]
    301 -> 169 [penwidth=2]
    301 -> 278 [penwidth=2]
    301 -> 285 [penwidth=2]
    301 -> 185 [penwidth=2]
    301 -> 261 [penwidth=2]
    301 -> 273 [penwidth=2]
    301 -> 289 [penwidth=2]
    301 -> 279 [penwidth=2]
    301 -> 195 [penwidth=2]
    301 -> 259 [penwidth=2]
    301 -> 184 [penwidth=2]
    301 -> 201 [penwidth=2]
    301 -> 165 [penwidth=2]
    301 -> 266 [penwidth=2]
    301 -> 177 [penwidth=2]
    301 -> 287 [penwidth=2]
    10 -> 272 [penwidth=2]
    10 -> 190 [penwidth=2]
    10 -> 201 [penwidth=2]
    10 -> 285 [penwidth=2]
    10 -> 183 [penwidth=2]
    10 -> 167 [penwidth=2]
    10 -> 176 [penwidth=2]
    10 -> 177 [penwidth=2]
    10 -> 203 [penwidth=2]
    10 -> 188 [penwidth=2]
    10 -> 274 [penwidth=2]
    10 -> 171 [penwidth=2]
    10 -> 172 [penwidth=2]
    10 -> 202 [penwidth=2]
    10 -> 166 [penwidth=2]
    10 -> 280 [penwidth=2]
    10 -> 277 [penwidth=2]
    10 -> 169 [penwidth=2]
    10 -> 257 [penwidth=2]
    10 -> 179 [penwidth=2]
    10 -> 273 [penwidth=2]
    10 -> 194 [penwidth=2]
    10 -> 189 [penwidth=2]
    10 -> 186 [penwidth=2]
    10 -> 267 [penwidth=2]
    10 -> 192 [penwidth=2]
    10 -> 269 [penwidth=2]
    10 -> 265 [penwidth=2]
    10 -> 193 [penwidth=2]
    10 -> 174 [penwidth=2]
    10 -> 180 [penwidth=2]
    10 -> 282 [penwidth=2]
    10 -> 288 [penwidth=2]
    10 -> 271 [penwidth=2]
    10 -> 191 [penwidth=2]
    10 -> 260 [penwidth=2]
    10 -> 200 [penwidth=2]
    10 -> 283 [penwidth=2]
    10 -> 199 [penwidth=2]
    10 -> 165 [penwidth=2]
    10 -> 268 [penwidth=2]
    10 -> 281 [penwidth=2]
    10 -> 276 [penwidth=2]
    10 -> 181 [penwidth=2]
    10 -> 262 [penwidth=2]
    10 -> 198 [penwidth=2]
    10 -> 170 [penwidth=2]
    10 -> 275 [penwidth=2]
    10 -> 287 [penwidth=2]
    10 -> 184 [penwidth=2]
    10 -> 259 [penwidth=2]
    10 -> 278 [penwidth=2]
    10 -> 195 [penwidth=2]
    10 -> 197 [penwidth=2]
    10 -> 173 [penwidth=2]
    10 -> 289 [penwidth=2]
    10 -> 175 [penwidth=2]
    10 -> 290 [penwidth=2]
    10 -> 187 [penwidth=2]
    10 -> 266 [penwidth=2]
    10 -> 178 [penwidth=2]
    10 -> 168 [penwidth=2]
    10 -> 182 [penwidth=2]
    10 -> 264 [penwidth=2]
    10 -> 286 [penwidth=2]
    10 -> 284 [penwidth=2]
    10 -> 261 [penwidth=2]
    309 -> 286 [penwidth=2]
    309 -> 176 [penwidth=2]
    309 -> 267 [penwidth=2]
    309 -> 275 [penwidth=2]
    309 -> 274 [penwidth=2]
    309 -> 184 [penwidth=2]
    309 -> 166 [penwidth=2]
    309 -> 202 [penwidth=2]
    309 -> 183 [penwidth=2]
    309 -> 178 [penwidth=2]
    309 -> 200 [penwidth=2]
    309 -> 258 [penwidth=2]
    309 -> 272 [penwidth=2]
    309 -> 203 [penwidth=2]
    309 -> 276 [penwidth=2]
    309 -> 270 [penwidth=2]
    309 -> 174 [penwidth=2]
    309 -> 173 [penwidth=2]
    309 -> 283 [penwidth=2]
    309 -> 188 [penwidth=2]
    309 -> 282 [penwidth=2]
    309 -> 193 [penwidth=2]
    309 -> 271 [penwidth=2]
    309 -> 199 [penwidth=2]
    309 -> 182 [penwidth=2]
    309 -> 290 [penwidth=2]
    309 -> 175 [penwidth=2]
    309 -> 262 [penwidth=2]
    309 -> 170 [penwidth=2]
    309 -> 266 [penwidth=2]
    309 -> 285 [penwidth=2]
    309 -> 169 [penwidth=2]
    309 -> 261 [penwidth=2]
    309 -> 165 [penwidth=2]
    309 -> 168 [penwidth=2]
    309 -> 287 [penwidth=2]
    309 -> 171 [penwidth=2]
    309 -> 280 [penwidth=2]
    309 -> 191 [penwidth=2]
    309 -> 196 [penwidth=2]
    309 -> 268 [penwidth=2]
    309 -> 180 [penwidth=2]
    309 -> 189 [penwidth=2]
    309 -> 179 [penwidth=2]
    309 -> 172 [penwidth=2]
    309 -> 264 [penwidth=2]
    309 -> 273 [penwidth=2]
    62 -> 259 [penwidth=2]
    62 -> 269 [penwidth=2]
    62 -> 172 [penwidth=2]
    62 -> 165 [penwidth=2]
    62 -> 173 [penwidth=2]
    62 -> 272 [penwidth=2]
    62 -> 169 [penwidth=2]
    62 -> 183 [penwidth=2]
    62 -> 191 [penwidth=2]
    62 -> 270 [penwidth=2]
    62 -> 199 [penwidth=2]
    62 -> 290 [penwidth=2]
    62 -> 195 [penwidth=2]
    62 -> 203 [penwidth=2]
    62 -> 284 [penwidth=2]
    62 -> 202 [penwidth=2]
    62 -> 179 [penwidth=2]
    62 -> 177 [penwidth=2]
    62 -> 281 [penwidth=2]
    62 -> 268 [penwidth=2]
    62 -> 182 [penwidth=2]
    62 -> 263 [penwidth=2]
    62 -> 275 [penwidth=2]
    62 -> 170 [penwidth=2]
    62 -> 174 [penwidth=2]
    62 -> 196 [penwidth=2]
    62 -> 186 [penwidth=2]
    21 -> 203 [penwidth=2]
    21 -> 264 [penwidth=2]
    21 -> 191 [penwidth=2]
    21 -> 290 [penwidth=2]
    21 -> 192 [penwidth=2]
    21 -> 259 [penwidth=2]
    21 -> 184 [penwidth=2]
    21 -> 186 [penwidth=2]
    21 -> 194 [penwidth=2]
    21 -> 276 [penwidth=2]
    21 -> 167 [penwidth=2]
    21 -> 196 [penwidth=2]
    21 -> 278 [penwidth=2]
    21 -> 269 [penwidth=2]
    21 -> 182 [penwidth=2]
    21 -> 283 [penwidth=2]
    21 -> 200 [penwidth=2]
    21 -> 177 [penwidth=2]
    21 -> 273 [penwidth=2]
    21 -> 201 [penwidth=2]
    21 -> 289 [penwidth=2]
    25 -> 265 [penwidth=2]
    25 -> 181 [penwidth=2]
    25 -> 280 [penwidth=2]
    25 -> 194 [penwidth=2]
    25 -> 286 [penwidth=2]
    25 -> 193 [penwidth=2]
    25 -> 187 [penwidth=2]
    25 -> 195 [penwidth=2]
    25 -> 201 [penwidth=2]
    25 -> 169 [penwidth=2]
    25 -> 185 [penwidth=2]
    25 -> 277 [penwidth=2]
    25 -> 269 [penwidth=2]
    25 -> 282 [penwidth=2]
    25 -> 174 [penwidth=2]
    25 -> 171 [penwidth=2]
    25 -> 198 [penwidth=2]
    25 -> 168 [penwidth=2]
    25 -> 264 [penwidth=2]
    25 -> 289 [penwidth=2]
    25 -> 197 [penwidth=2]
    25 -> 182 [penwidth=2]
    25 -> 275 [penwidth=2]
    25 -> 190 [penwidth=2]
    25 -> 165 [penwidth=2]
    25 -> 177 [penwidth=2]
    25 -> 285 [penwidth=2]
    25 -> 196 [penwidth=2]
    25 -> 260 [penwidth=2]
    25 -> 200 [penwidth=2]
    25 -> 279 [penwidth=2]
    25 -> 263 [penwidth=2]
    25 -> 188 [penwidth=2]
    25 -> 166 [penwidth=2]
    25 -> 278 [penwidth=2]
    25 -> 202 [penwidth=2]
    25 -> 290 [penwidth=2]
    25 -> 288 [penwidth=2]
    25 -> 267 [penwidth=2]
    25 -> 203 [penwidth=2]
    25 -> 261 [penwidth=2]
    25 -> 258 [penwidth=2]
    25 -> 180 [penwidth=2]
    25 -> 167 [penwidth=2]
    25 -> 281 [penwidth=2]
    25 -> 270 [penwidth=2]
    25 -> 191 [penwidth=2]
    25 -> 199 [penwidth=2]
    25 -> 276 [penwidth=2]
    25 -> 262 [penwidth=2]
    25 -> 259 [penwidth=2]
    25 -> 179 [penwidth=2]
    25 -> 186 [penwidth=2]
    25 -> 272 [penwidth=2]
    25 -> 271 [penwidth=2]
    29 -> 181 [penwidth=2]
    29 -> 203 [penwidth=2]
    29 -> 280 [penwidth=2]
    29 -> 193 [penwidth=2]
    29 -> 170 [penwidth=2]
    29 -> 274 [penwidth=2]
    29 -> 177 [penwidth=2]
    29 -> 165 [penwidth=2]
    29 -> 287 [penwidth=2]
    29 -> 279 [penwidth=2]
    29 -> 176 [penwidth=2]
    29 -> 271 [penwidth=2]
    29 -> 172 [penwidth=2]
    29 -> 166 [penwidth=2]
    29 -> 184 [penwidth=2]
    29 -> 191 [penwidth=2]
    29 -> 277 [penwidth=2]
    29 -> 195 [penwidth=2]
    29 -> 183 [penwidth=2]
    29 -> 276 [penwidth=2]
    73 -> 172 [penwidth=2]
    73 -> 187 [penwidth=2]
    73 -> 197 [penwidth=2]
    73 -> 184 [penwidth=2]
    73 -> 290 [penwidth=2]
    73 -> 262 [penwidth=2]
    73 -> 269 [penwidth=2]
    73 -> 279 [penwidth=2]
    73 -> 174 [penwidth=2]
    73 -> 285 [penwidth=2]
    73 -> 265 [penwidth=2]
    73 -> 266 [penwidth=2]
    73 -> 176 [penwidth=2]
    73 -> 189 [penwidth=2]
    73 -> 260 [penwidth=2]
    73 -> 180 [penwidth=2]
    73 -> 257 [penwidth=2]
    73 -> 165 [penwidth=2]
    73 -> 169 [penwidth=2]
    73 -> 277 [penwidth=2]
    74 -> 278 [penwidth=2]
    74 -> 268 [penwidth=2]
    74 -> 260 [penwidth=2]
    74 -> 181 [penwidth=2]
    74 -> 263 [penwidth=2]
    74 -> 170 [penwidth=2]
    74 -> 166 [penwidth=2]
    74 -> 275 [penwidth=2]
    80 -> 286 [penwidth=2]
    80 -> 257 [penwidth=2]
    80 -> 288 [penwidth=2]
    80 -> 285 [penwidth=2]
    80 -> 284 [penwidth=2]
    80 -> 170 [penwidth=2]
    80 -> 275 [penwidth=2]
    80 -> 195 [penwidth=2]
    80 -> 184 [penwidth=2]
    80 -> 169 [penwidth=2]
    80 -> 202 [penwidth=2]
    80 -> 269 [penwidth=2]
    80 -> 258 [penwidth=2]
    80 -> 280 [penwidth=2]
    80 -> 185 [penwidth=2]
    80 -> 263 [penwidth=2]
    80 -> 265 [penwidth=2]
    80 -> 282 [penwidth=2]
    80 -> 290 [penwidth=2]
    80 -> 177 [penwidth=2]
    80 -> 274 [penwidth=2]
    80 -> 261 [penwidth=2]
    80 -> 199 [penwidth=2]
    80 -> 167 [penwidth=2]
    80 -> 175 [penwidth=2]
    80 -> 198 [penwidth=2]
    80 -> 262 [penwidth=2]
    80 -> 279 [penwidth=2]
    80 -> 270 [penwidth=2]
    80 -> 189 [penwidth=2]
    80 -> 196 [penwidth=2]
    80 -> 190 [penwidth=2]
    80 -> 277 [penwidth=2]
    80 -> 197 [penwidth=2]
    80 -> 281 [penwidth=2]
    80 -> 260 [penwidth=2]
    80 -> 178 [penwidth=2]
    80 -> 273 [penwidth=2]
    80 -> 194 [penwidth=2]
    80 -> 283 [penwidth=2]
    80 -> 180 [penwidth=2]
    80 -> 201 [penwidth=2]
    80 -> 267 [penwidth=2]
    80 -> 183 [penwidth=2]
    80 -> 272 [penwidth=2]
    80 -> 276 [penwidth=2]
    80 -> 168 [penwidth=2]
    80 -> 266 [penwidth=2]
    80 -> 176 [penwidth=2]
    80 -> 172 [penwidth=2]
    80 -> 193 [penwidth=2]
    80 -> 174 [penwidth=2]
    80 -> 179 [penwidth=2]
    80 -> 203 [penwidth=2]
    80 -> 192 [penwidth=2]
    80 -> 278 [penwidth=2]
    80 -> 289 [penwidth=2]
    80 -> 181 [penwidth=2]
    80 -> 173 [penwidth=2]
    137 -> 263 [penwidth=2]
    146 -> 182 [penwidth=2]
    146 -> 284 [penwidth=2]
    146 -> 194 [penwidth=2]
    146 -> 177 [penwidth=2]
    146 -> 176 [penwidth=2]
    146 -> 203 [penwidth=2]
    146 -> 190 [penwidth=2]
    146 -> 170 [penwidth=2]
    146 -> 199 [penwidth=2]
    146 -> 187 [penwidth=2]
    146 -> 202 [penwidth=2]
    146 -> 166 [penwidth=2]
    146 -> 181 [penwidth=2]
    146 -> 192 [penwidth=2]
    146 -> 196 [penwidth=2]
    146 -> 280 [penwidth=2]
    146 -> 167 [penwidth=2]
    146 -> 168 [penwidth=2]
    146 -> 287 [penwidth=2]
    146 -> 275 [penwidth=2]
    146 -> 184 [penwidth=2]
    146 -> 201 [penwidth=2]
    146 -> 174 [penwidth=2]
    146 -> 261 [penwidth=2]
    146 -> 283 [penwidth=2]
    146 -> 259 [penwidth=2]
    146 -> 264 [penwidth=2]
    146 -> 191 [penwidth=2]
    146 -> 285 [penwidth=2]
    146 -> 268 [penwidth=2]
    146 -> 265 [penwidth=2]
    146 -> 276 [penwidth=2]
    146 -> 178 [penwidth=2]
    146 -> 260 [penwidth=2]
    146 -> 193 [penwidth=2]
    146 -> 266 [penwidth=2]
    146 -> 172 [penwidth=2]
    146 -> 262 [penwidth=2]
    146 -> 185 [penwidth=2]
    146 -> 288 [penwidth=2]
    146 -> 273 [penwidth=2]
    146 -> 277 [penwidth=2]
    146 -> 180 [penwidth=2]
    146 -> 195 [penwidth=2]
    146 -> 289 [penwidth=2]
    146 -> 200 [penwidth=2]
    146 -> 173 [penwidth=2]
    146 -> 171 [penwidth=2]
    146 -> 186 [penwidth=2]
    146 -> 290 [penwidth=2]
    146 -> 165 [penwidth=2]
    146 -> 274 [penwidth=2]
    146 -> 175 [penwidth=2]
    146 -> 271 [penwidth=2]
    146 -> 282 [penwidth=2]
    146 -> 197 [penwidth=2]
    146 -> 198 [penwidth=2]
    146 -> 189 [penwidth=2]
    146 -> 278 [penwidth=2]
    146 -> 286 [penwidth=2]
    146 -> 169 [penwidth=2]
    146 -> 183 [penwidth=2]
    146 -> 281 [penwidth=2]
    146 -> 258 [penwidth=2]
    146 -> 272 [penwidth=2]
    146 -> 263 [penwidth=2]
    146 -> 179 [penwidth=2]
    149 -> 195 [penwidth=2]
    149 -> 167 [penwidth=2]
    149 -> 183 [penwidth=2]
    149 -> 262 [penwidth=2]
    149 -> 284 [penwidth=2]
    149 -> 188 [penwidth=2]
    149 -> 165 [penwidth=2]
    149 -> 169 [penwidth=2]
    149 -> 180 [penwidth=2]
    149 -> 281 [penwidth=2]
    149 -> 198 [penwidth=2]
    149 -> 272 [penwidth=2]
    149 -> 200 [penwidth=2]
    149 -> 286 [penwidth=2]
    149 -> 277 [penwidth=2]
    149 -> 263 [penwidth=2]
    149 -> 285 [penwidth=2]
    149 -> 203 [penwidth=2]
    149 -> 202 [penwidth=2]
    149 -> 283 [penwidth=2]
    149 -> 177 [penwidth=2]
    149 -> 282 [penwidth=2]
    149 -> 279 [penwidth=2]
    149 -> 171 [penwidth=2]
    149 -> 184 [penwidth=2]
    149 -> 192 [penwidth=2]
    149 -> 260 [penwidth=2]
    149 -> 181 [penwidth=2]
    149 -> 197 [penwidth=2]
    149 -> 190 [penwidth=2]
    156 -> 186 [penwidth=2]
    156 -> 281 [penwidth=2]
    156 -> 177 [penwidth=2]
    156 -> 270 [penwidth=2]
    156 -> 193 [penwidth=2]
    156 -> 286 [penwidth=2]
    156 -> 269 [penwidth=2]
    156 -> 192 [penwidth=2]
    156 -> 180 [penwidth=2]
    156 -> 266 [penwidth=2]
    156 -> 268 [penwidth=2]
    156 -> 264 [penwidth=2]
    156 -> 188 [penwidth=2]
    156 -> 190 [penwidth=2]
    156 -> 288 [penwidth=2]
    156 -> 265 [penwidth=2]
    156 -> 282 [penwidth=2]
    156 -> 189 [penwidth=2]
    156 -> 175 [penwidth=2]
    156 -> 284 [penwidth=2]
    156 -> 184 [penwidth=2]
    156 -> 283 [penwidth=2]
    156 -> 166 [penwidth=2]
    156 -> 257 [penwidth=2]
    156 -> 280 [penwidth=2]
    156 -> 285 [penwidth=2]
    156 -> 182 [penwidth=2]
    156 -> 194 [penwidth=2]
    156 -> 183 [penwidth=2]
    158 -> 187 [penwidth=2]
    158 -> 279 [penwidth=2]
    158 -> 275 [penwidth=2]
    158 -> 171 [penwidth=2]
    158 -> 190 [penwidth=2]
    158 -> 167 [penwidth=2]
    158 -> 168 [penwidth=2]
    158 -> 287 [penwidth=2]
    158 -> 189 [penwidth=2]
    158 -> 182 [penwidth=2]
    158 -> 281 [penwidth=2]
    158 -> 192 [penwidth=2]
    158 -> 179 [penwidth=2]
    158 -> 178 [penwidth=2]
    158 -> 180 [penwidth=2]
    120 -> 181 [penwidth=2]
    120 -> 201 [penwidth=2]
    120 -> 267 [penwidth=2]
    120 -> 195 [penwidth=2]
    120 -> 265 [penwidth=2]
    120 -> 200 [penwidth=2]
}