digraph G {
    0 [penwidth=3,label="0"]
    1 [penwidth=3,label="1"]
    2 [penwidth=3,label="2"]
    3 [penwidth=3,label="3"]
    4 [penwidth=3,label="4"]
    5 [penwidth=3,label="5"]
    6 [penwidth=3,label="6"]
    7 [penwidth=3,label="7"]
    8 [penwidth=3,label="8"]
    9 [penwidth=3,label="9"]
    10 [penwidth=3,label="10"]
    11 [penwidth=3,label="11"]
    12 [penwidth=3,label="12"]
    13 [penwidth=3,label="13"]
    14 [penwidth=3,label="14"]
    15 [penwidth=3,label="15"]
    16 [penwidth=3,label="16"]
    17 [penwidth=3,label="17"]
    18 [penwidth=3,label="18"]
    19 [penwidth=3,label="19"]
    20 [penwidth=3,label="20"]
    21 [penwidth=3,label="21"]
    22 [penwidth=3,label="22"]
    23 [penwidth=3,label="23"]
    24 [penwidth=3,label="24"]
    25 [penwidth=3,label="25"]
    26 [penwidth=3,label="26"]
    27 [penwidth=3,label="27"]
    28 [penwidth=3,label="28"]
    29 [penwidth=3,label="29"]
    30 [penwidth=3,label="30"]
    31 [penwidth=3,label="31"]
    32 [penwidth=3,label="32"]
    33 [penwidth=3,label="33"]
    34 [penwidth=3,label="34"]
    35 [penwidth=3,label="35"]
    36 [penwidth=3,label="36"]
    37 [penwidth=3,label="37"]
    38 [penwidth=3,label="38"]
    39 [penwidth=3,label="39"]
    40 [penwidth=3,label="40"]
    41 [penwidth=3,label="41"]
    42 [penwidth=3,label="42"]
    43 [penwidth=3,label="43"]
    44 [penwidth=3,label="44"]
    45 [penwidth=3,label="45"]
    46 [penwidth=3,label="46"]
    47 [penwidth=3,label="47"]
    48 [penwidth=3,label="48"]
    49 [penwidth=3,label="49"]
    50 [penwidth=3,label="50"]
    51 [penwidth=3,label="51"]
    52 [penwidth=3,label="52"]
    53 [penwidth=3,label="53"]
    54 [penwidth=3,label="54"]
    55 [penwidth=3,label="55"]
    56 [penwidth=3,label="56"]
    57 [penwidth=3,label="57"]
    58 [penwidth=3,label="58"]
    59 [penwidth=3,label="59"]
    60 [penwidth=3,label="60"]
    61 [penwidth=3,label="61"]
    62 [penwidth=3,label="62"]
    63 [penwidth=3,label="63"]
    64 [penwidth=3,label="64"]
    65 [penwidth=3,label="65"]
    66 [penwidth=3,label="66"]
    67 [penwidth=3,label="67"]
    68 [penwidth=3,label="68"]
    69 [penwidth=3,label="69"]
    70 [penwidth=3,label="70"]
    71 [penwidth=3,label="71"]
    72 [penwidth=3,label="72"]
    73 [penwidth=3,label="73"]
    74 [penwidth=3,label="74"]
    75 [penwidth=3,label="75"]
    76 [penwidth=3,label="76"]
    77 [penwidth=3,label="77"]
    78 [penwidth=3,label="78"]
    79 [penwidth=3,label="79"]
    80 [penwidth=3,label="80"]
    81 [penwidth=3,label="81"]
    82 [penwidth=3,label="82"]
    83 [penwidth=3,label="83"]
    84 [penwidth=3,label="84"]
    85 [penwidth=3,label="85"]
    86 [penwidth=3,label="86"]
    87 [penwidth=3,label="87"]
    88 [penwidth=3,label="88"]
    89 [penwidth=3,label="89"]
    90 [penwidth=3,label="90"]
    91 [penwidth=3,label="91"]
    92 [penwidth=3,label="92"]
    93 [penwidth=3,label="93"]
    94 [penwidth=3,label="94"]
    95 [penwidth=3,label="95"]
    96 [penwidth=3,label="96"]
    97 [penwidth=3,label="97"]
    98 [penwidth=3,label="98"]
    99 [penwidth=3,label="99"]
    100 [penwidth=3,label="100"]
    101 [penwidth=3,label="101"]
    102 [penwidth=3,label="102"]
    103 [penwidth=3,label="103"]
    104 [penwidth=3,label="104"]
    105 [penwidth=3,label="105"]
    106 [penwidth=3,label="106"]
    107 [penwidth=3,label="107"]
    108 [penwidth=3,label="108"]
    109 [penwidth=3,label="109"]
    110 [penwidth=3,label="110"]
    111 [penwidth=3,label="111"]
    112 [penwidth=3,label="112"]
    113 [penwidth=3,label="113"]
    114 [penwidth=3,label="114"]
    115 [penwidth=3,label="115"]
    116 [penwidth=3,label="116"]
    117 [penwidth=3,label="117"]
    118 [penwidth=3,label="118"]
    119 [penwidth=3,label="119"]
    120 [penwidth=3,label="120"]
    121 [penwidth=3,label="121"]
    122 [penwidth=3,label="122"]
    123 [penwidth=3,label="123"]
    124 [penwidth=3,label="124"]
    125 [penwidth=3,label="125"]
    126 [penwidth=3,label="126"]
    127 [penwidth=3,label="127"]
    128 [penwidth=3,label="128"]
    129 [penwidth=3,label="129"]
    130 [penwidth=3,label="130"]
    131 [penwidth=3,label="131"]
    132 [penwidth=3,label="132"]
    133 [penwidth=3,label="133"]
    134 [penwidth=3,label="134"]
    135 [penwidth=3,label="135"]
    136 [penwidth=3,label="136"]
    137 [penwidth=3,label="137"]
    138 [penwidth=3,label="138"]
    139 [penwidth=3,label="139"]
    140 [penwidth=3,label="140"]
    141 [penwidth=3,label="141"]
    142 [penwidth=3,label="142"]
    143 [penwidth=3,label="143"]
    144 [penwidth=3,label="144"]
    145 [penwidth=3,label="145"]
    146 [penwidth=3,label="146"]
    147 [penwidth=3,label="147"]
    148 [penwidth=3,label="148"]
    149 [penwidth=3,label="149"]
    150 [penwidth=3,label="150"]
    151 [penwidth=3,label="151"]
    152 [penwidth=3,label="152"]
    153 [penwidth=3,label="153"]
    154 [penwidth=3,label="154"]
    155 [penwidth=3,label="155"]
    156 [penwidth=3,label="156"]
    157 [penwidth=3,label="157"]
    158 [penwidth=3,label="158"]
    159 [penwidth=3,label="159"]
    160 [penwidth=3,label="160"]
    161 [penwidth=3,label="161"]
    162 [penwidth=3,label="162"]
    163 [penwidth=3,label="163"]
    164 [penwidth=3,label="164"]
    165 [penwidth=3,label="165"]
    166 [penwidth=3,label="166"]
    167 [penwidth=3,label="167"]
    168 [penwidth=3,label="168"]
    169 [penwidth=3,label="169"]
    170 [penwidth=3,label="170"]
    171 [penwidth=3,label="171"]
    172 [penwidth=3,label="172"]
    173 [penwidth=3,label="173"]
    174 [penwidth=3,label="174"]
    175 [penwidth=3,label="175"]
    176 [penwidth=3,label="176"]
    177 [penwidth=3,label="177"]
    178 [penwidth=3,label="178"]
    179 [penwidth=3,label="179"]
    180 [penwidth=3,label="180"]
    181 [penwidth=3,label="181"]
    182 [penwidth=3,label="182"]
    183 [penwidth=3,label="183"]
    184 [penwidth=3,label="184"]
    185 [penwidth=3,label="185"]
    186 [penwidth=3,label="186"]
    187 [penwidth=3,label="187"]
    188 [penwidth=3,label="188"]
    189 [penwidth=3,label="189"]
    190 [penwidth=3,label="190"]
    191 [penwidth=3,label="191"]
    192 [penwidth=3,label="192"]
    193 [penwidth=3,label="193"]
    194 [penwidth=3,label="194"]
    195 [penwidth=3,label="195"]
    196 [penwidth=3,label="196"]
    197 [penwidth=3,label="197"]
    198 [penwidth=3,label="198"]
    199 [penwidth=3,label="199"]
    200 [penwidth=3,label="200"]
    201 [penwidth=3,label="201"]
    202 [penwidth=3,label="202"]
    203 [penwidth=3,label="203"]
    204 [penwidth=3,label="204"]
    205 [penwidth=3,label="205"]
    206 [penwidth=3,label="206"]
    207 [penwidth=3,label="207"]
    208 [penwidth=3,label="208"]
    209 [penwidth=3,label="209"]
    210 [penwidth=3,label="210"]
    211 [penwidth=3,label="211"]
    212 [penwidth=3,label="212"]
    213 [penwidth=3,label="213"]
    214 [penwidth=3,label="214"]
    215 [penwidth=3,label="215"]
    216 [penwidth=3,label="216"]
    217 [penwidth=3,label="217"]
    218 [penwidth=3,label="218"]
    219 [penwidth=3,label="219"]
    220 [penwidth=3,label="220"]
    221 [penwidth=3,label="221"]
    222 [penwidth=3,label="222"]
    223 [penwidth=3,label="223"]
    224 [penwidth=3,label="224"]
    225 [penwidth=3,label="225"]
    226 [penwidth=3,label="226"]
    227 [penwidth=3,label="227"]
    228 [penwidth=3,label="228"]
    229 [penwidth=3,label="229"]
    230 [penwidth=3,label="230"]
    231 [penwidth=3,label="231"]
    232 [penwidth=3,label="232"]
    233 [penwidth=3,label="233"]
    234 [penwidth=3,label="234"]
    235 [penwidth=3,label="235"]
    236 [penwidth=3,label="236"]
    237 [penwidth=3,label="237"]
    238 [penwidth=3,label="238"]
    239 [penwidth=3,label="239"]
    240 [penwidth=3,label="240"]
    241 [penwidth=3,label="241"]
    242 [penwidth=3,label="242"]
    243 [penwidth=3,label="243"]
    244 [penwidth=3,label="244"]
    245 [penwidth=3,label="245"]
    246 [penwidth=3,label="246"]
    247 [penwidth=3,label="247"]
    248 [penwidth=3,label="248"]
    249 [penwidth=3,label="249"]
    250 [penwidth=3,label="250"]
    251 [penwidth=3,label="251"]
    252 [penwidth=3,label="252"]
    253 [penwidth=3,label="253"]
    254 [penwidth=3,label="254"]
    255 [penwidth=3,label="255"]
    256 [penwidth=3,label="256"]
    257 [penwidth=3,label="257"]
    258 [penwidth=3,label="258"]
    259 [penwidth=3,label="259"]
    260 [penwidth=3,label="260"]
    261 [penwidth=3,label="261"]
    262 [penwidth=3,label="262"]
    263 [penwidth=3,label="263"]
    264 [penwidth=3,label="264"]
    265 [penwidth=3,label="265"]
    266 [penwidth=3,label="266"]
    267 [penwidth=3,label="267"]
    268 [penwidth=3,label="268"]
    269 [penwidth=3,label="269"]
    270 [penwidth=3,label="270"]
    271 [penwidth=3,label="271"]
    272 [penwidth=3,label="272"]
    273 [penwidth=3,label="273"]
    274 [penwidth=3,label="274"]
    275 [penwidth=3,label="275"]
    276 [penwidth=3,label="276"]
    277 [penwidth=3,label="277"]
    278 [penwidth=3,label="278"]
    279 [penwidth=3,label="279"]
    280 [penwidth=3,label="280"]
    281 [penwidth=3,label="281"]
    282 [penwidth=3,label="282"]
    283 [penwidth=3,label="283"]
    284 [penwidth=3,label="284"]
    285 [penwidth=3,label="285"]
    286 [penwidth=3,label="286"]
    287 [penwidth=3,label="287"]
    288 [penwidth=3,label="288"]
    289 [penwidth=3,label="289"]
    290 [penwidth=3,label="290"]
    291 [penwidth=3,label="291"]
    292 [penwidth=3,label="292"]
    293 [penwidth=3,label="293"]
    294 [penwidth=3,label="294"]
    295 [penwidth=3,label="295"]
    296 [penwidth=3,label="296"]
    297 [penwidth=3,label="297"]
    298 [penwidth=3,label="298"]
    299 [penwidth=3,label="299"]
    300 [penwidth=3,label="300"]
    301 [penwidth=3,label="301"]
    302 [penwidth=3,label="302"]
    303 [penwidth=3,label="303"]
    304 [penwidth=3,label="304"]
    305 [penwidth=3,label="305"]
    306 [penwidth=3,label="306"]
    307 [penwidth=3,label="307"]
    308 [penwidth=3,label="308"]
    309 [penwidth=3,label="309"]

    22 -> 0 [penwidth=2]
    64 -> 0 [penwidth=2]
    23 -> 22 [penwidth=2]
    65 -> 22 [penwidth=2]
    24 -> 22 [penwidth=2]
    66 -> 22 [penwidth=2]
    25 -> 22 [penwidth=2]
    67 -> 22 [penwidth=2]
    26 -> 22 [penwidth=2]
    68 -> 22 [penwidth=2]
    27 -> 22 [penwidth=2]
    69 -> 22 [penwidth=2]
    28 -> 23 [penwidth=2]
    70 -> 23 [penwidth=2]
    29 -> 23 [penwidth=2]
    71 -> 23 [penwidth=2]
    30 -> 23 [penwidth=2]
    72 -> 23 [penwidth=2]
    31 -> 23 [penwidth=2]
    73 -> 23 [penwidth=2]
    32 -> 23 [penwidth=2]
    74 -> 23 [penwidth=2]
    33 -> 23 [penwidth=2]
    75 -> 23 [penwidth=2]
    34 -> 23 [penwidth=2]
    76 -> 23 [penwidth=2]
    35 -> 23 [penwidth=2]
    77 -> 23 [penwidth=2]
    36 -> 23 [penwidth=2]
    78 -> 23 [penwidth=2]
    37 -> 23 [penwidth=2]
    79 -> 23 [penwidth=2]
    38 -> 23 [penwidth=2]
    80 -> 23 [penwidth=2]
    39 -> 23 [penwidth=2]
    81 -> 65 [penwidth=2]
    40 -> 65 [penwidth=2]
    82 -> 65 [penwidth=2]
    41 -> 65 [penwidth=2]
    83 -> 65 [penwidth=2]
    42 -> 65 [penwidth=2]
    84 -> 65 [penwidth=2]
    43 -> 65 [penwidth=2]
    85 -> 65 [penwidth=2]
    44 -> 65 [penwidth=2]
    86 -> 65 [penwidth=2]
    45 -> 65 [penwidth=2]
    87 -> 65 [penwidth=2]
    46 -> 65 [penwidth=2]
    88 -> 65 [penwidth=2]
    47 -> 65 [penwidth=2]
    89 -> 24 [penwidth=2]
    48 -> 24 [penwidth=2]
    90 -> 24 [penwidth=2]
    49 -> 66 [penwidth=2]
    91 -> 66 [penwidth=2]
    50 -> 66 [penwidth=2]
    92 -> 66 [penwidth=2]
    51 -> 66 [penwidth=2]
    93 -> 66 [penwidth=2]
    52 -> 66 [penwidth=2]
    94 -> 66 [penwidth=2]
    53 -> 66 [penwidth=2]
    95 -> 66 [penwidth=2]
    54 -> 66 [penwidth=2]
    96 -> 66 [penwidth=2]
    55 -> 66 [penwidth=2]
    97 -> 66 [penwidth=2]
    56 -> 66 [penwidth=2]
    98 -> 66 [penwidth=2]
    57 -> 66 [penwidth=2]
    99 -> 25 [penwidth=2]
    58 -> 25 [penwidth=2]
    100 -> 67 [penwidth=2]
    59 -> 67 [penwidth=2]
    101 -> 67 [penwidth=2]
    60 -> 67 [penwidth=2]
    102 -> 67 [penwidth=2]
    61 -> 67 [penwidth=2]
    103 -> 67 [penwidth=2]
    62 -> 67 [penwidth=2]
    104 -> 67 [penwidth=2]
    63 -> 67 [penwidth=2]
    105 -> 67 [penwidth=2]
    1 -> 67 [penwidth=2]
    2 -> 67 [penwidth=2]
    3 -> 67 [penwidth=2]
    4 -> 67 [penwidth=2]
    5 -> 67 [penwidth=2]
    6 -> 26 [penwidth=2]
    7 -> 26 [penwidth=2]
    8 -> 26 [penwidth=2]
    9 -> 26 [penwidth=2]
    10 -> 26 [penwidth=2]
    11 -> 26 [penwidth=2]
    12 -> 26 [penwidth=2]
    13 -> 26 [penwidth=2]
    14 -> 26 [penwidth=2]
    15 -> 26 [penwidth=2]
    16 -> 26 [penwidth=2]
    17 -> 26 [penwidth=2]
    18 -> 26 [penwidth=2]
    19 -> 26 [penwidth=2]
    20 -> 26 [penwidth=2]
    21 -> 26 [penwidth=2]
    274 -> 26 [penwidth=2]
    275 -> 26 [penwidth=2]
    276 -> 26 [penwidth=2]
    277 -> 26 [penwidth=2]
    278 -> 26 [penwidth=2]
    279 -> 26 [penwidth=2]
    280 -> 68 [penwidth=2]
    281 -> 68 [penwidth=2]
    282 -> 68 [penwidth=2]
    283 -> 68 [penwidth=2]
    284 -> 68 [penwidth=2]
    285 -> 68 [penwidth=2]
    286 -> 27 [penwidth=2]
    287 -> 27 [penwidth=2]
    288 -> 27 [penwidth=2]
    289 -> 27 [penwidth=2]
    290 -> 27 [penwidth=2]
    291 -> 27 [penwidth=2]
    292 -> 27 [penwidth=2]
    293 -> 27 [penwidth=2]
    294 -> 27 [penwidth=2]
    295 -> 27 [penwidth=2]
    296 -> 27 [penwidth=2]
    297 -> 27 [penwidth=2]
    298 -> 27 [penwidth=2]
    299 -> 27 [penwidth=2]
    300 -> 27 [penwidth=2]
    301 -> 27 [penwidth=2]
    302 -> 27 [penwidth=2]
    303 -> 27 [penwidth=2]
    304 -> 27 [penwidth=2]
    305 -> 27 [penwidth=2]
    306 -> 27 [penwidth=2]
    307 -> 27 [penwidth=2]
    308 -> 27 [penwidth=2]
    309 -> 27 [penwidth=2]
    232 -> 27 [penwidth=2]
    233 -> 27 [penwidth=2]
    234 -> 69 [penwidth=2]
    235 -> 69 [penwidth=2]
    236 -> 69 [penwidth=2]
    237 -> 69 [penwidth=2]
    238 -> 69 [penwidth=2]
    239 -> 69 [penwidth=2]
    240 -> 69 [penwidth=2]
    241 -> 69 [penwidth=2]
    242 -> 69 [penwidth=2]
    243 -> 69 [penwidth=2]
    244 -> 69 [penwidth=2]
    245 -> 28 [penwidth=2]
    246 -> 28 [penwidth=2]
    247 -> 28 [penwidth=2]
    248 -> 28 [penwidth=2]
    249 -> 28 [penwidth=2]
    250 -> 28 [penwidth=2]
    251 -> 28 [penwidth=2]
    252 -> 70 [penwidth=2]
    253 -> 70 [penwidth=2]
    254 -> 70 [penwidth=2]
    255 -> 70 [penwidth=2]
    256 -> 70 [penwidth=2]
    257 -> 70 [penwidth=2]
    258 -> 70 [penwidth=2]
    259 -> 70 [penwidth=2]
    260 -> 70 [penwidth=2]
    261 -> 70 [penwidth=2]
    262 -> 70 [penwidth=2]
    263 -> 70 [penwidth=2]
    264 -> 70 [penwidth=2]
    265 -> 70 [penwidth=2]
    266 -> 71 [penwidth=2]
    267 -> 71 [penwidth=2]
    268 -> 71 [penwidth=2]
    269 -> 71 [penwidth=2]
    270 -> 71 [penwidth=2]
    271 -> 71 [penwidth=2]
    272 -> 71 [penwidth=2]
    273 -> 71 [penwidth=2]
    148 -> 71 [penwidth=2]
    190 -> 71 [penwidth=2]
    149 -> 71 [penwidth=2]
    191 -> 71 [penwidth=2]
    150 -> 71 [penwidth=2]
    192 -> 30 [penwidth=2]
    151 -> 30 [penwidth=2]
    193 -> 30 [penwidth=2]
    152 -> 30 [penwidth=2]
    194 -> 30 [penwidth=2]
    153 -> 30 [penwidth=2]
    195 -> 30 [penwidth=2]
    154 -> 30 [penwidth=2]
    196 -> 30 [penwidth=2]
    155 -> 30 [penwidth=2]
    197 -> 30 [penwidth=2]
    156 -> 30 [penwidth=2]
    198 -> 30 [penwidth=2]
    157 -> 30 [penwidth=2]
    199 -> 30 [penwidth=2]
    158 -> 30 [penwidth=2]
    200 -> 30 [penwidth=2]
    159 -> 72 [penwidth=2]
    201 -> 31 [penwidth=2]
    160 -> 31 [penwidth=2]
    202 -> 31 [penwidth=2]
    161 -> 31 [penwidth=2]
    203 -> 31 [penwidth=2]
    162 -> 31 [penwidth=2]
    204 -> 31 [penwidth=2]
    163 -> 31 [penwidth=2]
    205 -> 31 [penwidth=2]
    164 -> 31 [penwidth=2]
    206 -> 31 [penwidth=2]
    165 -> 31 [penwidth=2]
    207 -> 31 [penwidth=2]
    166 -> 31 [penwidth=2]
    208 -> 31 [penwidth=2]
    167 -> 31 [penwidth=2]
    209 -> 31 [penwidth=2]
    168 -> 31 [penwidth=2]
    210 -> 31 [penwidth=2]
    169 -> 31 [penwidth=2]
    211 -> 31 [penwidth=2]
    170 -> 73 [penwidth=2]
    212 -> 73 [penwidth=2]
    171 -> 73 [penwidth=2]
    213 -> 73 [penwidth=2]
    172 -> 73 [penwidth=2]
    214 -> 73 [penwidth=2]
    173 -> 73 [penwidth=2]
    215 -> 73 [penwidth=2]
    174 -> 73 [penwidth=2]
    216 -> 73 [penwidth=2]
    175 -> 32 [penwidth=2]
    217 -> 32 [penwidth=2]
    176 -> 32 [penwidth=2]
    218 -> 32 [penwidth=2]
    177 -> 32 [penwidth=2]
    219 -> 32 [penwidth=2]
    178 -> 32 [penwidth=2]
    220 -> 32 [penwidth=2]
    179 -> 32 [penwidth=2]
    221 -> 32 [penwidth=2]
    180 -> 32 [penwidth=2]
    222 -> 32 [penwidth=2]
    181 -> 32 [penwidth=2]
    223 -> 32 [penwidth=2]
    182 -> 74 [penwidth=2]
    224 -> 74 [penwidth=2]
    183 -> 74 [penwidth=2]
    225 -> 74 [penwidth=2]
    184 -> 74 [penwidth=2]
    226 -> 74 [penwidth=2]
    185 -> 74 [penwidth=2]
    227 -> 33 [penwidth=2]
    186 -> 33 [penwidth=2]
    228 -> 33 [penwidth=2]
    187 -> 33 [penwidth=2]
    229 -> 33 [penwidth=2]
    188 -> 33 [penwidth=2]
    230 -> 33 [penwidth=2]
    189 -> 33 [penwidth=2]
    231 -> 33 [penwidth=2]
    106 -> 33 [penwidth=2]
    107 -> 33 [penwidth=2]
    108 -> 33 [penwidth=2]
    109 -> 33 [penwidth=2]
    110 -> 33 [penwidth=2]
    111 -> 33 [penwidth=2]
    112 -> 33 [penwidth=2]
    113 -> 33 [penwidth=2]
    114 -> 33 [penwidth=2]
    115 -> 33 [penwidth=2]
    116 -> 33 [penwidth=2]
    117 -> 33 [penwidth=2]
    118 -> 33 [penwidth=2]
    119 -> 33 [penwidth=2]
    120 -> 33 [penwidth=2]
    121 -> 75 [penwidth=2]
    122 -> 75 [penwidth=2]
    123 -> 75 [penwidth=2]
    124 -> 34 [penwidth=2]
    125 -> 34 [penwidth=2]
    126 -> 34 [penwidth=2]
    127 -> 34 [penwidth=2]
    128 -> 34 [penwidth=2]
    129 -> 34 [penwidth=2]
    130 -> 34 [penwidth=2]
    131 -> 34 [penwidth=2]
    132 -> 34 [penwidth=2]
    133 -> 34 [penwidth=2]
    134 -> 34 [penwidth=2]
    135 -> 34 [penwidth=2]
    136 -> 34 [penwidth=2]
    137 -> 34 [penwidth=2]
    138 -> 34 [penwidth=2]
    139 -> 34 [penwidth=2]
    140 -> 34 [penwidth=2]
    141 -> 34 [penwidth=2]
    142 -> 34 [penwidth=2]
    143 -> 34 [penwidth=2]
    144 -> 34 [penwidth=2]
    145 -> 34 [penwidth=2]
    146 -> 34 [penwidth=2]
    147 -> 34 [penwidth=2]
    75 -> 69 [penwidth=2]
    75 -> 27 [penwidth=2]
    84 -> 25 [penwidth=2]
    84 -> 26 [penwidth=2]
    50 -> 24 [penwidth=2]
    50 -> 27 [penwidth=2]
    50 -> 23 [penwidth=2]
    50 -> 25 [penwidth=2]
    50 -> 68 [penwidth=2]
    50 -> 26 [penwidth=2]
    101 -> 69 [penwidth=2]
    101 -> 24 [penwidth=2]
    101 -> 68 [penwidth=2]
    102 -> 24 [penwidth=2]
    102 -> 65 [penwidth=2]
    103 -> 68 [penwidth=2]
    104 -> 23 [penwidth=2]
    104 -> 26 [penwidth=2]
    104 -> 66 [penwidth=2]
    104 -> 65 [penwidth=2]
    104 -> 25 [penwidth=2]
    104 -> 27 [penwidth=2]
    105 -> 66 [penwidth=2]
    105 -> 27 [penwidth=2]
    105 -> 69 [penwidth=2]
    105 -> 65 [penwidth=2]
    105 -> 25 [penwidth=2]
    13 -> 24 [penwidth=2]
    13 -> 66 [penwidth=2]
    13 -> 25 [penwidth=2]
    13 -> 23 [penwidth=2]
    13 -> 27 [penwidth=2]
    13 -> 67 [penwidth=2]
    13 -> 68 [penwidth=2]
    277 -> 24 [penwidth=2]
    277 -> 65 [penwidth=2]
    277 -> 67 [penwidth=2]
    277 -> 66 [penwidth=2]
    277 -> 69 [penwidth=2]
    277 -> 27 [penwidth=2]
    277 -> 23 [penwidth=2]
    277 -> 25 [penwidth=2]
    289 -> 68 [penwidth=2]
    289 -> 23 [penwidth=2]
    289 -> 67 [penwidth=2]
    289 -> 24 [penwidth=2]
    289 -> 69 [penwidth=2]
    289 -> 25 [penwidth=2]
    291 -> 25 [penwidth=2]
    291 -> 69 [penwidth=2]
    295 -> 26 [penwidth=2]
    295 -> 69 [penwidth=2]
    295 -> 25 [penwidth=2]
    295 -> 67 [penwidth=2]
    295 -> 66 [penwidth=2]
    299 -> 66 [penwidth=2]
    299 -> 25 [penwidth=2]
    299 -> 65 [penwidth=2]
    299 -> 68 [penwidth=2]
    306 -> 65 [penwidth=2]
    306 -> 26 [penwidth=2]
    236 -> 24 [penwidth=2]
    236 -> 25 [penwidth=2]
    236 -> 66 [penwidth=2]
    236 -> 27 [penwidth=2]
    239 -> 65 [penwidth=2]
    239 -> 26 [penwidth=2]
    241 -> 25 [penwidth=2]
    242 -> 66 [penwidth=2]
    242 -> 65 [penwidth=2]
    242 -> 26 [penwidth=2]
    242 -> 25 [penwidth=2]
    242 -> 68 [penwidth=2]
    242 -> 27 [penwidth=2]
    249 -> 18 [penwidth=2]
    249 -> 293 [penwidth=2]
    249 -> 48 [penwidth=2]
    249 -> 41 [penwidth=2]
    249 -> 16 [penwidth=2]
    249 -> 37 [penwidth=2]
    249 -> 2 [penwidth=2]
    249 -> 307 [penwidth=2]
    249 -> 75 [penwidth=2]
    249 -> 85 [penwidth=2]
    249 -> 56 [penwidth=2]
    249 -> 29 [penwidth=2]
    249 -> 286 [penwidth=2]
    249 -> 289 [penwidth=2]
    249 -> 1 [penwidth=2]
    249 -> 274 [penwidth=2]
    249 -> 302 [penwidth=2]
    249 -> 81 [penwidth=2]
    249 -> 97 [penwidth=2]
    249 -> 35 [penwidth=2]
    249 -> 281 [penwidth=2]
    249 -> 93 [penwidth=2]
    249 -> 243 [penwidth=2]
    249 -> 7 [penwidth=2]
    249 -> 304 [penwidth=2]
    249 -> 52 [penwidth=2]
    249 -> 71 [penwidth=2]
    249 -> 276 [penwidth=2]
    249 -> 233 [penwidth=2]
    249 -> 295 [penwidth=2]
    249 -> 4 [penwidth=2]
    249 -> 6 [penwidth=2]
    249 -> 62 [penwidth=2]
    249 -> 53 [penwidth=2]
    249 -> 44 [penwidth=2]
    249 -> 100 [penwidth=2]
    249 -> 5 [penwidth=2]
    249 -> 60 [penwidth=2]
    249 -> 238 [penwidth=2]
    249 -> 59 [penwidth=2]
    249 -> 47 [penwidth=2]
    249 -> 283 [penwidth=2]
    249 -> 291 [penwidth=2]
    249 -> 3 [penwidth=2]
    249 -> 80 [penwidth=2]
    249 -> 300 [penwidth=2]
    249 -> 104 [penwidth=2]
    249 -> 232 [penwidth=2]
    249 -> 306 [penwidth=2]
    249 -> 301 [penwidth=2]
    249 -> 94 [penwidth=2]
    249 -> 36 [penwidth=2]
    249 -> 78 [penwidth=2]
    249 -> 102 [penwidth=2]
    249 -> 40 [penwidth=2]
    249 -> 280 [penwidth=2]
    249 -> 45 [penwidth=2]
    249 -> 31 [penwidth=2]
    249 -> 91 [penwidth=2]
    249 -> 240 [penwidth=2]
    249 -> 237 [penwidth=2]
    249 -> 241 [penwidth=2]
    249 -> 308 [penwidth=2]
    249 -> 50 [penwidth=2]
    249 -> 83 [penwidth=2]
    249 -> 72 [penwidth=2]
    249 -> 12 [penwidth=2]
    249 -> 244 [penwidth=2]
    249 -> 234 [penwidth=2]
    249 -> 88 [penwidth=2]
    249 -> 10 [penwidth=2]
    249 -> 55 [penwidth=2]
    249 -> 299 [penwidth=2]
    249 -> 287 [penwidth=2]
    249 -> 90 [penwidth=2]
    249 -> 288 [penwidth=2]
    249 -> 54 [penwidth=2]
    249 -> 290 [penwidth=2]
    249 -> 294 [penwidth=2]
    249 -> 82 [penwidth=2]
    249 -> 43 [penwidth=2]
    249 -> 303 [penwidth=2]
    249 -> 84 [penwidth=2]
    249 -> 17 [penwidth=2]
    249 -> 49 [penwidth=2]
    249 -> 57 [penwidth=2]
    249 -> 89 [penwidth=2]
    249 -> 279 [penwidth=2]
    249 -> 87 [penwidth=2]
    249 -> 61 [penwidth=2]
    249 -> 51 [penwidth=2]
    249 -> 86 [penwidth=2]
    249 -> 309 [penwidth=2]
    249 -> 34 [penwidth=2]
    249 -> 30 [penwidth=2]
    249 -> 79 [penwidth=2]
    249 -> 235 [penwidth=2]
    249 -> 96 [penwidth=2]
    249 -> 239 [penwidth=2]
    249 -> 277 [penwidth=2]
    249 -> 58 [penwidth=2]
    249 -> 236 [penwidth=2]
    249 -> 32 [penwidth=2]
    249 -> 42 [penwidth=2]
    249 -> 20 [penwidth=2]
    249 -> 15 [penwidth=2]
    249 -> 14 [penwidth=2]
    249 -> 297 [penwidth=2]
    249 -> 19 [penwidth=2]
    249 -> 38 [penwidth=2]
    249 -> 298 [penwidth=2]
    249 -> 305 [penwidth=2]
    249 -> 103 [penwidth=2]
    249 -> 21 [penwidth=2]
    249 -> 63 [penwidth=2]
    249 -> 70 [penwidth=2]
    249 -> 73 [penwidth=2]
    249 -> 13 [penwidth=2]
    249 -> 242 [penwidth=2]
    249 -> 39 [penwidth=2]
    249 -> 105 [penwidth=2]
    249 -> 292 [penwidth=2]
    249 -> 278 [penwidth=2]
    273 -> 86 [penwidth=2]
    273 -> 96 [penwidth=2]
    273 -> 308 [penwidth=2]
    273 -> 241 [penwidth=2]
    273 -> 304 [penwidth=2]
    273 -> 88 [penwidth=2]
    273 -> 36 [penwidth=2]
    273 -> 77 [penwidth=2]
    273 -> 15 [penwidth=2]
    273 -> 235 [penwidth=2]
    273 -> 4 [penwidth=2]
    273 -> 300 [penwidth=2]
    273 -> 54 [penwidth=2]
    273 -> 42 [penwidth=2]
    273 -> 237 [penwidth=2]
    273 -> 244 [penwidth=2]
    273 -> 3 [penwidth=2]
    273 -> 82 [penwidth=2]
    273 -> 94 [penwidth=2]
    273 -> 297 [penwidth=2]
    273 -> 12 [penwidth=2]
    273 -> 92 [penwidth=2]
    273 -> 302 [penwidth=2]
    273 -> 99 [penwidth=2]
    273 -> 238 [penwidth=2]
    273 -> 242 [penwidth=2]
    273 -> 44 [penwidth=2]
    273 -> 13 [penwidth=2]
    273 -> 232 [penwidth=2]
    273 -> 280 [penwidth=2]
    273 -> 72 [penwidth=2]
    273 -> 89 [penwidth=2]
    273 -> 83 [penwidth=2]
    273 -> 8 [penwidth=2]
    273 -> 37 [penwidth=2]
    273 -> 45 [penwidth=2]
    273 -> 62 [penwidth=2]
    273 -> 52 [penwidth=2]
    273 -> 277 [penwidth=2]
    273 -> 21 [penwidth=2]
    273 -> 28 [penwidth=2]
    273 -> 35 [penwidth=2]
    273 -> 286 [penwidth=2]
    273 -> 103 [penwidth=2]
    273 -> 19 [penwidth=2]
    273 -> 57 [penwidth=2]
    273 -> 295 [penwidth=2]
    273 -> 10 [penwidth=2]
    273 -> 306 [penwidth=2]
    273 -> 78 [penwidth=2]
    273 -> 50 [penwidth=2]
    273 -> 105 [penwidth=2]
    273 -> 289 [penwidth=2]
    273 -> 7 [penwidth=2]
    273 -> 46 [penwidth=2]
    273 -> 236 [penwidth=2]
    273 -> 90 [penwidth=2]
    273 -> 20 [penwidth=2]
    273 -> 95 [penwidth=2]
    273 -> 5 [penwidth=2]
    273 -> 30 [penwidth=2]
    273 -> 38 [penwidth=2]
    273 -> 39 [penwidth=2]
    273 -> 55 [penwidth=2]
    273 -> 84 [penwidth=2]
    273 -> 73 [penwidth=2]
    273 -> 51 [penwidth=2]
    273 -> 76 [penwidth=2]
    273 -> 294 [penwidth=2]
    273 -> 9 [penwidth=2]
    273 -> 287 [penwidth=2]
    273 -> 101 [penwidth=2]
    273 -> 301 [penwidth=2]
    273 -> 91 [penwidth=2]
    273 -> 282 [penwidth=2]
    273 -> 47 [penwidth=2]
    273 -> 284 [penwidth=2]
    273 -> 279 [penwidth=2]
    273 -> 285 [penwidth=2]
    273 -> 275 [penwidth=2]
    273 -> 2 [penwidth=2]
    273 -> 307 [penwidth=2]
    273 -> 296 [penwidth=2]
    273 -> 40 [penwidth=2]
    273 -> 283 [penwidth=2]
    273 -> 274 [penwidth=2]
    273 -> 34 [penwidth=2]
    273 -> 291 [penwidth=2]
    273 -> 61 [penwidth=2]
    273 -> 281 [penwidth=2]
    273 -> 29 [penwidth=2]
    273 -> 303 [penwidth=2]
    273 -> 6 [penwidth=2]
    273 -> 1 [penwidth=2]
    273 -> 17 [penwidth=2]
    273 -> 97 [penwidth=2]
    190 -> 58 [penwidth=2]
    190 -> 297 [penwidth=2]
    190 -> 17 [penwidth=2]
    190 -> 5 [penwidth=2]
    190 -> 43 [penwidth=2]
    190 -> 50 [penwidth=2]
    190 -> 235 [penwidth=2]
    190 -> 306 [penwidth=2]
    190 -> 75 [penwidth=2]
    190 -> 240 [penwidth=2]
    190 -> 236 [penwidth=2]
    190 -> 73 [penwidth=2]
    190 -> 60 [penwidth=2]
    190 -> 12 [penwidth=2]
    190 -> 279 [penwidth=2]
    190 -> 303 [penwidth=2]
    190 -> 294 [penwidth=2]
    190 -> 21 [penwidth=2]
    190 -> 308 [penwidth=2]
    190 -> 13 [penwidth=2]
    190 -> 289 [penwidth=2]
    190 -> 57 [penwidth=2]
    190 -> 291 [penwidth=2]
    190 -> 44 [penwidth=2]
    190 -> 63 [penwidth=2]
    190 -> 281 [penwidth=2]
    190 -> 79 [penwidth=2]
    190 -> 42 [penwidth=2]
    190 -> 56 [penwidth=2]
    190 -> 91 [penwidth=2]
    190 -> 104 [penwidth=2]
    190 -> 94 [penwidth=2]
    190 -> 2 [penwidth=2]
    190 -> 18 [penwidth=2]
    190 -> 47 [penwidth=2]
    190 -> 52 [penwidth=2]
    190 -> 286 [penwidth=2]
    190 -> 1 [penwidth=2]
    190 -> 295 [penwidth=2]
    190 -> 283 [penwidth=2]
    190 -> 48 [penwidth=2]
    190 -> 293 [penwidth=2]
    190 -> 86 [penwidth=2]
    190 -> 244 [penwidth=2]
    190 -> 85 [penwidth=2]
    190 -> 103 [penwidth=2]
    190 -> 96 [penwidth=2]
    190 -> 100 [penwidth=2]
    190 -> 72 [penwidth=2]
    190 -> 298 [penwidth=2]
    190 -> 82 [penwidth=2]
    190 -> 20 [penwidth=2]
    190 -> 284 [penwidth=2]
    190 -> 46 [penwidth=2]
    190 -> 242 [penwidth=2]
    190 -> 54 [penwidth=2]
    190 -> 19 [penwidth=2]
    190 -> 234 [penwidth=2]
    190 -> 53 [penwidth=2]
    190 -> 41 [penwidth=2]
    190 -> 83 [penwidth=2]
    190 -> 40 [penwidth=2]
    190 -> 275 [penwidth=2]
    190 -> 292 [penwidth=2]
    190 -> 70 [penwidth=2]
    190 -> 80 [penwidth=2]
    190 -> 34 [penwidth=2]
    190 -> 7 [penwidth=2]
    190 -> 99 [penwidth=2]
    190 -> 282 [penwidth=2]
    190 -> 59 [penwidth=2]
    190 -> 237 [penwidth=2]
    190 -> 32 [penwidth=2]
    190 -> 49 [penwidth=2]
    190 -> 36 [penwidth=2]
    190 -> 300 [penwidth=2]
    190 -> 16 [penwidth=2]
    190 -> 304 [penwidth=2]
    190 -> 89 [penwidth=2]
    190 -> 9 [penwidth=2]
    190 -> 76 [penwidth=2]
    190 -> 84 [penwidth=2]
    190 -> 92 [penwidth=2]
    190 -> 307 [penwidth=2]
    190 -> 285 [penwidth=2]
    190 -> 38 [penwidth=2]
    190 -> 296 [penwidth=2]
    190 -> 14 [penwidth=2]
    190 -> 232 [penwidth=2]
    190 -> 239 [penwidth=2]
    190 -> 15 [penwidth=2]
    190 -> 299 [penwidth=2]
    190 -> 28 [penwidth=2]
    190 -> 88 [penwidth=2]
    190 -> 81 [penwidth=2]
    190 -> 30 [penwidth=2]
    190 -> 95 [penwidth=2]
    190 -> 98 [penwidth=2]
    190 -> 277 [penwidth=2]
    190 -> 3 [penwidth=2]
    190 -> 290 [penwidth=2]
    190 -> 280 [penwidth=2]
    190 -> 8 [penwidth=2]
    190 -> 101 [penwidth=2]
    190 -> 55 [penwidth=2]
    190 -> 31 [penwidth=2]
    190 -> 233 [penwidth=2]
    190 -> 11 [penwidth=2]
    190 -> 238 [penwidth=2]
    190 -> 305 [penwidth=2]
    190 -> 78 [penwidth=2]
    190 -> 37 [penwidth=2]
    190 -> 45 [penwidth=2]
    153 -> 276 [penwidth=2]
    153 -> 31 [penwidth=2]
    153 -> 89 [penwidth=2]
    153 -> 288 [penwidth=2]
    153 -> 280 [penwidth=2]
    153 -> 296 [penwidth=2]
    153 -> 45 [penwidth=2]
    153 -> 295 [penwidth=2]
    153 -> 37 [penwidth=2]
    153 -> 56 [penwidth=2]
    153 -> 34 [penwidth=2]
    153 -> 104 [penwidth=2]
    153 -> 90 [penwidth=2]
    153 -> 2 [penwidth=2]
    153 -> 300 [penwidth=2]
    153 -> 233 [penwidth=2]
    153 -> 35 [penwidth=2]
    153 -> 239 [penwidth=2]
    153 -> 75 [penwidth=2]
    153 -> 93 [penwidth=2]
    153 -> 53 [penwidth=2]
    153 -> 94 [penwidth=2]
    153 -> 36 [penwidth=2]
    153 -> 3 [penwidth=2]
    153 -> 43 [penwidth=2]
    153 -> 17 [penwidth=2]
    153 -> 88 [penwidth=2]
    153 -> 275 [penwidth=2]
    153 -> 241 [penwidth=2]
    153 -> 74 [penwidth=2]
    153 -> 42 [penwidth=2]
    153 -> 61 [penwidth=2]
    153 -> 6 [penwidth=2]
    153 -> 15 [penwidth=2]
    153 -> 54 [penwidth=2]
    153 -> 28 [penwidth=2]
    153 -> 100 [penwidth=2]
    153 -> 304 [penwidth=2]
    153 -> 284 [penwidth=2]
    153 -> 20 [penwidth=2]
    153 -> 46 [penwidth=2]
    153 -> 7 [penwidth=2]
    153 -> 282 [penwidth=2]
    153 -> 76 [penwidth=2]
    153 -> 16 [penwidth=2]
    153 -> 49 [penwidth=2]
    153 -> 232 [penwidth=2]
    153 -> 309 [penwidth=2]
    153 -> 12 [penwidth=2]
    153 -> 59 [penwidth=2]
    153 -> 98 [penwidth=2]
    153 -> 303 [penwidth=2]
    153 -> 286 [penwidth=2]
    153 -> 78 [penwidth=2]
    153 -> 73 [penwidth=2]
    153 -> 103 [penwidth=2]
    153 -> 71 [penwidth=2]
    153 -> 305 [penwidth=2]
    153 -> 285 [penwidth=2]
    153 -> 85 [penwidth=2]
    153 -> 87 [penwidth=2]
    153 -> 290 [penwidth=2]
    153 -> 70 [penwidth=2]
    153 -> 242 [penwidth=2]
    153 -> 236 [penwidth=2]
    153 -> 8 [penwidth=2]
    153 -> 5 [penwidth=2]
    153 -> 292 [penwidth=2]
    153 -> 281 [penwidth=2]
    153 -> 51 [penwidth=2]
    153 -> 302 [penwidth=2]
    153 -> 55 [penwidth=2]
    153 -> 19 [penwidth=2]
    153 -> 47 [penwidth=2]
    153 -> 72 [penwidth=2]
    153 -> 92 [penwidth=2]
    153 -> 291 [penwidth=2]
    153 -> 4 [penwidth=2]
    153 -> 11 [penwidth=2]
    153 -> 40 [penwidth=2]
    153 -> 279 [penwidth=2]
    153 -> 80 [penwidth=2]
    153 -> 9 [penwidth=2]
    153 -> 77 [penwidth=2]
    153 -> 240 [penwidth=2]
    153 -> 293 [penwidth=2]
    153 -> 18 [penwidth=2]
    153 -> 294 [penwidth=2]
    153 -> 283 [penwidth=2]
    153 -> 97 [penwidth=2]
    153 -> 21 [penwidth=2]
    153 -> 39 [penwidth=2]
    153 -> 243 [penwidth=2]
    153 -> 299 [penwidth=2]
    153 -> 48 [penwidth=2]
    153 -> 81 [penwidth=2]
    155 -> 237 [penwidth=2]
    155 -> 14 [penwidth=2]
    155 -> 51 [penwidth=2]
    155 -> 63 [penwidth=2]
    155 -> 5 [penwidth=2]
    155 -> 89 [penwidth=2]
    155 -> 303 [penwidth=2]
    155 -> 279 [penwidth=2]
    155 -> 99 [penwidth=2]
    155 -> 102 [penwidth=2]
    155 -> 77 [penwidth=2]
    155 -> 289 [penwidth=2]
    155 -> 41 [penwidth=2]
    155 -> 95 [penwidth=2]
    155 -> 309 [penwidth=2]
    155 -> 73 [penwidth=2]
    155 -> 70 [penwidth=2]
    155 -> 91 [penwidth=2]
    155 -> 71 [penwidth=2]
    155 -> 306 [penwidth=2]
    155 -> 2 [penwidth=2]
    155 -> 3 [penwidth=2]
    155 -> 48 [penwidth=2]
    155 -> 88 [penwidth=2]
    155 -> 239 [penwidth=2]
    155 -> 298 [penwidth=2]
    155 -> 55 [penwidth=2]
    155 -> 104 [penwidth=2]
    155 -> 302 [penwidth=2]
    155 -> 44 [penwidth=2]
    155 -> 86 [penwidth=2]
    155 -> 234 [penwidth=2]
    155 -> 50 [penwidth=2]
    155 -> 294 [penwidth=2]
    158 -> 294 [penwidth=2]
    158 -> 3 [penwidth=2]
    158 -> 288 [penwidth=2]
    158 -> 56 [penwidth=2]
    158 -> 291 [penwidth=2]
    158 -> 93 [penwidth=2]
    158 -> 242 [penwidth=2]
    158 -> 37 [penwidth=2]
    158 -> 301 [penwidth=2]
    158 -> 34 [penwidth=2]
    158 -> 290 [penwidth=2]
    158 -> 59 [penwidth=2]
    158 -> 74 [penwidth=2]
    158 -> 80 [penwidth=2]
    158 -> 41 [penwidth=2]
    158 -> 274 [penwidth=2]
    158 -> 306 [penwidth=2]
    158 -> 293 [penwidth=2]
    158 -> 243 [penwidth=2]
    158 -> 289 [penwidth=2]
    158 -> 281 [penwidth=2]
    158 -> 62 [penwidth=2]
    158 -> 99 [penwidth=2]
    158 -> 20 [penwidth=2]
    158 -> 10 [penwidth=2]
    158 -> 16 [penwidth=2]
    158 -> 305 [penwidth=2]
    158 -> 33 [penwidth=2]
    158 -> 275 [penwidth=2]
    158 -> 15 [penwidth=2]
    158 -> 295 [penwidth=2]
    158 -> 239 [penwidth=2]
    158 -> 287 [penwidth=2]
    158 -> 296 [penwidth=2]
    158 -> 81 [penwidth=2]
    158 -> 95 [penwidth=2]
    200 -> 61 [penwidth=2]
    200 -> 76 [penwidth=2]
    200 -> 29 [penwidth=2]
    200 -> 283 [penwidth=2]
    200 -> 282 [penwidth=2]
    200 -> 31 [penwidth=2]
    200 -> 92 [penwidth=2]
    200 -> 280 [penwidth=2]
    200 -> 301 [penwidth=2]
    200 -> 296 [penwidth=2]
    200 -> 77 [penwidth=2]
    200 -> 16 [penwidth=2]
    200 -> 243 [penwidth=2]
    200 -> 58 [penwidth=2]
    200 -> 104 [penwidth=2]
    200 -> 237 [penwidth=2]
    200 -> 102 [penwidth=2]
    200 -> 81 [penwidth=2]
    200 -> 95 [penwidth=2]
    200 -> 103 [penwidth=2]
    200 -> 35 [penwidth=2]
    200 -> 302 [penwidth=2]
    200 -> 90 [penwidth=2]
    200 -> 70 [penwidth=2]
    200 -> 17 [penwidth=2]
    200 -> 37 [penwidth=2]
    200 -> 101 [penwidth=2]
    200 -> 289 [penwidth=2]
    200 -> 97 [penwidth=2]
    200 -> 89 [penwidth=2]
    200 -> 42 [penwidth=2]
    200 -> 75 [penwidth=2]
    200 -> 33 [penwidth=2]
    200 -> 84 [penwidth=2]
    200 -> 291 [penwidth=2]
    200 -> 309 [penwidth=2]
    200 -> 285 [penwidth=2]
    200 -> 53 [penwidth=2]
    203 -> 301 [penwidth=2]
    203 -> 86 [penwidth=2]
    203 -> 60 [penwidth=2]
    203 -> 97 [penwidth=2]
    203 -> 85 [penwidth=2]
    203 -> 78 [penwidth=2]
    203 -> 63 [penwidth=2]
    203 -> 305 [penwidth=2]
    203 -> 15 [penwidth=2]
    203 -> 244 [penwidth=2]
    203 -> 61 [penwidth=2]
    203 -> 242 [penwidth=2]
    203 -> 50 [penwidth=2]
    203 -> 90 [penwidth=2]
    203 -> 99 [penwidth=2]
    203 -> 21 [penwidth=2]
    203 -> 84 [penwidth=2]
    203 -> 105 [penwidth=2]
    203 -> 35 [penwidth=2]
    203 -> 287 [penwidth=2]
    203 -> 55 [penwidth=2]
    203 -> 100 [penwidth=2]
    203 -> 7 [penwidth=2]
    203 -> 54 [penwidth=2]
    203 -> 102 [penwidth=2]
    203 -> 294 [penwidth=2]
    203 -> 82 [penwidth=2]
    203 -> 308 [penwidth=2]
    203 -> 279 [penwidth=2]
    203 -> 5 [penwidth=2]
    203 -> 241 [penwidth=2]
    203 -> 56 [penwidth=2]
    203 -> 58 [penwidth=2]
    203 -> 40 [penwidth=2]
    203 -> 290 [penwidth=2]
    203 -> 93 [penwidth=2]
    203 -> 292 [penwidth=2]
    203 -> 300 [penwidth=2]
    203 -> 235 [penwidth=2]
    203 -> 236 [penwidth=2]
    203 -> 76 [penwidth=2]
    203 -> 42 [penwidth=2]
    203 -> 9 [penwidth=2]
    203 -> 18 [penwidth=2]
    203 -> 275 [penwidth=2]
    203 -> 101 [penwidth=2]
    203 -> 83 [penwidth=2]
    203 -> 38 [penwidth=2]
    203 -> 20 [penwidth=2]
    203 -> 94 [penwidth=2]
    203 -> 73 [penwidth=2]
    203 -> 299 [penwidth=2]
    203 -> 57 [penwidth=2]
    203 -> 17 [penwidth=2]
    203 -> 296 [penwidth=2]
    203 -> 283 [penwidth=2]
    203 -> 240 [penwidth=2]
    203 -> 87 [penwidth=2]
    203 -> 44 [penwidth=2]
    203 -> 77 [penwidth=2]
    203 -> 286 [penwidth=2]
    203 -> 237 [penwidth=2]
    203 -> 12 [penwidth=2]
    203 -> 53 [penwidth=2]
    203 -> 13 [penwidth=2]
    203 -> 232 [penwidth=2]
    203 -> 284 [penwidth=2]
    203 -> 288 [penwidth=2]
    203 -> 3 [penwidth=2]
    203 -> 238 [penwidth=2]
    203 -> 96 [penwidth=2]
    203 -> 103 [penwidth=2]
    203 -> 80 [penwidth=2]
    203 -> 41 [penwidth=2]
    203 -> 14 [penwidth=2]
    203 -> 92 [penwidth=2]
    203 -> 74 [penwidth=2]
    203 -> 104 [penwidth=2]
    203 -> 8 [penwidth=2]
    203 -> 309 [penwidth=2]
    203 -> 36 [penwidth=2]
    203 -> 2 [penwidth=2]
    203 -> 10 [penwidth=2]
    203 -> 278 [penwidth=2]
    203 -> 72 [penwidth=2]
    203 -> 6 [penwidth=2]
    203 -> 233 [penwidth=2]
    203 -> 29 [penwidth=2]
    203 -> 46 [penwidth=2]
    203 -> 34 [penwidth=2]
    203 -> 302 [penwidth=2]
    203 -> 306 [penwidth=2]
    203 -> 280 [penwidth=2]
    203 -> 71 [penwidth=2]
    203 -> 298 [penwidth=2]
    203 -> 295 [penwidth=2]
    203 -> 277 [penwidth=2]
    203 -> 98 [penwidth=2]
    203 -> 307 [penwidth=2]
    203 -> 291 [penwidth=2]
    203 -> 28 [penwidth=2]
    203 -> 33 [penwidth=2]
    203 -> 39 [penwidth=2]
    203 -> 239 [penwidth=2]
    203 -> 243 [penwidth=2]
    203 -> 285 [penwidth=2]
    203 -> 304 [penwidth=2]
    203 -> 1 [penwidth=2]
    203 -> 289 [penwidth=2]
    203 -> 51 [penwidth=2]
    203 -> 276 [penwidth=2]
    203 -> 75 [penwidth=2]
    203 -> 32 [penwidth=2]
    203 -> 47 [penwidth=2]
    203 -> 70 [penwidth=2]
    203 -> 43 [penwidth=2]
    203 -> 88 [penwidth=2]
    203 -> 79 [penwidth=2]
    203 -> 16 [penwidth=2]
    203 -> 297 [penwidth=2]
    203 -> 234 [penwidth=2]
    203 -> 48 [penwidth=2]
    203 -> 59 [penwidth=2]
    203 -> 4 [penwidth=2]
    203 -> 91 [penwidth=2]
    203 -> 45 [penwidth=2]
    203 -> 95 [penwidth=2]
    203 -> 281 [penwidth=2]
    203 -> 293 [penwidth=2]
    203 -> 30 [penwidth=2]
    203 -> 37 [penwidth=2]
    203 -> 303 [penwidth=2]
    203 -> 49 [penwidth=2]
    164 -> 105 [penwidth=2]
    164 -> 44 [penwidth=2]
    164 -> 301 [penwidth=2]
    164 -> 275 [penwidth=2]
    164 -> 50 [penwidth=2]
    164 -> 63 [penwidth=2]
    164 -> 47 [penwidth=2]
    164 -> 242 [penwidth=2]
    164 -> 81 [penwidth=2]
    164 -> 76 [penwidth=2]
    164 -> 102 [penwidth=2]
    206 -> 279 [penwidth=2]
    206 -> 283 [penwidth=2]
    206 -> 240 [penwidth=2]
    206 -> 98 [penwidth=2]
    206 -> 4 [penwidth=2]
    206 -> 3 [penwidth=2]
    206 -> 28 [penwidth=2]
    206 -> 278 [penwidth=2]
    206 -> 77 [penwidth=2]
    206 -> 280 [penwidth=2]
    206 -> 286 [penwidth=2]
    206 -> 298 [penwidth=2]
    206 -> 10 [penwidth=2]
    206 -> 41 [penwidth=2]
    206 -> 74 [penwidth=2]
    206 -> 94 [penwidth=2]
    206 -> 35 [penwidth=2]
    206 -> 244 [penwidth=2]
    206 -> 43 [penwidth=2]
    206 -> 99 [penwidth=2]
    206 -> 92 [penwidth=2]
    206 -> 304 [penwidth=2]
    206 -> 97 [penwidth=2]
    206 -> 235 [penwidth=2]
    206 -> 275 [penwidth=2]
    206 -> 58 [penwidth=2]
    206 -> 13 [penwidth=2]
    206 -> 93 [penwidth=2]
    206 -> 274 [penwidth=2]
    206 -> 237 [penwidth=2]
    206 -> 59 [penwidth=2]
    206 -> 287 [penwidth=2]
    206 -> 289 [penwidth=2]
    206 -> 7 [penwidth=2]
    206 -> 18 [penwidth=2]
    206 -> 296 [penwidth=2]
    206 -> 101 [penwidth=2]
    206 -> 52 [penwidth=2]
    206 -> 242 [penwidth=2]
    206 -> 292 [penwidth=2]
    206 -> 87 [penwidth=2]
    206 -> 300 [penwidth=2]
    206 -> 30 [penwidth=2]
    206 -> 48 [penwidth=2]
    206 -> 17 [penwidth=2]
    206 -> 50 [penwidth=2]
    206 -> 29 [penwidth=2]
    206 -> 284 [penwidth=2]
    206 -> 14 [penwidth=2]
    206 -> 276 [penwidth=2]
    206 -> 44 [penwidth=2]
    206 -> 239 [penwidth=2]
    206 -> 46 [penwidth=2]
    206 -> 309 [penwidth=2]
    206 -> 62 [penwidth=2]
    206 -> 100 [penwidth=2]
    206 -> 297 [penwidth=2]
    206 -> 37 [penwidth=2]
    206 -> 71 [penwidth=2]
    206 -> 307 [penwidth=2]
    206 -> 90 [penwidth=2]
    206 -> 282 [penwidth=2]
    206 -> 57 [penwidth=2]
    206 -> 294 [penwidth=2]
    206 -> 78 [penwidth=2]
    206 -> 303 [penwidth=2]
    206 -> 91 [penwidth=2]
    206 -> 302 [penwidth=2]
    206 -> 293 [penwidth=2]
    206 -> 236 [penwidth=2]
    206 -> 70 [penwidth=2]
    206 -> 16 [penwidth=2]
    206 -> 96 [penwidth=2]
    206 -> 241 [penwidth=2]
    206 -> 61 [penwidth=2]
    206 -> 38 [penwidth=2]
    206 -> 75 [penwidth=2]
    206 -> 56 [penwidth=2]
    206 -> 40 [penwidth=2]
    206 -> 95 [penwidth=2]
    206 -> 34 [penwidth=2]
    206 -> 233 [penwidth=2]
    206 -> 291 [penwidth=2]
    206 -> 104 [penwidth=2]
    206 -> 53 [penwidth=2]
    206 -> 6 [penwidth=2]
    206 -> 20 [penwidth=2]
    206 -> 299 [penwidth=2]
    206 -> 86 [penwidth=2]
    206 -> 73 [penwidth=2]
    206 -> 72 [penwidth=2]
    206 -> 81 [penwidth=2]
    206 -> 54 [penwidth=2]
    206 -> 42 [penwidth=2]
    206 -> 281 [penwidth=2]
    206 -> 277 [penwidth=2]
    206 -> 19 [penwidth=2]
    206 -> 105 [penwidth=2]
    206 -> 9 [penwidth=2]
    171 -> 90 [penwidth=2]
    171 -> 29 [penwidth=2]
    171 -> 82 [penwidth=2]
    171 -> 9 [penwidth=2]
    171 -> 304 [penwidth=2]
    171 -> 296 [penwidth=2]
    171 -> 53 [penwidth=2]
    171 -> 104 [penwidth=2]
    171 -> 232 [penwidth=2]
    171 -> 238 [penwidth=2]
    171 -> 291 [penwidth=2]
    171 -> 93 [penwidth=2]
    171 -> 292 [penwidth=2]
    171 -> 2 [penwidth=2]
    171 -> 79 [penwidth=2]
    171 -> 63 [penwidth=2]
    171 -> 35 [penwidth=2]
    171 -> 305 [penwidth=2]
    171 -> 78 [penwidth=2]
    171 -> 51 [penwidth=2]
    171 -> 6 [penwidth=2]
    171 -> 297 [penwidth=2]
    171 -> 234 [penwidth=2]
    171 -> 298 [penwidth=2]
    171 -> 47 [penwidth=2]
    171 -> 32 [penwidth=2]
    171 -> 284 [penwidth=2]
    171 -> 98 [penwidth=2]
    171 -> 84 [penwidth=2]
    171 -> 275 [penwidth=2]
    171 -> 38 [penwidth=2]
    171 -> 281 [penwidth=2]
    171 -> 8 [penwidth=2]
    171 -> 72 [penwidth=2]
    171 -> 77 [penwidth=2]
    171 -> 241 [penwidth=2]
    171 -> 15 [penwidth=2]
    171 -> 308 [penwidth=2]
    171 -> 16 [penwidth=2]
    171 -> 41 [penwidth=2]
    171 -> 20 [penwidth=2]
    171 -> 239 [penwidth=2]
    171 -> 60 [penwidth=2]
    171 -> 279 [penwidth=2]
    171 -> 288 [penwidth=2]
    171 -> 5 [penwidth=2]
    171 -> 83 [penwidth=2]
    171 -> 61 [penwidth=2]
    171 -> 30 [penwidth=2]
    171 -> 309 [penwidth=2]
    171 -> 302 [penwidth=2]
    171 -> 233 [penwidth=2]
    171 -> 33 [penwidth=2]
    171 -> 31 [penwidth=2]
    171 -> 14 [penwidth=2]
    171 -> 46 [penwidth=2]
    171 -> 43 [penwidth=2]
    171 -> 274 [penwidth=2]
    171 -> 13 [penwidth=2]
    171 -> 52 [penwidth=2]
    171 -> 4 [penwidth=2]
    171 -> 277 [penwidth=2]
    171 -> 235 [penwidth=2]
    171 -> 92 [penwidth=2]
    171 -> 37 [penwidth=2]
    171 -> 100 [penwidth=2]
    171 -> 293 [penwidth=2]
    171 -> 12 [penwidth=2]
    171 -> 70 [penwidth=2]
    171 -> 7 [penwidth=2]
    171 -> 3 [penwidth=2]
    171 -> 242 [penwidth=2]
    171 -> 300 [penwidth=2]
    171 -> 34 [penwidth=2]
    171 -> 50 [penwidth=2]
    171 -> 85 [penwidth=2]
    171 -> 278 [penwidth=2]
    171 -> 99 [penwidth=2]
    171 -> 102 [penwidth=2]
    171 -> 57 [penwidth=2]
    171 -> 21 [penwidth=2]
    171 -> 54 [penwidth=2]
    171 -> 244 [penwidth=2]
    171 -> 289 [penwidth=2]
    171 -> 28 [penwidth=2]
    171 -> 286 [penwidth=2]
    171 -> 96 [penwidth=2]
    171 -> 236 [penwidth=2]
    171 -> 39 [penwidth=2]
    171 -> 103 [penwidth=2]
    215 -> 20 [penwidth=2]
    215 -> 2 [penwidth=2]
    215 -> 289 [penwidth=2]
    215 -> 31 [penwidth=2]
    215 -> 17 [penwidth=2]
    215 -> 39 [penwidth=2]
    215 -> 71 [penwidth=2]
    215 -> 5 [penwidth=2]
    215 -> 55 [penwidth=2]
    215 -> 241 [penwidth=2]
    215 -> 290 [penwidth=2]
    215 -> 89 [penwidth=2]
    215 -> 84 [penwidth=2]
    220 -> 281 [penwidth=2]
    220 -> 62 [penwidth=2]
    220 -> 300 [penwidth=2]
    220 -> 94 [penwidth=2]
    220 -> 85 [penwidth=2]
    220 -> 4 [penwidth=2]
    220 -> 7 [penwidth=2]
    220 -> 97 [penwidth=2]
    220 -> 11 [penwidth=2]
    220 -> 298 [penwidth=2]
    220 -> 5 [penwidth=2]
    220 -> 54 [penwidth=2]
    220 -> 296 [penwidth=2]
    220 -> 96 [penwidth=2]
    220 -> 104 [penwidth=2]
    220 -> 74 [penwidth=2]
    220 -> 77 [penwidth=2]
    220 -> 100 [penwidth=2]
    220 -> 78 [penwidth=2]
    220 -> 90 [penwidth=2]
    220 -> 98 [penwidth=2]
    220 -> 9 [penwidth=2]
    220 -> 292 [penwidth=2]
    220 -> 73 [penwidth=2]
    220 -> 241 [penwidth=2]
    220 -> 285 [penwidth=2]
    220 -> 51 [penwidth=2]
    220 -> 278 [penwidth=2]
    220 -> 305 [penwidth=2]
    220 -> 294 [penwidth=2]
    220 -> 235 [penwidth=2]
    220 -> 239 [penwidth=2]
    220 -> 39 [penwidth=2]
    220 -> 1 [penwidth=2]
    220 -> 232 [penwidth=2]
    220 -> 283 [penwidth=2]
    220 -> 234 [penwidth=2]
    220 -> 55 [penwidth=2]
    220 -> 86 [penwidth=2]
    220 -> 301 [penwidth=2]
    220 -> 286 [penwidth=2]
    220 -> 43 [penwidth=2]
    220 -> 46 [penwidth=2]
    220 -> 71 [penwidth=2]
    220 -> 6 [penwidth=2]
    220 -> 59 [penwidth=2]
    220 -> 2 [penwidth=2]
    220 -> 243 [penwidth=2]
    220 -> 308 [penwidth=2]
    220 -> 75 [penwidth=2]
    220 -> 237 [penwidth=2]
    220 -> 10 [penwidth=2]
    220 -> 91 [penwidth=2]
    220 -> 38 [penwidth=2]
    220 -> 92 [penwidth=2]
    220 -> 236 [penwidth=2]
    220 -> 12 [penwidth=2]
    220 -> 8 [penwidth=2]
    220 -> 95 [penwidth=2]
    220 -> 307 [penwidth=2]
    220 -> 79 [penwidth=2]
    220 -> 18 [penwidth=2]
    220 -> 88 [penwidth=2]
    220 -> 238 [penwidth=2]
    220 -> 303 [penwidth=2]
    220 -> 37 [penwidth=2]
    220 -> 293 [penwidth=2]
    220 -> 277 [penwidth=2]
    220 -> 233 [penwidth=2]
    220 -> 48 [penwidth=2]
    220 -> 35 [penwidth=2]
    220 -> 83 [penwidth=2]
    220 -> 87 [penwidth=2]
    220 -> 53 [penwidth=2]
    220 -> 45 [penwidth=2]
    220 -> 42 [penwidth=2]
    220 -> 99 [penwidth=2]
    220 -> 82 [penwidth=2]
    220 -> 70 [penwidth=2]
    220 -> 36 [penwidth=2]
    220 -> 103 [penwidth=2]
    220 -> 29 [penwidth=2]
    220 -> 14 [penwidth=2]
    220 -> 279 [penwidth=2]
    220 -> 284 [penwidth=2]
    220 -> 20 [penwidth=2]
    220 -> 80 [penwidth=2]
    220 -> 291 [penwidth=2]
    220 -> 295 [penwidth=2]
    220 -> 289 [penwidth=2]
    220 -> 102 [penwidth=2]
    220 -> 282 [penwidth=2]
    220 -> 44 [penwidth=2]
    220 -> 3 [penwidth=2]
    220 -> 288 [penwidth=2]
    220 -> 58 [penwidth=2]
    220 -> 21 [penwidth=2]
    220 -> 276 [penwidth=2]
    220 -> 30 [penwidth=2]
    220 -> 63 [penwidth=2]
    220 -> 41 [penwidth=2]
    220 -> 306 [penwidth=2]
    220 -> 304 [penwidth=2]
    220 -> 60 [penwidth=2]
    220 -> 274 [penwidth=2]
    220 -> 57 [penwidth=2]
    220 -> 101 [penwidth=2]
    220 -> 49 [penwidth=2]
    220 -> 275 [penwidth=2]
    220 -> 31 [penwidth=2]
    220 -> 280 [penwidth=2]
    220 -> 242 [penwidth=2]
    220 -> 19 [penwidth=2]
    220 -> 56 [penwidth=2]
    220 -> 61 [penwidth=2]
    220 -> 290 [penwidth=2]
    220 -> 50 [penwidth=2]
    220 -> 299 [penwidth=2]
    220 -> 13 [penwidth=2]
    220 -> 47 [penwidth=2]
    220 -> 105 [penwidth=2]
    220 -> 72 [penwidth=2]
    220 -> 34 [penwidth=2]
    220 -> 302 [penwidth=2]
    220 -> 76 [penwidth=2]
    220 -> 33 [penwidth=2]
    224 -> 289 [penwidth=2]
    224 -> 54 [penwidth=2]
    224 -> 33 [penwidth=2]
    224 -> 291 [penwidth=2]
    224 -> 3 [penwidth=2]
    224 -> 301 [penwidth=2]
    224 -> 242 [penwidth=2]
    224 -> 62 [penwidth=2]
    224 -> 233 [penwidth=2]
    224 -> 4 [penwidth=2]
    224 -> 306 [penwidth=2]
    224 -> 92 [penwidth=2]
    224 -> 80 [penwidth=2]
    224 -> 10 [penwidth=2]
    224 -> 31 [penwidth=2]
    224 -> 279 [penwidth=2]
    224 -> 284 [penwidth=2]
    224 -> 50 [penwidth=2]
    224 -> 308 [penwidth=2]
    224 -> 78 [penwidth=2]
    224 -> 244 [penwidth=2]
    224 -> 9 [penwidth=2]
    224 -> 276 [penwidth=2]
    224 -> 240 [penwidth=2]
    224 -> 84 [penwidth=2]
    224 -> 38 [penwidth=2]
    224 -> 40 [penwidth=2]
    224 -> 85 [penwidth=2]
    224 -> 96 [penwidth=2]
    224 -> 309 [penwidth=2]
    224 -> 49 [penwidth=2]
    224 -> 286 [penwidth=2]
    224 -> 94 [penwidth=2]
    224 -> 275 [penwidth=2]
    224 -> 243 [penwidth=2]
    224 -> 60 [penwidth=2]
    224 -> 61 [penwidth=2]
    224 -> 52 [penwidth=2]
    224 -> 288 [penwidth=2]
    224 -> 89 [penwidth=2]
    224 -> 41 [penwidth=2]
    224 -> 297 [penwidth=2]
    224 -> 56 [penwidth=2]
    224 -> 72 [penwidth=2]
    224 -> 28 [penwidth=2]
    224 -> 48 [penwidth=2]
    224 -> 285 [penwidth=2]
    224 -> 29 [penwidth=2]
    224 -> 294 [penwidth=2]
    224 -> 81 [penwidth=2]
    224 -> 44 [penwidth=2]
    224 -> 71 [penwidth=2]
    224 -> 287 [penwidth=2]
    224 -> 11 [penwidth=2]
    224 -> 91 [penwidth=2]
    224 -> 47 [penwidth=2]
    224 -> 63 [penwidth=2]
    224 -> 59 [penwidth=2]
    224 -> 281 [penwidth=2]
    224 -> 46 [penwidth=2]
    224 -> 296 [penwidth=2]
    224 -> 295 [penwidth=2]
    224 -> 12 [penwidth=2]
    224 -> 87 [penwidth=2]
    224 -> 37 [penwidth=2]
    224 -> 70 [penwidth=2]
    224 -> 2 [penwidth=2]
    224 -> 307 [penwidth=2]
    224 -> 102 [penwidth=2]
    224 -> 235 [penwidth=2]
    224 -> 7 [penwidth=2]
    224 -> 104 [penwidth=2]
    224 -> 14 [penwidth=2]
    224 -> 79 [penwidth=2]
    224 -> 103 [penwidth=2]
    224 -> 93 [penwidth=2]
    224 -> 53 [penwidth=2]
    224 -> 21 [penwidth=2]
    224 -> 241 [penwidth=2]
    224 -> 17 [penwidth=2]
    224 -> 15 [penwidth=2]
    224 -> 236 [penwidth=2]
    224 -> 18 [penwidth=2]
    224 -> 39 [penwidth=2]
    224 -> 55 [penwidth=2]
    224 -> 5 [penwidth=2]
    224 -> 303 [penwidth=2]
    224 -> 1 [penwidth=2]
    224 -> 6 [penwidth=2]
    224 -> 97 [penwidth=2]
    224 -> 76 [penwidth=2]
    224 -> 36 [penwidth=2]
    224 -> 82 [penwidth=2]
    224 -> 278 [penwidth=2]
    224 -> 282 [penwidth=2]
    224 -> 101 [penwidth=2]
    224 -> 20 [penwidth=2]
    224 -> 35 [penwidth=2]
    224 -> 19 [penwidth=2]
    224 -> 95 [penwidth=2]
    224 -> 83 [penwidth=2]
    224 -> 300 [penwidth=2]
    224 -> 34 [penwidth=2]
    224 -> 292 [penwidth=2]
    224 -> 299 [penwidth=2]
    224 -> 305 [penwidth=2]
    224 -> 77 [penwidth=2]
    224 -> 86 [penwidth=2]
    224 -> 32 [penwidth=2]
    224 -> 293 [penwidth=2]
    224 -> 237 [penwidth=2]
    224 -> 13 [penwidth=2]
    224 -> 298 [penwidth=2]
    224 -> 290 [penwidth=2]
    224 -> 51 [penwidth=2]
    224 -> 58 [penwidth=2]
    224 -> 304 [penwidth=2]
    224 -> 283 [penwidth=2]
    224 -> 238 [penwidth=2]
    224 -> 234 [penwidth=2]
    187 -> 93 [penwidth=2]
    187 -> 285 [penwidth=2]
    187 -> 232 [penwidth=2]
    187 -> 281 [penwidth=2]
    187 -> 87 [penwidth=2]
    187 -> 280 [penwidth=2]
    187 -> 97 [penwidth=2]
    187 -> 286 [penwidth=2]
    187 -> 95 [penwidth=2]
    187 -> 96 [penwidth=2]
    187 -> 290 [penwidth=2]
    187 -> 295 [penwidth=2]
    187 -> 296 [penwidth=2]
    187 -> 41 [penwidth=2]
    187 -> 298 [penwidth=2]
    187 -> 32 [penwidth=2]
    187 -> 57 [penwidth=2]
    187 -> 75 [penwidth=2]
    187 -> 10 [penwidth=2]
    187 -> 63 [penwidth=2]
    187 -> 31 [penwidth=2]
    187 -> 98 [penwidth=2]
    187 -> 89 [penwidth=2]
    187 -> 18 [penwidth=2]
    187 -> 54 [penwidth=2]
    187 -> 297 [penwidth=2]
    187 -> 42 [penwidth=2]
    187 -> 94 [penwidth=2]
    187 -> 43 [penwidth=2]
    187 -> 49 [penwidth=2]
    187 -> 241 [penwidth=2]
    187 -> 29 [penwidth=2]
    187 -> 234 [penwidth=2]
    187 -> 13 [penwidth=2]
    187 -> 100 [penwidth=2]
    187 -> 48 [penwidth=2]
    187 -> 300 [penwidth=2]
    187 -> 21 [penwidth=2]
    187 -> 88 [penwidth=2]
    187 -> 101 [penwidth=2]
    106 -> 78 [penwidth=2]
    106 -> 99 [penwidth=2]
    106 -> 31 [penwidth=2]
    106 -> 302 [penwidth=2]
    106 -> 52 [penwidth=2]
    106 -> 29 [penwidth=2]
    106 -> 75 [penwidth=2]
    106 -> 104 [penwidth=2]
    106 -> 71 [penwidth=2]
    106 -> 98 [penwidth=2]
    106 -> 308 [penwidth=2]
    106 -> 73 [penwidth=2]
    106 -> 2 [penwidth=2]
    106 -> 105 [penwidth=2]
    106 -> 95 [penwidth=2]
    106 -> 280 [penwidth=2]
    106 -> 40 [penwidth=2]
    106 -> 309 [penwidth=2]
    106 -> 60 [penwidth=2]
    106 -> 21 [penwidth=2]
    106 -> 299 [penwidth=2]
    106 -> 283 [penwidth=2]
    106 -> 79 [penwidth=2]
    106 -> 281 [penwidth=2]
    106 -> 3 [penwidth=2]
    106 -> 89 [penwidth=2]
    106 -> 41 [penwidth=2]
    106 -> 62 [penwidth=2]
    141 -> 21 [penwidth=2]
    141 -> 52 [penwidth=2]
    141 -> 71 [penwidth=2]
    141 -> 85 [penwidth=2]
    141 -> 4 [penwidth=2]
    141 -> 73 [penwidth=2]
    141 -> 235 [penwidth=2]
    141 -> 11 [penwidth=2]
    141 -> 90 [penwidth=2]
    141 -> 8 [penwidth=2]
    141 -> 55 [penwidth=2]
    141 -> 12 [penwidth=2]
    141 -> 104 [penwidth=2]
    141 -> 292 [penwidth=2]
    141 -> 305 [penwidth=2]
    141 -> 100 [penwidth=2]
    141 -> 242 [penwidth=2]
    141 -> 86 [penwidth=2]
    141 -> 300 [penwidth=2]
    141 -> 294 [penwidth=2]
    141 -> 75 [penwidth=2]
    141 -> 20 [penwidth=2]
    141 -> 37 [penwidth=2]
    141 -> 92 [penwidth=2]
    141 -> 31 [penwidth=2]
    141 -> 290 [penwidth=2]
    141 -> 14 [penwidth=2]
    141 -> 95 [penwidth=2]
    141 -> 307 [penwidth=2]
    141 -> 29 [penwidth=2]
    141 -> 238 [penwidth=2]
    141 -> 309 [penwidth=2]
    141 -> 72 [penwidth=2]
    141 -> 2 [penwidth=2]
    141 -> 285 [penwidth=2]
    141 -> 94 [penwidth=2]
    141 -> 3 [penwidth=2]
    141 -> 298 [penwidth=2]
    141 -> 58 [penwidth=2]
    141 -> 288 [penwidth=2]
    141 -> 232 [penwidth=2]
    141 -> 278 [penwidth=2]
    141 -> 279 [penwidth=2]
    141 -> 70 [penwidth=2]
    141 -> 13 [penwidth=2]
    141 -> 48 [penwidth=2]
    141 -> 101 [penwidth=2]
    141 -> 10 [penwidth=2]
    141 -> 274 [penwidth=2]
    141 -> 53 [penwidth=2]
    141 -> 284 [penwidth=2]
    141 -> 103 [penwidth=2]
    141 -> 286 [penwidth=2]
    141 -> 44 [penwidth=2]
    141 -> 299 [penwidth=2]
    141 -> 282 [penwidth=2]
    141 -> 287 [penwidth=2]
    141 -> 296 [penwidth=2]
    141 -> 281 [penwidth=2]
    141 -> 56 [penwidth=2]
    141 -> 83 [penwidth=2]
    141 -> 46 [penwidth=2]
    141 -> 42 [penwidth=2]
    141 -> 306 [penwidth=2]
    141 -> 96 [penwidth=2]
    141 -> 57 [penwidth=2]
    141 -> 18 [penwidth=2]
    141 -> 280 [penwidth=2]
    141 -> 7 [penwidth=2]
    141 -> 233 [penwidth=2]
    141 -> 102 [penwidth=2]
    141 -> 35 [penwidth=2]
    141 -> 62 [penwidth=2]
    141 -> 59 [penwidth=2]
    141 -> 28 [penwidth=2]
    141 -> 43 [penwidth=2]
    141 -> 50 [penwidth=2]
    141 -> 105 [penwidth=2]
    141 -> 51 [penwidth=2]
    141 -> 19 [penwidth=2]
    141 -> 304 [penwidth=2]
    141 -> 243 [penwidth=2]
    141 -> 36 [penwidth=2]
    141 -> 9 [penwidth=2]
    141 -> 87 [penwidth=2]
    141 -> 74 [penwidth=2]
    141 -> 16 [penwidth=2]
    141 -> 63 [penwidth=2]
    141 -> 302 [penwidth=2]
    141 -> 76 [penwidth=2]
    141 -> 60 [penwidth=2]
    141 -> 276 [penwidth=2]
    141 -> 89 [penwidth=2]
    141 -> 15 [penwidth=2]
    141 -> 61 [penwidth=2]
    141 -> 82 [penwidth=2]
    141 -> 303 [penwidth=2]
    141 -> 98 [penwidth=2]
    141 -> 80 [penwidth=2]
    141 -> 88 [penwidth=2]
    141 -> 5 [penwidth=2]
    141 -> 244 [penwidth=2]
    141 -> 41 [penwidth=2]
    141 -> 79 [penwidth=2]
    141 -> 91 [penwidth=2]
    141 -> 99 [penwidth=2]
    141 -> 17 [penwidth=2]
    141 -> 275 [penwidth=2]
    141 -> 30 [penwidth=2]
    141 -> 234 [penwidth=2]
    141 -> 6 [penwidth=2]
    141 -> 277 [penwidth=2]
    141 -> 295 [penwidth=2]
    141 -> 93 [penwidth=2]
    141 -> 237 [penwidth=2]
    141 -> 45 [penwidth=2]
    141 -> 39 [penwidth=2]
    141 -> 283 [penwidth=2]
    141 -> 33 [penwidth=2]
    141 -> 236 [penwidth=2]
    141 -> 1 [penwidth=2]
    141 -> 32 [penwidth=2]
    141 -> 308 [penwidth=2]
    141 -> 241 [penwidth=2]
    141 -> 291 [penwidth=2]
    141 -> 97 [penwidth=2]
    141 -> 293 [penwidth=2]
    141 -> 54 [penwidth=2]
    141 -> 297 [penwidth=2]
    141 -> 81 [penwidth=2]
    141 -> 77 [penwidth=2]
    141 -> 301 [penwidth=2]
    141 -> 239 [penwidth=2]
    141 -> 84 [penwidth=2]
    141 -> 40 [penwidth=2]
    141 -> 49 [penwidth=2]
    141 -> 240 [penwidth=2]
    141 -> 38 [penwidth=2]
}