digraph G {
    0 [penwidth=3,label="0"]
    1 [penwidth=3,label="1"]
    2 [penwidth=3,label="2"]
    3 [penwidth=3,label="3"]
    4 [penwidth=3,label="4"]
    5 [penwidth=3,label="5"]
    6 [penwidth=3,label="6"]
    7 [penwidth=3,label="7"]
    8 [penwidth=3,label="8"]
    9 [penwidth=3,label="9"]
    10 [penwidth=3,label="10"]
    11 [penwidth=3,label="11"]
    12 [penwidth=3,label="12"]
    13 [penwidth=3,label="13"]
    14 [penwidth=3,label="14"]
    15 [penwidth=3,label="15"]
    16 [penwidth=3,label="16"]
    17 [penwidth=3,label="17"]
    18 [penwidth=3,label="18"]
    19 [penwidth=3,label="19"]
    20 [penwidth=3,label="20"]
    21 [penwidth=3,label="21"]
    22 [penwidth=3,label="22"]
    23 [penwidth=3,label="23"]
    24 [penwidth=3,label="24"]
    25 [penwidth=3,label="25"]
    26 [penwidth=3,label="26"]
    27 [penwidth=3,label="27"]
    28 [penwidth=3,label="28"]
    29 [penwidth=3,label="29"]
    30 [penwidth=3,label="30"]
    31 [penwidth=3,label="31"]
    32 [penwidth=3,label="32"]
    33 [penwidth=3,label="33"]
    34 [penwidth=3,label="34"]
    35 [penwidth=3,label="35"]
    36 [penwidth=3,label="36"]
    37 [penwidth=3,label="37"]
    38 [penwidth=3,label="38"]
    39 [penwidth=3,label="39"]
    40 [penwidth=3,label="40"]
    41 [penwidth=3,label="41"]
    42 [penwidth=3,label="42"]
    43 [penwidth=3,label="43"]
    44 [penwidth=3,label="44"]
    45 [penwidth=3,label="45"]
    46 [penwidth=3,label="46"]
    47 [penwidth=3,label="47"]
    48 [penwidth=3,label="48"]
    49 [penwidth=3,label="49"]
    50 [penwidth=3,label="50"]
    51 [penwidth=3,label="51"]
    52 [penwidth=3,label="52"]
    53 [penwidth=3,label="53"]
    54 [penwidth=3,label="54"]
    55 [penwidth=3,label="55"]
    56 [penwidth=3,label="56"]
    57 [penwidth=3,label="57"]
    58 [penwidth=3,label="58"]
    59 [penwidth=3,label="59"]
    60 [penwidth=3,label="60"]
    61 [penwidth=3,label="61"]
    62 [penwidth=3,label="62"]
    63 [penwidth=3,label="63"]
    64 [penwidth=3,label="64"]
    65 [penwidth=3,label="65"]
    66 [penwidth=3,label="66"]
    67 [penwidth=3,label="67"]
    68 [penwidth=3,label="68"]
    69 [penwidth=3,label="69"]
    70 [penwidth=3,label="70"]
    71 [penwidth=3,label="71"]
    72 [penwidth=3,label="72"]
    73 [penwidth=3,label="73"]
    74 [penwidth=3,label="74"]
    75 [penwidth=3,label="75"]
    76 [penwidth=3,label="76"]
    77 [penwidth=3,label="77"]
    78 [penwidth=3,label="78"]
    79 [penwidth=3,label="79"]
    80 [penwidth=3,label="80"]
    81 [penwidth=3,label="81"]
    82 [penwidth=3,label="82"]
    83 [penwidth=3,label="83"]
    84 [penwidth=3,label="84"]
    85 [penwidth=3,label="85"]
    86 [penwidth=3,label="86"]
    87 [penwidth=3,label="87"]
    88 [penwidth=3,label="88"]
    89 [penwidth=3,label="89"]
    90 [penwidth=3,label="90"]
    91 [penwidth=3,label="91"]
    92 [penwidth=3,label="92"]
    93 [penwidth=3,label="93"]
    94 [penwidth=3,label="94"]
    95 [penwidth=3,label="95"]
    96 [penwidth=3,label="96"]
    97 [penwidth=3,label="97"]
    98 [penwidth=3,label="98"]
    99 [penwidth=3,label="99"]
    100 [penwidth=3,label="100"]
    101 [penwidth=3,label="101"]
    102 [penwidth=3,label="102"]
    103 [penwidth=3,label="103"]
    104 [penwidth=3,label="104"]
    105 [penwidth=3,label="105"]
    106 [penwidth=3,label="106"]
    107 [penwidth=3,label="107"]
    108 [penwidth=3,label="108"]
    109 [penwidth=3,label="109"]
    110 [penwidth=3,label="110"]
    111 [penwidth=3,label="111"]
    112 [penwidth=3,label="112"]
    113 [penwidth=3,label="113"]
    114 [penwidth=3,label="114"]
    115 [penwidth=3,label="115"]
    116 [penwidth=3,label="116"]
    117 [penwidth=3,label="117"]
    118 [penwidth=3,label="118"]
    119 [penwidth=3,label="119"]
    120 [penwidth=3,label="120"]
    121 [penwidth=3,label="121"]
    122 [penwidth=3,label="122"]
    123 [penwidth=3,label="123"]
    124 [penwidth=3,label="124"]
    125 [penwidth=3,label="125"]
    126 [penwidth=3,label="126"]
    127 [penwidth=3,label="127"]
    128 [penwidth=3,label="128"]
    129 [penwidth=3,label="129"]
    130 [penwidth=3,label="130"]
    131 [penwidth=3,label="131"]
    132 [penwidth=3,label="132"]
    133 [penwidth=3,label="133"]
    134 [penwidth=3,label="134"]
    135 [penwidth=3,label="135"]
    136 [penwidth=3,label="136"]
    137 [penwidth=3,label="137"]
    138 [penwidth=3,label="138"]
    139 [penwidth=3,label="139"]
    140 [penwidth=3,label="140"]
    141 [penwidth=3,label="141"]
    142 [penwidth=3,label="142"]
    143 [penwidth=3,label="143"]
    144 [penwidth=3,label="144"]
    145 [penwidth=3,label="145"]
    146 [penwidth=3,label="146"]
    147 [penwidth=3,label="147"]
    148 [penwidth=3,label="148"]
    149 [penwidth=3,label="149"]
    150 [penwidth=3,label="150"]
    151 [penwidth=3,label="151"]
    152 [penwidth=3,label="152"]
    153 [penwidth=3,label="153"]
    154 [penwidth=3,label="154"]
    155 [penwidth=3,label="155"]
    156 [penwidth=3,label="156"]
    157 [penwidth=3,label="157"]
    158 [penwidth=3,label="158"]
    159 [penwidth=3,label="159"]
    160 [penwidth=3,label="160"]
    161 [penwidth=3,label="161"]
    162 [penwidth=3,label="162"]
    163 [penwidth=3,label="163"]
    164 [penwidth=3,label="164"]
    165 [penwidth=3,label="165"]
    166 [penwidth=3,label="166"]
    167 [penwidth=3,label="167"]
    168 [penwidth=3,label="168"]
    169 [penwidth=3,label="169"]
    170 [penwidth=3,label="170"]
    171 [penwidth=3,label="171"]
    172 [penwidth=3,label="172"]
    173 [penwidth=3,label="173"]
    174 [penwidth=3,label="174"]
    175 [penwidth=3,label="175"]
    176 [penwidth=3,label="176"]
    177 [penwidth=3,label="177"]
    178 [penwidth=3,label="178"]
    179 [penwidth=3,label="179"]
    180 [penwidth=3,label="180"]
    181 [penwidth=3,label="181"]
    182 [penwidth=3,label="182"]
    183 [penwidth=3,label="183"]
    184 [penwidth=3,label="184"]
    185 [penwidth=3,label="185"]
    186 [penwidth=3,label="186"]
    187 [penwidth=3,label="187"]
    188 [penwidth=3,label="188"]
    189 [penwidth=3,label="189"]
    190 [penwidth=3,label="190"]
    191 [penwidth=3,label="191"]
    192 [penwidth=3,label="192"]
    193 [penwidth=3,label="193"]
    194 [penwidth=3,label="194"]
    195 [penwidth=3,label="195"]
    196 [penwidth=3,label="196"]
    197 [penwidth=3,label="197"]
    198 [penwidth=3,label="198"]
    199 [penwidth=3,label="199"]
    200 [penwidth=3,label="200"]
    201 [penwidth=3,label="201"]
    202 [penwidth=3,label="202"]
    203 [penwidth=3,label="203"]
    204 [penwidth=3,label="204"]
    205 [penwidth=3,label="205"]
    206 [penwidth=3,label="206"]
    207 [penwidth=3,label="207"]
    208 [penwidth=3,label="208"]
    209 [penwidth=3,label="209"]
    210 [penwidth=3,label="210"]
    211 [penwidth=3,label="211"]
    212 [penwidth=3,label="212"]
    213 [penwidth=3,label="213"]
    214 [penwidth=3,label="214"]
    215 [penwidth=3,label="215"]
    216 [penwidth=3,label="216"]
    217 [penwidth=3,label="217"]
    218 [penwidth=3,label="218"]
    219 [penwidth=3,label="219"]
    220 [penwidth=3,label="220"]
    221 [penwidth=3,label="221"]
    222 [penwidth=3,label="222"]
    223 [penwidth=3,label="223"]
    224 [penwidth=3,label="224"]
    225 [penwidth=3,label="225"]
    226 [penwidth=3,label="226"]
    227 [penwidth=3,label="227"]
    228 [penwidth=3,label="228"]
    229 [penwidth=3,label="229"]
    230 [penwidth=3,label="230"]
    231 [penwidth=3,label="231"]
    232 [penwidth=3,label="232"]
    233 [penwidth=3,label="233"]
    234 [penwidth=3,label="234"]
    235 [penwidth=3,label="235"]
    236 [penwidth=3,label="236"]
    237 [penwidth=3,label="237"]
    238 [penwidth=3,label="238"]
    239 [penwidth=3,label="239"]
    240 [penwidth=3,label="240"]
    241 [penwidth=3,label="241"]
    242 [penwidth=3,label="242"]
    243 [penwidth=3,label="243"]
    244 [penwidth=3,label="244"]
    245 [penwidth=3,label="245"]
    246 [penwidth=3,label="246"]
    247 [penwidth=3,label="247"]
    248 [penwidth=3,label="248"]
    249 [penwidth=3,label="249"]
    250 [penwidth=3,label="250"]
    251 [penwidth=3,label="251"]
    252 [penwidth=3,label="252"]
    253 [penwidth=3,label="253"]
    254 [penwidth=3,label="254"]
    255 [penwidth=3,label="255"]
    256 [penwidth=3,label="256"]
    257 [penwidth=3,label="257"]
    258 [penwidth=3,label="258"]
    259 [penwidth=3,label="259"]
    260 [penwidth=3,label="260"]
    261 [penwidth=3,label="261"]
    262 [penwidth=3,label="262"]
    263 [penwidth=3,label="263"]
    264 [penwidth=3,label="264"]
    265 [penwidth=3,label="265"]
    266 [penwidth=3,label="266"]
    267 [penwidth=3,label="267"]
    268 [penwidth=3,label="268"]
    269 [penwidth=3,label="269"]
    270 [penwidth=3,label="270"]
    271 [penwidth=3,label="271"]
    272 [penwidth=3,label="272"]
    273 [penwidth=3,label="273"]
    274 [penwidth=3,label="274"]
    275 [penwidth=3,label="275"]
    276 [penwidth=3,label="276"]
    277 [penwidth=3,label="277"]
    278 [penwidth=3,label="278"]
    279 [penwidth=3,label="279"]
    280 [penwidth=3,label="280"]
    281 [penwidth=3,label="281"]
    282 [penwidth=3,label="282"]
    283 [penwidth=3,label="283"]
    284 [penwidth=3,label="284"]
    285 [penwidth=3,label="285"]
    286 [penwidth=3,label="286"]
    287 [penwidth=3,label="287"]
    288 [penwidth=3,label="288"]
    289 [penwidth=3,label="289"]
    290 [penwidth=3,label="290"]
    291 [penwidth=3,label="291"]
    292 [penwidth=3,label="292"]
    293 [penwidth=3,label="293"]
    294 [penwidth=3,label="294"]
    295 [penwidth=3,label="295"]
    296 [penwidth=3,label="296"]
    297 [penwidth=3,label="297"]
    298 [penwidth=3,label="298"]
    299 [penwidth=3,label="299"]
    300 [penwidth=3,label="300"]
    301 [penwidth=3,label="301"]
    302 [penwidth=3,label="302"]
    303 [penwidth=3,label="303"]
    304 [penwidth=3,label="304"]
    305 [penwidth=3,label="305"]
    306 [penwidth=3,label="306"]
    307 [penwidth=3,label="307"]
    308 [penwidth=3,label="308"]
    309 [penwidth=3,label="309"]

    242 -> 0 [penwidth=2]
    243 -> 0 [penwidth=2]
    244 -> 0 [penwidth=2]
    245 -> 0 [penwidth=2]
    246 -> 0 [penwidth=2]
    247 -> 0 [penwidth=2]
    248 -> 0 [penwidth=2]
    249 -> 242 [penwidth=2]
    250 -> 242 [penwidth=2]
    251 -> 242 [penwidth=2]
    252 -> 242 [penwidth=2]
    253 -> 242 [penwidth=2]
    254 -> 242 [penwidth=2]
    255 -> 242 [penwidth=2]
    256 -> 242 [penwidth=2]
    257 -> 242 [penwidth=2]
    258 -> 242 [penwidth=2]
    259 -> 242 [penwidth=2]
    260 -> 242 [penwidth=2]
    261 -> 242 [penwidth=2]
    262 -> 242 [penwidth=2]
    263 -> 242 [penwidth=2]
    264 -> 242 [penwidth=2]
    265 -> 242 [penwidth=2]
    266 -> 242 [penwidth=2]
    267 -> 242 [penwidth=2]
    268 -> 242 [penwidth=2]
    269 -> 242 [penwidth=2]
    270 -> 242 [penwidth=2]
    271 -> 242 [penwidth=2]
    272 -> 242 [penwidth=2]
    273 -> 242 [penwidth=2]
    274 -> 243 [penwidth=2]
    275 -> 243 [penwidth=2]
    276 -> 243 [penwidth=2]
    277 -> 243 [penwidth=2]
    278 -> 243 [penwidth=2]
    279 -> 243 [penwidth=2]
    280 -> 243 [penwidth=2]
    281 -> 243 [penwidth=2]
    282 -> 243 [penwidth=2]
    283 -> 243 [penwidth=2]
    200 -> 243 [penwidth=2]
    201 -> 243 [penwidth=2]
    202 -> 243 [penwidth=2]
    203 -> 243 [penwidth=2]
    204 -> 243 [penwidth=2]
    205 -> 243 [penwidth=2]
    206 -> 243 [penwidth=2]
    207 -> 243 [penwidth=2]
    208 -> 243 [penwidth=2]
    209 -> 243 [penwidth=2]
    210 -> 243 [penwidth=2]
    211 -> 243 [penwidth=2]
    212 -> 243 [penwidth=2]
    213 -> 243 [penwidth=2]
    214 -> 243 [penwidth=2]
    215 -> 243 [penwidth=2]
    216 -> 244 [penwidth=2]
    217 -> 244 [penwidth=2]
    218 -> 244 [penwidth=2]
    219 -> 244 [penwidth=2]
    220 -> 244 [penwidth=2]
    221 -> 244 [penwidth=2]
    222 -> 244 [penwidth=2]
    223 -> 244 [penwidth=2]
    224 -> 244 [penwidth=2]
    225 -> 244 [penwidth=2]
    226 -> 245 [penwidth=2]
    227 -> 245 [penwidth=2]
    228 -> 245 [penwidth=2]
    229 -> 246 [penwidth=2]
    230 -> 246 [penwidth=2]
    231 -> 246 [penwidth=2]
    232 -> 246 [penwidth=2]
    233 -> 246 [penwidth=2]
    234 -> 246 [penwidth=2]
    235 -> 246 [penwidth=2]
    236 -> 246 [penwidth=2]
    237 -> 246 [penwidth=2]
    238 -> 247 [penwidth=2]
    239 -> 247 [penwidth=2]
    240 -> 247 [penwidth=2]
    241 -> 247 [penwidth=2]
    158 -> 247 [penwidth=2]
    159 -> 247 [penwidth=2]
    160 -> 247 [penwidth=2]
    161 -> 248 [penwidth=2]
    162 -> 248 [penwidth=2]
    163 -> 248 [penwidth=2]
    164 -> 248 [penwidth=2]
    165 -> 249 [penwidth=2]
    166 -> 249 [penwidth=2]
    167 -> 249 [penwidth=2]
    168 -> 249 [penwidth=2]
    169 -> 249 [penwidth=2]
    170 -> 249 [penwidth=2]
    171 -> 249 [penwidth=2]
    172 -> 249 [penwidth=2]
    173 -> 249 [penwidth=2]
    174 -> 249 [penwidth=2]
    175 -> 249 [penwidth=2]
    176 -> 249 [penwidth=2]
    177 -> 249 [penwidth=2]
    178 -> 249 [penwidth=2]
    179 -> 249 [penwidth=2]
    180 -> 249 [penwidth=2]
    181 -> 249 [penwidth=2]
    182 -> 249 [penwidth=2]
    183 -> 249 [penwidth=2]
    184 -> 249 [penwidth=2]
    185 -> 249 [penwidth=2]
    186 -> 249 [penwidth=2]
    187 -> 249 [penwidth=2]
    188 -> 249 [penwidth=2]
    189 -> 249 [penwidth=2]
    190 -> 249 [penwidth=2]
    191 -> 250 [penwidth=2]
    192 -> 250 [penwidth=2]
    193 -> 250 [penwidth=2]
    194 -> 250 [penwidth=2]
    195 -> 250 [penwidth=2]
    196 -> 250 [penwidth=2]
    197 -> 250 [penwidth=2]
    198 -> 250 [penwidth=2]
    199 -> 250 [penwidth=2]
    116 -> 251 [penwidth=2]
    117 -> 251 [penwidth=2]
    118 -> 251 [penwidth=2]
    119 -> 251 [penwidth=2]
    120 -> 251 [penwidth=2]
    121 -> 251 [penwidth=2]
    122 -> 251 [penwidth=2]
    123 -> 251 [penwidth=2]
    124 -> 251 [penwidth=2]
    125 -> 251 [penwidth=2]
    126 -> 251 [penwidth=2]
    127 -> 251 [penwidth=2]
    128 -> 251 [penwidth=2]
    129 -> 251 [penwidth=2]
    130 -> 251 [penwidth=2]
    131 -> 251 [penwidth=2]
    132 -> 251 [penwidth=2]
    133 -> 251 [penwidth=2]
    134 -> 251 [penwidth=2]
    135 -> 251 [penwidth=2]
    136 -> 251 [penwidth=2]
    137 -> 251 [penwidth=2]
    138 -> 251 [penwidth=2]
    139 -> 251 [penwidth=2]
    140 -> 252 [penwidth=2]
    141 -> 252 [penwidth=2]
    142 -> 252 [penwidth=2]
    143 -> 252 [penwidth=2]
    144 -> 252 [penwidth=2]
    145 -> 252 [penwidth=2]
    146 -> 252 [penwidth=2]
    147 -> 252 [penwidth=2]
    148 -> 252 [penwidth=2]
    149 -> 253 [penwidth=2]
    150 -> 253 [penwidth=2]
    151 -> 253 [penwidth=2]
    152 -> 253 [penwidth=2]
    153 -> 253 [penwidth=2]
    154 -> 253 [penwidth=2]
    155 -> 253 [penwidth=2]
    156 -> 253 [penwidth=2]
    157 -> 253 [penwidth=2]
    74 -> 253 [penwidth=2]
    75 -> 253 [penwidth=2]
    76 -> 253 [penwidth=2]
    77 -> 253 [penwidth=2]
    78 -> 253 [penwidth=2]
    79 -> 253 [penwidth=2]
    80 -> 253 [penwidth=2]
    81 -> 253 [penwidth=2]
    82 -> 254 [penwidth=2]
    83 -> 254 [penwidth=2]
    84 -> 254 [penwidth=2]
    85 -> 254 [penwidth=2]
    86 -> 254 [penwidth=2]
    87 -> 254 [penwidth=2]
    88 -> 254 [penwidth=2]
    89 -> 254 [penwidth=2]
    90 -> 254 [penwidth=2]
    91 -> 254 [penwidth=2]
    92 -> 254 [penwidth=2]
    93 -> 254 [penwidth=2]
    94 -> 254 [penwidth=2]
    95 -> 254 [penwidth=2]
    96 -> 254 [penwidth=2]
    97 -> 254 [penwidth=2]
    98 -> 254 [penwidth=2]
    99 -> 254 [penwidth=2]
    100 -> 255 [penwidth=2]
    101 -> 255 [penwidth=2]
    102 -> 255 [penwidth=2]
    103 -> 255 [penwidth=2]
    104 -> 255 [penwidth=2]
    105 -> 255 [penwidth=2]
    106 -> 255 [penwidth=2]
    107 -> 255 [penwidth=2]
    108 -> 255 [penwidth=2]
    109 -> 255 [penwidth=2]
    110 -> 255 [penwidth=2]
    111 -> 255 [penwidth=2]
    112 -> 255 [penwidth=2]
    113 -> 255 [penwidth=2]
    114 -> 256 [penwidth=2]
    115 -> 256 [penwidth=2]
    32 -> 256 [penwidth=2]
    33 -> 256 [penwidth=2]
    34 -> 256 [penwidth=2]
    35 -> 256 [penwidth=2]
    36 -> 256 [penwidth=2]
    37 -> 256 [penwidth=2]
    38 -> 256 [penwidth=2]
    39 -> 256 [penwidth=2]
    40 -> 256 [penwidth=2]
    41 -> 256 [penwidth=2]
    42 -> 256 [penwidth=2]
    1 -> 256 [penwidth=2]
    43 -> 256 [penwidth=2]
    2 -> 256 [penwidth=2]
    44 -> 256 [penwidth=2]
    3 -> 256 [penwidth=2]
    45 -> 256 [penwidth=2]
    4 -> 256 [penwidth=2]
    46 -> 257 [penwidth=2]
    5 -> 257 [penwidth=2]
    47 -> 257 [penwidth=2]
    6 -> 257 [penwidth=2]
    48 -> 257 [penwidth=2]
    7 -> 258 [penwidth=2]
    49 -> 258 [penwidth=2]
    8 -> 258 [penwidth=2]
    50 -> 258 [penwidth=2]
    9 -> 258 [penwidth=2]
    51 -> 259 [penwidth=2]
    52 -> 259 [penwidth=2]
    10 -> 259 [penwidth=2]
    11 -> 259 [penwidth=2]
    53 -> 259 [penwidth=2]
    12 -> 260 [penwidth=2]
    54 -> 260 [penwidth=2]
    13 -> 260 [penwidth=2]
    55 -> 260 [penwidth=2]
    14 -> 260 [penwidth=2]
    56 -> 260 [penwidth=2]
    15 -> 260 [penwidth=2]
    57 -> 260 [penwidth=2]
    16 -> 260 [penwidth=2]
    58 -> 260 [penwidth=2]
    17 -> 260 [penwidth=2]
    59 -> 260 [penwidth=2]
    18 -> 260 [penwidth=2]
    60 -> 260 [penwidth=2]
    19 -> 260 [penwidth=2]
    61 -> 260 [penwidth=2]
    20 -> 260 [penwidth=2]
    62 -> 260 [penwidth=2]
    21 -> 260 [penwidth=2]
    63 -> 260 [penwidth=2]
    22 -> 261 [penwidth=2]
    64 -> 261 [penwidth=2]
    23 -> 261 [penwidth=2]
    65 -> 261 [penwidth=2]
    24 -> 261 [penwidth=2]
    66 -> 261 [penwidth=2]
    25 -> 261 [penwidth=2]
    67 -> 262 [penwidth=2]
    26 -> 262 [penwidth=2]
    68 -> 262 [penwidth=2]
    27 -> 263 [penwidth=2]
    69 -> 263 [penwidth=2]
    28 -> 263 [penwidth=2]
    70 -> 263 [penwidth=2]
    29 -> 263 [penwidth=2]
    71 -> 263 [penwidth=2]
    30 -> 263 [penwidth=2]
    72 -> 263 [penwidth=2]
    73 -> 263 [penwidth=2]
    31 -> 264 [penwidth=2]
    284 -> 265 [penwidth=2]
    285 -> 265 [penwidth=2]
    286 -> 265 [penwidth=2]
    287 -> 265 [penwidth=2]
    288 -> 265 [penwidth=2]
    289 -> 265 [penwidth=2]
    290 -> 265 [penwidth=2]
    291 -> 265 [penwidth=2]
    292 -> 265 [penwidth=2]
    293 -> 265 [penwidth=2]
    294 -> 265 [penwidth=2]
    295 -> 265 [penwidth=2]
    296 -> 265 [penwidth=2]
    297 -> 265 [penwidth=2]
    298 -> 265 [penwidth=2]
    299 -> 265 [penwidth=2]
    300 -> 265 [penwidth=2]
    301 -> 265 [penwidth=2]
    302 -> 265 [penwidth=2]
    303 -> 265 [penwidth=2]
    304 -> 265 [penwidth=2]
    305 -> 265 [penwidth=2]
    306 -> 265 [penwidth=2]
    307 -> 266 [penwidth=2]
    308 -> 266 [penwidth=2]
    309 -> 266 [penwidth=2]
    259 -> 245 [penwidth=2]
    262 -> 246 [penwidth=2]
    269 -> 243 [penwidth=2]
    269 -> 246 [penwidth=2]
    269 -> 247 [penwidth=2]
    269 -> 245 [penwidth=2]
    269 -> 244 [penwidth=2]
    205 -> 242 [penwidth=2]
    205 -> 247 [penwidth=2]
    205 -> 245 [penwidth=2]
    205 -> 248 [penwidth=2]
    175 -> 218 [penwidth=2]
    175 -> 201 [penwidth=2]
    175 -> 256 [penwidth=2]
    175 -> 252 [penwidth=2]
    175 -> 234 [penwidth=2]
    175 -> 238 [penwidth=2]
    175 -> 200 [penwidth=2]
    175 -> 276 [penwidth=2]
    175 -> 269 [penwidth=2]
    175 -> 265 [penwidth=2]
    175 -> 222 [penwidth=2]
    175 -> 280 [penwidth=2]
    175 -> 160 [penwidth=2]
    175 -> 261 [penwidth=2]
    175 -> 241 [penwidth=2]
    175 -> 216 [penwidth=2]
    175 -> 162 [penwidth=2]
    175 -> 223 [penwidth=2]
    175 -> 224 [penwidth=2]
    175 -> 235 [penwidth=2]
    175 -> 227 [penwidth=2]
    175 -> 237 [penwidth=2]
    175 -> 255 [penwidth=2]
    175 -> 263 [penwidth=2]
    175 -> 266 [penwidth=2]
    175 -> 164 [penwidth=2]
    175 -> 274 [penwidth=2]
    175 -> 209 [penwidth=2]
    175 -> 271 [penwidth=2]
    175 -> 208 [penwidth=2]
    175 -> 236 [penwidth=2]
    175 -> 254 [penwidth=2]
    175 -> 281 [penwidth=2]
    175 -> 221 [penwidth=2]
    175 -> 260 [penwidth=2]
    175 -> 228 [penwidth=2]
    175 -> 231 [penwidth=2]
    175 -> 158 [penwidth=2]
    175 -> 203 [penwidth=2]
    175 -> 278 [penwidth=2]
    175 -> 233 [penwidth=2]
    175 -> 163 [penwidth=2]
    175 -> 230 [penwidth=2]
    175 -> 232 [penwidth=2]
    175 -> 251 [penwidth=2]
    175 -> 225 [penwidth=2]
    175 -> 258 [penwidth=2]
    175 -> 210 [penwidth=2]
    175 -> 273 [penwidth=2]
    175 -> 277 [penwidth=2]
    175 -> 226 [penwidth=2]
    175 -> 268 [penwidth=2]
    175 -> 206 [penwidth=2]
    175 -> 240 [penwidth=2]
    175 -> 262 [penwidth=2]
    175 -> 282 [penwidth=2]
    175 -> 283 [penwidth=2]
    175 -> 259 [penwidth=2]
    175 -> 270 [penwidth=2]
    175 -> 205 [penwidth=2]
    175 -> 212 [penwidth=2]
    175 -> 214 [penwidth=2]
    175 -> 213 [penwidth=2]
    175 -> 204 [penwidth=2]
    175 -> 217 [penwidth=2]
    175 -> 211 [penwidth=2]
    175 -> 239 [penwidth=2]
    175 -> 250 [penwidth=2]
    175 -> 253 [penwidth=2]
    175 -> 279 [penwidth=2]
    175 -> 207 [penwidth=2]
    175 -> 257 [penwidth=2]
    175 -> 219 [penwidth=2]
    175 -> 267 [penwidth=2]
    175 -> 264 [penwidth=2]
    175 -> 272 [penwidth=2]
    175 -> 159 [penwidth=2]
    175 -> 215 [penwidth=2]
    176 -> 202 [penwidth=2]
    176 -> 237 [penwidth=2]
    176 -> 264 [penwidth=2]
    176 -> 220 [penwidth=2]
    176 -> 212 [penwidth=2]
    176 -> 258 [penwidth=2]
    176 -> 255 [penwidth=2]
    176 -> 275 [penwidth=2]
    176 -> 228 [penwidth=2]
    176 -> 250 [penwidth=2]
    176 -> 259 [penwidth=2]
    176 -> 279 [penwidth=2]
    176 -> 163 [penwidth=2]
    176 -> 233 [penwidth=2]
    176 -> 158 [penwidth=2]
    176 -> 161 [penwidth=2]
    176 -> 282 [penwidth=2]
    176 -> 213 [penwidth=2]
    176 -> 235 [penwidth=2]
    176 -> 271 [penwidth=2]
    176 -> 227 [penwidth=2]
    176 -> 221 [penwidth=2]
    176 -> 236 [penwidth=2]
    176 -> 224 [penwidth=2]
    176 -> 278 [penwidth=2]
    176 -> 226 [penwidth=2]
    176 -> 215 [penwidth=2]
    176 -> 230 [penwidth=2]
    176 -> 219 [penwidth=2]
    176 -> 222 [penwidth=2]
    176 -> 240 [penwidth=2]
    176 -> 232 [penwidth=2]
    176 -> 272 [penwidth=2]
    176 -> 209 [penwidth=2]
    176 -> 164 [penwidth=2]
    176 -> 280 [penwidth=2]
    176 -> 241 [penwidth=2]
    176 -> 260 [penwidth=2]
    176 -> 211 [penwidth=2]
    176 -> 257 [penwidth=2]
    176 -> 253 [penwidth=2]
    176 -> 234 [penwidth=2]
    176 -> 256 [penwidth=2]
    176 -> 160 [penwidth=2]
    176 -> 267 [penwidth=2]
    176 -> 263 [penwidth=2]
    176 -> 277 [penwidth=2]
    176 -> 270 [penwidth=2]
    176 -> 269 [penwidth=2]
    176 -> 162 [penwidth=2]
    176 -> 203 [penwidth=2]
    176 -> 274 [penwidth=2]
    176 -> 238 [penwidth=2]
    176 -> 252 [penwidth=2]
    176 -> 262 [penwidth=2]
    176 -> 266 [penwidth=2]
    176 -> 200 [penwidth=2]
    176 -> 206 [penwidth=2]
    195 -> 282 [penwidth=2]
    195 -> 272 [penwidth=2]
    195 -> 201 [penwidth=2]
    195 -> 214 [penwidth=2]
    195 -> 264 [penwidth=2]
    195 -> 273 [penwidth=2]
    195 -> 218 [penwidth=2]
    195 -> 160 [penwidth=2]
    195 -> 276 [penwidth=2]
    195 -> 283 [penwidth=2]
    195 -> 270 [penwidth=2]
    195 -> 237 [penwidth=2]
    195 -> 253 [penwidth=2]
    195 -> 161 [penwidth=2]
    195 -> 251 [penwidth=2]
    195 -> 225 [penwidth=2]
    195 -> 262 [penwidth=2]
    195 -> 241 [penwidth=2]
    195 -> 159 [penwidth=2]
    195 -> 206 [penwidth=2]
    195 -> 274 [penwidth=2]
    195 -> 259 [penwidth=2]
    195 -> 280 [penwidth=2]
    195 -> 209 [penwidth=2]
    195 -> 268 [penwidth=2]
    195 -> 228 [penwidth=2]
    195 -> 202 [penwidth=2]
    195 -> 204 [penwidth=2]
    195 -> 205 [penwidth=2]
    195 -> 230 [penwidth=2]
    195 -> 227 [penwidth=2]
    195 -> 164 [penwidth=2]
    195 -> 267 [penwidth=2]
    195 -> 213 [penwidth=2]
    195 -> 278 [penwidth=2]
    195 -> 240 [penwidth=2]
    195 -> 224 [penwidth=2]
    195 -> 256 [penwidth=2]
    195 -> 163 [penwidth=2]
    195 -> 210 [penwidth=2]
    195 -> 211 [penwidth=2]
    195 -> 162 [penwidth=2]
    195 -> 232 [penwidth=2]
    195 -> 212 [penwidth=2]
    195 -> 235 [penwidth=2]
    195 -> 236 [penwidth=2]
    195 -> 258 [penwidth=2]
    195 -> 229 [penwidth=2]
    195 -> 275 [penwidth=2]
    195 -> 271 [penwidth=2]
    195 -> 222 [penwidth=2]
    195 -> 217 [penwidth=2]
    195 -> 226 [penwidth=2]
    195 -> 208 [penwidth=2]
    195 -> 266 [penwidth=2]
    195 -> 200 [penwidth=2]
    195 -> 269 [penwidth=2]
    195 -> 239 [penwidth=2]
    195 -> 255 [penwidth=2]
    195 -> 277 [penwidth=2]
    196 -> 274 [penwidth=2]
    196 -> 216 [penwidth=2]
    196 -> 234 [penwidth=2]
    196 -> 212 [penwidth=2]
    196 -> 228 [penwidth=2]
    196 -> 239 [penwidth=2]
    196 -> 256 [penwidth=2]
    196 -> 238 [penwidth=2]
    196 -> 252 [penwidth=2]
    196 -> 162 [penwidth=2]
    196 -> 210 [penwidth=2]
    196 -> 264 [penwidth=2]
    196 -> 200 [penwidth=2]
    196 -> 227 [penwidth=2]
    196 -> 211 [penwidth=2]
    196 -> 269 [penwidth=2]
    196 -> 164 [penwidth=2]
    196 -> 236 [penwidth=2]
    196 -> 161 [penwidth=2]
    196 -> 231 [penwidth=2]
    196 -> 204 [penwidth=2]
    196 -> 208 [penwidth=2]
    196 -> 240 [penwidth=2]
    196 -> 251 [penwidth=2]
    196 -> 281 [penwidth=2]
    196 -> 201 [penwidth=2]
    196 -> 159 [penwidth=2]
    196 -> 229 [penwidth=2]
    198 -> 282 [penwidth=2]
    198 -> 230 [penwidth=2]
    198 -> 200 [penwidth=2]
    198 -> 164 [penwidth=2]
    198 -> 222 [penwidth=2]
    198 -> 214 [penwidth=2]
    198 -> 220 [penwidth=2]
    198 -> 223 [penwidth=2]
    138 -> 164 [penwidth=2]
    138 -> 163 [penwidth=2]
    138 -> 212 [penwidth=2]
    138 -> 257 [penwidth=2]
    138 -> 201 [penwidth=2]
    138 -> 224 [penwidth=2]
    138 -> 268 [penwidth=2]
    138 -> 226 [penwidth=2]
    138 -> 275 [penwidth=2]
    138 -> 237 [penwidth=2]
    138 -> 214 [penwidth=2]
    138 -> 280 [penwidth=2]
    138 -> 277 [penwidth=2]
    138 -> 159 [penwidth=2]
    138 -> 204 [penwidth=2]
    138 -> 250 [penwidth=2]
    138 -> 223 [penwidth=2]
    138 -> 252 [penwidth=2]
    138 -> 282 [penwidth=2]
    138 -> 274 [penwidth=2]
    138 -> 270 [penwidth=2]
    138 -> 231 [penwidth=2]
    138 -> 227 [penwidth=2]
    138 -> 281 [penwidth=2]
    138 -> 209 [penwidth=2]
    138 -> 217 [penwidth=2]
    138 -> 265 [penwidth=2]
    138 -> 261 [penwidth=2]
    138 -> 260 [penwidth=2]
    138 -> 256 [penwidth=2]
    138 -> 215 [penwidth=2]
    140 -> 254 [penwidth=2]
    140 -> 205 [penwidth=2]
    140 -> 263 [penwidth=2]
    140 -> 161 [penwidth=2]
    140 -> 217 [penwidth=2]
    140 -> 163 [penwidth=2]
    140 -> 280 [penwidth=2]
    140 -> 237 [penwidth=2]
    140 -> 225 [penwidth=2]
    140 -> 211 [penwidth=2]
    140 -> 253 [penwidth=2]
    140 -> 266 [penwidth=2]
    140 -> 267 [penwidth=2]
    140 -> 276 [penwidth=2]
    140 -> 272 [penwidth=2]
    140 -> 241 [penwidth=2]
    140 -> 206 [penwidth=2]
    140 -> 258 [penwidth=2]
    140 -> 229 [penwidth=2]
    140 -> 270 [penwidth=2]
    140 -> 226 [penwidth=2]
    140 -> 250 [penwidth=2]
    140 -> 235 [penwidth=2]
    140 -> 209 [penwidth=2]
    140 -> 251 [penwidth=2]
    140 -> 257 [penwidth=2]
    140 -> 228 [penwidth=2]
    140 -> 238 [penwidth=2]
    140 -> 219 [penwidth=2]
    140 -> 203 [penwidth=2]
    140 -> 222 [penwidth=2]
    140 -> 224 [penwidth=2]
    140 -> 207 [penwidth=2]
    140 -> 202 [penwidth=2]
    140 -> 282 [penwidth=2]
    140 -> 273 [penwidth=2]
    140 -> 201 [penwidth=2]
    140 -> 232 [penwidth=2]
    140 -> 164 [penwidth=2]
    140 -> 261 [penwidth=2]
    140 -> 160 [penwidth=2]
    142 -> 269 [penwidth=2]
    142 -> 258 [penwidth=2]
    142 -> 203 [penwidth=2]
    142 -> 207 [penwidth=2]
    142 -> 215 [penwidth=2]
    142 -> 225 [penwidth=2]
    142 -> 262 [penwidth=2]
    142 -> 222 [penwidth=2]
    142 -> 282 [penwidth=2]
    142 -> 232 [penwidth=2]
    142 -> 268 [penwidth=2]
    142 -> 206 [penwidth=2]
    142 -> 267 [penwidth=2]
    142 -> 164 [penwidth=2]
    142 -> 272 [penwidth=2]
    142 -> 255 [penwidth=2]
    142 -> 223 [penwidth=2]
    142 -> 227 [penwidth=2]
    142 -> 220 [penwidth=2]
    142 -> 163 [penwidth=2]
    142 -> 234 [penwidth=2]
    142 -> 230 [penwidth=2]
    142 -> 256 [penwidth=2]
    142 -> 276 [penwidth=2]
    142 -> 266 [penwidth=2]
    142 -> 205 [penwidth=2]
    142 -> 261 [penwidth=2]
    142 -> 273 [penwidth=2]
    142 -> 251 [penwidth=2]
    142 -> 218 [penwidth=2]
    142 -> 229 [penwidth=2]
    142 -> 253 [penwidth=2]
    142 -> 160 [penwidth=2]
    142 -> 240 [penwidth=2]
    142 -> 238 [penwidth=2]
    142 -> 217 [penwidth=2]
    142 -> 260 [penwidth=2]
    149 -> 160 [penwidth=2]
    149 -> 221 [penwidth=2]
    149 -> 218 [penwidth=2]
    149 -> 215 [penwidth=2]
    149 -> 228 [penwidth=2]
    149 -> 264 [penwidth=2]
    149 -> 260 [penwidth=2]
    149 -> 258 [penwidth=2]
    149 -> 203 [penwidth=2]
    149 -> 208 [penwidth=2]
    149 -> 236 [penwidth=2]
    149 -> 224 [penwidth=2]
    149 -> 257 [penwidth=2]
    149 -> 282 [penwidth=2]
    149 -> 214 [penwidth=2]
    149 -> 161 [penwidth=2]
    149 -> 233 [penwidth=2]
    149 -> 223 [penwidth=2]
    149 -> 250 [penwidth=2]
    149 -> 255 [penwidth=2]
    149 -> 241 [penwidth=2]
    149 -> 278 [penwidth=2]
    149 -> 249 [penwidth=2]
    149 -> 261 [penwidth=2]
    149 -> 225 [penwidth=2]
    149 -> 274 [penwidth=2]
    149 -> 200 [penwidth=2]
    149 -> 268 [penwidth=2]
    149 -> 262 [penwidth=2]
    149 -> 163 [penwidth=2]
    149 -> 206 [penwidth=2]
    149 -> 269 [penwidth=2]
    149 -> 204 [penwidth=2]
    149 -> 230 [penwidth=2]
    149 -> 237 [penwidth=2]
    149 -> 205 [penwidth=2]
    149 -> 238 [penwidth=2]
    149 -> 267 [penwidth=2]
    149 -> 265 [penwidth=2]
    149 -> 270 [penwidth=2]
    149 -> 201 [penwidth=2]
    149 -> 240 [penwidth=2]
    149 -> 159 [penwidth=2]
    149 -> 234 [penwidth=2]
    149 -> 217 [penwidth=2]
    149 -> 202 [penwidth=2]
    149 -> 164 [penwidth=2]
    149 -> 283 [penwidth=2]
    149 -> 209 [penwidth=2]
    149 -> 212 [penwidth=2]
    149 -> 266 [penwidth=2]
    149 -> 220 [penwidth=2]
    149 -> 229 [penwidth=2]
    149 -> 251 [penwidth=2]
    149 -> 219 [penwidth=2]
    149 -> 252 [penwidth=2]
    149 -> 232 [penwidth=2]
    149 -> 216 [penwidth=2]
    149 -> 254 [penwidth=2]
    149 -> 277 [penwidth=2]
    149 -> 213 [penwidth=2]
    149 -> 210 [penwidth=2]
    149 -> 239 [penwidth=2]
    149 -> 226 [penwidth=2]
    149 -> 222 [penwidth=2]
    149 -> 162 [penwidth=2]
    149 -> 263 [penwidth=2]
    149 -> 271 [penwidth=2]
    149 -> 273 [penwidth=2]
    149 -> 281 [penwidth=2]
    149 -> 279 [penwidth=2]
    149 -> 231 [penwidth=2]
    149 -> 256 [penwidth=2]
    149 -> 211 [penwidth=2]
    149 -> 235 [penwidth=2]
    149 -> 272 [penwidth=2]
    150 -> 283 [penwidth=2]
    150 -> 158 [penwidth=2]
    150 -> 217 [penwidth=2]
    150 -> 224 [penwidth=2]
    150 -> 273 [penwidth=2]
    150 -> 226 [penwidth=2]
    150 -> 270 [penwidth=2]
    150 -> 233 [penwidth=2]
    150 -> 221 [penwidth=2]
    150 -> 282 [penwidth=2]
    150 -> 208 [penwidth=2]
    150 -> 269 [penwidth=2]
    150 -> 161 [penwidth=2]
    150 -> 214 [penwidth=2]
    150 -> 232 [penwidth=2]
    150 -> 239 [penwidth=2]
    150 -> 234 [penwidth=2]
    150 -> 254 [penwidth=2]
    150 -> 277 [penwidth=2]
    150 -> 215 [penwidth=2]
    150 -> 272 [penwidth=2]
    81 -> 232 [penwidth=2]
    81 -> 161 [penwidth=2]
    81 -> 249 [penwidth=2]
    81 -> 207 [penwidth=2]
    81 -> 254 [penwidth=2]
    81 -> 257 [penwidth=2]
    81 -> 269 [penwidth=2]
    81 -> 270 [penwidth=2]
    81 -> 256 [penwidth=2]
    81 -> 255 [penwidth=2]
    81 -> 162 [penwidth=2]
    81 -> 265 [penwidth=2]
    81 -> 225 [penwidth=2]
    81 -> 263 [penwidth=2]
    81 -> 279 [penwidth=2]
    81 -> 238 [penwidth=2]
    81 -> 280 [penwidth=2]
    81 -> 213 [penwidth=2]
    81 -> 159 [penwidth=2]
    81 -> 236 [penwidth=2]
    81 -> 230 [penwidth=2]
    81 -> 206 [penwidth=2]
    81 -> 228 [penwidth=2]
    81 -> 281 [penwidth=2]
    81 -> 267 [penwidth=2]
    81 -> 260 [penwidth=2]
    81 -> 204 [penwidth=2]
    81 -> 218 [penwidth=2]
    81 -> 277 [penwidth=2]
    81 -> 266 [penwidth=2]
    81 -> 271 [penwidth=2]
    81 -> 237 [penwidth=2]
    81 -> 235 [penwidth=2]
    81 -> 209 [penwidth=2]
    81 -> 275 [penwidth=2]
    81 -> 220 [penwidth=2]
    81 -> 229 [penwidth=2]
    81 -> 272 [penwidth=2]
    81 -> 214 [penwidth=2]
    81 -> 226 [penwidth=2]
    81 -> 278 [penwidth=2]
    81 -> 261 [penwidth=2]
    81 -> 264 [penwidth=2]
    81 -> 201 [penwidth=2]
    81 -> 283 [penwidth=2]
    81 -> 223 [penwidth=2]
    81 -> 250 [penwidth=2]
    81 -> 262 [penwidth=2]
    81 -> 163 [penwidth=2]
    81 -> 216 [penwidth=2]
    83 -> 201 [penwidth=2]
    83 -> 258 [penwidth=2]
    83 -> 226 [penwidth=2]
    83 -> 227 [penwidth=2]
    83 -> 262 [penwidth=2]
    83 -> 217 [penwidth=2]
    83 -> 283 [penwidth=2]
    83 -> 277 [penwidth=2]
    83 -> 268 [penwidth=2]
    83 -> 251 [penwidth=2]
    83 -> 161 [penwidth=2]
    83 -> 249 [penwidth=2]
    83 -> 223 [penwidth=2]
    83 -> 159 [penwidth=2]
    83 -> 279 [penwidth=2]
    83 -> 278 [penwidth=2]
    83 -> 273 [penwidth=2]
    83 -> 225 [penwidth=2]
    83 -> 264 [penwidth=2]
    83 -> 233 [penwidth=2]
    83 -> 164 [penwidth=2]
    83 -> 211 [penwidth=2]
    83 -> 205 [penwidth=2]
    83 -> 257 [penwidth=2]
    83 -> 281 [penwidth=2]
    83 -> 241 [penwidth=2]
    83 -> 220 [penwidth=2]
    83 -> 231 [penwidth=2]
    83 -> 236 [penwidth=2]
    83 -> 230 [penwidth=2]
    83 -> 261 [penwidth=2]
    83 -> 252 [penwidth=2]
    83 -> 222 [penwidth=2]
    83 -> 212 [penwidth=2]
    83 -> 255 [penwidth=2]
    83 -> 275 [penwidth=2]
    83 -> 206 [penwidth=2]
    83 -> 240 [penwidth=2]
    83 -> 259 [penwidth=2]
    83 -> 202 [penwidth=2]
    83 -> 253 [penwidth=2]
    83 -> 267 [penwidth=2]
    83 -> 162 [penwidth=2]
    83 -> 239 [penwidth=2]
    83 -> 263 [penwidth=2]
    83 -> 200 [penwidth=2]
    83 -> 158 [penwidth=2]
    83 -> 160 [penwidth=2]
    83 -> 207 [penwidth=2]
    83 -> 215 [penwidth=2]
    83 -> 276 [penwidth=2]
    83 -> 260 [penwidth=2]
    83 -> 232 [penwidth=2]
    83 -> 204 [penwidth=2]
    83 -> 208 [penwidth=2]
    83 -> 234 [penwidth=2]
    83 -> 203 [penwidth=2]
    83 -> 210 [penwidth=2]
    83 -> 266 [penwidth=2]
    96 -> 163 [penwidth=2]
    96 -> 161 [penwidth=2]
    96 -> 276 [penwidth=2]
    96 -> 162 [penwidth=2]
    96 -> 282 [penwidth=2]
    96 -> 231 [penwidth=2]
    96 -> 249 [penwidth=2]
    96 -> 265 [penwidth=2]
    96 -> 278 [penwidth=2]
    96 -> 271 [penwidth=2]
    96 -> 227 [penwidth=2]
    96 -> 205 [penwidth=2]
    96 -> 280 [penwidth=2]
    96 -> 160 [penwidth=2]
    96 -> 232 [penwidth=2]
    96 -> 225 [penwidth=2]
    96 -> 203 [penwidth=2]
    96 -> 251 [penwidth=2]
    96 -> 268 [penwidth=2]
    96 -> 237 [penwidth=2]
    96 -> 241 [penwidth=2]
    99 -> 256 [penwidth=2]
    99 -> 236 [penwidth=2]
    99 -> 200 [penwidth=2]
    99 -> 159 [penwidth=2]
    99 -> 202 [penwidth=2]
    99 -> 208 [penwidth=2]
    99 -> 264 [penwidth=2]
    99 -> 204 [penwidth=2]
    99 -> 239 [penwidth=2]
    99 -> 269 [penwidth=2]
    99 -> 263 [penwidth=2]
    99 -> 209 [penwidth=2]
    99 -> 260 [penwidth=2]
    99 -> 215 [penwidth=2]
    99 -> 214 [penwidth=2]
    99 -> 258 [penwidth=2]
    99 -> 164 [penwidth=2]
    99 -> 217 [penwidth=2]
    99 -> 250 [penwidth=2]
    99 -> 222 [penwidth=2]
    99 -> 251 [penwidth=2]
    99 -> 162 [penwidth=2]
    99 -> 158 [penwidth=2]
    99 -> 267 [penwidth=2]
    99 -> 262 [penwidth=2]
    99 -> 216 [penwidth=2]
    99 -> 275 [penwidth=2]
    99 -> 279 [penwidth=2]
    99 -> 255 [penwidth=2]
    99 -> 161 [penwidth=2]
    99 -> 229 [penwidth=2]
    99 -> 160 [penwidth=2]
    99 -> 253 [penwidth=2]
    99 -> 234 [penwidth=2]
    99 -> 201 [penwidth=2]
    99 -> 265 [penwidth=2]
    99 -> 280 [penwidth=2]
    99 -> 226 [penwidth=2]
    99 -> 241 [penwidth=2]
    99 -> 225 [penwidth=2]
    99 -> 270 [penwidth=2]
    99 -> 237 [penwidth=2]
    99 -> 233 [penwidth=2]
    99 -> 273 [penwidth=2]
    99 -> 252 [penwidth=2]
    99 -> 271 [penwidth=2]
    99 -> 210 [penwidth=2]
    99 -> 240 [penwidth=2]
    99 -> 261 [penwidth=2]
    99 -> 238 [penwidth=2]
    99 -> 228 [penwidth=2]
    99 -> 213 [penwidth=2]
    99 -> 227 [penwidth=2]
    99 -> 276 [penwidth=2]
    99 -> 218 [penwidth=2]
    99 -> 259 [penwidth=2]
    99 -> 223 [penwidth=2]
    99 -> 278 [penwidth=2]
    99 -> 282 [penwidth=2]
    99 -> 163 [penwidth=2]
    99 -> 207 [penwidth=2]
    99 -> 230 [penwidth=2]
    99 -> 212 [penwidth=2]
    99 -> 272 [penwidth=2]
    99 -> 232 [penwidth=2]
    99 -> 277 [penwidth=2]
    99 -> 235 [penwidth=2]
    99 -> 203 [penwidth=2]
    99 -> 274 [penwidth=2]
    99 -> 211 [penwidth=2]
    99 -> 219 [penwidth=2]
    99 -> 224 [penwidth=2]
    99 -> 231 [penwidth=2]
    99 -> 220 [penwidth=2]
    99 -> 268 [penwidth=2]
    99 -> 257 [penwidth=2]
    99 -> 283 [penwidth=2]
    99 -> 266 [penwidth=2]
    99 -> 281 [penwidth=2]
    99 -> 206 [penwidth=2]
    99 -> 249 [penwidth=2]
    99 -> 205 [penwidth=2]
    102 -> 261 [penwidth=2]
    102 -> 280 [penwidth=2]
    102 -> 227 [penwidth=2]
    102 -> 274 [penwidth=2]
    102 -> 258 [penwidth=2]
    102 -> 241 [penwidth=2]
    102 -> 267 [penwidth=2]
    102 -> 253 [penwidth=2]
    102 -> 265 [penwidth=2]
    102 -> 230 [penwidth=2]
    102 -> 232 [penwidth=2]
    102 -> 271 [penwidth=2]
    102 -> 214 [penwidth=2]
    102 -> 266 [penwidth=2]
    102 -> 270 [penwidth=2]
    102 -> 200 [penwidth=2]
    102 -> 211 [penwidth=2]
    102 -> 201 [penwidth=2]
    102 -> 220 [penwidth=2]
    102 -> 164 [penwidth=2]
    102 -> 217 [penwidth=2]
    102 -> 276 [penwidth=2]
    102 -> 238 [penwidth=2]
    102 -> 206 [penwidth=2]
    102 -> 202 [penwidth=2]
    102 -> 207 [penwidth=2]
    102 -> 162 [penwidth=2]
    102 -> 225 [penwidth=2]
    102 -> 249 [penwidth=2]
    102 -> 273 [penwidth=2]
    102 -> 279 [penwidth=2]
    102 -> 264 [penwidth=2]
    102 -> 222 [penwidth=2]
    102 -> 256 [penwidth=2]
    102 -> 281 [penwidth=2]
    102 -> 254 [penwidth=2]
    102 -> 259 [penwidth=2]
    102 -> 226 [penwidth=2]
    102 -> 268 [penwidth=2]
    102 -> 283 [penwidth=2]
    102 -> 269 [penwidth=2]
    102 -> 234 [penwidth=2]
    102 -> 250 [penwidth=2]
    102 -> 158 [penwidth=2]
    102 -> 257 [penwidth=2]
    102 -> 205 [penwidth=2]
    102 -> 218 [penwidth=2]
    102 -> 252 [penwidth=2]
    102 -> 212 [penwidth=2]
    102 -> 275 [penwidth=2]
    102 -> 208 [penwidth=2]
    102 -> 161 [penwidth=2]
    102 -> 235 [penwidth=2]
    102 -> 203 [penwidth=2]
    102 -> 204 [penwidth=2]
    102 -> 209 [penwidth=2]
    102 -> 221 [penwidth=2]
    102 -> 236 [penwidth=2]
    102 -> 229 [penwidth=2]
    102 -> 260 [penwidth=2]
    102 -> 223 [penwidth=2]
    102 -> 160 [penwidth=2]
    102 -> 277 [penwidth=2]
    102 -> 231 [penwidth=2]
    102 -> 210 [penwidth=2]
    102 -> 272 [penwidth=2]
    102 -> 240 [penwidth=2]
    102 -> 278 [penwidth=2]
    102 -> 216 [penwidth=2]
    102 -> 239 [penwidth=2]
    102 -> 237 [penwidth=2]
    102 -> 251 [penwidth=2]
    102 -> 215 [penwidth=2]
    102 -> 163 [penwidth=2]
    102 -> 219 [penwidth=2]
    102 -> 213 [penwidth=2]
    103 -> 279 [penwidth=2]
    110 -> 279 [penwidth=2]
    110 -> 226 [penwidth=2]
    110 -> 254 [penwidth=2]
    110 -> 271 [penwidth=2]
    110 -> 206 [penwidth=2]
    110 -> 215 [penwidth=2]
    110 -> 259 [penwidth=2]
    110 -> 273 [penwidth=2]
    110 -> 221 [penwidth=2]
    110 -> 236 [penwidth=2]
    110 -> 241 [penwidth=2]
    110 -> 278 [penwidth=2]
    110 -> 256 [penwidth=2]
    110 -> 264 [penwidth=2]
    110 -> 222 [penwidth=2]
    110 -> 283 [penwidth=2]
    110 -> 238 [penwidth=2]
    110 -> 252 [penwidth=2]
    110 -> 227 [penwidth=2]
    110 -> 270 [penwidth=2]
    110 -> 282 [penwidth=2]
    110 -> 275 [penwidth=2]
    110 -> 220 [penwidth=2]
    110 -> 160 [penwidth=2]
    110 -> 230 [penwidth=2]
    110 -> 159 [penwidth=2]
    110 -> 202 [penwidth=2]
    110 -> 223 [penwidth=2]
    110 -> 208 [penwidth=2]
    110 -> 253 [penwidth=2]
    110 -> 211 [penwidth=2]
    110 -> 204 [penwidth=2]
    110 -> 261 [penwidth=2]
    110 -> 249 [penwidth=2]
    110 -> 163 [penwidth=2]
    110 -> 216 [penwidth=2]
    110 -> 162 [penwidth=2]
    110 -> 265 [penwidth=2]
    110 -> 232 [penwidth=2]
    110 -> 280 [penwidth=2]
    110 -> 164 [penwidth=2]
    110 -> 161 [penwidth=2]
    110 -> 276 [penwidth=2]
    110 -> 213 [penwidth=2]
    110 -> 217 [penwidth=2]
    110 -> 240 [penwidth=2]
    110 -> 258 [penwidth=2]
    110 -> 231 [penwidth=2]
    113 -> 236 [penwidth=2]
    113 -> 216 [penwidth=2]
    113 -> 202 [penwidth=2]
    35 -> 237 [penwidth=2]
    35 -> 240 [penwidth=2]
    35 -> 219 [penwidth=2]
    35 -> 225 [penwidth=2]
    35 -> 159 [penwidth=2]
    35 -> 233 [penwidth=2]
    35 -> 263 [penwidth=2]
    35 -> 238 [penwidth=2]
    35 -> 228 [penwidth=2]
    35 -> 204 [penwidth=2]
    35 -> 160 [penwidth=2]
    35 -> 210 [penwidth=2]
    35 -> 249 [penwidth=2]
    35 -> 281 [penwidth=2]
    35 -> 280 [penwidth=2]
    35 -> 259 [penwidth=2]
    35 -> 282 [penwidth=2]
    35 -> 255 [penwidth=2]
    35 -> 211 [penwidth=2]
    35 -> 239 [penwidth=2]
    35 -> 213 [penwidth=2]
    35 -> 261 [penwidth=2]
    35 -> 252 [penwidth=2]
    35 -> 162 [penwidth=2]
    35 -> 236 [penwidth=2]
    35 -> 262 [penwidth=2]
    35 -> 230 [penwidth=2]
    35 -> 223 [penwidth=2]
    35 -> 226 [penwidth=2]
    35 -> 216 [penwidth=2]
    35 -> 222 [penwidth=2]
    35 -> 163 [penwidth=2]
    35 -> 207 [penwidth=2]
    35 -> 271 [penwidth=2]
    35 -> 253 [penwidth=2]
    35 -> 251 [penwidth=2]
    35 -> 276 [penwidth=2]
    35 -> 217 [penwidth=2]
    35 -> 231 [penwidth=2]
    35 -> 220 [penwidth=2]
    35 -> 258 [penwidth=2]
    35 -> 265 [penwidth=2]
    35 -> 161 [penwidth=2]
    35 -> 275 [penwidth=2]
    35 -> 270 [penwidth=2]
    35 -> 241 [penwidth=2]
    35 -> 250 [penwidth=2]
    35 -> 158 [penwidth=2]
    35 -> 266 [penwidth=2]
    35 -> 202 [penwidth=2]
    35 -> 234 [penwidth=2]
    35 -> 273 [penwidth=2]
    35 -> 277 [penwidth=2]
    35 -> 279 [penwidth=2]
    35 -> 260 [penwidth=2]
    35 -> 212 [penwidth=2]
    35 -> 283 [penwidth=2]
    35 -> 272 [penwidth=2]
    35 -> 278 [penwidth=2]
    35 -> 209 [penwidth=2]
    35 -> 215 [penwidth=2]
    35 -> 274 [penwidth=2]
    9 -> 273 [penwidth=2]
    9 -> 222 [penwidth=2]
    9 -> 260 [penwidth=2]
    9 -> 267 [penwidth=2]
    9 -> 274 [penwidth=2]
    9 -> 237 [penwidth=2]
    9 -> 213 [penwidth=2]
    9 -> 249 [penwidth=2]
    9 -> 262 [penwidth=2]
    9 -> 253 [penwidth=2]
    9 -> 271 [penwidth=2]
    9 -> 265 [penwidth=2]
    9 -> 278 [penwidth=2]
    9 -> 229 [penwidth=2]
    9 -> 210 [penwidth=2]
    9 -> 233 [penwidth=2]
    9 -> 218 [penwidth=2]
    9 -> 207 [penwidth=2]
    9 -> 241 [penwidth=2]
    9 -> 254 [penwidth=2]
    9 -> 266 [penwidth=2]
    9 -> 275 [penwidth=2]
    9 -> 283 [penwidth=2]
    9 -> 224 [penwidth=2]
    9 -> 279 [penwidth=2]
    9 -> 223 [penwidth=2]
    9 -> 256 [penwidth=2]
    9 -> 164 [penwidth=2]
    9 -> 231 [penwidth=2]
    9 -> 252 [penwidth=2]
    9 -> 214 [penwidth=2]
    9 -> 232 [penwidth=2]
    9 -> 203 [penwidth=2]
    9 -> 276 [penwidth=2]
    9 -> 159 [penwidth=2]
    9 -> 264 [penwidth=2]
    9 -> 257 [penwidth=2]
    9 -> 220 [penwidth=2]
    9 -> 200 [penwidth=2]
    9 -> 208 [penwidth=2]
    9 -> 219 [penwidth=2]
    9 -> 227 [penwidth=2]
    58 -> 278 [penwidth=2]
    58 -> 273 [penwidth=2]
    58 -> 256 [penwidth=2]
    58 -> 275 [penwidth=2]
    58 -> 280 [penwidth=2]
    58 -> 267 [penwidth=2]
    58 -> 274 [penwidth=2]
    58 -> 218 [penwidth=2]
    58 -> 266 [penwidth=2]
    58 -> 272 [penwidth=2]
    58 -> 225 [penwidth=2]
    58 -> 164 [penwidth=2]
    58 -> 208 [penwidth=2]
    58 -> 222 [penwidth=2]
    58 -> 161 [penwidth=2]
    58 -> 200 [penwidth=2]
    58 -> 234 [penwidth=2]
    58 -> 211 [penwidth=2]
    58 -> 223 [penwidth=2]
    58 -> 252 [penwidth=2]
    58 -> 235 [penwidth=2]
    58 -> 277 [penwidth=2]
    58 -> 233 [penwidth=2]
    58 -> 206 [penwidth=2]
    58 -> 229 [penwidth=2]
    58 -> 219 [penwidth=2]
    58 -> 159 [penwidth=2]
    58 -> 205 [penwidth=2]
    58 -> 262 [penwidth=2]
    58 -> 263 [penwidth=2]
    58 -> 282 [penwidth=2]
    58 -> 158 [penwidth=2]
    58 -> 201 [penwidth=2]
    58 -> 251 [penwidth=2]
    58 -> 239 [penwidth=2]
    58 -> 214 [penwidth=2]
    58 -> 204 [penwidth=2]
    58 -> 231 [penwidth=2]
    58 -> 283 [penwidth=2]
    58 -> 269 [penwidth=2]
    58 -> 238 [penwidth=2]
    58 -> 207 [penwidth=2]
    58 -> 202 [penwidth=2]
    58 -> 240 [penwidth=2]
    58 -> 160 [penwidth=2]
    58 -> 163 [penwidth=2]
    58 -> 281 [penwidth=2]
    58 -> 162 [penwidth=2]
    58 -> 249 [penwidth=2]
    58 -> 221 [penwidth=2]
    58 -> 228 [penwidth=2]
    58 -> 237 [penwidth=2]
    58 -> 250 [penwidth=2]
    58 -> 232 [penwidth=2]
    58 -> 265 [penwidth=2]
    58 -> 261 [penwidth=2]
    58 -> 224 [penwidth=2]
    58 -> 227 [penwidth=2]
    62 -> 234 [penwidth=2]
    62 -> 283 [penwidth=2]
    62 -> 250 [penwidth=2]
    62 -> 266 [penwidth=2]
    62 -> 204 [penwidth=2]
    62 -> 240 [penwidth=2]
    62 -> 208 [penwidth=2]
    62 -> 253 [penwidth=2]
    62 -> 220 [penwidth=2]
    62 -> 259 [penwidth=2]
    62 -> 222 [penwidth=2]
    62 -> 268 [penwidth=2]
    62 -> 206 [penwidth=2]
    62 -> 216 [penwidth=2]
    62 -> 278 [penwidth=2]
    62 -> 279 [penwidth=2]
    62 -> 219 [penwidth=2]
    62 -> 271 [penwidth=2]
    62 -> 217 [penwidth=2]
    298 -> 269 [penwidth=2]
    298 -> 229 [penwidth=2]
    298 -> 256 [penwidth=2]
    298 -> 280 [penwidth=2]
    298 -> 258 [penwidth=2]
    298 -> 252 [penwidth=2]
    298 -> 264 [penwidth=2]
    298 -> 278 [penwidth=2]
    298 -> 228 [penwidth=2]
    298 -> 161 [penwidth=2]
    298 -> 254 [penwidth=2]
    298 -> 163 [penwidth=2]
    298 -> 250 [penwidth=2]
    298 -> 262 [penwidth=2]
    298 -> 201 [penwidth=2]
    298 -> 202 [penwidth=2]
    298 -> 226 [penwidth=2]
    298 -> 210 [penwidth=2]
    298 -> 224 [penwidth=2]
    298 -> 241 [penwidth=2]
    298 -> 158 [penwidth=2]
    298 -> 239 [penwidth=2]
    298 -> 222 [penwidth=2]
    298 -> 216 [penwidth=2]
    298 -> 214 [penwidth=2]
    298 -> 221 [penwidth=2]
    298 -> 253 [penwidth=2]
    298 -> 276 [penwidth=2]
    308 -> 223 [penwidth=2]
    308 -> 275 [penwidth=2]
    308 -> 261 [penwidth=2]
    308 -> 281 [penwidth=2]
    308 -> 255 [penwidth=2]
    308 -> 221 [penwidth=2]
}