digraph G {
    0 [penwidth=3,label="0"]
    1 [penwidth=3,label="1"]
    2 [penwidth=3,label="2"]
    3 [penwidth=3,label="3"]
    4 [penwidth=3,label="4"]
    5 [penwidth=3,label="5"]
    6 [penwidth=3,label="6"]
    7 [penwidth=3,label="7"]
    8 [penwidth=3,label="8"]
    9 [penwidth=3,label="9"]
    10 [penwidth=3,label="10"]
    11 [penwidth=3,label="11"]
    12 [penwidth=3,label="12"]
    13 [penwidth=3,label="13"]
    14 [penwidth=3,label="14"]
    15 [penwidth=3,label="15"]
    16 [penwidth=3,label="16"]
    17 [penwidth=3,label="17"]
    18 [penwidth=3,label="18"]
    19 [penwidth=3,label="19"]
    20 [penwidth=3,label="20"]
    21 [penwidth=3,label="21"]
    22 [penwidth=3,label="22"]
    23 [penwidth=3,label="23"]
    24 [penwidth=3,label="24"]
    25 [penwidth=3,label="25"]
    26 [penwidth=3,label="26"]
    27 [penwidth=3,label="27"]
    28 [penwidth=3,label="28"]
    29 [penwidth=3,label="29"]
    30 [penwidth=3,label="30"]
    31 [penwidth=3,label="31"]
    32 [penwidth=3,label="32"]
    33 [penwidth=3,label="33"]
    34 [penwidth=3,label="34"]
    35 [penwidth=3,label="35"]
    36 [penwidth=3,label="36"]
    37 [penwidth=3,label="37"]
    38 [penwidth=3,label="38"]
    39 [penwidth=3,label="39"]
    40 [penwidth=3,label="40"]
    41 [penwidth=3,label="41"]
    42 [penwidth=3,label="42"]
    43 [penwidth=3,label="43"]
    44 [penwidth=3,label="44"]
    45 [penwidth=3,label="45"]
    46 [penwidth=3,label="46"]
    47 [penwidth=3,label="47"]
    48 [penwidth=3,label="48"]
    49 [penwidth=3,label="49"]
    50 [penwidth=3,label="50"]
    51 [penwidth=3,label="51"]
    52 [penwidth=3,label="52"]
    53 [penwidth=3,label="53"]
    54 [penwidth=3,label="54"]
    55 [penwidth=3,label="55"]
    56 [penwidth=3,label="56"]
    57 [penwidth=3,label="57"]
    58 [penwidth=3,label="58"]
    59 [penwidth=3,label="59"]
    60 [penwidth=3,label="60"]
    61 [penwidth=3,label="61"]
    62 [penwidth=3,label="62"]
    63 [penwidth=3,label="63"]
    64 [penwidth=3,label="64"]
    65 [penwidth=3,label="65"]
    66 [penwidth=3,label="66"]
    67 [penwidth=3,label="67"]
    68 [penwidth=3,label="68"]
    69 [penwidth=3,label="69"]
    70 [penwidth=3,label="70"]
    71 [penwidth=3,label="71"]
    72 [penwidth=3,label="72"]
    73 [penwidth=3,label="73"]
    74 [penwidth=3,label="74"]
    75 [penwidth=3,label="75"]
    76 [penwidth=3,label="76"]
    77 [penwidth=3,label="77"]
    78 [penwidth=3,label="78"]
    79 [penwidth=3,label="79"]
    80 [penwidth=3,label="80"]
    81 [penwidth=3,label="81"]
    82 [penwidth=3,label="82"]
    83 [penwidth=3,label="83"]
    84 [penwidth=3,label="84"]
    85 [penwidth=3,label="85"]
    86 [penwidth=3,label="86"]
    87 [penwidth=3,label="87"]
    88 [penwidth=3,label="88"]
    89 [penwidth=3,label="89"]
    90 [penwidth=3,label="90"]
    91 [penwidth=3,label="91"]
    92 [penwidth=3,label="92"]
    93 [penwidth=3,label="93"]
    94 [penwidth=3,label="94"]
    95 [penwidth=3,label="95"]
    96 [penwidth=3,label="96"]
    97 [penwidth=3,label="97"]
    98 [penwidth=3,label="98"]
    99 [penwidth=3,label="99"]
    100 [penwidth=3,label="100"]
    101 [penwidth=3,label="101"]
    102 [penwidth=3,label="102"]
    103 [penwidth=3,label="103"]
    104 [penwidth=3,label="104"]
    105 [penwidth=3,label="105"]
    106 [penwidth=3,label="106"]
    107 [penwidth=3,label="107"]
    108 [penwidth=3,label="108"]
    109 [penwidth=3,label="109"]
    110 [penwidth=3,label="110"]
    111 [penwidth=3,label="111"]
    112 [penwidth=3,label="112"]
    113 [penwidth=3,label="113"]
    114 [penwidth=3,label="114"]
    115 [penwidth=3,label="115"]
    116 [penwidth=3,label="116"]
    117 [penwidth=3,label="117"]
    118 [penwidth=3,label="118"]
    119 [penwidth=3,label="119"]
    120 [penwidth=3,label="120"]
    121 [penwidth=3,label="121"]
    122 [penwidth=3,label="122"]
    123 [penwidth=3,label="123"]
    124 [penwidth=3,label="124"]
    125 [penwidth=3,label="125"]
    126 [penwidth=3,label="126"]
    127 [penwidth=3,label="127"]
    128 [penwidth=3,label="128"]
    129 [penwidth=3,label="129"]
    130 [penwidth=3,label="130"]
    131 [penwidth=3,label="131"]
    132 [penwidth=3,label="132"]
    133 [penwidth=3,label="133"]
    134 [penwidth=3,label="134"]
    135 [penwidth=3,label="135"]
    136 [penwidth=3,label="136"]
    137 [penwidth=3,label="137"]
    138 [penwidth=3,label="138"]
    139 [penwidth=3,label="139"]
    140 [penwidth=3,label="140"]
    141 [penwidth=3,label="141"]
    142 [penwidth=3,label="142"]
    143 [penwidth=3,label="143"]
    144 [penwidth=3,label="144"]
    145 [penwidth=3,label="145"]
    146 [penwidth=3,label="146"]
    147 [penwidth=3,label="147"]
    148 [penwidth=3,label="148"]
    149 [penwidth=3,label="149"]
    150 [penwidth=3,label="150"]
    151 [penwidth=3,label="151"]
    152 [penwidth=3,label="152"]
    153 [penwidth=3,label="153"]
    154 [penwidth=3,label="154"]
    155 [penwidth=3,label="155"]
    156 [penwidth=3,label="156"]
    157 [penwidth=3,label="157"]
    158 [penwidth=3,label="158"]
    159 [penwidth=3,label="159"]
    160 [penwidth=3,label="160"]
    161 [penwidth=3,label="161"]
    162 [penwidth=3,label="162"]
    163 [penwidth=3,label="163"]
    164 [penwidth=3,label="164"]
    165 [penwidth=3,label="165"]
    166 [penwidth=3,label="166"]
    167 [penwidth=3,label="167"]
    168 [penwidth=3,label="168"]
    169 [penwidth=3,label="169"]
    170 [penwidth=3,label="170"]
    171 [penwidth=3,label="171"]
    172 [penwidth=3,label="172"]
    173 [penwidth=3,label="173"]
    174 [penwidth=3,label="174"]
    175 [penwidth=3,label="175"]
    176 [penwidth=3,label="176"]
    177 [penwidth=3,label="177"]
    178 [penwidth=3,label="178"]
    179 [penwidth=3,label="179"]
    180 [penwidth=3,label="180"]
    181 [penwidth=3,label="181"]
    182 [penwidth=3,label="182"]
    183 [penwidth=3,label="183"]
    184 [penwidth=3,label="184"]
    185 [penwidth=3,label="185"]
    186 [penwidth=3,label="186"]
    187 [penwidth=3,label="187"]
    188 [penwidth=3,label="188"]
    189 [penwidth=3,label="189"]
    190 [penwidth=3,label="190"]
    191 [penwidth=3,label="191"]
    192 [penwidth=3,label="192"]
    193 [penwidth=3,label="193"]
    194 [penwidth=3,label="194"]
    195 [penwidth=3,label="195"]
    196 [penwidth=3,label="196"]
    197 [penwidth=3,label="197"]
    198 [penwidth=3,label="198"]
    199 [penwidth=3,label="199"]
    200 [penwidth=3,label="200"]
    201 [penwidth=3,label="201"]
    202 [penwidth=3,label="202"]
    203 [penwidth=3,label="203"]
    204 [penwidth=3,label="204"]
    205 [penwidth=3,label="205"]
    206 [penwidth=3,label="206"]
    207 [penwidth=3,label="207"]
    208 [penwidth=3,label="208"]
    209 [penwidth=3,label="209"]
    210 [penwidth=3,label="210"]
    211 [penwidth=3,label="211"]
    212 [penwidth=3,label="212"]
    213 [penwidth=3,label="213"]
    214 [penwidth=3,label="214"]
    215 [penwidth=3,label="215"]
    216 [penwidth=3,label="216"]
    217 [penwidth=3,label="217"]
    218 [penwidth=3,label="218"]
    219 [penwidth=3,label="219"]
    220 [penwidth=3,label="220"]
    221 [penwidth=3,label="221"]
    222 [penwidth=3,label="222"]
    223 [penwidth=3,label="223"]
    224 [penwidth=3,label="224"]
    225 [penwidth=3,label="225"]
    226 [penwidth=3,label="226"]
    227 [penwidth=3,label="227"]
    228 [penwidth=3,label="228"]
    229 [penwidth=3,label="229"]
    230 [penwidth=3,label="230"]
    231 [penwidth=3,label="231"]
    232 [penwidth=3,label="232"]
    233 [penwidth=3,label="233"]
    234 [penwidth=3,label="234"]
    235 [penwidth=3,label="235"]
    236 [penwidth=3,label="236"]
    237 [penwidth=3,label="237"]
    238 [penwidth=3,label="238"]
    239 [penwidth=3,label="239"]
    240 [penwidth=3,label="240"]
    241 [penwidth=3,label="241"]
    242 [penwidth=3,label="242"]
    243 [penwidth=3,label="243"]
    244 [penwidth=3,label="244"]
    245 [penwidth=3,label="245"]
    246 [penwidth=3,label="246"]
    247 [penwidth=3,label="247"]
    248 [penwidth=3,label="248"]
    249 [penwidth=3,label="249"]
    250 [penwidth=3,label="250"]
    251 [penwidth=3,label="251"]
    252 [penwidth=3,label="252"]
    253 [penwidth=3,label="253"]
    254 [penwidth=3,label="254"]
    255 [penwidth=3,label="255"]
    256 [penwidth=3,label="256"]
    257 [penwidth=3,label="257"]
    258 [penwidth=3,label="258"]
    259 [penwidth=3,label="259"]
    260 [penwidth=3,label="260"]
    261 [penwidth=3,label="261"]
    262 [penwidth=3,label="262"]
    263 [penwidth=3,label="263"]
    264 [penwidth=3,label="264"]
    265 [penwidth=3,label="265"]
    266 [penwidth=3,label="266"]
    267 [penwidth=3,label="267"]
    268 [penwidth=3,label="268"]
    269 [penwidth=3,label="269"]
    270 [penwidth=3,label="270"]
    271 [penwidth=3,label="271"]
    272 [penwidth=3,label="272"]
    273 [penwidth=3,label="273"]
    274 [penwidth=3,label="274"]
    275 [penwidth=3,label="275"]
    276 [penwidth=3,label="276"]
    277 [penwidth=3,label="277"]
    278 [penwidth=3,label="278"]
    279 [penwidth=3,label="279"]
    280 [penwidth=3,label="280"]
    281 [penwidth=3,label="281"]
    282 [penwidth=3,label="282"]
    283 [penwidth=3,label="283"]
    284 [penwidth=3,label="284"]
    285 [penwidth=3,label="285"]
    286 [penwidth=3,label="286"]
    287 [penwidth=3,label="287"]
    288 [penwidth=3,label="288"]
    289 [penwidth=3,label="289"]
    290 [penwidth=3,label="290"]
    291 [penwidth=3,label="291"]
    292 [penwidth=3,label="292"]
    293 [penwidth=3,label="293"]
    294 [penwidth=3,label="294"]
    295 [penwidth=3,label="295"]
    296 [penwidth=3,label="296"]
    297 [penwidth=3,label="297"]
    298 [penwidth=3,label="298"]
    299 [penwidth=3,label="299"]
    300 [penwidth=3,label="300"]
    301 [penwidth=3,label="301"]
    302 [penwidth=3,label="302"]
    303 [penwidth=3,label="303"]
    304 [penwidth=3,label="304"]
    305 [penwidth=3,label="305"]
    306 [penwidth=3,label="306"]
    307 [penwidth=3,label="307"]
    308 [penwidth=3,label="308"]
    309 [penwidth=3,label="309"]

    109 -> 0 [penwidth=2]
    110 -> 0 [penwidth=2]
    111 -> 109 [penwidth=2]
    112 -> 109 [penwidth=2]
    113 -> 109 [penwidth=2]
    114 -> 109 [penwidth=2]
    115 -> 109 [penwidth=2]
    116 -> 109 [penwidth=2]
    117 -> 109 [penwidth=2]
    118 -> 109 [penwidth=2]
    119 -> 109 [penwidth=2]
    120 -> 109 [penwidth=2]
    121 -> 110 [penwidth=2]
    122 -> 110 [penwidth=2]
    123 -> 110 [penwidth=2]
    124 -> 110 [penwidth=2]
    125 -> 110 [penwidth=2]
    126 -> 110 [penwidth=2]
    127 -> 110 [penwidth=2]
    128 -> 110 [penwidth=2]
    129 -> 110 [penwidth=2]
    130 -> 110 [penwidth=2]
    131 -> 110 [penwidth=2]
    132 -> 110 [penwidth=2]
    133 -> 111 [penwidth=2]
    134 -> 111 [penwidth=2]
    135 -> 111 [penwidth=2]
    136 -> 111 [penwidth=2]
    137 -> 111 [penwidth=2]
    138 -> 111 [penwidth=2]
    139 -> 111 [penwidth=2]
    140 -> 111 [penwidth=2]
    141 -> 111 [penwidth=2]
    142 -> 111 [penwidth=2]
    143 -> 111 [penwidth=2]
    144 -> 111 [penwidth=2]
    145 -> 111 [penwidth=2]
    146 -> 111 [penwidth=2]
    147 -> 111 [penwidth=2]
    148 -> 111 [penwidth=2]
    149 -> 111 [penwidth=2]
    150 -> 111 [penwidth=2]
    67 -> 111 [penwidth=2]
    68 -> 111 [penwidth=2]
    69 -> 111 [penwidth=2]
    70 -> 112 [penwidth=2]
    71 -> 112 [penwidth=2]
    72 -> 112 [penwidth=2]
    73 -> 112 [penwidth=2]
    74 -> 112 [penwidth=2]
    75 -> 112 [penwidth=2]
    76 -> 112 [penwidth=2]
    77 -> 112 [penwidth=2]
    78 -> 112 [penwidth=2]
    79 -> 112 [penwidth=2]
    80 -> 112 [penwidth=2]
    81 -> 112 [penwidth=2]
    82 -> 112 [penwidth=2]
    83 -> 112 [penwidth=2]
    84 -> 112 [penwidth=2]
    85 -> 112 [penwidth=2]
    86 -> 112 [penwidth=2]
    87 -> 112 [penwidth=2]
    88 -> 112 [penwidth=2]
    89 -> 112 [penwidth=2]
    90 -> 113 [penwidth=2]
    91 -> 113 [penwidth=2]
    92 -> 113 [penwidth=2]
    93 -> 113 [penwidth=2]
    94 -> 113 [penwidth=2]
    95 -> 113 [penwidth=2]
    96 -> 113 [penwidth=2]
    97 -> 113 [penwidth=2]
    98 -> 113 [penwidth=2]
    99 -> 113 [penwidth=2]
    100 -> 113 [penwidth=2]
    101 -> 113 [penwidth=2]
    102 -> 113 [penwidth=2]
    103 -> 113 [penwidth=2]
    104 -> 113 [penwidth=2]
    105 -> 114 [penwidth=2]
    106 -> 114 [penwidth=2]
    107 -> 114 [penwidth=2]
    108 -> 115 [penwidth=2]
    25 -> 115 [penwidth=2]
    26 -> 115 [penwidth=2]
    27 -> 115 [penwidth=2]
    28 -> 116 [penwidth=2]
    29 -> 116 [penwidth=2]
    30 -> 116 [penwidth=2]
    31 -> 116 [penwidth=2]
    32 -> 116 [penwidth=2]
    33 -> 116 [penwidth=2]
    34 -> 116 [penwidth=2]
    35 -> 116 [penwidth=2]
    36 -> 116 [penwidth=2]
    37 -> 117 [penwidth=2]
    38 -> 117 [penwidth=2]
    39 -> 117 [penwidth=2]
    40 -> 117 [penwidth=2]
    41 -> 117 [penwidth=2]
    42 -> 117 [penwidth=2]
    1 -> 117 [penwidth=2]
    43 -> 117 [penwidth=2]
    44 -> 117 [penwidth=2]
    2 -> 117 [penwidth=2]
    45 -> 117 [penwidth=2]
    3 -> 117 [penwidth=2]
    4 -> 117 [penwidth=2]
    46 -> 117 [penwidth=2]
    5 -> 117 [penwidth=2]
    47 -> 117 [penwidth=2]
    6 -> 118 [penwidth=2]
    48 -> 118 [penwidth=2]
    7 -> 118 [penwidth=2]
    49 -> 118 [penwidth=2]
    8 -> 118 [penwidth=2]
    50 -> 119 [penwidth=2]
    9 -> 119 [penwidth=2]
    51 -> 119 [penwidth=2]
    10 -> 119 [penwidth=2]
    52 -> 120 [penwidth=2]
    11 -> 120 [penwidth=2]
    53 -> 120 [penwidth=2]
    12 -> 120 [penwidth=2]
    54 -> 120 [penwidth=2]
    13 -> 120 [penwidth=2]
    55 -> 120 [penwidth=2]
    14 -> 120 [penwidth=2]
    56 -> 120 [penwidth=2]
    15 -> 120 [penwidth=2]
    57 -> 120 [penwidth=2]
    16 -> 120 [penwidth=2]
    58 -> 120 [penwidth=2]
    17 -> 120 [penwidth=2]
    59 -> 120 [penwidth=2]
    18 -> 120 [penwidth=2]
    60 -> 120 [penwidth=2]
    19 -> 120 [penwidth=2]
    61 -> 120 [penwidth=2]
    20 -> 120 [penwidth=2]
    62 -> 120 [penwidth=2]
    21 -> 120 [penwidth=2]
    63 -> 120 [penwidth=2]
    22 -> 120 [penwidth=2]
    64 -> 120 [penwidth=2]
    23 -> 121 [penwidth=2]
    65 -> 121 [penwidth=2]
    24 -> 121 [penwidth=2]
    66 -> 121 [penwidth=2]
    277 -> 121 [penwidth=2]
    278 -> 122 [penwidth=2]
    279 -> 122 [penwidth=2]
    280 -> 123 [penwidth=2]
    281 -> 123 [penwidth=2]
    282 -> 123 [penwidth=2]
    283 -> 123 [penwidth=2]
    284 -> 123 [penwidth=2]
    285 -> 123 [penwidth=2]
    286 -> 123 [penwidth=2]
    287 -> 123 [penwidth=2]
    288 -> 123 [penwidth=2]
    289 -> 123 [penwidth=2]
    290 -> 123 [penwidth=2]
    291 -> 123 [penwidth=2]
    292 -> 123 [penwidth=2]
    293 -> 123 [penwidth=2]
    294 -> 123 [penwidth=2]
    295 -> 123 [penwidth=2]
    296 -> 123 [penwidth=2]
    297 -> 123 [penwidth=2]
    298 -> 123 [penwidth=2]
    299 -> 123 [penwidth=2]
    300 -> 124 [penwidth=2]
    301 -> 124 [penwidth=2]
    302 -> 124 [penwidth=2]
    303 -> 124 [penwidth=2]
    304 -> 124 [penwidth=2]
    305 -> 124 [penwidth=2]
    306 -> 124 [penwidth=2]
    307 -> 124 [penwidth=2]
    308 -> 124 [penwidth=2]
    309 -> 125 [penwidth=2]
    235 -> 125 [penwidth=2]
    236 -> 125 [penwidth=2]
    237 -> 125 [penwidth=2]
    238 -> 125 [penwidth=2]
    239 -> 125 [penwidth=2]
    240 -> 125 [penwidth=2]
    241 -> 125 [penwidth=2]
    242 -> 125 [penwidth=2]
    243 -> 125 [penwidth=2]
    244 -> 125 [penwidth=2]
    245 -> 125 [penwidth=2]
    246 -> 125 [penwidth=2]
    247 -> 125 [penwidth=2]
    248 -> 125 [penwidth=2]
    249 -> 125 [penwidth=2]
    250 -> 126 [penwidth=2]
    251 -> 126 [penwidth=2]
    252 -> 126 [penwidth=2]
    253 -> 126 [penwidth=2]
    254 -> 126 [penwidth=2]
    255 -> 126 [penwidth=2]
    256 -> 126 [penwidth=2]
    257 -> 126 [penwidth=2]
    258 -> 126 [penwidth=2]
    259 -> 126 [penwidth=2]
    260 -> 126 [penwidth=2]
    261 -> 126 [penwidth=2]
    262 -> 127 [penwidth=2]
    263 -> 127 [penwidth=2]
    264 -> 127 [penwidth=2]
    265 -> 127 [penwidth=2]
    266 -> 128 [penwidth=2]
    267 -> 128 [penwidth=2]
    268 -> 128 [penwidth=2]
    269 -> 128 [penwidth=2]
    270 -> 128 [penwidth=2]
    271 -> 128 [penwidth=2]
    272 -> 128 [penwidth=2]
    273 -> 128 [penwidth=2]
    274 -> 128 [penwidth=2]
    275 -> 128 [penwidth=2]
    276 -> 128 [penwidth=2]
    193 -> 128 [penwidth=2]
    194 -> 128 [penwidth=2]
    195 -> 128 [penwidth=2]
    196 -> 128 [penwidth=2]
    197 -> 128 [penwidth=2]
    198 -> 128 [penwidth=2]
    199 -> 129 [penwidth=2]
    200 -> 129 [penwidth=2]
    201 -> 129 [penwidth=2]
    202 -> 129 [penwidth=2]
    203 -> 129 [penwidth=2]
    204 -> 129 [penwidth=2]
    205 -> 129 [penwidth=2]
    206 -> 129 [penwidth=2]
    207 -> 129 [penwidth=2]
    208 -> 129 [penwidth=2]
    209 -> 129 [penwidth=2]
    210 -> 129 [penwidth=2]
    211 -> 129 [penwidth=2]
    212 -> 129 [penwidth=2]
    213 -> 129 [penwidth=2]
    214 -> 129 [penwidth=2]
    215 -> 130 [penwidth=2]
    216 -> 130 [penwidth=2]
    217 -> 130 [penwidth=2]
    218 -> 130 [penwidth=2]
    219 -> 130 [penwidth=2]
    220 -> 130 [penwidth=2]
    221 -> 130 [penwidth=2]
    222 -> 131 [penwidth=2]
    223 -> 131 [penwidth=2]
    224 -> 131 [penwidth=2]
    225 -> 131 [penwidth=2]
    226 -> 131 [penwidth=2]
    227 -> 131 [penwidth=2]
    228 -> 131 [penwidth=2]
    229 -> 131 [penwidth=2]
    230 -> 131 [penwidth=2]
    231 -> 131 [penwidth=2]
    232 -> 131 [penwidth=2]
    233 -> 132 [penwidth=2]
    234 -> 132 [penwidth=2]
    151 -> 132 [penwidth=2]
    152 -> 132 [penwidth=2]
    153 -> 132 [penwidth=2]
    154 -> 132 [penwidth=2]
    155 -> 132 [penwidth=2]
    156 -> 132 [penwidth=2]
    157 -> 132 [penwidth=2]
    158 -> 132 [penwidth=2]
    159 -> 133 [penwidth=2]
    160 -> 133 [penwidth=2]
    161 -> 133 [penwidth=2]
    162 -> 133 [penwidth=2]
    163 -> 133 [penwidth=2]
    164 -> 133 [penwidth=2]
    165 -> 133 [penwidth=2]
    166 -> 134 [penwidth=2]
    167 -> 134 [penwidth=2]
    168 -> 134 [penwidth=2]
    169 -> 134 [penwidth=2]
    170 -> 134 [penwidth=2]
    171 -> 134 [penwidth=2]
    172 -> 134 [penwidth=2]
    173 -> 134 [penwidth=2]
    174 -> 134 [penwidth=2]
    175 -> 134 [penwidth=2]
    176 -> 134 [penwidth=2]
    177 -> 134 [penwidth=2]
    178 -> 134 [penwidth=2]
    179 -> 134 [penwidth=2]
    180 -> 134 [penwidth=2]
    181 -> 134 [penwidth=2]
    182 -> 134 [penwidth=2]
    183 -> 134 [penwidth=2]
    184 -> 134 [penwidth=2]
    185 -> 134 [penwidth=2]
    186 -> 134 [penwidth=2]
    187 -> 135 [penwidth=2]
    188 -> 135 [penwidth=2]
    189 -> 135 [penwidth=2]
    190 -> 135 [penwidth=2]
    191 -> 135 [penwidth=2]
    192 -> 135 [penwidth=2]
    114 -> 110 [penwidth=2]
    123 -> 109 [penwidth=2]
    126 -> 109 [penwidth=2]
    131 -> 109 [penwidth=2]
    137 -> 116 [penwidth=2]
    137 -> 120 [penwidth=2]
    137 -> 125 [penwidth=2]
    137 -> 115 [penwidth=2]
    137 -> 114 [penwidth=2]
    137 -> 131 [penwidth=2]
    137 -> 130 [penwidth=2]
    137 -> 126 [penwidth=2]
    137 -> 128 [penwidth=2]
    137 -> 112 [penwidth=2]
    150 -> 132 [penwidth=2]
    150 -> 121 [penwidth=2]
    79 -> 119 [penwidth=2]
    79 -> 116 [penwidth=2]
    79 -> 124 [penwidth=2]
    79 -> 114 [penwidth=2]
    79 -> 125 [penwidth=2]
    79 -> 126 [penwidth=2]
    83 -> 119 [penwidth=2]
    83 -> 124 [penwidth=2]
    83 -> 114 [penwidth=2]
    83 -> 121 [penwidth=2]
    83 -> 128 [penwidth=2]
    83 -> 126 [penwidth=2]
    83 -> 118 [penwidth=2]
    83 -> 122 [penwidth=2]
    83 -> 123 [penwidth=2]
    83 -> 129 [penwidth=2]
    83 -> 116 [penwidth=2]
    83 -> 115 [penwidth=2]
    83 -> 113 [penwidth=2]
    83 -> 125 [penwidth=2]
    83 -> 127 [penwidth=2]
    83 -> 120 [penwidth=2]
    83 -> 111 [penwidth=2]
    87 -> 120 [penwidth=2]
    41 -> 120 [penwidth=2]
    41 -> 127 [penwidth=2]
    41 -> 118 [penwidth=2]
    41 -> 113 [penwidth=2]
    41 -> 119 [penwidth=2]
    41 -> 131 [penwidth=2]
    41 -> 114 [penwidth=2]
    45 -> 112 [penwidth=2]
    45 -> 131 [penwidth=2]
    45 -> 125 [penwidth=2]
    45 -> 115 [penwidth=2]
    45 -> 124 [penwidth=2]
    45 -> 116 [penwidth=2]
    45 -> 121 [penwidth=2]
    45 -> 114 [penwidth=2]
    45 -> 111 [penwidth=2]
    45 -> 132 [penwidth=2]
    45 -> 130 [penwidth=2]
    45 -> 119 [penwidth=2]
    45 -> 113 [penwidth=2]
    45 -> 127 [penwidth=2]
    45 -> 129 [penwidth=2]
    45 -> 123 [penwidth=2]
    45 -> 118 [penwidth=2]
    56 -> 124 [penwidth=2]
    56 -> 122 [penwidth=2]
    56 -> 112 [penwidth=2]
    56 -> 118 [penwidth=2]
    56 -> 126 [penwidth=2]
    56 -> 129 [penwidth=2]
    56 -> 116 [penwidth=2]
    56 -> 125 [penwidth=2]
    56 -> 117 [penwidth=2]
    56 -> 130 [penwidth=2]
    56 -> 132 [penwidth=2]
    56 -> 131 [penwidth=2]
    56 -> 128 [penwidth=2]
    56 -> 115 [penwidth=2]
    56 -> 121 [penwidth=2]
    56 -> 127 [penwidth=2]
    56 -> 114 [penwidth=2]
    56 -> 119 [penwidth=2]
    59 -> 114 [penwidth=2]
    59 -> 116 [penwidth=2]
    59 -> 122 [penwidth=2]
    59 -> 111 [penwidth=2]
    59 -> 130 [penwidth=2]
    59 -> 117 [penwidth=2]
    59 -> 125 [penwidth=2]
    59 -> 132 [penwidth=2]
    59 -> 113 [penwidth=2]
    59 -> 112 [penwidth=2]
    59 -> 126 [penwidth=2]
    59 -> 131 [penwidth=2]
    59 -> 124 [penwidth=2]
    59 -> 115 [penwidth=2]
    59 -> 121 [penwidth=2]
    59 -> 129 [penwidth=2]
    59 -> 128 [penwidth=2]
    24 -> 113 [penwidth=2]
    24 -> 116 [penwidth=2]
    24 -> 123 [penwidth=2]
    24 -> 119 [penwidth=2]
    24 -> 132 [penwidth=2]
    24 -> 122 [penwidth=2]
    24 -> 126 [penwidth=2]
    24 -> 131 [penwidth=2]
    24 -> 125 [penwidth=2]
    24 -> 129 [penwidth=2]
    24 -> 117 [penwidth=2]
    24 -> 120 [penwidth=2]
    24 -> 112 [penwidth=2]
    24 -> 127 [penwidth=2]
    24 -> 114 [penwidth=2]
    24 -> 111 [penwidth=2]
    24 -> 115 [penwidth=2]
    24 -> 128 [penwidth=2]
    24 -> 118 [penwidth=2]
    283 -> 125 [penwidth=2]
    283 -> 124 [penwidth=2]
    283 -> 131 [penwidth=2]
    283 -> 126 [penwidth=2]
    283 -> 112 [penwidth=2]
    283 -> 118 [penwidth=2]
    283 -> 127 [penwidth=2]
    283 -> 120 [penwidth=2]
    283 -> 111 [penwidth=2]
    283 -> 117 [penwidth=2]
    283 -> 128 [penwidth=2]
    283 -> 113 [penwidth=2]
    283 -> 116 [penwidth=2]
    283 -> 115 [penwidth=2]
    283 -> 119 [penwidth=2]
    283 -> 122 [penwidth=2]
    283 -> 132 [penwidth=2]
    283 -> 121 [penwidth=2]
    283 -> 130 [penwidth=2]
    283 -> 114 [penwidth=2]
    302 -> 117 [penwidth=2]
    302 -> 115 [penwidth=2]
    302 -> 114 [penwidth=2]
    302 -> 129 [penwidth=2]
    302 -> 127 [penwidth=2]
    302 -> 121 [penwidth=2]
    302 -> 128 [penwidth=2]
    302 -> 123 [penwidth=2]
    302 -> 126 [penwidth=2]
    302 -> 112 [penwidth=2]
    302 -> 120 [penwidth=2]
    302 -> 122 [penwidth=2]
    302 -> 125 [penwidth=2]
    302 -> 119 [penwidth=2]
    302 -> 131 [penwidth=2]
    302 -> 118 [penwidth=2]
    302 -> 130 [penwidth=2]
    302 -> 111 [penwidth=2]
    241 -> 130 [penwidth=2]
    241 -> 114 [penwidth=2]
    241 -> 121 [penwidth=2]
    241 -> 119 [penwidth=2]
    247 -> 117 [penwidth=2]
    252 -> 131 [penwidth=2]
    252 -> 117 [penwidth=2]
    252 -> 128 [penwidth=2]
    252 -> 124 [penwidth=2]
    252 -> 130 [penwidth=2]
    266 -> 119 [penwidth=2]
    266 -> 120 [penwidth=2]
    266 -> 124 [penwidth=2]
    266 -> 121 [penwidth=2]
    266 -> 114 [penwidth=2]
    266 -> 132 [penwidth=2]
    266 -> 129 [penwidth=2]
    266 -> 123 [penwidth=2]
    219 -> 132 [penwidth=2]
    219 -> 122 [penwidth=2]
    219 -> 131 [penwidth=2]
    219 -> 111 [penwidth=2]
    219 -> 127 [penwidth=2]
    219 -> 125 [penwidth=2]
    219 -> 114 [penwidth=2]
    219 -> 120 [penwidth=2]
    219 -> 129 [penwidth=2]
    219 -> 119 [penwidth=2]
    219 -> 116 [penwidth=2]
    219 -> 118 [penwidth=2]
    153 -> 126 [penwidth=2]
    153 -> 131 [penwidth=2]
    153 -> 129 [penwidth=2]
    153 -> 117 [penwidth=2]
    153 -> 120 [penwidth=2]
    159 -> 284 [penwidth=2]
    159 -> 214 [penwidth=2]
    159 -> 293 [penwidth=2]
    159 -> 308 [penwidth=2]
    159 -> 140 [penwidth=2]
    159 -> 19 [penwidth=2]
    159 -> 97 [penwidth=2]
    159 -> 285 [penwidth=2]
    159 -> 89 [penwidth=2]
    159 -> 288 [penwidth=2]
    159 -> 58 [penwidth=2]
    159 -> 251 [penwidth=2]
    159 -> 264 [penwidth=2]
    159 -> 255 [penwidth=2]
    159 -> 94 [penwidth=2]
    159 -> 273 [penwidth=2]
    159 -> 237 [penwidth=2]
    159 -> 231 [penwidth=2]
    159 -> 53 [penwidth=2]
    159 -> 43 [penwidth=2]
    159 -> 301 [penwidth=2]
    159 -> 286 [penwidth=2]
    159 -> 16 [penwidth=2]
    159 -> 207 [penwidth=2]
    159 -> 32 [penwidth=2]
    159 -> 257 [penwidth=2]
    159 -> 295 [penwidth=2]
    159 -> 11 [penwidth=2]
    159 -> 105 [penwidth=2]
    159 -> 303 [penwidth=2]
    159 -> 59 [penwidth=2]
    159 -> 34 [penwidth=2]
    159 -> 1 [penwidth=2]
    159 -> 100 [penwidth=2]
    159 -> 240 [penwidth=2]
    159 -> 198 [penwidth=2]
    159 -> 302 [penwidth=2]
    159 -> 61 [penwidth=2]
    159 -> 220 [penwidth=2]
    159 -> 213 [penwidth=2]
    159 -> 147 [penwidth=2]
    159 -> 139 [penwidth=2]
    159 -> 80 [penwidth=2]
    159 -> 194 [penwidth=2]
    159 -> 85 [penwidth=2]
    159 -> 142 [penwidth=2]
    159 -> 54 [penwidth=2]
    159 -> 218 [penwidth=2]
    159 -> 206 [penwidth=2]
    159 -> 101 [penwidth=2]
    159 -> 25 [penwidth=2]
    159 -> 92 [penwidth=2]
    159 -> 82 [penwidth=2]
    159 -> 229 [penwidth=2]
    159 -> 13 [penwidth=2]
    159 -> 73 [penwidth=2]
    159 -> 239 [penwidth=2]
    159 -> 277 [penwidth=2]
    159 -> 75 [penwidth=2]
    159 -> 153 [penwidth=2]
    159 -> 279 [penwidth=2]
    159 -> 5 [penwidth=2]
    159 -> 66 [penwidth=2]
    159 -> 7 [penwidth=2]
    159 -> 210 [penwidth=2]
    159 -> 290 [penwidth=2]
    159 -> 201 [penwidth=2]
    159 -> 81 [penwidth=2]
    159 -> 62 [penwidth=2]
    159 -> 46 [penwidth=2]
    159 -> 289 [penwidth=2]
    159 -> 60 [penwidth=2]
    159 -> 52 [penwidth=2]
    159 -> 299 [penwidth=2]
    159 -> 200 [penwidth=2]
    159 -> 242 [penwidth=2]
    159 -> 250 [penwidth=2]
    159 -> 281 [penwidth=2]
    159 -> 38 [penwidth=2]
    159 -> 306 [penwidth=2]
    159 -> 12 [penwidth=2]
    159 -> 236 [penwidth=2]
    159 -> 137 [penwidth=2]
    159 -> 47 [penwidth=2]
    159 -> 2 [penwidth=2]
    159 -> 266 [penwidth=2]
    159 -> 69 [penwidth=2]
    159 -> 56 [penwidth=2]
    159 -> 222 [penwidth=2]
    159 -> 68 [penwidth=2]
    159 -> 50 [penwidth=2]
    159 -> 208 [penwidth=2]
    159 -> 225 [penwidth=2]
    159 -> 227 [penwidth=2]
    159 -> 224 [penwidth=2]
    159 -> 246 [penwidth=2]
    159 -> 205 [penwidth=2]
    159 -> 63 [penwidth=2]
    159 -> 197 [penwidth=2]
    159 -> 228 [penwidth=2]
    159 -> 157 [penwidth=2]
    159 -> 275 [penwidth=2]
    159 -> 199 [penwidth=2]
    159 -> 226 [penwidth=2]
    159 -> 44 [penwidth=2]
    159 -> 196 [penwidth=2]
    159 -> 223 [penwidth=2]
    159 -> 269 [penwidth=2]
    159 -> 253 [penwidth=2]
    159 -> 219 [penwidth=2]
    159 -> 259 [penwidth=2]
    159 -> 8 [penwidth=2]
    159 -> 297 [penwidth=2]
    159 -> 83 [penwidth=2]
    159 -> 258 [penwidth=2]
    159 -> 195 [penwidth=2]
    159 -> 71 [penwidth=2]
    159 -> 146 [penwidth=2]
    159 -> 238 [penwidth=2]
    159 -> 217 [penwidth=2]
    159 -> 31 [penwidth=2]
    159 -> 267 [penwidth=2]
    159 -> 307 [penwidth=2]
    159 -> 270 [penwidth=2]
    159 -> 10 [penwidth=2]
    159 -> 76 [penwidth=2]
    159 -> 232 [penwidth=2]
    159 -> 144 [penwidth=2]
    159 -> 67 [penwidth=2]
    159 -> 283 [penwidth=2]
    159 -> 78 [penwidth=2]
    159 -> 14 [penwidth=2]
    159 -> 72 [penwidth=2]
    159 -> 291 [penwidth=2]
    159 -> 102 [penwidth=2]
    159 -> 244 [penwidth=2]
    159 -> 211 [penwidth=2]
    159 -> 18 [penwidth=2]
    159 -> 233 [penwidth=2]
    159 -> 254 [penwidth=2]
    159 -> 88 [penwidth=2]
    159 -> 17 [penwidth=2]
    159 -> 154 [penwidth=2]
    159 -> 27 [penwidth=2]
    159 -> 20 [penwidth=2]
    159 -> 256 [penwidth=2]
    159 -> 135 [penwidth=2]
    159 -> 99 [penwidth=2]
    159 -> 241 [penwidth=2]
    159 -> 35 [penwidth=2]
    159 -> 4 [penwidth=2]
    159 -> 95 [penwidth=2]
    159 -> 292 [penwidth=2]
    159 -> 156 [penwidth=2]
    159 -> 45 [penwidth=2]
    160 -> 136 [penwidth=2]
    160 -> 306 [penwidth=2]
    160 -> 202 [penwidth=2]
    160 -> 272 [penwidth=2]
    160 -> 67 [penwidth=2]
    160 -> 29 [penwidth=2]
    160 -> 270 [penwidth=2]
    160 -> 198 [penwidth=2]
    160 -> 158 [penwidth=2]
    160 -> 259 [penwidth=2]
    160 -> 45 [penwidth=2]
    160 -> 40 [penwidth=2]
    160 -> 283 [penwidth=2]
    160 -> 273 [penwidth=2]
    160 -> 42 [penwidth=2]
    160 -> 97 [penwidth=2]
    160 -> 264 [penwidth=2]
    160 -> 225 [penwidth=2]
    160 -> 144 [penwidth=2]
    160 -> 296 [penwidth=2]
    160 -> 20 [penwidth=2]
    160 -> 103 [penwidth=2]
    160 -> 238 [penwidth=2]
    160 -> 253 [penwidth=2]
    160 -> 38 [penwidth=2]
    160 -> 201 [penwidth=2]
    160 -> 300 [penwidth=2]
    160 -> 143 [penwidth=2]
    160 -> 76 [penwidth=2]
    160 -> 96 [penwidth=2]
    160 -> 15 [penwidth=2]
    160 -> 101 [penwidth=2]
    160 -> 73 [penwidth=2]
    160 -> 58 [penwidth=2]
    160 -> 137 [penwidth=2]
    160 -> 228 [penwidth=2]
    160 -> 204 [penwidth=2]
    160 -> 106 [penwidth=2]
    160 -> 34 [penwidth=2]
    160 -> 9 [penwidth=2]
    160 -> 152 [penwidth=2]
    160 -> 199 [penwidth=2]
    160 -> 26 [penwidth=2]
    160 -> 233 [penwidth=2]
    160 -> 10 [penwidth=2]
    160 -> 135 [penwidth=2]
    160 -> 1 [penwidth=2]
    160 -> 82 [penwidth=2]
    160 -> 256 [penwidth=2]
    160 -> 251 [penwidth=2]
    160 -> 252 [penwidth=2]
    160 -> 98 [penwidth=2]
    160 -> 200 [penwidth=2]
    160 -> 55 [penwidth=2]
    160 -> 206 [penwidth=2]
    160 -> 243 [penwidth=2]
    160 -> 53 [penwidth=2]
    160 -> 4 [penwidth=2]
    160 -> 79 [penwidth=2]
    160 -> 51 [penwidth=2]
    160 -> 285 [penwidth=2]
    160 -> 104 [penwidth=2]
    160 -> 27 [penwidth=2]
    160 -> 207 [penwidth=2]
    160 -> 280 [penwidth=2]
    160 -> 35 [penwidth=2]
    160 -> 93 [penwidth=2]
    160 -> 31 [penwidth=2]
    160 -> 90 [penwidth=2]
    160 -> 246 [penwidth=2]
    160 -> 91 [penwidth=2]
    160 -> 209 [penwidth=2]
    160 -> 242 [penwidth=2]
    160 -> 193 [penwidth=2]
    160 -> 257 [penwidth=2]
    160 -> 84 [penwidth=2]
    160 -> 276 [penwidth=2]
    160 -> 302 [penwidth=2]
    160 -> 287 [penwidth=2]
    160 -> 74 [penwidth=2]
    160 -> 241 [penwidth=2]
    160 -> 33 [penwidth=2]
    160 -> 88 [penwidth=2]
    160 -> 105 [penwidth=2]
    160 -> 210 [penwidth=2]
    160 -> 234 [penwidth=2]
    160 -> 244 [penwidth=2]
    160 -> 11 [penwidth=2]
    160 -> 212 [penwidth=2]
    160 -> 281 [penwidth=2]
    160 -> 149 [penwidth=2]
    160 -> 139 [penwidth=2]
    160 -> 250 [penwidth=2]
    160 -> 7 [penwidth=2]
    160 -> 221 [penwidth=2]
    160 -> 309 [penwidth=2]
    160 -> 156 [penwidth=2]
    160 -> 13 [penwidth=2]
    161 -> 224 [penwidth=2]
    161 -> 46 [penwidth=2]
    161 -> 214 [penwidth=2]
    161 -> 64 [penwidth=2]
    161 -> 251 [penwidth=2]
    161 -> 202 [penwidth=2]
    161 -> 18 [penwidth=2]
    161 -> 42 [penwidth=2]
    161 -> 43 [penwidth=2]
    161 -> 280 [penwidth=2]
    161 -> 139 [penwidth=2]
    161 -> 85 [penwidth=2]
    161 -> 247 [penwidth=2]
    161 -> 281 [penwidth=2]
    161 -> 68 [penwidth=2]
    161 -> 146 [penwidth=2]
    161 -> 87 [penwidth=2]
    161 -> 206 [penwidth=2]
    161 -> 292 [penwidth=2]
    161 -> 279 [penwidth=2]
    161 -> 267 [penwidth=2]
    161 -> 79 [penwidth=2]
    161 -> 307 [penwidth=2]
    161 -> 240 [penwidth=2]
    161 -> 153 [penwidth=2]
    161 -> 67 [penwidth=2]
    161 -> 108 [penwidth=2]
    161 -> 263 [penwidth=2]
    161 -> 199 [penwidth=2]
    161 -> 106 [penwidth=2]
    161 -> 11 [penwidth=2]
    161 -> 252 [penwidth=2]
    161 -> 89 [penwidth=2]
    161 -> 262 [penwidth=2]
    161 -> 26 [penwidth=2]
    161 -> 148 [penwidth=2]
    161 -> 81 [penwidth=2]
    161 -> 306 [penwidth=2]
    161 -> 249 [penwidth=2]
    161 -> 47 [penwidth=2]
    161 -> 137 [penwidth=2]
    161 -> 3 [penwidth=2]
    161 -> 103 [penwidth=2]
    161 -> 14 [penwidth=2]
    161 -> 270 [penwidth=2]
    161 -> 76 [penwidth=2]
    161 -> 301 [penwidth=2]
    161 -> 156 [penwidth=2]
    161 -> 257 [penwidth=2]
    161 -> 287 [penwidth=2]
    161 -> 302 [penwidth=2]
    161 -> 254 [penwidth=2]
    161 -> 65 [penwidth=2]
    161 -> 66 [penwidth=2]
    161 -> 80 [penwidth=2]
    161 -> 41 [penwidth=2]
    161 -> 198 [penwidth=2]
    161 -> 70 [penwidth=2]
    161 -> 228 [penwidth=2]
    161 -> 50 [penwidth=2]
    161 -> 1 [penwidth=2]
    161 -> 300 [penwidth=2]
    161 -> 104 [penwidth=2]
    161 -> 225 [penwidth=2]
    161 -> 134 [penwidth=2]
    161 -> 24 [penwidth=2]
    161 -> 12 [penwidth=2]
    161 -> 272 [penwidth=2]
    161 -> 105 [penwidth=2]
    161 -> 99 [penwidth=2]
    161 -> 17 [penwidth=2]
    161 -> 239 [penwidth=2]
    161 -> 73 [penwidth=2]
    161 -> 93 [penwidth=2]
    161 -> 92 [penwidth=2]
    161 -> 234 [penwidth=2]
    161 -> 222 [penwidth=2]
    161 -> 260 [penwidth=2]
    161 -> 268 [penwidth=2]
    161 -> 152 [penwidth=2]
    161 -> 58 [penwidth=2]
    161 -> 194 [penwidth=2]
    161 -> 143 [penwidth=2]
    161 -> 136 [penwidth=2]
    161 -> 22 [penwidth=2]
    161 -> 150 [penwidth=2]
    161 -> 303 [penwidth=2]
    161 -> 13 [penwidth=2]
    161 -> 29 [penwidth=2]
    161 -> 138 [penwidth=2]
    161 -> 69 [penwidth=2]
    161 -> 145 [penwidth=2]
    161 -> 293 [penwidth=2]
    161 -> 155 [penwidth=2]
    161 -> 54 [penwidth=2]
    161 -> 226 [penwidth=2]
    161 -> 56 [penwidth=2]
    161 -> 21 [penwidth=2]
    161 -> 295 [penwidth=2]
    161 -> 74 [penwidth=2]
    161 -> 221 [penwidth=2]
    161 -> 27 [penwidth=2]
    161 -> 158 [penwidth=2]
    161 -> 72 [penwidth=2]
    161 -> 25 [penwidth=2]
    161 -> 308 [penwidth=2]
    161 -> 248 [penwidth=2]
    161 -> 291 [penwidth=2]
    161 -> 235 [penwidth=2]
    161 -> 246 [penwidth=2]
    161 -> 34 [penwidth=2]
    161 -> 140 [penwidth=2]
    161 -> 277 [penwidth=2]
    161 -> 62 [penwidth=2]
    161 -> 220 [penwidth=2]
    161 -> 5 [penwidth=2]
    161 -> 9 [penwidth=2]
    161 -> 227 [penwidth=2]
    161 -> 265 [penwidth=2]
    161 -> 82 [penwidth=2]
    161 -> 258 [penwidth=2]
    161 -> 237 [penwidth=2]
    161 -> 6 [penwidth=2]
    161 -> 283 [penwidth=2]
    161 -> 53 [penwidth=2]
    161 -> 208 [penwidth=2]
    161 -> 10 [penwidth=2]
    161 -> 242 [penwidth=2]
    161 -> 213 [penwidth=2]
    161 -> 8 [penwidth=2]
    161 -> 289 [penwidth=2]
    161 -> 95 [penwidth=2]
    161 -> 210 [penwidth=2]
    161 -> 253 [penwidth=2]
    161 -> 271 [penwidth=2]
    161 -> 28 [penwidth=2]
    161 -> 91 [penwidth=2]
    161 -> 154 [penwidth=2]
    161 -> 201 [penwidth=2]
    161 -> 84 [penwidth=2]
    161 -> 296 [penwidth=2]
    161 -> 147 [penwidth=2]
    161 -> 215 [penwidth=2]
    161 -> 259 [penwidth=2]
    161 -> 285 [penwidth=2]
    161 -> 149 [penwidth=2]
    161 -> 141 [penwidth=2]
    161 -> 55 [penwidth=2]
    161 -> 232 [penwidth=2]
    161 -> 57 [penwidth=2]
    161 -> 197 [penwidth=2]
    161 -> 196 [penwidth=2]
    161 -> 71 [penwidth=2]
    161 -> 238 [penwidth=2]
    161 -> 83 [penwidth=2]
    161 -> 33 [penwidth=2]
    161 -> 63 [penwidth=2]
    161 -> 157 [penwidth=2]
    161 -> 78 [penwidth=2]
    161 -> 229 [penwidth=2]
    161 -> 51 [penwidth=2]
    161 -> 261 [penwidth=2]
    161 -> 100 [penwidth=2]
    161 -> 209 [penwidth=2]
    161 -> 45 [penwidth=2]
    161 -> 255 [penwidth=2]
    161 -> 282 [penwidth=2]
    161 -> 275 [penwidth=2]
    161 -> 39 [penwidth=2]
    161 -> 16 [penwidth=2]
    161 -> 284 [penwidth=2]
    161 -> 77 [penwidth=2]
    161 -> 75 [penwidth=2]
    161 -> 223 [penwidth=2]
    161 -> 86 [penwidth=2]
    161 -> 98 [penwidth=2]
    161 -> 94 [penwidth=2]
    161 -> 35 [penwidth=2]
    161 -> 298 [penwidth=2]
    161 -> 218 [penwidth=2]
    161 -> 278 [penwidth=2]
    161 -> 20 [penwidth=2]
    161 -> 97 [penwidth=2]
    161 -> 305 [penwidth=2]
    161 -> 276 [penwidth=2]
    161 -> 135 [penwidth=2]
    161 -> 19 [penwidth=2]
    161 -> 193 [penwidth=2]
    161 -> 230 [penwidth=2]
    161 -> 290 [penwidth=2]
    161 -> 15 [penwidth=2]
    161 -> 96 [penwidth=2]
    161 -> 212 [penwidth=2]
    161 -> 244 [penwidth=2]
    161 -> 273 [penwidth=2]
    161 -> 59 [penwidth=2]
    161 -> 32 [penwidth=2]
    161 -> 269 [penwidth=2]
    161 -> 7 [penwidth=2]
    161 -> 37 [penwidth=2]
    161 -> 274 [penwidth=2]
    161 -> 297 [penwidth=2]
    161 -> 49 [penwidth=2]
    161 -> 23 [penwidth=2]
    161 -> 200 [penwidth=2]
    161 -> 144 [penwidth=2]
    161 -> 203 [penwidth=2]
    161 -> 102 [penwidth=2]
    161 -> 264 [penwidth=2]
    161 -> 2 [penwidth=2]
    161 -> 40 [penwidth=2]
    161 -> 211 [penwidth=2]
    161 -> 61 [penwidth=2]
    161 -> 219 [penwidth=2]
    161 -> 217 [penwidth=2]
    161 -> 30 [penwidth=2]
    161 -> 250 [penwidth=2]
    161 -> 309 [penwidth=2]
    164 -> 98 [penwidth=2]
    164 -> 139 [penwidth=2]
    164 -> 58 [penwidth=2]
    164 -> 19 [penwidth=2]
    164 -> 147 [penwidth=2]
    164 -> 235 [penwidth=2]
    164 -> 218 [penwidth=2]
    164 -> 209 [penwidth=2]
    164 -> 303 [penwidth=2]
    164 -> 13 [penwidth=2]
    164 -> 259 [penwidth=2]
    164 -> 193 [penwidth=2]
    164 -> 53 [penwidth=2]
    164 -> 91 [penwidth=2]
    164 -> 73 [penwidth=2]
    164 -> 141 [penwidth=2]
    164 -> 37 [penwidth=2]
    164 -> 134 [penwidth=2]
    164 -> 224 [penwidth=2]
    164 -> 81 [penwidth=2]
    164 -> 290 [penwidth=2]
    164 -> 270 [penwidth=2]
    164 -> 135 [penwidth=2]
    164 -> 255 [penwidth=2]
    164 -> 59 [penwidth=2]
    164 -> 213 [penwidth=2]
    164 -> 246 [penwidth=2]
    164 -> 232 [penwidth=2]
    164 -> 104 [penwidth=2]
    164 -> 306 [penwidth=2]
    172 -> 50 [penwidth=2]
    172 -> 253 [penwidth=2]
    172 -> 208 [penwidth=2]
    172 -> 32 [penwidth=2]
    172 -> 40 [penwidth=2]
    172 -> 268 [penwidth=2]
    172 -> 3 [penwidth=2]
    172 -> 304 [penwidth=2]
    172 -> 308 [penwidth=2]
    172 -> 41 [penwidth=2]
    172 -> 155 [penwidth=2]
    172 -> 137 [penwidth=2]
    172 -> 62 [penwidth=2]
    172 -> 33 [penwidth=2]
    172 -> 248 [penwidth=2]
    172 -> 250 [penwidth=2]
    172 -> 2 [penwidth=2]
    172 -> 244 [penwidth=2]
    172 -> 195 [penwidth=2]
    172 -> 14 [penwidth=2]
    172 -> 30 [penwidth=2]
    172 -> 44 [penwidth=2]
    172 -> 19 [penwidth=2]
    172 -> 43 [penwidth=2]
    172 -> 100 [penwidth=2]
    172 -> 15 [penwidth=2]
    172 -> 224 [penwidth=2]
    172 -> 214 [penwidth=2]
    172 -> 151 [penwidth=2]
    172 -> 73 [penwidth=2]
    172 -> 283 [penwidth=2]
    172 -> 75 [penwidth=2]
    172 -> 96 [penwidth=2]
    172 -> 277 [penwidth=2]
    172 -> 101 [penwidth=2]
    172 -> 106 [penwidth=2]
    172 -> 42 [penwidth=2]
    172 -> 256 [penwidth=2]
    172 -> 292 [penwidth=2]
    172 -> 198 [penwidth=2]
    172 -> 230 [penwidth=2]
    172 -> 143 [penwidth=2]
    172 -> 262 [penwidth=2]
    172 -> 139 [penwidth=2]
    172 -> 225 [penwidth=2]
    172 -> 287 [penwidth=2]
    172 -> 259 [penwidth=2]
    172 -> 148 [penwidth=2]
    172 -> 152 [penwidth=2]
    172 -> 63 [penwidth=2]
    172 -> 104 [penwidth=2]
    172 -> 279 [penwidth=2]
    172 -> 266 [penwidth=2]
    172 -> 49 [penwidth=2]
    172 -> 136 [penwidth=2]
    172 -> 291 [penwidth=2]
    172 -> 74 [penwidth=2]
    172 -> 204 [penwidth=2]
    172 -> 239 [penwidth=2]
    172 -> 60 [penwidth=2]
    172 -> 82 [penwidth=2]
    172 -> 146 [penwidth=2]
    172 -> 150 [penwidth=2]
    172 -> 29 [penwidth=2]
    172 -> 264 [penwidth=2]
    172 -> 21 [penwidth=2]
    172 -> 80 [penwidth=2]
    172 -> 219 [penwidth=2]
    172 -> 81 [penwidth=2]
    172 -> 278 [penwidth=2]
    172 -> 95 [penwidth=2]
    172 -> 57 [penwidth=2]
    172 -> 58 [penwidth=2]
    172 -> 90 [penwidth=2]
    172 -> 202 [penwidth=2]
    172 -> 23 [penwidth=2]
    172 -> 238 [penwidth=2]
    172 -> 254 [penwidth=2]
    172 -> 284 [penwidth=2]
    172 -> 1 [penwidth=2]
    172 -> 39 [penwidth=2]
    172 -> 108 [penwidth=2]
    172 -> 233 [penwidth=2]
    172 -> 91 [penwidth=2]
    172 -> 294 [penwidth=2]
    172 -> 78 [penwidth=2]
    172 -> 207 [penwidth=2]
    172 -> 246 [penwidth=2]
    172 -> 297 [penwidth=2]
    172 -> 307 [penwidth=2]
    172 -> 298 [penwidth=2]
    172 -> 271 [penwidth=2]
    172 -> 28 [penwidth=2]
    172 -> 273 [penwidth=2]
    172 -> 16 [penwidth=2]
    172 -> 38 [penwidth=2]
    172 -> 232 [penwidth=2]
    172 -> 51 [penwidth=2]
    172 -> 64 [penwidth=2]
    172 -> 285 [penwidth=2]
    172 -> 157 [penwidth=2]
    172 -> 196 [penwidth=2]
    172 -> 200 [penwidth=2]
    172 -> 9 [penwidth=2]
    172 -> 87 [penwidth=2]
    172 -> 94 [penwidth=2]
    172 -> 77 [penwidth=2]
    172 -> 217 [penwidth=2]
    172 -> 205 [penwidth=2]
    172 -> 59 [penwidth=2]
    172 -> 5 [penwidth=2]
    172 -> 286 [penwidth=2]
    172 -> 68 [penwidth=2]
    172 -> 135 [penwidth=2]
    172 -> 8 [penwidth=2]
    172 -> 18 [penwidth=2]
    172 -> 37 [penwidth=2]
    172 -> 269 [penwidth=2]
    172 -> 36 [penwidth=2]
    172 -> 55 [penwidth=2]
    172 -> 85 [penwidth=2]
    172 -> 76 [penwidth=2]
    172 -> 147 [penwidth=2]
    172 -> 272 [penwidth=2]
    172 -> 47 [penwidth=2]
    172 -> 69 [penwidth=2]
    172 -> 56 [penwidth=2]
    172 -> 52 [penwidth=2]
    185 -> 156 [penwidth=2]
    185 -> 98 [penwidth=2]
    185 -> 84 [penwidth=2]
    185 -> 72 [penwidth=2]
    185 -> 245 [penwidth=2]
    185 -> 220 [penwidth=2]
    185 -> 36 [penwidth=2]
    185 -> 40 [penwidth=2]
    185 -> 285 [penwidth=2]
    185 -> 133 [penwidth=2]
    185 -> 49 [penwidth=2]
    185 -> 43 [penwidth=2]
    185 -> 34 [penwidth=2]
    185 -> 253 [penwidth=2]
    185 -> 243 [penwidth=2]
    185 -> 58 [penwidth=2]
    185 -> 213 [penwidth=2]
    185 -> 93 [penwidth=2]
    185 -> 102 [penwidth=2]
    185 -> 101 [penwidth=2]
    185 -> 7 [penwidth=2]
    185 -> 56 [penwidth=2]
    185 -> 291 [penwidth=2]
    185 -> 196 [penwidth=2]
    185 -> 214 [penwidth=2]
    185 -> 64 [penwidth=2]
    185 -> 194 [penwidth=2]
    185 -> 233 [penwidth=2]
    185 -> 193 [penwidth=2]
    185 -> 269 [penwidth=2]
    185 -> 94 [penwidth=2]
    185 -> 17 [penwidth=2]
    185 -> 73 [penwidth=2]
    185 -> 229 [penwidth=2]
    185 -> 254 [penwidth=2]
    185 -> 294 [penwidth=2]
    185 -> 47 [penwidth=2]
    185 -> 51 [penwidth=2]
    185 -> 142 [penwidth=2]
    185 -> 138 [penwidth=2]
    185 -> 23 [penwidth=2]
    185 -> 227 [penwidth=2]
    185 -> 107 [penwidth=2]
    185 -> 308 [penwidth=2]
    185 -> 89 [penwidth=2]
    185 -> 2 [penwidth=2]
    185 -> 247 [penwidth=2]
    185 -> 278 [penwidth=2]
    185 -> 271 [penwidth=2]
    185 -> 18 [penwidth=2]
    185 -> 12 [penwidth=2]
    185 -> 219 [penwidth=2]
    185 -> 261 [penwidth=2]
    185 -> 37 [penwidth=2]
    185 -> 52 [penwidth=2]
    185 -> 14 [penwidth=2]
    185 -> 276 [penwidth=2]
    185 -> 151 [penwidth=2]
    185 -> 198 [penwidth=2]
    185 -> 75 [penwidth=2]
    185 -> 19 [penwidth=2]
    185 -> 262 [penwidth=2]
    185 -> 104 [penwidth=2]
    185 -> 78 [penwidth=2]
    185 -> 35 [penwidth=2]
    185 -> 268 [penwidth=2]
    185 -> 55 [penwidth=2]
    185 -> 203 [penwidth=2]
    185 -> 158 [penwidth=2]
    185 -> 91 [penwidth=2]
    185 -> 16 [penwidth=2]
    185 -> 136 [penwidth=2]
    185 -> 258 [penwidth=2]
    185 -> 244 [penwidth=2]
    185 -> 81 [penwidth=2]
    185 -> 239 [penwidth=2]
    185 -> 288 [penwidth=2]
    185 -> 27 [penwidth=2]
    185 -> 302 [penwidth=2]
    185 -> 274 [penwidth=2]
    185 -> 69 [penwidth=2]
    185 -> 267 [penwidth=2]
    185 -> 237 [penwidth=2]
    185 -> 29 [penwidth=2]
    185 -> 68 [penwidth=2]
    185 -> 224 [penwidth=2]
    185 -> 222 [penwidth=2]
    185 -> 103 [penwidth=2]
    185 -> 61 [penwidth=2]
    185 -> 1 [penwidth=2]
    185 -> 208 [penwidth=2]
    185 -> 273 [penwidth=2]
    185 -> 65 [penwidth=2]
    185 -> 232 [penwidth=2]
    185 -> 293 [penwidth=2]
    185 -> 201 [penwidth=2]
    185 -> 197 [penwidth=2]
    185 -> 76 [penwidth=2]
    185 -> 88 [penwidth=2]
    185 -> 45 [penwidth=2]
    185 -> 249 [penwidth=2]
    185 -> 230 [penwidth=2]
    185 -> 286 [penwidth=2]
    185 -> 216 [penwidth=2]
    185 -> 39 [penwidth=2]
    185 -> 33 [penwidth=2]
    185 -> 145 [penwidth=2]
    185 -> 221 [penwidth=2]
    185 -> 259 [penwidth=2]
    185 -> 66 [penwidth=2]
    185 -> 9 [penwidth=2]
    185 -> 48 [penwidth=2]
    185 -> 77 [penwidth=2]
    185 -> 21 [penwidth=2]
    185 -> 82 [penwidth=2]
    185 -> 154 [penwidth=2]
    185 -> 200 [penwidth=2]
    185 -> 44 [penwidth=2]
    185 -> 277 [penwidth=2]
    185 -> 275 [penwidth=2]
    185 -> 256 [penwidth=2]
    185 -> 242 [penwidth=2]
    185 -> 290 [penwidth=2]
    185 -> 206 [penwidth=2]
    185 -> 282 [penwidth=2]
    185 -> 139 [penwidth=2]
    185 -> 141 [penwidth=2]
    185 -> 228 [penwidth=2]
    185 -> 265 [penwidth=2]
    185 -> 92 [penwidth=2]
    185 -> 148 [penwidth=2]
    185 -> 205 [penwidth=2]
    185 -> 26 [penwidth=2]
    185 -> 5 [penwidth=2]
    185 -> 97 [penwidth=2]
    185 -> 235 [penwidth=2]
    185 -> 292 [penwidth=2]
    185 -> 143 [penwidth=2]
    185 -> 263 [penwidth=2]
    185 -> 202 [penwidth=2]
    185 -> 87 [penwidth=2]
    185 -> 74 [penwidth=2]
    185 -> 25 [penwidth=2]
    185 -> 57 [penwidth=2]
    185 -> 147 [penwidth=2]
    185 -> 50 [penwidth=2]
    185 -> 152 [penwidth=2]
    185 -> 13 [penwidth=2]
    185 -> 225 [penwidth=2]
    185 -> 79 [penwidth=2]
    185 -> 20 [penwidth=2]
    185 -> 8 [penwidth=2]
    185 -> 306 [penwidth=2]
    185 -> 157 [penwidth=2]
    185 -> 238 [penwidth=2]
    185 -> 260 [penwidth=2]
    185 -> 217 [penwidth=2]
    185 -> 53 [penwidth=2]
    185 -> 207 [penwidth=2]
    185 -> 218 [penwidth=2]
    185 -> 24 [penwidth=2]
    185 -> 42 [penwidth=2]
    185 -> 63 [penwidth=2]
    185 -> 60 [penwidth=2]
    185 -> 10 [penwidth=2]
    185 -> 71 [penwidth=2]
    185 -> 307 [penwidth=2]
    185 -> 28 [penwidth=2]
    185 -> 295 [penwidth=2]
    185 -> 108 [penwidth=2]
    185 -> 59 [penwidth=2]
    185 -> 266 [penwidth=2]
    185 -> 100 [penwidth=2]
    185 -> 85 [penwidth=2]
    185 -> 11 [penwidth=2]
    185 -> 31 [penwidth=2]
    185 -> 300 [penwidth=2]
    185 -> 210 [penwidth=2]
    185 -> 204 [penwidth=2]
    185 -> 250 [penwidth=2]
    185 -> 144 [penwidth=2]
    185 -> 4 [penwidth=2]
    185 -> 15 [penwidth=2]
    185 -> 30 [penwidth=2]
    185 -> 303 [penwidth=2]
    185 -> 153 [penwidth=2]
    185 -> 272 [penwidth=2]
    185 -> 231 [penwidth=2]
    185 -> 106 [penwidth=2]
    185 -> 155 [penwidth=2]
    185 -> 46 [penwidth=2]
    185 -> 301 [penwidth=2]
    185 -> 248 [penwidth=2]
    185 -> 150 [penwidth=2]
    185 -> 62 [penwidth=2]
    185 -> 240 [penwidth=2]
    185 -> 83 [penwidth=2]
    185 -> 140 [penwidth=2]
    185 -> 305 [penwidth=2]
    185 -> 146 [penwidth=2]
    185 -> 38 [penwidth=2]
    185 -> 246 [penwidth=2]
    185 -> 226 [penwidth=2]
    185 -> 70 [penwidth=2]
    185 -> 299 [penwidth=2]
    185 -> 86 [penwidth=2]
    185 -> 3 [penwidth=2]
    185 -> 137 [penwidth=2]
    185 -> 264 [penwidth=2]
    185 -> 95 [penwidth=2]
    185 -> 215 [penwidth=2]
    185 -> 6 [penwidth=2]
    185 -> 251 [penwidth=2]
    185 -> 257 [penwidth=2]
    185 -> 80 [penwidth=2]
    185 -> 236 [penwidth=2]
    185 -> 54 [penwidth=2]
    185 -> 283 [penwidth=2]
    185 -> 234 [penwidth=2]
    185 -> 22 [penwidth=2]
    185 -> 209 [penwidth=2]
    185 -> 67 [penwidth=2]
    185 -> 279 [penwidth=2]
    185 -> 223 [penwidth=2]
    185 -> 199 [penwidth=2]
    185 -> 149 [penwidth=2]
    185 -> 270 [penwidth=2]
}