digraph G {
    0 [penwidth=3,label="0"]
    1 [penwidth=3,label="1"]
    2 [penwidth=3,label="2"]
    3 [penwidth=3,label="3"]
    4 [penwidth=3,label="4"]
    5 [penwidth=3,label="5"]
    6 [penwidth=3,label="6"]
    7 [penwidth=3,label="7"]
    8 [penwidth=3,label="8"]
    9 [penwidth=3,label="9"]
    10 [penwidth=3,label="10"]
    11 [penwidth=3,label="11"]
    12 [penwidth=3,label="12"]
    13 [penwidth=3,label="13"]
    14 [penwidth=3,label="14"]
    15 [penwidth=3,label="15"]
    16 [penwidth=3,label="16"]
    17 [penwidth=3,label="17"]
    18 [penwidth=3,label="18"]
    19 [penwidth=3,label="19"]
    20 [penwidth=3,label="20"]
    21 [penwidth=3,label="21"]
    22 [penwidth=3,label="22"]
    23 [penwidth=3,label="23"]
    24 [penwidth=3,label="24"]
    25 [penwidth=3,label="25"]
    26 [penwidth=3,label="26"]
    27 [penwidth=3,label="27"]
    28 [penwidth=3,label="28"]
    29 [penwidth=3,label="29"]
    30 [penwidth=3,label="30"]
    31 [penwidth=3,label="31"]
    32 [penwidth=3,label="32"]
    33 [penwidth=3,label="33"]
    34 [penwidth=3,label="34"]
    35 [penwidth=3,label="35"]
    36 [penwidth=3,label="36"]
    37 [penwidth=3,label="37"]
    38 [penwidth=3,label="38"]
    39 [penwidth=3,label="39"]
    40 [penwidth=3,label="40"]
    41 [penwidth=3,label="41"]
    42 [penwidth=3,label="42"]
    43 [penwidth=3,label="43"]
    44 [penwidth=3,label="44"]
    45 [penwidth=3,label="45"]
    46 [penwidth=3,label="46"]
    47 [penwidth=3,label="47"]
    48 [penwidth=3,label="48"]
    49 [penwidth=3,label="49"]
    50 [penwidth=3,label="50"]
    51 [penwidth=3,label="51"]
    52 [penwidth=3,label="52"]
    53 [penwidth=3,label="53"]
    54 [penwidth=3,label="54"]
    55 [penwidth=3,label="55"]
    56 [penwidth=3,label="56"]
    57 [penwidth=3,label="57"]
    58 [penwidth=3,label="58"]
    59 [penwidth=3,label="59"]
    60 [penwidth=3,label="60"]
    61 [penwidth=3,label="61"]
    62 [penwidth=3,label="62"]
    63 [penwidth=3,label="63"]
    64 [penwidth=3,label="64"]
    65 [penwidth=3,label="65"]
    66 [penwidth=3,label="66"]
    67 [penwidth=3,label="67"]
    68 [penwidth=3,label="68"]
    69 [penwidth=3,label="69"]
    70 [penwidth=3,label="70"]
    71 [penwidth=3,label="71"]
    72 [penwidth=3,label="72"]
    73 [penwidth=3,label="73"]
    74 [penwidth=3,label="74"]
    75 [penwidth=3,label="75"]
    76 [penwidth=3,label="76"]
    77 [penwidth=3,label="77"]
    78 [penwidth=3,label="78"]
    79 [penwidth=3,label="79"]
    80 [penwidth=3,label="80"]
    81 [penwidth=3,label="81"]
    82 [penwidth=3,label="82"]
    83 [penwidth=3,label="83"]
    84 [penwidth=3,label="84"]
    85 [penwidth=3,label="85"]
    86 [penwidth=3,label="86"]
    87 [penwidth=3,label="87"]
    88 [penwidth=3,label="88"]
    89 [penwidth=3,label="89"]
    90 [penwidth=3,label="90"]
    91 [penwidth=3,label="91"]
    92 [penwidth=3,label="92"]
    93 [penwidth=3,label="93"]
    94 [penwidth=3,label="94"]
    95 [penwidth=3,label="95"]
    96 [penwidth=3,label="96"]
    97 [penwidth=3,label="97"]
    98 [penwidth=3,label="98"]
    99 [penwidth=3,label="99"]
    100 [penwidth=3,label="100"]
    101 [penwidth=3,label="101"]
    102 [penwidth=3,label="102"]
    103 [penwidth=3,label="103"]
    104 [penwidth=3,label="104"]
    105 [penwidth=3,label="105"]
    106 [penwidth=3,label="106"]
    107 [penwidth=3,label="107"]
    108 [penwidth=3,label="108"]
    109 [penwidth=3,label="109"]
    110 [penwidth=3,label="110"]
    111 [penwidth=3,label="111"]
    112 [penwidth=3,label="112"]
    113 [penwidth=3,label="113"]
    114 [penwidth=3,label="114"]
    115 [penwidth=3,label="115"]
    116 [penwidth=3,label="116"]
    117 [penwidth=3,label="117"]
    118 [penwidth=3,label="118"]
    119 [penwidth=3,label="119"]
    120 [penwidth=3,label="120"]
    121 [penwidth=3,label="121"]
    122 [penwidth=3,label="122"]
    123 [penwidth=3,label="123"]
    124 [penwidth=3,label="124"]
    125 [penwidth=3,label="125"]
    126 [penwidth=3,label="126"]
    127 [penwidth=3,label="127"]
    128 [penwidth=3,label="128"]
    129 [penwidth=3,label="129"]
    130 [penwidth=3,label="130"]
    131 [penwidth=3,label="131"]
    132 [penwidth=3,label="132"]
    133 [penwidth=3,label="133"]
    134 [penwidth=3,label="134"]
    135 [penwidth=3,label="135"]
    136 [penwidth=3,label="136"]
    137 [penwidth=3,label="137"]
    138 [penwidth=3,label="138"]
    139 [penwidth=3,label="139"]
    140 [penwidth=3,label="140"]
    141 [penwidth=3,label="141"]
    142 [penwidth=3,label="142"]
    143 [penwidth=3,label="143"]
    144 [penwidth=3,label="144"]
    145 [penwidth=3,label="145"]
    146 [penwidth=3,label="146"]
    147 [penwidth=3,label="147"]
    148 [penwidth=3,label="148"]
    149 [penwidth=3,label="149"]
    150 [penwidth=3,label="150"]
    151 [penwidth=3,label="151"]
    152 [penwidth=3,label="152"]
    153 [penwidth=3,label="153"]
    154 [penwidth=3,label="154"]
    155 [penwidth=3,label="155"]
    156 [penwidth=3,label="156"]
    157 [penwidth=3,label="157"]
    158 [penwidth=3,label="158"]
    159 [penwidth=3,label="159"]
    160 [penwidth=3,label="160"]
    161 [penwidth=3,label="161"]
    162 [penwidth=3,label="162"]
    163 [penwidth=3,label="163"]
    164 [penwidth=3,label="164"]
    165 [penwidth=3,label="165"]
    166 [penwidth=3,label="166"]
    167 [penwidth=3,label="167"]
    168 [penwidth=3,label="168"]
    169 [penwidth=3,label="169"]
    170 [penwidth=3,label="170"]
    171 [penwidth=3,label="171"]
    172 [penwidth=3,label="172"]
    173 [penwidth=3,label="173"]
    174 [penwidth=3,label="174"]
    175 [penwidth=3,label="175"]
    176 [penwidth=3,label="176"]
    177 [penwidth=3,label="177"]
    178 [penwidth=3,label="178"]
    179 [penwidth=3,label="179"]
    180 [penwidth=3,label="180"]
    181 [penwidth=3,label="181"]
    182 [penwidth=3,label="182"]
    183 [penwidth=3,label="183"]
    184 [penwidth=3,label="184"]
    185 [penwidth=3,label="185"]
    186 [penwidth=3,label="186"]
    187 [penwidth=3,label="187"]
    188 [penwidth=3,label="188"]
    189 [penwidth=3,label="189"]
    190 [penwidth=3,label="190"]
    191 [penwidth=3,label="191"]
    192 [penwidth=3,label="192"]
    193 [penwidth=3,label="193"]
    194 [penwidth=3,label="194"]
    195 [penwidth=3,label="195"]
    196 [penwidth=3,label="196"]
    197 [penwidth=3,label="197"]
    198 [penwidth=3,label="198"]
    199 [penwidth=3,label="199"]
    200 [penwidth=3,label="200"]
    201 [penwidth=3,label="201"]
    202 [penwidth=3,label="202"]
    203 [penwidth=3,label="203"]
    204 [penwidth=3,label="204"]
    205 [penwidth=3,label="205"]
    206 [penwidth=3,label="206"]
    207 [penwidth=3,label="207"]
    208 [penwidth=3,label="208"]
    209 [penwidth=3,label="209"]
    210 [penwidth=3,label="210"]
    211 [penwidth=3,label="211"]
    212 [penwidth=3,label="212"]
    213 [penwidth=3,label="213"]
    214 [penwidth=3,label="214"]
    215 [penwidth=3,label="215"]
    216 [penwidth=3,label="216"]
    217 [penwidth=3,label="217"]
    218 [penwidth=3,label="218"]
    219 [penwidth=3,label="219"]
    220 [penwidth=3,label="220"]
    221 [penwidth=3,label="221"]
    222 [penwidth=3,label="222"]
    223 [penwidth=3,label="223"]
    224 [penwidth=3,label="224"]
    225 [penwidth=3,label="225"]
    226 [penwidth=3,label="226"]
    227 [penwidth=3,label="227"]
    228 [penwidth=3,label="228"]
    229 [penwidth=3,label="229"]
    230 [penwidth=3,label="230"]
    231 [penwidth=3,label="231"]
    232 [penwidth=3,label="232"]
    233 [penwidth=3,label="233"]
    234 [penwidth=3,label="234"]
    235 [penwidth=3,label="235"]
    236 [penwidth=3,label="236"]
    237 [penwidth=3,label="237"]
    238 [penwidth=3,label="238"]
    239 [penwidth=3,label="239"]
    240 [penwidth=3,label="240"]
    241 [penwidth=3,label="241"]
    242 [penwidth=3,label="242"]
    243 [penwidth=3,label="243"]
    244 [penwidth=3,label="244"]
    245 [penwidth=3,label="245"]
    246 [penwidth=3,label="246"]
    247 [penwidth=3,label="247"]
    248 [penwidth=3,label="248"]
    249 [penwidth=3,label="249"]
    250 [penwidth=3,label="250"]
    251 [penwidth=3,label="251"]
    252 [penwidth=3,label="252"]
    253 [penwidth=3,label="253"]
    254 [penwidth=3,label="254"]
    255 [penwidth=3,label="255"]
    256 [penwidth=3,label="256"]
    257 [penwidth=3,label="257"]
    258 [penwidth=3,label="258"]
    259 [penwidth=3,label="259"]
    260 [penwidth=3,label="260"]
    261 [penwidth=3,label="261"]
    262 [penwidth=3,label="262"]
    263 [penwidth=3,label="263"]
    264 [penwidth=3,label="264"]
    265 [penwidth=3,label="265"]
    266 [penwidth=3,label="266"]
    267 [penwidth=3,label="267"]
    268 [penwidth=3,label="268"]
    269 [penwidth=3,label="269"]
    270 [penwidth=3,label="270"]
    271 [penwidth=3,label="271"]
    272 [penwidth=3,label="272"]
    273 [penwidth=3,label="273"]
    274 [penwidth=3,label="274"]
    275 [penwidth=3,label="275"]
    276 [penwidth=3,label="276"]
    277 [penwidth=3,label="277"]
    278 [penwidth=3,label="278"]
    279 [penwidth=3,label="279"]
    280 [penwidth=3,label="280"]
    281 [penwidth=3,label="281"]
    282 [penwidth=3,label="282"]
    283 [penwidth=3,label="283"]
    284 [penwidth=3,label="284"]
    285 [penwidth=3,label="285"]
    286 [penwidth=3,label="286"]
    287 [penwidth=3,label="287"]
    288 [penwidth=3,label="288"]
    289 [penwidth=3,label="289"]
    290 [penwidth=3,label="290"]
    291 [penwidth=3,label="291"]
    292 [penwidth=3,label="292"]
    293 [penwidth=3,label="293"]
    294 [penwidth=3,label="294"]
    295 [penwidth=3,label="295"]
    296 [penwidth=3,label="296"]
    297 [penwidth=3,label="297"]
    298 [penwidth=3,label="298"]
    299 [penwidth=3,label="299"]
    300 [penwidth=3,label="300"]
    301 [penwidth=3,label="301"]
    302 [penwidth=3,label="302"]
    303 [penwidth=3,label="303"]
    304 [penwidth=3,label="304"]
    305 [penwidth=3,label="305"]
    306 [penwidth=3,label="306"]
    307 [penwidth=3,label="307"]
    308 [penwidth=3,label="308"]
    309 [penwidth=3,label="309"]

    195 -> 0 [penwidth=2]
    196 -> 0 [penwidth=2]
    197 -> 0 [penwidth=2]
    198 -> 0 [penwidth=2]
    199 -> 0 [penwidth=2]
    200 -> 0 [penwidth=2]
    201 -> 0 [penwidth=2]
    202 -> 0 [penwidth=2]
    203 -> 0 [penwidth=2]
    204 -> 195 [penwidth=2]
    205 -> 195 [penwidth=2]
    206 -> 195 [penwidth=2]
    207 -> 195 [penwidth=2]
    208 -> 195 [penwidth=2]
    209 -> 195 [penwidth=2]
    210 -> 195 [penwidth=2]
    211 -> 195 [penwidth=2]
    212 -> 195 [penwidth=2]
    213 -> 195 [penwidth=2]
    214 -> 195 [penwidth=2]
    215 -> 195 [penwidth=2]
    216 -> 195 [penwidth=2]
    217 -> 195 [penwidth=2]
    218 -> 195 [penwidth=2]
    219 -> 196 [penwidth=2]
    220 -> 196 [penwidth=2]
    221 -> 196 [penwidth=2]
    222 -> 196 [penwidth=2]
    223 -> 196 [penwidth=2]
    224 -> 196 [penwidth=2]
    225 -> 196 [penwidth=2]
    226 -> 196 [penwidth=2]
    227 -> 196 [penwidth=2]
    228 -> 196 [penwidth=2]
    229 -> 196 [penwidth=2]
    230 -> 196 [penwidth=2]
    231 -> 198 [penwidth=2]
    232 -> 198 [penwidth=2]
    233 -> 198 [penwidth=2]
    234 -> 198 [penwidth=2]
    235 -> 198 [penwidth=2]
    236 -> 199 [penwidth=2]
    237 -> 199 [penwidth=2]
    238 -> 199 [penwidth=2]
    239 -> 200 [penwidth=2]
    240 -> 200 [penwidth=2]
    241 -> 200 [penwidth=2]
    242 -> 200 [penwidth=2]
    243 -> 200 [penwidth=2]
    244 -> 200 [penwidth=2]
    245 -> 200 [penwidth=2]
    246 -> 200 [penwidth=2]
    247 -> 200 [penwidth=2]
    248 -> 200 [penwidth=2]
    249 -> 201 [penwidth=2]
    250 -> 201 [penwidth=2]
    251 -> 201 [penwidth=2]
    252 -> 201 [penwidth=2]
    1 -> 201 [penwidth=2]
    253 -> 201 [penwidth=2]
    2 -> 201 [penwidth=2]
    254 -> 201 [penwidth=2]
    3 -> 201 [penwidth=2]
    255 -> 201 [penwidth=2]
    4 -> 201 [penwidth=2]
    256 -> 201 [penwidth=2]
    5 -> 202 [penwidth=2]
    257 -> 202 [penwidth=2]
    6 -> 202 [penwidth=2]
    258 -> 202 [penwidth=2]
    7 -> 202 [penwidth=2]
    259 -> 202 [penwidth=2]
    8 -> 202 [penwidth=2]
    260 -> 202 [penwidth=2]
    9 -> 202 [penwidth=2]
    261 -> 202 [penwidth=2]
    10 -> 202 [penwidth=2]
    262 -> 202 [penwidth=2]
    11 -> 202 [penwidth=2]
    263 -> 202 [penwidth=2]
    12 -> 202 [penwidth=2]
    264 -> 202 [penwidth=2]
    13 -> 202 [penwidth=2]
    265 -> 202 [penwidth=2]
    14 -> 202 [penwidth=2]
    266 -> 202 [penwidth=2]
    15 -> 202 [penwidth=2]
    267 -> 202 [penwidth=2]
    16 -> 202 [penwidth=2]
    268 -> 202 [penwidth=2]
    17 -> 202 [penwidth=2]
    269 -> 202 [penwidth=2]
    18 -> 203 [penwidth=2]
    270 -> 203 [penwidth=2]
    19 -> 203 [penwidth=2]
    271 -> 203 [penwidth=2]
    20 -> 203 [penwidth=2]
    272 -> 203 [penwidth=2]
    21 -> 203 [penwidth=2]
    273 -> 203 [penwidth=2]
    22 -> 203 [penwidth=2]
    274 -> 203 [penwidth=2]
    23 -> 204 [penwidth=2]
    275 -> 204 [penwidth=2]
    24 -> 204 [penwidth=2]
    276 -> 204 [penwidth=2]
    25 -> 204 [penwidth=2]
    277 -> 204 [penwidth=2]
    278 -> 204 [penwidth=2]
    26 -> 204 [penwidth=2]
    279 -> 204 [penwidth=2]
    280 -> 204 [penwidth=2]
    281 -> 205 [penwidth=2]
    282 -> 205 [penwidth=2]
    283 -> 205 [penwidth=2]
    284 -> 205 [penwidth=2]
    285 -> 205 [penwidth=2]
    286 -> 205 [penwidth=2]
    287 -> 205 [penwidth=2]
    288 -> 205 [penwidth=2]
    289 -> 205 [penwidth=2]
    290 -> 205 [penwidth=2]
    291 -> 205 [penwidth=2]
    292 -> 206 [penwidth=2]
    293 -> 206 [penwidth=2]
    294 -> 206 [penwidth=2]
    295 -> 206 [penwidth=2]
    296 -> 206 [penwidth=2]
    297 -> 206 [penwidth=2]
    298 -> 206 [penwidth=2]
    299 -> 206 [penwidth=2]
    300 -> 206 [penwidth=2]
    301 -> 206 [penwidth=2]
    302 -> 206 [penwidth=2]
    303 -> 206 [penwidth=2]
    304 -> 206 [penwidth=2]
    305 -> 206 [penwidth=2]
    306 -> 206 [penwidth=2]
    307 -> 206 [penwidth=2]
    308 -> 207 [penwidth=2]
    309 -> 207 [penwidth=2]
    110 -> 207 [penwidth=2]
    27 -> 207 [penwidth=2]
    28 -> 207 [penwidth=2]
    29 -> 207 [penwidth=2]
    30 -> 207 [penwidth=2]
    31 -> 207 [penwidth=2]
    32 -> 207 [penwidth=2]
    33 -> 207 [penwidth=2]
    34 -> 207 [penwidth=2]
    35 -> 207 [penwidth=2]
    36 -> 207 [penwidth=2]
    37 -> 207 [penwidth=2]
    38 -> 207 [penwidth=2]
    39 -> 207 [penwidth=2]
    40 -> 208 [penwidth=2]
    41 -> 208 [penwidth=2]
    42 -> 208 [penwidth=2]
    43 -> 208 [penwidth=2]
    44 -> 208 [penwidth=2]
    45 -> 208 [penwidth=2]
    46 -> 208 [penwidth=2]
    47 -> 208 [penwidth=2]
    48 -> 208 [penwidth=2]
    49 -> 208 [penwidth=2]
    50 -> 208 [penwidth=2]
    51 -> 208 [penwidth=2]
    52 -> 208 [penwidth=2]
    53 -> 208 [penwidth=2]
    54 -> 208 [penwidth=2]
    55 -> 208 [penwidth=2]
    56 -> 208 [penwidth=2]
    57 -> 208 [penwidth=2]
    58 -> 208 [penwidth=2]
    59 -> 208 [penwidth=2]
    60 -> 209 [penwidth=2]
    61 -> 209 [penwidth=2]
    62 -> 209 [penwidth=2]
    63 -> 209 [penwidth=2]
    64 -> 209 [penwidth=2]
    65 -> 209 [penwidth=2]
    66 -> 209 [penwidth=2]
    67 -> 209 [penwidth=2]
    68 -> 209 [penwidth=2]
    111 -> 210 [penwidth=2]
    112 -> 210 [penwidth=2]
    113 -> 210 [penwidth=2]
    114 -> 210 [penwidth=2]
    115 -> 210 [penwidth=2]
    116 -> 210 [penwidth=2]
    117 -> 210 [penwidth=2]
    118 -> 210 [penwidth=2]
    119 -> 210 [penwidth=2]
    120 -> 210 [penwidth=2]
    121 -> 210 [penwidth=2]
    122 -> 210 [penwidth=2]
    123 -> 210 [penwidth=2]
    124 -> 210 [penwidth=2]
    125 -> 210 [penwidth=2]
    126 -> 210 [penwidth=2]
    127 -> 211 [penwidth=2]
    128 -> 211 [penwidth=2]
    129 -> 211 [penwidth=2]
    130 -> 211 [penwidth=2]
    131 -> 211 [penwidth=2]
    132 -> 211 [penwidth=2]
    133 -> 211 [penwidth=2]
    134 -> 211 [penwidth=2]
    135 -> 211 [penwidth=2]
    136 -> 211 [penwidth=2]
    137 -> 211 [penwidth=2]
    138 -> 211 [penwidth=2]
    139 -> 211 [penwidth=2]
    140 -> 211 [penwidth=2]
    141 -> 211 [penwidth=2]
    142 -> 211 [penwidth=2]
    143 -> 211 [penwidth=2]
    144 -> 212 [penwidth=2]
    145 -> 212 [penwidth=2]
    146 -> 212 [penwidth=2]
    147 -> 212 [penwidth=2]
    148 -> 213 [penwidth=2]
    149 -> 213 [penwidth=2]
    150 -> 213 [penwidth=2]
    151 -> 214 [penwidth=2]
    152 -> 214 [penwidth=2]
    69 -> 214 [penwidth=2]
    153 -> 214 [penwidth=2]
    70 -> 214 [penwidth=2]
    154 -> 214 [penwidth=2]
    71 -> 214 [penwidth=2]
    155 -> 214 [penwidth=2]
    72 -> 214 [penwidth=2]
    156 -> 214 [penwidth=2]
    73 -> 214 [penwidth=2]
    157 -> 214 [penwidth=2]
    74 -> 214 [penwidth=2]
    158 -> 214 [penwidth=2]
    75 -> 214 [penwidth=2]
    159 -> 214 [penwidth=2]
    76 -> 214 [penwidth=2]
    160 -> 214 [penwidth=2]
    77 -> 214 [penwidth=2]
    161 -> 214 [penwidth=2]
    78 -> 214 [penwidth=2]
    162 -> 215 [penwidth=2]
    79 -> 215 [penwidth=2]
    163 -> 215 [penwidth=2]
    80 -> 215 [penwidth=2]
    164 -> 215 [penwidth=2]
    81 -> 215 [penwidth=2]
    165 -> 215 [penwidth=2]
    82 -> 215 [penwidth=2]
    166 -> 215 [penwidth=2]
    83 -> 215 [penwidth=2]
    167 -> 215 [penwidth=2]
    84 -> 216 [penwidth=2]
    168 -> 216 [penwidth=2]
    85 -> 216 [penwidth=2]
    169 -> 216 [penwidth=2]
    86 -> 216 [penwidth=2]
    170 -> 216 [penwidth=2]
    87 -> 216 [penwidth=2]
    171 -> 216 [penwidth=2]
    88 -> 216 [penwidth=2]
    172 -> 216 [penwidth=2]
    89 -> 216 [penwidth=2]
    173 -> 216 [penwidth=2]
    90 -> 216 [penwidth=2]
    174 -> 216 [penwidth=2]
    91 -> 216 [penwidth=2]
    175 -> 216 [penwidth=2]
    92 -> 216 [penwidth=2]
    176 -> 216 [penwidth=2]
    93 -> 216 [penwidth=2]
    177 -> 216 [penwidth=2]
    94 -> 217 [penwidth=2]
    178 -> 217 [penwidth=2]
    95 -> 217 [penwidth=2]
    179 -> 217 [penwidth=2]
    96 -> 217 [penwidth=2]
    180 -> 217 [penwidth=2]
    97 -> 217 [penwidth=2]
    181 -> 217 [penwidth=2]
    98 -> 217 [penwidth=2]
    182 -> 217 [penwidth=2]
    99 -> 217 [penwidth=2]
    183 -> 217 [penwidth=2]
    100 -> 217 [penwidth=2]
    184 -> 218 [penwidth=2]
    101 -> 218 [penwidth=2]
    185 -> 218 [penwidth=2]
    102 -> 218 [penwidth=2]
    186 -> 218 [penwidth=2]
    103 -> 218 [penwidth=2]
    187 -> 218 [penwidth=2]
    104 -> 218 [penwidth=2]
    188 -> 218 [penwidth=2]
    105 -> 218 [penwidth=2]
    189 -> 218 [penwidth=2]
    106 -> 218 [penwidth=2]
    190 -> 218 [penwidth=2]
    107 -> 218 [penwidth=2]
    191 -> 218 [penwidth=2]
    108 -> 218 [penwidth=2]
    192 -> 218 [penwidth=2]
    109 -> 218 [penwidth=2]
    193 -> 218 [penwidth=2]
    194 -> 218 [penwidth=2]
    213 -> 197 [penwidth=2]
    213 -> 203 [penwidth=2]
    213 -> 202 [penwidth=2]
    213 -> 199 [penwidth=2]
    220 -> 198 [penwidth=2]
    224 -> 197 [penwidth=2]
    225 -> 201 [penwidth=2]
    225 -> 198 [penwidth=2]
    225 -> 200 [penwidth=2]
    225 -> 197 [penwidth=2]
    225 -> 203 [penwidth=2]
    225 -> 195 [penwidth=2]
    225 -> 199 [penwidth=2]
    231 -> 200 [penwidth=2]
    231 -> 197 [penwidth=2]
    234 -> 195 [penwidth=2]
    234 -> 197 [penwidth=2]
    234 -> 200 [penwidth=2]
    234 -> 201 [penwidth=2]
    234 -> 196 [penwidth=2]
    234 -> 199 [penwidth=2]
    234 -> 202 [penwidth=2]
    239 -> 199 [penwidth=2]
    239 -> 202 [penwidth=2]
    240 -> 197 [penwidth=2]
    240 -> 202 [penwidth=2]
    249 -> 199 [penwidth=2]
    11 -> 198 [penwidth=2]
    283 -> 248 [penwidth=2]
    283 -> 228 [penwidth=2]
    283 -> 247 [penwidth=2]
    283 -> 254 [penwidth=2]
    283 -> 12 [penwidth=2]
    283 -> 210 [penwidth=2]
    283 -> 7 [penwidth=2]
    283 -> 271 [penwidth=2]
    283 -> 2 [penwidth=2]
    283 -> 244 [penwidth=2]
    283 -> 223 [penwidth=2]
    283 -> 272 [penwidth=2]
    283 -> 17 [penwidth=2]
    283 -> 230 [penwidth=2]
    283 -> 261 [penwidth=2]
    283 -> 3 [penwidth=2]
    283 -> 14 [penwidth=2]
    283 -> 231 [penwidth=2]
    283 -> 237 [penwidth=2]
    283 -> 18 [penwidth=2]
    283 -> 213 [penwidth=2]
    283 -> 262 [penwidth=2]
    283 -> 4 [penwidth=2]
    283 -> 221 [penwidth=2]
    283 -> 242 [penwidth=2]
    283 -> 204 [penwidth=2]
    283 -> 255 [penwidth=2]
    283 -> 245 [penwidth=2]
    283 -> 207 [penwidth=2]
    283 -> 257 [penwidth=2]
    283 -> 249 [penwidth=2]
    283 -> 274 [penwidth=2]
    283 -> 15 [penwidth=2]
    283 -> 263 [penwidth=2]
    283 -> 269 [penwidth=2]
    283 -> 224 [penwidth=2]
    283 -> 260 [penwidth=2]
    283 -> 222 [penwidth=2]
    283 -> 226 [penwidth=2]
    283 -> 16 [penwidth=2]
    283 -> 220 [penwidth=2]
    283 -> 217 [penwidth=2]
    283 -> 209 [penwidth=2]
    286 -> 227 [penwidth=2]
    286 -> 265 [penwidth=2]
    286 -> 251 [penwidth=2]
    287 -> 220 [penwidth=2]
    287 -> 221 [penwidth=2]
    287 -> 246 [penwidth=2]
    287 -> 210 [penwidth=2]
    287 -> 255 [penwidth=2]
    287 -> 232 [penwidth=2]
    287 -> 269 [penwidth=2]
    287 -> 235 [penwidth=2]
    287 -> 257 [penwidth=2]
    287 -> 236 [penwidth=2]
    287 -> 217 [penwidth=2]
    287 -> 254 [penwidth=2]
    287 -> 266 [penwidth=2]
    287 -> 237 [penwidth=2]
    287 -> 230 [penwidth=2]
    287 -> 3 [penwidth=2]
    287 -> 215 [penwidth=2]
    287 -> 209 [penwidth=2]
    287 -> 15 [penwidth=2]
    287 -> 8 [penwidth=2]
    287 -> 20 [penwidth=2]
    287 -> 213 [penwidth=2]
    287 -> 256 [penwidth=2]
    287 -> 1 [penwidth=2]
    287 -> 250 [penwidth=2]
    287 -> 270 [penwidth=2]
    287 -> 247 [penwidth=2]
    287 -> 5 [penwidth=2]
    287 -> 212 [penwidth=2]
    287 -> 22 [penwidth=2]
    287 -> 222 [penwidth=2]
    287 -> 206 [penwidth=2]
    287 -> 21 [penwidth=2]
    287 -> 9 [penwidth=2]
    287 -> 274 [penwidth=2]
    287 -> 204 [penwidth=2]
    287 -> 260 [penwidth=2]
    287 -> 268 [penwidth=2]
    287 -> 13 [penwidth=2]
    287 -> 261 [penwidth=2]
    287 -> 242 [penwidth=2]
    287 -> 228 [penwidth=2]
    287 -> 258 [penwidth=2]
    287 -> 227 [penwidth=2]
    287 -> 12 [penwidth=2]
    287 -> 211 [penwidth=2]
    287 -> 229 [penwidth=2]
    287 -> 249 [penwidth=2]
    287 -> 225 [penwidth=2]
    287 -> 245 [penwidth=2]
    287 -> 231 [penwidth=2]
    287 -> 241 [penwidth=2]
    287 -> 223 [penwidth=2]
    287 -> 14 [penwidth=2]
    287 -> 233 [penwidth=2]
    287 -> 19 [penwidth=2]
    287 -> 214 [penwidth=2]
    287 -> 11 [penwidth=2]
    287 -> 267 [penwidth=2]
    287 -> 224 [penwidth=2]
    287 -> 6 [penwidth=2]
    287 -> 263 [penwidth=2]
    287 -> 273 [penwidth=2]
    287 -> 216 [penwidth=2]
    287 -> 252 [penwidth=2]
    287 -> 265 [penwidth=2]
    289 -> 244 [penwidth=2]
    289 -> 250 [penwidth=2]
    289 -> 252 [penwidth=2]
    289 -> 216 [penwidth=2]
    289 -> 1 [penwidth=2]
    289 -> 231 [penwidth=2]
    289 -> 243 [penwidth=2]
    289 -> 255 [penwidth=2]
    289 -> 241 [penwidth=2]
    289 -> 267 [penwidth=2]
    289 -> 257 [penwidth=2]
    289 -> 235 [penwidth=2]
    289 -> 17 [penwidth=2]
    289 -> 265 [penwidth=2]
    289 -> 14 [penwidth=2]
    289 -> 242 [penwidth=2]
    289 -> 214 [penwidth=2]
    289 -> 236 [penwidth=2]
    289 -> 19 [penwidth=2]
    289 -> 232 [penwidth=2]
    289 -> 266 [penwidth=2]
    289 -> 215 [penwidth=2]
    289 -> 9 [penwidth=2]
    289 -> 22 [penwidth=2]
    289 -> 13 [penwidth=2]
    289 -> 249 [penwidth=2]
    289 -> 274 [penwidth=2]
    289 -> 220 [penwidth=2]
    289 -> 3 [penwidth=2]
    289 -> 258 [penwidth=2]
    289 -> 260 [penwidth=2]
    289 -> 217 [penwidth=2]
    289 -> 10 [penwidth=2]
    289 -> 2 [penwidth=2]
    289 -> 7 [penwidth=2]
    289 -> 6 [penwidth=2]
    289 -> 218 [penwidth=2]
    289 -> 269 [penwidth=2]
    289 -> 11 [penwidth=2]
    289 -> 224 [penwidth=2]
    289 -> 238 [penwidth=2]
    289 -> 12 [penwidth=2]
    289 -> 239 [penwidth=2]
    289 -> 234 [penwidth=2]
    289 -> 246 [penwidth=2]
    289 -> 264 [penwidth=2]
    289 -> 225 [penwidth=2]
    289 -> 251 [penwidth=2]
    289 -> 256 [penwidth=2]
    289 -> 240 [penwidth=2]
    289 -> 18 [penwidth=2]
    289 -> 210 [penwidth=2]
    289 -> 211 [penwidth=2]
    289 -> 15 [penwidth=2]
    289 -> 5 [penwidth=2]
    289 -> 20 [penwidth=2]
    299 -> 211 [penwidth=2]
    299 -> 214 [penwidth=2]
    299 -> 1 [penwidth=2]
    299 -> 256 [penwidth=2]
    299 -> 223 [penwidth=2]
    299 -> 222 [penwidth=2]
    299 -> 257 [penwidth=2]
    299 -> 204 [penwidth=2]
    299 -> 18 [penwidth=2]
    299 -> 250 [penwidth=2]
    299 -> 259 [penwidth=2]
    299 -> 249 [penwidth=2]
    299 -> 219 [penwidth=2]
    299 -> 260 [penwidth=2]
    299 -> 7 [penwidth=2]
    299 -> 208 [penwidth=2]
    299 -> 273 [penwidth=2]
    299 -> 234 [penwidth=2]
    299 -> 233 [penwidth=2]
    299 -> 266 [penwidth=2]
    299 -> 205 [penwidth=2]
    299 -> 207 [penwidth=2]
    299 -> 254 [penwidth=2]
    299 -> 16 [penwidth=2]
    299 -> 267 [penwidth=2]
    299 -> 263 [penwidth=2]
    299 -> 9 [penwidth=2]
    299 -> 264 [penwidth=2]
    299 -> 248 [penwidth=2]
    299 -> 218 [penwidth=2]
    302 -> 219 [penwidth=2]
    302 -> 264 [penwidth=2]
    302 -> 243 [penwidth=2]
    302 -> 263 [penwidth=2]
    302 -> 217 [penwidth=2]
    302 -> 265 [penwidth=2]
    302 -> 248 [penwidth=2]
    302 -> 244 [penwidth=2]
    302 -> 22 [penwidth=2]
    302 -> 271 [penwidth=2]
    302 -> 9 [penwidth=2]
    302 -> 241 [penwidth=2]
    302 -> 1 [penwidth=2]
    302 -> 255 [penwidth=2]
    302 -> 211 [penwidth=2]
    302 -> 232 [penwidth=2]
    302 -> 216 [penwidth=2]
    302 -> 228 [penwidth=2]
    302 -> 17 [penwidth=2]
    302 -> 251 [penwidth=2]
    302 -> 272 [penwidth=2]
    302 -> 4 [penwidth=2]
    302 -> 215 [penwidth=2]
    302 -> 214 [penwidth=2]
    302 -> 222 [penwidth=2]
    302 -> 212 [penwidth=2]
    302 -> 267 [penwidth=2]
    302 -> 229 [penwidth=2]
    302 -> 250 [penwidth=2]
    302 -> 227 [penwidth=2]
    302 -> 235 [penwidth=2]
    54 -> 22 [penwidth=2]
    54 -> 266 [penwidth=2]
    54 -> 255 [penwidth=2]
    54 -> 239 [penwidth=2]
    54 -> 213 [penwidth=2]
    54 -> 273 [penwidth=2]
    54 -> 263 [penwidth=2]
    54 -> 234 [penwidth=2]
    54 -> 6 [penwidth=2]
    54 -> 17 [penwidth=2]
    54 -> 8 [penwidth=2]
    54 -> 248 [penwidth=2]
    54 -> 231 [penwidth=2]
    54 -> 209 [penwidth=2]
    54 -> 227 [penwidth=2]
    54 -> 13 [penwidth=2]
    54 -> 21 [penwidth=2]
    54 -> 264 [penwidth=2]
    54 -> 224 [penwidth=2]
    54 -> 14 [penwidth=2]
    54 -> 242 [penwidth=2]
    54 -> 256 [penwidth=2]
    54 -> 229 [penwidth=2]
    54 -> 274 [penwidth=2]
    54 -> 221 [penwidth=2]
    54 -> 254 [penwidth=2]
    54 -> 233 [penwidth=2]
    54 -> 20 [penwidth=2]
    54 -> 268 [penwidth=2]
    54 -> 226 [penwidth=2]
    54 -> 3 [penwidth=2]
    54 -> 272 [penwidth=2]
    54 -> 252 [penwidth=2]
    54 -> 16 [penwidth=2]
    54 -> 223 [penwidth=2]
    54 -> 237 [penwidth=2]
    54 -> 4 [penwidth=2]
    54 -> 245 [penwidth=2]
    133 -> 5 [penwidth=2]
    133 -> 1 [penwidth=2]
    133 -> 246 [penwidth=2]
    133 -> 8 [penwidth=2]
    133 -> 228 [penwidth=2]
    133 -> 223 [penwidth=2]
    133 -> 206 [penwidth=2]
    133 -> 205 [penwidth=2]
    133 -> 230 [penwidth=2]
    133 -> 6 [penwidth=2]
    133 -> 265 [penwidth=2]
    137 -> 273 [penwidth=2]
    137 -> 258 [penwidth=2]
    137 -> 215 [penwidth=2]
    137 -> 208 [penwidth=2]
    137 -> 259 [penwidth=2]
    137 -> 212 [penwidth=2]
    137 -> 250 [penwidth=2]
    137 -> 240 [penwidth=2]
    137 -> 248 [penwidth=2]
    137 -> 14 [penwidth=2]
    137 -> 263 [penwidth=2]
    137 -> 217 [penwidth=2]
    137 -> 12 [penwidth=2]
    137 -> 227 [penwidth=2]
    137 -> 226 [penwidth=2]
    137 -> 243 [penwidth=2]
    137 -> 262 [penwidth=2]
    137 -> 235 [penwidth=2]
    137 -> 245 [penwidth=2]
    137 -> 257 [penwidth=2]
    137 -> 2 [penwidth=2]
    137 -> 252 [penwidth=2]
    137 -> 6 [penwidth=2]
    137 -> 213 [penwidth=2]
    137 -> 8 [penwidth=2]
    137 -> 13 [penwidth=2]
    137 -> 232 [penwidth=2]
    137 -> 223 [penwidth=2]
    137 -> 251 [penwidth=2]
    137 -> 17 [penwidth=2]
    137 -> 231 [penwidth=2]
    137 -> 22 [penwidth=2]
    137 -> 228 [penwidth=2]
    137 -> 11 [penwidth=2]
    137 -> 236 [penwidth=2]
    137 -> 253 [penwidth=2]
    137 -> 267 [penwidth=2]
    137 -> 264 [penwidth=2]
    137 -> 246 [penwidth=2]
    137 -> 220 [penwidth=2]
    137 -> 238 [penwidth=2]
    137 -> 269 [penwidth=2]
    137 -> 216 [penwidth=2]
    137 -> 270 [penwidth=2]
    137 -> 266 [penwidth=2]
    137 -> 219 [penwidth=2]
    137 -> 5 [penwidth=2]
    137 -> 209 [penwidth=2]
    137 -> 1 [penwidth=2]
    137 -> 255 [penwidth=2]
    137 -> 207 [penwidth=2]
    137 -> 260 [penwidth=2]
    137 -> 230 [penwidth=2]
    137 -> 229 [penwidth=2]
    137 -> 234 [penwidth=2]
    137 -> 204 [penwidth=2]
    137 -> 233 [penwidth=2]
    137 -> 237 [penwidth=2]
    137 -> 16 [penwidth=2]
    137 -> 241 [penwidth=2]
    137 -> 274 [penwidth=2]
    137 -> 214 [penwidth=2]
    137 -> 210 [penwidth=2]
    137 -> 7 [penwidth=2]
    137 -> 249 [penwidth=2]
    137 -> 4 [penwidth=2]
    137 -> 222 [penwidth=2]
    137 -> 239 [penwidth=2]
    137 -> 268 [penwidth=2]
    137 -> 19 [penwidth=2]
    137 -> 244 [penwidth=2]
    137 -> 218 [penwidth=2]
    137 -> 271 [penwidth=2]
    137 -> 254 [penwidth=2]
    137 -> 206 [penwidth=2]
    137 -> 20 [penwidth=2]
    137 -> 242 [penwidth=2]
    137 -> 265 [penwidth=2]
    137 -> 224 [penwidth=2]
    137 -> 256 [penwidth=2]
    137 -> 15 [penwidth=2]
    137 -> 205 [penwidth=2]
    138 -> 214 [penwidth=2]
    138 -> 243 [penwidth=2]
    138 -> 226 [penwidth=2]
    138 -> 15 [penwidth=2]
    138 -> 247 [penwidth=2]
    138 -> 231 [penwidth=2]
    138 -> 259 [penwidth=2]
    138 -> 265 [penwidth=2]
    138 -> 246 [penwidth=2]
    138 -> 257 [penwidth=2]
    138 -> 21 [penwidth=2]
    138 -> 262 [penwidth=2]
    138 -> 270 [penwidth=2]
    138 -> 221 [penwidth=2]
    138 -> 235 [penwidth=2]
    138 -> 206 [penwidth=2]
    138 -> 271 [penwidth=2]
    138 -> 212 [penwidth=2]
    138 -> 264 [penwidth=2]
    138 -> 254 [penwidth=2]
    138 -> 204 [penwidth=2]
    138 -> 12 [penwidth=2]
    138 -> 210 [penwidth=2]
    138 -> 227 [penwidth=2]
    138 -> 230 [penwidth=2]
    138 -> 215 [penwidth=2]
    69 -> 9 [penwidth=2]
    69 -> 258 [penwidth=2]
    69 -> 8 [penwidth=2]
    69 -> 5 [penwidth=2]
    69 -> 20 [penwidth=2]
    73 -> 247 [penwidth=2]
    73 -> 252 [penwidth=2]
    73 -> 227 [penwidth=2]
    73 -> 16 [penwidth=2]
    73 -> 12 [penwidth=2]
    73 -> 274 [penwidth=2]
    73 -> 210 [penwidth=2]
    73 -> 10 [penwidth=2]
    73 -> 270 [penwidth=2]
    73 -> 272 [penwidth=2]
    73 -> 3 [penwidth=2]
    73 -> 253 [penwidth=2]
    73 -> 14 [penwidth=2]
    73 -> 269 [penwidth=2]
    73 -> 267 [penwidth=2]
    73 -> 215 [penwidth=2]
    73 -> 257 [penwidth=2]
    73 -> 18 [penwidth=2]
    73 -> 219 [penwidth=2]
    73 -> 11 [penwidth=2]
    73 -> 222 [penwidth=2]
    73 -> 221 [penwidth=2]
    73 -> 245 [penwidth=2]
    73 -> 237 [penwidth=2]
    73 -> 204 [penwidth=2]
    73 -> 22 [penwidth=2]
    73 -> 236 [penwidth=2]
    73 -> 235 [penwidth=2]
    73 -> 250 [penwidth=2]
    73 -> 268 [penwidth=2]
    73 -> 231 [penwidth=2]
    73 -> 254 [penwidth=2]
    73 -> 229 [penwidth=2]
    73 -> 226 [penwidth=2]
    73 -> 264 [penwidth=2]
    73 -> 205 [penwidth=2]
    73 -> 260 [penwidth=2]
    73 -> 15 [penwidth=2]
    73 -> 244 [penwidth=2]
    73 -> 258 [penwidth=2]
    73 -> 259 [penwidth=2]
    73 -> 209 [penwidth=2]
    73 -> 206 [penwidth=2]
    73 -> 242 [penwidth=2]
    73 -> 5 [penwidth=2]
    73 -> 224 [penwidth=2]
    73 -> 238 [penwidth=2]
    73 -> 243 [penwidth=2]
    73 -> 263 [penwidth=2]
    73 -> 217 [penwidth=2]
    73 -> 223 [penwidth=2]
    73 -> 211 [penwidth=2]
    73 -> 8 [penwidth=2]
    73 -> 240 [penwidth=2]
    73 -> 20 [penwidth=2]
    73 -> 218 [penwidth=2]
    73 -> 4 [penwidth=2]
    73 -> 266 [penwidth=2]
    73 -> 9 [penwidth=2]
    73 -> 239 [penwidth=2]
    73 -> 7 [penwidth=2]
    73 -> 230 [penwidth=2]
    73 -> 228 [penwidth=2]
    73 -> 225 [penwidth=2]
    73 -> 17 [penwidth=2]
    73 -> 265 [penwidth=2]
    73 -> 208 [penwidth=2]
    73 -> 216 [penwidth=2]
    73 -> 271 [penwidth=2]
    73 -> 248 [penwidth=2]
    73 -> 256 [penwidth=2]
    73 -> 233 [penwidth=2]
    73 -> 6 [penwidth=2]
    73 -> 213 [penwidth=2]
    73 -> 273 [penwidth=2]
    73 -> 251 [penwidth=2]
    73 -> 261 [penwidth=2]
    73 -> 262 [penwidth=2]
    73 -> 249 [penwidth=2]
    73 -> 19 [penwidth=2]
    76 -> 236 [penwidth=2]
    76 -> 205 [penwidth=2]
    76 -> 226 [penwidth=2]
    76 -> 228 [penwidth=2]
    76 -> 235 [penwidth=2]
    76 -> 251 [penwidth=2]
    76 -> 273 [penwidth=2]
    76 -> 247 [penwidth=2]
    76 -> 7 [penwidth=2]
    76 -> 272 [penwidth=2]
    76 -> 1 [penwidth=2]
    76 -> 257 [penwidth=2]
    76 -> 232 [penwidth=2]
    76 -> 254 [penwidth=2]
    76 -> 269 [penwidth=2]
    76 -> 10 [penwidth=2]
    76 -> 231 [penwidth=2]
    76 -> 12 [penwidth=2]
    76 -> 229 [penwidth=2]
    76 -> 223 [penwidth=2]
    76 -> 20 [penwidth=2]
    76 -> 271 [penwidth=2]
    76 -> 245 [penwidth=2]
    76 -> 241 [penwidth=2]
    76 -> 219 [penwidth=2]
    76 -> 2 [penwidth=2]
    76 -> 221 [penwidth=2]
    76 -> 211 [penwidth=2]
    76 -> 225 [penwidth=2]
    79 -> 240 [penwidth=2]
    79 -> 256 [penwidth=2]
    79 -> 258 [penwidth=2]
    79 -> 17 [penwidth=2]
    79 -> 242 [penwidth=2]
    79 -> 268 [penwidth=2]
    79 -> 241 [penwidth=2]
    79 -> 235 [penwidth=2]
    79 -> 263 [penwidth=2]
    79 -> 262 [penwidth=2]
    79 -> 231 [penwidth=2]
    79 -> 19 [penwidth=2]
    79 -> 10 [penwidth=2]
    79 -> 3 [penwidth=2]
    79 -> 264 [penwidth=2]
    79 -> 209 [penwidth=2]
    79 -> 267 [penwidth=2]
    79 -> 266 [penwidth=2]
    79 -> 218 [penwidth=2]
    79 -> 204 [penwidth=2]
    79 -> 230 [penwidth=2]
    79 -> 20 [penwidth=2]
    79 -> 21 [penwidth=2]
    79 -> 247 [penwidth=2]
    79 -> 234 [penwidth=2]
    79 -> 236 [penwidth=2]
    79 -> 251 [penwidth=2]
    79 -> 255 [penwidth=2]
    79 -> 22 [penwidth=2]
    79 -> 216 [penwidth=2]
    79 -> 210 [penwidth=2]
    79 -> 228 [penwidth=2]
    79 -> 8 [penwidth=2]
    79 -> 269 [penwidth=2]
    79 -> 254 [penwidth=2]
    79 -> 237 [penwidth=2]
    79 -> 219 [penwidth=2]
    164 -> 243 [penwidth=2]
    164 -> 239 [penwidth=2]
    164 -> 262 [penwidth=2]
    164 -> 230 [penwidth=2]
    164 -> 223 [penwidth=2]
    164 -> 266 [penwidth=2]
    164 -> 20 [penwidth=2]
    164 -> 251 [penwidth=2]
    164 -> 261 [penwidth=2]
    164 -> 256 [penwidth=2]
    164 -> 2 [penwidth=2]
    164 -> 264 [penwidth=2]
    164 -> 257 [penwidth=2]
    164 -> 3 [penwidth=2]
    164 -> 245 [penwidth=2]
    164 -> 254 [penwidth=2]
    164 -> 238 [penwidth=2]
    164 -> 260 [penwidth=2]
    164 -> 232 [penwidth=2]
    164 -> 17 [penwidth=2]
    164 -> 205 [penwidth=2]
    164 -> 268 [penwidth=2]
    164 -> 274 [penwidth=2]
    164 -> 21 [penwidth=2]
    164 -> 224 [penwidth=2]
    164 -> 271 [penwidth=2]
    164 -> 19 [penwidth=2]
    164 -> 204 [penwidth=2]
    89 -> 235 [penwidth=2]
    89 -> 5 [penwidth=2]
    89 -> 238 [penwidth=2]
    89 -> 12 [penwidth=2]
    89 -> 211 [penwidth=2]
    89 -> 17 [penwidth=2]
    89 -> 1 [penwidth=2]
    89 -> 240 [penwidth=2]
    89 -> 225 [penwidth=2]
    89 -> 6 [penwidth=2]
    89 -> 241 [penwidth=2]
    89 -> 222 [penwidth=2]
    89 -> 224 [penwidth=2]
    89 -> 4 [penwidth=2]
    89 -> 218 [penwidth=2]
    89 -> 231 [penwidth=2]
    89 -> 2 [penwidth=2]
    89 -> 214 [penwidth=2]
    89 -> 220 [penwidth=2]
    89 -> 219 [penwidth=2]
    89 -> 223 [penwidth=2]
    89 -> 217 [penwidth=2]
    89 -> 230 [penwidth=2]
    89 -> 242 [penwidth=2]
    89 -> 264 [penwidth=2]
    89 -> 3 [penwidth=2]
    89 -> 213 [penwidth=2]
    89 -> 227 [penwidth=2]
    89 -> 245 [penwidth=2]
    89 -> 233 [penwidth=2]
    89 -> 234 [penwidth=2]
    89 -> 257 [penwidth=2]
    89 -> 260 [penwidth=2]
    89 -> 14 [penwidth=2]
    89 -> 248 [penwidth=2]
    89 -> 265 [penwidth=2]
    89 -> 266 [penwidth=2]
    89 -> 268 [penwidth=2]
    89 -> 207 [penwidth=2]
    89 -> 22 [penwidth=2]
    89 -> 206 [penwidth=2]
    89 -> 269 [penwidth=2]
    89 -> 246 [penwidth=2]
    89 -> 21 [penwidth=2]
    89 -> 20 [penwidth=2]
    89 -> 252 [penwidth=2]
    89 -> 11 [penwidth=2]
    89 -> 254 [penwidth=2]
    89 -> 273 [penwidth=2]
    89 -> 228 [penwidth=2]
    89 -> 271 [penwidth=2]
    89 -> 236 [penwidth=2]
    89 -> 210 [penwidth=2]
    89 -> 13 [penwidth=2]
    89 -> 251 [penwidth=2]
    89 -> 262 [penwidth=2]
    89 -> 212 [penwidth=2]
    89 -> 249 [penwidth=2]
    89 -> 239 [penwidth=2]
    89 -> 270 [penwidth=2]
    89 -> 243 [penwidth=2]
    89 -> 208 [penwidth=2]
    89 -> 256 [penwidth=2]
    89 -> 10 [penwidth=2]
    89 -> 16 [penwidth=2]
    89 -> 274 [penwidth=2]
    89 -> 253 [penwidth=2]
    89 -> 215 [penwidth=2]
    89 -> 250 [penwidth=2]
    89 -> 9 [penwidth=2]
    89 -> 237 [penwidth=2]
    89 -> 205 [penwidth=2]
    89 -> 229 [penwidth=2]
    184 -> 269 [penwidth=2]
    184 -> 208 [penwidth=2]
    184 -> 205 [penwidth=2]
    184 -> 13 [penwidth=2]
    184 -> 225 [penwidth=2]
    184 -> 266 [penwidth=2]
    184 -> 246 [penwidth=2]
    184 -> 4 [penwidth=2]
    184 -> 1 [penwidth=2]
    184 -> 247 [penwidth=2]
    184 -> 256 [penwidth=2]
    184 -> 206 [penwidth=2]
    184 -> 20 [penwidth=2]
    103 -> 204 [penwidth=2]
    103 -> 205 [penwidth=2]
    103 -> 266 [penwidth=2]
    103 -> 212 [penwidth=2]
    103 -> 244 [penwidth=2]
    103 -> 22 [penwidth=2]
    103 -> 219 [penwidth=2]
    103 -> 237 [penwidth=2]
    103 -> 255 [penwidth=2]
    103 -> 274 [penwidth=2]
    103 -> 263 [penwidth=2]
    103 -> 4 [penwidth=2]
    103 -> 216 [penwidth=2]
    103 -> 258 [penwidth=2]
    103 -> 238 [penwidth=2]
    103 -> 272 [penwidth=2]
    103 -> 225 [penwidth=2]
    103 -> 16 [penwidth=2]
    103 -> 11 [penwidth=2]
    103 -> 15 [penwidth=2]
    103 -> 251 [penwidth=2]
    103 -> 256 [penwidth=2]
    103 -> 259 [penwidth=2]
    103 -> 230 [penwidth=2]
    103 -> 13 [penwidth=2]
    103 -> 211 [penwidth=2]
    103 -> 215 [penwidth=2]
    103 -> 267 [penwidth=2]
    103 -> 250 [penwidth=2]
    103 -> 220 [penwidth=2]
    103 -> 14 [penwidth=2]
    103 -> 5 [penwidth=2]
    103 -> 229 [penwidth=2]
    103 -> 242 [penwidth=2]
    103 -> 249 [penwidth=2]
    103 -> 9 [penwidth=2]
    103 -> 8 [penwidth=2]
    103 -> 241 [penwidth=2]
    103 -> 248 [penwidth=2]
    103 -> 208 [penwidth=2]
    103 -> 232 [penwidth=2]
    103 -> 265 [penwidth=2]
    103 -> 261 [penwidth=2]
    103 -> 210 [penwidth=2]
    103 -> 20 [penwidth=2]
    103 -> 217 [penwidth=2]
    103 -> 227 [penwidth=2]
    103 -> 7 [penwidth=2]
    103 -> 271 [penwidth=2]
    103 -> 207 [penwidth=2]
    103 -> 21 [penwidth=2]
    103 -> 224 [penwidth=2]
    103 -> 221 [penwidth=2]
    103 -> 254 [penwidth=2]
    103 -> 235 [penwidth=2]
    103 -> 209 [penwidth=2]
    103 -> 253 [penwidth=2]
    103 -> 231 [penwidth=2]
    103 -> 247 [penwidth=2]
    103 -> 268 [penwidth=2]
    103 -> 236 [penwidth=2]
    103 -> 17 [penwidth=2]
    103 -> 214 [penwidth=2]
    103 -> 239 [penwidth=2]
    103 -> 264 [penwidth=2]
    103 -> 12 [penwidth=2]
    192 -> 255 [penwidth=2]
    192 -> 17 [penwidth=2]
    192 -> 253 [penwidth=2]
    192 -> 220 [penwidth=2]
    192 -> 9 [penwidth=2]
    192 -> 19 [penwidth=2]
    192 -> 245 [penwidth=2]
    192 -> 15 [penwidth=2]
    192 -> 231 [penwidth=2]
    192 -> 227 [penwidth=2]
    192 -> 10 [penwidth=2]
    192 -> 258 [penwidth=2]
    192 -> 215 [penwidth=2]
    192 -> 219 [penwidth=2]
    192 -> 266 [penwidth=2]
    192 -> 18 [penwidth=2]
    192 -> 235 [penwidth=2]
    192 -> 239 [penwidth=2]
    192 -> 241 [penwidth=2]
    192 -> 233 [penwidth=2]
    192 -> 1 [penwidth=2]
    192 -> 217 [penwidth=2]
    192 -> 221 [penwidth=2]
    192 -> 254 [penwidth=2]
    192 -> 232 [penwidth=2]
    192 -> 237 [penwidth=2]
    192 -> 225 [penwidth=2]
    192 -> 229 [penwidth=2]
    192 -> 7 [penwidth=2]
    192 -> 247 [penwidth=2]
    192 -> 209 [penwidth=2]
    192 -> 4 [penwidth=2]
    192 -> 16 [penwidth=2]
    192 -> 273 [penwidth=2]
    192 -> 238 [penwidth=2]
    192 -> 224 [penwidth=2]
    192 -> 264 [penwidth=2]
    192 -> 14 [penwidth=2]
    192 -> 272 [penwidth=2]
    192 -> 3 [penwidth=2]
    192 -> 274 [penwidth=2]
    192 -> 251 [penwidth=2]
    192 -> 216 [penwidth=2]
    192 -> 228 [penwidth=2]
    192 -> 6 [penwidth=2]
    192 -> 263 [penwidth=2]
    192 -> 256 [penwidth=2]
    192 -> 260 [penwidth=2]
    192 -> 248 [penwidth=2]
    109 -> 269 [penwidth=2]
    109 -> 20 [penwidth=2]
    109 -> 263 [penwidth=2]
    109 -> 228 [penwidth=2]
    109 -> 13 [penwidth=2]
}