digraph G {
    0 [penwidth=3,label="0"]
    1 [penwidth=3,label="1"]
    2 [penwidth=3,label="2"]
    3 [penwidth=3,label="3"]
    4 [penwidth=3,label="4"]
    5 [penwidth=3,label="5"]
    6 [penwidth=3,label="6"]
    7 [penwidth=3,label="7"]
    8 [penwidth=3,label="8"]
    9 [penwidth=3,label="9"]
    10 [penwidth=3,label="10"]
    11 [penwidth=3,label="11"]
    12 [penwidth=3,label="12"]
    13 [penwidth=3,label="13"]
    14 [penwidth=3,label="14"]
    15 [penwidth=3,label="15"]
    16 [penwidth=3,label="16"]
    17 [penwidth=3,label="17"]
    18 [penwidth=3,label="18"]
    19 [penwidth=3,label="19"]
    20 [penwidth=3,label="20"]
    21 [penwidth=3,label="21"]
    22 [penwidth=3,label="22"]
    23 [penwidth=3,label="23"]
    24 [penwidth=3,label="24"]
    25 [penwidth=3,label="25"]
    26 [penwidth=3,label="26"]
    27 [penwidth=3,label="27"]
    28 [penwidth=3,label="28"]
    29 [penwidth=3,label="29"]
    30 [penwidth=3,label="30"]
    31 [penwidth=3,label="31"]
    32 [penwidth=3,label="32"]
    33 [penwidth=3,label="33"]
    34 [penwidth=3,label="34"]
    35 [penwidth=3,label="35"]
    36 [penwidth=3,label="36"]
    37 [penwidth=3,label="37"]
    38 [penwidth=3,label="38"]
    39 [penwidth=3,label="39"]
    40 [penwidth=3,label="40"]
    41 [penwidth=3,label="41"]
    42 [penwidth=3,label="42"]
    43 [penwidth=3,label="43"]
    44 [penwidth=3,label="44"]
    45 [penwidth=3,label="45"]
    46 [penwidth=3,label="46"]
    47 [penwidth=3,label="47"]
    48 [penwidth=3,label="48"]
    49 [penwidth=3,label="49"]
    50 [penwidth=3,label="50"]
    51 [penwidth=3,label="51"]
    52 [penwidth=3,label="52"]
    53 [penwidth=3,label="53"]
    54 [penwidth=3,label="54"]
    55 [penwidth=3,label="55"]
    56 [penwidth=3,label="56"]
    57 [penwidth=3,label="57"]
    58 [penwidth=3,label="58"]
    59 [penwidth=3,label="59"]
    60 [penwidth=3,label="60"]
    61 [penwidth=3,label="61"]
    62 [penwidth=3,label="62"]
    63 [penwidth=3,label="63"]
    64 [penwidth=3,label="64"]
    65 [penwidth=3,label="65"]
    66 [penwidth=3,label="66"]
    67 [penwidth=3,label="67"]
    68 [penwidth=3,label="68"]
    69 [penwidth=3,label="69"]
    70 [penwidth=3,label="70"]
    71 [penwidth=3,label="71"]
    72 [penwidth=3,label="72"]
    73 [penwidth=3,label="73"]
    74 [penwidth=3,label="74"]
    75 [penwidth=3,label="75"]
    76 [penwidth=3,label="76"]
    77 [penwidth=3,label="77"]
    78 [penwidth=3,label="78"]
    79 [penwidth=3,label="79"]
    80 [penwidth=3,label="80"]
    81 [penwidth=3,label="81"]
    82 [penwidth=3,label="82"]
    83 [penwidth=3,label="83"]
    84 [penwidth=3,label="84"]
    85 [penwidth=3,label="85"]
    86 [penwidth=3,label="86"]
    87 [penwidth=3,label="87"]
    88 [penwidth=3,label="88"]
    89 [penwidth=3,label="89"]
    90 [penwidth=3,label="90"]
    91 [penwidth=3,label="91"]
    92 [penwidth=3,label="92"]
    93 [penwidth=3,label="93"]
    94 [penwidth=3,label="94"]
    95 [penwidth=3,label="95"]
    96 [penwidth=3,label="96"]
    97 [penwidth=3,label="97"]
    98 [penwidth=3,label="98"]
    99 [penwidth=3,label="99"]
    100 [penwidth=3,label="100"]
    101 [penwidth=3,label="101"]
    102 [penwidth=3,label="102"]
    103 [penwidth=3,label="103"]
    104 [penwidth=3,label="104"]
    105 [penwidth=3,label="105"]
    106 [penwidth=3,label="106"]
    107 [penwidth=3,label="107"]
    108 [penwidth=3,label="108"]
    109 [penwidth=3,label="109"]
    110 [penwidth=3,label="110"]
    111 [penwidth=3,label="111"]
    112 [penwidth=3,label="112"]
    113 [penwidth=3,label="113"]
    114 [penwidth=3,label="114"]
    115 [penwidth=3,label="115"]
    116 [penwidth=3,label="116"]
    117 [penwidth=3,label="117"]
    118 [penwidth=3,label="118"]
    119 [penwidth=3,label="119"]
    120 [penwidth=3,label="120"]
    121 [penwidth=3,label="121"]
    122 [penwidth=3,label="122"]
    123 [penwidth=3,label="123"]
    124 [penwidth=3,label="124"]
    125 [penwidth=3,label="125"]
    126 [penwidth=3,label="126"]
    127 [penwidth=3,label="127"]
    128 [penwidth=3,label="128"]
    129 [penwidth=3,label="129"]
    130 [penwidth=3,label="130"]
    131 [penwidth=3,label="131"]
    132 [penwidth=3,label="132"]
    133 [penwidth=3,label="133"]
    134 [penwidth=3,label="134"]
    135 [penwidth=3,label="135"]
    136 [penwidth=3,label="136"]
    137 [penwidth=3,label="137"]
    138 [penwidth=3,label="138"]
    139 [penwidth=3,label="139"]
    140 [penwidth=3,label="140"]
    141 [penwidth=3,label="141"]
    142 [penwidth=3,label="142"]
    143 [penwidth=3,label="143"]
    144 [penwidth=3,label="144"]
    145 [penwidth=3,label="145"]
    146 [penwidth=3,label="146"]
    147 [penwidth=3,label="147"]
    148 [penwidth=3,label="148"]
    149 [penwidth=3,label="149"]
    150 [penwidth=3,label="150"]
    151 [penwidth=3,label="151"]
    152 [penwidth=3,label="152"]
    153 [penwidth=3,label="153"]
    154 [penwidth=3,label="154"]
    155 [penwidth=3,label="155"]
    156 [penwidth=3,label="156"]
    157 [penwidth=3,label="157"]
    158 [penwidth=3,label="158"]
    159 [penwidth=3,label="159"]
    160 [penwidth=3,label="160"]
    161 [penwidth=3,label="161"]
    162 [penwidth=3,label="162"]
    163 [penwidth=3,label="163"]
    164 [penwidth=3,label="164"]
    165 [penwidth=3,label="165"]
    166 [penwidth=3,label="166"]
    167 [penwidth=3,label="167"]
    168 [penwidth=3,label="168"]
    169 [penwidth=3,label="169"]
    170 [penwidth=3,label="170"]
    171 [penwidth=3,label="171"]
    172 [penwidth=3,label="172"]
    173 [penwidth=3,label="173"]
    174 [penwidth=3,label="174"]
    175 [penwidth=3,label="175"]
    176 [penwidth=3,label="176"]
    177 [penwidth=3,label="177"]
    178 [penwidth=3,label="178"]
    179 [penwidth=3,label="179"]
    180 [penwidth=3,label="180"]
    181 [penwidth=3,label="181"]
    182 [penwidth=3,label="182"]
    183 [penwidth=3,label="183"]
    184 [penwidth=3,label="184"]
    185 [penwidth=3,label="185"]
    186 [penwidth=3,label="186"]
    187 [penwidth=3,label="187"]
    188 [penwidth=3,label="188"]
    189 [penwidth=3,label="189"]
    190 [penwidth=3,label="190"]
    191 [penwidth=3,label="191"]
    192 [penwidth=3,label="192"]
    193 [penwidth=3,label="193"]
    194 [penwidth=3,label="194"]
    195 [penwidth=3,label="195"]
    196 [penwidth=3,label="196"]
    197 [penwidth=3,label="197"]
    198 [penwidth=3,label="198"]
    199 [penwidth=3,label="199"]
    200 [penwidth=3,label="200"]
    201 [penwidth=3,label="201"]
    202 [penwidth=3,label="202"]
    203 [penwidth=3,label="203"]
    204 [penwidth=3,label="204"]
    205 [penwidth=3,label="205"]
    206 [penwidth=3,label="206"]
    207 [penwidth=3,label="207"]
    208 [penwidth=3,label="208"]
    209 [penwidth=3,label="209"]
    210 [penwidth=3,label="210"]
    211 [penwidth=3,label="211"]
    212 [penwidth=3,label="212"]
    213 [penwidth=3,label="213"]
    214 [penwidth=3,label="214"]
    215 [penwidth=3,label="215"]
    216 [penwidth=3,label="216"]
    217 [penwidth=3,label="217"]
    218 [penwidth=3,label="218"]
    219 [penwidth=3,label="219"]
    220 [penwidth=3,label="220"]
    221 [penwidth=3,label="221"]
    222 [penwidth=3,label="222"]
    223 [penwidth=3,label="223"]
    224 [penwidth=3,label="224"]
    225 [penwidth=3,label="225"]
    226 [penwidth=3,label="226"]
    227 [penwidth=3,label="227"]
    228 [penwidth=3,label="228"]
    229 [penwidth=3,label="229"]
    230 [penwidth=3,label="230"]
    231 [penwidth=3,label="231"]
    232 [penwidth=3,label="232"]
    233 [penwidth=3,label="233"]
    234 [penwidth=3,label="234"]
    235 [penwidth=3,label="235"]
    236 [penwidth=3,label="236"]
    237 [penwidth=3,label="237"]
    238 [penwidth=3,label="238"]
    239 [penwidth=3,label="239"]
    240 [penwidth=3,label="240"]
    241 [penwidth=3,label="241"]
    242 [penwidth=3,label="242"]
    243 [penwidth=3,label="243"]
    244 [penwidth=3,label="244"]
    245 [penwidth=3,label="245"]
    246 [penwidth=3,label="246"]
    247 [penwidth=3,label="247"]
    248 [penwidth=3,label="248"]
    249 [penwidth=3,label="249"]
    250 [penwidth=3,label="250"]
    251 [penwidth=3,label="251"]
    252 [penwidth=3,label="252"]
    253 [penwidth=3,label="253"]
    254 [penwidth=3,label="254"]
    255 [penwidth=3,label="255"]
    256 [penwidth=3,label="256"]
    257 [penwidth=3,label="257"]
    258 [penwidth=3,label="258"]
    259 [penwidth=3,label="259"]
    260 [penwidth=3,label="260"]
    261 [penwidth=3,label="261"]
    262 [penwidth=3,label="262"]
    263 [penwidth=3,label="263"]
    264 [penwidth=3,label="264"]
    265 [penwidth=3,label="265"]
    266 [penwidth=3,label="266"]
    267 [penwidth=3,label="267"]
    268 [penwidth=3,label="268"]
    269 [penwidth=3,label="269"]
    270 [penwidth=3,label="270"]
    271 [penwidth=3,label="271"]
    272 [penwidth=3,label="272"]
    273 [penwidth=3,label="273"]
    274 [penwidth=3,label="274"]
    275 [penwidth=3,label="275"]
    276 [penwidth=3,label="276"]
    277 [penwidth=3,label="277"]
    278 [penwidth=3,label="278"]
    279 [penwidth=3,label="279"]
    280 [penwidth=3,label="280"]
    281 [penwidth=3,label="281"]
    282 [penwidth=3,label="282"]
    283 [penwidth=3,label="283"]
    284 [penwidth=3,label="284"]
    285 [penwidth=3,label="285"]
    286 [penwidth=3,label="286"]
    287 [penwidth=3,label="287"]
    288 [penwidth=3,label="288"]
    289 [penwidth=3,label="289"]
    290 [penwidth=3,label="290"]
    291 [penwidth=3,label="291"]
    292 [penwidth=3,label="292"]
    293 [penwidth=3,label="293"]
    294 [penwidth=3,label="294"]
    295 [penwidth=3,label="295"]
    296 [penwidth=3,label="296"]
    297 [penwidth=3,label="297"]
    298 [penwidth=3,label="298"]
    299 [penwidth=3,label="299"]
    300 [penwidth=3,label="300"]
    301 [penwidth=3,label="301"]
    302 [penwidth=3,label="302"]
    303 [penwidth=3,label="303"]
    304 [penwidth=3,label="304"]
    305 [penwidth=3,label="305"]
    306 [penwidth=3,label="306"]
    307 [penwidth=3,label="307"]
    308 [penwidth=3,label="308"]
    309 [penwidth=3,label="309"]

    66 -> 0 [penwidth=2]
    67 -> 0 [penwidth=2]
    68 -> 0 [penwidth=2]
    69 -> 0 [penwidth=2]
    70 -> 0 [penwidth=2]
    71 -> 0 [penwidth=2]
    72 -> 0 [penwidth=2]
    73 -> 0 [penwidth=2]
    74 -> 66 [penwidth=2]
    75 -> 66 [penwidth=2]
    76 -> 66 [penwidth=2]
    77 -> 66 [penwidth=2]
    78 -> 66 [penwidth=2]
    79 -> 66 [penwidth=2]
    80 -> 66 [penwidth=2]
    81 -> 66 [penwidth=2]
    82 -> 66 [penwidth=2]
    83 -> 66 [penwidth=2]
    84 -> 66 [penwidth=2]
    85 -> 68 [penwidth=2]
    86 -> 68 [penwidth=2]
    87 -> 68 [penwidth=2]
    88 -> 68 [penwidth=2]
    89 -> 68 [penwidth=2]
    90 -> 68 [penwidth=2]
    91 -> 68 [penwidth=2]
    92 -> 68 [penwidth=2]
    93 -> 68 [penwidth=2]
    94 -> 68 [penwidth=2]
    95 -> 68 [penwidth=2]
    96 -> 68 [penwidth=2]
    97 -> 68 [penwidth=2]
    98 -> 68 [penwidth=2]
    99 -> 68 [penwidth=2]
    100 -> 68 [penwidth=2]
    101 -> 69 [penwidth=2]
    102 -> 69 [penwidth=2]
    103 -> 69 [penwidth=2]
    104 -> 69 [penwidth=2]
    105 -> 69 [penwidth=2]
    106 -> 69 [penwidth=2]
    107 -> 69 [penwidth=2]
    24 -> 69 [penwidth=2]
    25 -> 69 [penwidth=2]
    26 -> 69 [penwidth=2]
    27 -> 69 [penwidth=2]
    28 -> 69 [penwidth=2]
    29 -> 69 [penwidth=2]
    30 -> 70 [penwidth=2]
    31 -> 70 [penwidth=2]
    32 -> 70 [penwidth=2]
    33 -> 70 [penwidth=2]
    34 -> 70 [penwidth=2]
    35 -> 70 [penwidth=2]
    36 -> 70 [penwidth=2]
    37 -> 70 [penwidth=2]
    38 -> 70 [penwidth=2]
    39 -> 70 [penwidth=2]
    40 -> 70 [penwidth=2]
    41 -> 70 [penwidth=2]
    42 -> 71 [penwidth=2]
    43 -> 71 [penwidth=2]
    44 -> 71 [penwidth=2]
    45 -> 71 [penwidth=2]
    46 -> 71 [penwidth=2]
    47 -> 71 [penwidth=2]
    48 -> 71 [penwidth=2]
    49 -> 71 [penwidth=2]
    50 -> 71 [penwidth=2]
    51 -> 71 [penwidth=2]
    52 -> 71 [penwidth=2]
    53 -> 71 [penwidth=2]
    54 -> 71 [penwidth=2]
    55 -> 71 [penwidth=2]
    56 -> 71 [penwidth=2]
    57 -> 71 [penwidth=2]
    58 -> 71 [penwidth=2]
    59 -> 71 [penwidth=2]
    60 -> 71 [penwidth=2]
    61 -> 71 [penwidth=2]
    62 -> 71 [penwidth=2]
    63 -> 71 [penwidth=2]
    64 -> 71 [penwidth=2]
    65 -> 72 [penwidth=2]
    192 -> 72 [penwidth=2]
    193 -> 72 [penwidth=2]
    194 -> 72 [penwidth=2]
    195 -> 72 [penwidth=2]
    196 -> 72 [penwidth=2]
    197 -> 73 [penwidth=2]
    198 -> 73 [penwidth=2]
    199 -> 73 [penwidth=2]
    200 -> 73 [penwidth=2]
    201 -> 73 [penwidth=2]
    202 -> 73 [penwidth=2]
    203 -> 73 [penwidth=2]
    204 -> 73 [penwidth=2]
    205 -> 73 [penwidth=2]
    206 -> 73 [penwidth=2]
    207 -> 73 [penwidth=2]
    208 -> 73 [penwidth=2]
    209 -> 73 [penwidth=2]
    210 -> 73 [penwidth=2]
    211 -> 73 [penwidth=2]
    212 -> 73 [penwidth=2]
    213 -> 73 [penwidth=2]
    214 -> 73 [penwidth=2]
    215 -> 73 [penwidth=2]
    216 -> 73 [penwidth=2]
    217 -> 73 [penwidth=2]
    218 -> 73 [penwidth=2]
    219 -> 73 [penwidth=2]
    220 -> 73 [penwidth=2]
    221 -> 74 [penwidth=2]
    222 -> 74 [penwidth=2]
    223 -> 74 [penwidth=2]
    224 -> 74 [penwidth=2]
    225 -> 74 [penwidth=2]
    226 -> 74 [penwidth=2]
    227 -> 74 [penwidth=2]
    228 -> 74 [penwidth=2]
    229 -> 74 [penwidth=2]
    230 -> 74 [penwidth=2]
    231 -> 74 [penwidth=2]
    232 -> 75 [penwidth=2]
    233 -> 75 [penwidth=2]
    234 -> 75 [penwidth=2]
    235 -> 75 [penwidth=2]
    236 -> 75 [penwidth=2]
    237 -> 75 [penwidth=2]
    238 -> 75 [penwidth=2]
    239 -> 75 [penwidth=2]
    240 -> 75 [penwidth=2]
    241 -> 75 [penwidth=2]
    242 -> 75 [penwidth=2]
    243 -> 75 [penwidth=2]
    244 -> 75 [penwidth=2]
    245 -> 75 [penwidth=2]
    246 -> 75 [penwidth=2]
    247 -> 75 [penwidth=2]
    248 -> 77 [penwidth=2]
    249 -> 77 [penwidth=2]
    250 -> 77 [penwidth=2]
    251 -> 77 [penwidth=2]
    252 -> 77 [penwidth=2]
    253 -> 77 [penwidth=2]
    254 -> 77 [penwidth=2]
    255 -> 77 [penwidth=2]
    256 -> 77 [penwidth=2]
    257 -> 77 [penwidth=2]
    258 -> 77 [penwidth=2]
    259 -> 77 [penwidth=2]
    260 -> 79 [penwidth=2]
    261 -> 79 [penwidth=2]
    262 -> 79 [penwidth=2]
    263 -> 79 [penwidth=2]
    264 -> 79 [penwidth=2]
    265 -> 79 [penwidth=2]
    266 -> 79 [penwidth=2]
    267 -> 80 [penwidth=2]
    268 -> 80 [penwidth=2]
    269 -> 80 [penwidth=2]
    270 -> 80 [penwidth=2]
    271 -> 80 [penwidth=2]
    272 -> 80 [penwidth=2]
    273 -> 80 [penwidth=2]
    274 -> 80 [penwidth=2]
    275 -> 80 [penwidth=2]
    150 -> 80 [penwidth=2]
    276 -> 80 [penwidth=2]
    151 -> 80 [penwidth=2]
    277 -> 80 [penwidth=2]
    152 -> 80 [penwidth=2]
    278 -> 80 [penwidth=2]
    153 -> 81 [penwidth=2]
    279 -> 81 [penwidth=2]
    154 -> 81 [penwidth=2]
    280 -> 81 [penwidth=2]
    155 -> 81 [penwidth=2]
    281 -> 81 [penwidth=2]
    156 -> 81 [penwidth=2]
    282 -> 81 [penwidth=2]
    157 -> 82 [penwidth=2]
    283 -> 82 [penwidth=2]
    158 -> 82 [penwidth=2]
    284 -> 82 [penwidth=2]
    159 -> 82 [penwidth=2]
    285 -> 82 [penwidth=2]
    160 -> 82 [penwidth=2]
    286 -> 82 [penwidth=2]
    161 -> 82 [penwidth=2]
    287 -> 82 [penwidth=2]
    162 -> 82 [penwidth=2]
    288 -> 82 [penwidth=2]
    163 -> 82 [penwidth=2]
    289 -> 82 [penwidth=2]
    164 -> 82 [penwidth=2]
    290 -> 82 [penwidth=2]
    165 -> 82 [penwidth=2]
    291 -> 82 [penwidth=2]
    166 -> 82 [penwidth=2]
    292 -> 82 [penwidth=2]
    167 -> 82 [penwidth=2]
    293 -> 82 [penwidth=2]
    168 -> 82 [penwidth=2]
    294 -> 83 [penwidth=2]
    169 -> 83 [penwidth=2]
    295 -> 84 [penwidth=2]
    170 -> 84 [penwidth=2]
    296 -> 84 [penwidth=2]
    171 -> 84 [penwidth=2]
    297 -> 84 [penwidth=2]
    172 -> 84 [penwidth=2]
    298 -> 84 [penwidth=2]
    173 -> 84 [penwidth=2]
    299 -> 84 [penwidth=2]
    174 -> 84 [penwidth=2]
    300 -> 84 [penwidth=2]
    175 -> 84 [penwidth=2]
    301 -> 84 [penwidth=2]
    176 -> 84 [penwidth=2]
    302 -> 84 [penwidth=2]
    177 -> 84 [penwidth=2]
    303 -> 84 [penwidth=2]
    178 -> 84 [penwidth=2]
    304 -> 84 [penwidth=2]
    179 -> 84 [penwidth=2]
    305 -> 84 [penwidth=2]
    180 -> 85 [penwidth=2]
    306 -> 85 [penwidth=2]
    181 -> 85 [penwidth=2]
    307 -> 85 [penwidth=2]
    182 -> 85 [penwidth=2]
    308 -> 85 [penwidth=2]
    183 -> 85 [penwidth=2]
    309 -> 85 [penwidth=2]
    184 -> 85 [penwidth=2]
    185 -> 85 [penwidth=2]
    186 -> 85 [penwidth=2]
    187 -> 85 [penwidth=2]
    188 -> 85 [penwidth=2]
    189 -> 85 [penwidth=2]
    190 -> 85 [penwidth=2]
    191 -> 86 [penwidth=2]
    3 -> 86 [penwidth=2]
    116 -> 86 [penwidth=2]
    115 -> 86 [penwidth=2]
    2 -> 86 [penwidth=2]
    114 -> 87 [penwidth=2]
    113 -> 87 [penwidth=2]
    112 -> 87 [penwidth=2]
    111 -> 87 [penwidth=2]
    1 -> 88 [penwidth=2]
    131 -> 88 [penwidth=2]
    145 -> 88 [penwidth=2]
    13 -> 88 [penwidth=2]
    143 -> 88 [penwidth=2]
    23 -> 88 [penwidth=2]
    141 -> 88 [penwidth=2]
    12 -> 88 [penwidth=2]
    149 -> 88 [penwidth=2]
    147 -> 88 [penwidth=2]
    22 -> 88 [penwidth=2]
    11 -> 89 [penwidth=2]
    146 -> 90 [penwidth=2]
    17 -> 90 [penwidth=2]
    144 -> 90 [penwidth=2]
    10 -> 90 [penwidth=2]
    142 -> 90 [penwidth=2]
    14 -> 90 [penwidth=2]
    140 -> 90 [penwidth=2]
    9 -> 90 [penwidth=2]
    148 -> 90 [penwidth=2]
    110 -> 90 [penwidth=2]
    19 -> 90 [penwidth=2]
    8 -> 90 [penwidth=2]
    119 -> 90 [penwidth=2]
    118 -> 90 [penwidth=2]
    16 -> 90 [penwidth=2]
    7 -> 90 [penwidth=2]
    117 -> 91 [penwidth=2]
    138 -> 91 [penwidth=2]
    21 -> 91 [penwidth=2]
    6 -> 91 [penwidth=2]
    137 -> 91 [penwidth=2]
    136 -> 91 [penwidth=2]
    18 -> 91 [penwidth=2]
    5 -> 91 [penwidth=2]
    135 -> 91 [penwidth=2]
    134 -> 91 [penwidth=2]
    15 -> 91 [penwidth=2]
    4 -> 91 [penwidth=2]
    133 -> 91 [penwidth=2]
    132 -> 92 [penwidth=2]
    20 -> 92 [penwidth=2]
    130 -> 92 [penwidth=2]
    129 -> 92 [penwidth=2]
    128 -> 92 [penwidth=2]
    127 -> 92 [penwidth=2]
    126 -> 92 [penwidth=2]
    125 -> 92 [penwidth=2]
    124 -> 92 [penwidth=2]
    123 -> 92 [penwidth=2]
    122 -> 92 [penwidth=2]
    121 -> 92 [penwidth=2]
    120 -> 92 [penwidth=2]
    139 -> 92 [penwidth=2]
    109 -> 92 [penwidth=2]
    108 -> 92 [penwidth=2]
    86 -> 69 [penwidth=2]
    86 -> 73 [penwidth=2]
    86 -> 67 [penwidth=2]
    86 -> 72 [penwidth=2]
    86 -> 71 [penwidth=2]
    90 -> 70 [penwidth=2]
    90 -> 73 [penwidth=2]
    90 -> 66 [penwidth=2]
    90 -> 72 [penwidth=2]
    90 -> 71 [penwidth=2]
    90 -> 67 [penwidth=2]
    91 -> 70 [penwidth=2]
    91 -> 66 [penwidth=2]
    91 -> 71 [penwidth=2]
    91 -> 69 [penwidth=2]
    91 -> 72 [penwidth=2]
    91 -> 67 [penwidth=2]
    106 -> 71 [penwidth=2]
    106 -> 66 [penwidth=2]
    107 -> 70 [penwidth=2]
    107 -> 66 [penwidth=2]
    107 -> 73 [penwidth=2]
    107 -> 67 [penwidth=2]
    107 -> 71 [penwidth=2]
    107 -> 72 [penwidth=2]
    41 -> 66 [penwidth=2]
    60 -> 70 [penwidth=2]
    195 -> 69 [penwidth=2]
    205 -> 68 [penwidth=2]
    205 -> 66 [penwidth=2]
    205 -> 70 [penwidth=2]
    205 -> 72 [penwidth=2]
    205 -> 67 [penwidth=2]
    222 -> 208 [penwidth=2]
    222 -> 52 [penwidth=2]
    222 -> 102 [penwidth=2]
    222 -> 196 [penwidth=2]
    222 -> 75 [penwidth=2]
    222 -> 201 [penwidth=2]
    222 -> 207 [penwidth=2]
    222 -> 45 [penwidth=2]
    222 -> 218 [penwidth=2]
    222 -> 215 [penwidth=2]
    222 -> 203 [penwidth=2]
    222 -> 209 [penwidth=2]
    222 -> 81 [penwidth=2]
    222 -> 104 [penwidth=2]
    222 -> 63 [penwidth=2]
    222 -> 80 [penwidth=2]
    222 -> 47 [penwidth=2]
    222 -> 217 [penwidth=2]
    222 -> 214 [penwidth=2]
    222 -> 93 [penwidth=2]
    222 -> 195 [penwidth=2]
    222 -> 85 [penwidth=2]
    222 -> 62 [penwidth=2]
    222 -> 30 [penwidth=2]
    222 -> 40 [penwidth=2]
    222 -> 65 [penwidth=2]
    222 -> 84 [penwidth=2]
    222 -> 95 [penwidth=2]
    222 -> 98 [penwidth=2]
    222 -> 220 [penwidth=2]
    222 -> 78 [penwidth=2]
    222 -> 37 [penwidth=2]
    222 -> 202 [penwidth=2]
    222 -> 56 [penwidth=2]
    222 -> 59 [penwidth=2]
    222 -> 46 [penwidth=2]
    222 -> 197 [penwidth=2]
    222 -> 99 [penwidth=2]
    222 -> 192 [penwidth=2]
    222 -> 43 [penwidth=2]
    222 -> 57 [penwidth=2]
    222 -> 101 [penwidth=2]
    222 -> 216 [penwidth=2]
    222 -> 94 [penwidth=2]
    222 -> 106 [penwidth=2]
    222 -> 33 [penwidth=2]
    222 -> 200 [penwidth=2]
    222 -> 35 [penwidth=2]
    222 -> 193 [penwidth=2]
    222 -> 96 [penwidth=2]
    222 -> 103 [penwidth=2]
    230 -> 64 [penwidth=2]
    230 -> 77 [penwidth=2]
    230 -> 62 [penwidth=2]
    230 -> 59 [penwidth=2]
    230 -> 61 [penwidth=2]
    230 -> 80 [penwidth=2]
    230 -> 56 [penwidth=2]
    230 -> 39 [penwidth=2]
    230 -> 206 [penwidth=2]
    230 -> 208 [penwidth=2]
    230 -> 84 [penwidth=2]
    230 -> 27 [penwidth=2]
    230 -> 37 [penwidth=2]
    230 -> 98 [penwidth=2]
    230 -> 87 [penwidth=2]
    230 -> 65 [penwidth=2]
    230 -> 107 [penwidth=2]
    230 -> 42 [penwidth=2]
    230 -> 193 [penwidth=2]
    230 -> 63 [penwidth=2]
    230 -> 49 [penwidth=2]
    230 -> 104 [penwidth=2]
    230 -> 101 [penwidth=2]
    230 -> 92 [penwidth=2]
    230 -> 88 [penwidth=2]
    230 -> 47 [penwidth=2]
    230 -> 50 [penwidth=2]
    230 -> 89 [penwidth=2]
    230 -> 194 [penwidth=2]
    230 -> 76 [penwidth=2]
    230 -> 198 [penwidth=2]
    230 -> 82 [penwidth=2]
    230 -> 90 [penwidth=2]
    230 -> 207 [penwidth=2]
    230 -> 31 [penwidth=2]
    230 -> 48 [penwidth=2]
    230 -> 99 [penwidth=2]
    230 -> 53 [penwidth=2]
    230 -> 203 [penwidth=2]
    230 -> 86 [penwidth=2]
    230 -> 83 [penwidth=2]
    230 -> 219 [penwidth=2]
    230 -> 85 [penwidth=2]
    230 -> 102 [penwidth=2]
    230 -> 26 [penwidth=2]
    230 -> 218 [penwidth=2]
    230 -> 93 [penwidth=2]
    230 -> 33 [penwidth=2]
    230 -> 58 [penwidth=2]
    230 -> 28 [penwidth=2]
    234 -> 89 [penwidth=2]
    234 -> 209 [penwidth=2]
    234 -> 103 [penwidth=2]
    234 -> 100 [penwidth=2]
    234 -> 104 [penwidth=2]
    234 -> 93 [penwidth=2]
    234 -> 204 [penwidth=2]
    234 -> 198 [penwidth=2]
    234 -> 192 [penwidth=2]
    234 -> 207 [penwidth=2]
    234 -> 105 [penwidth=2]
    234 -> 32 [penwidth=2]
    234 -> 193 [penwidth=2]
    234 -> 43 [penwidth=2]
    234 -> 58 [penwidth=2]
    234 -> 60 [penwidth=2]
    234 -> 36 [penwidth=2]
    234 -> 195 [penwidth=2]
    234 -> 82 [penwidth=2]
    234 -> 53 [penwidth=2]
    234 -> 80 [penwidth=2]
    234 -> 52 [penwidth=2]
    234 -> 212 [penwidth=2]
    234 -> 34 [penwidth=2]
    234 -> 107 [penwidth=2]
    234 -> 33 [penwidth=2]
    234 -> 44 [penwidth=2]
    234 -> 216 [penwidth=2]
    234 -> 210 [penwidth=2]
    234 -> 202 [penwidth=2]
    234 -> 76 [penwidth=2]
    234 -> 48 [penwidth=2]
    234 -> 31 [penwidth=2]
    234 -> 199 [penwidth=2]
    234 -> 106 [penwidth=2]
    234 -> 42 [penwidth=2]
    234 -> 37 [penwidth=2]
    234 -> 62 [penwidth=2]
    234 -> 205 [penwidth=2]
    234 -> 218 [penwidth=2]
    234 -> 38 [penwidth=2]
    234 -> 77 [penwidth=2]
    234 -> 65 [penwidth=2]
    234 -> 217 [penwidth=2]
    234 -> 220 [penwidth=2]
    234 -> 83 [penwidth=2]
    234 -> 102 [penwidth=2]
    234 -> 59 [penwidth=2]
    234 -> 26 [penwidth=2]
    234 -> 28 [penwidth=2]
    234 -> 87 [penwidth=2]
    234 -> 208 [penwidth=2]
    234 -> 85 [penwidth=2]
    234 -> 97 [penwidth=2]
    234 -> 29 [penwidth=2]
    234 -> 46 [penwidth=2]
    234 -> 194 [penwidth=2]
    234 -> 47 [penwidth=2]
    234 -> 27 [penwidth=2]
    234 -> 90 [penwidth=2]
    234 -> 201 [penwidth=2]
    234 -> 203 [penwidth=2]
    236 -> 79 [penwidth=2]
    238 -> 212 [penwidth=2]
    238 -> 87 [penwidth=2]
    238 -> 97 [penwidth=2]
    238 -> 36 [penwidth=2]
    238 -> 60 [penwidth=2]
    238 -> 26 [penwidth=2]
    238 -> 63 [penwidth=2]
    238 -> 79 [penwidth=2]
    238 -> 207 [penwidth=2]
    238 -> 196 [penwidth=2]
    238 -> 43 [penwidth=2]
    238 -> 193 [penwidth=2]
    238 -> 74 [penwidth=2]
    238 -> 55 [penwidth=2]
    238 -> 77 [penwidth=2]
    238 -> 96 [penwidth=2]
    238 -> 53 [penwidth=2]
    238 -> 204 [penwidth=2]
    238 -> 94 [penwidth=2]
    238 -> 25 [penwidth=2]
    238 -> 107 [penwidth=2]
    238 -> 210 [penwidth=2]
    238 -> 199 [penwidth=2]
    238 -> 101 [penwidth=2]
    238 -> 194 [penwidth=2]
    238 -> 83 [penwidth=2]
    238 -> 49 [penwidth=2]
    238 -> 38 [penwidth=2]
    238 -> 47 [penwidth=2]
    238 -> 200 [penwidth=2]
    238 -> 51 [penwidth=2]
    238 -> 59 [penwidth=2]
    238 -> 201 [penwidth=2]
    238 -> 218 [penwidth=2]
    238 -> 103 [penwidth=2]
    238 -> 88 [penwidth=2]
    238 -> 78 [penwidth=2]
    238 -> 27 [penwidth=2]
    238 -> 30 [penwidth=2]
    238 -> 208 [penwidth=2]
    238 -> 64 [penwidth=2]
    238 -> 215 [penwidth=2]
    238 -> 37 [penwidth=2]
    238 -> 205 [penwidth=2]
    238 -> 211 [penwidth=2]
    238 -> 216 [penwidth=2]
    238 -> 203 [penwidth=2]
    238 -> 82 [penwidth=2]
    238 -> 209 [penwidth=2]
    238 -> 33 [penwidth=2]
    238 -> 28 [penwidth=2]
    238 -> 213 [penwidth=2]
    238 -> 95 [penwidth=2]
    238 -> 98 [penwidth=2]
    238 -> 195 [penwidth=2]
    238 -> 46 [penwidth=2]
    238 -> 24 [penwidth=2]
    238 -> 32 [penwidth=2]
    238 -> 220 [penwidth=2]
    238 -> 197 [penwidth=2]
    238 -> 61 [penwidth=2]
    238 -> 105 [penwidth=2]
    238 -> 91 [penwidth=2]
    238 -> 40 [penwidth=2]
    238 -> 85 [penwidth=2]
    238 -> 104 [penwidth=2]
    238 -> 65 [penwidth=2]
    238 -> 42 [penwidth=2]
    238 -> 102 [penwidth=2]
    238 -> 56 [penwidth=2]
    238 -> 202 [penwidth=2]
    238 -> 35 [penwidth=2]
    238 -> 192 [penwidth=2]
    238 -> 29 [penwidth=2]
    238 -> 45 [penwidth=2]
    238 -> 76 [penwidth=2]
    238 -> 44 [penwidth=2]
    238 -> 93 [penwidth=2]
    240 -> 97 [penwidth=2]
    240 -> 96 [penwidth=2]
    240 -> 39 [penwidth=2]
    240 -> 44 [penwidth=2]
    240 -> 98 [penwidth=2]
    240 -> 51 [penwidth=2]
    240 -> 30 [penwidth=2]
    240 -> 99 [penwidth=2]
    240 -> 217 [penwidth=2]
    240 -> 65 [penwidth=2]
    240 -> 204 [penwidth=2]
    240 -> 94 [penwidth=2]
    240 -> 213 [penwidth=2]
    240 -> 48 [penwidth=2]
    240 -> 212 [penwidth=2]
    240 -> 85 [penwidth=2]
    240 -> 49 [penwidth=2]
    240 -> 50 [penwidth=2]
    240 -> 192 [penwidth=2]
    240 -> 195 [penwidth=2]
    240 -> 32 [penwidth=2]
    240 -> 102 [penwidth=2]
    240 -> 208 [penwidth=2]
    240 -> 59 [penwidth=2]
    240 -> 91 [penwidth=2]
    240 -> 26 [penwidth=2]
    240 -> 74 [penwidth=2]
    240 -> 62 [penwidth=2]
    240 -> 33 [penwidth=2]
    240 -> 220 [penwidth=2]
    240 -> 215 [penwidth=2]
    240 -> 92 [penwidth=2]
    240 -> 214 [penwidth=2]
    240 -> 205 [penwidth=2]
    240 -> 194 [penwidth=2]
    240 -> 219 [penwidth=2]
    240 -> 202 [penwidth=2]
    240 -> 84 [penwidth=2]
    240 -> 197 [penwidth=2]
    240 -> 40 [penwidth=2]
    240 -> 211 [penwidth=2]
    240 -> 45 [penwidth=2]
    240 -> 80 [penwidth=2]
    240 -> 101 [penwidth=2]
    240 -> 54 [penwidth=2]
    240 -> 103 [penwidth=2]
    240 -> 57 [penwidth=2]
    240 -> 24 [penwidth=2]
    240 -> 52 [penwidth=2]
    240 -> 100 [penwidth=2]
    240 -> 203 [penwidth=2]
    240 -> 38 [penwidth=2]
    240 -> 207 [penwidth=2]
    240 -> 78 [penwidth=2]
    240 -> 35 [penwidth=2]
    240 -> 105 [penwidth=2]
    240 -> 58 [penwidth=2]
    240 -> 31 [penwidth=2]
    240 -> 198 [penwidth=2]
    240 -> 25 [penwidth=2]
    240 -> 61 [penwidth=2]
    240 -> 82 [penwidth=2]
    240 -> 81 [penwidth=2]
    240 -> 29 [penwidth=2]
    240 -> 90 [penwidth=2]
    240 -> 34 [penwidth=2]
    240 -> 60 [penwidth=2]
    240 -> 53 [penwidth=2]
    240 -> 76 [penwidth=2]
    240 -> 47 [penwidth=2]
    240 -> 107 [penwidth=2]
    240 -> 64 [penwidth=2]
    242 -> 94 [penwidth=2]
    242 -> 199 [penwidth=2]
    242 -> 200 [penwidth=2]
    242 -> 217 [penwidth=2]
    242 -> 74 [penwidth=2]
    242 -> 97 [penwidth=2]
    242 -> 101 [penwidth=2]
    242 -> 41 [penwidth=2]
    242 -> 95 [penwidth=2]
    242 -> 201 [penwidth=2]
    242 -> 196 [penwidth=2]
    242 -> 92 [penwidth=2]
    242 -> 51 [penwidth=2]
    242 -> 204 [penwidth=2]
    261 -> 86 [penwidth=2]
    261 -> 30 [penwidth=2]
    261 -> 85 [penwidth=2]
    261 -> 201 [penwidth=2]
    261 -> 53 [penwidth=2]
    261 -> 217 [penwidth=2]
    261 -> 78 [penwidth=2]
    261 -> 88 [penwidth=2]
    261 -> 63 [penwidth=2]
    261 -> 40 [penwidth=2]
    261 -> 106 [penwidth=2]
    261 -> 35 [penwidth=2]
    261 -> 203 [penwidth=2]
    261 -> 27 [penwidth=2]
    261 -> 216 [penwidth=2]
    261 -> 50 [penwidth=2]
    261 -> 195 [penwidth=2]
    273 -> 35 [penwidth=2]
    273 -> 104 [penwidth=2]
    282 -> 49 [penwidth=2]
    282 -> 210 [penwidth=2]
    282 -> 99 [penwidth=2]
    282 -> 192 [penwidth=2]
    282 -> 218 [penwidth=2]
    282 -> 213 [penwidth=2]
    282 -> 57 [penwidth=2]
    282 -> 198 [penwidth=2]
    282 -> 74 [penwidth=2]
    282 -> 65 [penwidth=2]
    282 -> 209 [penwidth=2]
    282 -> 98 [penwidth=2]
    282 -> 25 [penwidth=2]
    282 -> 29 [penwidth=2]
    282 -> 207 [penwidth=2]
    282 -> 211 [penwidth=2]
    282 -> 38 [penwidth=2]
    282 -> 85 [penwidth=2]
    282 -> 195 [penwidth=2]
    282 -> 75 [penwidth=2]
    282 -> 48 [penwidth=2]
    282 -> 201 [penwidth=2]
    282 -> 214 [penwidth=2]
    282 -> 47 [penwidth=2]
    282 -> 44 [penwidth=2]
    282 -> 31 [penwidth=2]
    282 -> 53 [penwidth=2]
    282 -> 91 [penwidth=2]
    282 -> 92 [penwidth=2]
    282 -> 79 [penwidth=2]
    282 -> 90 [penwidth=2]
    282 -> 40 [penwidth=2]
    282 -> 43 [penwidth=2]
    282 -> 103 [penwidth=2]
    282 -> 202 [penwidth=2]
    282 -> 215 [penwidth=2]
    282 -> 51 [penwidth=2]
    282 -> 95 [penwidth=2]
    282 -> 203 [penwidth=2]
    282 -> 105 [penwidth=2]
    282 -> 55 [penwidth=2]
    282 -> 24 [penwidth=2]
    282 -> 216 [penwidth=2]
    282 -> 208 [penwidth=2]
    282 -> 87 [penwidth=2]
    282 -> 80 [penwidth=2]
    282 -> 26 [penwidth=2]
    282 -> 101 [penwidth=2]
    282 -> 93 [penwidth=2]
    282 -> 97 [penwidth=2]
    282 -> 86 [penwidth=2]
    164 -> 40 [penwidth=2]
    164 -> 59 [penwidth=2]
    164 -> 30 [penwidth=2]
    164 -> 95 [penwidth=2]
    164 -> 90 [penwidth=2]
    164 -> 24 [penwidth=2]
    164 -> 47 [penwidth=2]
    164 -> 201 [penwidth=2]
    164 -> 196 [penwidth=2]
    164 -> 91 [penwidth=2]
    164 -> 209 [penwidth=2]
    164 -> 45 [penwidth=2]
    164 -> 92 [penwidth=2]
    164 -> 49 [penwidth=2]
    164 -> 86 [penwidth=2]
    164 -> 211 [penwidth=2]
    164 -> 57 [penwidth=2]
    164 -> 33 [penwidth=2]
    164 -> 105 [penwidth=2]
    164 -> 42 [penwidth=2]
    164 -> 197 [penwidth=2]
    164 -> 34 [penwidth=2]
    164 -> 218 [penwidth=2]
    164 -> 48 [penwidth=2]
    164 -> 100 [penwidth=2]
    164 -> 216 [penwidth=2]
    164 -> 207 [penwidth=2]
    164 -> 27 [penwidth=2]
    164 -> 192 [penwidth=2]
    164 -> 26 [penwidth=2]
    164 -> 213 [penwidth=2]
    164 -> 217 [penwidth=2]
    164 -> 58 [penwidth=2]
    164 -> 88 [penwidth=2]
    164 -> 97 [penwidth=2]
    164 -> 52 [penwidth=2]
    164 -> 35 [penwidth=2]
    164 -> 53 [penwidth=2]
    164 -> 214 [penwidth=2]
    164 -> 193 [penwidth=2]
    164 -> 55 [penwidth=2]
    164 -> 205 [penwidth=2]
    164 -> 43 [penwidth=2]
    164 -> 104 [penwidth=2]
    164 -> 93 [penwidth=2]
    164 -> 31 [penwidth=2]
    164 -> 103 [penwidth=2]
    164 -> 96 [penwidth=2]
    164 -> 199 [penwidth=2]
    164 -> 64 [penwidth=2]
    164 -> 87 [penwidth=2]
    164 -> 89 [penwidth=2]
    164 -> 107 [penwidth=2]
    164 -> 60 [penwidth=2]
    164 -> 200 [penwidth=2]
    164 -> 210 [penwidth=2]
    164 -> 51 [penwidth=2]
    164 -> 204 [penwidth=2]
    164 -> 78 [penwidth=2]
    164 -> 39 [penwidth=2]
    164 -> 79 [penwidth=2]
    164 -> 32 [penwidth=2]
    164 -> 212 [penwidth=2]
    164 -> 202 [penwidth=2]
    164 -> 46 [penwidth=2]
    164 -> 106 [penwidth=2]
    164 -> 194 [penwidth=2]
    164 -> 77 [penwidth=2]
    164 -> 65 [penwidth=2]
    164 -> 98 [penwidth=2]
    164 -> 37 [penwidth=2]
    164 -> 80 [penwidth=2]
    164 -> 44 [penwidth=2]
    164 -> 29 [penwidth=2]
    164 -> 85 [penwidth=2]
    164 -> 94 [penwidth=2]
    164 -> 203 [penwidth=2]
    164 -> 38 [penwidth=2]
    164 -> 198 [penwidth=2]
    164 -> 220 [penwidth=2]
    168 -> 74 [penwidth=2]
    168 -> 214 [penwidth=2]
    168 -> 77 [penwidth=2]
    168 -> 81 [penwidth=2]
    168 -> 87 [penwidth=2]
    168 -> 210 [penwidth=2]
    168 -> 105 [penwidth=2]
    168 -> 195 [penwidth=2]
    168 -> 96 [penwidth=2]
    168 -> 60 [penwidth=2]
    168 -> 98 [penwidth=2]
    168 -> 24 [penwidth=2]
    168 -> 32 [penwidth=2]
    168 -> 192 [penwidth=2]
    168 -> 31 [penwidth=2]
    168 -> 47 [penwidth=2]
    168 -> 59 [penwidth=2]
    168 -> 51 [penwidth=2]
    168 -> 95 [penwidth=2]
    168 -> 56 [penwidth=2]
    168 -> 29 [penwidth=2]
    168 -> 43 [penwidth=2]
    168 -> 83 [penwidth=2]
    168 -> 91 [penwidth=2]
    168 -> 207 [penwidth=2]
    168 -> 205 [penwidth=2]
    168 -> 107 [penwidth=2]
    168 -> 198 [penwidth=2]
    168 -> 27 [penwidth=2]
    168 -> 216 [penwidth=2]
    168 -> 208 [penwidth=2]
    168 -> 28 [penwidth=2]
    168 -> 36 [penwidth=2]
    168 -> 93 [penwidth=2]
    168 -> 193 [penwidth=2]
    168 -> 78 [penwidth=2]
    168 -> 94 [penwidth=2]
    168 -> 102 [penwidth=2]
    168 -> 200 [penwidth=2]
    168 -> 30 [penwidth=2]
    168 -> 63 [penwidth=2]
    168 -> 106 [penwidth=2]
    168 -> 99 [penwidth=2]
    168 -> 57 [penwidth=2]
    168 -> 203 [penwidth=2]
    168 -> 103 [penwidth=2]
    168 -> 50 [penwidth=2]
    168 -> 35 [penwidth=2]
    168 -> 76 [penwidth=2]
    168 -> 61 [penwidth=2]
    168 -> 40 [penwidth=2]
    168 -> 199 [penwidth=2]
    168 -> 85 [penwidth=2]
    168 -> 80 [penwidth=2]
    168 -> 217 [penwidth=2]
    168 -> 33 [penwidth=2]
    168 -> 220 [penwidth=2]
    168 -> 88 [penwidth=2]
    168 -> 196 [penwidth=2]
    168 -> 86 [penwidth=2]
    168 -> 48 [penwidth=2]
    168 -> 46 [penwidth=2]
    168 -> 54 [penwidth=2]
    172 -> 49 [penwidth=2]
    172 -> 104 [penwidth=2]
    172 -> 97 [penwidth=2]
    172 -> 42 [penwidth=2]
    172 -> 32 [penwidth=2]
    172 -> 203 [penwidth=2]
    172 -> 213 [penwidth=2]
    172 -> 195 [penwidth=2]
    172 -> 101 [penwidth=2]
    172 -> 198 [penwidth=2]
    172 -> 204 [penwidth=2]
    172 -> 205 [penwidth=2]
    172 -> 200 [penwidth=2]
    172 -> 95 [penwidth=2]
    172 -> 47 [penwidth=2]
    172 -> 214 [penwidth=2]
    172 -> 209 [penwidth=2]
    172 -> 79 [penwidth=2]
    172 -> 37 [penwidth=2]
    172 -> 76 [penwidth=2]
    172 -> 55 [penwidth=2]
    172 -> 220 [penwidth=2]
    172 -> 98 [penwidth=2]
    172 -> 50 [penwidth=2]
    172 -> 219 [penwidth=2]
    172 -> 39 [penwidth=2]
    172 -> 99 [penwidth=2]
    172 -> 107 [penwidth=2]
    172 -> 206 [penwidth=2]
    172 -> 103 [penwidth=2]
    172 -> 61 [penwidth=2]
    172 -> 44 [penwidth=2]
    172 -> 86 [penwidth=2]
    172 -> 194 [penwidth=2]
    172 -> 35 [penwidth=2]
    172 -> 45 [penwidth=2]
    172 -> 40 [penwidth=2]
    172 -> 33 [penwidth=2]
    172 -> 41 [penwidth=2]
    172 -> 201 [penwidth=2]
    172 -> 52 [penwidth=2]
    172 -> 217 [penwidth=2]
    172 -> 197 [penwidth=2]
    172 -> 38 [penwidth=2]
    172 -> 43 [penwidth=2]
    172 -> 210 [penwidth=2]
    172 -> 89 [penwidth=2]
    172 -> 87 [penwidth=2]
    172 -> 202 [penwidth=2]
    172 -> 46 [penwidth=2]
    305 -> 195 [penwidth=2]
    305 -> 220 [penwidth=2]
    305 -> 56 [penwidth=2]
    305 -> 37 [penwidth=2]
    305 -> 26 [penwidth=2]
    305 -> 92 [penwidth=2]
    305 -> 98 [penwidth=2]
    305 -> 39 [penwidth=2]
    305 -> 76 [penwidth=2]
    305 -> 62 [penwidth=2]
    305 -> 32 [penwidth=2]
    305 -> 197 [penwidth=2]
    305 -> 65 [penwidth=2]
    305 -> 44 [penwidth=2]
    305 -> 79 [penwidth=2]
    305 -> 47 [penwidth=2]
    305 -> 59 [penwidth=2]
    305 -> 107 [penwidth=2]
    305 -> 102 [penwidth=2]
    305 -> 45 [penwidth=2]
    305 -> 206 [penwidth=2]
    305 -> 100 [penwidth=2]
    305 -> 81 [penwidth=2]
    305 -> 214 [penwidth=2]
    305 -> 97 [penwidth=2]
    305 -> 64 [penwidth=2]
    305 -> 46 [penwidth=2]
    305 -> 215 [penwidth=2]
    305 -> 216 [penwidth=2]
    305 -> 41 [penwidth=2]
    305 -> 42 [penwidth=2]
    305 -> 213 [penwidth=2]
    305 -> 204 [penwidth=2]
    305 -> 31 [penwidth=2]
    305 -> 205 [penwidth=2]
    305 -> 207 [penwidth=2]
    305 -> 212 [penwidth=2]
    305 -> 40 [penwidth=2]
    305 -> 55 [penwidth=2]
    305 -> 35 [penwidth=2]
    305 -> 58 [penwidth=2]
    305 -> 83 [penwidth=2]
    305 -> 91 [penwidth=2]
    305 -> 95 [penwidth=2]
    305 -> 29 [penwidth=2]
    305 -> 74 [penwidth=2]
    305 -> 193 [penwidth=2]
    305 -> 38 [penwidth=2]
    305 -> 194 [penwidth=2]
    305 -> 28 [penwidth=2]
    305 -> 53 [penwidth=2]
    305 -> 202 [penwidth=2]
    305 -> 36 [penwidth=2]
    305 -> 30 [penwidth=2]
    305 -> 87 [penwidth=2]
    305 -> 78 [penwidth=2]
    305 -> 211 [penwidth=2]
    305 -> 219 [penwidth=2]
    305 -> 90 [penwidth=2]
    305 -> 218 [penwidth=2]
    305 -> 60 [penwidth=2]
    305 -> 93 [penwidth=2]
    305 -> 105 [penwidth=2]
    305 -> 57 [penwidth=2]
    305 -> 54 [penwidth=2]
    305 -> 203 [penwidth=2]
    305 -> 201 [penwidth=2]
    180 -> 100 [penwidth=2]
    180 -> 65 [penwidth=2]
    180 -> 92 [penwidth=2]
    180 -> 59 [penwidth=2]
    180 -> 99 [penwidth=2]
    180 -> 53 [penwidth=2]
    180 -> 78 [penwidth=2]
    180 -> 31 [penwidth=2]
    180 -> 35 [penwidth=2]
    180 -> 206 [penwidth=2]
    180 -> 213 [penwidth=2]
    180 -> 207 [penwidth=2]
    180 -> 27 [penwidth=2]
    180 -> 50 [penwidth=2]
    180 -> 101 [penwidth=2]
    180 -> 58 [penwidth=2]
    180 -> 208 [penwidth=2]
    180 -> 202 [penwidth=2]
    180 -> 103 [penwidth=2]
    180 -> 43 [penwidth=2]
    180 -> 212 [penwidth=2]
    180 -> 47 [penwidth=2]
    180 -> 105 [penwidth=2]
    180 -> 214 [penwidth=2]
    180 -> 51 [penwidth=2]
    180 -> 56 [penwidth=2]
    180 -> 32 [penwidth=2]
    180 -> 106 [penwidth=2]
    180 -> 61 [penwidth=2]
    180 -> 192 [penwidth=2]
    180 -> 80 [penwidth=2]
    180 -> 26 [penwidth=2]
    180 -> 38 [penwidth=2]
    180 -> 83 [penwidth=2]
    180 -> 28 [penwidth=2]
    180 -> 25 [penwidth=2]
    180 -> 209 [penwidth=2]
    180 -> 220 [penwidth=2]
    180 -> 81 [penwidth=2]
    180 -> 29 [penwidth=2]
    180 -> 205 [penwidth=2]
    180 -> 82 [penwidth=2]
    180 -> 93 [penwidth=2]
    180 -> 86 [penwidth=2]
    180 -> 218 [penwidth=2]
    180 -> 198 [penwidth=2]
    180 -> 76 [penwidth=2]
    180 -> 46 [penwidth=2]
    180 -> 40 [penwidth=2]
    180 -> 98 [penwidth=2]
    180 -> 37 [penwidth=2]
    180 -> 219 [penwidth=2]
    180 -> 194 [penwidth=2]
    180 -> 33 [penwidth=2]
    180 -> 204 [penwidth=2]
    180 -> 44 [penwidth=2]
    180 -> 91 [penwidth=2]
    180 -> 215 [penwidth=2]
    180 -> 203 [penwidth=2]
    180 -> 52 [penwidth=2]
    180 -> 94 [penwidth=2]
    180 -> 107 [penwidth=2]
    180 -> 96 [penwidth=2]
    180 -> 24 [penwidth=2]
    180 -> 36 [penwidth=2]
    180 -> 54 [penwidth=2]
    180 -> 211 [penwidth=2]
    180 -> 199 [penwidth=2]
    180 -> 197 [penwidth=2]
    180 -> 84 [penwidth=2]
    180 -> 89 [penwidth=2]
    180 -> 60 [penwidth=2]
    180 -> 42 [penwidth=2]
    180 -> 95 [penwidth=2]
    180 -> 57 [penwidth=2]
    180 -> 88 [penwidth=2]
    180 -> 216 [penwidth=2]
    180 -> 48 [penwidth=2]
    180 -> 63 [penwidth=2]
    180 -> 74 [penwidth=2]
    180 -> 210 [penwidth=2]
    180 -> 193 [penwidth=2]
    180 -> 196 [penwidth=2]
    180 -> 217 [penwidth=2]
    180 -> 195 [penwidth=2]
    180 -> 30 [penwidth=2]
    180 -> 34 [penwidth=2]
    180 -> 97 [penwidth=2]
    180 -> 64 [penwidth=2]
    180 -> 49 [penwidth=2]
    180 -> 102 [penwidth=2]
    180 -> 41 [penwidth=2]
    180 -> 77 [penwidth=2]
    180 -> 39 [penwidth=2]
    180 -> 87 [penwidth=2]
    180 -> 200 [penwidth=2]
    180 -> 45 [penwidth=2]
    180 -> 75 [penwidth=2]
    180 -> 104 [penwidth=2]
    180 -> 62 [penwidth=2]
    182 -> 63 [penwidth=2]
    182 -> 40 [penwidth=2]
    182 -> 53 [penwidth=2]
    182 -> 84 [penwidth=2]
    182 -> 101 [penwidth=2]
    182 -> 194 [penwidth=2]
    182 -> 37 [penwidth=2]
    182 -> 35 [penwidth=2]
    182 -> 103 [penwidth=2]
    182 -> 44 [penwidth=2]
    182 -> 36 [penwidth=2]
    182 -> 207 [penwidth=2]
    182 -> 91 [penwidth=2]
    182 -> 34 [penwidth=2]
    182 -> 197 [penwidth=2]
    182 -> 38 [penwidth=2]
    182 -> 209 [penwidth=2]
    182 -> 192 [penwidth=2]
    182 -> 210 [penwidth=2]
    182 -> 60 [penwidth=2]
    182 -> 90 [penwidth=2]
    182 -> 106 [penwidth=2]
    182 -> 50 [penwidth=2]
    182 -> 219 [penwidth=2]
    182 -> 99 [penwidth=2]
    182 -> 31 [penwidth=2]
    182 -> 58 [penwidth=2]
    182 -> 206 [penwidth=2]
    182 -> 82 [penwidth=2]
    182 -> 98 [penwidth=2]
    182 -> 80 [penwidth=2]
    182 -> 215 [penwidth=2]
    182 -> 32 [penwidth=2]
    182 -> 216 [penwidth=2]
    182 -> 26 [penwidth=2]
    182 -> 61 [penwidth=2]
    182 -> 77 [penwidth=2]
    182 -> 97 [penwidth=2]
    182 -> 55 [penwidth=2]
    182 -> 100 [penwidth=2]
    182 -> 205 [penwidth=2]
    182 -> 95 [penwidth=2]
    182 -> 79 [penwidth=2]
    182 -> 43 [penwidth=2]
    182 -> 46 [penwidth=2]
    182 -> 54 [penwidth=2]
    182 -> 28 [penwidth=2]
    182 -> 62 [penwidth=2]
    182 -> 203 [penwidth=2]
    116 -> 47 [penwidth=2]
    116 -> 89 [penwidth=2]
    116 -> 199 [penwidth=2]
    116 -> 202 [penwidth=2]
    116 -> 99 [penwidth=2]
    116 -> 205 [penwidth=2]
    116 -> 98 [penwidth=2]
    116 -> 38 [penwidth=2]
    116 -> 93 [penwidth=2]
    116 -> 214 [penwidth=2]
    116 -> 208 [penwidth=2]
    116 -> 198 [penwidth=2]
    21 -> 219 [penwidth=2]
    21 -> 40 [penwidth=2]
    21 -> 75 [penwidth=2]
    21 -> 200 [penwidth=2]
    21 -> 103 [penwidth=2]
    21 -> 202 [penwidth=2]
    21 -> 201 [penwidth=2]
    21 -> 214 [penwidth=2]
    21 -> 100 [penwidth=2]
    21 -> 35 [penwidth=2]
    21 -> 39 [penwidth=2]
    21 -> 82 [penwidth=2]
    21 -> 60 [penwidth=2]
    21 -> 47 [penwidth=2]
    21 -> 97 [penwidth=2]
    21 -> 99 [penwidth=2]
    21 -> 95 [penwidth=2]
    21 -> 48 [penwidth=2]
    21 -> 208 [penwidth=2]
    21 -> 45 [penwidth=2]
    21 -> 62 [penwidth=2]
    21 -> 195 [penwidth=2]
    21 -> 59 [penwidth=2]
    21 -> 93 [penwidth=2]
    21 -> 215 [penwidth=2]
    21 -> 57 [penwidth=2]
    21 -> 85 [penwidth=2]
    21 -> 29 [penwidth=2]
    21 -> 194 [penwidth=2]
    21 -> 63 [penwidth=2]
    21 -> 101 [penwidth=2]
    21 -> 61 [penwidth=2]
    21 -> 65 [penwidth=2]
    21 -> 217 [penwidth=2]
    21 -> 88 [penwidth=2]
    21 -> 106 [penwidth=2]
    21 -> 213 [penwidth=2]
    21 -> 207 [penwidth=2]
    21 -> 50 [penwidth=2]
    21 -> 46 [penwidth=2]
    21 -> 216 [penwidth=2]
    21 -> 196 [penwidth=2]
    21 -> 51 [penwidth=2]
    21 -> 87 [penwidth=2]
    21 -> 43 [penwidth=2]
    21 -> 197 [penwidth=2]
    21 -> 74 [penwidth=2]
    21 -> 30 [penwidth=2]
    21 -> 80 [penwidth=2]
    21 -> 54 [penwidth=2]
    21 -> 32 [penwidth=2]
    21 -> 86 [penwidth=2]
    21 -> 42 [penwidth=2]
    21 -> 210 [penwidth=2]
    21 -> 211 [penwidth=2]
    21 -> 96 [penwidth=2]
}