digraph G {
    0 [penwidth=3,label="0"]
    1 [penwidth=3,label="1"]
    2 [penwidth=3,label="2"]
    3 [penwidth=3,label="3"]
    4 [penwidth=3,label="4"]
    5 [penwidth=3,label="5"]
    6 [penwidth=3,label="6"]
    7 [penwidth=3,label="7"]
    8 [penwidth=3,label="8"]
    9 [penwidth=3,label="9"]
    10 [penwidth=3,label="10"]
    11 [penwidth=3,label="11"]
    12 [penwidth=3,label="12"]
    13 [penwidth=3,label="13"]
    14 [penwidth=3,label="14"]
    15 [penwidth=3,label="15"]
    16 [penwidth=3,label="16"]
    17 [penwidth=3,label="17"]
    18 [penwidth=3,label="18"]
    19 [penwidth=3,label="19"]
    20 [penwidth=3,label="20"]
    21 [penwidth=3,label="21"]
    22 [penwidth=3,label="22"]
    23 [penwidth=3,label="23"]
    24 [penwidth=3,label="24"]
    25 [penwidth=3,label="25"]
    26 [penwidth=3,label="26"]
    27 [penwidth=3,label="27"]
    28 [penwidth=3,label="28"]
    29 [penwidth=3,label="29"]
    30 [penwidth=3,label="30"]
    31 [penwidth=3,label="31"]
    32 [penwidth=3,label="32"]
    33 [penwidth=3,label="33"]
    34 [penwidth=3,label="34"]
    35 [penwidth=3,label="35"]
    36 [penwidth=3,label="36"]
    37 [penwidth=3,label="37"]
    38 [penwidth=3,label="38"]
    39 [penwidth=3,label="39"]
    40 [penwidth=3,label="40"]
    41 [penwidth=3,label="41"]
    42 [penwidth=3,label="42"]
    43 [penwidth=3,label="43"]
    44 [penwidth=3,label="44"]
    45 [penwidth=3,label="45"]
    46 [penwidth=3,label="46"]
    47 [penwidth=3,label="47"]
    48 [penwidth=3,label="48"]
    49 [penwidth=3,label="49"]
    50 [penwidth=3,label="50"]
    51 [penwidth=3,label="51"]
    52 [penwidth=3,label="52"]
    53 [penwidth=3,label="53"]
    54 [penwidth=3,label="54"]
    55 [penwidth=3,label="55"]
    56 [penwidth=3,label="56"]
    57 [penwidth=3,label="57"]
    58 [penwidth=3,label="58"]
    59 [penwidth=3,label="59"]
    60 [penwidth=3,label="60"]
    61 [penwidth=3,label="61"]
    62 [penwidth=3,label="62"]
    63 [penwidth=3,label="63"]
    64 [penwidth=3,label="64"]
    65 [penwidth=3,label="65"]
    66 [penwidth=3,label="66"]
    67 [penwidth=3,label="67"]
    68 [penwidth=3,label="68"]
    69 [penwidth=3,label="69"]
    70 [penwidth=3,label="70"]
    71 [penwidth=3,label="71"]
    72 [penwidth=3,label="72"]
    73 [penwidth=3,label="73"]
    74 [penwidth=3,label="74"]
    75 [penwidth=3,label="75"]
    76 [penwidth=3,label="76"]
    77 [penwidth=3,label="77"]
    78 [penwidth=3,label="78"]
    79 [penwidth=3,label="79"]
    80 [penwidth=3,label="80"]
    81 [penwidth=3,label="81"]
    82 [penwidth=3,label="82"]
    83 [penwidth=3,label="83"]
    84 [penwidth=3,label="84"]
    85 [penwidth=3,label="85"]
    86 [penwidth=3,label="86"]
    87 [penwidth=3,label="87"]
    88 [penwidth=3,label="88"]
    89 [penwidth=3,label="89"]
    90 [penwidth=3,label="90"]
    91 [penwidth=3,label="91"]
    92 [penwidth=3,label="92"]
    93 [penwidth=3,label="93"]
    94 [penwidth=3,label="94"]
    95 [penwidth=3,label="95"]
    96 [penwidth=3,label="96"]
    97 [penwidth=3,label="97"]
    98 [penwidth=3,label="98"]
    99 [penwidth=3,label="99"]
    100 [penwidth=3,label="100"]
    101 [penwidth=3,label="101"]
    102 [penwidth=3,label="102"]
    103 [penwidth=3,label="103"]
    104 [penwidth=3,label="104"]
    105 [penwidth=3,label="105"]
    106 [penwidth=3,label="106"]
    107 [penwidth=3,label="107"]
    108 [penwidth=3,label="108"]
    109 [penwidth=3,label="109"]
    110 [penwidth=3,label="110"]
    111 [penwidth=3,label="111"]
    112 [penwidth=3,label="112"]
    113 [penwidth=3,label="113"]
    114 [penwidth=3,label="114"]
    115 [penwidth=3,label="115"]
    116 [penwidth=3,label="116"]
    117 [penwidth=3,label="117"]
    118 [penwidth=3,label="118"]
    119 [penwidth=3,label="119"]
    120 [penwidth=3,label="120"]
    121 [penwidth=3,label="121"]
    122 [penwidth=3,label="122"]
    123 [penwidth=3,label="123"]
    124 [penwidth=3,label="124"]
    125 [penwidth=3,label="125"]
    126 [penwidth=3,label="126"]
    127 [penwidth=3,label="127"]
    128 [penwidth=3,label="128"]
    129 [penwidth=3,label="129"]
    130 [penwidth=3,label="130"]
    131 [penwidth=3,label="131"]
    132 [penwidth=3,label="132"]
    133 [penwidth=3,label="133"]
    134 [penwidth=3,label="134"]
    135 [penwidth=3,label="135"]
    136 [penwidth=3,label="136"]
    137 [penwidth=3,label="137"]
    138 [penwidth=3,label="138"]
    139 [penwidth=3,label="139"]
    140 [penwidth=3,label="140"]
    141 [penwidth=3,label="141"]
    142 [penwidth=3,label="142"]
    143 [penwidth=3,label="143"]
    144 [penwidth=3,label="144"]
    145 [penwidth=3,label="145"]
    146 [penwidth=3,label="146"]
    147 [penwidth=3,label="147"]
    148 [penwidth=3,label="148"]
    149 [penwidth=3,label="149"]
    150 [penwidth=3,label="150"]
    151 [penwidth=3,label="151"]
    152 [penwidth=3,label="152"]
    153 [penwidth=3,label="153"]
    154 [penwidth=3,label="154"]
    155 [penwidth=3,label="155"]
    156 [penwidth=3,label="156"]
    157 [penwidth=3,label="157"]
    158 [penwidth=3,label="158"]
    159 [penwidth=3,label="159"]
    160 [penwidth=3,label="160"]
    161 [penwidth=3,label="161"]
    162 [penwidth=3,label="162"]
    163 [penwidth=3,label="163"]
    164 [penwidth=3,label="164"]
    165 [penwidth=3,label="165"]
    166 [penwidth=3,label="166"]
    167 [penwidth=3,label="167"]
    168 [penwidth=3,label="168"]
    169 [penwidth=3,label="169"]
    170 [penwidth=3,label="170"]
    171 [penwidth=3,label="171"]
    172 [penwidth=3,label="172"]
    173 [penwidth=3,label="173"]
    174 [penwidth=3,label="174"]
    175 [penwidth=3,label="175"]
    176 [penwidth=3,label="176"]
    177 [penwidth=3,label="177"]
    178 [penwidth=3,label="178"]
    179 [penwidth=3,label="179"]
    180 [penwidth=3,label="180"]
    181 [penwidth=3,label="181"]
    182 [penwidth=3,label="182"]
    183 [penwidth=3,label="183"]
    184 [penwidth=3,label="184"]
    185 [penwidth=3,label="185"]
    186 [penwidth=3,label="186"]
    187 [penwidth=3,label="187"]
    188 [penwidth=3,label="188"]
    189 [penwidth=3,label="189"]
    190 [penwidth=3,label="190"]
    191 [penwidth=3,label="191"]
    192 [penwidth=3,label="192"]
    193 [penwidth=3,label="193"]
    194 [penwidth=3,label="194"]
    195 [penwidth=3,label="195"]
    196 [penwidth=3,label="196"]
    197 [penwidth=3,label="197"]
    198 [penwidth=3,label="198"]
    199 [penwidth=3,label="199"]
    200 [penwidth=3,label="200"]
    201 [penwidth=3,label="201"]
    202 [penwidth=3,label="202"]
    203 [penwidth=3,label="203"]
    204 [penwidth=3,label="204"]
    205 [penwidth=3,label="205"]
    206 [penwidth=3,label="206"]
    207 [penwidth=3,label="207"]
    208 [penwidth=3,label="208"]
    209 [penwidth=3,label="209"]
    210 [penwidth=3,label="210"]
    211 [penwidth=3,label="211"]
    212 [penwidth=3,label="212"]
    213 [penwidth=3,label="213"]
    214 [penwidth=3,label="214"]
    215 [penwidth=3,label="215"]
    216 [penwidth=3,label="216"]
    217 [penwidth=3,label="217"]
    218 [penwidth=3,label="218"]
    219 [penwidth=3,label="219"]
    220 [penwidth=3,label="220"]
    221 [penwidth=3,label="221"]
    222 [penwidth=3,label="222"]
    223 [penwidth=3,label="223"]
    224 [penwidth=3,label="224"]
    225 [penwidth=3,label="225"]
    226 [penwidth=3,label="226"]
    227 [penwidth=3,label="227"]
    228 [penwidth=3,label="228"]
    229 [penwidth=3,label="229"]
    230 [penwidth=3,label="230"]
    231 [penwidth=3,label="231"]
    232 [penwidth=3,label="232"]
    233 [penwidth=3,label="233"]
    234 [penwidth=3,label="234"]
    235 [penwidth=3,label="235"]
    236 [penwidth=3,label="236"]
    237 [penwidth=3,label="237"]
    238 [penwidth=3,label="238"]
    239 [penwidth=3,label="239"]
    240 [penwidth=3,label="240"]
    241 [penwidth=3,label="241"]
    242 [penwidth=3,label="242"]
    243 [penwidth=3,label="243"]
    244 [penwidth=3,label="244"]
    245 [penwidth=3,label="245"]
    246 [penwidth=3,label="246"]
    247 [penwidth=3,label="247"]
    248 [penwidth=3,label="248"]
    249 [penwidth=3,label="249"]
    250 [penwidth=3,label="250"]
    251 [penwidth=3,label="251"]
    252 [penwidth=3,label="252"]
    253 [penwidth=3,label="253"]
    254 [penwidth=3,label="254"]
    255 [penwidth=3,label="255"]
    256 [penwidth=3,label="256"]
    257 [penwidth=3,label="257"]
    258 [penwidth=3,label="258"]
    259 [penwidth=3,label="259"]
    260 [penwidth=3,label="260"]
    261 [penwidth=3,label="261"]
    262 [penwidth=3,label="262"]
    263 [penwidth=3,label="263"]
    264 [penwidth=3,label="264"]
    265 [penwidth=3,label="265"]
    266 [penwidth=3,label="266"]
    267 [penwidth=3,label="267"]
    268 [penwidth=3,label="268"]
    269 [penwidth=3,label="269"]
    270 [penwidth=3,label="270"]
    271 [penwidth=3,label="271"]
    272 [penwidth=3,label="272"]
    273 [penwidth=3,label="273"]
    274 [penwidth=3,label="274"]
    275 [penwidth=3,label="275"]
    276 [penwidth=3,label="276"]
    277 [penwidth=3,label="277"]
    278 [penwidth=3,label="278"]
    279 [penwidth=3,label="279"]
    280 [penwidth=3,label="280"]
    281 [penwidth=3,label="281"]
    282 [penwidth=3,label="282"]
    283 [penwidth=3,label="283"]
    284 [penwidth=3,label="284"]
    285 [penwidth=3,label="285"]
    286 [penwidth=3,label="286"]
    287 [penwidth=3,label="287"]
    288 [penwidth=3,label="288"]
    289 [penwidth=3,label="289"]
    290 [penwidth=3,label="290"]
    291 [penwidth=3,label="291"]
    292 [penwidth=3,label="292"]
    293 [penwidth=3,label="293"]
    294 [penwidth=3,label="294"]
    295 [penwidth=3,label="295"]
    296 [penwidth=3,label="296"]
    297 [penwidth=3,label="297"]
    298 [penwidth=3,label="298"]
    299 [penwidth=3,label="299"]
    300 [penwidth=3,label="300"]
    301 [penwidth=3,label="301"]
    302 [penwidth=3,label="302"]
    303 [penwidth=3,label="303"]
    304 [penwidth=3,label="304"]
    305 [penwidth=3,label="305"]
    306 [penwidth=3,label="306"]
    307 [penwidth=3,label="307"]
    308 [penwidth=3,label="308"]
    309 [penwidth=3,label="309"]

    22 -> 0 [penwidth=2]
    232 -> 0 [penwidth=2]
    23 -> 0 [penwidth=2]
    233 -> 0 [penwidth=2]
    24 -> 0 [penwidth=2]
    234 -> 0 [penwidth=2]
    25 -> 0 [penwidth=2]
    235 -> 0 [penwidth=2]
    26 -> 22 [penwidth=2]
    236 -> 22 [penwidth=2]
    27 -> 22 [penwidth=2]
    237 -> 22 [penwidth=2]
    28 -> 22 [penwidth=2]
    238 -> 22 [penwidth=2]
    309 -> 22 [penwidth=2]
    29 -> 22 [penwidth=2]
    239 -> 232 [penwidth=2]
    308 -> 232 [penwidth=2]
    30 -> 232 [penwidth=2]
    240 -> 232 [penwidth=2]
    307 -> 232 [penwidth=2]
    31 -> 232 [penwidth=2]
    241 -> 232 [penwidth=2]
    306 -> 232 [penwidth=2]
    32 -> 23 [penwidth=2]
    242 -> 23 [penwidth=2]
    305 -> 23 [penwidth=2]
    33 -> 23 [penwidth=2]
    243 -> 23 [penwidth=2]
    34 -> 23 [penwidth=2]
    244 -> 23 [penwidth=2]
    291 -> 23 [penwidth=2]
    35 -> 23 [penwidth=2]
    245 -> 23 [penwidth=2]
    289 -> 23 [penwidth=2]
    36 -> 23 [penwidth=2]
    246 -> 23 [penwidth=2]
    287 -> 23 [penwidth=2]
    37 -> 23 [penwidth=2]
    247 -> 23 [penwidth=2]
    285 -> 23 [penwidth=2]
    38 -> 23 [penwidth=2]
    248 -> 23 [penwidth=2]
    284 -> 23 [penwidth=2]
    39 -> 23 [penwidth=2]
    249 -> 23 [penwidth=2]
    283 -> 23 [penwidth=2]
    40 -> 23 [penwidth=2]
    250 -> 233 [penwidth=2]
    282 -> 233 [penwidth=2]
    41 -> 233 [penwidth=2]
    251 -> 233 [penwidth=2]
    281 -> 233 [penwidth=2]
    42 -> 233 [penwidth=2]
    252 -> 233 [penwidth=2]
    280 -> 233 [penwidth=2]
    43 -> 233 [penwidth=2]
    253 -> 233 [penwidth=2]
    304 -> 233 [penwidth=2]
    44 -> 233 [penwidth=2]
    254 -> 24 [penwidth=2]
    303 -> 24 [penwidth=2]
    45 -> 24 [penwidth=2]
    255 -> 234 [penwidth=2]
    302 -> 234 [penwidth=2]
    46 -> 234 [penwidth=2]
    256 -> 234 [penwidth=2]
    301 -> 234 [penwidth=2]
    47 -> 234 [penwidth=2]
    257 -> 234 [penwidth=2]
    300 -> 234 [penwidth=2]
    48 -> 234 [penwidth=2]
    258 -> 25 [penwidth=2]
    299 -> 25 [penwidth=2]
    49 -> 25 [penwidth=2]
    259 -> 25 [penwidth=2]
    298 -> 25 [penwidth=2]
    50 -> 25 [penwidth=2]
    260 -> 25 [penwidth=2]
    297 -> 25 [penwidth=2]
    51 -> 25 [penwidth=2]
    261 -> 235 [penwidth=2]
    296 -> 26 [penwidth=2]
    52 -> 26 [penwidth=2]
    262 -> 26 [penwidth=2]
    295 -> 26 [penwidth=2]
    53 -> 26 [penwidth=2]
    263 -> 26 [penwidth=2]
    294 -> 26 [penwidth=2]
    54 -> 26 [penwidth=2]
    264 -> 26 [penwidth=2]
    293 -> 26 [penwidth=2]
    55 -> 236 [penwidth=2]
    265 -> 236 [penwidth=2]
    292 -> 27 [penwidth=2]
    56 -> 27 [penwidth=2]
    266 -> 27 [penwidth=2]
    290 -> 27 [penwidth=2]
    57 -> 27 [penwidth=2]
    267 -> 27 [penwidth=2]
    288 -> 27 [penwidth=2]
    58 -> 27 [penwidth=2]
    268 -> 27 [penwidth=2]
    286 -> 27 [penwidth=2]
    59 -> 27 [penwidth=2]
    269 -> 237 [penwidth=2]
    274 -> 237 [penwidth=2]
    279 -> 237 [penwidth=2]
    60 -> 237 [penwidth=2]
    270 -> 237 [penwidth=2]
    278 -> 237 [penwidth=2]
    61 -> 237 [penwidth=2]
    271 -> 237 [penwidth=2]
    277 -> 237 [penwidth=2]
    62 -> 237 [penwidth=2]
    272 -> 237 [penwidth=2]
    276 -> 237 [penwidth=2]
    63 -> 237 [penwidth=2]
    273 -> 237 [penwidth=2]
    275 -> 237 [penwidth=2]
    106 -> 237 [penwidth=2]
    107 -> 237 [penwidth=2]
    108 -> 28 [penwidth=2]
    109 -> 28 [penwidth=2]
    110 -> 28 [penwidth=2]
    111 -> 28 [penwidth=2]
    112 -> 28 [penwidth=2]
    113 -> 28 [penwidth=2]
    114 -> 28 [penwidth=2]
    115 -> 28 [penwidth=2]
    116 -> 28 [penwidth=2]
    117 -> 28 [penwidth=2]
    118 -> 28 [penwidth=2]
    119 -> 28 [penwidth=2]
    120 -> 28 [penwidth=2]
    121 -> 28 [penwidth=2]
    122 -> 28 [penwidth=2]
    123 -> 28 [penwidth=2]
    124 -> 28 [penwidth=2]
    125 -> 28 [penwidth=2]
    126 -> 28 [penwidth=2]
    127 -> 28 [penwidth=2]
    128 -> 28 [penwidth=2]
    129 -> 28 [penwidth=2]
    130 -> 238 [penwidth=2]
    131 -> 238 [penwidth=2]
    132 -> 238 [penwidth=2]
    133 -> 238 [penwidth=2]
    134 -> 238 [penwidth=2]
    135 -> 238 [penwidth=2]
    136 -> 238 [penwidth=2]
    137 -> 238 [penwidth=2]
    138 -> 238 [penwidth=2]
    139 -> 309 [penwidth=2]
    140 -> 309 [penwidth=2]
    141 -> 309 [penwidth=2]
    142 -> 309 [penwidth=2]
    143 -> 309 [penwidth=2]
    144 -> 309 [penwidth=2]
    145 -> 309 [penwidth=2]
    146 -> 309 [penwidth=2]
    147 -> 309 [penwidth=2]
    1 -> 309 [penwidth=2]
    2 -> 309 [penwidth=2]
    3 -> 309 [penwidth=2]
    4 -> 309 [penwidth=2]
    5 -> 309 [penwidth=2]
    6 -> 309 [penwidth=2]
    7 -> 309 [penwidth=2]
    8 -> 309 [penwidth=2]
    9 -> 309 [penwidth=2]
    10 -> 309 [penwidth=2]
    11 -> 309 [penwidth=2]
    12 -> 29 [penwidth=2]
    13 -> 29 [penwidth=2]
    14 -> 29 [penwidth=2]
    15 -> 29 [penwidth=2]
    16 -> 29 [penwidth=2]
    17 -> 29 [penwidth=2]
    18 -> 29 [penwidth=2]
    19 -> 29 [penwidth=2]
    20 -> 29 [penwidth=2]
    21 -> 29 [penwidth=2]
    64 -> 29 [penwidth=2]
    148 -> 29 [penwidth=2]
    65 -> 29 [penwidth=2]
    149 -> 29 [penwidth=2]
    66 -> 239 [penwidth=2]
    150 -> 239 [penwidth=2]
    67 -> 239 [penwidth=2]
    151 -> 239 [penwidth=2]
    68 -> 239 [penwidth=2]
    152 -> 239 [penwidth=2]
    69 -> 239 [penwidth=2]
    153 -> 239 [penwidth=2]
    70 -> 239 [penwidth=2]
    154 -> 239 [penwidth=2]
    71 -> 239 [penwidth=2]
    155 -> 239 [penwidth=2]
    72 -> 239 [penwidth=2]
    156 -> 239 [penwidth=2]
    73 -> 239 [penwidth=2]
    157 -> 239 [penwidth=2]
    74 -> 239 [penwidth=2]
    158 -> 239 [penwidth=2]
    75 -> 239 [penwidth=2]
    159 -> 308 [penwidth=2]
    76 -> 308 [penwidth=2]
    160 -> 308 [penwidth=2]
    77 -> 308 [penwidth=2]
    161 -> 308 [penwidth=2]
    78 -> 308 [penwidth=2]
    162 -> 308 [penwidth=2]
    79 -> 308 [penwidth=2]
    163 -> 308 [penwidth=2]
    80 -> 308 [penwidth=2]
    164 -> 308 [penwidth=2]
    81 -> 308 [penwidth=2]
    165 -> 308 [penwidth=2]
    82 -> 308 [penwidth=2]
    166 -> 308 [penwidth=2]
    83 -> 308 [penwidth=2]
    167 -> 308 [penwidth=2]
    84 -> 308 [penwidth=2]
    168 -> 308 [penwidth=2]
    85 -> 308 [penwidth=2]
    169 -> 308 [penwidth=2]
    86 -> 308 [penwidth=2]
    170 -> 30 [penwidth=2]
    87 -> 30 [penwidth=2]
    171 -> 30 [penwidth=2]
    88 -> 30 [penwidth=2]
    172 -> 30 [penwidth=2]
    89 -> 30 [penwidth=2]
    173 -> 30 [penwidth=2]
    90 -> 30 [penwidth=2]
    174 -> 30 [penwidth=2]
    91 -> 30 [penwidth=2]
    175 -> 30 [penwidth=2]
    92 -> 30 [penwidth=2]
    176 -> 30 [penwidth=2]
    93 -> 30 [penwidth=2]
    177 -> 30 [penwidth=2]
    94 -> 30 [penwidth=2]
    178 -> 30 [penwidth=2]
    95 -> 30 [penwidth=2]
    179 -> 30 [penwidth=2]
    96 -> 240 [penwidth=2]
    180 -> 240 [penwidth=2]
    97 -> 240 [penwidth=2]
    181 -> 240 [penwidth=2]
    98 -> 240 [penwidth=2]
    182 -> 240 [penwidth=2]
    99 -> 240 [penwidth=2]
    183 -> 240 [penwidth=2]
    100 -> 240 [penwidth=2]
    184 -> 240 [penwidth=2]
    101 -> 240 [penwidth=2]
    185 -> 307 [penwidth=2]
    102 -> 307 [penwidth=2]
    186 -> 307 [penwidth=2]
    103 -> 307 [penwidth=2]
    187 -> 307 [penwidth=2]
    104 -> 307 [penwidth=2]
    188 -> 307 [penwidth=2]
    105 -> 307 [penwidth=2]
    189 -> 307 [penwidth=2]
    190 -> 307 [penwidth=2]
    191 -> 307 [penwidth=2]
    192 -> 307 [penwidth=2]
    193 -> 307 [penwidth=2]
    194 -> 307 [penwidth=2]
    195 -> 307 [penwidth=2]
    196 -> 307 [penwidth=2]
    197 -> 307 [penwidth=2]
    198 -> 307 [penwidth=2]
    199 -> 307 [penwidth=2]
    200 -> 307 [penwidth=2]
    201 -> 307 [penwidth=2]
    202 -> 31 [penwidth=2]
    203 -> 31 [penwidth=2]
    204 -> 31 [penwidth=2]
    205 -> 31 [penwidth=2]
    206 -> 31 [penwidth=2]
    207 -> 241 [penwidth=2]
    208 -> 241 [penwidth=2]
    209 -> 241 [penwidth=2]
    210 -> 241 [penwidth=2]
    211 -> 241 [penwidth=2]
    212 -> 241 [penwidth=2]
    213 -> 241 [penwidth=2]
    214 -> 241 [penwidth=2]
    215 -> 241 [penwidth=2]
    216 -> 241 [penwidth=2]
    217 -> 241 [penwidth=2]
    218 -> 241 [penwidth=2]
    219 -> 241 [penwidth=2]
    220 -> 241 [penwidth=2]
    221 -> 241 [penwidth=2]
    222 -> 241 [penwidth=2]
    223 -> 241 [penwidth=2]
    224 -> 241 [penwidth=2]
    225 -> 241 [penwidth=2]
    226 -> 241 [penwidth=2]
    227 -> 306 [penwidth=2]
    228 -> 306 [penwidth=2]
    229 -> 306 [penwidth=2]
    230 -> 306 [penwidth=2]
    231 -> 306 [penwidth=2]
    239 -> 23 [penwidth=2]
    239 -> 22 [penwidth=2]
    299 -> 24 [penwidth=2]
    299 -> 234 [penwidth=2]
    299 -> 23 [penwidth=2]
    299 -> 235 [penwidth=2]
    299 -> 232 [penwidth=2]
    52 -> 47 [penwidth=2]
    52 -> 308 [penwidth=2]
    52 -> 236 [penwidth=2]
    52 -> 284 [penwidth=2]
    52 -> 37 [penwidth=2]
    52 -> 281 [penwidth=2]
    52 -> 289 [penwidth=2]
    52 -> 257 [penwidth=2]
    52 -> 30 [penwidth=2]
    52 -> 35 [penwidth=2]
    52 -> 239 [penwidth=2]
    52 -> 300 [penwidth=2]
    277 -> 250 [penwidth=2]
    277 -> 32 [penwidth=2]
    277 -> 35 [penwidth=2]
    277 -> 254 [penwidth=2]
    277 -> 291 [penwidth=2]
    277 -> 300 [penwidth=2]
    277 -> 27 [penwidth=2]
    277 -> 285 [penwidth=2]
    277 -> 36 [penwidth=2]
    277 -> 243 [penwidth=2]
    277 -> 261 [penwidth=2]
    277 -> 37 [penwidth=2]
    277 -> 306 [penwidth=2]
    277 -> 47 [penwidth=2]
    277 -> 309 [penwidth=2]
    277 -> 308 [penwidth=2]
    277 -> 256 [penwidth=2]
    277 -> 281 [penwidth=2]
    277 -> 305 [penwidth=2]
    277 -> 255 [penwidth=2]
    277 -> 51 [penwidth=2]
    277 -> 282 [penwidth=2]
    277 -> 236 [penwidth=2]
    277 -> 247 [penwidth=2]
    277 -> 259 [penwidth=2]
    277 -> 299 [penwidth=2]
    277 -> 241 [penwidth=2]
    277 -> 307 [penwidth=2]
    277 -> 48 [penwidth=2]
    277 -> 33 [penwidth=2]
    277 -> 238 [penwidth=2]
    277 -> 257 [penwidth=2]
    277 -> 258 [penwidth=2]
    277 -> 240 [penwidth=2]
    277 -> 41 [penwidth=2]
    277 -> 253 [penwidth=2]
    277 -> 31 [penwidth=2]
    277 -> 289 [penwidth=2]
    277 -> 34 [penwidth=2]
    277 -> 248 [penwidth=2]
    277 -> 43 [penwidth=2]
    277 -> 49 [penwidth=2]
    277 -> 301 [penwidth=2]
    277 -> 30 [penwidth=2]
    277 -> 28 [penwidth=2]
    277 -> 302 [penwidth=2]
    277 -> 252 [penwidth=2]
    277 -> 246 [penwidth=2]
    277 -> 244 [penwidth=2]
    277 -> 38 [penwidth=2]
    277 -> 50 [penwidth=2]
    277 -> 303 [penwidth=2]
    277 -> 260 [penwidth=2]
    123 -> 289 [penwidth=2]
    123 -> 51 [penwidth=2]
    123 -> 257 [penwidth=2]
    123 -> 304 [penwidth=2]
    123 -> 241 [penwidth=2]
    123 -> 251 [penwidth=2]
    123 -> 38 [penwidth=2]
    123 -> 33 [penwidth=2]
    123 -> 236 [penwidth=2]
    123 -> 308 [penwidth=2]
    123 -> 253 [penwidth=2]
    123 -> 307 [penwidth=2]
    123 -> 287 [penwidth=2]
    123 -> 47 [penwidth=2]
    123 -> 44 [penwidth=2]
    123 -> 242 [penwidth=2]
    123 -> 247 [penwidth=2]
    123 -> 298 [penwidth=2]
    123 -> 246 [penwidth=2]
    123 -> 27 [penwidth=2]
    123 -> 40 [penwidth=2]
    123 -> 31 [penwidth=2]
    123 -> 39 [penwidth=2]
    123 -> 48 [penwidth=2]
    123 -> 32 [penwidth=2]
    123 -> 284 [penwidth=2]
    123 -> 303 [penwidth=2]
    123 -> 255 [penwidth=2]
    123 -> 306 [penwidth=2]
    123 -> 26 [penwidth=2]
    123 -> 46 [penwidth=2]
    123 -> 302 [penwidth=2]
    123 -> 243 [penwidth=2]
    131 -> 246 [penwidth=2]
    131 -> 257 [penwidth=2]
    131 -> 297 [penwidth=2]
    131 -> 242 [penwidth=2]
    131 -> 42 [penwidth=2]
    131 -> 33 [penwidth=2]
    131 -> 43 [penwidth=2]
    131 -> 289 [penwidth=2]
    131 -> 29 [penwidth=2]
    131 -> 309 [penwidth=2]
    131 -> 249 [penwidth=2]
    131 -> 44 [penwidth=2]
    131 -> 34 [penwidth=2]
    131 -> 37 [penwidth=2]
    131 -> 303 [penwidth=2]
    131 -> 252 [penwidth=2]
    131 -> 36 [penwidth=2]
    131 -> 260 [penwidth=2]
    131 -> 27 [penwidth=2]
    131 -> 308 [penwidth=2]
    131 -> 243 [penwidth=2]
    131 -> 31 [penwidth=2]
    131 -> 30 [penwidth=2]
    131 -> 41 [penwidth=2]
    131 -> 285 [penwidth=2]
    131 -> 287 [penwidth=2]
    131 -> 50 [penwidth=2]
    131 -> 245 [penwidth=2]
    131 -> 258 [penwidth=2]
    131 -> 299 [penwidth=2]
    131 -> 237 [penwidth=2]
    131 -> 236 [penwidth=2]
    131 -> 305 [penwidth=2]
    133 -> 249 [penwidth=2]
    133 -> 41 [penwidth=2]
    133 -> 51 [penwidth=2]
    133 -> 304 [penwidth=2]
    133 -> 280 [penwidth=2]
    133 -> 303 [penwidth=2]
    133 -> 298 [penwidth=2]
    133 -> 309 [penwidth=2]
    133 -> 297 [penwidth=2]
    133 -> 300 [penwidth=2]
    133 -> 29 [penwidth=2]
    133 -> 45 [penwidth=2]
    133 -> 307 [penwidth=2]
    133 -> 40 [penwidth=2]
    133 -> 47 [penwidth=2]
    133 -> 251 [penwidth=2]
    133 -> 282 [penwidth=2]
    133 -> 46 [penwidth=2]
    133 -> 237 [penwidth=2]
    133 -> 42 [penwidth=2]
    133 -> 239 [penwidth=2]
    133 -> 33 [penwidth=2]
    133 -> 301 [penwidth=2]
    133 -> 246 [penwidth=2]
    133 -> 49 [penwidth=2]
    133 -> 258 [penwidth=2]
    133 -> 289 [penwidth=2]
    133 -> 253 [penwidth=2]
    133 -> 30 [penwidth=2]
    133 -> 35 [penwidth=2]
    133 -> 285 [penwidth=2]
    133 -> 291 [penwidth=2]
    133 -> 281 [penwidth=2]
    133 -> 252 [penwidth=2]
    133 -> 308 [penwidth=2]
    133 -> 32 [penwidth=2]
    133 -> 256 [penwidth=2]
    133 -> 305 [penwidth=2]
    133 -> 38 [penwidth=2]
    133 -> 36 [penwidth=2]
    133 -> 27 [penwidth=2]
    133 -> 283 [penwidth=2]
    133 -> 31 [penwidth=2]
    133 -> 244 [penwidth=2]
    133 -> 248 [penwidth=2]
    133 -> 43 [penwidth=2]
    133 -> 284 [penwidth=2]
    133 -> 287 [penwidth=2]
    133 -> 242 [penwidth=2]
    133 -> 34 [penwidth=2]
    133 -> 48 [penwidth=2]
    133 -> 28 [penwidth=2]
    133 -> 306 [penwidth=2]
    133 -> 261 [penwidth=2]
    133 -> 243 [penwidth=2]
    133 -> 257 [penwidth=2]
    133 -> 240 [penwidth=2]
    133 -> 260 [penwidth=2]
    133 -> 241 [penwidth=2]
    133 -> 254 [penwidth=2]
    133 -> 247 [penwidth=2]
    133 -> 255 [penwidth=2]
    133 -> 44 [penwidth=2]
    133 -> 50 [penwidth=2]
    133 -> 250 [penwidth=2]
    133 -> 259 [penwidth=2]
    133 -> 39 [penwidth=2]
    133 -> 302 [penwidth=2]
    133 -> 299 [penwidth=2]
    133 -> 236 [penwidth=2]
    133 -> 26 [penwidth=2]
    135 -> 282 [penwidth=2]
    135 -> 236 [penwidth=2]
    135 -> 253 [penwidth=2]
    135 -> 50 [penwidth=2]
    135 -> 31 [penwidth=2]
    135 -> 237 [penwidth=2]
    135 -> 305 [penwidth=2]
    135 -> 37 [penwidth=2]
    135 -> 298 [penwidth=2]
    135 -> 281 [penwidth=2]
    135 -> 26 [penwidth=2]
    135 -> 34 [penwidth=2]
    135 -> 48 [penwidth=2]
    135 -> 32 [penwidth=2]
    135 -> 261 [penwidth=2]
    135 -> 257 [penwidth=2]
    135 -> 240 [penwidth=2]
    135 -> 36 [penwidth=2]
    135 -> 297 [penwidth=2]
    135 -> 243 [penwidth=2]
    135 -> 249 [penwidth=2]
    135 -> 246 [penwidth=2]
    135 -> 250 [penwidth=2]
    135 -> 306 [penwidth=2]
    135 -> 308 [penwidth=2]
    135 -> 247 [penwidth=2]
    135 -> 289 [penwidth=2]
    135 -> 30 [penwidth=2]
    135 -> 309 [penwidth=2]
    135 -> 38 [penwidth=2]
    135 -> 42 [penwidth=2]
    135 -> 46 [penwidth=2]
    135 -> 251 [penwidth=2]
    135 -> 255 [penwidth=2]
    135 -> 43 [penwidth=2]
    135 -> 239 [penwidth=2]
    135 -> 256 [penwidth=2]
    135 -> 304 [penwidth=2]
    135 -> 39 [penwidth=2]
    135 -> 285 [penwidth=2]
    135 -> 242 [penwidth=2]
    135 -> 45 [penwidth=2]
    135 -> 302 [penwidth=2]
    135 -> 303 [penwidth=2]
    135 -> 244 [penwidth=2]
    135 -> 260 [penwidth=2]
    135 -> 301 [penwidth=2]
    135 -> 245 [penwidth=2]
    135 -> 27 [penwidth=2]
    135 -> 29 [penwidth=2]
    135 -> 241 [penwidth=2]
    135 -> 49 [penwidth=2]
    135 -> 44 [penwidth=2]
    135 -> 33 [penwidth=2]
    135 -> 40 [penwidth=2]
    135 -> 291 [penwidth=2]
    135 -> 283 [penwidth=2]
    5 -> 48 [penwidth=2]
    12 -> 39 [penwidth=2]
    12 -> 248 [penwidth=2]
    12 -> 254 [penwidth=2]
    12 -> 244 [penwidth=2]
    12 -> 37 [penwidth=2]
    12 -> 302 [penwidth=2]
    12 -> 243 [penwidth=2]
    12 -> 261 [penwidth=2]
    12 -> 28 [penwidth=2]
    12 -> 258 [penwidth=2]
    12 -> 26 [penwidth=2]
    12 -> 298 [penwidth=2]
    12 -> 297 [penwidth=2]
    12 -> 303 [penwidth=2]
    12 -> 301 [penwidth=2]
    12 -> 31 [penwidth=2]
    12 -> 249 [penwidth=2]
    12 -> 287 [penwidth=2]
    12 -> 51 [penwidth=2]
    12 -> 34 [penwidth=2]
    12 -> 257 [penwidth=2]
    12 -> 42 [penwidth=2]
    12 -> 281 [penwidth=2]
    12 -> 280 [penwidth=2]
    12 -> 284 [penwidth=2]
    12 -> 49 [penwidth=2]
    12 -> 304 [penwidth=2]
    12 -> 35 [penwidth=2]
    12 -> 50 [penwidth=2]
    12 -> 283 [penwidth=2]
    12 -> 41 [penwidth=2]
    12 -> 307 [penwidth=2]
    12 -> 237 [penwidth=2]
    12 -> 245 [penwidth=2]
    12 -> 27 [penwidth=2]
    12 -> 305 [penwidth=2]
    12 -> 309 [penwidth=2]
    12 -> 285 [penwidth=2]
    12 -> 252 [penwidth=2]
    12 -> 236 [penwidth=2]
    12 -> 33 [penwidth=2]
    12 -> 291 [penwidth=2]
    12 -> 40 [penwidth=2]
    12 -> 300 [penwidth=2]
    12 -> 45 [penwidth=2]
    12 -> 44 [penwidth=2]
    12 -> 299 [penwidth=2]
    12 -> 282 [penwidth=2]
    12 -> 238 [penwidth=2]
    12 -> 30 [penwidth=2]
    12 -> 43 [penwidth=2]
    151 -> 252 [penwidth=2]
    151 -> 36 [penwidth=2]
    151 -> 31 [penwidth=2]
    151 -> 241 [penwidth=2]
    151 -> 26 [penwidth=2]
    151 -> 280 [penwidth=2]
    151 -> 50 [penwidth=2]
    151 -> 29 [penwidth=2]
    151 -> 249 [penwidth=2]
    151 -> 44 [penwidth=2]
    151 -> 244 [penwidth=2]
    151 -> 33 [penwidth=2]
    151 -> 289 [penwidth=2]
    151 -> 297 [penwidth=2]
    151 -> 258 [penwidth=2]
    151 -> 47 [penwidth=2]
    151 -> 243 [penwidth=2]
    151 -> 247 [penwidth=2]
    151 -> 35 [penwidth=2]
    151 -> 37 [penwidth=2]
    151 -> 28 [penwidth=2]
    151 -> 283 [penwidth=2]
    151 -> 34 [penwidth=2]
    151 -> 309 [penwidth=2]
    151 -> 250 [penwidth=2]
    151 -> 285 [penwidth=2]
    151 -> 27 [penwidth=2]
    151 -> 281 [penwidth=2]
    151 -> 308 [penwidth=2]
    151 -> 302 [penwidth=2]
    151 -> 257 [penwidth=2]
    151 -> 291 [penwidth=2]
    151 -> 240 [penwidth=2]
    151 -> 238 [penwidth=2]
    151 -> 306 [penwidth=2]
    151 -> 253 [penwidth=2]
    151 -> 251 [penwidth=2]
    151 -> 304 [penwidth=2]
    151 -> 49 [penwidth=2]
    151 -> 287 [penwidth=2]
    151 -> 242 [penwidth=2]
    151 -> 261 [penwidth=2]
    151 -> 246 [penwidth=2]
    151 -> 260 [penwidth=2]
    151 -> 245 [penwidth=2]
    151 -> 237 [penwidth=2]
    151 -> 45 [penwidth=2]
    151 -> 303 [penwidth=2]
    151 -> 254 [penwidth=2]
    151 -> 41 [penwidth=2]
    151 -> 48 [penwidth=2]
    151 -> 259 [penwidth=2]
    151 -> 300 [penwidth=2]
    71 -> 256 [penwidth=2]
    71 -> 289 [penwidth=2]
    71 -> 257 [penwidth=2]
    71 -> 242 [penwidth=2]
    71 -> 249 [penwidth=2]
    71 -> 46 [penwidth=2]
    71 -> 301 [penwidth=2]
    71 -> 308 [penwidth=2]
    71 -> 27 [penwidth=2]
    71 -> 37 [penwidth=2]
    71 -> 41 [penwidth=2]
    71 -> 280 [penwidth=2]
    71 -> 39 [penwidth=2]
    71 -> 241 [penwidth=2]
    71 -> 305 [penwidth=2]
    71 -> 252 [penwidth=2]
    71 -> 244 [penwidth=2]
    71 -> 42 [penwidth=2]
    71 -> 261 [penwidth=2]
    71 -> 299 [penwidth=2]
    71 -> 259 [penwidth=2]
    71 -> 300 [penwidth=2]
    71 -> 29 [penwidth=2]
    71 -> 43 [penwidth=2]
    71 -> 35 [penwidth=2]
    71 -> 284 [penwidth=2]
    71 -> 237 [penwidth=2]
    71 -> 291 [penwidth=2]
    71 -> 49 [penwidth=2]
    71 -> 304 [penwidth=2]
    71 -> 33 [penwidth=2]
    71 -> 47 [penwidth=2]
    71 -> 282 [penwidth=2]
    71 -> 258 [penwidth=2]
    71 -> 30 [penwidth=2]
    71 -> 309 [penwidth=2]
    71 -> 50 [penwidth=2]
    155 -> 257 [penwidth=2]
    155 -> 299 [penwidth=2]
    155 -> 287 [penwidth=2]
    155 -> 242 [penwidth=2]
    155 -> 305 [penwidth=2]
    155 -> 241 [penwidth=2]
    155 -> 28 [penwidth=2]
    155 -> 43 [penwidth=2]
    155 -> 50 [penwidth=2]
    155 -> 238 [penwidth=2]
    155 -> 281 [penwidth=2]
    155 -> 297 [penwidth=2]
    155 -> 248 [penwidth=2]
    155 -> 308 [penwidth=2]
    155 -> 250 [penwidth=2]
    155 -> 45 [penwidth=2]
    155 -> 32 [penwidth=2]
    155 -> 49 [penwidth=2]
    155 -> 300 [penwidth=2]
    155 -> 30 [penwidth=2]
    155 -> 243 [penwidth=2]
    155 -> 298 [penwidth=2]
    155 -> 252 [penwidth=2]
    155 -> 304 [penwidth=2]
    155 -> 236 [penwidth=2]
    155 -> 282 [penwidth=2]
    155 -> 40 [penwidth=2]
    155 -> 35 [penwidth=2]
    155 -> 301 [penwidth=2]
    155 -> 34 [penwidth=2]
    155 -> 251 [penwidth=2]
    155 -> 240 [penwidth=2]
    155 -> 249 [penwidth=2]
    155 -> 27 [penwidth=2]
    155 -> 246 [penwidth=2]
    155 -> 26 [penwidth=2]
    155 -> 289 [penwidth=2]
    155 -> 38 [penwidth=2]
    155 -> 291 [penwidth=2]
    155 -> 51 [penwidth=2]
    155 -> 307 [penwidth=2]
    155 -> 302 [penwidth=2]
    155 -> 280 [penwidth=2]
    155 -> 48 [penwidth=2]
    155 -> 256 [penwidth=2]
    155 -> 44 [penwidth=2]
    155 -> 42 [penwidth=2]
    155 -> 41 [penwidth=2]
    155 -> 283 [penwidth=2]
    155 -> 245 [penwidth=2]
    155 -> 36 [penwidth=2]
    155 -> 285 [penwidth=2]
    155 -> 237 [penwidth=2]
    155 -> 247 [penwidth=2]
    75 -> 245 [penwidth=2]
    75 -> 297 [penwidth=2]
    75 -> 282 [penwidth=2]
    75 -> 285 [penwidth=2]
    75 -> 255 [penwidth=2]
    75 -> 251 [penwidth=2]
    75 -> 254 [penwidth=2]
    75 -> 39 [penwidth=2]
    75 -> 306 [penwidth=2]
    75 -> 247 [penwidth=2]
    75 -> 27 [penwidth=2]
    75 -> 246 [penwidth=2]
    75 -> 287 [penwidth=2]
    75 -> 47 [penwidth=2]
    75 -> 303 [penwidth=2]
    75 -> 35 [penwidth=2]
    75 -> 284 [penwidth=2]
    75 -> 304 [penwidth=2]
    75 -> 299 [penwidth=2]
    75 -> 289 [penwidth=2]
    75 -> 305 [penwidth=2]
    75 -> 42 [penwidth=2]
    75 -> 30 [penwidth=2]
    75 -> 302 [penwidth=2]
    75 -> 43 [penwidth=2]
    75 -> 37 [penwidth=2]
    75 -> 307 [penwidth=2]
    75 -> 308 [penwidth=2]
    75 -> 33 [penwidth=2]
    75 -> 281 [penwidth=2]
    75 -> 256 [penwidth=2]
    75 -> 301 [penwidth=2]
    75 -> 49 [penwidth=2]
    75 -> 261 [penwidth=2]
    75 -> 240 [penwidth=2]
    75 -> 41 [penwidth=2]
    75 -> 248 [penwidth=2]
    75 -> 238 [penwidth=2]
    75 -> 249 [penwidth=2]
    75 -> 243 [penwidth=2]
    75 -> 237 [penwidth=2]
    75 -> 252 [penwidth=2]
    75 -> 300 [penwidth=2]
    75 -> 283 [penwidth=2]
    75 -> 259 [penwidth=2]
    76 -> 257 [penwidth=2]
    76 -> 260 [penwidth=2]
    76 -> 251 [penwidth=2]
    76 -> 44 [penwidth=2]
    76 -> 48 [penwidth=2]
    76 -> 245 [penwidth=2]
    76 -> 26 [penwidth=2]
    76 -> 283 [penwidth=2]
    76 -> 32 [penwidth=2]
    76 -> 303 [penwidth=2]
    76 -> 36 [penwidth=2]
    76 -> 281 [penwidth=2]
    76 -> 31 [penwidth=2]
    76 -> 249 [penwidth=2]
    76 -> 306 [penwidth=2]
    76 -> 298 [penwidth=2]
    76 -> 291 [penwidth=2]
    76 -> 33 [penwidth=2]
    76 -> 248 [penwidth=2]
    76 -> 244 [penwidth=2]
    76 -> 300 [penwidth=2]
    76 -> 40 [penwidth=2]
    76 -> 37 [penwidth=2]
    76 -> 30 [penwidth=2]
    76 -> 247 [penwidth=2]
    76 -> 282 [penwidth=2]
    76 -> 254 [penwidth=2]
    76 -> 35 [penwidth=2]
    76 -> 304 [penwidth=2]
    76 -> 46 [penwidth=2]
    76 -> 49 [penwidth=2]
    81 -> 257 [penwidth=2]
    81 -> 238 [penwidth=2]
    81 -> 43 [penwidth=2]
    81 -> 250 [penwidth=2]
    81 -> 47 [penwidth=2]
    81 -> 300 [penwidth=2]
    81 -> 247 [penwidth=2]
    81 -> 33 [penwidth=2]
    81 -> 31 [penwidth=2]
    81 -> 237 [penwidth=2]
    81 -> 258 [penwidth=2]
    81 -> 285 [penwidth=2]
    81 -> 251 [penwidth=2]
    81 -> 28 [penwidth=2]
    81 -> 243 [penwidth=2]
    81 -> 244 [penwidth=2]
    81 -> 51 [penwidth=2]
    81 -> 32 [penwidth=2]
    81 -> 40 [penwidth=2]
    87 -> 44 [penwidth=2]
    87 -> 236 [penwidth=2]
    87 -> 251 [penwidth=2]
    87 -> 284 [penwidth=2]
    87 -> 28 [penwidth=2]
    87 -> 48 [penwidth=2]
    87 -> 37 [penwidth=2]
    87 -> 258 [penwidth=2]
    87 -> 246 [penwidth=2]
    87 -> 243 [penwidth=2]
    87 -> 31 [penwidth=2]
    87 -> 250 [penwidth=2]
    87 -> 281 [penwidth=2]
    87 -> 237 [penwidth=2]
    87 -> 26 [penwidth=2]
    87 -> 239 [penwidth=2]
    87 -> 34 [penwidth=2]
    87 -> 259 [penwidth=2]
    87 -> 247 [penwidth=2]
    87 -> 249 [penwidth=2]
    87 -> 287 [penwidth=2]
    87 -> 29 [penwidth=2]
    87 -> 35 [penwidth=2]
    87 -> 260 [penwidth=2]
    87 -> 238 [penwidth=2]
    87 -> 309 [penwidth=2]
    87 -> 38 [penwidth=2]
    87 -> 47 [penwidth=2]
    87 -> 254 [penwidth=2]
    87 -> 46 [penwidth=2]
    87 -> 298 [penwidth=2]
    87 -> 245 [penwidth=2]
    87 -> 39 [penwidth=2]
    87 -> 300 [penwidth=2]
    87 -> 252 [penwidth=2]
    87 -> 304 [penwidth=2]
    87 -> 248 [penwidth=2]
    87 -> 306 [penwidth=2]
    87 -> 280 [penwidth=2]
    87 -> 253 [penwidth=2]
    93 -> 305 [penwidth=2]
    93 -> 282 [penwidth=2]
    93 -> 44 [penwidth=2]
    93 -> 291 [penwidth=2]
    93 -> 42 [penwidth=2]
    93 -> 280 [penwidth=2]
    93 -> 303 [penwidth=2]
    93 -> 287 [penwidth=2]
    93 -> 253 [penwidth=2]
    93 -> 34 [penwidth=2]
    93 -> 35 [penwidth=2]
    93 -> 240 [penwidth=2]
    93 -> 309 [penwidth=2]
    93 -> 283 [penwidth=2]
    93 -> 244 [penwidth=2]
    93 -> 300 [penwidth=2]
    93 -> 39 [penwidth=2]
    93 -> 306 [penwidth=2]
    93 -> 26 [penwidth=2]
    93 -> 259 [penwidth=2]
    93 -> 289 [penwidth=2]
    93 -> 245 [penwidth=2]
    93 -> 41 [penwidth=2]
    93 -> 246 [penwidth=2]
    93 -> 29 [penwidth=2]
    93 -> 236 [penwidth=2]
    93 -> 302 [penwidth=2]
    93 -> 237 [penwidth=2]
    93 -> 281 [penwidth=2]
    93 -> 31 [penwidth=2]
    93 -> 49 [penwidth=2]
    93 -> 299 [penwidth=2]
    181 -> 258 [penwidth=2]
    181 -> 29 [penwidth=2]
    181 -> 300 [penwidth=2]
    181 -> 256 [penwidth=2]
    181 -> 238 [penwidth=2]
    181 -> 243 [penwidth=2]
    181 -> 285 [penwidth=2]
    181 -> 260 [penwidth=2]
    181 -> 47 [penwidth=2]
    181 -> 45 [penwidth=2]
    181 -> 299 [penwidth=2]
    181 -> 35 [penwidth=2]
    181 -> 247 [penwidth=2]
    181 -> 297 [penwidth=2]
    181 -> 239 [penwidth=2]
    181 -> 255 [penwidth=2]
    181 -> 302 [penwidth=2]
    181 -> 36 [penwidth=2]
    181 -> 49 [penwidth=2]
    181 -> 28 [penwidth=2]
    181 -> 306 [penwidth=2]
    181 -> 31 [penwidth=2]
    181 -> 43 [penwidth=2]
    181 -> 248 [penwidth=2]
    181 -> 253 [penwidth=2]
    181 -> 242 [penwidth=2]
    181 -> 40 [penwidth=2]
    181 -> 304 [penwidth=2]
    181 -> 287 [penwidth=2]
    181 -> 289 [penwidth=2]
    181 -> 250 [penwidth=2]
    181 -> 284 [penwidth=2]
    181 -> 249 [penwidth=2]
    181 -> 307 [penwidth=2]
    181 -> 308 [penwidth=2]
    181 -> 42 [penwidth=2]
    181 -> 32 [penwidth=2]
    181 -> 251 [penwidth=2]
    101 -> 247 [penwidth=2]
    101 -> 248 [penwidth=2]
    101 -> 302 [penwidth=2]
    101 -> 255 [penwidth=2]
    101 -> 43 [penwidth=2]
    101 -> 41 [penwidth=2]
    101 -> 305 [penwidth=2]
    101 -> 250 [penwidth=2]
    101 -> 31 [penwidth=2]
    101 -> 30 [penwidth=2]
    101 -> 306 [penwidth=2]
    101 -> 298 [penwidth=2]
    101 -> 33 [penwidth=2]
    101 -> 29 [penwidth=2]
    101 -> 51 [penwidth=2]
    101 -> 36 [penwidth=2]
    101 -> 26 [penwidth=2]
    101 -> 283 [penwidth=2]
    101 -> 291 [penwidth=2]
    101 -> 254 [penwidth=2]
    101 -> 244 [penwidth=2]
    101 -> 280 [penwidth=2]
    101 -> 47 [penwidth=2]
    101 -> 256 [penwidth=2]
    101 -> 253 [penwidth=2]
    101 -> 303 [penwidth=2]
    101 -> 44 [penwidth=2]
    101 -> 300 [penwidth=2]
    101 -> 34 [penwidth=2]
    101 -> 281 [penwidth=2]
    101 -> 289 [penwidth=2]
    101 -> 45 [penwidth=2]
    101 -> 260 [penwidth=2]
    101 -> 251 [penwidth=2]
    101 -> 37 [penwidth=2]
    101 -> 39 [penwidth=2]
    101 -> 46 [penwidth=2]
    101 -> 252 [penwidth=2]
    101 -> 241 [penwidth=2]
    101 -> 246 [penwidth=2]
    101 -> 237 [penwidth=2]
    101 -> 243 [penwidth=2]
    101 -> 257 [penwidth=2]
    101 -> 42 [penwidth=2]
    101 -> 259 [penwidth=2]
    101 -> 40 [penwidth=2]
    101 -> 309 [penwidth=2]
    101 -> 285 [penwidth=2]
    190 -> 46 [penwidth=2]
    190 -> 250 [penwidth=2]
    190 -> 302 [penwidth=2]
    190 -> 50 [penwidth=2]
    190 -> 309 [penwidth=2]
    190 -> 35 [penwidth=2]
    190 -> 281 [penwidth=2]
    190 -> 44 [penwidth=2]
    190 -> 300 [penwidth=2]
    190 -> 298 [penwidth=2]
    190 -> 256 [penwidth=2]
    190 -> 31 [penwidth=2]
    190 -> 47 [penwidth=2]
    190 -> 247 [penwidth=2]
    190 -> 45 [penwidth=2]
    190 -> 249 [penwidth=2]
    190 -> 40 [penwidth=2]
    190 -> 287 [penwidth=2]
    190 -> 36 [penwidth=2]
    190 -> 42 [penwidth=2]
    190 -> 306 [penwidth=2]
    190 -> 28 [penwidth=2]
    190 -> 301 [penwidth=2]
    190 -> 48 [penwidth=2]
    190 -> 29 [penwidth=2]
    190 -> 26 [penwidth=2]
    190 -> 283 [penwidth=2]
    190 -> 244 [penwidth=2]
    190 -> 237 [penwidth=2]
    190 -> 254 [penwidth=2]
    190 -> 304 [penwidth=2]
    190 -> 241 [penwidth=2]
    190 -> 246 [penwidth=2]
    190 -> 285 [penwidth=2]
    190 -> 297 [penwidth=2]
    190 -> 39 [penwidth=2]
    190 -> 305 [penwidth=2]
    204 -> 253 [penwidth=2]
    204 -> 41 [penwidth=2]
    204 -> 35 [penwidth=2]
    204 -> 281 [penwidth=2]
    204 -> 246 [penwidth=2]
    204 -> 51 [penwidth=2]
    204 -> 45 [penwidth=2]
    204 -> 39 [penwidth=2]
    204 -> 37 [penwidth=2]
    204 -> 302 [penwidth=2]
    204 -> 26 [penwidth=2]
    204 -> 34 [penwidth=2]
    204 -> 247 [penwidth=2]
    204 -> 304 [penwidth=2]
    204 -> 308 [penwidth=2]
    204 -> 298 [penwidth=2]
    204 -> 43 [penwidth=2]
    204 -> 301 [penwidth=2]
    204 -> 237 [penwidth=2]
    204 -> 49 [penwidth=2]
    204 -> 250 [penwidth=2]
    204 -> 245 [penwidth=2]
    204 -> 249 [penwidth=2]
    204 -> 256 [penwidth=2]
    204 -> 280 [penwidth=2]
    204 -> 47 [penwidth=2]
    204 -> 299 [penwidth=2]
    204 -> 287 [penwidth=2]
    204 -> 248 [penwidth=2]
    204 -> 42 [penwidth=2]
    204 -> 291 [penwidth=2]
    204 -> 243 [penwidth=2]
    204 -> 259 [penwidth=2]
    204 -> 242 [penwidth=2]
    204 -> 257 [penwidth=2]
    204 -> 255 [penwidth=2]
    204 -> 30 [penwidth=2]
    204 -> 297 [penwidth=2]
    204 -> 252 [penwidth=2]
    204 -> 251 [penwidth=2]
    204 -> 300 [penwidth=2]
    204 -> 50 [penwidth=2]
    204 -> 261 [penwidth=2]
    204 -> 260 [penwidth=2]
    204 -> 258 [penwidth=2]
    204 -> 282 [penwidth=2]
    204 -> 254 [penwidth=2]
    204 -> 284 [penwidth=2]
    204 -> 305 [penwidth=2]
    204 -> 236 [penwidth=2]
    204 -> 239 [penwidth=2]
    204 -> 29 [penwidth=2]
    204 -> 38 [penwidth=2]
    204 -> 238 [penwidth=2]
    204 -> 309 [penwidth=2]
    204 -> 283 [penwidth=2]
    204 -> 306 [penwidth=2]
    204 -> 33 [penwidth=2]
    204 -> 28 [penwidth=2]
    204 -> 307 [penwidth=2]
    204 -> 244 [penwidth=2]
    204 -> 289 [penwidth=2]
    204 -> 240 [penwidth=2]
    204 -> 32 [penwidth=2]
    204 -> 40 [penwidth=2]
    204 -> 46 [penwidth=2]
    204 -> 303 [penwidth=2]
    226 -> 47 [penwidth=2]
    226 -> 27 [penwidth=2]
    226 -> 37 [penwidth=2]
    226 -> 48 [penwidth=2]
    226 -> 45 [penwidth=2]
    226 -> 282 [penwidth=2]
    226 -> 42 [penwidth=2]
    226 -> 243 [penwidth=2]
    226 -> 297 [penwidth=2]
    226 -> 307 [penwidth=2]
    226 -> 46 [penwidth=2]
    226 -> 280 [penwidth=2]
    226 -> 289 [penwidth=2]
    226 -> 281 [penwidth=2]
    226 -> 29 [penwidth=2]
    226 -> 43 [penwidth=2]
    226 -> 299 [penwidth=2]
    226 -> 287 [penwidth=2]
    226 -> 257 [penwidth=2]
    226 -> 254 [penwidth=2]
    226 -> 50 [penwidth=2]
    226 -> 283 [penwidth=2]
    226 -> 244 [penwidth=2]
    226 -> 305 [penwidth=2]
    226 -> 242 [penwidth=2]
    226 -> 302 [penwidth=2]
    226 -> 26 [penwidth=2]
}