digraph G {
    0 [penwidth=3,label="0"]
    1 [penwidth=3,label="1"]
    2 [penwidth=3,label="2"]
    3 [penwidth=3,label="3"]
    4 [penwidth=3,label="4"]
    5 [penwidth=3,label="5"]
    6 [penwidth=3,label="6"]
    7 [penwidth=3,label="7"]
    8 [penwidth=3,label="8"]
    9 [penwidth=3,label="9"]
    10 [penwidth=3,label="10"]
    11 [penwidth=3,label="11"]
    12 [penwidth=3,label="12"]
    13 [penwidth=3,label="13"]
    14 [penwidth=3,label="14"]
    15 [penwidth=3,label="15"]
    16 [penwidth=3,label="16"]
    17 [penwidth=3,label="17"]
    18 [penwidth=3,label="18"]
    19 [penwidth=3,label="19"]
    20 [penwidth=3,label="20"]
    21 [penwidth=3,label="21"]
    22 [penwidth=3,label="22"]
    23 [penwidth=3,label="23"]
    24 [penwidth=3,label="24"]
    25 [penwidth=3,label="25"]
    26 [penwidth=3,label="26"]
    27 [penwidth=3,label="27"]
    28 [penwidth=3,label="28"]
    29 [penwidth=3,label="29"]
    30 [penwidth=3,label="30"]
    31 [penwidth=3,label="31"]
    32 [penwidth=3,label="32"]
    33 [penwidth=3,label="33"]
    34 [penwidth=3,label="34"]
    35 [penwidth=3,label="35"]
    36 [penwidth=3,label="36"]
    37 [penwidth=3,label="37"]
    38 [penwidth=3,label="38"]
    39 [penwidth=3,label="39"]
    40 [penwidth=3,label="40"]
    41 [penwidth=3,label="41"]
    42 [penwidth=3,label="42"]
    43 [penwidth=3,label="43"]
    44 [penwidth=3,label="44"]
    45 [penwidth=3,label="45"]
    46 [penwidth=3,label="46"]
    47 [penwidth=3,label="47"]
    48 [penwidth=3,label="48"]
    49 [penwidth=3,label="49"]
    50 [penwidth=3,label="50"]
    51 [penwidth=3,label="51"]
    52 [penwidth=3,label="52"]
    53 [penwidth=3,label="53"]
    54 [penwidth=3,label="54"]
    55 [penwidth=3,label="55"]
    56 [penwidth=3,label="56"]
    57 [penwidth=3,label="57"]
    58 [penwidth=3,label="58"]
    59 [penwidth=3,label="59"]
    60 [penwidth=3,label="60"]
    61 [penwidth=3,label="61"]
    62 [penwidth=3,label="62"]
    63 [penwidth=3,label="63"]
    64 [penwidth=3,label="64"]
    65 [penwidth=3,label="65"]
    66 [penwidth=3,label="66"]
    67 [penwidth=3,label="67"]
    68 [penwidth=3,label="68"]
    69 [penwidth=3,label="69"]
    70 [penwidth=3,label="70"]
    71 [penwidth=3,label="71"]
    72 [penwidth=3,label="72"]
    73 [penwidth=3,label="73"]
    74 [penwidth=3,label="74"]
    75 [penwidth=3,label="75"]
    76 [penwidth=3,label="76"]
    77 [penwidth=3,label="77"]
    78 [penwidth=3,label="78"]
    79 [penwidth=3,label="79"]
    80 [penwidth=3,label="80"]
    81 [penwidth=3,label="81"]
    82 [penwidth=3,label="82"]
    83 [penwidth=3,label="83"]
    84 [penwidth=3,label="84"]
    85 [penwidth=3,label="85"]
    86 [penwidth=3,label="86"]
    87 [penwidth=3,label="87"]
    88 [penwidth=3,label="88"]
    89 [penwidth=3,label="89"]
    90 [penwidth=3,label="90"]
    91 [penwidth=3,label="91"]
    92 [penwidth=3,label="92"]
    93 [penwidth=3,label="93"]
    94 [penwidth=3,label="94"]
    95 [penwidth=3,label="95"]
    96 [penwidth=3,label="96"]
    97 [penwidth=3,label="97"]
    98 [penwidth=3,label="98"]
    99 [penwidth=3,label="99"]
    100 [penwidth=3,label="100"]
    101 [penwidth=3,label="101"]
    102 [penwidth=3,label="102"]
    103 [penwidth=3,label="103"]
    104 [penwidth=3,label="104"]
    105 [penwidth=3,label="105"]
    106 [penwidth=3,label="106"]
    107 [penwidth=3,label="107"]
    108 [penwidth=3,label="108"]
    109 [penwidth=3,label="109"]
    110 [penwidth=3,label="110"]
    111 [penwidth=3,label="111"]
    112 [penwidth=3,label="112"]
    113 [penwidth=3,label="113"]
    114 [penwidth=3,label="114"]
    115 [penwidth=3,label="115"]
    116 [penwidth=3,label="116"]
    117 [penwidth=3,label="117"]
    118 [penwidth=3,label="118"]
    119 [penwidth=3,label="119"]
    120 [penwidth=3,label="120"]
    121 [penwidth=3,label="121"]
    122 [penwidth=3,label="122"]
    123 [penwidth=3,label="123"]
    124 [penwidth=3,label="124"]
    125 [penwidth=3,label="125"]
    126 [penwidth=3,label="126"]
    127 [penwidth=3,label="127"]
    128 [penwidth=3,label="128"]
    129 [penwidth=3,label="129"]
    130 [penwidth=3,label="130"]
    131 [penwidth=3,label="131"]
    132 [penwidth=3,label="132"]
    133 [penwidth=3,label="133"]
    134 [penwidth=3,label="134"]
    135 [penwidth=3,label="135"]
    136 [penwidth=3,label="136"]
    137 [penwidth=3,label="137"]
    138 [penwidth=3,label="138"]
    139 [penwidth=3,label="139"]
    140 [penwidth=3,label="140"]
    141 [penwidth=3,label="141"]
    142 [penwidth=3,label="142"]
    143 [penwidth=3,label="143"]
    144 [penwidth=3,label="144"]
    145 [penwidth=3,label="145"]
    146 [penwidth=3,label="146"]
    147 [penwidth=3,label="147"]
    148 [penwidth=3,label="148"]
    149 [penwidth=3,label="149"]
    150 [penwidth=3,label="150"]
    151 [penwidth=3,label="151"]
    152 [penwidth=3,label="152"]
    153 [penwidth=3,label="153"]
    154 [penwidth=3,label="154"]
    155 [penwidth=3,label="155"]
    156 [penwidth=3,label="156"]
    157 [penwidth=3,label="157"]
    158 [penwidth=3,label="158"]
    159 [penwidth=3,label="159"]
    160 [penwidth=3,label="160"]
    161 [penwidth=3,label="161"]
    162 [penwidth=3,label="162"]
    163 [penwidth=3,label="163"]
    164 [penwidth=3,label="164"]
    165 [penwidth=3,label="165"]
    166 [penwidth=3,label="166"]
    167 [penwidth=3,label="167"]
    168 [penwidth=3,label="168"]
    169 [penwidth=3,label="169"]
    170 [penwidth=3,label="170"]
    171 [penwidth=3,label="171"]
    172 [penwidth=3,label="172"]
    173 [penwidth=3,label="173"]
    174 [penwidth=3,label="174"]
    175 [penwidth=3,label="175"]
    176 [penwidth=3,label="176"]
    177 [penwidth=3,label="177"]
    178 [penwidth=3,label="178"]
    179 [penwidth=3,label="179"]
    180 [penwidth=3,label="180"]
    181 [penwidth=3,label="181"]
    182 [penwidth=3,label="182"]
    183 [penwidth=3,label="183"]
    184 [penwidth=3,label="184"]
    185 [penwidth=3,label="185"]
    186 [penwidth=3,label="186"]
    187 [penwidth=3,label="187"]
    188 [penwidth=3,label="188"]
    189 [penwidth=3,label="189"]
    190 [penwidth=3,label="190"]
    191 [penwidth=3,label="191"]
    192 [penwidth=3,label="192"]
    193 [penwidth=3,label="193"]
    194 [penwidth=3,label="194"]
    195 [penwidth=3,label="195"]
    196 [penwidth=3,label="196"]
    197 [penwidth=3,label="197"]
    198 [penwidth=3,label="198"]
    199 [penwidth=3,label="199"]
    200 [penwidth=3,label="200"]
    201 [penwidth=3,label="201"]
    202 [penwidth=3,label="202"]
    203 [penwidth=3,label="203"]
    204 [penwidth=3,label="204"]
    205 [penwidth=3,label="205"]
    206 [penwidth=3,label="206"]
    207 [penwidth=3,label="207"]
    208 [penwidth=3,label="208"]
    209 [penwidth=3,label="209"]
    210 [penwidth=3,label="210"]
    211 [penwidth=3,label="211"]
    212 [penwidth=3,label="212"]
    213 [penwidth=3,label="213"]
    214 [penwidth=3,label="214"]
    215 [penwidth=3,label="215"]
    216 [penwidth=3,label="216"]
    217 [penwidth=3,label="217"]
    218 [penwidth=3,label="218"]
    219 [penwidth=3,label="219"]
    220 [penwidth=3,label="220"]
    221 [penwidth=3,label="221"]
    222 [penwidth=3,label="222"]
    223 [penwidth=3,label="223"]
    224 [penwidth=3,label="224"]
    225 [penwidth=3,label="225"]
    226 [penwidth=3,label="226"]
    227 [penwidth=3,label="227"]
    228 [penwidth=3,label="228"]
    229 [penwidth=3,label="229"]
    230 [penwidth=3,label="230"]
    231 [penwidth=3,label="231"]
    232 [penwidth=3,label="232"]
    233 [penwidth=3,label="233"]
    234 [penwidth=3,label="234"]
    235 [penwidth=3,label="235"]
    236 [penwidth=3,label="236"]
    237 [penwidth=3,label="237"]
    238 [penwidth=3,label="238"]
    239 [penwidth=3,label="239"]
    240 [penwidth=3,label="240"]
    241 [penwidth=3,label="241"]
    242 [penwidth=3,label="242"]
    243 [penwidth=3,label="243"]
    244 [penwidth=3,label="244"]
    245 [penwidth=3,label="245"]
    246 [penwidth=3,label="246"]
    247 [penwidth=3,label="247"]
    248 [penwidth=3,label="248"]
    249 [penwidth=3,label="249"]
    250 [penwidth=3,label="250"]
    251 [penwidth=3,label="251"]
    252 [penwidth=3,label="252"]
    253 [penwidth=3,label="253"]
    254 [penwidth=3,label="254"]
    255 [penwidth=3,label="255"]
    256 [penwidth=3,label="256"]
    257 [penwidth=3,label="257"]
    258 [penwidth=3,label="258"]
    259 [penwidth=3,label="259"]
    260 [penwidth=3,label="260"]
    261 [penwidth=3,label="261"]
    262 [penwidth=3,label="262"]
    263 [penwidth=3,label="263"]
    264 [penwidth=3,label="264"]
    265 [penwidth=3,label="265"]
    266 [penwidth=3,label="266"]
    267 [penwidth=3,label="267"]
    268 [penwidth=3,label="268"]
    269 [penwidth=3,label="269"]
    270 [penwidth=3,label="270"]
    271 [penwidth=3,label="271"]
    272 [penwidth=3,label="272"]
    273 [penwidth=3,label="273"]
    274 [penwidth=3,label="274"]
    275 [penwidth=3,label="275"]
    276 [penwidth=3,label="276"]
    277 [penwidth=3,label="277"]
    278 [penwidth=3,label="278"]
    279 [penwidth=3,label="279"]
    280 [penwidth=3,label="280"]
    281 [penwidth=3,label="281"]
    282 [penwidth=3,label="282"]
    283 [penwidth=3,label="283"]
    284 [penwidth=3,label="284"]
    285 [penwidth=3,label="285"]
    286 [penwidth=3,label="286"]
    287 [penwidth=3,label="287"]
    288 [penwidth=3,label="288"]
    289 [penwidth=3,label="289"]
    290 [penwidth=3,label="290"]
    291 [penwidth=3,label="291"]
    292 [penwidth=3,label="292"]
    293 [penwidth=3,label="293"]
    294 [penwidth=3,label="294"]
    295 [penwidth=3,label="295"]
    296 [penwidth=3,label="296"]
    297 [penwidth=3,label="297"]
    298 [penwidth=3,label="298"]
    299 [penwidth=3,label="299"]
    300 [penwidth=3,label="300"]
    301 [penwidth=3,label="301"]
    302 [penwidth=3,label="302"]
    303 [penwidth=3,label="303"]
    304 [penwidth=3,label="304"]
    305 [penwidth=3,label="305"]
    306 [penwidth=3,label="306"]
    307 [penwidth=3,label="307"]
    308 [penwidth=3,label="308"]
    309 [penwidth=3,label="309"]

    26 -> 0 [penwidth=2]
    27 -> 0 [penwidth=2]
    28 -> 0 [penwidth=2]
    29 -> 0 [penwidth=2]
    30 -> 0 [penwidth=2]
    31 -> 0 [penwidth=2]
    32 -> 0 [penwidth=2]
    33 -> 0 [penwidth=2]
    34 -> 26 [penwidth=2]
    35 -> 26 [penwidth=2]
    36 -> 26 [penwidth=2]
    37 -> 26 [penwidth=2]
    38 -> 27 [penwidth=2]
    39 -> 27 [penwidth=2]
    40 -> 27 [penwidth=2]
    41 -> 27 [penwidth=2]
    42 -> 27 [penwidth=2]
    43 -> 27 [penwidth=2]
    44 -> 27 [penwidth=2]
    45 -> 28 [penwidth=2]
    46 -> 28 [penwidth=2]
    47 -> 28 [penwidth=2]
    48 -> 28 [penwidth=2]
    49 -> 28 [penwidth=2]
    50 -> 28 [penwidth=2]
    51 -> 28 [penwidth=2]
    52 -> 28 [penwidth=2]
    53 -> 28 [penwidth=2]
    54 -> 28 [penwidth=2]
    55 -> 29 [penwidth=2]
    56 -> 29 [penwidth=2]
    57 -> 29 [penwidth=2]
    58 -> 29 [penwidth=2]
    59 -> 29 [penwidth=2]
    60 -> 29 [penwidth=2]
    61 -> 29 [penwidth=2]
    62 -> 29 [penwidth=2]
    63 -> 29 [penwidth=2]
    64 -> 29 [penwidth=2]
    65 -> 29 [penwidth=2]
    66 -> 29 [penwidth=2]
    67 -> 29 [penwidth=2]
    68 -> 29 [penwidth=2]
    152 -> 29 [penwidth=2]
    69 -> 29 [penwidth=2]
    153 -> 29 [penwidth=2]
    70 -> 29 [penwidth=2]
    154 -> 29 [penwidth=2]
    71 -> 29 [penwidth=2]
    155 -> 29 [penwidth=2]
    72 -> 29 [penwidth=2]
    156 -> 29 [penwidth=2]
    73 -> 29 [penwidth=2]
    157 -> 29 [penwidth=2]
    74 -> 29 [penwidth=2]
    158 -> 30 [penwidth=2]
    75 -> 30 [penwidth=2]
    159 -> 30 [penwidth=2]
    76 -> 30 [penwidth=2]
    160 -> 30 [penwidth=2]
    77 -> 30 [penwidth=2]
    161 -> 30 [penwidth=2]
    78 -> 30 [penwidth=2]
    162 -> 30 [penwidth=2]
    79 -> 30 [penwidth=2]
    163 -> 30 [penwidth=2]
    80 -> 30 [penwidth=2]
    164 -> 30 [penwidth=2]
    81 -> 31 [penwidth=2]
    165 -> 31 [penwidth=2]
    82 -> 31 [penwidth=2]
    166 -> 31 [penwidth=2]
    83 -> 31 [penwidth=2]
    167 -> 31 [penwidth=2]
    84 -> 31 [penwidth=2]
    168 -> 31 [penwidth=2]
    85 -> 31 [penwidth=2]
    169 -> 31 [penwidth=2]
    86 -> 31 [penwidth=2]
    170 -> 31 [penwidth=2]
    87 -> 31 [penwidth=2]
    171 -> 31 [penwidth=2]
    88 -> 32 [penwidth=2]
    172 -> 32 [penwidth=2]
    89 -> 32 [penwidth=2]
    173 -> 32 [penwidth=2]
    90 -> 32 [penwidth=2]
    174 -> 32 [penwidth=2]
    91 -> 32 [penwidth=2]
    175 -> 32 [penwidth=2]
    92 -> 32 [penwidth=2]
    176 -> 32 [penwidth=2]
    93 -> 32 [penwidth=2]
    177 -> 32 [penwidth=2]
    94 -> 32 [penwidth=2]
    178 -> 32 [penwidth=2]
    95 -> 32 [penwidth=2]
    179 -> 32 [penwidth=2]
    96 -> 33 [penwidth=2]
    180 -> 33 [penwidth=2]
    97 -> 33 [penwidth=2]
    181 -> 34 [penwidth=2]
    98 -> 34 [penwidth=2]
    182 -> 34 [penwidth=2]
    99 -> 34 [penwidth=2]
    183 -> 34 [penwidth=2]
    100 -> 34 [penwidth=2]
    184 -> 34 [penwidth=2]
    101 -> 34 [penwidth=2]
    185 -> 34 [penwidth=2]
    102 -> 34 [penwidth=2]
    186 -> 34 [penwidth=2]
    103 -> 34 [penwidth=2]
    187 -> 34 [penwidth=2]
    104 -> 34 [penwidth=2]
    188 -> 34 [penwidth=2]
    105 -> 34 [penwidth=2]
    189 -> 34 [penwidth=2]
    106 -> 34 [penwidth=2]
    190 -> 34 [penwidth=2]
    107 -> 34 [penwidth=2]
    191 -> 35 [penwidth=2]
    108 -> 35 [penwidth=2]
    192 -> 35 [penwidth=2]
    193 -> 35 [penwidth=2]
    109 -> 35 [penwidth=2]
    236 -> 35 [penwidth=2]
    278 -> 35 [penwidth=2]
    237 -> 35 [penwidth=2]
    279 -> 35 [penwidth=2]
    238 -> 35 [penwidth=2]
    280 -> 35 [penwidth=2]
    239 -> 35 [penwidth=2]
    281 -> 35 [penwidth=2]
    240 -> 35 [penwidth=2]
    282 -> 35 [penwidth=2]
    241 -> 35 [penwidth=2]
    283 -> 35 [penwidth=2]
    242 -> 35 [penwidth=2]
    284 -> 35 [penwidth=2]
    243 -> 35 [penwidth=2]
    285 -> 35 [penwidth=2]
    244 -> 35 [penwidth=2]
    286 -> 35 [penwidth=2]
    245 -> 35 [penwidth=2]
    287 -> 35 [penwidth=2]
    246 -> 35 [penwidth=2]
    288 -> 36 [penwidth=2]
    289 -> 36 [penwidth=2]
    247 -> 36 [penwidth=2]
    248 -> 36 [penwidth=2]
    290 -> 36 [penwidth=2]
    249 -> 36 [penwidth=2]
    291 -> 36 [penwidth=2]
    250 -> 36 [penwidth=2]
    292 -> 36 [penwidth=2]
    251 -> 36 [penwidth=2]
    293 -> 36 [penwidth=2]
    294 -> 36 [penwidth=2]
    252 -> 36 [penwidth=2]
    1 -> 36 [penwidth=2]
    253 -> 36 [penwidth=2]
    295 -> 36 [penwidth=2]
    296 -> 36 [penwidth=2]
    2 -> 36 [penwidth=2]
    254 -> 36 [penwidth=2]
    297 -> 36 [penwidth=2]
    255 -> 36 [penwidth=2]
    3 -> 37 [penwidth=2]
    298 -> 37 [penwidth=2]
    4 -> 37 [penwidth=2]
    256 -> 37 [penwidth=2]
    299 -> 37 [penwidth=2]
    5 -> 37 [penwidth=2]
    257 -> 37 [penwidth=2]
    300 -> 37 [penwidth=2]
    6 -> 37 [penwidth=2]
    258 -> 37 [penwidth=2]
    301 -> 37 [penwidth=2]
    7 -> 37 [penwidth=2]
    259 -> 37 [penwidth=2]
    302 -> 37 [penwidth=2]
    8 -> 37 [penwidth=2]
    260 -> 37 [penwidth=2]
    303 -> 37 [penwidth=2]
    9 -> 37 [penwidth=2]
    261 -> 38 [penwidth=2]
    304 -> 38 [penwidth=2]
    10 -> 38 [penwidth=2]
    262 -> 38 [penwidth=2]
    305 -> 38 [penwidth=2]
    11 -> 38 [penwidth=2]
    263 -> 38 [penwidth=2]
    306 -> 38 [penwidth=2]
    12 -> 38 [penwidth=2]
    264 -> 38 [penwidth=2]
    307 -> 38 [penwidth=2]
    13 -> 38 [penwidth=2]
    265 -> 38 [penwidth=2]
    14 -> 38 [penwidth=2]
    266 -> 38 [penwidth=2]
    308 -> 38 [penwidth=2]
    15 -> 38 [penwidth=2]
    267 -> 38 [penwidth=2]
    309 -> 38 [penwidth=2]
    16 -> 39 [penwidth=2]
    268 -> 39 [penwidth=2]
    17 -> 39 [penwidth=2]
    269 -> 39 [penwidth=2]
    18 -> 39 [penwidth=2]
    270 -> 39 [penwidth=2]
    19 -> 39 [penwidth=2]
    271 -> 39 [penwidth=2]
    272 -> 39 [penwidth=2]
    20 -> 39 [penwidth=2]
    21 -> 39 [penwidth=2]
    273 -> 39 [penwidth=2]
    22 -> 39 [penwidth=2]
    274 -> 39 [penwidth=2]
    23 -> 39 [penwidth=2]
    275 -> 39 [penwidth=2]
    276 -> 39 [penwidth=2]
    24 -> 39 [penwidth=2]
    277 -> 39 [penwidth=2]
    25 -> 39 [penwidth=2]
    206 -> 39 [penwidth=2]
    149 -> 39 [penwidth=2]
    233 -> 40 [penwidth=2]
    147 -> 40 [penwidth=2]
    231 -> 40 [penwidth=2]
    145 -> 40 [penwidth=2]
    229 -> 40 [penwidth=2]
    142 -> 40 [penwidth=2]
    227 -> 40 [penwidth=2]
    140 -> 40 [penwidth=2]
    226 -> 40 [penwidth=2]
    138 -> 40 [penwidth=2]
    225 -> 40 [penwidth=2]
    136 -> 40 [penwidth=2]
    224 -> 40 [penwidth=2]
    134 -> 41 [penwidth=2]
    132 -> 41 [penwidth=2]
    223 -> 41 [penwidth=2]
    130 -> 41 [penwidth=2]
    222 -> 41 [penwidth=2]
    128 -> 41 [penwidth=2]
    221 -> 41 [penwidth=2]
    126 -> 41 [penwidth=2]
    220 -> 41 [penwidth=2]
    124 -> 41 [penwidth=2]
    219 -> 41 [penwidth=2]
    122 -> 41 [penwidth=2]
    218 -> 41 [penwidth=2]
    120 -> 41 [penwidth=2]
    217 -> 41 [penwidth=2]
    118 -> 41 [penwidth=2]
    216 -> 41 [penwidth=2]
    116 -> 41 [penwidth=2]
    215 -> 41 [penwidth=2]
    114 -> 41 [penwidth=2]
    214 -> 41 [penwidth=2]
    112 -> 41 [penwidth=2]
    213 -> 41 [penwidth=2]
    111 -> 41 [penwidth=2]
    235 -> 41 [penwidth=2]
    212 -> 42 [penwidth=2]
    211 -> 42 [penwidth=2]
    110 -> 42 [penwidth=2]
    150 -> 42 [penwidth=2]
    234 -> 42 [penwidth=2]
    148 -> 42 [penwidth=2]
    232 -> 42 [penwidth=2]
    146 -> 42 [penwidth=2]
    230 -> 42 [penwidth=2]
    143 -> 42 [penwidth=2]
    228 -> 42 [penwidth=2]
    141 -> 42 [penwidth=2]
    210 -> 42 [penwidth=2]
    139 -> 42 [penwidth=2]
    209 -> 42 [penwidth=2]
    137 -> 42 [penwidth=2]
    208 -> 42 [penwidth=2]
    135 -> 43 [penwidth=2]
    207 -> 43 [penwidth=2]
    133 -> 43 [penwidth=2]
    205 -> 43 [penwidth=2]
    131 -> 43 [penwidth=2]
    204 -> 43 [penwidth=2]
    129 -> 43 [penwidth=2]
    203 -> 43 [penwidth=2]
    127 -> 43 [penwidth=2]
    202 -> 43 [penwidth=2]
    125 -> 43 [penwidth=2]
    201 -> 43 [penwidth=2]
    123 -> 43 [penwidth=2]
    199 -> 43 [penwidth=2]
    121 -> 43 [penwidth=2]
    198 -> 43 [penwidth=2]
    119 -> 43 [penwidth=2]
    197 -> 43 [penwidth=2]
    117 -> 44 [penwidth=2]
    196 -> 44 [penwidth=2]
    115 -> 44 [penwidth=2]
    195 -> 44 [penwidth=2]
    113 -> 44 [penwidth=2]
    194 -> 44 [penwidth=2]
    144 -> 44 [penwidth=2]
    200 -> 44 [penwidth=2]
    151 -> 44 [penwidth=2]
    40 -> 26 [penwidth=2]
    50 -> 31 [penwidth=2]
    80 -> 31 [penwidth=2]
    80 -> 33 [penwidth=2]
    80 -> 26 [penwidth=2]
    80 -> 27 [penwidth=2]
    80 -> 29 [penwidth=2]
    87 -> 32 [penwidth=2]
    87 -> 29 [penwidth=2]
    87 -> 30 [penwidth=2]
    87 -> 33 [penwidth=2]
    178 -> 27 [penwidth=2]
    100 -> 96 [penwidth=2]
    100 -> 89 [penwidth=2]
    100 -> 40 [penwidth=2]
    100 -> 48 [penwidth=2]
    100 -> 65 [penwidth=2]
    100 -> 171 [penwidth=2]
    100 -> 156 [penwidth=2]
    100 -> 81 [penwidth=2]
    100 -> 38 [penwidth=2]
    100 -> 62 [penwidth=2]
    100 -> 77 [penwidth=2]
    100 -> 46 [penwidth=2]
    100 -> 53 [penwidth=2]
    100 -> 80 [penwidth=2]
    100 -> 163 [penwidth=2]
    100 -> 170 [penwidth=2]
    100 -> 58 [penwidth=2]
    100 -> 92 [penwidth=2]
    100 -> 83 [penwidth=2]
    100 -> 87 [penwidth=2]
    100 -> 168 [penwidth=2]
    100 -> 75 [penwidth=2]
    100 -> 164 [penwidth=2]
    100 -> 67 [penwidth=2]
    100 -> 85 [penwidth=2]
    100 -> 41 [penwidth=2]
    100 -> 60 [penwidth=2]
    100 -> 86 [penwidth=2]
    100 -> 37 [penwidth=2]
    100 -> 63 [penwidth=2]
    100 -> 154 [penwidth=2]
    100 -> 165 [penwidth=2]
    100 -> 66 [penwidth=2]
    100 -> 42 [penwidth=2]
    100 -> 36 [penwidth=2]
    100 -> 61 [penwidth=2]
    100 -> 74 [penwidth=2]
    100 -> 161 [penwidth=2]
    100 -> 45 [penwidth=2]
    100 -> 94 [penwidth=2]
    100 -> 158 [penwidth=2]
    100 -> 57 [penwidth=2]
    100 -> 88 [penwidth=2]
    100 -> 155 [penwidth=2]
    100 -> 50 [penwidth=2]
    193 -> 179 [penwidth=2]
    193 -> 83 [penwidth=2]
    193 -> 164 [penwidth=2]
    193 -> 57 [penwidth=2]
    193 -> 92 [penwidth=2]
    193 -> 68 [penwidth=2]
    193 -> 56 [penwidth=2]
    193 -> 180 [penwidth=2]
    193 -> 63 [penwidth=2]
    193 -> 167 [penwidth=2]
    193 -> 44 [penwidth=2]
    193 -> 51 [penwidth=2]
    193 -> 74 [penwidth=2]
    193 -> 97 [penwidth=2]
    193 -> 87 [penwidth=2]
    193 -> 58 [penwidth=2]
    193 -> 91 [penwidth=2]
    193 -> 55 [penwidth=2]
    193 -> 169 [penwidth=2]
    193 -> 93 [penwidth=2]
    193 -> 80 [penwidth=2]
    193 -> 40 [penwidth=2]
    193 -> 171 [penwidth=2]
    193 -> 38 [penwidth=2]
    193 -> 152 [penwidth=2]
    193 -> 159 [penwidth=2]
    193 -> 157 [penwidth=2]
    193 -> 50 [penwidth=2]
    193 -> 95 [penwidth=2]
    193 -> 154 [penwidth=2]
    193 -> 165 [penwidth=2]
    193 -> 65 [penwidth=2]
    193 -> 162 [penwidth=2]
    193 -> 66 [penwidth=2]
    193 -> 52 [penwidth=2]
    193 -> 48 [penwidth=2]
    193 -> 81 [penwidth=2]
    193 -> 89 [penwidth=2]
    193 -> 49 [penwidth=2]
    193 -> 39 [penwidth=2]
    238 -> 63 [penwidth=2]
    238 -> 65 [penwidth=2]
    238 -> 170 [penwidth=2]
    238 -> 97 [penwidth=2]
    238 -> 169 [penwidth=2]
    238 -> 93 [penwidth=2]
    238 -> 164 [penwidth=2]
    238 -> 156 [penwidth=2]
    238 -> 76 [penwidth=2]
    238 -> 48 [penwidth=2]
    238 -> 44 [penwidth=2]
    238 -> 56 [penwidth=2]
    238 -> 176 [penwidth=2]
    238 -> 167 [penwidth=2]
    238 -> 85 [penwidth=2]
    238 -> 66 [penwidth=2]
    238 -> 47 [penwidth=2]
    238 -> 174 [penwidth=2]
    238 -> 89 [penwidth=2]
    238 -> 82 [penwidth=2]
    238 -> 163 [penwidth=2]
    238 -> 46 [penwidth=2]
    238 -> 58 [penwidth=2]
    238 -> 40 [penwidth=2]
    238 -> 153 [penwidth=2]
    238 -> 160 [penwidth=2]
    238 -> 34 [penwidth=2]
    238 -> 91 [penwidth=2]
    238 -> 51 [penwidth=2]
    238 -> 157 [penwidth=2]
    238 -> 161 [penwidth=2]
    238 -> 38 [penwidth=2]
    238 -> 166 [penwidth=2]
    238 -> 64 [penwidth=2]
    238 -> 69 [penwidth=2]
    238 -> 84 [penwidth=2]
    238 -> 74 [penwidth=2]
    238 -> 175 [penwidth=2]
    238 -> 79 [penwidth=2]
    238 -> 162 [penwidth=2]
    238 -> 60 [penwidth=2]
    238 -> 70 [penwidth=2]
    238 -> 88 [penwidth=2]
    284 -> 42 [penwidth=2]
    284 -> 170 [penwidth=2]
    284 -> 59 [penwidth=2]
    284 -> 173 [penwidth=2]
    284 -> 75 [penwidth=2]
    284 -> 178 [penwidth=2]
    284 -> 34 [penwidth=2]
    284 -> 165 [penwidth=2]
    284 -> 152 [penwidth=2]
    284 -> 41 [penwidth=2]
    284 -> 72 [penwidth=2]
    284 -> 44 [penwidth=2]
    284 -> 77 [penwidth=2]
    284 -> 89 [penwidth=2]
    284 -> 86 [penwidth=2]
    284 -> 154 [penwidth=2]
    284 -> 58 [penwidth=2]
    284 -> 171 [penwidth=2]
    284 -> 62 [penwidth=2]
    284 -> 45 [penwidth=2]
    284 -> 90 [penwidth=2]
    284 -> 38 [penwidth=2]
    284 -> 83 [penwidth=2]
    284 -> 96 [penwidth=2]
    284 -> 43 [penwidth=2]
    284 -> 48 [penwidth=2]
    284 -> 166 [penwidth=2]
    284 -> 179 [penwidth=2]
    284 -> 81 [penwidth=2]
    284 -> 57 [penwidth=2]
    284 -> 94 [penwidth=2]
    284 -> 70 [penwidth=2]
    284 -> 79 [penwidth=2]
    284 -> 68 [penwidth=2]
    284 -> 88 [penwidth=2]
    284 -> 177 [penwidth=2]
    284 -> 159 [penwidth=2]
    284 -> 76 [penwidth=2]
    284 -> 36 [penwidth=2]
    284 -> 64 [penwidth=2]
    284 -> 65 [penwidth=2]
    284 -> 162 [penwidth=2]
    284 -> 163 [penwidth=2]
    284 -> 167 [penwidth=2]
    284 -> 67 [penwidth=2]
    284 -> 82 [penwidth=2]
    284 -> 52 [penwidth=2]
    284 -> 60 [penwidth=2]
    284 -> 56 [penwidth=2]
    284 -> 172 [penwidth=2]
    284 -> 74 [penwidth=2]
    284 -> 78 [penwidth=2]
    284 -> 93 [penwidth=2]
    284 -> 54 [penwidth=2]
    284 -> 92 [penwidth=2]
    284 -> 175 [penwidth=2]
    284 -> 180 [penwidth=2]
    284 -> 161 [penwidth=2]
    284 -> 47 [penwidth=2]
    284 -> 63 [penwidth=2]
    284 -> 71 [penwidth=2]
    284 -> 55 [penwidth=2]
    284 -> 160 [penwidth=2]
    284 -> 53 [penwidth=2]
    284 -> 176 [penwidth=2]
    284 -> 97 [penwidth=2]
    284 -> 40 [penwidth=2]
    284 -> 156 [penwidth=2]
    284 -> 73 [penwidth=2]
    284 -> 66 [penwidth=2]
    284 -> 80 [penwidth=2]
    287 -> 179 [penwidth=2]
    287 -> 39 [penwidth=2]
    287 -> 40 [penwidth=2]
    287 -> 95 [penwidth=2]
    287 -> 59 [penwidth=2]
    287 -> 89 [penwidth=2]
    287 -> 72 [penwidth=2]
    287 -> 60 [penwidth=2]
    287 -> 157 [penwidth=2]
    287 -> 175 [penwidth=2]
    287 -> 92 [penwidth=2]
    287 -> 156 [penwidth=2]
    287 -> 83 [penwidth=2]
    287 -> 167 [penwidth=2]
    287 -> 177 [penwidth=2]
    287 -> 170 [penwidth=2]
    287 -> 54 [penwidth=2]
    287 -> 57 [penwidth=2]
    287 -> 58 [penwidth=2]
    287 -> 79 [penwidth=2]
    287 -> 91 [penwidth=2]
    287 -> 36 [penwidth=2]
    287 -> 87 [penwidth=2]
    287 -> 161 [penwidth=2]
    287 -> 63 [penwidth=2]
    287 -> 55 [penwidth=2]
    287 -> 166 [penwidth=2]
    287 -> 88 [penwidth=2]
    287 -> 94 [penwidth=2]
    287 -> 44 [penwidth=2]
    287 -> 66 [penwidth=2]
    287 -> 154 [penwidth=2]
    287 -> 53 [penwidth=2]
    287 -> 178 [penwidth=2]
    287 -> 80 [penwidth=2]
    287 -> 158 [penwidth=2]
    287 -> 61 [penwidth=2]
    287 -> 160 [penwidth=2]
    287 -> 46 [penwidth=2]
    287 -> 37 [penwidth=2]
    287 -> 67 [penwidth=2]
    287 -> 172 [penwidth=2]
    287 -> 48 [penwidth=2]
    287 -> 52 [penwidth=2]
    287 -> 85 [penwidth=2]
    287 -> 163 [penwidth=2]
    250 -> 175 [penwidth=2]
    250 -> 79 [penwidth=2]
    250 -> 155 [penwidth=2]
    250 -> 48 [penwidth=2]
    250 -> 68 [penwidth=2]
    250 -> 45 [penwidth=2]
    250 -> 54 [penwidth=2]
    250 -> 94 [penwidth=2]
    250 -> 77 [penwidth=2]
    250 -> 81 [penwidth=2]
    250 -> 161 [penwidth=2]
    250 -> 50 [penwidth=2]
    250 -> 176 [penwidth=2]
    250 -> 75 [penwidth=2]
    250 -> 76 [penwidth=2]
    250 -> 46 [penwidth=2]
    250 -> 71 [penwidth=2]
    250 -> 159 [penwidth=2]
    250 -> 47 [penwidth=2]
    250 -> 152 [penwidth=2]
    250 -> 40 [penwidth=2]
    250 -> 52 [penwidth=2]
    250 -> 72 [penwidth=2]
    250 -> 51 [penwidth=2]
    250 -> 163 [penwidth=2]
    250 -> 91 [penwidth=2]
    250 -> 38 [penwidth=2]
    250 -> 97 [penwidth=2]
    250 -> 35 [penwidth=2]
    250 -> 171 [penwidth=2]
    250 -> 160 [penwidth=2]
    250 -> 53 [penwidth=2]
    250 -> 34 [penwidth=2]
    250 -> 49 [penwidth=2]
    250 -> 69 [penwidth=2]
    250 -> 44 [penwidth=2]
    250 -> 42 [penwidth=2]
    250 -> 168 [penwidth=2]
    250 -> 88 [penwidth=2]
    250 -> 177 [penwidth=2]
    250 -> 85 [penwidth=2]
    293 -> 51 [penwidth=2]
    293 -> 159 [penwidth=2]
    293 -> 44 [penwidth=2]
    293 -> 67 [penwidth=2]
    293 -> 175 [penwidth=2]
    293 -> 89 [penwidth=2]
    293 -> 163 [penwidth=2]
    293 -> 38 [penwidth=2]
    293 -> 171 [penwidth=2]
    293 -> 173 [penwidth=2]
    293 -> 91 [penwidth=2]
    293 -> 169 [penwidth=2]
    293 -> 42 [penwidth=2]
    293 -> 168 [penwidth=2]
    293 -> 154 [penwidth=2]
    293 -> 53 [penwidth=2]
    293 -> 180 [penwidth=2]
    293 -> 48 [penwidth=2]
    293 -> 58 [penwidth=2]
    293 -> 157 [penwidth=2]
    293 -> 90 [penwidth=2]
    293 -> 37 [penwidth=2]
    293 -> 164 [penwidth=2]
    293 -> 165 [penwidth=2]
    293 -> 79 [penwidth=2]
    293 -> 94 [penwidth=2]
    293 -> 176 [penwidth=2]
    293 -> 84 [penwidth=2]
    293 -> 54 [penwidth=2]
    293 -> 73 [penwidth=2]
    293 -> 92 [penwidth=2]
    293 -> 78 [penwidth=2]
    293 -> 179 [penwidth=2]
    293 -> 63 [penwidth=2]
    293 -> 62 [penwidth=2]
    293 -> 81 [penwidth=2]
    293 -> 70 [penwidth=2]
    293 -> 41 [penwidth=2]
    293 -> 174 [penwidth=2]
    293 -> 39 [penwidth=2]
    294 -> 153 [penwidth=2]
    294 -> 37 [penwidth=2]
    294 -> 179 [penwidth=2]
    294 -> 41 [penwidth=2]
    294 -> 61 [penwidth=2]
    294 -> 47 [penwidth=2]
    294 -> 86 [penwidth=2]
    294 -> 43 [penwidth=2]
    294 -> 52 [penwidth=2]
    294 -> 87 [penwidth=2]
    294 -> 158 [penwidth=2]
    294 -> 171 [penwidth=2]
    294 -> 38 [penwidth=2]
    294 -> 78 [penwidth=2]
    294 -> 81 [penwidth=2]
    294 -> 59 [penwidth=2]
    294 -> 73 [penwidth=2]
    294 -> 93 [penwidth=2]
    294 -> 155 [penwidth=2]
    294 -> 180 [penwidth=2]
    294 -> 163 [penwidth=2]
    294 -> 74 [penwidth=2]
    294 -> 45 [penwidth=2]
    294 -> 178 [penwidth=2]
    294 -> 68 [penwidth=2]
    294 -> 156 [penwidth=2]
    294 -> 44 [penwidth=2]
    294 -> 90 [penwidth=2]
    294 -> 176 [penwidth=2]
    294 -> 85 [penwidth=2]
    294 -> 83 [penwidth=2]
    294 -> 95 [penwidth=2]
    294 -> 46 [penwidth=2]
    294 -> 84 [penwidth=2]
    294 -> 157 [penwidth=2]
    294 -> 79 [penwidth=2]
    294 -> 170 [penwidth=2]
    294 -> 154 [penwidth=2]
    294 -> 97 [penwidth=2]
    294 -> 91 [penwidth=2]
    294 -> 34 [penwidth=2]
    294 -> 48 [penwidth=2]
    294 -> 57 [penwidth=2]
    294 -> 35 [penwidth=2]
    294 -> 66 [penwidth=2]
    294 -> 172 [penwidth=2]
    294 -> 80 [penwidth=2]
    294 -> 164 [penwidth=2]
    294 -> 92 [penwidth=2]
    294 -> 94 [penwidth=2]
    252 -> 161 [penwidth=2]
    252 -> 48 [penwidth=2]
    252 -> 165 [penwidth=2]
    252 -> 37 [penwidth=2]
    252 -> 160 [penwidth=2]
    252 -> 51 [penwidth=2]
    252 -> 52 [penwidth=2]
    252 -> 157 [penwidth=2]
    252 -> 164 [penwidth=2]
    252 -> 74 [penwidth=2]
    252 -> 166 [penwidth=2]
    252 -> 65 [penwidth=2]
    252 -> 175 [penwidth=2]
    252 -> 45 [penwidth=2]
    252 -> 78 [penwidth=2]
    252 -> 63 [penwidth=2]
    252 -> 71 [penwidth=2]
    252 -> 168 [penwidth=2]
    252 -> 153 [penwidth=2]
    252 -> 170 [penwidth=2]
    252 -> 67 [penwidth=2]
    252 -> 81 [penwidth=2]
    252 -> 60 [penwidth=2]
    252 -> 70 [penwidth=2]
    252 -> 72 [penwidth=2]
    252 -> 178 [penwidth=2]
    252 -> 89 [penwidth=2]
    252 -> 79 [penwidth=2]
    252 -> 76 [penwidth=2]
    252 -> 57 [penwidth=2]
    252 -> 38 [penwidth=2]
    252 -> 169 [penwidth=2]
    252 -> 50 [penwidth=2]
    252 -> 43 [penwidth=2]
    252 -> 88 [penwidth=2]
    252 -> 53 [penwidth=2]
    252 -> 85 [penwidth=2]
    252 -> 59 [penwidth=2]
    252 -> 61 [penwidth=2]
    252 -> 68 [penwidth=2]
    252 -> 94 [penwidth=2]
    252 -> 35 [penwidth=2]
    252 -> 77 [penwidth=2]
    252 -> 177 [penwidth=2]
    252 -> 46 [penwidth=2]
    252 -> 167 [penwidth=2]
    252 -> 80 [penwidth=2]
    252 -> 54 [penwidth=2]
    252 -> 96 [penwidth=2]
    252 -> 34 [penwidth=2]
    252 -> 154 [penwidth=2]
    252 -> 62 [penwidth=2]
    252 -> 49 [penwidth=2]
    252 -> 66 [penwidth=2]
    252 -> 73 [penwidth=2]
    252 -> 47 [penwidth=2]
    252 -> 58 [penwidth=2]
    252 -> 162 [penwidth=2]
    252 -> 84 [penwidth=2]
    252 -> 173 [penwidth=2]
    252 -> 40 [penwidth=2]
    252 -> 42 [penwidth=2]
    252 -> 174 [penwidth=2]
    252 -> 180 [penwidth=2]
    3 -> 52 [penwidth=2]
    3 -> 156 [penwidth=2]
    3 -> 44 [penwidth=2]
    3 -> 87 [penwidth=2]
    3 -> 67 [penwidth=2]
    3 -> 92 [penwidth=2]
    3 -> 51 [penwidth=2]
    3 -> 39 [penwidth=2]
    3 -> 65 [penwidth=2]
    3 -> 64 [penwidth=2]
    3 -> 69 [penwidth=2]
    3 -> 83 [penwidth=2]
    3 -> 88 [penwidth=2]
    3 -> 166 [penwidth=2]
    3 -> 161 [penwidth=2]
    3 -> 153 [penwidth=2]
    3 -> 60 [penwidth=2]
    3 -> 165 [penwidth=2]
    3 -> 154 [penwidth=2]
    3 -> 76 [penwidth=2]
    3 -> 54 [penwidth=2]
    298 -> 168 [penwidth=2]
    298 -> 64 [penwidth=2]
    298 -> 174 [penwidth=2]
    298 -> 40 [penwidth=2]
    298 -> 62 [penwidth=2]
    298 -> 153 [penwidth=2]
    298 -> 86 [penwidth=2]
    298 -> 43 [penwidth=2]
    298 -> 60 [penwidth=2]
    298 -> 90 [penwidth=2]
    298 -> 36 [penwidth=2]
    298 -> 83 [penwidth=2]
    298 -> 178 [penwidth=2]
    298 -> 78 [penwidth=2]
    298 -> 73 [penwidth=2]
    298 -> 53 [penwidth=2]
    298 -> 35 [penwidth=2]
    298 -> 80 [penwidth=2]
    298 -> 59 [penwidth=2]
    298 -> 55 [penwidth=2]
    298 -> 56 [penwidth=2]
    298 -> 54 [penwidth=2]
    298 -> 68 [penwidth=2]
    298 -> 169 [penwidth=2]
    298 -> 47 [penwidth=2]
    298 -> 69 [penwidth=2]
    298 -> 163 [penwidth=2]
    298 -> 77 [penwidth=2]
    298 -> 76 [penwidth=2]
    298 -> 87 [penwidth=2]
    270 -> 70 [penwidth=2]
    270 -> 84 [penwidth=2]
    270 -> 168 [penwidth=2]
    270 -> 52 [penwidth=2]
    270 -> 54 [penwidth=2]
    270 -> 162 [penwidth=2]
    270 -> 73 [penwidth=2]
    270 -> 157 [penwidth=2]
    270 -> 179 [penwidth=2]
    270 -> 83 [penwidth=2]
    270 -> 51 [penwidth=2]
    270 -> 88 [penwidth=2]
    270 -> 68 [penwidth=2]
    270 -> 40 [penwidth=2]
    270 -> 161 [penwidth=2]
    270 -> 159 [penwidth=2]
    270 -> 82 [penwidth=2]
    270 -> 86 [penwidth=2]
    270 -> 77 [penwidth=2]
    270 -> 35 [penwidth=2]
    270 -> 87 [penwidth=2]
    270 -> 34 [penwidth=2]
    270 -> 155 [penwidth=2]
    270 -> 160 [penwidth=2]
    270 -> 69 [penwidth=2]
    270 -> 45 [penwidth=2]
    270 -> 46 [penwidth=2]
    270 -> 71 [penwidth=2]
    270 -> 158 [penwidth=2]
    270 -> 38 [penwidth=2]
    270 -> 62 [penwidth=2]
    270 -> 176 [penwidth=2]
    270 -> 89 [penwidth=2]
    270 -> 163 [penwidth=2]
    270 -> 41 [penwidth=2]
    270 -> 154 [penwidth=2]
    270 -> 55 [penwidth=2]
    270 -> 43 [penwidth=2]
    270 -> 79 [penwidth=2]
    270 -> 178 [penwidth=2]
    270 -> 63 [penwidth=2]
    270 -> 174 [penwidth=2]
    270 -> 47 [penwidth=2]
    270 -> 165 [penwidth=2]
    270 -> 180 [penwidth=2]
    270 -> 90 [penwidth=2]
    270 -> 171 [penwidth=2]
    270 -> 95 [penwidth=2]
    270 -> 67 [penwidth=2]
    270 -> 81 [penwidth=2]
    270 -> 92 [penwidth=2]
    270 -> 72 [penwidth=2]
    270 -> 76 [penwidth=2]
    270 -> 65 [penwidth=2]
    270 -> 75 [penwidth=2]
    270 -> 94 [penwidth=2]
    270 -> 166 [penwidth=2]
    270 -> 49 [penwidth=2]
    270 -> 57 [penwidth=2]
    270 -> 169 [penwidth=2]
    270 -> 53 [penwidth=2]
    270 -> 64 [penwidth=2]
    270 -> 93 [penwidth=2]
    270 -> 172 [penwidth=2]
    270 -> 156 [penwidth=2]
    270 -> 78 [penwidth=2]
    270 -> 175 [penwidth=2]
    270 -> 50 [penwidth=2]
    270 -> 58 [penwidth=2]
    270 -> 167 [penwidth=2]
    270 -> 74 [penwidth=2]
    270 -> 153 [penwidth=2]
    19 -> 46 [penwidth=2]
    19 -> 75 [penwidth=2]
    19 -> 50 [penwidth=2]
    19 -> 89 [penwidth=2]
    19 -> 36 [penwidth=2]
    19 -> 37 [penwidth=2]
    19 -> 70 [penwidth=2]
    19 -> 176 [penwidth=2]
    19 -> 56 [penwidth=2]
    19 -> 156 [penwidth=2]
    19 -> 47 [penwidth=2]
    19 -> 158 [penwidth=2]
    19 -> 159 [penwidth=2]
    19 -> 81 [penwidth=2]
    19 -> 54 [penwidth=2]
    19 -> 157 [penwidth=2]
    19 -> 45 [penwidth=2]
    19 -> 34 [penwidth=2]
    19 -> 153 [penwidth=2]
    19 -> 168 [penwidth=2]
    19 -> 175 [penwidth=2]
    19 -> 62 [penwidth=2]
    19 -> 60 [penwidth=2]
    19 -> 174 [penwidth=2]
    19 -> 49 [penwidth=2]
    19 -> 173 [penwidth=2]
    19 -> 35 [penwidth=2]
    19 -> 85 [penwidth=2]
    19 -> 162 [penwidth=2]
    149 -> 160 [penwidth=2]
    149 -> 176 [penwidth=2]
    149 -> 158 [penwidth=2]
    149 -> 71 [penwidth=2]
    149 -> 47 [penwidth=2]
    149 -> 155 [penwidth=2]
    149 -> 172 [penwidth=2]
    149 -> 171 [penwidth=2]
    149 -> 96 [penwidth=2]
    149 -> 45 [penwidth=2]
    149 -> 180 [penwidth=2]
    149 -> 41 [penwidth=2]
    149 -> 37 [penwidth=2]
    149 -> 92 [penwidth=2]
    149 -> 74 [penwidth=2]
    149 -> 177 [penwidth=2]
    149 -> 60 [penwidth=2]
    149 -> 166 [penwidth=2]
    149 -> 87 [penwidth=2]
    149 -> 163 [penwidth=2]
    149 -> 51 [penwidth=2]
    149 -> 161 [penwidth=2]
    149 -> 95 [penwidth=2]
    149 -> 83 [penwidth=2]
    149 -> 36 [penwidth=2]
    149 -> 56 [penwidth=2]
    149 -> 53 [penwidth=2]
    149 -> 156 [penwidth=2]
    149 -> 59 [penwidth=2]
    149 -> 175 [penwidth=2]
    149 -> 77 [penwidth=2]
    149 -> 63 [penwidth=2]
    149 -> 94 [penwidth=2]
    149 -> 70 [penwidth=2]
    149 -> 86 [penwidth=2]
    149 -> 61 [penwidth=2]
    149 -> 162 [penwidth=2]
    149 -> 93 [penwidth=2]
    149 -> 178 [penwidth=2]
    149 -> 50 [penwidth=2]
    149 -> 153 [penwidth=2]
    149 -> 90 [penwidth=2]
    149 -> 58 [penwidth=2]
    149 -> 81 [penwidth=2]
    149 -> 164 [penwidth=2]
    149 -> 152 [penwidth=2]
    149 -> 43 [penwidth=2]
    149 -> 89 [penwidth=2]
    149 -> 82 [penwidth=2]
    149 -> 72 [penwidth=2]
    149 -> 76 [penwidth=2]
    149 -> 79 [penwidth=2]
    149 -> 97 [penwidth=2]
    149 -> 55 [penwidth=2]
    149 -> 84 [penwidth=2]
    149 -> 174 [penwidth=2]
    149 -> 35 [penwidth=2]
    149 -> 159 [penwidth=2]
    149 -> 179 [penwidth=2]
    149 -> 42 [penwidth=2]
    222 -> 69 [penwidth=2]
    222 -> 83 [penwidth=2]
    222 -> 179 [penwidth=2]
    222 -> 53 [penwidth=2]
    126 -> 176 [penwidth=2]
    126 -> 158 [penwidth=2]
    126 -> 34 [penwidth=2]
    126 -> 87 [penwidth=2]
    126 -> 160 [penwidth=2]
    126 -> 39 [penwidth=2]
    126 -> 65 [penwidth=2]
    126 -> 163 [penwidth=2]
    126 -> 63 [penwidth=2]
    126 -> 164 [penwidth=2]
    126 -> 84 [penwidth=2]
    126 -> 42 [penwidth=2]
    126 -> 71 [penwidth=2]
    126 -> 167 [penwidth=2]
    126 -> 64 [penwidth=2]
    126 -> 165 [penwidth=2]
    126 -> 48 [penwidth=2]
    126 -> 166 [penwidth=2]
    126 -> 172 [penwidth=2]
    126 -> 52 [penwidth=2]
    126 -> 45 [penwidth=2]
    126 -> 73 [penwidth=2]
    126 -> 40 [penwidth=2]
    126 -> 69 [penwidth=2]
    126 -> 90 [penwidth=2]
    146 -> 87 [penwidth=2]
    146 -> 62 [penwidth=2]
    146 -> 155 [penwidth=2]
    146 -> 52 [penwidth=2]
    146 -> 94 [penwidth=2]
    146 -> 153 [penwidth=2]
    146 -> 177 [penwidth=2]
    146 -> 96 [penwidth=2]
    146 -> 90 [penwidth=2]
    146 -> 176 [penwidth=2]
    146 -> 46 [penwidth=2]
    146 -> 159 [penwidth=2]
    146 -> 34 [penwidth=2]
    146 -> 80 [penwidth=2]
    146 -> 49 [penwidth=2]
    146 -> 59 [penwidth=2]
    146 -> 157 [penwidth=2]
    146 -> 171 [penwidth=2]
    146 -> 81 [penwidth=2]
    146 -> 172 [penwidth=2]
    146 -> 39 [penwidth=2]
    146 -> 91 [penwidth=2]
    146 -> 76 [penwidth=2]
    146 -> 50 [penwidth=2]
    146 -> 169 [penwidth=2]
    146 -> 54 [penwidth=2]
    146 -> 180 [penwidth=2]
    146 -> 97 [penwidth=2]
    146 -> 40 [penwidth=2]
    146 -> 166 [penwidth=2]
    146 -> 163 [penwidth=2]
    146 -> 56 [penwidth=2]
    146 -> 86 [penwidth=2]
    146 -> 60 [penwidth=2]
    146 -> 66 [penwidth=2]
    146 -> 89 [penwidth=2]
    146 -> 84 [penwidth=2]
    146 -> 83 [penwidth=2]
    146 -> 93 [penwidth=2]
    146 -> 74 [penwidth=2]
    146 -> 175 [penwidth=2]
    146 -> 178 [penwidth=2]
    146 -> 72 [penwidth=2]
    146 -> 69 [penwidth=2]
    146 -> 68 [penwidth=2]
    146 -> 79 [penwidth=2]
    146 -> 53 [penwidth=2]
    146 -> 162 [penwidth=2]
    146 -> 77 [penwidth=2]
    146 -> 78 [penwidth=2]
    146 -> 152 [penwidth=2]
    146 -> 45 [penwidth=2]
    146 -> 160 [penwidth=2]
    146 -> 85 [penwidth=2]
    146 -> 92 [penwidth=2]
    146 -> 61 [penwidth=2]
    146 -> 67 [penwidth=2]
    146 -> 44 [penwidth=2]
    146 -> 58 [penwidth=2]
    146 -> 70 [penwidth=2]
    146 -> 38 [penwidth=2]
    146 -> 65 [penwidth=2]
    146 -> 88 [penwidth=2]
    146 -> 168 [penwidth=2]
    146 -> 51 [penwidth=2]
    146 -> 165 [penwidth=2]
    146 -> 36 [penwidth=2]
    146 -> 164 [penwidth=2]
    146 -> 167 [penwidth=2]
    146 -> 158 [penwidth=2]
    146 -> 37 [penwidth=2]
    146 -> 63 [penwidth=2]
    146 -> 75 [penwidth=2]
    146 -> 170 [penwidth=2]
    146 -> 156 [penwidth=2]
    146 -> 179 [penwidth=2]
    146 -> 57 [penwidth=2]
    146 -> 174 [penwidth=2]
    146 -> 73 [penwidth=2]
    146 -> 161 [penwidth=2]
    146 -> 55 [penwidth=2]
    146 -> 154 [penwidth=2]
    146 -> 41 [penwidth=2]
    210 -> 76 [penwidth=2]
    210 -> 53 [penwidth=2]
    210 -> 73 [penwidth=2]
    210 -> 96 [penwidth=2]
    210 -> 153 [penwidth=2]
    210 -> 155 [penwidth=2]
    210 -> 177 [penwidth=2]
    210 -> 175 [penwidth=2]
    210 -> 92 [penwidth=2]
    210 -> 48 [penwidth=2]
    210 -> 87 [penwidth=2]
    210 -> 60 [penwidth=2]
    210 -> 67 [penwidth=2]
    210 -> 68 [penwidth=2]
    210 -> 75 [penwidth=2]
    210 -> 81 [penwidth=2]
    210 -> 169 [penwidth=2]
    210 -> 152 [penwidth=2]
    210 -> 95 [penwidth=2]
    210 -> 36 [penwidth=2]
    210 -> 79 [penwidth=2]
    210 -> 171 [penwidth=2]
    210 -> 167 [penwidth=2]
    210 -> 57 [penwidth=2]
    210 -> 86 [penwidth=2]
    210 -> 44 [penwidth=2]
    210 -> 176 [penwidth=2]
    210 -> 94 [penwidth=2]
    210 -> 180 [penwidth=2]
    210 -> 172 [penwidth=2]
    210 -> 52 [penwidth=2]
    210 -> 66 [penwidth=2]
    210 -> 74 [penwidth=2]
    210 -> 37 [penwidth=2]
    210 -> 35 [penwidth=2]
    210 -> 82 [penwidth=2]
    210 -> 77 [penwidth=2]
    210 -> 54 [penwidth=2]
    210 -> 78 [penwidth=2]
    210 -> 55 [penwidth=2]
    210 -> 158 [penwidth=2]
    210 -> 168 [penwidth=2]
    210 -> 162 [penwidth=2]
    210 -> 63 [penwidth=2]
    210 -> 85 [penwidth=2]
    210 -> 40 [penwidth=2]
    210 -> 47 [penwidth=2]
    210 -> 84 [penwidth=2]
    210 -> 159 [penwidth=2]
    210 -> 80 [penwidth=2]
    210 -> 165 [penwidth=2]
    210 -> 97 [penwidth=2]
    210 -> 46 [penwidth=2]
    210 -> 163 [penwidth=2]
    210 -> 50 [penwidth=2]
    210 -> 93 [penwidth=2]
    210 -> 173 [penwidth=2]
    137 -> 64 [penwidth=2]
    137 -> 83 [penwidth=2]
    137 -> 54 [penwidth=2]
    137 -> 97 [penwidth=2]
    137 -> 155 [penwidth=2]
    137 -> 157 [penwidth=2]
    137 -> 174 [penwidth=2]
    137 -> 78 [penwidth=2]
    137 -> 92 [penwidth=2]
    137 -> 77 [penwidth=2]
    137 -> 176 [penwidth=2]
    137 -> 40 [penwidth=2]
    137 -> 34 [penwidth=2]
    137 -> 171 [penwidth=2]
    137 -> 178 [penwidth=2]
    137 -> 179 [penwidth=2]
    137 -> 49 [penwidth=2]
    137 -> 170 [penwidth=2]
    137 -> 154 [penwidth=2]
    137 -> 88 [penwidth=2]
    137 -> 177 [penwidth=2]
    137 -> 87 [penwidth=2]
    137 -> 158 [penwidth=2]
    137 -> 73 [penwidth=2]
    137 -> 37 [penwidth=2]
    137 -> 63 [penwidth=2]
    137 -> 70 [penwidth=2]
    137 -> 165 [penwidth=2]
    137 -> 168 [penwidth=2]
    137 -> 62 [penwidth=2]
    137 -> 86 [penwidth=2]
    137 -> 84 [penwidth=2]
    137 -> 51 [penwidth=2]
    137 -> 46 [penwidth=2]
    137 -> 95 [penwidth=2]
    137 -> 93 [penwidth=2]
    137 -> 44 [penwidth=2]
    137 -> 82 [penwidth=2]
    137 -> 72 [penwidth=2]
    137 -> 45 [penwidth=2]
    137 -> 173 [penwidth=2]
    137 -> 80 [penwidth=2]
    137 -> 85 [penwidth=2]
    137 -> 162 [penwidth=2]
    137 -> 156 [penwidth=2]
    137 -> 172 [penwidth=2]
    137 -> 164 [penwidth=2]
    137 -> 69 [penwidth=2]
    137 -> 65 [penwidth=2]
    137 -> 60 [penwidth=2]
    137 -> 43 [penwidth=2]
    137 -> 66 [penwidth=2]
    137 -> 47 [penwidth=2]
    137 -> 59 [penwidth=2]
    137 -> 67 [penwidth=2]
    137 -> 153 [penwidth=2]
    137 -> 180 [penwidth=2]
    137 -> 89 [penwidth=2]
    137 -> 96 [penwidth=2]
    137 -> 161 [penwidth=2]
    137 -> 91 [penwidth=2]
    137 -> 159 [penwidth=2]
    137 -> 167 [penwidth=2]
    137 -> 39 [penwidth=2]
    137 -> 56 [penwidth=2]
    137 -> 58 [penwidth=2]
    137 -> 57 [penwidth=2]
    137 -> 175 [penwidth=2]
    137 -> 68 [penwidth=2]
    137 -> 163 [penwidth=2]
    137 -> 36 [penwidth=2]
    137 -> 81 [penwidth=2]
    137 -> 71 [penwidth=2]
    137 -> 76 [penwidth=2]
    137 -> 74 [penwidth=2]
    137 -> 152 [penwidth=2]
    137 -> 160 [penwidth=2]
    137 -> 169 [penwidth=2]
    137 -> 38 [penwidth=2]
    137 -> 50 [penwidth=2]
    201 -> 34 [penwidth=2]
    201 -> 168 [penwidth=2]
    201 -> 170 [penwidth=2]
    201 -> 161 [penwidth=2]
    201 -> 94 [penwidth=2]
    201 -> 75 [penwidth=2]
    201 -> 66 [penwidth=2]
    201 -> 173 [penwidth=2]
    201 -> 74 [penwidth=2]
    201 -> 38 [penwidth=2]
    201 -> 36 [penwidth=2]
    201 -> 158 [penwidth=2]
    201 -> 61 [penwidth=2]
    201 -> 72 [penwidth=2]
    201 -> 163 [penwidth=2]
    201 -> 91 [penwidth=2]
    201 -> 39 [penwidth=2]
    201 -> 60 [penwidth=2]
    201 -> 174 [penwidth=2]
    201 -> 40 [penwidth=2]
    201 -> 56 [penwidth=2]
    201 -> 176 [penwidth=2]
    201 -> 166 [penwidth=2]
    201 -> 162 [penwidth=2]
    201 -> 81 [penwidth=2]
    201 -> 159 [penwidth=2]
    201 -> 69 [penwidth=2]
    201 -> 165 [penwidth=2]
    201 -> 155 [penwidth=2]
    201 -> 50 [penwidth=2]
    201 -> 164 [penwidth=2]
    201 -> 95 [penwidth=2]
    201 -> 153 [penwidth=2]
    201 -> 88 [penwidth=2]
    201 -> 55 [penwidth=2]
    201 -> 169 [penwidth=2]
    201 -> 41 [penwidth=2]
    201 -> 175 [penwidth=2]
    201 -> 47 [penwidth=2]
    201 -> 54 [penwidth=2]
    201 -> 86 [penwidth=2]
    201 -> 48 [penwidth=2]
    201 -> 180 [penwidth=2]
    201 -> 68 [penwidth=2]
    201 -> 152 [penwidth=2]
    201 -> 46 [penwidth=2]
    201 -> 80 [penwidth=2]
    201 -> 84 [penwidth=2]
    117 -> 87 [penwidth=2]
    117 -> 48 [penwidth=2]
    117 -> 47 [penwidth=2]
    117 -> 89 [penwidth=2]
    117 -> 67 [penwidth=2]
    117 -> 84 [penwidth=2]
    117 -> 165 [penwidth=2]
    117 -> 81 [penwidth=2]
    117 -> 170 [penwidth=2]
    117 -> 155 [penwidth=2]
    117 -> 153 [penwidth=2]
    117 -> 161 [penwidth=2]
    117 -> 80 [penwidth=2]
    117 -> 91 [penwidth=2]
    117 -> 169 [penwidth=2]
    117 -> 175 [penwidth=2]
    117 -> 88 [penwidth=2]
    117 -> 162 [penwidth=2]
    117 -> 157 [penwidth=2]
    151 -> 62 [penwidth=2]
    151 -> 64 [penwidth=2]
    151 -> 179 [penwidth=2]
    151 -> 57 [penwidth=2]
    151 -> 91 [penwidth=2]
    151 -> 156 [penwidth=2]
    151 -> 97 [penwidth=2]
    151 -> 92 [penwidth=2]
    151 -> 90 [penwidth=2]
    151 -> 167 [penwidth=2]
    151 -> 54 [penwidth=2]
    151 -> 40 [penwidth=2]
    151 -> 160 [penwidth=2]
    151 -> 65 [penwidth=2]
    151 -> 170 [penwidth=2]
    151 -> 73 [penwidth=2]
    151 -> 85 [penwidth=2]
    151 -> 176 [penwidth=2]
    151 -> 70 [penwidth=2]
    151 -> 173 [penwidth=2]
    151 -> 60 [penwidth=2]
}