digraph G {
    0 [penwidth=3,label="0"]
    1 [penwidth=3,label="1"]
    2 [penwidth=3,label="2"]
    3 [penwidth=3,label="3"]
    4 [penwidth=3,label="4"]
    5 [penwidth=3,label="5"]
    6 [penwidth=3,label="6"]
    7 [penwidth=3,label="7"]
    8 [penwidth=3,label="8"]
    9 [penwidth=3,label="9"]
    10 [penwidth=3,label="10"]
    11 [penwidth=3,label="11"]
    12 [penwidth=3,label="12"]
    13 [penwidth=3,label="13"]
    14 [penwidth=3,label="14"]
    15 [penwidth=3,label="15"]
    16 [penwidth=3,label="16"]
    17 [penwidth=3,label="17"]
    18 [penwidth=3,label="18"]
    19 [penwidth=3,label="19"]
    20 [penwidth=3,label="20"]
    21 [penwidth=3,label="21"]
    22 [penwidth=3,label="22"]
    23 [penwidth=3,label="23"]
    24 [penwidth=3,label="24"]
    25 [penwidth=3,label="25"]
    26 [penwidth=3,label="26"]
    27 [penwidth=3,label="27"]
    28 [penwidth=3,label="28"]
    29 [penwidth=3,label="29"]
    30 [penwidth=3,label="30"]
    31 [penwidth=3,label="31"]
    32 [penwidth=3,label="32"]
    33 [penwidth=3,label="33"]
    34 [penwidth=3,label="34"]
    35 [penwidth=3,label="35"]
    36 [penwidth=3,label="36"]
    37 [penwidth=3,label="37"]
    38 [penwidth=3,label="38"]
    39 [penwidth=3,label="39"]
    40 [penwidth=3,label="40"]
    41 [penwidth=3,label="41"]
    42 [penwidth=3,label="42"]
    43 [penwidth=3,label="43"]
    44 [penwidth=3,label="44"]
    45 [penwidth=3,label="45"]
    46 [penwidth=3,label="46"]
    47 [penwidth=3,label="47"]
    48 [penwidth=3,label="48"]
    49 [penwidth=3,label="49"]
    50 [penwidth=3,label="50"]
    51 [penwidth=3,label="51"]
    52 [penwidth=3,label="52"]
    53 [penwidth=3,label="53"]
    54 [penwidth=3,label="54"]
    55 [penwidth=3,label="55"]
    56 [penwidth=3,label="56"]
    57 [penwidth=3,label="57"]
    58 [penwidth=3,label="58"]
    59 [penwidth=3,label="59"]
    60 [penwidth=3,label="60"]
    61 [penwidth=3,label="61"]
    62 [penwidth=3,label="62"]
    63 [penwidth=3,label="63"]
    64 [penwidth=3,label="64"]
    65 [penwidth=3,label="65"]
    66 [penwidth=3,label="66"]
    67 [penwidth=3,label="67"]
    68 [penwidth=3,label="68"]
    69 [penwidth=3,label="69"]
    70 [penwidth=3,label="70"]
    71 [penwidth=3,label="71"]
    72 [penwidth=3,label="72"]
    73 [penwidth=3,label="73"]
    74 [penwidth=3,label="74"]
    75 [penwidth=3,label="75"]
    76 [penwidth=3,label="76"]
    77 [penwidth=3,label="77"]
    78 [penwidth=3,label="78"]
    79 [penwidth=3,label="79"]
    80 [penwidth=3,label="80"]
    81 [penwidth=3,label="81"]
    82 [penwidth=3,label="82"]
    83 [penwidth=3,label="83"]
    84 [penwidth=3,label="84"]
    85 [penwidth=3,label="85"]
    86 [penwidth=3,label="86"]
    87 [penwidth=3,label="87"]
    88 [penwidth=3,label="88"]
    89 [penwidth=3,label="89"]
    90 [penwidth=3,label="90"]
    91 [penwidth=3,label="91"]
    92 [penwidth=3,label="92"]
    93 [penwidth=3,label="93"]
    94 [penwidth=3,label="94"]
    95 [penwidth=3,label="95"]
    96 [penwidth=3,label="96"]
    97 [penwidth=3,label="97"]
    98 [penwidth=3,label="98"]
    99 [penwidth=3,label="99"]
    100 [penwidth=3,label="100"]
    101 [penwidth=3,label="101"]
    102 [penwidth=3,label="102"]
    103 [penwidth=3,label="103"]
    104 [penwidth=3,label="104"]
    105 [penwidth=3,label="105"]
    106 [penwidth=3,label="106"]
    107 [penwidth=3,label="107"]
    108 [penwidth=3,label="108"]
    109 [penwidth=3,label="109"]
    110 [penwidth=3,label="110"]
    111 [penwidth=3,label="111"]
    112 [penwidth=3,label="112"]
    113 [penwidth=3,label="113"]
    114 [penwidth=3,label="114"]
    115 [penwidth=3,label="115"]
    116 [penwidth=3,label="116"]
    117 [penwidth=3,label="117"]
    118 [penwidth=3,label="118"]
    119 [penwidth=3,label="119"]
    120 [penwidth=3,label="120"]
    121 [penwidth=3,label="121"]
    122 [penwidth=3,label="122"]
    123 [penwidth=3,label="123"]
    124 [penwidth=3,label="124"]
    125 [penwidth=3,label="125"]
    126 [penwidth=3,label="126"]
    127 [penwidth=3,label="127"]
    128 [penwidth=3,label="128"]
    129 [penwidth=3,label="129"]
    130 [penwidth=3,label="130"]
    131 [penwidth=3,label="131"]
    132 [penwidth=3,label="132"]
    133 [penwidth=3,label="133"]
    134 [penwidth=3,label="134"]
    135 [penwidth=3,label="135"]
    136 [penwidth=3,label="136"]
    137 [penwidth=3,label="137"]
    138 [penwidth=3,label="138"]
    139 [penwidth=3,label="139"]
    140 [penwidth=3,label="140"]
    141 [penwidth=3,label="141"]
    142 [penwidth=3,label="142"]
    143 [penwidth=3,label="143"]
    144 [penwidth=3,label="144"]
    145 [penwidth=3,label="145"]
    146 [penwidth=3,label="146"]
    147 [penwidth=3,label="147"]
    148 [penwidth=3,label="148"]
    149 [penwidth=3,label="149"]
    150 [penwidth=3,label="150"]
    151 [penwidth=3,label="151"]
    152 [penwidth=3,label="152"]
    153 [penwidth=3,label="153"]
    154 [penwidth=3,label="154"]
    155 [penwidth=3,label="155"]
    156 [penwidth=3,label="156"]
    157 [penwidth=3,label="157"]
    158 [penwidth=3,label="158"]
    159 [penwidth=3,label="159"]
    160 [penwidth=3,label="160"]
    161 [penwidth=3,label="161"]
    162 [penwidth=3,label="162"]
    163 [penwidth=3,label="163"]
    164 [penwidth=3,label="164"]
    165 [penwidth=3,label="165"]
    166 [penwidth=3,label="166"]
    167 [penwidth=3,label="167"]
    168 [penwidth=3,label="168"]
    169 [penwidth=3,label="169"]
    170 [penwidth=3,label="170"]
    171 [penwidth=3,label="171"]
    172 [penwidth=3,label="172"]
    173 [penwidth=3,label="173"]
    174 [penwidth=3,label="174"]
    175 [penwidth=3,label="175"]
    176 [penwidth=3,label="176"]
    177 [penwidth=3,label="177"]
    178 [penwidth=3,label="178"]
    179 [penwidth=3,label="179"]
    180 [penwidth=3,label="180"]
    181 [penwidth=3,label="181"]
    182 [penwidth=3,label="182"]
    183 [penwidth=3,label="183"]
    184 [penwidth=3,label="184"]
    185 [penwidth=3,label="185"]
    186 [penwidth=3,label="186"]
    187 [penwidth=3,label="187"]
    188 [penwidth=3,label="188"]
    189 [penwidth=3,label="189"]
    190 [penwidth=3,label="190"]
    191 [penwidth=3,label="191"]
    192 [penwidth=3,label="192"]
    193 [penwidth=3,label="193"]
    194 [penwidth=3,label="194"]
    195 [penwidth=3,label="195"]
    196 [penwidth=3,label="196"]
    197 [penwidth=3,label="197"]
    198 [penwidth=3,label="198"]
    199 [penwidth=3,label="199"]
    200 [penwidth=3,label="200"]
    201 [penwidth=3,label="201"]
    202 [penwidth=3,label="202"]
    203 [penwidth=3,label="203"]
    204 [penwidth=3,label="204"]
    205 [penwidth=3,label="205"]
    206 [penwidth=3,label="206"]
    207 [penwidth=3,label="207"]
    208 [penwidth=3,label="208"]
    209 [penwidth=3,label="209"]
    210 [penwidth=3,label="210"]
    211 [penwidth=3,label="211"]
    212 [penwidth=3,label="212"]
    213 [penwidth=3,label="213"]
    214 [penwidth=3,label="214"]
    215 [penwidth=3,label="215"]
    216 [penwidth=3,label="216"]
    217 [penwidth=3,label="217"]
    218 [penwidth=3,label="218"]
    219 [penwidth=3,label="219"]
    220 [penwidth=3,label="220"]
    221 [penwidth=3,label="221"]
    222 [penwidth=3,label="222"]
    223 [penwidth=3,label="223"]
    224 [penwidth=3,label="224"]
    225 [penwidth=3,label="225"]
    226 [penwidth=3,label="226"]
    227 [penwidth=3,label="227"]
    228 [penwidth=3,label="228"]
    229 [penwidth=3,label="229"]
    230 [penwidth=3,label="230"]
    231 [penwidth=3,label="231"]
    232 [penwidth=3,label="232"]
    233 [penwidth=3,label="233"]
    234 [penwidth=3,label="234"]
    235 [penwidth=3,label="235"]
    236 [penwidth=3,label="236"]
    237 [penwidth=3,label="237"]
    238 [penwidth=3,label="238"]
    239 [penwidth=3,label="239"]
    240 [penwidth=3,label="240"]
    241 [penwidth=3,label="241"]
    242 [penwidth=3,label="242"]
    243 [penwidth=3,label="243"]
    244 [penwidth=3,label="244"]
    245 [penwidth=3,label="245"]
    246 [penwidth=3,label="246"]
    247 [penwidth=3,label="247"]
    248 [penwidth=3,label="248"]
    249 [penwidth=3,label="249"]
    250 [penwidth=3,label="250"]
    251 [penwidth=3,label="251"]
    252 [penwidth=3,label="252"]
    253 [penwidth=3,label="253"]
    254 [penwidth=3,label="254"]
    255 [penwidth=3,label="255"]
    256 [penwidth=3,label="256"]
    257 [penwidth=3,label="257"]
    258 [penwidth=3,label="258"]
    259 [penwidth=3,label="259"]
    260 [penwidth=3,label="260"]
    261 [penwidth=3,label="261"]
    262 [penwidth=3,label="262"]
    263 [penwidth=3,label="263"]
    264 [penwidth=3,label="264"]
    265 [penwidth=3,label="265"]
    266 [penwidth=3,label="266"]
    267 [penwidth=3,label="267"]
    268 [penwidth=3,label="268"]
    269 [penwidth=3,label="269"]
    270 [penwidth=3,label="270"]
    271 [penwidth=3,label="271"]
    272 [penwidth=3,label="272"]
    273 [penwidth=3,label="273"]
    274 [penwidth=3,label="274"]
    275 [penwidth=3,label="275"]
    276 [penwidth=3,label="276"]
    277 [penwidth=3,label="277"]
    278 [penwidth=3,label="278"]
    279 [penwidth=3,label="279"]
    280 [penwidth=3,label="280"]
    281 [penwidth=3,label="281"]
    282 [penwidth=3,label="282"]
    283 [penwidth=3,label="283"]
    284 [penwidth=3,label="284"]
    285 [penwidth=3,label="285"]
    286 [penwidth=3,label="286"]
    287 [penwidth=3,label="287"]
    288 [penwidth=3,label="288"]
    289 [penwidth=3,label="289"]
    290 [penwidth=3,label="290"]
    291 [penwidth=3,label="291"]
    292 [penwidth=3,label="292"]
    293 [penwidth=3,label="293"]
    294 [penwidth=3,label="294"]
    295 [penwidth=3,label="295"]
    296 [penwidth=3,label="296"]
    297 [penwidth=3,label="297"]
    298 [penwidth=3,label="298"]
    299 [penwidth=3,label="299"]
    300 [penwidth=3,label="300"]
    301 [penwidth=3,label="301"]
    302 [penwidth=3,label="302"]
    303 [penwidth=3,label="303"]
    304 [penwidth=3,label="304"]
    305 [penwidth=3,label="305"]
    306 [penwidth=3,label="306"]
    307 [penwidth=3,label="307"]
    308 [penwidth=3,label="308"]
    309 [penwidth=3,label="309"]

    101 -> 0 [penwidth=2]
    143 -> 0 [penwidth=2]
    102 -> 0 [penwidth=2]
    144 -> 0 [penwidth=2]
    103 -> 0 [penwidth=2]
    145 -> 0 [penwidth=2]
    104 -> 0 [penwidth=2]
    146 -> 101 [penwidth=2]
    105 -> 101 [penwidth=2]
    147 -> 101 [penwidth=2]
    106 -> 101 [penwidth=2]
    148 -> 101 [penwidth=2]
    107 -> 101 [penwidth=2]
    149 -> 101 [penwidth=2]
    108 -> 101 [penwidth=2]
    150 -> 101 [penwidth=2]
    109 -> 101 [penwidth=2]
    151 -> 101 [penwidth=2]
    110 -> 101 [penwidth=2]
    152 -> 101 [penwidth=2]
    111 -> 101 [penwidth=2]
    153 -> 143 [penwidth=2]
    112 -> 143 [penwidth=2]
    154 -> 143 [penwidth=2]
    113 -> 143 [penwidth=2]
    155 -> 143 [penwidth=2]
    114 -> 143 [penwidth=2]
    156 -> 143 [penwidth=2]
    115 -> 143 [penwidth=2]
    157 -> 143 [penwidth=2]
    116 -> 143 [penwidth=2]
    158 -> 143 [penwidth=2]
    117 -> 143 [penwidth=2]
    159 -> 143 [penwidth=2]
    118 -> 143 [penwidth=2]
    160 -> 143 [penwidth=2]
    119 -> 143 [penwidth=2]
    161 -> 143 [penwidth=2]
    120 -> 143 [penwidth=2]
    162 -> 143 [penwidth=2]
    121 -> 102 [penwidth=2]
    163 -> 102 [penwidth=2]
    122 -> 102 [penwidth=2]
    164 -> 102 [penwidth=2]
    123 -> 102 [penwidth=2]
    165 -> 102 [penwidth=2]
    124 -> 102 [penwidth=2]
    166 -> 102 [penwidth=2]
    125 -> 102 [penwidth=2]
    167 -> 102 [penwidth=2]
    126 -> 102 [penwidth=2]
    168 -> 102 [penwidth=2]
    127 -> 102 [penwidth=2]
    169 -> 144 [penwidth=2]
    128 -> 144 [penwidth=2]
    170 -> 144 [penwidth=2]
    129 -> 144 [penwidth=2]
    171 -> 144 [penwidth=2]
    130 -> 144 [penwidth=2]
    172 -> 144 [penwidth=2]
    131 -> 144 [penwidth=2]
    173 -> 144 [penwidth=2]
    132 -> 144 [penwidth=2]
    174 -> 144 [penwidth=2]
    133 -> 144 [penwidth=2]
    175 -> 144 [penwidth=2]
    134 -> 144 [penwidth=2]
    176 -> 144 [penwidth=2]
    135 -> 144 [penwidth=2]
    177 -> 144 [penwidth=2]
    136 -> 144 [penwidth=2]
    178 -> 144 [penwidth=2]
    137 -> 144 [penwidth=2]
    179 -> 144 [penwidth=2]
    138 -> 144 [penwidth=2]
    180 -> 103 [penwidth=2]
    139 -> 103 [penwidth=2]
    181 -> 103 [penwidth=2]
    140 -> 103 [penwidth=2]
    182 -> 103 [penwidth=2]
    141 -> 103 [penwidth=2]
    183 -> 103 [penwidth=2]
    142 -> 145 [penwidth=2]
    184 -> 145 [penwidth=2]
    59 -> 145 [penwidth=2]
    60 -> 145 [penwidth=2]
    61 -> 145 [penwidth=2]
    62 -> 145 [penwidth=2]
    63 -> 145 [penwidth=2]
    64 -> 145 [penwidth=2]
    65 -> 145 [penwidth=2]
    66 -> 145 [penwidth=2]
    67 -> 145 [penwidth=2]
    68 -> 145 [penwidth=2]
    69 -> 145 [penwidth=2]
    70 -> 145 [penwidth=2]
    71 -> 145 [penwidth=2]
    72 -> 145 [penwidth=2]
    73 -> 145 [penwidth=2]
    74 -> 145 [penwidth=2]
    75 -> 145 [penwidth=2]
    76 -> 145 [penwidth=2]
    77 -> 145 [penwidth=2]
    78 -> 145 [penwidth=2]
    79 -> 145 [penwidth=2]
    80 -> 104 [penwidth=2]
    81 -> 104 [penwidth=2]
    82 -> 104 [penwidth=2]
    83 -> 104 [penwidth=2]
    84 -> 104 [penwidth=2]
    85 -> 104 [penwidth=2]
    86 -> 104 [penwidth=2]
    87 -> 104 [penwidth=2]
    88 -> 104 [penwidth=2]
    89 -> 104 [penwidth=2]
    90 -> 104 [penwidth=2]
    91 -> 104 [penwidth=2]
    92 -> 146 [penwidth=2]
    93 -> 146 [penwidth=2]
    94 -> 146 [penwidth=2]
    95 -> 105 [penwidth=2]
    96 -> 105 [penwidth=2]
    97 -> 105 [penwidth=2]
    98 -> 105 [penwidth=2]
    99 -> 105 [penwidth=2]
    100 -> 105 [penwidth=2]
    17 -> 105 [penwidth=2]
    18 -> 105 [penwidth=2]
    19 -> 105 [penwidth=2]
    20 -> 105 [penwidth=2]
    21 -> 105 [penwidth=2]
    22 -> 105 [penwidth=2]
    23 -> 105 [penwidth=2]
    24 -> 105 [penwidth=2]
    25 -> 105 [penwidth=2]
    26 -> 105 [penwidth=2]
    27 -> 105 [penwidth=2]
    28 -> 147 [penwidth=2]
    29 -> 106 [penwidth=2]
    30 -> 106 [penwidth=2]
    31 -> 106 [penwidth=2]
    32 -> 106 [penwidth=2]
    33 -> 106 [penwidth=2]
    34 -> 106 [penwidth=2]
    35 -> 106 [penwidth=2]
    36 -> 106 [penwidth=2]
    37 -> 106 [penwidth=2]
    38 -> 106 [penwidth=2]
    39 -> 106 [penwidth=2]
    40 -> 106 [penwidth=2]
    41 -> 106 [penwidth=2]
    42 -> 106 [penwidth=2]
    43 -> 106 [penwidth=2]
    44 -> 148 [penwidth=2]
    45 -> 107 [penwidth=2]
    46 -> 107 [penwidth=2]
    47 -> 107 [penwidth=2]
    48 -> 107 [penwidth=2]
    49 -> 107 [penwidth=2]
    50 -> 107 [penwidth=2]
    51 -> 107 [penwidth=2]
    52 -> 149 [penwidth=2]
    53 -> 149 [penwidth=2]
    54 -> 149 [penwidth=2]
    55 -> 149 [penwidth=2]
    56 -> 149 [penwidth=2]
    57 -> 149 [penwidth=2]
    58 -> 108 [penwidth=2]
    1 -> 108 [penwidth=2]
    2 -> 108 [penwidth=2]
    3 -> 108 [penwidth=2]
    4 -> 108 [penwidth=2]
    5 -> 108 [penwidth=2]
    6 -> 108 [penwidth=2]
    7 -> 108 [penwidth=2]
    8 -> 150 [penwidth=2]
    9 -> 150 [penwidth=2]
    10 -> 150 [penwidth=2]
    11 -> 150 [penwidth=2]
    12 -> 150 [penwidth=2]
    13 -> 150 [penwidth=2]
    14 -> 150 [penwidth=2]
    15 -> 150 [penwidth=2]
    16 -> 150 [penwidth=2]
    227 -> 150 [penwidth=2]
    269 -> 150 [penwidth=2]
    228 -> 150 [penwidth=2]
    270 -> 150 [penwidth=2]
    229 -> 150 [penwidth=2]
    271 -> 150 [penwidth=2]
    230 -> 150 [penwidth=2]
    272 -> 150 [penwidth=2]
    231 -> 150 [penwidth=2]
    273 -> 150 [penwidth=2]
    232 -> 150 [penwidth=2]
    274 -> 109 [penwidth=2]
    233 -> 109 [penwidth=2]
    275 -> 109 [penwidth=2]
    234 -> 109 [penwidth=2]
    276 -> 109 [penwidth=2]
    235 -> 109 [penwidth=2]
    277 -> 109 [penwidth=2]
    236 -> 109 [penwidth=2]
    278 -> 109 [penwidth=2]
    237 -> 109 [penwidth=2]
    279 -> 151 [penwidth=2]
    238 -> 151 [penwidth=2]
    280 -> 151 [penwidth=2]
    239 -> 151 [penwidth=2]
    281 -> 151 [penwidth=2]
    240 -> 151 [penwidth=2]
    282 -> 151 [penwidth=2]
    241 -> 151 [penwidth=2]
    283 -> 151 [penwidth=2]
    242 -> 151 [penwidth=2]
    284 -> 151 [penwidth=2]
    243 -> 151 [penwidth=2]
    285 -> 151 [penwidth=2]
    244 -> 151 [penwidth=2]
    286 -> 151 [penwidth=2]
    245 -> 110 [penwidth=2]
    287 -> 110 [penwidth=2]
    246 -> 110 [penwidth=2]
    288 -> 110 [penwidth=2]
    247 -> 110 [penwidth=2]
    289 -> 110 [penwidth=2]
    248 -> 110 [penwidth=2]
    290 -> 110 [penwidth=2]
    249 -> 110 [penwidth=2]
    291 -> 110 [penwidth=2]
    250 -> 110 [penwidth=2]
    292 -> 110 [penwidth=2]
    251 -> 110 [penwidth=2]
    293 -> 110 [penwidth=2]
    252 -> 110 [penwidth=2]
    294 -> 110 [penwidth=2]
    253 -> 110 [penwidth=2]
    295 -> 152 [penwidth=2]
    254 -> 152 [penwidth=2]
    296 -> 152 [penwidth=2]
    255 -> 152 [penwidth=2]
    297 -> 152 [penwidth=2]
    256 -> 152 [penwidth=2]
    298 -> 152 [penwidth=2]
    257 -> 152 [penwidth=2]
    299 -> 152 [penwidth=2]
    258 -> 152 [penwidth=2]
    300 -> 152 [penwidth=2]
    259 -> 152 [penwidth=2]
    301 -> 152 [penwidth=2]
    260 -> 111 [penwidth=2]
    302 -> 111 [penwidth=2]
    261 -> 111 [penwidth=2]
    303 -> 111 [penwidth=2]
    262 -> 111 [penwidth=2]
    304 -> 111 [penwidth=2]
    263 -> 111 [penwidth=2]
    305 -> 111 [penwidth=2]
    264 -> 111 [penwidth=2]
    306 -> 111 [penwidth=2]
    265 -> 111 [penwidth=2]
    307 -> 111 [penwidth=2]
    266 -> 111 [penwidth=2]
    308 -> 111 [penwidth=2]
    267 -> 111 [penwidth=2]
    309 -> 111 [penwidth=2]
    268 -> 111 [penwidth=2]
    185 -> 111 [penwidth=2]
    186 -> 111 [penwidth=2]
    187 -> 111 [penwidth=2]
    188 -> 111 [penwidth=2]
    189 -> 112 [penwidth=2]
    190 -> 112 [penwidth=2]
    191 -> 112 [penwidth=2]
    192 -> 112 [penwidth=2]
    193 -> 112 [penwidth=2]
    194 -> 112 [penwidth=2]
    195 -> 112 [penwidth=2]
    196 -> 112 [penwidth=2]
    197 -> 112 [penwidth=2]
    198 -> 112 [penwidth=2]
    199 -> 112 [penwidth=2]
    200 -> 112 [penwidth=2]
    201 -> 112 [penwidth=2]
    202 -> 112 [penwidth=2]
    203 -> 112 [penwidth=2]
    204 -> 112 [penwidth=2]
    205 -> 112 [penwidth=2]
    206 -> 112 [penwidth=2]
    207 -> 112 [penwidth=2]
    208 -> 112 [penwidth=2]
    209 -> 112 [penwidth=2]
    210 -> 112 [penwidth=2]
    211 -> 112 [penwidth=2]
    212 -> 112 [penwidth=2]
    213 -> 154 [penwidth=2]
    214 -> 154 [penwidth=2]
    215 -> 154 [penwidth=2]
    216 -> 154 [penwidth=2]
    217 -> 154 [penwidth=2]
    218 -> 154 [penwidth=2]
    219 -> 154 [penwidth=2]
    220 -> 154 [penwidth=2]
    221 -> 154 [penwidth=2]
    222 -> 154 [penwidth=2]
    223 -> 154 [penwidth=2]
    224 -> 154 [penwidth=2]
    225 -> 154 [penwidth=2]
    226 -> 154 [penwidth=2]
    153 -> 144 [penwidth=2]
    153 -> 102 [penwidth=2]
    153 -> 101 [penwidth=2]
    153 -> 103 [penwidth=2]
    113 -> 145 [penwidth=2]
    113 -> 144 [penwidth=2]
    163 -> 101 [penwidth=2]
    163 -> 143 [penwidth=2]
    163 -> 104 [penwidth=2]
    163 -> 145 [penwidth=2]
    163 -> 103 [penwidth=2]
    125 -> 104 [penwidth=2]
    125 -> 103 [penwidth=2]
    125 -> 143 [penwidth=2]
    125 -> 144 [penwidth=2]
    174 -> 143 [penwidth=2]
    174 -> 101 [penwidth=2]
    174 -> 104 [penwidth=2]
    138 -> 103 [penwidth=2]
    139 -> 104 [penwidth=2]
    139 -> 102 [penwidth=2]
    139 -> 144 [penwidth=2]
    139 -> 143 [penwidth=2]
    139 -> 101 [penwidth=2]
    184 -> 144 [penwidth=2]
    184 -> 143 [penwidth=2]
    184 -> 101 [penwidth=2]
    184 -> 102 [penwidth=2]
    184 -> 103 [penwidth=2]
    61 -> 103 [penwidth=2]
    61 -> 144 [penwidth=2]
    62 -> 104 [penwidth=2]
    12 -> 122 [penwidth=2]
    12 -> 84 [penwidth=2]
    12 -> 170 [penwidth=2]
    12 -> 129 [penwidth=2]
    12 -> 82 [penwidth=2]
    12 -> 147 [penwidth=2]
    12 -> 163 [penwidth=2]
    12 -> 164 [penwidth=2]
    12 -> 113 [penwidth=2]
    12 -> 148 [penwidth=2]
    12 -> 156 [penwidth=2]
    12 -> 64 [penwidth=2]
    12 -> 128 [penwidth=2]
    12 -> 106 [penwidth=2]
    12 -> 78 [penwidth=2]
    12 -> 167 [penwidth=2]
    12 -> 161 [penwidth=2]
    12 -> 160 [penwidth=2]
    12 -> 184 [penwidth=2]
    12 -> 136 [penwidth=2]
    12 -> 152 [penwidth=2]
    12 -> 91 [penwidth=2]
    12 -> 180 [penwidth=2]
    12 -> 118 [penwidth=2]
    12 -> 178 [penwidth=2]
    12 -> 83 [penwidth=2]
    12 -> 115 [penwidth=2]
    12 -> 146 [penwidth=2]
    12 -> 142 [penwidth=2]
    12 -> 69 [penwidth=2]
    12 -> 79 [penwidth=2]
    12 -> 108 [penwidth=2]
    12 -> 110 [penwidth=2]
    12 -> 169 [penwidth=2]
    12 -> 139 [penwidth=2]
    12 -> 109 [penwidth=2]
    12 -> 85 [penwidth=2]
    12 -> 134 [penwidth=2]
    12 -> 158 [penwidth=2]
    12 -> 89 [penwidth=2]
    12 -> 182 [penwidth=2]
    12 -> 149 [penwidth=2]
    12 -> 88 [penwidth=2]
    12 -> 133 [penwidth=2]
    12 -> 74 [penwidth=2]
    12 -> 114 [penwidth=2]
    12 -> 119 [penwidth=2]
    12 -> 76 [penwidth=2]
    12 -> 162 [penwidth=2]
    12 -> 168 [penwidth=2]
    12 -> 123 [penwidth=2]
    12 -> 173 [penwidth=2]
    12 -> 71 [penwidth=2]
    12 -> 117 [penwidth=2]
    12 -> 125 [penwidth=2]
    12 -> 77 [penwidth=2]
    12 -> 135 [penwidth=2]
    12 -> 105 [penwidth=2]
    12 -> 111 [penwidth=2]
    12 -> 81 [penwidth=2]
    12 -> 127 [penwidth=2]
    12 -> 61 [penwidth=2]
    12 -> 121 [penwidth=2]
    12 -> 120 [penwidth=2]
    12 -> 107 [penwidth=2]
    12 -> 70 [penwidth=2]
    12 -> 73 [penwidth=2]
    12 -> 132 [penwidth=2]
    12 -> 67 [penwidth=2]
    12 -> 159 [penwidth=2]
    12 -> 157 [penwidth=2]
    12 -> 138 [penwidth=2]
    12 -> 65 [penwidth=2]
    12 -> 62 [penwidth=2]
    12 -> 124 [penwidth=2]
    12 -> 60 [penwidth=2]
    12 -> 131 [penwidth=2]
    12 -> 116 [penwidth=2]
    12 -> 90 [penwidth=2]
    12 -> 130 [penwidth=2]
    12 -> 63 [penwidth=2]
    12 -> 126 [penwidth=2]
    12 -> 80 [penwidth=2]
    12 -> 155 [penwidth=2]
    12 -> 59 [penwidth=2]
    12 -> 112 [penwidth=2]
    12 -> 141 [penwidth=2]
    12 -> 175 [penwidth=2]
    12 -> 154 [penwidth=2]
    227 -> 139 [penwidth=2]
    227 -> 88 [penwidth=2]
    227 -> 138 [penwidth=2]
    227 -> 90 [penwidth=2]
    227 -> 172 [penwidth=2]
    227 -> 170 [penwidth=2]
    227 -> 116 [penwidth=2]
    227 -> 163 [penwidth=2]
    227 -> 180 [penwidth=2]
    227 -> 109 [penwidth=2]
    227 -> 62 [penwidth=2]
    227 -> 118 [penwidth=2]
    227 -> 121 [penwidth=2]
    227 -> 166 [penwidth=2]
    227 -> 178 [penwidth=2]
    227 -> 149 [penwidth=2]
    227 -> 84 [penwidth=2]
    227 -> 169 [penwidth=2]
    227 -> 78 [penwidth=2]
    227 -> 137 [penwidth=2]
    227 -> 120 [penwidth=2]
    227 -> 75 [penwidth=2]
    227 -> 107 [penwidth=2]
    227 -> 134 [penwidth=2]
    227 -> 72 [penwidth=2]
    227 -> 162 [penwidth=2]
    227 -> 151 [penwidth=2]
    227 -> 64 [penwidth=2]
    227 -> 59 [penwidth=2]
    227 -> 152 [penwidth=2]
    227 -> 77 [penwidth=2]
    227 -> 124 [penwidth=2]
    227 -> 181 [penwidth=2]
    227 -> 105 [penwidth=2]
    227 -> 117 [penwidth=2]
    227 -> 61 [penwidth=2]
    227 -> 123 [penwidth=2]
    227 -> 108 [penwidth=2]
    227 -> 81 [penwidth=2]
    227 -> 158 [penwidth=2]
    227 -> 154 [penwidth=2]
    227 -> 159 [penwidth=2]
    227 -> 156 [penwidth=2]
    227 -> 83 [penwidth=2]
    227 -> 167 [penwidth=2]
    227 -> 119 [penwidth=2]
    227 -> 70 [penwidth=2]
    227 -> 125 [penwidth=2]
    227 -> 165 [penwidth=2]
    227 -> 177 [penwidth=2]
    227 -> 146 [penwidth=2]
    227 -> 74 [penwidth=2]
    227 -> 164 [penwidth=2]
    227 -> 184 [penwidth=2]
    227 -> 91 [penwidth=2]
    227 -> 65 [penwidth=2]
    227 -> 157 [penwidth=2]
    227 -> 82 [penwidth=2]
    227 -> 129 [penwidth=2]
    227 -> 147 [penwidth=2]
    227 -> 71 [penwidth=2]
    227 -> 168 [penwidth=2]
    227 -> 130 [penwidth=2]
    227 -> 135 [penwidth=2]
    276 -> 130 [penwidth=2]
    276 -> 154 [penwidth=2]
    276 -> 65 [penwidth=2]
    276 -> 151 [penwidth=2]
    276 -> 176 [penwidth=2]
    276 -> 137 [penwidth=2]
    276 -> 182 [penwidth=2]
    276 -> 177 [penwidth=2]
    276 -> 155 [penwidth=2]
    276 -> 179 [penwidth=2]
    281 -> 142 [penwidth=2]
    281 -> 156 [penwidth=2]
    281 -> 159 [penwidth=2]
    281 -> 166 [penwidth=2]
    281 -> 127 [penwidth=2]
    281 -> 154 [penwidth=2]
    281 -> 149 [penwidth=2]
    281 -> 111 [penwidth=2]
    281 -> 184 [penwidth=2]
    281 -> 73 [penwidth=2]
    281 -> 163 [penwidth=2]
    281 -> 136 [penwidth=2]
    281 -> 150 [penwidth=2]
    281 -> 155 [penwidth=2]
    281 -> 105 [penwidth=2]
    281 -> 174 [penwidth=2]
    281 -> 83 [penwidth=2]
    281 -> 72 [penwidth=2]
    281 -> 124 [penwidth=2]
    281 -> 179 [penwidth=2]
    281 -> 161 [penwidth=2]
    281 -> 146 [penwidth=2]
    281 -> 107 [penwidth=2]
    281 -> 139 [penwidth=2]
    281 -> 108 [penwidth=2]
    281 -> 133 [penwidth=2]
    281 -> 89 [penwidth=2]
    281 -> 91 [penwidth=2]
    281 -> 162 [penwidth=2]
    281 -> 147 [penwidth=2]
    281 -> 152 [penwidth=2]
    281 -> 160 [penwidth=2]
    281 -> 80 [penwidth=2]
    281 -> 76 [penwidth=2]
    281 -> 86 [penwidth=2]
    281 -> 178 [penwidth=2]
    281 -> 64 [penwidth=2]
    281 -> 131 [penwidth=2]
    281 -> 67 [penwidth=2]
    281 -> 180 [penwidth=2]
    281 -> 68 [penwidth=2]
    281 -> 130 [penwidth=2]
    281 -> 77 [penwidth=2]
    281 -> 74 [penwidth=2]
    281 -> 167 [penwidth=2]
    281 -> 119 [penwidth=2]
    281 -> 169 [penwidth=2]
    281 -> 65 [penwidth=2]
    281 -> 140 [penwidth=2]
    281 -> 113 [penwidth=2]
    283 -> 119 [penwidth=2]
    283 -> 155 [penwidth=2]
    283 -> 171 [penwidth=2]
    283 -> 176 [penwidth=2]
    283 -> 117 [penwidth=2]
    283 -> 135 [penwidth=2]
    283 -> 120 [penwidth=2]
    283 -> 121 [penwidth=2]
    283 -> 91 [penwidth=2]
    283 -> 172 [penwidth=2]
    283 -> 66 [penwidth=2]
    283 -> 157 [penwidth=2]
    283 -> 106 [penwidth=2]
    283 -> 152 [penwidth=2]
    283 -> 180 [penwidth=2]
    283 -> 118 [penwidth=2]
    243 -> 170 [penwidth=2]
    243 -> 62 [penwidth=2]
    243 -> 159 [penwidth=2]
    243 -> 72 [penwidth=2]
    243 -> 105 [penwidth=2]
    243 -> 150 [penwidth=2]
    243 -> 128 [penwidth=2]
    243 -> 79 [penwidth=2]
    243 -> 155 [penwidth=2]
    243 -> 141 [penwidth=2]
    243 -> 75 [penwidth=2]
    243 -> 122 [penwidth=2]
    243 -> 130 [penwidth=2]
    243 -> 154 [penwidth=2]
    243 -> 161 [penwidth=2]
    243 -> 137 [penwidth=2]
    243 -> 63 [penwidth=2]
    243 -> 133 [penwidth=2]
    243 -> 109 [penwidth=2]
    243 -> 179 [penwidth=2]
    243 -> 158 [penwidth=2]
    243 -> 81 [penwidth=2]
    243 -> 85 [penwidth=2]
    243 -> 135 [penwidth=2]
    243 -> 68 [penwidth=2]
    243 -> 174 [penwidth=2]
    243 -> 132 [penwidth=2]
    243 -> 118 [penwidth=2]
    243 -> 107 [penwidth=2]
    243 -> 86 [penwidth=2]
    243 -> 127 [penwidth=2]
    243 -> 89 [penwidth=2]
    243 -> 166 [penwidth=2]
    243 -> 91 [penwidth=2]
    243 -> 88 [penwidth=2]
    243 -> 82 [penwidth=2]
    243 -> 152 [penwidth=2]
    243 -> 156 [penwidth=2]
    243 -> 138 [penwidth=2]
    243 -> 84 [penwidth=2]
    286 -> 85 [penwidth=2]
    286 -> 131 [penwidth=2]
    286 -> 82 [penwidth=2]
    286 -> 156 [penwidth=2]
    286 -> 181 [penwidth=2]
    286 -> 125 [penwidth=2]
    286 -> 115 [penwidth=2]
    286 -> 157 [penwidth=2]
    286 -> 168 [penwidth=2]
    286 -> 142 [penwidth=2]
    286 -> 173 [penwidth=2]
    286 -> 117 [penwidth=2]
    286 -> 160 [penwidth=2]
    286 -> 59 [penwidth=2]
    286 -> 138 [penwidth=2]
    286 -> 60 [penwidth=2]
    286 -> 67 [penwidth=2]
    286 -> 127 [penwidth=2]
    286 -> 106 [penwidth=2]
    286 -> 132 [penwidth=2]
    286 -> 107 [penwidth=2]
    286 -> 87 [penwidth=2]
    286 -> 176 [penwidth=2]
    286 -> 121 [penwidth=2]
    286 -> 91 [penwidth=2]
    286 -> 79 [penwidth=2]
    286 -> 65 [penwidth=2]
    286 -> 109 [penwidth=2]
    286 -> 152 [penwidth=2]
    286 -> 159 [penwidth=2]
    286 -> 71 [penwidth=2]
    286 -> 81 [penwidth=2]
    286 -> 66 [penwidth=2]
    286 -> 116 [penwidth=2]
    286 -> 73 [penwidth=2]
    286 -> 158 [penwidth=2]
    286 -> 108 [penwidth=2]
    286 -> 83 [penwidth=2]
    286 -> 175 [penwidth=2]
    286 -> 148 [penwidth=2]
    286 -> 149 [penwidth=2]
    286 -> 140 [penwidth=2]
    286 -> 122 [penwidth=2]
    286 -> 77 [penwidth=2]
    286 -> 153 [penwidth=2]
    286 -> 78 [penwidth=2]
    286 -> 63 [penwidth=2]
    286 -> 136 [penwidth=2]
    286 -> 141 [penwidth=2]
    286 -> 166 [penwidth=2]
    286 -> 123 [penwidth=2]
    286 -> 114 [penwidth=2]
    286 -> 182 [penwidth=2]
    286 -> 75 [penwidth=2]
    286 -> 172 [penwidth=2]
    297 -> 151 [penwidth=2]
    297 -> 78 [penwidth=2]
    297 -> 179 [penwidth=2]
    297 -> 107 [penwidth=2]
    297 -> 111 [penwidth=2]
    297 -> 146 [penwidth=2]
    297 -> 70 [penwidth=2]
    297 -> 137 [penwidth=2]
    297 -> 119 [penwidth=2]
    297 -> 120 [penwidth=2]
    297 -> 77 [penwidth=2]
    297 -> 86 [penwidth=2]
    297 -> 114 [penwidth=2]
    297 -> 113 [penwidth=2]
    297 -> 160 [penwidth=2]
    297 -> 60 [penwidth=2]
    297 -> 89 [penwidth=2]
    297 -> 126 [penwidth=2]
    297 -> 155 [penwidth=2]
    297 -> 82 [penwidth=2]
    297 -> 83 [penwidth=2]
    297 -> 108 [penwidth=2]
    297 -> 131 [penwidth=2]
    297 -> 62 [penwidth=2]
    297 -> 173 [penwidth=2]
    297 -> 164 [penwidth=2]
    297 -> 166 [penwidth=2]
    297 -> 132 [penwidth=2]
    297 -> 124 [penwidth=2]
    297 -> 123 [penwidth=2]
    297 -> 117 [penwidth=2]
    297 -> 181 [penwidth=2]
    297 -> 157 [penwidth=2]
    297 -> 162 [penwidth=2]
    297 -> 147 [penwidth=2]
    297 -> 148 [penwidth=2]
    297 -> 65 [penwidth=2]
    297 -> 183 [penwidth=2]
    297 -> 121 [penwidth=2]
    297 -> 128 [penwidth=2]
    297 -> 163 [penwidth=2]
    297 -> 182 [penwidth=2]
    297 -> 71 [penwidth=2]
    297 -> 138 [penwidth=2]
    297 -> 91 [penwidth=2]
    297 -> 61 [penwidth=2]
    297 -> 76 [penwidth=2]
    297 -> 130 [penwidth=2]
    297 -> 122 [penwidth=2]
    297 -> 165 [penwidth=2]
    297 -> 175 [penwidth=2]
    297 -> 127 [penwidth=2]
    297 -> 133 [penwidth=2]
    297 -> 105 [penwidth=2]
    297 -> 178 [penwidth=2]
    297 -> 167 [penwidth=2]
    297 -> 159 [penwidth=2]
    297 -> 85 [penwidth=2]
    297 -> 136 [penwidth=2]
    297 -> 69 [penwidth=2]
    297 -> 176 [penwidth=2]
    297 -> 59 [penwidth=2]
    297 -> 116 [penwidth=2]
    297 -> 84 [penwidth=2]
    297 -> 139 [penwidth=2]
    297 -> 140 [penwidth=2]
    297 -> 66 [penwidth=2]
    297 -> 134 [penwidth=2]
    297 -> 135 [penwidth=2]
    297 -> 115 [penwidth=2]
    297 -> 106 [penwidth=2]
    297 -> 156 [penwidth=2]
    297 -> 112 [penwidth=2]
    297 -> 88 [penwidth=2]
    297 -> 80 [penwidth=2]
    297 -> 109 [penwidth=2]
    297 -> 169 [penwidth=2]
    297 -> 68 [penwidth=2]
    297 -> 63 [penwidth=2]
    297 -> 184 [penwidth=2]
    297 -> 125 [penwidth=2]
    297 -> 74 [penwidth=2]
    297 -> 180 [penwidth=2]
    297 -> 149 [penwidth=2]
    297 -> 171 [penwidth=2]
    297 -> 75 [penwidth=2]
    297 -> 118 [penwidth=2]
    297 -> 150 [penwidth=2]
    297 -> 110 [penwidth=2]
    297 -> 170 [penwidth=2]
    297 -> 158 [penwidth=2]
    297 -> 87 [penwidth=2]
    297 -> 90 [penwidth=2]
    297 -> 73 [penwidth=2]
    297 -> 79 [penwidth=2]
    297 -> 67 [penwidth=2]
    297 -> 72 [penwidth=2]
    297 -> 174 [penwidth=2]
    297 -> 172 [penwidth=2]
    297 -> 153 [penwidth=2]
    297 -> 81 [penwidth=2]
    297 -> 64 [penwidth=2]
    297 -> 161 [penwidth=2]
    297 -> 141 [penwidth=2]
    297 -> 142 [penwidth=2]
    297 -> 154 [penwidth=2]
    297 -> 129 [penwidth=2]
    301 -> 159 [penwidth=2]
    301 -> 70 [penwidth=2]
    301 -> 148 [penwidth=2]
    301 -> 171 [penwidth=2]
    301 -> 73 [penwidth=2]
    301 -> 81 [penwidth=2]
    301 -> 149 [penwidth=2]
    301 -> 170 [penwidth=2]
    301 -> 166 [penwidth=2]
    301 -> 136 [penwidth=2]
    301 -> 80 [penwidth=2]
    301 -> 87 [penwidth=2]
    301 -> 119 [penwidth=2]
    301 -> 121 [penwidth=2]
    301 -> 163 [penwidth=2]
    301 -> 167 [penwidth=2]
    301 -> 154 [penwidth=2]
    301 -> 105 [penwidth=2]
    301 -> 109 [penwidth=2]
    301 -> 132 [penwidth=2]
    301 -> 78 [penwidth=2]
    301 -> 77 [penwidth=2]
    301 -> 173 [penwidth=2]
    301 -> 66 [penwidth=2]
    301 -> 69 [penwidth=2]
    301 -> 125 [penwidth=2]
    301 -> 184 [penwidth=2]
    301 -> 82 [penwidth=2]
    301 -> 76 [penwidth=2]
    301 -> 61 [penwidth=2]
    301 -> 65 [penwidth=2]
    301 -> 64 [penwidth=2]
    301 -> 85 [penwidth=2]
    301 -> 140 [penwidth=2]
    301 -> 178 [penwidth=2]
    301 -> 117 [penwidth=2]
    301 -> 181 [penwidth=2]
    301 -> 90 [penwidth=2]
    301 -> 114 [penwidth=2]
    301 -> 162 [penwidth=2]
    301 -> 182 [penwidth=2]
    301 -> 128 [penwidth=2]
    301 -> 131 [penwidth=2]
    301 -> 138 [penwidth=2]
    301 -> 177 [penwidth=2]
    301 -> 165 [penwidth=2]
    301 -> 123 [penwidth=2]
    301 -> 180 [penwidth=2]
    301 -> 153 [penwidth=2]
    301 -> 106 [penwidth=2]
    301 -> 176 [penwidth=2]
    301 -> 86 [penwidth=2]
    301 -> 88 [penwidth=2]
    301 -> 83 [penwidth=2]
    301 -> 139 [penwidth=2]
    301 -> 108 [penwidth=2]
    301 -> 60 [penwidth=2]
    301 -> 116 [penwidth=2]
    301 -> 84 [penwidth=2]
    301 -> 75 [penwidth=2]
    301 -> 175 [penwidth=2]
    301 -> 183 [penwidth=2]
    301 -> 126 [penwidth=2]
    301 -> 155 [penwidth=2]
    301 -> 168 [penwidth=2]
    301 -> 62 [penwidth=2]
    301 -> 137 [penwidth=2]
    301 -> 160 [penwidth=2]
    301 -> 130 [penwidth=2]
    301 -> 151 [penwidth=2]
    301 -> 164 [penwidth=2]
    301 -> 89 [penwidth=2]
    301 -> 68 [penwidth=2]
    301 -> 158 [penwidth=2]
    301 -> 129 [penwidth=2]
    301 -> 71 [penwidth=2]
    301 -> 156 [penwidth=2]
    301 -> 72 [penwidth=2]
    260 -> 149 [penwidth=2]
    260 -> 81 [penwidth=2]
    260 -> 77 [penwidth=2]
    260 -> 163 [penwidth=2]
    260 -> 105 [penwidth=2]
    260 -> 176 [penwidth=2]
    260 -> 151 [penwidth=2]
    260 -> 157 [penwidth=2]
    260 -> 162 [penwidth=2]
    260 -> 139 [penwidth=2]
    260 -> 154 [penwidth=2]
    260 -> 165 [penwidth=2]
    260 -> 134 [penwidth=2]
    260 -> 133 [penwidth=2]
    260 -> 119 [penwidth=2]
    260 -> 66 [penwidth=2]
    260 -> 122 [penwidth=2]
    260 -> 68 [penwidth=2]
    260 -> 129 [penwidth=2]
    260 -> 179 [penwidth=2]
    260 -> 113 [penwidth=2]
    260 -> 78 [penwidth=2]
    260 -> 136 [penwidth=2]
    260 -> 118 [penwidth=2]
    260 -> 80 [penwidth=2]
    260 -> 131 [penwidth=2]
    260 -> 88 [penwidth=2]
    260 -> 75 [penwidth=2]
    260 -> 183 [penwidth=2]
    260 -> 184 [penwidth=2]
    260 -> 79 [penwidth=2]
    260 -> 60 [penwidth=2]
    260 -> 147 [penwidth=2]
    260 -> 148 [penwidth=2]
    188 -> 182 [penwidth=2]
    188 -> 113 [penwidth=2]
    188 -> 62 [penwidth=2]
    188 -> 110 [penwidth=2]
    188 -> 63 [penwidth=2]
    188 -> 68 [penwidth=2]
    188 -> 117 [penwidth=2]
    188 -> 115 [penwidth=2]
    188 -> 138 [penwidth=2]
    188 -> 116 [penwidth=2]
    188 -> 74 [penwidth=2]
    188 -> 184 [penwidth=2]
    188 -> 181 [penwidth=2]
    188 -> 69 [penwidth=2]
    188 -> 76 [penwidth=2]
    188 -> 89 [penwidth=2]
    188 -> 164 [penwidth=2]
    188 -> 156 [penwidth=2]
    188 -> 183 [penwidth=2]
    188 -> 133 [penwidth=2]
    188 -> 86 [penwidth=2]
    188 -> 136 [penwidth=2]
    188 -> 78 [penwidth=2]
    188 -> 152 [penwidth=2]
    188 -> 128 [penwidth=2]
    188 -> 175 [penwidth=2]
    188 -> 79 [penwidth=2]
    188 -> 174 [penwidth=2]
    188 -> 106 [penwidth=2]
    188 -> 126 [penwidth=2]
    188 -> 123 [penwidth=2]
    188 -> 120 [penwidth=2]
    188 -> 64 [penwidth=2]
    188 -> 73 [penwidth=2]
    188 -> 179 [penwidth=2]
    188 -> 80 [penwidth=2]
    188 -> 135 [penwidth=2]
    188 -> 134 [penwidth=2]
    188 -> 132 [penwidth=2]
    188 -> 139 [penwidth=2]
    188 -> 171 [penwidth=2]
    188 -> 112 [penwidth=2]
    188 -> 124 [penwidth=2]
    188 -> 147 [penwidth=2]
    188 -> 61 [penwidth=2]
    188 -> 142 [penwidth=2]
    188 -> 170 [penwidth=2]
    188 -> 162 [penwidth=2]
    188 -> 83 [penwidth=2]
    188 -> 107 [penwidth=2]
    188 -> 168 [penwidth=2]
    188 -> 105 [penwidth=2]
    188 -> 180 [penwidth=2]
    188 -> 70 [penwidth=2]
    188 -> 159 [penwidth=2]
    188 -> 163 [penwidth=2]
    188 -> 127 [penwidth=2]
    188 -> 151 [penwidth=2]
    188 -> 71 [penwidth=2]
    188 -> 137 [penwidth=2]
    188 -> 67 [penwidth=2]
    188 -> 118 [penwidth=2]
    188 -> 72 [penwidth=2]
    188 -> 169 [penwidth=2]
    188 -> 146 [penwidth=2]
    188 -> 87 [penwidth=2]
    188 -> 160 [penwidth=2]
    188 -> 150 [penwidth=2]
    188 -> 91 [penwidth=2]
    188 -> 154 [penwidth=2]
    188 -> 173 [penwidth=2]
    188 -> 155 [penwidth=2]
    188 -> 119 [penwidth=2]
    188 -> 172 [penwidth=2]
    188 -> 167 [penwidth=2]
    188 -> 90 [penwidth=2]
    188 -> 148 [penwidth=2]
    188 -> 82 [penwidth=2]
    188 -> 60 [penwidth=2]
    188 -> 177 [penwidth=2]
    188 -> 88 [penwidth=2]
    188 -> 149 [penwidth=2]
    188 -> 108 [penwidth=2]
    188 -> 161 [penwidth=2]
    188 -> 125 [penwidth=2]
    188 -> 141 [penwidth=2]
    188 -> 109 [penwidth=2]
    188 -> 66 [penwidth=2]
    188 -> 178 [penwidth=2]
    188 -> 122 [penwidth=2]
    188 -> 114 [penwidth=2]
    188 -> 130 [penwidth=2]
    188 -> 176 [penwidth=2]
    188 -> 166 [penwidth=2]
    188 -> 65 [penwidth=2]
    196 -> 124 [penwidth=2]
    196 -> 173 [penwidth=2]
    196 -> 163 [penwidth=2]
    196 -> 182 [penwidth=2]
    196 -> 154 [penwidth=2]
    196 -> 113 [penwidth=2]
    196 -> 79 [penwidth=2]
    196 -> 183 [penwidth=2]
    196 -> 126 [penwidth=2]
    196 -> 89 [penwidth=2]
    196 -> 132 [penwidth=2]
    196 -> 152 [penwidth=2]
    196 -> 172 [penwidth=2]
    196 -> 177 [penwidth=2]
    196 -> 64 [penwidth=2]
    196 -> 141 [penwidth=2]
    196 -> 130 [penwidth=2]
    196 -> 82 [penwidth=2]
    196 -> 135 [penwidth=2]
    196 -> 106 [penwidth=2]
    196 -> 85 [penwidth=2]
    196 -> 62 [penwidth=2]
    196 -> 148 [penwidth=2]
    196 -> 129 [penwidth=2]
    196 -> 170 [penwidth=2]
    196 -> 115 [penwidth=2]
    196 -> 72 [penwidth=2]
    196 -> 155 [penwidth=2]
    196 -> 61 [penwidth=2]
    196 -> 108 [penwidth=2]
    196 -> 67 [penwidth=2]
    196 -> 77 [penwidth=2]
    196 -> 133 [penwidth=2]
    196 -> 125 [penwidth=2]
    196 -> 168 [penwidth=2]
    196 -> 139 [penwidth=2]
    196 -> 111 [penwidth=2]
    196 -> 151 [penwidth=2]
    196 -> 110 [penwidth=2]
    197 -> 150 [penwidth=2]
    197 -> 141 [penwidth=2]
    197 -> 60 [penwidth=2]
    197 -> 134 [penwidth=2]
    197 -> 75 [penwidth=2]
    197 -> 181 [penwidth=2]
    197 -> 72 [penwidth=2]
    197 -> 122 [penwidth=2]
    197 -> 121 [penwidth=2]
    197 -> 83 [penwidth=2]
    197 -> 67 [penwidth=2]
    197 -> 80 [penwidth=2]
    197 -> 70 [penwidth=2]
    197 -> 81 [penwidth=2]
    197 -> 170 [penwidth=2]
    197 -> 118 [penwidth=2]
    197 -> 119 [penwidth=2]
    197 -> 66 [penwidth=2]
    197 -> 78 [penwidth=2]
    197 -> 130 [penwidth=2]
    197 -> 74 [penwidth=2]
    197 -> 131 [penwidth=2]
    197 -> 165 [penwidth=2]
    197 -> 129 [penwidth=2]
    197 -> 140 [penwidth=2]
    197 -> 110 [penwidth=2]
    197 -> 115 [penwidth=2]
    197 -> 123 [penwidth=2]
    197 -> 139 [penwidth=2]
    197 -> 175 [penwidth=2]
    197 -> 179 [penwidth=2]
    197 -> 82 [penwidth=2]
    197 -> 147 [penwidth=2]
    197 -> 169 [penwidth=2]
    197 -> 105 [penwidth=2]
    197 -> 164 [penwidth=2]
    197 -> 71 [penwidth=2]
    197 -> 161 [penwidth=2]
    197 -> 146 [penwidth=2]
    197 -> 184 [penwidth=2]
    197 -> 173 [penwidth=2]
    197 -> 120 [penwidth=2]
    197 -> 79 [penwidth=2]
    197 -> 171 [penwidth=2]
    197 -> 135 [penwidth=2]
    197 -> 163 [penwidth=2]
    197 -> 172 [penwidth=2]
    197 -> 142 [penwidth=2]
    197 -> 153 [penwidth=2]
    197 -> 89 [penwidth=2]
    197 -> 85 [penwidth=2]
    197 -> 137 [penwidth=2]
    197 -> 168 [penwidth=2]
    197 -> 86 [penwidth=2]
    197 -> 125 [penwidth=2]
    197 -> 148 [penwidth=2]
    197 -> 174 [penwidth=2]
    197 -> 151 [penwidth=2]
    197 -> 114 [penwidth=2]
    197 -> 90 [penwidth=2]
    197 -> 159 [penwidth=2]
    197 -> 183 [penwidth=2]
    197 -> 117 [penwidth=2]
    197 -> 176 [penwidth=2]
    197 -> 154 [penwidth=2]
    197 -> 116 [penwidth=2]
    197 -> 152 [penwidth=2]
    197 -> 162 [penwidth=2]
    197 -> 65 [penwidth=2]
    197 -> 166 [penwidth=2]
    197 -> 106 [penwidth=2]
    197 -> 76 [penwidth=2]
    197 -> 182 [penwidth=2]
    197 -> 127 [penwidth=2]
    198 -> 172 [penwidth=2]
    198 -> 125 [penwidth=2]
    198 -> 70 [penwidth=2]
    198 -> 129 [penwidth=2]
    198 -> 181 [penwidth=2]
    209 -> 129 [penwidth=2]
    209 -> 181 [penwidth=2]
    209 -> 182 [penwidth=2]
    209 -> 184 [penwidth=2]
    209 -> 124 [penwidth=2]
    209 -> 80 [penwidth=2]
    209 -> 149 [penwidth=2]
    209 -> 163 [penwidth=2]
    209 -> 131 [penwidth=2]
    209 -> 154 [penwidth=2]
    209 -> 132 [penwidth=2]
    209 -> 70 [penwidth=2]
    209 -> 146 [penwidth=2]
    209 -> 105 [penwidth=2]
    209 -> 86 [penwidth=2]
    209 -> 174 [penwidth=2]
    209 -> 140 [penwidth=2]
    209 -> 164 [penwidth=2]
    209 -> 158 [penwidth=2]
    209 -> 178 [penwidth=2]
    209 -> 177 [penwidth=2]
    209 -> 160 [penwidth=2]
    209 -> 171 [penwidth=2]
    209 -> 74 [penwidth=2]
    209 -> 157 [penwidth=2]
    209 -> 83 [penwidth=2]
    209 -> 116 [penwidth=2]
    209 -> 121 [penwidth=2]
    209 -> 107 [penwidth=2]
    209 -> 153 [penwidth=2]
    209 -> 151 [penwidth=2]
    209 -> 81 [penwidth=2]
    209 -> 119 [penwidth=2]
    209 -> 64 [penwidth=2]
    209 -> 68 [penwidth=2]
    209 -> 72 [penwidth=2]
    209 -> 148 [penwidth=2]
    209 -> 77 [penwidth=2]
    209 -> 123 [penwidth=2]
    209 -> 175 [penwidth=2]
    209 -> 147 [penwidth=2]
    209 -> 169 [penwidth=2]
    209 -> 113 [penwidth=2]
    209 -> 114 [penwidth=2]
    209 -> 87 [penwidth=2]
    209 -> 141 [penwidth=2]
    209 -> 118 [penwidth=2]
    209 -> 161 [penwidth=2]
    209 -> 120 [penwidth=2]
    209 -> 165 [penwidth=2]
    209 -> 84 [penwidth=2]
    209 -> 90 [penwidth=2]
    209 -> 62 [penwidth=2]
    209 -> 127 [penwidth=2]
    209 -> 66 [penwidth=2]
    209 -> 111 [penwidth=2]
    209 -> 167 [penwidth=2]
    209 -> 63 [penwidth=2]
    209 -> 155 [penwidth=2]
    209 -> 134 [penwidth=2]
    209 -> 65 [penwidth=2]
    209 -> 130 [penwidth=2]
    209 -> 117 [penwidth=2]
    209 -> 60 [penwidth=2]
    209 -> 126 [penwidth=2]
    209 -> 108 [penwidth=2]
    209 -> 79 [penwidth=2]
    209 -> 110 [penwidth=2]
    209 -> 166 [penwidth=2]
    209 -> 61 [penwidth=2]
    209 -> 156 [penwidth=2]
    209 -> 88 [penwidth=2]
    209 -> 71 [penwidth=2]
    209 -> 142 [penwidth=2]
    209 -> 89 [penwidth=2]
    209 -> 122 [penwidth=2]
    209 -> 183 [penwidth=2]
    209 -> 139 [penwidth=2]
    209 -> 162 [penwidth=2]
    209 -> 152 [penwidth=2]
    209 -> 109 [penwidth=2]
    209 -> 135 [penwidth=2]
    209 -> 67 [penwidth=2]
    209 -> 91 [penwidth=2]
    209 -> 150 [penwidth=2]
    209 -> 59 [penwidth=2]
    209 -> 69 [penwidth=2]
    209 -> 159 [penwidth=2]
    209 -> 125 [penwidth=2]
    209 -> 115 [penwidth=2]
    209 -> 168 [penwidth=2]
    209 -> 173 [penwidth=2]
    209 -> 82 [penwidth=2]
    209 -> 170 [penwidth=2]
    209 -> 78 [penwidth=2]
    209 -> 180 [penwidth=2]
    209 -> 133 [penwidth=2]
    217 -> 155 [penwidth=2]
    217 -> 161 [penwidth=2]
    217 -> 74 [penwidth=2]
    217 -> 140 [penwidth=2]
    217 -> 136 [penwidth=2]
    217 -> 176 [penwidth=2]
    217 -> 78 [penwidth=2]
    217 -> 127 [penwidth=2]
    217 -> 146 [penwidth=2]
    217 -> 71 [penwidth=2]
    217 -> 110 [penwidth=2]
    217 -> 169 [penwidth=2]
    217 -> 89 [penwidth=2]
    217 -> 184 [penwidth=2]
    217 -> 174 [penwidth=2]
    217 -> 162 [penwidth=2]
    217 -> 72 [penwidth=2]
    217 -> 128 [penwidth=2]
    217 -> 109 [penwidth=2]
    217 -> 116 [penwidth=2]
    217 -> 159 [penwidth=2]
    217 -> 164 [penwidth=2]
    217 -> 157 [penwidth=2]
    217 -> 64 [penwidth=2]
    217 -> 160 [penwidth=2]
    217 -> 147 [penwidth=2]
    217 -> 131 [penwidth=2]
    217 -> 112 [penwidth=2]
    217 -> 151 [penwidth=2]
    217 -> 86 [penwidth=2]
    217 -> 134 [penwidth=2]
    217 -> 107 [penwidth=2]
    217 -> 75 [penwidth=2]
    217 -> 68 [penwidth=2]
    217 -> 66 [penwidth=2]
    217 -> 166 [penwidth=2]
    217 -> 85 [penwidth=2]
    217 -> 133 [penwidth=2]
    217 -> 175 [penwidth=2]
    217 -> 181 [penwidth=2]
    217 -> 63 [penwidth=2]
    217 -> 158 [penwidth=2]
    217 -> 130 [penwidth=2]
    217 -> 120 [penwidth=2]
    217 -> 122 [penwidth=2]
    217 -> 126 [penwidth=2]
    217 -> 149 [penwidth=2]
    217 -> 123 [penwidth=2]
    217 -> 81 [penwidth=2]
    217 -> 77 [penwidth=2]
    217 -> 70 [penwidth=2]
    217 -> 150 [penwidth=2]
    217 -> 65 [penwidth=2]
    217 -> 170 [penwidth=2]
    217 -> 124 [penwidth=2]
    217 -> 108 [penwidth=2]
    217 -> 80 [penwidth=2]
    217 -> 138 [penwidth=2]
    217 -> 87 [penwidth=2]
    217 -> 83 [penwidth=2]
    217 -> 177 [penwidth=2]
    217 -> 119 [penwidth=2]
    217 -> 111 [penwidth=2]
    217 -> 156 [penwidth=2]
    217 -> 59 [penwidth=2]
    217 -> 168 [penwidth=2]
    217 -> 67 [penwidth=2]
    217 -> 179 [penwidth=2]
    217 -> 182 [penwidth=2]
    217 -> 118 [penwidth=2]
    217 -> 105 [penwidth=2]
    217 -> 117 [penwidth=2]
    217 -> 163 [penwidth=2]
    217 -> 137 [penwidth=2]
    217 -> 125 [penwidth=2]
    217 -> 178 [penwidth=2]
    217 -> 132 [penwidth=2]
    217 -> 167 [penwidth=2]
    217 -> 76 [penwidth=2]
    217 -> 115 [penwidth=2]
    217 -> 106 [penwidth=2]
    217 -> 183 [penwidth=2]
    217 -> 60 [penwidth=2]
    217 -> 141 [penwidth=2]
    218 -> 157 [penwidth=2]
    218 -> 167 [penwidth=2]
    218 -> 71 [penwidth=2]
    218 -> 72 [penwidth=2]
    218 -> 69 [penwidth=2]
    218 -> 122 [penwidth=2]
    218 -> 168 [penwidth=2]
    218 -> 150 [penwidth=2]
    218 -> 130 [penwidth=2]
    218 -> 109 [penwidth=2]
    218 -> 118 [penwidth=2]
    218 -> 139 [penwidth=2]
    218 -> 90 [penwidth=2]
    218 -> 170 [penwidth=2]
    218 -> 165 [penwidth=2]
    218 -> 132 [penwidth=2]
    218 -> 153 [penwidth=2]
    218 -> 160 [penwidth=2]
    218 -> 86 [penwidth=2]
    218 -> 83 [penwidth=2]
    218 -> 74 [penwidth=2]
    218 -> 66 [penwidth=2]
    218 -> 173 [penwidth=2]
    218 -> 82 [penwidth=2]
    218 -> 115 [penwidth=2]
    218 -> 60 [penwidth=2]
    218 -> 111 [penwidth=2]
    218 -> 158 [penwidth=2]
    218 -> 107 [penwidth=2]
    218 -> 114 [penwidth=2]
    218 -> 181 [penwidth=2]
    218 -> 162 [penwidth=2]
    218 -> 81 [penwidth=2]
    218 -> 64 [penwidth=2]
    218 -> 161 [penwidth=2]
    218 -> 138 [penwidth=2]
    218 -> 65 [penwidth=2]
    218 -> 91 [penwidth=2]
    218 -> 136 [penwidth=2]
    218 -> 84 [penwidth=2]
    218 -> 141 [penwidth=2]
    218 -> 79 [penwidth=2]
    218 -> 62 [penwidth=2]
    218 -> 63 [penwidth=2]
    218 -> 182 [penwidth=2]
    218 -> 172 [penwidth=2]
    218 -> 183 [penwidth=2]
    218 -> 171 [penwidth=2]
    218 -> 88 [penwidth=2]
    218 -> 61 [penwidth=2]
    218 -> 147 [penwidth=2]
    218 -> 180 [penwidth=2]
    218 -> 87 [penwidth=2]
    218 -> 155 [penwidth=2]
    218 -> 175 [penwidth=2]
    218 -> 80 [penwidth=2]
    218 -> 73 [penwidth=2]
    218 -> 113 [penwidth=2]
    218 -> 164 [penwidth=2]
    218 -> 178 [penwidth=2]
    218 -> 108 [penwidth=2]
    218 -> 142 [penwidth=2]
    218 -> 184 [penwidth=2]
    218 -> 120 [penwidth=2]
    218 -> 169 [penwidth=2]
    218 -> 68 [penwidth=2]
    218 -> 75 [penwidth=2]
    218 -> 133 [penwidth=2]
    218 -> 110 [penwidth=2]
    218 -> 76 [penwidth=2]
    218 -> 140 [penwidth=2]
    218 -> 117 [penwidth=2]
    218 -> 105 [penwidth=2]
    218 -> 123 [penwidth=2]
    218 -> 129 [penwidth=2]
    218 -> 78 [penwidth=2]
    218 -> 179 [penwidth=2]
    218 -> 89 [penwidth=2]
    218 -> 116 [penwidth=2]
    218 -> 112 [penwidth=2]
    218 -> 127 [penwidth=2]
    218 -> 119 [penwidth=2]
    218 -> 166 [penwidth=2]
    218 -> 70 [penwidth=2]
    218 -> 128 [penwidth=2]
    218 -> 159 [penwidth=2]
    218 -> 163 [penwidth=2]
    218 -> 146 [penwidth=2]
    218 -> 149 [penwidth=2]
    218 -> 152 [penwidth=2]
    218 -> 148 [penwidth=2]
    218 -> 106 [penwidth=2]
    218 -> 174 [penwidth=2]
    218 -> 77 [penwidth=2]
    218 -> 156 [penwidth=2]
    218 -> 59 [penwidth=2]
    218 -> 67 [penwidth=2]
    218 -> 151 [penwidth=2]
    218 -> 126 [penwidth=2]
    218 -> 131 [penwidth=2]
    218 -> 177 [penwidth=2]
    218 -> 134 [penwidth=2]
    226 -> 87 [penwidth=2]
    226 -> 162 [penwidth=2]
    226 -> 66 [penwidth=2]
    226 -> 172 [penwidth=2]
    226 -> 74 [penwidth=2]
    226 -> 152 [penwidth=2]
    226 -> 116 [penwidth=2]
    226 -> 89 [penwidth=2]
    226 -> 70 [penwidth=2]
    226 -> 91 [penwidth=2]
    226 -> 181 [penwidth=2]
    226 -> 179 [penwidth=2]
    226 -> 151 [penwidth=2]
    226 -> 126 [penwidth=2]
    226 -> 68 [penwidth=2]
    226 -> 67 [penwidth=2]
    226 -> 183 [penwidth=2]
    226 -> 148 [penwidth=2]
    226 -> 81 [penwidth=2]
    226 -> 110 [penwidth=2]
    226 -> 85 [penwidth=2]
    226 -> 173 [penwidth=2]
    226 -> 135 [penwidth=2]
    226 -> 138 [penwidth=2]
    226 -> 153 [penwidth=2]
    226 -> 166 [penwidth=2]
    226 -> 111 [penwidth=2]
    226 -> 157 [penwidth=2]
    226 -> 64 [penwidth=2]
    226 -> 149 [penwidth=2]
    226 -> 169 [penwidth=2]
    226 -> 129 [penwidth=2]
    226 -> 120 [penwidth=2]
    226 -> 176 [penwidth=2]
    226 -> 106 [penwidth=2]
    226 -> 82 [penwidth=2]
    226 -> 107 [penwidth=2]
    226 -> 60 [penwidth=2]
    226 -> 180 [penwidth=2]
    226 -> 161 [penwidth=2]
    226 -> 123 [penwidth=2]
    226 -> 79 [penwidth=2]
    226 -> 108 [penwidth=2]
    226 -> 174 [penwidth=2]
    226 -> 133 [penwidth=2]
    226 -> 115 [penwidth=2]
    226 -> 170 [penwidth=2]
    226 -> 84 [penwidth=2]
    226 -> 159 [penwidth=2]
    226 -> 73 [penwidth=2]
    226 -> 83 [penwidth=2]
    226 -> 80 [penwidth=2]
    226 -> 59 [penwidth=2]
    226 -> 78 [penwidth=2]
    226 -> 86 [penwidth=2]
    226 -> 72 [penwidth=2]
    226 -> 140 [penwidth=2]
    226 -> 71 [penwidth=2]
    226 -> 117 [penwidth=2]
    226 -> 163 [penwidth=2]
    226 -> 119 [penwidth=2]
    226 -> 112 [penwidth=2]
    226 -> 160 [penwidth=2]
    226 -> 175 [penwidth=2]
    226 -> 134 [penwidth=2]
    226 -> 122 [penwidth=2]
    226 -> 141 [penwidth=2]
    226 -> 90 [penwidth=2]
    226 -> 137 [penwidth=2]
    226 -> 167 [penwidth=2]
    226 -> 177 [penwidth=2]
    226 -> 124 [penwidth=2]
}