digraph G {
    0 [penwidth=3,label="0"]
    1 [penwidth=3,label="1"]
    2 [penwidth=3,label="2"]
    3 [penwidth=3,label="3"]
    4 [penwidth=3,label="4"]
    5 [penwidth=3,label="5"]
    6 [penwidth=3,label="6"]
    7 [penwidth=3,label="7"]
    8 [penwidth=3,label="8"]
    9 [penwidth=3,label="9"]
    10 [penwidth=3,label="10"]
    11 [penwidth=3,label="11"]
    12 [penwidth=3,label="12"]
    13 [penwidth=3,label="13"]
    14 [penwidth=3,label="14"]
    15 [penwidth=3,label="15"]
    16 [penwidth=3,label="16"]
    17 [penwidth=3,label="17"]
    18 [penwidth=3,label="18"]
    19 [penwidth=3,label="19"]
    20 [penwidth=3,label="20"]
    21 [penwidth=3,label="21"]
    22 [penwidth=3,label="22"]
    23 [penwidth=3,label="23"]
    24 [penwidth=3,label="24"]
    25 [penwidth=3,label="25"]
    26 [penwidth=3,label="26"]
    27 [penwidth=3,label="27"]
    28 [penwidth=3,label="28"]
    29 [penwidth=3,label="29"]
    30 [penwidth=3,label="30"]
    31 [penwidth=3,label="31"]
    32 [penwidth=3,label="32"]
    33 [penwidth=3,label="33"]
    34 [penwidth=3,label="34"]
    35 [penwidth=3,label="35"]
    36 [penwidth=3,label="36"]
    37 [penwidth=3,label="37"]
    38 [penwidth=3,label="38"]
    39 [penwidth=3,label="39"]
    40 [penwidth=3,label="40"]
    41 [penwidth=3,label="41"]
    42 [penwidth=3,label="42"]
    43 [penwidth=3,label="43"]
    44 [penwidth=3,label="44"]
    45 [penwidth=3,label="45"]
    46 [penwidth=3,label="46"]
    47 [penwidth=3,label="47"]
    48 [penwidth=3,label="48"]
    49 [penwidth=3,label="49"]
    50 [penwidth=3,label="50"]
    51 [penwidth=3,label="51"]
    52 [penwidth=3,label="52"]
    53 [penwidth=3,label="53"]
    54 [penwidth=3,label="54"]
    55 [penwidth=3,label="55"]
    56 [penwidth=3,label="56"]
    57 [penwidth=3,label="57"]
    58 [penwidth=3,label="58"]
    59 [penwidth=3,label="59"]
    60 [penwidth=3,label="60"]
    61 [penwidth=3,label="61"]
    62 [penwidth=3,label="62"]
    63 [penwidth=3,label="63"]
    64 [penwidth=3,label="64"]
    65 [penwidth=3,label="65"]
    66 [penwidth=3,label="66"]
    67 [penwidth=3,label="67"]
    68 [penwidth=3,label="68"]
    69 [penwidth=3,label="69"]
    70 [penwidth=3,label="70"]
    71 [penwidth=3,label="71"]
    72 [penwidth=3,label="72"]
    73 [penwidth=3,label="73"]
    74 [penwidth=3,label="74"]
    75 [penwidth=3,label="75"]
    76 [penwidth=3,label="76"]
    77 [penwidth=3,label="77"]
    78 [penwidth=3,label="78"]
    79 [penwidth=3,label="79"]
    80 [penwidth=3,label="80"]
    81 [penwidth=3,label="81"]
    82 [penwidth=3,label="82"]
    83 [penwidth=3,label="83"]
    84 [penwidth=3,label="84"]
    85 [penwidth=3,label="85"]
    86 [penwidth=3,label="86"]
    87 [penwidth=3,label="87"]
    88 [penwidth=3,label="88"]
    89 [penwidth=3,label="89"]
    90 [penwidth=3,label="90"]
    91 [penwidth=3,label="91"]
    92 [penwidth=3,label="92"]
    93 [penwidth=3,label="93"]
    94 [penwidth=3,label="94"]
    95 [penwidth=3,label="95"]
    96 [penwidth=3,label="96"]
    97 [penwidth=3,label="97"]
    98 [penwidth=3,label="98"]
    99 [penwidth=3,label="99"]
    100 [penwidth=3,label="100"]
    101 [penwidth=3,label="101"]
    102 [penwidth=3,label="102"]
    103 [penwidth=3,label="103"]
    104 [penwidth=3,label="104"]
    105 [penwidth=3,label="105"]
    106 [penwidth=3,label="106"]
    107 [penwidth=3,label="107"]
    108 [penwidth=3,label="108"]
    109 [penwidth=3,label="109"]
    110 [penwidth=3,label="110"]
    111 [penwidth=3,label="111"]
    112 [penwidth=3,label="112"]
    113 [penwidth=3,label="113"]
    114 [penwidth=3,label="114"]
    115 [penwidth=3,label="115"]
    116 [penwidth=3,label="116"]
    117 [penwidth=3,label="117"]
    118 [penwidth=3,label="118"]
    119 [penwidth=3,label="119"]
    120 [penwidth=3,label="120"]
    121 [penwidth=3,label="121"]
    122 [penwidth=3,label="122"]
    123 [penwidth=3,label="123"]
    124 [penwidth=3,label="124"]
    125 [penwidth=3,label="125"]
    126 [penwidth=3,label="126"]
    127 [penwidth=3,label="127"]
    128 [penwidth=3,label="128"]
    129 [penwidth=3,label="129"]
    130 [penwidth=3,label="130"]
    131 [penwidth=3,label="131"]
    132 [penwidth=3,label="132"]
    133 [penwidth=3,label="133"]
    134 [penwidth=3,label="134"]
    135 [penwidth=3,label="135"]
    136 [penwidth=3,label="136"]
    137 [penwidth=3,label="137"]
    138 [penwidth=3,label="138"]
    139 [penwidth=3,label="139"]
    140 [penwidth=3,label="140"]
    141 [penwidth=3,label="141"]
    142 [penwidth=3,label="142"]
    143 [penwidth=3,label="143"]
    144 [penwidth=3,label="144"]
    145 [penwidth=3,label="145"]
    146 [penwidth=3,label="146"]
    147 [penwidth=3,label="147"]
    148 [penwidth=3,label="148"]
    149 [penwidth=3,label="149"]
    150 [penwidth=3,label="150"]
    151 [penwidth=3,label="151"]
    152 [penwidth=3,label="152"]
    153 [penwidth=3,label="153"]
    154 [penwidth=3,label="154"]
    155 [penwidth=3,label="155"]
    156 [penwidth=3,label="156"]
    157 [penwidth=3,label="157"]
    158 [penwidth=3,label="158"]
    159 [penwidth=3,label="159"]
    160 [penwidth=3,label="160"]
    161 [penwidth=3,label="161"]
    162 [penwidth=3,label="162"]
    163 [penwidth=3,label="163"]
    164 [penwidth=3,label="164"]
    165 [penwidth=3,label="165"]
    166 [penwidth=3,label="166"]
    167 [penwidth=3,label="167"]
    168 [penwidth=3,label="168"]
    169 [penwidth=3,label="169"]
    170 [penwidth=3,label="170"]
    171 [penwidth=3,label="171"]
    172 [penwidth=3,label="172"]
    173 [penwidth=3,label="173"]
    174 [penwidth=3,label="174"]
    175 [penwidth=3,label="175"]
    176 [penwidth=3,label="176"]
    177 [penwidth=3,label="177"]
    178 [penwidth=3,label="178"]
    179 [penwidth=3,label="179"]
    180 [penwidth=3,label="180"]
    181 [penwidth=3,label="181"]
    182 [penwidth=3,label="182"]
    183 [penwidth=3,label="183"]
    184 [penwidth=3,label="184"]
    185 [penwidth=3,label="185"]
    186 [penwidth=3,label="186"]
    187 [penwidth=3,label="187"]
    188 [penwidth=3,label="188"]
    189 [penwidth=3,label="189"]
    190 [penwidth=3,label="190"]
    191 [penwidth=3,label="191"]
    192 [penwidth=3,label="192"]
    193 [penwidth=3,label="193"]
    194 [penwidth=3,label="194"]
    195 [penwidth=3,label="195"]
    196 [penwidth=3,label="196"]
    197 [penwidth=3,label="197"]
    198 [penwidth=3,label="198"]
    199 [penwidth=3,label="199"]
    200 [penwidth=3,label="200"]
    201 [penwidth=3,label="201"]
    202 [penwidth=3,label="202"]
    203 [penwidth=3,label="203"]
    204 [penwidth=3,label="204"]
    205 [penwidth=3,label="205"]
    206 [penwidth=3,label="206"]
    207 [penwidth=3,label="207"]
    208 [penwidth=3,label="208"]
    209 [penwidth=3,label="209"]
    210 [penwidth=3,label="210"]
    211 [penwidth=3,label="211"]
    212 [penwidth=3,label="212"]
    213 [penwidth=3,label="213"]
    214 [penwidth=3,label="214"]
    215 [penwidth=3,label="215"]
    216 [penwidth=3,label="216"]
    217 [penwidth=3,label="217"]
    218 [penwidth=3,label="218"]
    219 [penwidth=3,label="219"]
    220 [penwidth=3,label="220"]
    221 [penwidth=3,label="221"]
    222 [penwidth=3,label="222"]
    223 [penwidth=3,label="223"]
    224 [penwidth=3,label="224"]
    225 [penwidth=3,label="225"]
    226 [penwidth=3,label="226"]
    227 [penwidth=3,label="227"]
    228 [penwidth=3,label="228"]
    229 [penwidth=3,label="229"]
    230 [penwidth=3,label="230"]
    231 [penwidth=3,label="231"]
    232 [penwidth=3,label="232"]
    233 [penwidth=3,label="233"]
    234 [penwidth=3,label="234"]
    235 [penwidth=3,label="235"]
    236 [penwidth=3,label="236"]
    237 [penwidth=3,label="237"]
    238 [penwidth=3,label="238"]
    239 [penwidth=3,label="239"]
    240 [penwidth=3,label="240"]
    241 [penwidth=3,label="241"]
    242 [penwidth=3,label="242"]
    243 [penwidth=3,label="243"]
    244 [penwidth=3,label="244"]
    245 [penwidth=3,label="245"]
    246 [penwidth=3,label="246"]
    247 [penwidth=3,label="247"]
    248 [penwidth=3,label="248"]
    249 [penwidth=3,label="249"]
    250 [penwidth=3,label="250"]
    251 [penwidth=3,label="251"]
    252 [penwidth=3,label="252"]
    253 [penwidth=3,label="253"]
    254 [penwidth=3,label="254"]
    255 [penwidth=3,label="255"]
    256 [penwidth=3,label="256"]
    257 [penwidth=3,label="257"]
    258 [penwidth=3,label="258"]
    259 [penwidth=3,label="259"]
    260 [penwidth=3,label="260"]
    261 [penwidth=3,label="261"]
    262 [penwidth=3,label="262"]
    263 [penwidth=3,label="263"]
    264 [penwidth=3,label="264"]
    265 [penwidth=3,label="265"]
    266 [penwidth=3,label="266"]
    267 [penwidth=3,label="267"]
    268 [penwidth=3,label="268"]
    269 [penwidth=3,label="269"]
    270 [penwidth=3,label="270"]
    271 [penwidth=3,label="271"]
    272 [penwidth=3,label="272"]
    273 [penwidth=3,label="273"]
    274 [penwidth=3,label="274"]
    275 [penwidth=3,label="275"]
    276 [penwidth=3,label="276"]
    277 [penwidth=3,label="277"]
    278 [penwidth=3,label="278"]
    279 [penwidth=3,label="279"]
    280 [penwidth=3,label="280"]
    281 [penwidth=3,label="281"]
    282 [penwidth=3,label="282"]
    283 [penwidth=3,label="283"]
    284 [penwidth=3,label="284"]
    285 [penwidth=3,label="285"]
    286 [penwidth=3,label="286"]
    287 [penwidth=3,label="287"]
    288 [penwidth=3,label="288"]
    289 [penwidth=3,label="289"]
    290 [penwidth=3,label="290"]
    291 [penwidth=3,label="291"]
    292 [penwidth=3,label="292"]
    293 [penwidth=3,label="293"]
    294 [penwidth=3,label="294"]
    295 [penwidth=3,label="295"]
    296 [penwidth=3,label="296"]
    297 [penwidth=3,label="297"]
    298 [penwidth=3,label="298"]
    299 [penwidth=3,label="299"]
    300 [penwidth=3,label="300"]
    301 [penwidth=3,label="301"]
    302 [penwidth=3,label="302"]
    303 [penwidth=3,label="303"]
    304 [penwidth=3,label="304"]
    305 [penwidth=3,label="305"]
    306 [penwidth=3,label="306"]
    307 [penwidth=3,label="307"]
    308 [penwidth=3,label="308"]
    309 [penwidth=3,label="309"]

    298 -> 0 [penwidth=2]
    299 -> 0 [penwidth=2]
    300 -> 0 [penwidth=2]
    301 -> 0 [penwidth=2]
    302 -> 298 [penwidth=2]
    303 -> 298 [penwidth=2]
    304 -> 298 [penwidth=2]
    305 -> 298 [penwidth=2]
    306 -> 298 [penwidth=2]
    307 -> 298 [penwidth=2]
    308 -> 298 [penwidth=2]
    309 -> 298 [penwidth=2]
    1 -> 298 [penwidth=2]
    2 -> 298 [penwidth=2]
    3 -> 298 [penwidth=2]
    256 -> 298 [penwidth=2]
    257 -> 299 [penwidth=2]
    258 -> 299 [penwidth=2]
    259 -> 299 [penwidth=2]
    260 -> 299 [penwidth=2]
    261 -> 299 [penwidth=2]
    262 -> 299 [penwidth=2]
    263 -> 299 [penwidth=2]
    264 -> 299 [penwidth=2]
    265 -> 299 [penwidth=2]
    266 -> 299 [penwidth=2]
    267 -> 299 [penwidth=2]
    268 -> 299 [penwidth=2]
    269 -> 299 [penwidth=2]
    270 -> 299 [penwidth=2]
    271 -> 299 [penwidth=2]
    272 -> 299 [penwidth=2]
    273 -> 299 [penwidth=2]
    274 -> 299 [penwidth=2]
    275 -> 299 [penwidth=2]
    276 -> 299 [penwidth=2]
    277 -> 299 [penwidth=2]
    278 -> 299 [penwidth=2]
    279 -> 299 [penwidth=2]
    280 -> 300 [penwidth=2]
    281 -> 300 [penwidth=2]
    282 -> 300 [penwidth=2]
    283 -> 300 [penwidth=2]
    284 -> 300 [penwidth=2]
    285 -> 300 [penwidth=2]
    286 -> 300 [penwidth=2]
    287 -> 300 [penwidth=2]
    288 -> 300 [penwidth=2]
    289 -> 300 [penwidth=2]
    290 -> 300 [penwidth=2]
    291 -> 300 [penwidth=2]
    292 -> 300 [penwidth=2]
    293 -> 300 [penwidth=2]
    294 -> 300 [penwidth=2]
    295 -> 300 [penwidth=2]
    296 -> 300 [penwidth=2]
    297 -> 300 [penwidth=2]
    172 -> 300 [penwidth=2]
    214 -> 300 [penwidth=2]
    173 -> 301 [penwidth=2]
    215 -> 301 [penwidth=2]
    174 -> 301 [penwidth=2]
    216 -> 301 [penwidth=2]
    175 -> 301 [penwidth=2]
    217 -> 301 [penwidth=2]
    176 -> 301 [penwidth=2]
    218 -> 301 [penwidth=2]
    177 -> 303 [penwidth=2]
    219 -> 303 [penwidth=2]
    178 -> 303 [penwidth=2]
    220 -> 303 [penwidth=2]
    179 -> 303 [penwidth=2]
    221 -> 303 [penwidth=2]
    180 -> 303 [penwidth=2]
    222 -> 303 [penwidth=2]
    181 -> 303 [penwidth=2]
    223 -> 303 [penwidth=2]
    182 -> 303 [penwidth=2]
    224 -> 303 [penwidth=2]
    183 -> 303 [penwidth=2]
    225 -> 303 [penwidth=2]
    184 -> 303 [penwidth=2]
    226 -> 303 [penwidth=2]
    227 -> 303 [penwidth=2]
    185 -> 303 [penwidth=2]
    186 -> 303 [penwidth=2]
    228 -> 303 [penwidth=2]
    187 -> 303 [penwidth=2]
    229 -> 303 [penwidth=2]
    188 -> 303 [penwidth=2]
    230 -> 303 [penwidth=2]
    189 -> 304 [penwidth=2]
    231 -> 304 [penwidth=2]
    190 -> 304 [penwidth=2]
    232 -> 304 [penwidth=2]
    191 -> 304 [penwidth=2]
    233 -> 304 [penwidth=2]
    192 -> 304 [penwidth=2]
    234 -> 304 [penwidth=2]
    193 -> 304 [penwidth=2]
    235 -> 304 [penwidth=2]
    194 -> 304 [penwidth=2]
    236 -> 304 [penwidth=2]
    237 -> 304 [penwidth=2]
    195 -> 304 [penwidth=2]
    196 -> 304 [penwidth=2]
    238 -> 304 [penwidth=2]
    197 -> 304 [penwidth=2]
    239 -> 304 [penwidth=2]
    198 -> 304 [penwidth=2]
    240 -> 304 [penwidth=2]
    199 -> 304 [penwidth=2]
    241 -> 304 [penwidth=2]
    200 -> 304 [penwidth=2]
    242 -> 304 [penwidth=2]
    201 -> 305 [penwidth=2]
    243 -> 305 [penwidth=2]
    202 -> 305 [penwidth=2]
    244 -> 305 [penwidth=2]
    203 -> 305 [penwidth=2]
    245 -> 305 [penwidth=2]
    204 -> 305 [penwidth=2]
    246 -> 305 [penwidth=2]
    205 -> 305 [penwidth=2]
    247 -> 306 [penwidth=2]
    206 -> 306 [penwidth=2]
    248 -> 306 [penwidth=2]
    207 -> 306 [penwidth=2]
    249 -> 306 [penwidth=2]
    208 -> 306 [penwidth=2]
    250 -> 306 [penwidth=2]
    209 -> 306 [penwidth=2]
    251 -> 307 [penwidth=2]
    252 -> 307 [penwidth=2]
    210 -> 307 [penwidth=2]
    253 -> 307 [penwidth=2]
    211 -> 307 [penwidth=2]
    212 -> 307 [penwidth=2]
    254 -> 307 [penwidth=2]
    213 -> 307 [penwidth=2]
    255 -> 307 [penwidth=2]
    46 -> 307 [penwidth=2]
    88 -> 307 [penwidth=2]
    130 -> 307 [penwidth=2]
    47 -> 308 [penwidth=2]
    89 -> 308 [penwidth=2]
    131 -> 308 [penwidth=2]
    48 -> 308 [penwidth=2]
    90 -> 308 [penwidth=2]
    132 -> 308 [penwidth=2]
    49 -> 308 [penwidth=2]
    91 -> 309 [penwidth=2]
    133 -> 309 [penwidth=2]
    50 -> 309 [penwidth=2]
    92 -> 309 [penwidth=2]
    134 -> 309 [penwidth=2]
    51 -> 309 [penwidth=2]
    93 -> 309 [penwidth=2]
    135 -> 309 [penwidth=2]
    52 -> 1 [penwidth=2]
    94 -> 1 [penwidth=2]
    136 -> 1 [penwidth=2]
    53 -> 1 [penwidth=2]
    95 -> 1 [penwidth=2]
    137 -> 1 [penwidth=2]
    54 -> 1 [penwidth=2]
    96 -> 1 [penwidth=2]
    138 -> 1 [penwidth=2]
    55 -> 1 [penwidth=2]
    97 -> 1 [penwidth=2]
    139 -> 1 [penwidth=2]
    56 -> 1 [penwidth=2]
    98 -> 1 [penwidth=2]
    140 -> 1 [penwidth=2]
    57 -> 1 [penwidth=2]
    99 -> 1 [penwidth=2]
    141 -> 1 [penwidth=2]
    58 -> 2 [penwidth=2]
    100 -> 2 [penwidth=2]
    142 -> 2 [penwidth=2]
    59 -> 2 [penwidth=2]
    101 -> 2 [penwidth=2]
    143 -> 2 [penwidth=2]
    60 -> 2 [penwidth=2]
    102 -> 2 [penwidth=2]
    144 -> 2 [penwidth=2]
    61 -> 2 [penwidth=2]
    103 -> 256 [penwidth=2]
    145 -> 256 [penwidth=2]
    62 -> 256 [penwidth=2]
    104 -> 256 [penwidth=2]
    146 -> 256 [penwidth=2]
    63 -> 256 [penwidth=2]
    105 -> 256 [penwidth=2]
    147 -> 256 [penwidth=2]
    64 -> 256 [penwidth=2]
    106 -> 256 [penwidth=2]
    148 -> 256 [penwidth=2]
    65 -> 256 [penwidth=2]
    107 -> 256 [penwidth=2]
    149 -> 256 [penwidth=2]
    66 -> 256 [penwidth=2]
    108 -> 256 [penwidth=2]
    150 -> 256 [penwidth=2]
    67 -> 256 [penwidth=2]
    109 -> 256 [penwidth=2]
    151 -> 256 [penwidth=2]
    68 -> 256 [penwidth=2]
    110 -> 256 [penwidth=2]
    152 -> 256 [penwidth=2]
    69 -> 256 [penwidth=2]
    111 -> 256 [penwidth=2]
    153 -> 257 [penwidth=2]
    70 -> 257 [penwidth=2]
    112 -> 257 [penwidth=2]
    154 -> 257 [penwidth=2]
    71 -> 257 [penwidth=2]
    113 -> 257 [penwidth=2]
    155 -> 257 [penwidth=2]
    72 -> 257 [penwidth=2]
    114 -> 257 [penwidth=2]
    156 -> 257 [penwidth=2]
    73 -> 257 [penwidth=2]
    115 -> 257 [penwidth=2]
    157 -> 257 [penwidth=2]
    74 -> 257 [penwidth=2]
    116 -> 257 [penwidth=2]
    158 -> 257 [penwidth=2]
    75 -> 257 [penwidth=2]
    117 -> 257 [penwidth=2]
    159 -> 257 [penwidth=2]
    76 -> 257 [penwidth=2]
    118 -> 257 [penwidth=2]
    160 -> 257 [penwidth=2]
    77 -> 258 [penwidth=2]
    119 -> 258 [penwidth=2]
    161 -> 258 [penwidth=2]
    78 -> 258 [penwidth=2]
    120 -> 258 [penwidth=2]
    162 -> 258 [penwidth=2]
    79 -> 258 [penwidth=2]
    121 -> 258 [penwidth=2]
    163 -> 258 [penwidth=2]
    80 -> 258 [penwidth=2]
    122 -> 258 [penwidth=2]
    164 -> 258 [penwidth=2]
    81 -> 258 [penwidth=2]
    123 -> 258 [penwidth=2]
    165 -> 258 [penwidth=2]
    82 -> 258 [penwidth=2]
    124 -> 258 [penwidth=2]
    166 -> 258 [penwidth=2]
    83 -> 258 [penwidth=2]
    125 -> 258 [penwidth=2]
    167 -> 258 [penwidth=2]
    84 -> 258 [penwidth=2]
    126 -> 258 [penwidth=2]
    168 -> 259 [penwidth=2]
    85 -> 259 [penwidth=2]
    127 -> 259 [penwidth=2]
    169 -> 260 [penwidth=2]
    86 -> 260 [penwidth=2]
    128 -> 260 [penwidth=2]
    170 -> 260 [penwidth=2]
    87 -> 260 [penwidth=2]
    129 -> 260 [penwidth=2]
    171 -> 260 [penwidth=2]
    4 -> 260 [penwidth=2]
    5 -> 260 [penwidth=2]
    6 -> 260 [penwidth=2]
    7 -> 260 [penwidth=2]
    8 -> 260 [penwidth=2]
    9 -> 260 [penwidth=2]
    10 -> 260 [penwidth=2]
    11 -> 260 [penwidth=2]
    12 -> 260 [penwidth=2]
    13 -> 260 [penwidth=2]
    14 -> 260 [penwidth=2]
    15 -> 260 [penwidth=2]
    16 -> 260 [penwidth=2]
    17 -> 260 [penwidth=2]
    18 -> 260 [penwidth=2]
    19 -> 261 [penwidth=2]
    20 -> 261 [penwidth=2]
    21 -> 261 [penwidth=2]
    22 -> 261 [penwidth=2]
    23 -> 261 [penwidth=2]
    24 -> 261 [penwidth=2]
    25 -> 261 [penwidth=2]
    26 -> 261 [penwidth=2]
    27 -> 261 [penwidth=2]
    28 -> 261 [penwidth=2]
    29 -> 261 [penwidth=2]
    30 -> 261 [penwidth=2]
    31 -> 261 [penwidth=2]
    32 -> 261 [penwidth=2]
    33 -> 261 [penwidth=2]
    34 -> 261 [penwidth=2]
    35 -> 261 [penwidth=2]
    36 -> 261 [penwidth=2]
    37 -> 261 [penwidth=2]
    38 -> 261 [penwidth=2]
    39 -> 261 [penwidth=2]
    40 -> 262 [penwidth=2]
    41 -> 262 [penwidth=2]
    42 -> 262 [penwidth=2]
    43 -> 262 [penwidth=2]
    44 -> 262 [penwidth=2]
    45 -> 262 [penwidth=2]
    303 -> 301 [penwidth=2]
    303 -> 299 [penwidth=2]
    304 -> 300 [penwidth=2]
    270 -> 298 [penwidth=2]
    278 -> 298 [penwidth=2]
    278 -> 300 [penwidth=2]
    279 -> 300 [penwidth=2]
    179 -> 274 [penwidth=2]
    179 -> 280 [penwidth=2]
    179 -> 287 [penwidth=2]
    179 -> 282 [penwidth=2]
    179 -> 271 [penwidth=2]
    179 -> 216 [penwidth=2]
    179 -> 296 [penwidth=2]
    181 -> 268 [penwidth=2]
    181 -> 264 [penwidth=2]
    181 -> 215 [penwidth=2]
    181 -> 282 [penwidth=2]
    181 -> 295 [penwidth=2]
    181 -> 2 [penwidth=2]
    181 -> 281 [penwidth=2]
    181 -> 289 [penwidth=2]
    181 -> 305 [penwidth=2]
    181 -> 271 [penwidth=2]
    181 -> 297 [penwidth=2]
    181 -> 307 [penwidth=2]
    181 -> 283 [penwidth=2]
    181 -> 279 [penwidth=2]
    181 -> 258 [penwidth=2]
    181 -> 287 [penwidth=2]
    181 -> 1 [penwidth=2]
    181 -> 266 [penwidth=2]
    181 -> 257 [penwidth=2]
    181 -> 309 [penwidth=2]
    181 -> 272 [penwidth=2]
    181 -> 176 [penwidth=2]
    181 -> 214 [penwidth=2]
    181 -> 276 [penwidth=2]
    181 -> 273 [penwidth=2]
    181 -> 286 [penwidth=2]
    181 -> 262 [penwidth=2]
    181 -> 304 [penwidth=2]
    181 -> 285 [penwidth=2]
    181 -> 3 [penwidth=2]
    181 -> 265 [penwidth=2]
    181 -> 306 [penwidth=2]
    181 -> 256 [penwidth=2]
    181 -> 269 [penwidth=2]
    181 -> 288 [penwidth=2]
    181 -> 294 [penwidth=2]
    183 -> 282 [penwidth=2]
    183 -> 2 [penwidth=2]
    183 -> 308 [penwidth=2]
    183 -> 260 [penwidth=2]
    183 -> 3 [penwidth=2]
    183 -> 292 [penwidth=2]
    183 -> 295 [penwidth=2]
    183 -> 176 [penwidth=2]
    183 -> 278 [penwidth=2]
    183 -> 269 [penwidth=2]
    183 -> 173 [penwidth=2]
    183 -> 272 [penwidth=2]
    183 -> 175 [penwidth=2]
    183 -> 306 [penwidth=2]
    183 -> 273 [penwidth=2]
    183 -> 275 [penwidth=2]
    183 -> 289 [penwidth=2]
    183 -> 261 [penwidth=2]
    183 -> 174 [penwidth=2]
    183 -> 263 [penwidth=2]
    183 -> 217 [penwidth=2]
    183 -> 294 [penwidth=2]
    183 -> 259 [penwidth=2]
    183 -> 216 [penwidth=2]
    183 -> 215 [penwidth=2]
    183 -> 265 [penwidth=2]
    183 -> 218 [penwidth=2]
    183 -> 296 [penwidth=2]
    183 -> 291 [penwidth=2]
    183 -> 293 [penwidth=2]
    183 -> 297 [penwidth=2]
    183 -> 256 [penwidth=2]
    183 -> 276 [penwidth=2]
    183 -> 267 [penwidth=2]
    183 -> 1 [penwidth=2]
    183 -> 266 [penwidth=2]
    183 -> 262 [penwidth=2]
    183 -> 285 [penwidth=2]
    183 -> 268 [penwidth=2]
    183 -> 264 [penwidth=2]
    196 -> 306 [penwidth=2]
    196 -> 277 [penwidth=2]
    196 -> 218 [penwidth=2]
    196 -> 2 [penwidth=2]
    196 -> 286 [penwidth=2]
    196 -> 260 [penwidth=2]
    196 -> 282 [penwidth=2]
    196 -> 305 [penwidth=2]
    196 -> 303 [penwidth=2]
    196 -> 261 [penwidth=2]
    196 -> 296 [penwidth=2]
    196 -> 215 [penwidth=2]
    196 -> 274 [penwidth=2]
    196 -> 275 [penwidth=2]
    196 -> 285 [penwidth=2]
    196 -> 1 [penwidth=2]
    196 -> 267 [penwidth=2]
    196 -> 258 [penwidth=2]
    196 -> 259 [penwidth=2]
    196 -> 294 [penwidth=2]
    196 -> 283 [penwidth=2]
    196 -> 309 [penwidth=2]
    196 -> 265 [penwidth=2]
    196 -> 256 [penwidth=2]
    196 -> 174 [penwidth=2]
    196 -> 3 [penwidth=2]
    196 -> 272 [penwidth=2]
    196 -> 284 [penwidth=2]
    196 -> 279 [penwidth=2]
    196 -> 173 [penwidth=2]
    196 -> 280 [penwidth=2]
    196 -> 302 [penwidth=2]
    196 -> 214 [penwidth=2]
    196 -> 287 [penwidth=2]
    196 -> 217 [penwidth=2]
    196 -> 290 [penwidth=2]
    196 -> 270 [penwidth=2]
    196 -> 271 [penwidth=2]
    196 -> 268 [penwidth=2]
    196 -> 307 [penwidth=2]
    196 -> 308 [penwidth=2]
    196 -> 266 [penwidth=2]
    196 -> 216 [penwidth=2]
    196 -> 257 [penwidth=2]
    196 -> 292 [penwidth=2]
    196 -> 263 [penwidth=2]
    196 -> 291 [penwidth=2]
    196 -> 288 [penwidth=2]
    196 -> 297 [penwidth=2]
    239 -> 278 [penwidth=2]
    239 -> 308 [penwidth=2]
    239 -> 267 [penwidth=2]
    239 -> 260 [penwidth=2]
    239 -> 256 [penwidth=2]
    239 -> 295 [penwidth=2]
    239 -> 282 [penwidth=2]
    239 -> 1 [penwidth=2]
    239 -> 268 [penwidth=2]
    239 -> 294 [penwidth=2]
    239 -> 270 [penwidth=2]
    239 -> 285 [penwidth=2]
    239 -> 287 [penwidth=2]
    239 -> 274 [penwidth=2]
    239 -> 218 [penwidth=2]
    239 -> 284 [penwidth=2]
    239 -> 272 [penwidth=2]
    239 -> 261 [penwidth=2]
    239 -> 297 [penwidth=2]
    239 -> 302 [penwidth=2]
    239 -> 172 [penwidth=2]
    239 -> 280 [penwidth=2]
    239 -> 289 [penwidth=2]
    239 -> 258 [penwidth=2]
    239 -> 296 [penwidth=2]
    239 -> 262 [penwidth=2]
    239 -> 215 [penwidth=2]
    239 -> 266 [penwidth=2]
    239 -> 290 [penwidth=2]
    239 -> 286 [penwidth=2]
    239 -> 271 [penwidth=2]
    239 -> 265 [penwidth=2]
    239 -> 264 [penwidth=2]
    239 -> 275 [penwidth=2]
    239 -> 288 [penwidth=2]
    239 -> 283 [penwidth=2]
    239 -> 277 [penwidth=2]
    239 -> 173 [penwidth=2]
    239 -> 269 [penwidth=2]
    239 -> 214 [penwidth=2]
    239 -> 176 [penwidth=2]
    239 -> 2 [penwidth=2]
    239 -> 3 [penwidth=2]
    239 -> 257 [penwidth=2]
    239 -> 293 [penwidth=2]
    239 -> 175 [penwidth=2]
    239 -> 281 [penwidth=2]
    239 -> 263 [penwidth=2]
    239 -> 307 [penwidth=2]
    239 -> 305 [penwidth=2]
    239 -> 303 [penwidth=2]
    239 -> 216 [penwidth=2]
    239 -> 309 [penwidth=2]
    239 -> 174 [penwidth=2]
    239 -> 291 [penwidth=2]
    239 -> 273 [penwidth=2]
    239 -> 292 [penwidth=2]
    239 -> 217 [penwidth=2]
    239 -> 306 [penwidth=2]
    202 -> 279 [penwidth=2]
    202 -> 266 [penwidth=2]
    202 -> 309 [penwidth=2]
    202 -> 173 [penwidth=2]
    202 -> 174 [penwidth=2]
    202 -> 306 [penwidth=2]
    202 -> 308 [penwidth=2]
    202 -> 297 [penwidth=2]
    206 -> 215 [penwidth=2]
    212 -> 306 [penwidth=2]
    212 -> 266 [penwidth=2]
    212 -> 269 [penwidth=2]
    212 -> 3 [penwidth=2]
    212 -> 280 [penwidth=2]
    212 -> 288 [penwidth=2]
    212 -> 297 [penwidth=2]
    212 -> 302 [penwidth=2]
    212 -> 261 [penwidth=2]
    212 -> 295 [penwidth=2]
    212 -> 279 [penwidth=2]
    212 -> 283 [penwidth=2]
    212 -> 305 [penwidth=2]
    212 -> 290 [penwidth=2]
    212 -> 268 [penwidth=2]
    212 -> 303 [penwidth=2]
    212 -> 263 [penwidth=2]
    212 -> 272 [penwidth=2]
    212 -> 293 [penwidth=2]
    212 -> 257 [penwidth=2]
    212 -> 304 [penwidth=2]
    212 -> 296 [penwidth=2]
    212 -> 277 [penwidth=2]
    212 -> 292 [penwidth=2]
    212 -> 274 [penwidth=2]
    212 -> 282 [penwidth=2]
    212 -> 175 [penwidth=2]
    212 -> 287 [penwidth=2]
    212 -> 267 [penwidth=2]
    212 -> 286 [penwidth=2]
    212 -> 256 [penwidth=2]
    212 -> 217 [penwidth=2]
    212 -> 276 [penwidth=2]
    212 -> 262 [penwidth=2]
    212 -> 215 [penwidth=2]
    212 -> 176 [penwidth=2]
    212 -> 273 [penwidth=2]
    212 -> 308 [penwidth=2]
    212 -> 1 [penwidth=2]
    212 -> 271 [penwidth=2]
    212 -> 275 [penwidth=2]
    212 -> 172 [penwidth=2]
    212 -> 281 [penwidth=2]
    212 -> 264 [penwidth=2]
    212 -> 289 [penwidth=2]
    212 -> 265 [penwidth=2]
    212 -> 218 [penwidth=2]
    212 -> 2 [penwidth=2]
    212 -> 174 [penwidth=2]
    212 -> 216 [penwidth=2]
    212 -> 173 [penwidth=2]
    212 -> 260 [penwidth=2]
    88 -> 303 [penwidth=2]
    89 -> 172 [penwidth=2]
    89 -> 259 [penwidth=2]
    89 -> 293 [penwidth=2]
    89 -> 271 [penwidth=2]
    89 -> 289 [penwidth=2]
    89 -> 267 [penwidth=2]
    89 -> 272 [penwidth=2]
    89 -> 287 [penwidth=2]
    89 -> 217 [penwidth=2]
    89 -> 3 [penwidth=2]
    89 -> 260 [penwidth=2]
    89 -> 216 [penwidth=2]
    89 -> 218 [penwidth=2]
    89 -> 176 [penwidth=2]
    89 -> 263 [penwidth=2]
    89 -> 268 [penwidth=2]
    89 -> 282 [penwidth=2]
    89 -> 278 [penwidth=2]
    89 -> 295 [penwidth=2]
    89 -> 273 [penwidth=2]
    89 -> 257 [penwidth=2]
    89 -> 288 [penwidth=2]
    89 -> 277 [penwidth=2]
    89 -> 264 [penwidth=2]
    89 -> 307 [penwidth=2]
    89 -> 279 [penwidth=2]
    89 -> 261 [penwidth=2]
    89 -> 214 [penwidth=2]
    89 -> 174 [penwidth=2]
    89 -> 215 [penwidth=2]
    89 -> 256 [penwidth=2]
    89 -> 1 [penwidth=2]
    89 -> 262 [penwidth=2]
    89 -> 286 [penwidth=2]
    89 -> 269 [penwidth=2]
    89 -> 296 [penwidth=2]
    89 -> 305 [penwidth=2]
    89 -> 275 [penwidth=2]
    89 -> 283 [penwidth=2]
    89 -> 266 [penwidth=2]
    89 -> 258 [penwidth=2]
    89 -> 294 [penwidth=2]
    89 -> 276 [penwidth=2]
    89 -> 2 [penwidth=2]
    89 -> 304 [penwidth=2]
    89 -> 309 [penwidth=2]
    89 -> 306 [penwidth=2]
    89 -> 280 [penwidth=2]
    89 -> 303 [penwidth=2]
    89 -> 274 [penwidth=2]
    89 -> 285 [penwidth=2]
    89 -> 270 [penwidth=2]
    89 -> 290 [penwidth=2]
    89 -> 292 [penwidth=2]
    89 -> 281 [penwidth=2]
    89 -> 173 [penwidth=2]
    137 -> 302 [penwidth=2]
    57 -> 279 [penwidth=2]
    57 -> 258 [penwidth=2]
    57 -> 256 [penwidth=2]
    57 -> 297 [penwidth=2]
    57 -> 268 [penwidth=2]
    57 -> 273 [penwidth=2]
    57 -> 257 [penwidth=2]
    57 -> 296 [penwidth=2]
    57 -> 261 [penwidth=2]
    57 -> 215 [penwidth=2]
    57 -> 281 [penwidth=2]
    57 -> 295 [penwidth=2]
    57 -> 293 [penwidth=2]
    57 -> 278 [penwidth=2]
    57 -> 3 [penwidth=2]
    57 -> 280 [penwidth=2]
    57 -> 307 [penwidth=2]
    57 -> 282 [penwidth=2]
    57 -> 304 [penwidth=2]
    57 -> 260 [penwidth=2]
    57 -> 291 [penwidth=2]
    57 -> 292 [penwidth=2]
    57 -> 275 [penwidth=2]
    57 -> 277 [penwidth=2]
    57 -> 216 [penwidth=2]
    57 -> 267 [penwidth=2]
    57 -> 264 [penwidth=2]
    57 -> 218 [penwidth=2]
    57 -> 174 [penwidth=2]
    57 -> 303 [penwidth=2]
    57 -> 2 [penwidth=2]
    57 -> 176 [penwidth=2]
    57 -> 272 [penwidth=2]
    57 -> 214 [penwidth=2]
    57 -> 276 [penwidth=2]
    57 -> 270 [penwidth=2]
    57 -> 266 [penwidth=2]
    144 -> 286 [penwidth=2]
    144 -> 307 [penwidth=2]
    144 -> 278 [penwidth=2]
    144 -> 281 [penwidth=2]
    144 -> 287 [penwidth=2]
    144 -> 285 [penwidth=2]
    144 -> 261 [penwidth=2]
    144 -> 309 [penwidth=2]
    144 -> 258 [penwidth=2]
    144 -> 288 [penwidth=2]
    144 -> 259 [penwidth=2]
    144 -> 264 [penwidth=2]
    144 -> 289 [penwidth=2]
    144 -> 256 [penwidth=2]
    149 -> 172 [penwidth=2]
    149 -> 216 [penwidth=2]
    149 -> 267 [penwidth=2]
    149 -> 271 [penwidth=2]
    149 -> 175 [penwidth=2]
    149 -> 269 [penwidth=2]
    149 -> 295 [penwidth=2]
    149 -> 284 [penwidth=2]
    149 -> 293 [penwidth=2]
    149 -> 277 [penwidth=2]
    149 -> 217 [penwidth=2]
    149 -> 278 [penwidth=2]
    149 -> 272 [penwidth=2]
    149 -> 283 [penwidth=2]
    149 -> 262 [penwidth=2]
    149 -> 290 [penwidth=2]
    149 -> 273 [penwidth=2]
    149 -> 2 [penwidth=2]
    149 -> 309 [penwidth=2]
    149 -> 276 [penwidth=2]
    149 -> 268 [penwidth=2]
    149 -> 3 [penwidth=2]
    149 -> 307 [penwidth=2]
    149 -> 282 [penwidth=2]
    149 -> 308 [penwidth=2]
    149 -> 266 [penwidth=2]
    149 -> 280 [penwidth=2]
    149 -> 257 [penwidth=2]
    149 -> 214 [penwidth=2]
    149 -> 281 [penwidth=2]
    149 -> 305 [penwidth=2]
    149 -> 261 [penwidth=2]
    149 -> 303 [penwidth=2]
    149 -> 287 [penwidth=2]
    149 -> 218 [penwidth=2]
    149 -> 306 [penwidth=2]
    149 -> 285 [penwidth=2]
    149 -> 291 [penwidth=2]
    149 -> 259 [penwidth=2]
    149 -> 265 [penwidth=2]
    149 -> 174 [penwidth=2]
    149 -> 264 [penwidth=2]
    149 -> 288 [penwidth=2]
    149 -> 274 [penwidth=2]
    149 -> 289 [penwidth=2]
    149 -> 1 [penwidth=2]
    149 -> 258 [penwidth=2]
    149 -> 275 [penwidth=2]
    149 -> 304 [penwidth=2]
    149 -> 296 [penwidth=2]
    149 -> 286 [penwidth=2]
    149 -> 260 [penwidth=2]
    149 -> 173 [penwidth=2]
    149 -> 279 [penwidth=2]
    149 -> 302 [penwidth=2]
    69 -> 265 [penwidth=2]
    69 -> 269 [penwidth=2]
    69 -> 277 [penwidth=2]
    69 -> 302 [penwidth=2]
    69 -> 274 [penwidth=2]
    69 -> 264 [penwidth=2]
    69 -> 307 [penwidth=2]
    69 -> 285 [penwidth=2]
    69 -> 278 [penwidth=2]
    69 -> 281 [penwidth=2]
    69 -> 283 [penwidth=2]
    69 -> 263 [penwidth=2]
    69 -> 176 [penwidth=2]
    69 -> 294 [penwidth=2]
    69 -> 2 [penwidth=2]
    73 -> 266 [penwidth=2]
    73 -> 268 [penwidth=2]
    73 -> 174 [penwidth=2]
    73 -> 275 [penwidth=2]
    73 -> 278 [penwidth=2]
    73 -> 277 [penwidth=2]
    73 -> 274 [penwidth=2]
    73 -> 296 [penwidth=2]
    73 -> 264 [penwidth=2]
    73 -> 217 [penwidth=2]
    73 -> 297 [penwidth=2]
    73 -> 289 [penwidth=2]
    73 -> 215 [penwidth=2]
    73 -> 279 [penwidth=2]
    73 -> 293 [penwidth=2]
    73 -> 308 [penwidth=2]
    73 -> 173 [penwidth=2]
    73 -> 265 [penwidth=2]
    73 -> 270 [penwidth=2]
    73 -> 262 [penwidth=2]
    73 -> 1 [penwidth=2]
    73 -> 256 [penwidth=2]
    73 -> 218 [penwidth=2]
    73 -> 295 [penwidth=2]
    73 -> 294 [penwidth=2]
    73 -> 305 [penwidth=2]
    73 -> 304 [penwidth=2]
    73 -> 292 [penwidth=2]
    73 -> 272 [penwidth=2]
    73 -> 269 [penwidth=2]
    73 -> 271 [penwidth=2]
    73 -> 3 [penwidth=2]
    73 -> 288 [penwidth=2]
    73 -> 259 [penwidth=2]
    73 -> 172 [penwidth=2]
    73 -> 309 [penwidth=2]
    73 -> 290 [penwidth=2]
    73 -> 216 [penwidth=2]
    73 -> 307 [penwidth=2]
    73 -> 306 [penwidth=2]
    73 -> 284 [penwidth=2]
    73 -> 281 [penwidth=2]
    73 -> 280 [penwidth=2]
    73 -> 276 [penwidth=2]
    73 -> 273 [penwidth=2]
    73 -> 282 [penwidth=2]
    73 -> 175 [penwidth=2]
    73 -> 263 [penwidth=2]
    73 -> 2 [penwidth=2]
    122 -> 267 [penwidth=2]
    122 -> 288 [penwidth=2]
    122 -> 175 [penwidth=2]
    122 -> 274 [penwidth=2]
    122 -> 269 [penwidth=2]
    122 -> 306 [penwidth=2]
    122 -> 261 [penwidth=2]
    122 -> 216 [penwidth=2]
    122 -> 273 [penwidth=2]
    122 -> 289 [penwidth=2]
    122 -> 304 [penwidth=2]
    164 -> 265 [penwidth=2]
    164 -> 216 [penwidth=2]
    164 -> 282 [penwidth=2]
    164 -> 286 [penwidth=2]
    164 -> 303 [penwidth=2]
    164 -> 270 [penwidth=2]
    164 -> 263 [penwidth=2]
    164 -> 273 [penwidth=2]
    164 -> 215 [penwidth=2]
    164 -> 287 [penwidth=2]
    164 -> 175 [penwidth=2]
    164 -> 294 [penwidth=2]
    164 -> 260 [penwidth=2]
    164 -> 264 [penwidth=2]
    164 -> 296 [penwidth=2]
    164 -> 261 [penwidth=2]
    164 -> 304 [penwidth=2]
    164 -> 172 [penwidth=2]
    164 -> 271 [penwidth=2]
    164 -> 176 [penwidth=2]
    164 -> 292 [penwidth=2]
    164 -> 307 [penwidth=2]
    164 -> 293 [penwidth=2]
    166 -> 270 [penwidth=2]
    166 -> 260 [penwidth=2]
    166 -> 296 [penwidth=2]
    166 -> 288 [penwidth=2]
    127 -> 273 [penwidth=2]
    127 -> 308 [penwidth=2]
    127 -> 175 [penwidth=2]
    127 -> 215 [penwidth=2]
    127 -> 277 [penwidth=2]
    127 -> 218 [penwidth=2]
    127 -> 269 [penwidth=2]
    127 -> 270 [penwidth=2]
    127 -> 306 [penwidth=2]
    127 -> 305 [penwidth=2]
    17 -> 3 [penwidth=2]
    17 -> 295 [penwidth=2]
    17 -> 281 [penwidth=2]
    17 -> 268 [penwidth=2]
    17 -> 306 [penwidth=2]
    17 -> 289 [penwidth=2]
    17 -> 266 [penwidth=2]
    17 -> 256 [penwidth=2]
    17 -> 175 [penwidth=2]
    17 -> 262 [penwidth=2]
    17 -> 285 [penwidth=2]
    17 -> 287 [penwidth=2]
    17 -> 282 [penwidth=2]
    17 -> 263 [penwidth=2]
    17 -> 257 [penwidth=2]
    17 -> 267 [penwidth=2]
    17 -> 307 [penwidth=2]
    17 -> 303 [penwidth=2]
    17 -> 264 [penwidth=2]
    17 -> 174 [penwidth=2]
    17 -> 1 [penwidth=2]
    17 -> 292 [penwidth=2]
    17 -> 216 [penwidth=2]
    17 -> 218 [penwidth=2]
    17 -> 297 [penwidth=2]
    17 -> 290 [penwidth=2]
    17 -> 291 [penwidth=2]
    17 -> 275 [penwidth=2]
    17 -> 276 [penwidth=2]
    17 -> 2 [penwidth=2]
    17 -> 265 [penwidth=2]
    17 -> 215 [penwidth=2]
    17 -> 304 [penwidth=2]
    17 -> 293 [penwidth=2]
    17 -> 261 [penwidth=2]
    17 -> 278 [penwidth=2]
    17 -> 283 [penwidth=2]
    17 -> 274 [penwidth=2]
    17 -> 309 [penwidth=2]
    17 -> 277 [penwidth=2]
    17 -> 270 [penwidth=2]
    17 -> 269 [penwidth=2]
    17 -> 259 [penwidth=2]
    17 -> 308 [penwidth=2]
    17 -> 288 [penwidth=2]
    17 -> 172 [penwidth=2]
    17 -> 302 [penwidth=2]
    17 -> 284 [penwidth=2]
    17 -> 272 [penwidth=2]
    17 -> 258 [penwidth=2]
    17 -> 286 [penwidth=2]
    17 -> 217 [penwidth=2]
    17 -> 173 [penwidth=2]
    17 -> 273 [penwidth=2]
    18 -> 267 [penwidth=2]
    18 -> 282 [penwidth=2]
    18 -> 175 [penwidth=2]
    18 -> 172 [penwidth=2]
    18 -> 306 [penwidth=2]
    18 -> 265 [penwidth=2]
    18 -> 276 [penwidth=2]
    18 -> 269 [penwidth=2]
    18 -> 274 [penwidth=2]
    18 -> 216 [penwidth=2]
    18 -> 289 [penwidth=2]
    18 -> 272 [penwidth=2]
    18 -> 305 [penwidth=2]
    18 -> 214 [penwidth=2]
    18 -> 309 [penwidth=2]
    18 -> 307 [penwidth=2]
    18 -> 308 [penwidth=2]
    18 -> 217 [penwidth=2]
    18 -> 258 [penwidth=2]
    18 -> 174 [penwidth=2]
    18 -> 279 [penwidth=2]
    18 -> 278 [penwidth=2]
    18 -> 215 [penwidth=2]
    18 -> 285 [penwidth=2]
    18 -> 302 [penwidth=2]
    18 -> 273 [penwidth=2]
    18 -> 270 [penwidth=2]
    18 -> 293 [penwidth=2]
    18 -> 291 [penwidth=2]
    18 -> 268 [penwidth=2]
    18 -> 2 [penwidth=2]
    18 -> 1 [penwidth=2]
    18 -> 257 [penwidth=2]
    18 -> 280 [penwidth=2]
    25 -> 176 [penwidth=2]
    25 -> 216 [penwidth=2]
    25 -> 218 [penwidth=2]
    25 -> 3 [penwidth=2]
    25 -> 287 [penwidth=2]
    25 -> 309 [penwidth=2]
    25 -> 307 [penwidth=2]
    25 -> 263 [penwidth=2]
    25 -> 285 [penwidth=2]
    25 -> 260 [penwidth=2]
    25 -> 262 [penwidth=2]
    25 -> 279 [penwidth=2]
    25 -> 266 [penwidth=2]
    25 -> 308 [penwidth=2]
    25 -> 304 [penwidth=2]
    25 -> 290 [penwidth=2]
    25 -> 281 [penwidth=2]
    25 -> 272 [penwidth=2]
    25 -> 280 [penwidth=2]
    25 -> 1 [penwidth=2]
    25 -> 276 [penwidth=2]
    25 -> 2 [penwidth=2]
    25 -> 257 [penwidth=2]
    25 -> 259 [penwidth=2]
    25 -> 292 [penwidth=2]
    25 -> 256 [penwidth=2]
    25 -> 305 [penwidth=2]
    25 -> 258 [penwidth=2]
    25 -> 174 [penwidth=2]
    25 -> 273 [penwidth=2]
    25 -> 277 [penwidth=2]
    25 -> 270 [penwidth=2]
    25 -> 297 [penwidth=2]
    25 -> 294 [penwidth=2]
    25 -> 175 [penwidth=2]
    27 -> 277 [penwidth=2]
    27 -> 1 [penwidth=2]
    27 -> 217 [penwidth=2]
    27 -> 2 [penwidth=2]
    27 -> 306 [penwidth=2]
    27 -> 281 [penwidth=2]
    27 -> 270 [penwidth=2]
    27 -> 175 [penwidth=2]
    27 -> 282 [penwidth=2]
    27 -> 266 [penwidth=2]
    27 -> 294 [penwidth=2]
    27 -> 290 [penwidth=2]
    27 -> 288 [penwidth=2]
    27 -> 216 [penwidth=2]
    27 -> 302 [penwidth=2]
    27 -> 308 [penwidth=2]
    27 -> 215 [penwidth=2]
    27 -> 292 [penwidth=2]
    27 -> 271 [penwidth=2]
    27 -> 269 [penwidth=2]
    27 -> 296 [penwidth=2]
    27 -> 260 [penwidth=2]
    27 -> 293 [penwidth=2]
    27 -> 273 [penwidth=2]
    27 -> 309 [penwidth=2]
    27 -> 307 [penwidth=2]
    27 -> 291 [penwidth=2]
    27 -> 276 [penwidth=2]
    27 -> 274 [penwidth=2]
    27 -> 257 [penwidth=2]
    27 -> 218 [penwidth=2]
    27 -> 173 [penwidth=2]
    27 -> 297 [penwidth=2]
    27 -> 295 [penwidth=2]
    27 -> 264 [penwidth=2]
    27 -> 278 [penwidth=2]
    27 -> 3 [penwidth=2]
    27 -> 258 [penwidth=2]
    27 -> 284 [penwidth=2]
    27 -> 283 [penwidth=2]
    27 -> 286 [penwidth=2]
    27 -> 304 [penwidth=2]
    27 -> 279 [penwidth=2]
    27 -> 259 [penwidth=2]
    27 -> 263 [penwidth=2]
    27 -> 267 [penwidth=2]
    27 -> 256 [penwidth=2]
    27 -> 285 [penwidth=2]
    27 -> 289 [penwidth=2]
    27 -> 176 [penwidth=2]
    27 -> 303 [penwidth=2]
    27 -> 174 [penwidth=2]
    27 -> 262 [penwidth=2]
    27 -> 305 [penwidth=2]
    29 -> 257 [penwidth=2]
    29 -> 173 [penwidth=2]
    29 -> 276 [penwidth=2]
    29 -> 266 [penwidth=2]
    29 -> 308 [penwidth=2]
    29 -> 272 [penwidth=2]
    29 -> 1 [penwidth=2]
    29 -> 263 [penwidth=2]
    29 -> 278 [penwidth=2]
    29 -> 260 [penwidth=2]
    29 -> 288 [penwidth=2]
    29 -> 294 [penwidth=2]
    29 -> 285 [penwidth=2]
    29 -> 3 [penwidth=2]
    29 -> 277 [penwidth=2]
    29 -> 270 [penwidth=2]
    29 -> 256 [penwidth=2]
    29 -> 307 [penwidth=2]
    29 -> 303 [penwidth=2]
    29 -> 172 [penwidth=2]
    29 -> 292 [penwidth=2]
    29 -> 286 [penwidth=2]
    29 -> 287 [penwidth=2]
    29 -> 273 [penwidth=2]
    29 -> 217 [penwidth=2]
    29 -> 275 [penwidth=2]
    29 -> 214 [penwidth=2]
    29 -> 268 [penwidth=2]
    29 -> 302 [penwidth=2]
    29 -> 271 [penwidth=2]
    29 -> 267 [penwidth=2]
    29 -> 2 [penwidth=2]
    29 -> 262 [penwidth=2]
    29 -> 174 [penwidth=2]
    29 -> 289 [penwidth=2]
    29 -> 216 [penwidth=2]
    29 -> 218 [penwidth=2]
    29 -> 295 [penwidth=2]
    29 -> 290 [penwidth=2]
    30 -> 273 [penwidth=2]
    30 -> 214 [penwidth=2]
    30 -> 263 [penwidth=2]
    30 -> 271 [penwidth=2]
    30 -> 294 [penwidth=2]
    30 -> 306 [penwidth=2]
    30 -> 272 [penwidth=2]
    30 -> 307 [penwidth=2]
    30 -> 285 [penwidth=2]
    30 -> 309 [penwidth=2]
    30 -> 265 [penwidth=2]
    30 -> 278 [penwidth=2]
    30 -> 280 [penwidth=2]
    30 -> 276 [penwidth=2]
    30 -> 296 [penwidth=2]
    30 -> 305 [penwidth=2]
    30 -> 281 [penwidth=2]
    30 -> 283 [penwidth=2]
    30 -> 292 [penwidth=2]
    30 -> 259 [penwidth=2]
    30 -> 293 [penwidth=2]
    30 -> 1 [penwidth=2]
    30 -> 174 [penwidth=2]
    30 -> 256 [penwidth=2]
    30 -> 258 [penwidth=2]
    30 -> 218 [penwidth=2]
    30 -> 175 [penwidth=2]
    30 -> 284 [penwidth=2]
    30 -> 172 [penwidth=2]
    30 -> 288 [penwidth=2]
    30 -> 286 [penwidth=2]
    30 -> 264 [penwidth=2]
    30 -> 269 [penwidth=2]
    30 -> 3 [penwidth=2]
    30 -> 260 [penwidth=2]
    30 -> 266 [penwidth=2]
    31 -> 257 [penwidth=2]
    31 -> 260 [penwidth=2]
}