digraph G {
    0 [penwidth=3,label="0"]
    1 [penwidth=3,label="1"]
    2 [penwidth=3,label="2"]
    3 [penwidth=3,label="3"]
    4 [penwidth=3,label="4"]
    5 [penwidth=3,label="5"]
    6 [penwidth=3,label="6"]
    7 [penwidth=3,label="7"]
    8 [penwidth=3,label="8"]
    9 [penwidth=3,label="9"]
    10 [penwidth=3,label="10"]
    11 [penwidth=3,label="11"]
    12 [penwidth=3,label="12"]
    13 [penwidth=3,label="13"]
    14 [penwidth=3,label="14"]
    15 [penwidth=3,label="15"]
    16 [penwidth=3,label="16"]
    17 [penwidth=3,label="17"]
    18 [penwidth=3,label="18"]
    19 [penwidth=3,label="19"]
    20 [penwidth=3,label="20"]
    21 [penwidth=3,label="21"]
    22 [penwidth=3,label="22"]
    23 [penwidth=3,label="23"]
    24 [penwidth=3,label="24"]
    25 [penwidth=3,label="25"]
    26 [penwidth=3,label="26"]
    27 [penwidth=3,label="27"]
    28 [penwidth=3,label="28"]
    29 [penwidth=3,label="29"]
    30 [penwidth=3,label="30"]
    31 [penwidth=3,label="31"]
    32 [penwidth=3,label="32"]
    33 [penwidth=3,label="33"]
    34 [penwidth=3,label="34"]
    35 [penwidth=3,label="35"]
    36 [penwidth=3,label="36"]
    37 [penwidth=3,label="37"]
    38 [penwidth=3,label="38"]
    39 [penwidth=3,label="39"]
    40 [penwidth=3,label="40"]
    41 [penwidth=3,label="41"]
    42 [penwidth=3,label="42"]
    43 [penwidth=3,label="43"]
    44 [penwidth=3,label="44"]
    45 [penwidth=3,label="45"]
    46 [penwidth=3,label="46"]
    47 [penwidth=3,label="47"]
    48 [penwidth=3,label="48"]
    49 [penwidth=3,label="49"]
    50 [penwidth=3,label="50"]
    51 [penwidth=3,label="51"]
    52 [penwidth=3,label="52"]
    53 [penwidth=3,label="53"]
    54 [penwidth=3,label="54"]
    55 [penwidth=3,label="55"]
    56 [penwidth=3,label="56"]
    57 [penwidth=3,label="57"]
    58 [penwidth=3,label="58"]
    59 [penwidth=3,label="59"]
    60 [penwidth=3,label="60"]
    61 [penwidth=3,label="61"]
    62 [penwidth=3,label="62"]
    63 [penwidth=3,label="63"]
    64 [penwidth=3,label="64"]
    65 [penwidth=3,label="65"]
    66 [penwidth=3,label="66"]
    67 [penwidth=3,label="67"]
    68 [penwidth=3,label="68"]
    69 [penwidth=3,label="69"]
    70 [penwidth=3,label="70"]
    71 [penwidth=3,label="71"]
    72 [penwidth=3,label="72"]
    73 [penwidth=3,label="73"]
    74 [penwidth=3,label="74"]
    75 [penwidth=3,label="75"]
    76 [penwidth=3,label="76"]
    77 [penwidth=3,label="77"]
    78 [penwidth=3,label="78"]
    79 [penwidth=3,label="79"]
    80 [penwidth=3,label="80"]
    81 [penwidth=3,label="81"]
    82 [penwidth=3,label="82"]
    83 [penwidth=3,label="83"]
    84 [penwidth=3,label="84"]
    85 [penwidth=3,label="85"]
    86 [penwidth=3,label="86"]
    87 [penwidth=3,label="87"]
    88 [penwidth=3,label="88"]
    89 [penwidth=3,label="89"]
    90 [penwidth=3,label="90"]
    91 [penwidth=3,label="91"]
    92 [penwidth=3,label="92"]
    93 [penwidth=3,label="93"]
    94 [penwidth=3,label="94"]
    95 [penwidth=3,label="95"]
    96 [penwidth=3,label="96"]
    97 [penwidth=3,label="97"]
    98 [penwidth=3,label="98"]
    99 [penwidth=3,label="99"]
    100 [penwidth=3,label="100"]
    101 [penwidth=3,label="101"]
    102 [penwidth=3,label="102"]
    103 [penwidth=3,label="103"]
    104 [penwidth=3,label="104"]
    105 [penwidth=3,label="105"]
    106 [penwidth=3,label="106"]
    107 [penwidth=3,label="107"]
    108 [penwidth=3,label="108"]
    109 [penwidth=3,label="109"]
    110 [penwidth=3,label="110"]
    111 [penwidth=3,label="111"]
    112 [penwidth=3,label="112"]
    113 [penwidth=3,label="113"]
    114 [penwidth=3,label="114"]
    115 [penwidth=3,label="115"]
    116 [penwidth=3,label="116"]
    117 [penwidth=3,label="117"]
    118 [penwidth=3,label="118"]
    119 [penwidth=3,label="119"]
    120 [penwidth=3,label="120"]
    121 [penwidth=3,label="121"]
    122 [penwidth=3,label="122"]
    123 [penwidth=3,label="123"]
    124 [penwidth=3,label="124"]
    125 [penwidth=3,label="125"]
    126 [penwidth=3,label="126"]
    127 [penwidth=3,label="127"]
    128 [penwidth=3,label="128"]
    129 [penwidth=3,label="129"]
    130 [penwidth=3,label="130"]
    131 [penwidth=3,label="131"]
    132 [penwidth=3,label="132"]
    133 [penwidth=3,label="133"]
    134 [penwidth=3,label="134"]
    135 [penwidth=3,label="135"]
    136 [penwidth=3,label="136"]
    137 [penwidth=3,label="137"]
    138 [penwidth=3,label="138"]
    139 [penwidth=3,label="139"]
    140 [penwidth=3,label="140"]
    141 [penwidth=3,label="141"]
    142 [penwidth=3,label="142"]
    143 [penwidth=3,label="143"]
    144 [penwidth=3,label="144"]
    145 [penwidth=3,label="145"]
    146 [penwidth=3,label="146"]
    147 [penwidth=3,label="147"]
    148 [penwidth=3,label="148"]
    149 [penwidth=3,label="149"]
    150 [penwidth=3,label="150"]
    151 [penwidth=3,label="151"]
    152 [penwidth=3,label="152"]
    153 [penwidth=3,label="153"]
    154 [penwidth=3,label="154"]
    155 [penwidth=3,label="155"]
    156 [penwidth=3,label="156"]
    157 [penwidth=3,label="157"]
    158 [penwidth=3,label="158"]
    159 [penwidth=3,label="159"]
    160 [penwidth=3,label="160"]
    161 [penwidth=3,label="161"]
    162 [penwidth=3,label="162"]
    163 [penwidth=3,label="163"]
    164 [penwidth=3,label="164"]
    165 [penwidth=3,label="165"]
    166 [penwidth=3,label="166"]
    167 [penwidth=3,label="167"]
    168 [penwidth=3,label="168"]
    169 [penwidth=3,label="169"]
    170 [penwidth=3,label="170"]
    171 [penwidth=3,label="171"]
    172 [penwidth=3,label="172"]
    173 [penwidth=3,label="173"]
    174 [penwidth=3,label="174"]
    175 [penwidth=3,label="175"]
    176 [penwidth=3,label="176"]
    177 [penwidth=3,label="177"]
    178 [penwidth=3,label="178"]
    179 [penwidth=3,label="179"]
    180 [penwidth=3,label="180"]
    181 [penwidth=3,label="181"]
    182 [penwidth=3,label="182"]
    183 [penwidth=3,label="183"]
    184 [penwidth=3,label="184"]
    185 [penwidth=3,label="185"]
    186 [penwidth=3,label="186"]
    187 [penwidth=3,label="187"]
    188 [penwidth=3,label="188"]
    189 [penwidth=3,label="189"]
    190 [penwidth=3,label="190"]
    191 [penwidth=3,label="191"]
    192 [penwidth=3,label="192"]
    193 [penwidth=3,label="193"]
    194 [penwidth=3,label="194"]
    195 [penwidth=3,label="195"]
    196 [penwidth=3,label="196"]
    197 [penwidth=3,label="197"]
    198 [penwidth=3,label="198"]
    199 [penwidth=3,label="199"]
    200 [penwidth=3,label="200"]
    201 [penwidth=3,label="201"]
    202 [penwidth=3,label="202"]
    203 [penwidth=3,label="203"]
    204 [penwidth=3,label="204"]
    205 [penwidth=3,label="205"]
    206 [penwidth=3,label="206"]
    207 [penwidth=3,label="207"]
    208 [penwidth=3,label="208"]
    209 [penwidth=3,label="209"]
    210 [penwidth=3,label="210"]
    211 [penwidth=3,label="211"]
    212 [penwidth=3,label="212"]
    213 [penwidth=3,label="213"]
    214 [penwidth=3,label="214"]
    215 [penwidth=3,label="215"]
    216 [penwidth=3,label="216"]
    217 [penwidth=3,label="217"]
    218 [penwidth=3,label="218"]
    219 [penwidth=3,label="219"]
    220 [penwidth=3,label="220"]
    221 [penwidth=3,label="221"]
    222 [penwidth=3,label="222"]
    223 [penwidth=3,label="223"]
    224 [penwidth=3,label="224"]
    225 [penwidth=3,label="225"]
    226 [penwidth=3,label="226"]
    227 [penwidth=3,label="227"]
    228 [penwidth=3,label="228"]
    229 [penwidth=3,label="229"]
    230 [penwidth=3,label="230"]
    231 [penwidth=3,label="231"]
    232 [penwidth=3,label="232"]
    233 [penwidth=3,label="233"]
    234 [penwidth=3,label="234"]
    235 [penwidth=3,label="235"]
    236 [penwidth=3,label="236"]
    237 [penwidth=3,label="237"]
    238 [penwidth=3,label="238"]
    239 [penwidth=3,label="239"]
    240 [penwidth=3,label="240"]
    241 [penwidth=3,label="241"]
    242 [penwidth=3,label="242"]
    243 [penwidth=3,label="243"]
    244 [penwidth=3,label="244"]
    245 [penwidth=3,label="245"]
    246 [penwidth=3,label="246"]
    247 [penwidth=3,label="247"]
    248 [penwidth=3,label="248"]
    249 [penwidth=3,label="249"]
    250 [penwidth=3,label="250"]
    251 [penwidth=3,label="251"]
    252 [penwidth=3,label="252"]
    253 [penwidth=3,label="253"]
    254 [penwidth=3,label="254"]
    255 [penwidth=3,label="255"]
    256 [penwidth=3,label="256"]
    257 [penwidth=3,label="257"]
    258 [penwidth=3,label="258"]
    259 [penwidth=3,label="259"]
    260 [penwidth=3,label="260"]
    261 [penwidth=3,label="261"]
    262 [penwidth=3,label="262"]
    263 [penwidth=3,label="263"]
    264 [penwidth=3,label="264"]
    265 [penwidth=3,label="265"]
    266 [penwidth=3,label="266"]
    267 [penwidth=3,label="267"]
    268 [penwidth=3,label="268"]
    269 [penwidth=3,label="269"]
    270 [penwidth=3,label="270"]
    271 [penwidth=3,label="271"]
    272 [penwidth=3,label="272"]
    273 [penwidth=3,label="273"]
    274 [penwidth=3,label="274"]
    275 [penwidth=3,label="275"]
    276 [penwidth=3,label="276"]
    277 [penwidth=3,label="277"]
    278 [penwidth=3,label="278"]
    279 [penwidth=3,label="279"]
    280 [penwidth=3,label="280"]
    281 [penwidth=3,label="281"]
    282 [penwidth=3,label="282"]
    283 [penwidth=3,label="283"]
    284 [penwidth=3,label="284"]
    285 [penwidth=3,label="285"]
    286 [penwidth=3,label="286"]
    287 [penwidth=3,label="287"]
    288 [penwidth=3,label="288"]
    289 [penwidth=3,label="289"]
    290 [penwidth=3,label="290"]
    291 [penwidth=3,label="291"]
    292 [penwidth=3,label="292"]
    293 [penwidth=3,label="293"]
    294 [penwidth=3,label="294"]
    295 [penwidth=3,label="295"]
    296 [penwidth=3,label="296"]
    297 [penwidth=3,label="297"]
    298 [penwidth=3,label="298"]
    299 [penwidth=3,label="299"]
    300 [penwidth=3,label="300"]
    301 [penwidth=3,label="301"]
    302 [penwidth=3,label="302"]
    303 [penwidth=3,label="303"]
    304 [penwidth=3,label="304"]
    305 [penwidth=3,label="305"]
    306 [penwidth=3,label="306"]
    307 [penwidth=3,label="307"]
    308 [penwidth=3,label="308"]
    309 [penwidth=3,label="309"]
    310 [penwidth=3,label="310"]
    311 [penwidth=3,label="311"]
    312 [penwidth=3,label="312"]
    313 [penwidth=3,label="313"]
    314 [penwidth=3,label="314"]
    315 [penwidth=3,label="315"]
    316 [penwidth=3,label="316"]
    317 [penwidth=3,label="317"]
    318 [penwidth=3,label="318"]
    319 [penwidth=3,label="319"]
    320 [penwidth=3,label="320"]
    321 [penwidth=3,label="321"]
    322 [penwidth=3,label="322"]
    323 [penwidth=3,label="323"]
    324 [penwidth=3,label="324"]
    325 [penwidth=3,label="325"]
    326 [penwidth=3,label="326"]
    327 [penwidth=3,label="327"]
    328 [penwidth=3,label="328"]
    329 [penwidth=3,label="329"]
    330 [penwidth=3,label="330"]
    331 [penwidth=3,label="331"]
    332 [penwidth=3,label="332"]
    333 [penwidth=3,label="333"]
    334 [penwidth=3,label="334"]
    335 [penwidth=3,label="335"]
    336 [penwidth=3,label="336"]
    337 [penwidth=3,label="337"]
    338 [penwidth=3,label="338"]
    339 [penwidth=3,label="339"]
    340 [penwidth=3,label="340"]
    341 [penwidth=3,label="341"]
    342 [penwidth=3,label="342"]
    343 [penwidth=3,label="343"]
    344 [penwidth=3,label="344"]
    345 [penwidth=3,label="345"]
    346 [penwidth=3,label="346"]
    347 [penwidth=3,label="347"]
    348 [penwidth=3,label="348"]
    349 [penwidth=3,label="349"]
    350 [penwidth=3,label="350"]
    351 [penwidth=3,label="351"]
    352 [penwidth=3,label="352"]
    353 [penwidth=3,label="353"]
    354 [penwidth=3,label="354"]
    355 [penwidth=3,label="355"]
    356 [penwidth=3,label="356"]
    357 [penwidth=3,label="357"]
    358 [penwidth=3,label="358"]
    359 [penwidth=3,label="359"]
    360 [penwidth=3,label="360"]
    361 [penwidth=3,label="361"]
    362 [penwidth=3,label="362"]
    363 [penwidth=3,label="363"]
    364 [penwidth=3,label="364"]
    365 [penwidth=3,label="365"]
    366 [penwidth=3,label="366"]
    367 [penwidth=3,label="367"]
    368 [penwidth=3,label="368"]
    369 [penwidth=3,label="369"]
    370 [penwidth=3,label="370"]
    371 [penwidth=3,label="371"]
    372 [penwidth=3,label="372"]
    373 [penwidth=3,label="373"]
    374 [penwidth=3,label="374"]
    375 [penwidth=3,label="375"]
    376 [penwidth=3,label="376"]
    377 [penwidth=3,label="377"]
    378 [penwidth=3,label="378"]
    379 [penwidth=3,label="379"]
    380 [penwidth=3,label="380"]
    381 [penwidth=3,label="381"]
    382 [penwidth=3,label="382"]
    383 [penwidth=3,label="383"]
    384 [penwidth=3,label="384"]
    385 [penwidth=3,label="385"]
    386 [penwidth=3,label="386"]
    387 [penwidth=3,label="387"]
    388 [penwidth=3,label="388"]
    389 [penwidth=3,label="389"]
    390 [penwidth=3,label="390"]
    391 [penwidth=3,label="391"]
    392 [penwidth=3,label="392"]
    393 [penwidth=3,label="393"]
    394 [penwidth=3,label="394"]
    395 [penwidth=3,label="395"]
    396 [penwidth=3,label="396"]
    397 [penwidth=3,label="397"]
    398 [penwidth=3,label="398"]
    399 [penwidth=3,label="399"]

    183 -> 0 [penwidth=2]
    184 -> 0 [penwidth=2]
    185 -> 0 [penwidth=2]
    186 -> 0 [penwidth=2]
    187 -> 0 [penwidth=2]
    188 -> 0 [penwidth=2]
    189 -> 0 [penwidth=2]
    190 -> 0 [penwidth=2]
    191 -> 0 [penwidth=2]
    192 -> 183 [penwidth=2]
    193 -> 183 [penwidth=2]
    194 -> 183 [penwidth=2]
    195 -> 183 [penwidth=2]
    196 -> 183 [penwidth=2]
    197 -> 183 [penwidth=2]
    198 -> 183 [penwidth=2]
    199 -> 183 [penwidth=2]
    200 -> 183 [penwidth=2]
    201 -> 183 [penwidth=2]
    202 -> 183 [penwidth=2]
    203 -> 183 [penwidth=2]
    204 -> 183 [penwidth=2]
    205 -> 183 [penwidth=2]
    206 -> 183 [penwidth=2]
    207 -> 183 [penwidth=2]
    208 -> 183 [penwidth=2]
    209 -> 183 [penwidth=2]
    210 -> 183 [penwidth=2]
    211 -> 183 [penwidth=2]
    212 -> 183 [penwidth=2]
    213 -> 183 [penwidth=2]
    214 -> 183 [penwidth=2]
    215 -> 184 [penwidth=2]
    216 -> 184 [penwidth=2]
    217 -> 184 [penwidth=2]
    218 -> 184 [penwidth=2]
    219 -> 184 [penwidth=2]
    220 -> 184 [penwidth=2]
    221 -> 184 [penwidth=2]
    222 -> 184 [penwidth=2]
    223 -> 184 [penwidth=2]
    224 -> 184 [penwidth=2]
    99 -> 184 [penwidth=2]
    141 -> 184 [penwidth=2]
    100 -> 184 [penwidth=2]
    142 -> 184 [penwidth=2]
    101 -> 184 [penwidth=2]
    143 -> 184 [penwidth=2]
    102 -> 184 [penwidth=2]
    144 -> 185 [penwidth=2]
    103 -> 185 [penwidth=2]
    145 -> 185 [penwidth=2]
    104 -> 185 [penwidth=2]
    146 -> 185 [penwidth=2]
    105 -> 185 [penwidth=2]
    147 -> 185 [penwidth=2]
    106 -> 185 [penwidth=2]
    148 -> 185 [penwidth=2]
    107 -> 185 [penwidth=2]
    149 -> 185 [penwidth=2]
    108 -> 185 [penwidth=2]
    150 -> 185 [penwidth=2]
    109 -> 185 [penwidth=2]
    151 -> 185 [penwidth=2]
    110 -> 185 [penwidth=2]
    152 -> 185 [penwidth=2]
    111 -> 185 [penwidth=2]
    153 -> 185 [penwidth=2]
    112 -> 185 [penwidth=2]
    154 -> 186 [penwidth=2]
    113 -> 186 [penwidth=2]
    155 -> 186 [penwidth=2]
    114 -> 186 [penwidth=2]
    156 -> 186 [penwidth=2]
    115 -> 186 [penwidth=2]
    157 -> 186 [penwidth=2]
    116 -> 186 [penwidth=2]
    158 -> 186 [penwidth=2]
    117 -> 186 [penwidth=2]
    159 -> 186 [penwidth=2]
    118 -> 186 [penwidth=2]
    160 -> 186 [penwidth=2]
    119 -> 186 [penwidth=2]
    161 -> 186 [penwidth=2]
    120 -> 186 [penwidth=2]
    162 -> 186 [penwidth=2]
    121 -> 186 [penwidth=2]
    163 -> 186 [penwidth=2]
    122 -> 186 [penwidth=2]
    164 -> 187 [penwidth=2]
    123 -> 187 [penwidth=2]
    165 -> 187 [penwidth=2]
    124 -> 187 [penwidth=2]
    166 -> 187 [penwidth=2]
    125 -> 187 [penwidth=2]
    167 -> 187 [penwidth=2]
    126 -> 187 [penwidth=2]
    168 -> 187 [penwidth=2]
    127 -> 187 [penwidth=2]
    169 -> 187 [penwidth=2]
    128 -> 187 [penwidth=2]
    170 -> 187 [penwidth=2]
    129 -> 187 [penwidth=2]
    171 -> 187 [penwidth=2]
    130 -> 187 [penwidth=2]
    172 -> 187 [penwidth=2]
    131 -> 187 [penwidth=2]
    173 -> 187 [penwidth=2]
    132 -> 187 [penwidth=2]
    174 -> 187 [penwidth=2]
    133 -> 187 [penwidth=2]
    175 -> 187 [penwidth=2]
    134 -> 187 [penwidth=2]
    176 -> 187 [penwidth=2]
    135 -> 187 [penwidth=2]
    177 -> 187 [penwidth=2]
    136 -> 187 [penwidth=2]
    178 -> 187 [penwidth=2]
    137 -> 188 [penwidth=2]
    179 -> 188 [penwidth=2]
    138 -> 188 [penwidth=2]
    180 -> 188 [penwidth=2]
    181 -> 188 [penwidth=2]
    139 -> 188 [penwidth=2]
    140 -> 188 [penwidth=2]
    182 -> 188 [penwidth=2]
    57 -> 188 [penwidth=2]
    58 -> 188 [penwidth=2]
    59 -> 188 [penwidth=2]
    60 -> 188 [penwidth=2]
    61 -> 188 [penwidth=2]
    62 -> 188 [penwidth=2]
    63 -> 188 [penwidth=2]
    64 -> 188 [penwidth=2]
    65 -> 188 [penwidth=2]
    66 -> 188 [penwidth=2]
    67 -> 188 [penwidth=2]
    68 -> 188 [penwidth=2]
    69 -> 188 [penwidth=2]
    70 -> 188 [penwidth=2]
    71 -> 188 [penwidth=2]
    72 -> 188 [penwidth=2]
    73 -> 188 [penwidth=2]
    74 -> 188 [penwidth=2]
    75 -> 188 [penwidth=2]
    76 -> 188 [penwidth=2]
    77 -> 188 [penwidth=2]
    78 -> 188 [penwidth=2]
    79 -> 189 [penwidth=2]
    80 -> 189 [penwidth=2]
    81 -> 189 [penwidth=2]
    82 -> 189 [penwidth=2]
    83 -> 189 [penwidth=2]
    84 -> 189 [penwidth=2]
    85 -> 189 [penwidth=2]
    86 -> 189 [penwidth=2]
    87 -> 189 [penwidth=2]
    88 -> 189 [penwidth=2]
    89 -> 189 [penwidth=2]
    90 -> 189 [penwidth=2]
    91 -> 189 [penwidth=2]
    92 -> 189 [penwidth=2]
    93 -> 189 [penwidth=2]
    94 -> 189 [penwidth=2]
    95 -> 189 [penwidth=2]
    96 -> 190 [penwidth=2]
    97 -> 190 [penwidth=2]
    98 -> 190 [penwidth=2]
    15 -> 190 [penwidth=2]
    351 -> 190 [penwidth=2]
    393 -> 190 [penwidth=2]
    16 -> 190 [penwidth=2]
    352 -> 190 [penwidth=2]
    394 -> 190 [penwidth=2]
    17 -> 190 [penwidth=2]
    353 -> 190 [penwidth=2]
    395 -> 190 [penwidth=2]
    18 -> 190 [penwidth=2]
    354 -> 190 [penwidth=2]
    396 -> 190 [penwidth=2]
    19 -> 190 [penwidth=2]
    355 -> 190 [penwidth=2]
    397 -> 190 [penwidth=2]
    20 -> 190 [penwidth=2]
    356 -> 190 [penwidth=2]
    398 -> 190 [penwidth=2]
    21 -> 190 [penwidth=2]
    357 -> 190 [penwidth=2]
    399 -> 190 [penwidth=2]
    22 -> 190 [penwidth=2]
    358 -> 190 [penwidth=2]
    23 -> 190 [penwidth=2]
    359 -> 191 [penwidth=2]
    24 -> 191 [penwidth=2]
    360 -> 191 [penwidth=2]
    25 -> 191 [penwidth=2]
    361 -> 191 [penwidth=2]
    26 -> 191 [penwidth=2]
    362 -> 191 [penwidth=2]
    27 -> 192 [penwidth=2]
    363 -> 192 [penwidth=2]
    28 -> 192 [penwidth=2]
    364 -> 192 [penwidth=2]
    29 -> 192 [penwidth=2]
    365 -> 192 [penwidth=2]
    30 -> 192 [penwidth=2]
    366 -> 192 [penwidth=2]
    31 -> 192 [penwidth=2]
    367 -> 192 [penwidth=2]
    32 -> 192 [penwidth=2]
    368 -> 192 [penwidth=2]
    33 -> 192 [penwidth=2]
    369 -> 192 [penwidth=2]
    34 -> 192 [penwidth=2]
    370 -> 192 [penwidth=2]
    35 -> 192 [penwidth=2]
    371 -> 192 [penwidth=2]
    36 -> 192 [penwidth=2]
    372 -> 192 [penwidth=2]
    37 -> 192 [penwidth=2]
    373 -> 192 [penwidth=2]
    38 -> 193 [penwidth=2]
    374 -> 193 [penwidth=2]
    39 -> 193 [penwidth=2]
    375 -> 193 [penwidth=2]
    40 -> 193 [penwidth=2]
    376 -> 193 [penwidth=2]
    41 -> 193 [penwidth=2]
    377 -> 193 [penwidth=2]
    42 -> 193 [penwidth=2]
    378 -> 193 [penwidth=2]
    43 -> 194 [penwidth=2]
    379 -> 194 [penwidth=2]
    44 -> 194 [penwidth=2]
    380 -> 194 [penwidth=2]
    45 -> 194 [penwidth=2]
    381 -> 194 [penwidth=2]
    46 -> 194 [penwidth=2]
    382 -> 194 [penwidth=2]
    47 -> 195 [penwidth=2]
    383 -> 195 [penwidth=2]
    48 -> 195 [penwidth=2]
    384 -> 195 [penwidth=2]
    49 -> 195 [penwidth=2]
    385 -> 195 [penwidth=2]
    50 -> 195 [penwidth=2]
    386 -> 195 [penwidth=2]
    51 -> 195 [penwidth=2]
    387 -> 195 [penwidth=2]
    52 -> 195 [penwidth=2]
    388 -> 195 [penwidth=2]
    53 -> 195 [penwidth=2]
    389 -> 195 [penwidth=2]
    54 -> 195 [penwidth=2]
    390 -> 195 [penwidth=2]
    55 -> 195 [penwidth=2]
    391 -> 195 [penwidth=2]
    56 -> 195 [penwidth=2]
    392 -> 196 [penwidth=2]
    309 -> 196 [penwidth=2]
    310 -> 196 [penwidth=2]
    311 -> 196 [penwidth=2]
    312 -> 196 [penwidth=2]
    313 -> 196 [penwidth=2]
    314 -> 196 [penwidth=2]
    315 -> 196 [penwidth=2]
    316 -> 196 [penwidth=2]
    317 -> 196 [penwidth=2]
    318 -> 196 [penwidth=2]
    319 -> 196 [penwidth=2]
    320 -> 196 [penwidth=2]
    321 -> 196 [penwidth=2]
    322 -> 196 [penwidth=2]
    323 -> 196 [penwidth=2]
    324 -> 196 [penwidth=2]
    325 -> 196 [penwidth=2]
    326 -> 196 [penwidth=2]
    327 -> 196 [penwidth=2]
    328 -> 196 [penwidth=2]
    329 -> 196 [penwidth=2]
    330 -> 196 [penwidth=2]
    331 -> 196 [penwidth=2]
    332 -> 196 [penwidth=2]
    333 -> 198 [penwidth=2]
    334 -> 198 [penwidth=2]
    335 -> 198 [penwidth=2]
    336 -> 198 [penwidth=2]
    1 -> 199 [penwidth=2]
    337 -> 199 [penwidth=2]
    2 -> 199 [penwidth=2]
    338 -> 199 [penwidth=2]
    3 -> 199 [penwidth=2]
    339 -> 199 [penwidth=2]
    4 -> 199 [penwidth=2]
    340 -> 199 [penwidth=2]
    5 -> 199 [penwidth=2]
    341 -> 199 [penwidth=2]
    6 -> 199 [penwidth=2]
    342 -> 199 [penwidth=2]
    7 -> 199 [penwidth=2]
    343 -> 199 [penwidth=2]
    8 -> 199 [penwidth=2]
    344 -> 199 [penwidth=2]
    9 -> 199 [penwidth=2]
    345 -> 199 [penwidth=2]
    10 -> 199 [penwidth=2]
    346 -> 199 [penwidth=2]
    11 -> 199 [penwidth=2]
    347 -> 199 [penwidth=2]
    12 -> 199 [penwidth=2]
    348 -> 199 [penwidth=2]
    13 -> 199 [penwidth=2]
    349 -> 199 [penwidth=2]
    14 -> 199 [penwidth=2]
    350 -> 200 [penwidth=2]
    267 -> 200 [penwidth=2]
    268 -> 200 [penwidth=2]
    269 -> 200 [penwidth=2]
    270 -> 200 [penwidth=2]
    271 -> 200 [penwidth=2]
    272 -> 200 [penwidth=2]
    273 -> 200 [penwidth=2]
    274 -> 200 [penwidth=2]
    275 -> 200 [penwidth=2]
    276 -> 200 [penwidth=2]
    277 -> 200 [penwidth=2]
    278 -> 200 [penwidth=2]
    279 -> 200 [penwidth=2]
    280 -> 201 [penwidth=2]
    281 -> 201 [penwidth=2]
    282 -> 201 [penwidth=2]
    283 -> 201 [penwidth=2]
    284 -> 201 [penwidth=2]
    285 -> 201 [penwidth=2]
    286 -> 201 [penwidth=2]
    287 -> 201 [penwidth=2]
    288 -> 201 [penwidth=2]
    289 -> 202 [penwidth=2]
    290 -> 202 [penwidth=2]
    291 -> 202 [penwidth=2]
    292 -> 202 [penwidth=2]
    293 -> 202 [penwidth=2]
    294 -> 202 [penwidth=2]
    295 -> 202 [penwidth=2]
    296 -> 202 [penwidth=2]
    297 -> 202 [penwidth=2]
    298 -> 202 [penwidth=2]
    299 -> 202 [penwidth=2]
    300 -> 202 [penwidth=2]
    301 -> 202 [penwidth=2]
    302 -> 202 [penwidth=2]
    303 -> 202 [penwidth=2]
    304 -> 202 [penwidth=2]
    305 -> 202 [penwidth=2]
    306 -> 202 [penwidth=2]
    307 -> 202 [penwidth=2]
    308 -> 203 [penwidth=2]
    225 -> 203 [penwidth=2]
    226 -> 203 [penwidth=2]
    227 -> 204 [penwidth=2]
    228 -> 204 [penwidth=2]
    229 -> 204 [penwidth=2]
    230 -> 204 [penwidth=2]
    231 -> 204 [penwidth=2]
    232 -> 204 [penwidth=2]
    233 -> 204 [penwidth=2]
    234 -> 205 [penwidth=2]
    235 -> 205 [penwidth=2]
    236 -> 205 [penwidth=2]
    237 -> 205 [penwidth=2]
    238 -> 205 [penwidth=2]
    239 -> 205 [penwidth=2]
    240 -> 205 [penwidth=2]
    241 -> 205 [penwidth=2]
    242 -> 205 [penwidth=2]
    243 -> 205 [penwidth=2]
    244 -> 205 [penwidth=2]
    245 -> 205 [penwidth=2]
    246 -> 205 [penwidth=2]
    247 -> 205 [penwidth=2]
    248 -> 205 [penwidth=2]
    249 -> 205 [penwidth=2]
    250 -> 205 [penwidth=2]
    251 -> 205 [penwidth=2]
    252 -> 205 [penwidth=2]
    253 -> 205 [penwidth=2]
    254 -> 206 [penwidth=2]
    255 -> 206 [penwidth=2]
    256 -> 206 [penwidth=2]
    257 -> 206 [penwidth=2]
    258 -> 207 [penwidth=2]
    259 -> 208 [penwidth=2]
    260 -> 208 [penwidth=2]
    261 -> 208 [penwidth=2]
    262 -> 208 [penwidth=2]
    263 -> 208 [penwidth=2]
    264 -> 208 [penwidth=2]
    265 -> 208 [penwidth=2]
    266 -> 208 [penwidth=2]
    206 -> 188 [penwidth=2]
    206 -> 191 [penwidth=2]
    206 -> 186 [penwidth=2]
    206 -> 185 [penwidth=2]
    211 -> 189 [penwidth=2]
    211 -> 186 [penwidth=2]
    211 -> 188 [penwidth=2]
    211 -> 190 [penwidth=2]
    222 -> 188 [penwidth=2]
    222 -> 190 [penwidth=2]
    222 -> 191 [penwidth=2]
    222 -> 187 [penwidth=2]
    222 -> 185 [penwidth=2]
    145 -> 191 [penwidth=2]
    145 -> 189 [penwidth=2]
    145 -> 184 [penwidth=2]
    145 -> 187 [penwidth=2]
    145 -> 183 [penwidth=2]
    145 -> 188 [penwidth=2]
    145 -> 190 [penwidth=2]
    111 -> 183 [penwidth=2]
    112 -> 191 [penwidth=2]
    112 -> 190 [penwidth=2]
    112 -> 187 [penwidth=2]
    112 -> 183 [penwidth=2]
    112 -> 184 [penwidth=2]
    165 -> 185 [penwidth=2]
    165 -> 184 [penwidth=2]
    165 -> 191 [penwidth=2]
    165 -> 188 [penwidth=2]
    167 -> 189 [penwidth=2]
    167 -> 184 [penwidth=2]
    64 -> 191 [penwidth=2]
    64 -> 184 [penwidth=2]
    64 -> 185 [penwidth=2]
    67 -> 191 [penwidth=2]
    67 -> 190 [penwidth=2]
    67 -> 185 [penwidth=2]
    67 -> 189 [penwidth=2]
    67 -> 183 [penwidth=2]
    67 -> 184 [penwidth=2]
    75 -> 190 [penwidth=2]
    75 -> 187 [penwidth=2]
    75 -> 184 [penwidth=2]
    75 -> 191 [penwidth=2]
    90 -> 191 [penwidth=2]
    90 -> 190 [penwidth=2]
    90 -> 184 [penwidth=2]
    90 -> 183 [penwidth=2]
    90 -> 185 [penwidth=2]
    90 -> 187 [penwidth=2]
    90 -> 188 [penwidth=2]
    15 -> 184 [penwidth=2]
    353 -> 185 [penwidth=2]
    24 -> 185 [penwidth=2]
    24 -> 186 [penwidth=2]
    24 -> 189 [penwidth=2]
    24 -> 183 [penwidth=2]
    29 -> 121 [penwidth=2]
    29 -> 164 [penwidth=2]
    29 -> 24 [penwidth=2]
    29 -> 91 [penwidth=2]
    29 -> 133 [penwidth=2]
    29 -> 194 [penwidth=2]
    29 -> 102 [penwidth=2]
    29 -> 77 [penwidth=2]
    29 -> 195 [penwidth=2]
    29 -> 362 [penwidth=2]
    29 -> 124 [penwidth=2]
    29 -> 353 [penwidth=2]
    29 -> 61 [penwidth=2]
    29 -> 145 [penwidth=2]
    29 -> 22 [penwidth=2]
    29 -> 172 [penwidth=2]
    29 -> 25 [penwidth=2]
    29 -> 173 [penwidth=2]
    29 -> 161 [penwidth=2]
    29 -> 216 [penwidth=2]
    29 -> 83 [penwidth=2]
    29 -> 128 [penwidth=2]
    29 -> 135 [penwidth=2]
    29 -> 206 [penwidth=2]
    38 -> 353 [penwidth=2]
    38 -> 176 [penwidth=2]
    38 -> 147 [penwidth=2]
    38 -> 148 [penwidth=2]
    38 -> 118 [penwidth=2]
    38 -> 23 [penwidth=2]
    38 -> 71 [penwidth=2]
    38 -> 208 [penwidth=2]
    38 -> 25 [penwidth=2]
    38 -> 214 [penwidth=2]
    38 -> 201 [penwidth=2]
    38 -> 58 [penwidth=2]
    38 -> 158 [penwidth=2]
    38 -> 100 [penwidth=2]
    38 -> 219 [penwidth=2]
    38 -> 59 [penwidth=2]
    38 -> 92 [penwidth=2]
    38 -> 205 [penwidth=2]
    38 -> 154 [penwidth=2]
    38 -> 142 [penwidth=2]
    38 -> 221 [penwidth=2]
    38 -> 156 [penwidth=2]
    38 -> 127 [penwidth=2]
    38 -> 212 [penwidth=2]
    38 -> 206 [penwidth=2]
    38 -> 99 [penwidth=2]
    38 -> 198 [penwidth=2]
    38 -> 175 [penwidth=2]
    38 -> 155 [penwidth=2]
    38 -> 215 [penwidth=2]
    38 -> 396 [penwidth=2]
    38 -> 57 [penwidth=2]
    38 -> 62 [penwidth=2]
    38 -> 210 [penwidth=2]
    38 -> 131 [penwidth=2]
    38 -> 106 [penwidth=2]
    38 -> 74 [penwidth=2]
    38 -> 67 [penwidth=2]
    38 -> 111 [penwidth=2]
    38 -> 84 [penwidth=2]
    38 -> 199 [penwidth=2]
    38 -> 94 [penwidth=2]
    38 -> 357 [penwidth=2]
    38 -> 167 [penwidth=2]
    38 -> 121 [penwidth=2]
    38 -> 211 [penwidth=2]
    38 -> 90 [penwidth=2]
    38 -> 153 [penwidth=2]
    38 -> 195 [penwidth=2]
    38 -> 178 [penwidth=2]
    38 -> 394 [penwidth=2]
    38 -> 63 [penwidth=2]
    38 -> 80 [penwidth=2]
    38 -> 207 [penwidth=2]
    38 -> 354 [penwidth=2]
    38 -> 200 [penwidth=2]
    38 -> 98 [penwidth=2]
    38 -> 102 [penwidth=2]
    38 -> 86 [penwidth=2]
    38 -> 149 [penwidth=2]
    38 -> 160 [penwidth=2]
    38 -> 101 [penwidth=2]
    38 -> 359 [penwidth=2]
    38 -> 91 [penwidth=2]
    38 -> 72 [penwidth=2]
    38 -> 222 [penwidth=2]
    38 -> 355 [penwidth=2]
    38 -> 180 [penwidth=2]
    38 -> 140 [penwidth=2]
    38 -> 146 [penwidth=2]
    38 -> 220 [penwidth=2]
    38 -> 88 [penwidth=2]
    38 -> 172 [penwidth=2]
    38 -> 174 [penwidth=2]
    38 -> 16 [penwidth=2]
    38 -> 159 [penwidth=2]
    38 -> 135 [penwidth=2]
    38 -> 202 [penwidth=2]
    38 -> 75 [penwidth=2]
    38 -> 119 [penwidth=2]
    38 -> 224 [penwidth=2]
    38 -> 103 [penwidth=2]
    38 -> 125 [penwidth=2]
    38 -> 123 [penwidth=2]
    38 -> 352 [penwidth=2]
    38 -> 194 [penwidth=2]
    38 -> 20 [penwidth=2]
    38 -> 168 [penwidth=2]
    38 -> 141 [penwidth=2]
    38 -> 151 [penwidth=2]
    38 -> 117 [penwidth=2]
    38 -> 24 [penwidth=2]
    38 -> 83 [penwidth=2]
    38 -> 171 [penwidth=2]
    38 -> 165 [penwidth=2]
    38 -> 157 [penwidth=2]
    38 -> 77 [penwidth=2]
    38 -> 113 [penwidth=2]
    38 -> 137 [penwidth=2]
    38 -> 393 [penwidth=2]
    38 -> 19 [penwidth=2]
    38 -> 60 [penwidth=2]
    38 -> 95 [penwidth=2]
    38 -> 126 [penwidth=2]
    38 -> 197 [penwidth=2]
    38 -> 362 [penwidth=2]
    38 -> 145 [penwidth=2]
    38 -> 395 [penwidth=2]
    38 -> 162 [penwidth=2]
    38 -> 116 [penwidth=2]
    38 -> 21 [penwidth=2]
    38 -> 218 [penwidth=2]
    38 -> 164 [penwidth=2]
    38 -> 169 [penwidth=2]
    38 -> 181 [penwidth=2]
    38 -> 122 [penwidth=2]
    38 -> 143 [penwidth=2]
    38 -> 358 [penwidth=2]
    38 -> 138 [penwidth=2]
    38 -> 134 [penwidth=2]
    38 -> 66 [penwidth=2]
    38 -> 22 [penwidth=2]
    38 -> 170 [penwidth=2]
    38 -> 70 [penwidth=2]
    38 -> 18 [penwidth=2]
    38 -> 109 [penwidth=2]
    38 -> 81 [penwidth=2]
    38 -> 139 [penwidth=2]
    38 -> 144 [penwidth=2]
    38 -> 196 [penwidth=2]
    38 -> 105 [penwidth=2]
    38 -> 356 [penwidth=2]
    38 -> 82 [penwidth=2]
    38 -> 163 [penwidth=2]
    38 -> 107 [penwidth=2]
    38 -> 209 [penwidth=2]
    38 -> 115 [penwidth=2]
    38 -> 97 [penwidth=2]
    38 -> 351 [penwidth=2]
    38 -> 110 [penwidth=2]
    38 -> 133 [penwidth=2]
    38 -> 120 [penwidth=2]
    38 -> 398 [penwidth=2]
    38 -> 65 [penwidth=2]
    38 -> 182 [penwidth=2]
    38 -> 129 [penwidth=2]
    38 -> 399 [penwidth=2]
    38 -> 15 [penwidth=2]
    38 -> 223 [penwidth=2]
    38 -> 177 [penwidth=2]
    38 -> 166 [penwidth=2]
    38 -> 204 [penwidth=2]
    38 -> 217 [penwidth=2]
    38 -> 68 [penwidth=2]
    38 -> 397 [penwidth=2]
    38 -> 216 [penwidth=2]
    38 -> 17 [penwidth=2]
    38 -> 152 [penwidth=2]
    38 -> 360 [penwidth=2]
    38 -> 124 [penwidth=2]
    38 -> 73 [penwidth=2]
    38 -> 150 [penwidth=2]
    38 -> 132 [penwidth=2]
    378 -> 77 [penwidth=2]
    378 -> 82 [penwidth=2]
    378 -> 107 [penwidth=2]
    378 -> 137 [penwidth=2]
    378 -> 89 [penwidth=2]
    378 -> 357 [penwidth=2]
    378 -> 150 [penwidth=2]
    378 -> 167 [penwidth=2]
    378 -> 71 [penwidth=2]
    378 -> 212 [penwidth=2]
    378 -> 351 [penwidth=2]
    378 -> 117 [penwidth=2]
    378 -> 130 [penwidth=2]
    378 -> 20 [penwidth=2]
    378 -> 63 [penwidth=2]
    378 -> 68 [penwidth=2]
    378 -> 110 [penwidth=2]
    378 -> 98 [penwidth=2]
    378 -> 73 [penwidth=2]
    378 -> 75 [penwidth=2]
    378 -> 169 [penwidth=2]
    378 -> 105 [penwidth=2]
    378 -> 83 [penwidth=2]
    378 -> 155 [penwidth=2]
    378 -> 200 [penwidth=2]
    378 -> 67 [penwidth=2]
    378 -> 213 [penwidth=2]
    378 -> 360 [penwidth=2]
    378 -> 210 [penwidth=2]
    378 -> 113 [penwidth=2]
    378 -> 216 [penwidth=2]
    378 -> 352 [penwidth=2]
    378 -> 174 [penwidth=2]
    378 -> 395 [penwidth=2]
    378 -> 157 [penwidth=2]
    378 -> 74 [penwidth=2]
    378 -> 356 [penwidth=2]
    378 -> 129 [penwidth=2]
    378 -> 396 [penwidth=2]
    378 -> 219 [penwidth=2]
    378 -> 131 [penwidth=2]
    378 -> 214 [penwidth=2]
    378 -> 147 [penwidth=2]
    378 -> 156 [penwidth=2]
    378 -> 170 [penwidth=2]
    378 -> 399 [penwidth=2]
    378 -> 154 [penwidth=2]
    378 -> 127 [penwidth=2]
    378 -> 138 [penwidth=2]
    378 -> 19 [penwidth=2]
    378 -> 198 [penwidth=2]
    378 -> 152 [penwidth=2]
    378 -> 99 [penwidth=2]
    378 -> 116 [penwidth=2]
    378 -> 125 [penwidth=2]
    378 -> 62 [penwidth=2]
    378 -> 59 [penwidth=2]
    378 -> 397 [penwidth=2]
    378 -> 171 [penwidth=2]
    378 -> 15 [penwidth=2]
    378 -> 211 [penwidth=2]
    378 -> 66 [penwidth=2]
    378 -> 164 [penwidth=2]
    378 -> 178 [penwidth=2]
    378 -> 165 [penwidth=2]
    378 -> 158 [penwidth=2]
    378 -> 95 [penwidth=2]
    378 -> 81 [penwidth=2]
    378 -> 153 [penwidth=2]
    378 -> 92 [penwidth=2]
    378 -> 17 [penwidth=2]
    378 -> 18 [penwidth=2]
    378 -> 91 [penwidth=2]
    378 -> 143 [penwidth=2]
    378 -> 102 [penwidth=2]
    378 -> 204 [penwidth=2]
    378 -> 202 [penwidth=2]
    378 -> 159 [penwidth=2]
    378 -> 78 [penwidth=2]
    378 -> 115 [penwidth=2]
    378 -> 64 [penwidth=2]
    378 -> 121 [penwidth=2]
    378 -> 224 [penwidth=2]
    378 -> 76 [penwidth=2]
    378 -> 146 [penwidth=2]
    378 -> 22 [penwidth=2]
    378 -> 134 [penwidth=2]
    378 -> 182 [penwidth=2]
    378 -> 72 [penwidth=2]
    378 -> 24 [penwidth=2]
    378 -> 393 [penwidth=2]
    378 -> 119 [penwidth=2]
    378 -> 120 [penwidth=2]
    378 -> 58 [penwidth=2]
    378 -> 173 [penwidth=2]
    378 -> 122 [penwidth=2]
    378 -> 142 [penwidth=2]
    378 -> 111 [penwidth=2]
    378 -> 114 [penwidth=2]
    378 -> 97 [penwidth=2]
    378 -> 359 [penwidth=2]
    378 -> 194 [penwidth=2]
    378 -> 197 [penwidth=2]
    378 -> 25 [penwidth=2]
    378 -> 144 [penwidth=2]
    378 -> 215 [penwidth=2]
    378 -> 208 [penwidth=2]
    378 -> 196 [penwidth=2]
    378 -> 106 [penwidth=2]
    378 -> 96 [penwidth=2]
    378 -> 192 [penwidth=2]
    382 -> 115 [penwidth=2]
    382 -> 101 [penwidth=2]
    382 -> 90 [penwidth=2]
    382 -> 104 [penwidth=2]
    382 -> 95 [penwidth=2]
    382 -> 99 [penwidth=2]
    382 -> 118 [penwidth=2]
    382 -> 61 [penwidth=2]
    382 -> 360 [penwidth=2]
    382 -> 93 [penwidth=2]
    382 -> 69 [penwidth=2]
    382 -> 156 [penwidth=2]
    382 -> 120 [penwidth=2]
    382 -> 209 [penwidth=2]
    382 -> 214 [penwidth=2]
    382 -> 113 [penwidth=2]
    382 -> 123 [penwidth=2]
    382 -> 26 [penwidth=2]
    382 -> 157 [penwidth=2]
    382 -> 60 [penwidth=2]
    382 -> 173 [penwidth=2]
    48 -> 224 [penwidth=2]
    48 -> 202 [penwidth=2]
    48 -> 214 [penwidth=2]
    48 -> 145 [penwidth=2]
    48 -> 94 [penwidth=2]
    48 -> 179 [penwidth=2]
    48 -> 196 [penwidth=2]
    48 -> 65 [penwidth=2]
    48 -> 216 [penwidth=2]
    48 -> 353 [penwidth=2]
    48 -> 147 [penwidth=2]
    48 -> 104 [penwidth=2]
    48 -> 67 [penwidth=2]
    48 -> 212 [penwidth=2]
    48 -> 181 [penwidth=2]
    48 -> 71 [penwidth=2]
    48 -> 152 [penwidth=2]
    48 -> 165 [penwidth=2]
    48 -> 396 [penwidth=2]
    48 -> 125 [penwidth=2]
    48 -> 115 [penwidth=2]
    48 -> 15 [penwidth=2]
    48 -> 215 [penwidth=2]
    48 -> 175 [penwidth=2]
    48 -> 107 [penwidth=2]
    48 -> 209 [penwidth=2]
    48 -> 21 [penwidth=2]
    48 -> 120 [penwidth=2]
    48 -> 108 [penwidth=2]
    48 -> 111 [penwidth=2]
    48 -> 68 [penwidth=2]
    48 -> 148 [penwidth=2]
    48 -> 134 [penwidth=2]
    48 -> 192 [penwidth=2]
    48 -> 95 [penwidth=2]
    48 -> 85 [penwidth=2]
    48 -> 93 [penwidth=2]
    48 -> 132 [penwidth=2]
    48 -> 394 [penwidth=2]
    48 -> 362 [penwidth=2]
    48 -> 137 [penwidth=2]
    48 -> 76 [penwidth=2]
    48 -> 159 [penwidth=2]
    48 -> 81 [penwidth=2]
    48 -> 18 [penwidth=2]
    48 -> 74 [penwidth=2]
    48 -> 359 [penwidth=2]
    48 -> 96 [penwidth=2]
    48 -> 58 [penwidth=2]
    48 -> 79 [penwidth=2]
    48 -> 177 [penwidth=2]
    48 -> 116 [penwidth=2]
    48 -> 358 [penwidth=2]
    48 -> 203 [penwidth=2]
    48 -> 128 [penwidth=2]
    48 -> 157 [penwidth=2]
    48 -> 139 [penwidth=2]
    48 -> 182 [penwidth=2]
    48 -> 176 [penwidth=2]
    48 -> 57 [penwidth=2]
    48 -> 98 [penwidth=2]
    48 -> 131 [penwidth=2]
    48 -> 218 [penwidth=2]
    48 -> 199 [penwidth=2]
    48 -> 24 [penwidth=2]
    48 -> 161 [penwidth=2]
    48 -> 122 [penwidth=2]
    48 -> 220 [penwidth=2]
    48 -> 26 [penwidth=2]
    48 -> 127 [penwidth=2]
    48 -> 118 [penwidth=2]
    48 -> 143 [penwidth=2]
    48 -> 113 [penwidth=2]
    48 -> 149 [penwidth=2]
    48 -> 130 [penwidth=2]
    48 -> 23 [penwidth=2]
    48 -> 146 [penwidth=2]
    48 -> 393 [penwidth=2]
    48 -> 25 [penwidth=2]
    48 -> 101 [penwidth=2]
    48 -> 171 [penwidth=2]
    48 -> 150 [penwidth=2]
    48 -> 355 [penwidth=2]
    48 -> 16 [penwidth=2]
    48 -> 90 [penwidth=2]
    48 -> 360 [penwidth=2]
    48 -> 89 [penwidth=2]
    48 -> 194 [penwidth=2]
    48 -> 180 [penwidth=2]
    48 -> 158 [penwidth=2]
    48 -> 91 [penwidth=2]
    48 -> 172 [penwidth=2]
    48 -> 66 [penwidth=2]
    48 -> 356 [penwidth=2]
    48 -> 201 [penwidth=2]
    48 -> 106 [penwidth=2]
    48 -> 219 [penwidth=2]
    48 -> 70 [penwidth=2]
    48 -> 62 [penwidth=2]
    48 -> 352 [penwidth=2]
    48 -> 92 [penwidth=2]
    48 -> 110 [penwidth=2]
    48 -> 142 [penwidth=2]
    48 -> 112 [penwidth=2]
    48 -> 151 [penwidth=2]
    48 -> 221 [penwidth=2]
    48 -> 117 [penwidth=2]
    48 -> 97 [penwidth=2]
    48 -> 138 [penwidth=2]
    48 -> 398 [penwidth=2]
    48 -> 20 [penwidth=2]
    48 -> 77 [penwidth=2]
    48 -> 136 [penwidth=2]
    48 -> 178 [penwidth=2]
    48 -> 162 [penwidth=2]
    48 -> 223 [penwidth=2]
    48 -> 64 [penwidth=2]
    48 -> 354 [penwidth=2]
    48 -> 357 [penwidth=2]
    48 -> 140 [penwidth=2]
    48 -> 153 [penwidth=2]
    48 -> 155 [penwidth=2]
    48 -> 86 [penwidth=2]
    48 -> 17 [penwidth=2]
    48 -> 351 [penwidth=2]
    48 -> 69 [penwidth=2]
    48 -> 109 [penwidth=2]
    48 -> 193 [penwidth=2]
    48 -> 82 [penwidth=2]
    48 -> 75 [penwidth=2]
    48 -> 126 [penwidth=2]
    48 -> 80 [penwidth=2]
    48 -> 361 [penwidth=2]
    48 -> 197 [penwidth=2]
    48 -> 84 [penwidth=2]
    48 -> 207 [penwidth=2]
    48 -> 87 [penwidth=2]
    48 -> 83 [penwidth=2]
    48 -> 217 [penwidth=2]
    48 -> 154 [penwidth=2]
    48 -> 170 [penwidth=2]
    48 -> 60 [penwidth=2]
    48 -> 210 [penwidth=2]
    48 -> 73 [penwidth=2]
    48 -> 211 [penwidth=2]
    48 -> 397 [penwidth=2]
    48 -> 169 [penwidth=2]
    48 -> 61 [penwidth=2]
    48 -> 124 [penwidth=2]
    48 -> 135 [penwidth=2]
    48 -> 208 [penwidth=2]
    48 -> 168 [penwidth=2]
    48 -> 129 [penwidth=2]
    50 -> 124 [penwidth=2]
    50 -> 106 [penwidth=2]
    50 -> 117 [penwidth=2]
    50 -> 207 [penwidth=2]
    50 -> 129 [penwidth=2]
    50 -> 215 [penwidth=2]
    50 -> 399 [penwidth=2]
    50 -> 351 [penwidth=2]
    50 -> 85 [penwidth=2]
    50 -> 358 [penwidth=2]
    50 -> 61 [penwidth=2]
    50 -> 196 [penwidth=2]
    50 -> 23 [penwidth=2]
    50 -> 16 [penwidth=2]
    50 -> 193 [penwidth=2]
    50 -> 19 [penwidth=2]
    50 -> 135 [penwidth=2]
    50 -> 17 [penwidth=2]
    50 -> 212 [penwidth=2]
    50 -> 108 [penwidth=2]
    50 -> 397 [penwidth=2]
    50 -> 77 [penwidth=2]
    50 -> 118 [penwidth=2]
    50 -> 162 [penwidth=2]
    50 -> 163 [penwidth=2]
    50 -> 143 [penwidth=2]
    50 -> 74 [penwidth=2]
    50 -> 120 [penwidth=2]
    50 -> 199 [penwidth=2]
    50 -> 394 [penwidth=2]
    50 -> 109 [penwidth=2]
    50 -> 57 [penwidth=2]
    50 -> 116 [penwidth=2]
    50 -> 22 [penwidth=2]
    50 -> 113 [penwidth=2]
    50 -> 359 [penwidth=2]
    50 -> 160 [penwidth=2]
    50 -> 216 [penwidth=2]
    50 -> 18 [penwidth=2]
    50 -> 194 [penwidth=2]
    50 -> 155 [penwidth=2]
    50 -> 64 [penwidth=2]
    50 -> 60 [penwidth=2]
    50 -> 133 [penwidth=2]
    50 -> 156 [penwidth=2]
    50 -> 173 [penwidth=2]
    50 -> 210 [penwidth=2]
    50 -> 219 [penwidth=2]
    50 -> 59 [penwidth=2]
    50 -> 361 [penwidth=2]
    50 -> 105 [penwidth=2]
    50 -> 171 [penwidth=2]
    50 -> 21 [penwidth=2]
    50 -> 131 [penwidth=2]
    50 -> 83 [penwidth=2]
    50 -> 172 [penwidth=2]
    50 -> 104 [penwidth=2]
    50 -> 164 [penwidth=2]
    50 -> 86 [penwidth=2]
    50 -> 153 [penwidth=2]
    50 -> 159 [penwidth=2]
    50 -> 112 [penwidth=2]
    50 -> 103 [penwidth=2]
    50 -> 119 [penwidth=2]
    50 -> 357 [penwidth=2]
    50 -> 126 [penwidth=2]
    50 -> 150 [penwidth=2]
    50 -> 158 [penwidth=2]
    50 -> 80 [penwidth=2]
    50 -> 169 [penwidth=2]
    50 -> 121 [penwidth=2]
    50 -> 152 [penwidth=2]
    50 -> 211 [penwidth=2]
    50 -> 165 [penwidth=2]
    50 -> 100 [penwidth=2]
    50 -> 167 [penwidth=2]
    50 -> 68 [penwidth=2]
    50 -> 179 [penwidth=2]
    50 -> 354 [penwidth=2]
    50 -> 81 [penwidth=2]
    50 -> 202 [penwidth=2]
    50 -> 395 [penwidth=2]
    50 -> 157 [penwidth=2]
    50 -> 63 [penwidth=2]
    50 -> 142 [penwidth=2]
    50 -> 88 [penwidth=2]
    50 -> 137 [penwidth=2]
    50 -> 78 [penwidth=2]
    50 -> 62 [penwidth=2]
    50 -> 213 [penwidth=2]
    50 -> 151 [penwidth=2]
    50 -> 26 [penwidth=2]
    50 -> 145 [penwidth=2]
    50 -> 182 [penwidth=2]
    50 -> 206 [penwidth=2]
    50 -> 170 [penwidth=2]
    50 -> 67 [penwidth=2]
    50 -> 208 [penwidth=2]
    50 -> 134 [penwidth=2]
    50 -> 15 [penwidth=2]
    50 -> 25 [penwidth=2]
    50 -> 123 [penwidth=2]
    50 -> 95 [penwidth=2]
    50 -> 130 [penwidth=2]
    50 -> 98 [penwidth=2]
    50 -> 192 [penwidth=2]
    50 -> 111 [penwidth=2]
    50 -> 220 [penwidth=2]
    50 -> 197 [penwidth=2]
    50 -> 65 [penwidth=2]
    50 -> 205 [penwidth=2]
    50 -> 96 [penwidth=2]
    50 -> 58 [penwidth=2]
    50 -> 204 [penwidth=2]
    50 -> 107 [penwidth=2]
    50 -> 73 [penwidth=2]
    50 -> 200 [penwidth=2]
    50 -> 222 [penwidth=2]
    50 -> 217 [penwidth=2]
    50 -> 114 [penwidth=2]
    50 -> 178 [penwidth=2]
    50 -> 102 [penwidth=2]
    50 -> 79 [penwidth=2]
    50 -> 203 [penwidth=2]
    50 -> 70 [penwidth=2]
    50 -> 214 [penwidth=2]
    50 -> 110 [penwidth=2]
    50 -> 224 [penwidth=2]
    50 -> 91 [penwidth=2]
    50 -> 66 [penwidth=2]
    50 -> 149 [penwidth=2]
    50 -> 122 [penwidth=2]
    50 -> 76 [penwidth=2]
    50 -> 221 [penwidth=2]
    50 -> 353 [penwidth=2]
    50 -> 393 [penwidth=2]
    50 -> 90 [penwidth=2]
    50 -> 148 [penwidth=2]
    50 -> 209 [penwidth=2]
    50 -> 166 [penwidth=2]
    50 -> 20 [penwidth=2]
    320 -> 114 [penwidth=2]
    320 -> 393 [penwidth=2]
    320 -> 224 [penwidth=2]
    320 -> 397 [penwidth=2]
    320 -> 122 [penwidth=2]
    320 -> 111 [penwidth=2]
    320 -> 88 [penwidth=2]
    320 -> 127 [penwidth=2]
    320 -> 128 [penwidth=2]
    320 -> 103 [penwidth=2]
    320 -> 81 [penwidth=2]
    320 -> 19 [penwidth=2]
    320 -> 82 [penwidth=2]
    320 -> 396 [penwidth=2]
    320 -> 99 [penwidth=2]
    320 -> 73 [penwidth=2]
    320 -> 94 [penwidth=2]
    320 -> 193 [penwidth=2]
    320 -> 219 [penwidth=2]
    320 -> 85 [penwidth=2]
    320 -> 207 [penwidth=2]
    320 -> 93 [penwidth=2]
    320 -> 25 [penwidth=2]
    320 -> 148 [penwidth=2]
    320 -> 142 [penwidth=2]
    320 -> 178 [penwidth=2]
    320 -> 212 [penwidth=2]
    320 -> 395 [penwidth=2]
    320 -> 201 [penwidth=2]
    320 -> 199 [penwidth=2]
    320 -> 78 [penwidth=2]
    320 -> 16 [penwidth=2]
    320 -> 131 [penwidth=2]
    320 -> 123 [penwidth=2]
    320 -> 116 [penwidth=2]
    320 -> 140 [penwidth=2]
    320 -> 61 [penwidth=2]
    320 -> 154 [penwidth=2]
    320 -> 26 [penwidth=2]
    320 -> 198 [penwidth=2]
    320 -> 354 [penwidth=2]
    320 -> 134 [penwidth=2]
    320 -> 86 [penwidth=2]
    320 -> 124 [penwidth=2]
    320 -> 215 [penwidth=2]
    320 -> 216 [penwidth=2]
    320 -> 171 [penwidth=2]
    320 -> 357 [penwidth=2]
    320 -> 210 [penwidth=2]
    320 -> 355 [penwidth=2]
    320 -> 360 [penwidth=2]
    320 -> 361 [penwidth=2]
    320 -> 21 [penwidth=2]
    320 -> 192 [penwidth=2]
    320 -> 362 [penwidth=2]
    320 -> 132 [penwidth=2]
    320 -> 95 [penwidth=2]
    320 -> 89 [penwidth=2]
    320 -> 200 [penwidth=2]
    320 -> 110 [penwidth=2]
    320 -> 202 [penwidth=2]
    320 -> 106 [penwidth=2]
    320 -> 175 [penwidth=2]
    320 -> 398 [penwidth=2]
    320 -> 79 [penwidth=2]
    320 -> 15 [penwidth=2]
    320 -> 112 [penwidth=2]
    320 -> 211 [penwidth=2]
    320 -> 165 [penwidth=2]
    320 -> 203 [penwidth=2]
    320 -> 138 [penwidth=2]
    320 -> 220 [penwidth=2]
    320 -> 92 [penwidth=2]
    320 -> 208 [penwidth=2]
    320 -> 161 [penwidth=2]
    320 -> 177 [penwidth=2]
    320 -> 108 [penwidth=2]
    320 -> 155 [penwidth=2]
    320 -> 137 [penwidth=2]
    320 -> 65 [penwidth=2]
    320 -> 205 [penwidth=2]
    320 -> 24 [penwidth=2]
    320 -> 157 [penwidth=2]
    320 -> 107 [penwidth=2]
    320 -> 96 [penwidth=2]
    320 -> 87 [penwidth=2]
    320 -> 130 [penwidth=2]
    320 -> 141 [penwidth=2]
    320 -> 152 [penwidth=2]
    320 -> 67 [penwidth=2]
    320 -> 70 [penwidth=2]
    320 -> 69 [penwidth=2]
    320 -> 102 [penwidth=2]
    320 -> 113 [penwidth=2]
    320 -> 68 [penwidth=2]
    320 -> 59 [penwidth=2]
    320 -> 72 [penwidth=2]
    320 -> 176 [penwidth=2]
    320 -> 351 [penwidth=2]
    320 -> 62 [penwidth=2]
    320 -> 158 [penwidth=2]
    320 -> 125 [penwidth=2]
    320 -> 160 [penwidth=2]
    320 -> 126 [penwidth=2]
    320 -> 353 [penwidth=2]
    320 -> 174 [penwidth=2]
    320 -> 118 [penwidth=2]
    320 -> 71 [penwidth=2]
    320 -> 66 [penwidth=2]
    320 -> 206 [penwidth=2]
    320 -> 394 [penwidth=2]
    320 -> 133 [penwidth=2]
    320 -> 84 [penwidth=2]
    320 -> 356 [penwidth=2]
    320 -> 163 [penwidth=2]
    320 -> 100 [penwidth=2]
    320 -> 197 [penwidth=2]
    320 -> 166 [penwidth=2]
    320 -> 91 [penwidth=2]
    320 -> 167 [penwidth=2]
    320 -> 60 [penwidth=2]
    320 -> 117 [penwidth=2]
    320 -> 169 [penwidth=2]
    320 -> 57 [penwidth=2]
    320 -> 218 [penwidth=2]
    320 -> 214 [penwidth=2]
    320 -> 180 [penwidth=2]
    320 -> 109 [penwidth=2]
    320 -> 221 [penwidth=2]
    320 -> 75 [penwidth=2]
    320 -> 164 [penwidth=2]
    320 -> 170 [penwidth=2]
    320 -> 80 [penwidth=2]
    320 -> 168 [penwidth=2]
    320 -> 115 [penwidth=2]
    320 -> 147 [penwidth=2]
    320 -> 129 [penwidth=2]
    320 -> 144 [penwidth=2]
    320 -> 136 [penwidth=2]
    320 -> 83 [penwidth=2]
    320 -> 58 [penwidth=2]
    320 -> 18 [penwidth=2]
    320 -> 17 [penwidth=2]
    320 -> 77 [penwidth=2]
    320 -> 182 [penwidth=2]
    320 -> 159 [penwidth=2]
    320 -> 146 [penwidth=2]
    320 -> 121 [penwidth=2]
    320 -> 151 [penwidth=2]
    320 -> 358 [penwidth=2]
    320 -> 143 [penwidth=2]
    320 -> 217 [penwidth=2]
    320 -> 97 [penwidth=2]
    320 -> 120 [penwidth=2]
    320 -> 64 [penwidth=2]
    320 -> 20 [penwidth=2]
    320 -> 105 [penwidth=2]
    320 -> 195 [penwidth=2]
    320 -> 179 [penwidth=2]
    320 -> 399 [penwidth=2]
    320 -> 76 [penwidth=2]
    320 -> 150 [penwidth=2]
    320 -> 23 [penwidth=2]
    320 -> 194 [penwidth=2]
    320 -> 222 [penwidth=2]
    320 -> 352 [penwidth=2]
    320 -> 204 [penwidth=2]
    320 -> 98 [penwidth=2]
    320 -> 153 [penwidth=2]
    320 -> 209 [penwidth=2]
    320 -> 181 [penwidth=2]
    320 -> 223 [penwidth=2]
    320 -> 156 [penwidth=2]
    320 -> 104 [penwidth=2]
    320 -> 101 [penwidth=2]
    320 -> 139 [penwidth=2]
    320 -> 149 [penwidth=2]
    320 -> 173 [penwidth=2]
    320 -> 119 [penwidth=2]
    335 -> 217 [penwidth=2]
    335 -> 361 [penwidth=2]
    335 -> 84 [penwidth=2]
    335 -> 175 [penwidth=2]
    335 -> 58 [penwidth=2]
    335 -> 85 [penwidth=2]
    335 -> 192 [penwidth=2]
    335 -> 355 [penwidth=2]
    335 -> 144 [penwidth=2]
    335 -> 167 [penwidth=2]
    336 -> 362 [penwidth=2]
    336 -> 161 [penwidth=2]
    336 -> 395 [penwidth=2]
    336 -> 159 [penwidth=2]
    336 -> 181 [penwidth=2]
    336 -> 75 [penwidth=2]
    336 -> 224 [penwidth=2]
    336 -> 156 [penwidth=2]
    336 -> 166 [penwidth=2]
    336 -> 175 [penwidth=2]
    336 -> 358 [penwidth=2]
    336 -> 157 [penwidth=2]
    336 -> 394 [penwidth=2]
    336 -> 65 [penwidth=2]
    336 -> 393 [penwidth=2]
    336 -> 149 [penwidth=2]
    336 -> 220 [penwidth=2]
    336 -> 182 [penwidth=2]
    336 -> 398 [penwidth=2]
    336 -> 214 [penwidth=2]
    336 -> 86 [penwidth=2]
    336 -> 17 [penwidth=2]
    336 -> 90 [penwidth=2]
    336 -> 119 [penwidth=2]
    336 -> 108 [penwidth=2]
    336 -> 84 [penwidth=2]
    336 -> 209 [penwidth=2]
    336 -> 351 [penwidth=2]
    336 -> 397 [penwidth=2]
    336 -> 171 [penwidth=2]
    336 -> 99 [penwidth=2]
    336 -> 206 [penwidth=2]
    336 -> 25 [penwidth=2]
    336 -> 58 [penwidth=2]
    336 -> 154 [penwidth=2]
    336 -> 103 [penwidth=2]
    336 -> 167 [penwidth=2]
    336 -> 192 [penwidth=2]
    336 -> 153 [penwidth=2]
    336 -> 80 [penwidth=2]
    336 -> 137 [penwidth=2]
    336 -> 155 [penwidth=2]
    336 -> 194 [penwidth=2]
    336 -> 20 [penwidth=2]
    336 -> 169 [penwidth=2]
    336 -> 15 [penwidth=2]
    336 -> 26 [penwidth=2]
    336 -> 74 [penwidth=2]
    336 -> 158 [penwidth=2]
    336 -> 207 [penwidth=2]
    336 -> 122 [penwidth=2]
    336 -> 174 [penwidth=2]
    336 -> 140 [penwidth=2]
    336 -> 150 [penwidth=2]
    336 -> 21 [penwidth=2]
    336 -> 197 [penwidth=2]
    336 -> 19 [penwidth=2]
    336 -> 112 [penwidth=2]
    336 -> 210 [penwidth=2]
    336 -> 94 [penwidth=2]
    336 -> 142 [penwidth=2]
    336 -> 172 [penwidth=2]
    336 -> 353 [penwidth=2]
    336 -> 66 [penwidth=2]
    336 -> 357 [penwidth=2]
    336 -> 104 [penwidth=2]
    336 -> 196 [penwidth=2]
    1 -> 393 [penwidth=2]
    1 -> 216 [penwidth=2]
    1 -> 132 [penwidth=2]
    1 -> 213 [penwidth=2]
    1 -> 210 [penwidth=2]
    1 -> 145 [penwidth=2]
    1 -> 22 [penwidth=2]
    1 -> 58 [penwidth=2]
    1 -> 202 [penwidth=2]
    1 -> 128 [penwidth=2]
    1 -> 192 [penwidth=2]
    1 -> 71 [penwidth=2]
    1 -> 180 [penwidth=2]
    3 -> 181 [penwidth=2]
    3 -> 90 [penwidth=2]
    3 -> 104 [penwidth=2]
    3 -> 398 [penwidth=2]
    3 -> 195 [penwidth=2]
    3 -> 150 [penwidth=2]
    3 -> 134 [penwidth=2]
    3 -> 211 [penwidth=2]
    3 -> 64 [penwidth=2]
    3 -> 127 [penwidth=2]
    3 -> 136 [penwidth=2]
    3 -> 100 [penwidth=2]
    3 -> 154 [penwidth=2]
    3 -> 160 [penwidth=2]
    3 -> 20 [penwidth=2]
    3 -> 59 [penwidth=2]
    3 -> 393 [penwidth=2]
    3 -> 81 [penwidth=2]
    3 -> 110 [penwidth=2]
    3 -> 175 [penwidth=2]
    3 -> 135 [penwidth=2]
    3 -> 172 [penwidth=2]
    3 -> 80 [penwidth=2]
    3 -> 74 [penwidth=2]
    3 -> 359 [penwidth=2]
    3 -> 85 [penwidth=2]
    3 -> 203 [penwidth=2]
    3 -> 131 [penwidth=2]
    3 -> 193 [penwidth=2]
    3 -> 88 [penwidth=2]
    3 -> 180 [penwidth=2]
    3 -> 93 [penwidth=2]
    3 -> 165 [penwidth=2]
    3 -> 167 [penwidth=2]
    3 -> 351 [penwidth=2]
    3 -> 209 [penwidth=2]
    3 -> 192 [penwidth=2]
    3 -> 19 [penwidth=2]
    3 -> 354 [penwidth=2]
    3 -> 125 [penwidth=2]
    3 -> 25 [penwidth=2]
    3 -> 163 [penwidth=2]
    3 -> 174 [penwidth=2]
    3 -> 156 [penwidth=2]
    3 -> 69 [penwidth=2]
    3 -> 126 [penwidth=2]
    3 -> 79 [penwidth=2]
    3 -> 101 [penwidth=2]
    3 -> 107 [penwidth=2]
    3 -> 91 [penwidth=2]
    3 -> 220 [penwidth=2]
    3 -> 210 [penwidth=2]
    3 -> 118 [penwidth=2]
    3 -> 214 [penwidth=2]
    3 -> 124 [penwidth=2]
    3 -> 151 [penwidth=2]
    3 -> 117 [penwidth=2]
    3 -> 145 [penwidth=2]
    3 -> 133 [penwidth=2]
    3 -> 106 [penwidth=2]
    3 -> 105 [penwidth=2]
    3 -> 115 [penwidth=2]
    3 -> 208 [penwidth=2]
    3 -> 102 [penwidth=2]
    3 -> 60 [penwidth=2]
    3 -> 73 [penwidth=2]
    3 -> 148 [penwidth=2]
    3 -> 399 [penwidth=2]
    3 -> 94 [penwidth=2]
    3 -> 78 [penwidth=2]
    3 -> 164 [penwidth=2]
    3 -> 92 [penwidth=2]
    3 -> 137 [penwidth=2]
    3 -> 57 [penwidth=2]
    3 -> 201 [penwidth=2]
    3 -> 216 [penwidth=2]
    3 -> 116 [penwidth=2]
    3 -> 178 [penwidth=2]
    3 -> 95 [penwidth=2]
    3 -> 362 [penwidth=2]
    3 -> 71 [penwidth=2]
    3 -> 99 [penwidth=2]
    3 -> 182 [penwidth=2]
    3 -> 108 [penwidth=2]
    3 -> 61 [penwidth=2]
    3 -> 179 [penwidth=2]
    3 -> 18 [penwidth=2]
    3 -> 72 [penwidth=2]
    3 -> 139 [penwidth=2]
    3 -> 159 [penwidth=2]
    3 -> 215 [penwidth=2]
    3 -> 221 [penwidth=2]
    3 -> 168 [penwidth=2]
    3 -> 361 [penwidth=2]
    3 -> 129 [penwidth=2]
    3 -> 128 [penwidth=2]
    3 -> 166 [penwidth=2]
    3 -> 204 [penwidth=2]
    3 -> 206 [penwidth=2]
    3 -> 198 [penwidth=2]
    3 -> 132 [penwidth=2]
    3 -> 24 [penwidth=2]
    3 -> 96 [penwidth=2]
    3 -> 63 [penwidth=2]
    3 -> 83 [penwidth=2]
    3 -> 355 [penwidth=2]
    3 -> 395 [penwidth=2]
    3 -> 197 [penwidth=2]
    3 -> 200 [penwidth=2]
    3 -> 158 [penwidth=2]
    3 -> 122 [penwidth=2]
    3 -> 17 [penwidth=2]
    3 -> 217 [penwidth=2]
    3 -> 219 [penwidth=2]
    3 -> 103 [penwidth=2]
    3 -> 111 [penwidth=2]
    3 -> 144 [penwidth=2]
    3 -> 123 [penwidth=2]
    3 -> 356 [penwidth=2]
    3 -> 140 [penwidth=2]
    3 -> 130 [penwidth=2]
    3 -> 97 [penwidth=2]
    3 -> 171 [penwidth=2]
    3 -> 173 [penwidth=2]
    3 -> 76 [penwidth=2]
    3 -> 394 [penwidth=2]
    3 -> 202 [penwidth=2]
    3 -> 143 [penwidth=2]
    3 -> 161 [penwidth=2]
    3 -> 70 [penwidth=2]
    3 -> 396 [penwidth=2]
    3 -> 113 [penwidth=2]
    3 -> 353 [penwidth=2]
    3 -> 119 [penwidth=2]
    3 -> 157 [penwidth=2]
    3 -> 223 [penwidth=2]
    10 -> 208 [penwidth=2]
    10 -> 66 [penwidth=2]
    10 -> 83 [penwidth=2]
    10 -> 175 [penwidth=2]
    10 -> 219 [penwidth=2]
    10 -> 154 [penwidth=2]
    10 -> 204 [penwidth=2]
    10 -> 156 [penwidth=2]
    10 -> 26 [penwidth=2]
    10 -> 18 [penwidth=2]
    10 -> 120 [penwidth=2]
    10 -> 72 [penwidth=2]
    10 -> 160 [penwidth=2]
    10 -> 182 [penwidth=2]
    10 -> 90 [penwidth=2]
    10 -> 197 [penwidth=2]
    10 -> 89 [penwidth=2]
    10 -> 193 [penwidth=2]
    10 -> 141 [penwidth=2]
    10 -> 168 [penwidth=2]
    10 -> 134 [penwidth=2]
    10 -> 15 [penwidth=2]
    10 -> 148 [penwidth=2]
    10 -> 214 [penwidth=2]
    10 -> 82 [penwidth=2]
    10 -> 25 [penwidth=2]
    10 -> 202 [penwidth=2]
    10 -> 64 [penwidth=2]
    10 -> 61 [penwidth=2]
    10 -> 128 [penwidth=2]
    10 -> 94 [penwidth=2]
    10 -> 65 [penwidth=2]
    10 -> 147 [penwidth=2]
    10 -> 397 [penwidth=2]
    10 -> 220 [penwidth=2]
    10 -> 121 [penwidth=2]
    10 -> 110 [penwidth=2]
    10 -> 108 [penwidth=2]
    10 -> 126 [penwidth=2]
    10 -> 173 [penwidth=2]
    10 -> 395 [penwidth=2]
    10 -> 176 [penwidth=2]
    10 -> 144 [penwidth=2]
    10 -> 88 [penwidth=2]
    10 -> 76 [penwidth=2]
    10 -> 195 [penwidth=2]
    10 -> 23 [penwidth=2]
    10 -> 209 [penwidth=2]
    10 -> 57 [penwidth=2]
    10 -> 203 [penwidth=2]
    10 -> 155 [penwidth=2]
    10 -> 17 [penwidth=2]
    10 -> 132 [penwidth=2]
    10 -> 149 [penwidth=2]
    10 -> 137 [penwidth=2]
    10 -> 63 [penwidth=2]
    10 -> 351 [penwidth=2]
    10 -> 20 [penwidth=2]
    10 -> 67 [penwidth=2]
    10 -> 194 [penwidth=2]
    10 -> 136 [penwidth=2]
    10 -> 158 [penwidth=2]
    10 -> 171 [penwidth=2]
    10 -> 169 [penwidth=2]
    10 -> 93 [penwidth=2]
    10 -> 77 [penwidth=2]
    10 -> 179 [penwidth=2]
    10 -> 157 [penwidth=2]
    10 -> 106 [penwidth=2]
    10 -> 362 [penwidth=2]
    10 -> 215 [penwidth=2]
    10 -> 75 [penwidth=2]
    10 -> 162 [penwidth=2]
    10 -> 213 [penwidth=2]
    10 -> 130 [penwidth=2]
    10 -> 71 [penwidth=2]
    10 -> 60 [penwidth=2]
    10 -> 102 [penwidth=2]
    10 -> 145 [penwidth=2]
    10 -> 140 [penwidth=2]
    10 -> 69 [penwidth=2]
    10 -> 223 [penwidth=2]
    10 -> 123 [penwidth=2]
    10 -> 116 [penwidth=2]
    10 -> 129 [penwidth=2]
    10 -> 109 [penwidth=2]
    10 -> 68 [penwidth=2]
    10 -> 98 [penwidth=2]
    10 -> 59 [penwidth=2]
    10 -> 95 [penwidth=2]
    10 -> 153 [penwidth=2]
    10 -> 205 [penwidth=2]
    10 -> 206 [penwidth=2]
    10 -> 150 [penwidth=2]
    10 -> 207 [penwidth=2]
    10 -> 212 [penwidth=2]
    10 -> 361 [penwidth=2]
    10 -> 196 [penwidth=2]
    10 -> 218 [penwidth=2]
    10 -> 159 [penwidth=2]
    10 -> 398 [penwidth=2]
    10 -> 113 [penwidth=2]
    10 -> 201 [penwidth=2]
    10 -> 21 [penwidth=2]
    10 -> 354 [penwidth=2]
    10 -> 165 [penwidth=2]
    10 -> 99 [penwidth=2]
    10 -> 87 [penwidth=2]
    10 -> 124 [penwidth=2]
    10 -> 114 [penwidth=2]
    10 -> 211 [penwidth=2]
    274 -> 79 [penwidth=2]
    274 -> 398 [penwidth=2]
    274 -> 162 [penwidth=2]
    274 -> 172 [penwidth=2]
    274 -> 21 [penwidth=2]
    274 -> 192 [penwidth=2]
    274 -> 203 [penwidth=2]
    274 -> 154 [penwidth=2]
    274 -> 357 [penwidth=2]
    274 -> 71 [penwidth=2]
    274 -> 157 [penwidth=2]
    274 -> 63 [penwidth=2]
    274 -> 99 [penwidth=2]
    274 -> 25 [penwidth=2]
    274 -> 216 [penwidth=2]
    274 -> 103 [penwidth=2]
    274 -> 160 [penwidth=2]
    274 -> 74 [penwidth=2]
    274 -> 84 [penwidth=2]
    274 -> 212 [penwidth=2]
    274 -> 91 [penwidth=2]
    274 -> 201 [penwidth=2]
    274 -> 135 [penwidth=2]
    274 -> 166 [penwidth=2]
    274 -> 164 [penwidth=2]
    274 -> 60 [penwidth=2]
    274 -> 180 [penwidth=2]
    274 -> 87 [penwidth=2]
    274 -> 130 [penwidth=2]
    274 -> 163 [penwidth=2]
    274 -> 351 [penwidth=2]
    274 -> 218 [penwidth=2]
    274 -> 90 [penwidth=2]
    274 -> 92 [penwidth=2]
    274 -> 361 [penwidth=2]
    274 -> 66 [penwidth=2]
    274 -> 98 [penwidth=2]
    274 -> 95 [penwidth=2]
    274 -> 214 [penwidth=2]
    274 -> 68 [penwidth=2]
    274 -> 396 [penwidth=2]
    274 -> 88 [penwidth=2]
    274 -> 394 [penwidth=2]
    274 -> 159 [penwidth=2]
    274 -> 16 [penwidth=2]
    274 -> 62 [penwidth=2]
    274 -> 196 [penwidth=2]
    274 -> 85 [penwidth=2]
    274 -> 17 [penwidth=2]
    274 -> 22 [penwidth=2]
    274 -> 153 [penwidth=2]
    274 -> 100 [penwidth=2]
    274 -> 215 [penwidth=2]
    274 -> 360 [penwidth=2]
    274 -> 145 [penwidth=2]
    274 -> 176 [penwidth=2]
    274 -> 197 [penwidth=2]
    274 -> 18 [penwidth=2]
    274 -> 134 [penwidth=2]
    274 -> 64 [penwidth=2]
    274 -> 78 [penwidth=2]
    274 -> 208 [penwidth=2]
    274 -> 167 [penwidth=2]
    274 -> 141 [penwidth=2]
    274 -> 140 [penwidth=2]
    274 -> 20 [penwidth=2]
    274 -> 353 [penwidth=2]
    274 -> 122 [penwidth=2]
    274 -> 109 [penwidth=2]
    274 -> 193 [penwidth=2]
    274 -> 155 [penwidth=2]
    274 -> 142 [penwidth=2]
    274 -> 15 [penwidth=2]
    274 -> 204 [penwidth=2]
    274 -> 194 [penwidth=2]
    274 -> 75 [penwidth=2]
    274 -> 177 [penwidth=2]
    274 -> 82 [penwidth=2]
    274 -> 124 [penwidth=2]
    274 -> 105 [penwidth=2]
    274 -> 144 [penwidth=2]
    274 -> 115 [penwidth=2]
    274 -> 69 [penwidth=2]
    274 -> 178 [penwidth=2]
    274 -> 101 [penwidth=2]
    274 -> 222 [penwidth=2]
    274 -> 96 [penwidth=2]
    274 -> 77 [penwidth=2]
    274 -> 138 [penwidth=2]
    274 -> 119 [penwidth=2]
    274 -> 94 [penwidth=2]
    274 -> 72 [penwidth=2]
    274 -> 24 [penwidth=2]
    274 -> 57 [penwidth=2]
    274 -> 199 [penwidth=2]
    274 -> 171 [penwidth=2]
    274 -> 220 [penwidth=2]
    274 -> 117 [penwidth=2]
    274 -> 133 [penwidth=2]
    274 -> 73 [penwidth=2]
    274 -> 209 [penwidth=2]
    274 -> 61 [penwidth=2]
    274 -> 89 [penwidth=2]
    274 -> 356 [penwidth=2]
    274 -> 67 [penwidth=2]
    274 -> 206 [penwidth=2]
    274 -> 355 [penwidth=2]
    274 -> 219 [penwidth=2]
    274 -> 132 [penwidth=2]
    274 -> 352 [penwidth=2]
    274 -> 83 [penwidth=2]
    274 -> 362 [penwidth=2]
    274 -> 168 [penwidth=2]
    274 -> 150 [penwidth=2]
    274 -> 223 [penwidth=2]
    274 -> 170 [penwidth=2]
    274 -> 106 [penwidth=2]
    274 -> 169 [penwidth=2]
    274 -> 207 [penwidth=2]
    274 -> 217 [penwidth=2]
    274 -> 19 [penwidth=2]
    274 -> 158 [penwidth=2]
    274 -> 173 [penwidth=2]
    274 -> 108 [penwidth=2]
    274 -> 202 [penwidth=2]
    274 -> 156 [penwidth=2]
    274 -> 65 [penwidth=2]
    274 -> 86 [penwidth=2]
    274 -> 26 [penwidth=2]
    274 -> 195 [penwidth=2]
    274 -> 81 [penwidth=2]
    274 -> 59 [penwidth=2]
    274 -> 175 [penwidth=2]
    274 -> 211 [penwidth=2]
    274 -> 128 [penwidth=2]
    274 -> 147 [penwidth=2]
    274 -> 110 [penwidth=2]
    274 -> 143 [penwidth=2]
    274 -> 161 [penwidth=2]
    274 -> 182 [penwidth=2]
    274 -> 224 [penwidth=2]
    274 -> 129 [penwidth=2]
    274 -> 125 [penwidth=2]
    274 -> 359 [penwidth=2]
    274 -> 80 [penwidth=2]
    274 -> 393 [penwidth=2]
    274 -> 120 [penwidth=2]
    274 -> 148 [penwidth=2]
    274 -> 181 [penwidth=2]
    274 -> 104 [penwidth=2]
    274 -> 23 [penwidth=2]
    274 -> 58 [penwidth=2]
    274 -> 136 [penwidth=2]
    274 -> 127 [penwidth=2]
    274 -> 116 [penwidth=2]
    274 -> 76 [penwidth=2]
    274 -> 221 [penwidth=2]
    275 -> 145 [penwidth=2]
    275 -> 113 [penwidth=2]
    275 -> 20 [penwidth=2]
    275 -> 154 [penwidth=2]
    275 -> 356 [penwidth=2]
    275 -> 157 [penwidth=2]
    275 -> 150 [penwidth=2]
    275 -> 83 [penwidth=2]
    275 -> 399 [penwidth=2]
    275 -> 94 [penwidth=2]
    275 -> 397 [penwidth=2]
    275 -> 168 [penwidth=2]
    275 -> 222 [penwidth=2]
    275 -> 96 [penwidth=2]
    275 -> 125 [penwidth=2]
    275 -> 147 [penwidth=2]
    275 -> 106 [penwidth=2]
    275 -> 58 [penwidth=2]
    275 -> 80 [penwidth=2]
    275 -> 103 [penwidth=2]
    275 -> 67 [penwidth=2]
    275 -> 180 [penwidth=2]
    275 -> 205 [penwidth=2]
    275 -> 362 [penwidth=2]
    275 -> 394 [penwidth=2]
    275 -> 114 [penwidth=2]
    275 -> 79 [penwidth=2]
    275 -> 66 [penwidth=2]
    275 -> 218 [penwidth=2]
    275 -> 65 [penwidth=2]
    275 -> 75 [penwidth=2]
    275 -> 74 [penwidth=2]
    275 -> 213 [penwidth=2]
    275 -> 166 [penwidth=2]
    275 -> 112 [penwidth=2]
    275 -> 127 [penwidth=2]
    275 -> 161 [penwidth=2]
    275 -> 359 [penwidth=2]
    275 -> 77 [penwidth=2]
    275 -> 211 [penwidth=2]
    275 -> 15 [penwidth=2]
    275 -> 116 [penwidth=2]
    275 -> 219 [penwidth=2]
    275 -> 119 [penwidth=2]
    275 -> 130 [penwidth=2]
    275 -> 194 [penwidth=2]
    275 -> 133 [penwidth=2]
    275 -> 104 [penwidth=2]
    275 -> 136 [penwidth=2]
    275 -> 105 [penwidth=2]
    275 -> 153 [penwidth=2]
    275 -> 223 [penwidth=2]
    275 -> 155 [penwidth=2]
    275 -> 60 [penwidth=2]
    275 -> 207 [penwidth=2]
    275 -> 398 [penwidth=2]
    275 -> 72 [penwidth=2]
    275 -> 182 [penwidth=2]
    275 -> 16 [penwidth=2]
    275 -> 181 [penwidth=2]
    275 -> 108 [penwidth=2]
    275 -> 217 [penwidth=2]
    275 -> 120 [penwidth=2]
    275 -> 174 [penwidth=2]
    275 -> 156 [penwidth=2]
    275 -> 162 [penwidth=2]
    275 -> 91 [penwidth=2]
    275 -> 172 [penwidth=2]
    275 -> 69 [penwidth=2]
    275 -> 142 [penwidth=2]
    275 -> 110 [penwidth=2]
    275 -> 134 [penwidth=2]
    275 -> 138 [penwidth=2]
    275 -> 353 [penwidth=2]
    275 -> 26 [penwidth=2]
    275 -> 97 [penwidth=2]
    275 -> 148 [penwidth=2]
    275 -> 199 [penwidth=2]
    275 -> 21 [penwidth=2]
    275 -> 100 [penwidth=2]
    275 -> 86 [penwidth=2]
    275 -> 357 [penwidth=2]
    275 -> 197 [penwidth=2]
    275 -> 118 [penwidth=2]
    275 -> 176 [penwidth=2]
    275 -> 393 [penwidth=2]
    275 -> 167 [penwidth=2]
    275 -> 107 [penwidth=2]
    275 -> 89 [penwidth=2]
    275 -> 224 [penwidth=2]
    275 -> 209 [penwidth=2]
    282 -> 68 [penwidth=2]
    282 -> 220 [penwidth=2]
    282 -> 359 [penwidth=2]
    282 -> 102 [penwidth=2]
    282 -> 21 [penwidth=2]
    282 -> 133 [penwidth=2]
    282 -> 398 [penwidth=2]
    282 -> 116 [penwidth=2]
    282 -> 208 [penwidth=2]
    282 -> 113 [penwidth=2]
    282 -> 362 [penwidth=2]
    282 -> 71 [penwidth=2]
    282 -> 204 [penwidth=2]
    282 -> 193 [penwidth=2]
    282 -> 22 [penwidth=2]
    282 -> 209 [penwidth=2]
    282 -> 173 [penwidth=2]
    282 -> 78 [penwidth=2]
    282 -> 105 [penwidth=2]
    282 -> 221 [penwidth=2]
    282 -> 176 [penwidth=2]
    282 -> 69 [penwidth=2]
    282 -> 126 [penwidth=2]
    282 -> 159 [penwidth=2]
    282 -> 175 [penwidth=2]
    282 -> 137 [penwidth=2]
    282 -> 153 [penwidth=2]
    282 -> 163 [penwidth=2]
    282 -> 114 [penwidth=2]
    282 -> 73 [penwidth=2]
    282 -> 207 [penwidth=2]
    282 -> 95 [penwidth=2]
    282 -> 124 [penwidth=2]
    282 -> 128 [penwidth=2]
    282 -> 351 [penwidth=2]
    282 -> 162 [penwidth=2]
    282 -> 158 [penwidth=2]
    282 -> 91 [penwidth=2]
    282 -> 215 [penwidth=2]
    282 -> 143 [penwidth=2]
    282 -> 222 [penwidth=2]
    282 -> 154 [penwidth=2]
    282 -> 121 [penwidth=2]
    282 -> 17 [penwidth=2]
    282 -> 129 [penwidth=2]
    282 -> 354 [penwidth=2]
    282 -> 84 [penwidth=2]
    282 -> 80 [penwidth=2]
    282 -> 140 [penwidth=2]
    282 -> 194 [penwidth=2]
    282 -> 394 [penwidth=2]
    282 -> 106 [penwidth=2]
    282 -> 99 [penwidth=2]
    282 -> 64 [penwidth=2]
    282 -> 98 [penwidth=2]
    282 -> 67 [penwidth=2]
    282 -> 155 [penwidth=2]
    282 -> 177 [penwidth=2]
    282 -> 125 [penwidth=2]
    282 -> 144 [penwidth=2]
    282 -> 107 [penwidth=2]
    282 -> 160 [penwidth=2]
    282 -> 123 [penwidth=2]
    282 -> 100 [penwidth=2]
    282 -> 122 [penwidth=2]
    282 -> 167 [penwidth=2]
    282 -> 83 [penwidth=2]
    282 -> 174 [penwidth=2]
    282 -> 60 [penwidth=2]
    282 -> 360 [penwidth=2]
    282 -> 130 [penwidth=2]
    282 -> 120 [penwidth=2]
    282 -> 200 [penwidth=2]
    282 -> 72 [penwidth=2]
    282 -> 138 [penwidth=2]
    282 -> 161 [penwidth=2]
    282 -> 361 [penwidth=2]
    282 -> 89 [penwidth=2]
    282 -> 101 [penwidth=2]
    282 -> 61 [penwidth=2]
    282 -> 216 [penwidth=2]
    282 -> 181 [penwidth=2]
    282 -> 75 [penwidth=2]
    282 -> 393 [penwidth=2]
    282 -> 145 [penwidth=2]
    282 -> 357 [penwidth=2]
    282 -> 81 [penwidth=2]
    282 -> 92 [penwidth=2]
    282 -> 178 [penwidth=2]
    282 -> 139 [penwidth=2]
    282 -> 87 [penwidth=2]
    282 -> 15 [penwidth=2]
    282 -> 223 [penwidth=2]
    282 -> 195 [penwidth=2]
    282 -> 395 [penwidth=2]
    282 -> 77 [penwidth=2]
    282 -> 210 [penwidth=2]
    282 -> 197 [penwidth=2]
    282 -> 355 [penwidth=2]
    282 -> 205 [penwidth=2]
    282 -> 131 [penwidth=2]
    282 -> 180 [penwidth=2]
    282 -> 63 [penwidth=2]
    282 -> 70 [penwidth=2]
    282 -> 170 [penwidth=2]
    282 -> 58 [penwidth=2]
    282 -> 112 [penwidth=2]
    282 -> 171 [penwidth=2]
    282 -> 90 [penwidth=2]
    282 -> 211 [penwidth=2]
    282 -> 152 [penwidth=2]
    282 -> 25 [penwidth=2]
    282 -> 19 [penwidth=2]
    282 -> 142 [penwidth=2]
    282 -> 79 [penwidth=2]
    282 -> 218 [penwidth=2]
    282 -> 103 [penwidth=2]
    282 -> 169 [penwidth=2]
    282 -> 74 [penwidth=2]
    282 -> 20 [penwidth=2]
    282 -> 94 [penwidth=2]
    282 -> 141 [penwidth=2]
    282 -> 396 [penwidth=2]
    282 -> 168 [penwidth=2]
    282 -> 18 [penwidth=2]
    282 -> 198 [penwidth=2]
    282 -> 192 [penwidth=2]
    282 -> 149 [penwidth=2]
    282 -> 136 [penwidth=2]
    282 -> 115 [penwidth=2]
    282 -> 135 [penwidth=2]
    282 -> 108 [penwidth=2]
    282 -> 219 [penwidth=2]
    282 -> 353 [penwidth=2]
    282 -> 199 [penwidth=2]
    282 -> 182 [penwidth=2]
    282 -> 26 [penwidth=2]
    282 -> 146 [penwidth=2]
    282 -> 206 [penwidth=2]
    282 -> 59 [penwidth=2]
    282 -> 148 [penwidth=2]
    282 -> 147 [penwidth=2]
    282 -> 104 [penwidth=2]
    282 -> 202 [penwidth=2]
    282 -> 164 [penwidth=2]
    282 -> 96 [penwidth=2]
    282 -> 127 [penwidth=2]
    282 -> 76 [penwidth=2]
    282 -> 157 [penwidth=2]
    297 -> 222 [penwidth=2]
    297 -> 220 [penwidth=2]
    297 -> 24 [penwidth=2]
    297 -> 144 [penwidth=2]
    297 -> 197 [penwidth=2]
    297 -> 169 [penwidth=2]
    297 -> 127 [penwidth=2]
    297 -> 75 [penwidth=2]
    297 -> 148 [penwidth=2]
    297 -> 359 [penwidth=2]
    297 -> 179 [penwidth=2]
    297 -> 156 [penwidth=2]
    297 -> 396 [penwidth=2]
    297 -> 61 [penwidth=2]
    297 -> 180 [penwidth=2]
    297 -> 80 [penwidth=2]
    297 -> 16 [penwidth=2]
    297 -> 26 [penwidth=2]
    297 -> 219 [penwidth=2]
    297 -> 140 [penwidth=2]
    297 -> 73 [penwidth=2]
    297 -> 17 [penwidth=2]
    297 -> 204 [penwidth=2]
    297 -> 209 [penwidth=2]
    297 -> 97 [penwidth=2]
    297 -> 163 [penwidth=2]
    297 -> 210 [penwidth=2]
    297 -> 224 [penwidth=2]
    297 -> 200 [penwidth=2]
    297 -> 201 [penwidth=2]
    297 -> 141 [penwidth=2]
    297 -> 66 [penwidth=2]
    297 -> 215 [penwidth=2]
    297 -> 351 [penwidth=2]
    297 -> 92 [penwidth=2]
    297 -> 86 [penwidth=2]
    297 -> 133 [penwidth=2]
    297 -> 15 [penwidth=2]
    297 -> 103 [penwidth=2]
    297 -> 216 [penwidth=2]
    297 -> 85 [penwidth=2]
    297 -> 134 [penwidth=2]
    297 -> 59 [penwidth=2]
    297 -> 58 [penwidth=2]
    297 -> 160 [penwidth=2]
    297 -> 196 [penwidth=2]
    297 -> 147 [penwidth=2]
    297 -> 143 [penwidth=2]
    297 -> 99 [penwidth=2]
    297 -> 205 [penwidth=2]
    297 -> 115 [penwidth=2]
    297 -> 217 [penwidth=2]
    297 -> 173 [penwidth=2]
    297 -> 218 [penwidth=2]
    297 -> 150 [penwidth=2]
    297 -> 213 [penwidth=2]
    297 -> 171 [penwidth=2]
    297 -> 117 [penwidth=2]
    297 -> 152 [penwidth=2]
    297 -> 157 [penwidth=2]
    297 -> 212 [penwidth=2]
    297 -> 65 [penwidth=2]
    297 -> 71 [penwidth=2]
    297 -> 78 [penwidth=2]
    297 -> 194 [penwidth=2]
    297 -> 181 [penwidth=2]
    297 -> 136 [penwidth=2]
    297 -> 76 [penwidth=2]
    297 -> 198 [penwidth=2]
    297 -> 362 [penwidth=2]
    297 -> 18 [penwidth=2]
    297 -> 120 [penwidth=2]
    297 -> 182 [penwidth=2]
    297 -> 177 [penwidth=2]
    297 -> 105 [penwidth=2]
    297 -> 398 [penwidth=2]
    297 -> 168 [penwidth=2]
    297 -> 87 [penwidth=2]
    297 -> 158 [penwidth=2]
    297 -> 208 [penwidth=2]
    297 -> 129 [penwidth=2]
    297 -> 145 [penwidth=2]
    297 -> 166 [penwidth=2]
    297 -> 123 [penwidth=2]
    297 -> 131 [penwidth=2]
    297 -> 25 [penwidth=2]
    297 -> 57 [penwidth=2]
    297 -> 165 [penwidth=2]
    297 -> 19 [penwidth=2]
    297 -> 360 [penwidth=2]
    297 -> 192 [penwidth=2]
    297 -> 142 [penwidth=2]
    297 -> 104 [penwidth=2]
    297 -> 98 [penwidth=2]
    297 -> 174 [penwidth=2]
    297 -> 161 [penwidth=2]
    297 -> 162 [penwidth=2]
    297 -> 119 [penwidth=2]
    297 -> 223 [penwidth=2]
    297 -> 101 [penwidth=2]
    297 -> 93 [penwidth=2]
    297 -> 70 [penwidth=2]
    297 -> 114 [penwidth=2]
    297 -> 135 [penwidth=2]
    297 -> 128 [penwidth=2]
    297 -> 96 [penwidth=2]
    297 -> 111 [penwidth=2]
    297 -> 176 [penwidth=2]
    297 -> 81 [penwidth=2]
    297 -> 356 [penwidth=2]
    297 -> 90 [penwidth=2]
    297 -> 193 [penwidth=2]
    297 -> 151 [penwidth=2]
    297 -> 60 [penwidth=2]
    303 -> 156 [penwidth=2]
    303 -> 199 [penwidth=2]
    303 -> 152 [penwidth=2]
    303 -> 165 [penwidth=2]
    303 -> 112 [penwidth=2]
    303 -> 192 [penwidth=2]
    303 -> 353 [penwidth=2]
    303 -> 177 [penwidth=2]
    303 -> 125 [penwidth=2]
    303 -> 15 [penwidth=2]
    303 -> 82 [penwidth=2]
    303 -> 130 [penwidth=2]
    303 -> 118 [penwidth=2]
    303 -> 164 [penwidth=2]
    303 -> 137 [penwidth=2]
    303 -> 396 [penwidth=2]
    303 -> 57 [penwidth=2]
    303 -> 180 [penwidth=2]
    303 -> 138 [penwidth=2]
    303 -> 154 [penwidth=2]
    303 -> 96 [penwidth=2]
    303 -> 175 [penwidth=2]
    303 -> 70 [penwidth=2]
    303 -> 129 [penwidth=2]
    303 -> 104 [penwidth=2]
    303 -> 86 [penwidth=2]
    303 -> 147 [penwidth=2]
    303 -> 85 [penwidth=2]
    303 -> 66 [penwidth=2]
    303 -> 124 [penwidth=2]
    303 -> 352 [penwidth=2]
    303 -> 84 [penwidth=2]
    303 -> 163 [penwidth=2]
    303 -> 393 [penwidth=2]
    303 -> 115 [penwidth=2]
    303 -> 80 [penwidth=2]
    303 -> 65 [penwidth=2]
    303 -> 81 [penwidth=2]
    303 -> 98 [penwidth=2]
    303 -> 63 [penwidth=2]
    303 -> 181 [penwidth=2]
    303 -> 93 [penwidth=2]
    303 -> 160 [penwidth=2]
    303 -> 110 [penwidth=2]
    303 -> 223 [penwidth=2]
    303 -> 76 [penwidth=2]
    303 -> 90 [penwidth=2]
    303 -> 167 [penwidth=2]
    303 -> 107 [penwidth=2]
    303 -> 170 [penwidth=2]
    303 -> 23 [penwidth=2]
    303 -> 158 [penwidth=2]
    303 -> 216 [penwidth=2]
    303 -> 162 [penwidth=2]
    303 -> 79 [penwidth=2]
    303 -> 24 [penwidth=2]
    303 -> 83 [penwidth=2]
    303 -> 361 [penwidth=2]
    303 -> 157 [penwidth=2]
    303 -> 136 [penwidth=2]
    303 -> 106 [penwidth=2]
    303 -> 121 [penwidth=2]
    303 -> 351 [penwidth=2]
    303 -> 60 [penwidth=2]
    303 -> 168 [penwidth=2]
    303 -> 212 [penwidth=2]
    303 -> 142 [penwidth=2]
    303 -> 221 [penwidth=2]
    303 -> 126 [penwidth=2]
    303 -> 182 [penwidth=2]
    303 -> 74 [penwidth=2]
    303 -> 222 [penwidth=2]
    303 -> 355 [penwidth=2]
    303 -> 218 [penwidth=2]
    303 -> 100 [penwidth=2]
    303 -> 201 [penwidth=2]
    303 -> 151 [penwidth=2]
    303 -> 220 [penwidth=2]
    303 -> 20 [penwidth=2]
    303 -> 354 [penwidth=2]
    303 -> 25 [penwidth=2]
    303 -> 148 [penwidth=2]
    303 -> 206 [penwidth=2]
    303 -> 357 [penwidth=2]
    303 -> 155 [penwidth=2]
    303 -> 171 [penwidth=2]
    303 -> 122 [penwidth=2]
    303 -> 139 [penwidth=2]
    303 -> 193 [penwidth=2]
    303 -> 132 [penwidth=2]
    303 -> 166 [penwidth=2]
    303 -> 398 [penwidth=2]
    303 -> 208 [penwidth=2]
    303 -> 141 [penwidth=2]
    225 -> 23 [penwidth=2]
    225 -> 196 [penwidth=2]
    225 -> 107 [penwidth=2]
    225 -> 173 [penwidth=2]
    225 -> 148 [penwidth=2]
    225 -> 82 [penwidth=2]
    225 -> 171 [penwidth=2]
    225 -> 195 [penwidth=2]
    225 -> 113 [penwidth=2]
    225 -> 87 [penwidth=2]
    225 -> 155 [penwidth=2]
    225 -> 353 [penwidth=2]
    225 -> 164 [penwidth=2]
    225 -> 141 [penwidth=2]
    225 -> 118 [penwidth=2]
    225 -> 102 [penwidth=2]
    225 -> 221 [penwidth=2]
    225 -> 200 [penwidth=2]
    225 -> 66 [penwidth=2]
    225 -> 166 [penwidth=2]
    225 -> 199 [penwidth=2]
    225 -> 94 [penwidth=2]
    225 -> 99 [penwidth=2]
    225 -> 211 [penwidth=2]
    225 -> 120 [penwidth=2]
    225 -> 197 [penwidth=2]
    225 -> 355 [penwidth=2]
    225 -> 179 [penwidth=2]
    227 -> 218 [penwidth=2]
    227 -> 197 [penwidth=2]
    227 -> 145 [penwidth=2]
    227 -> 351 [penwidth=2]
    227 -> 22 [penwidth=2]
    227 -> 126 [penwidth=2]
    227 -> 106 [penwidth=2]
    227 -> 100 [penwidth=2]
    227 -> 129 [penwidth=2]
    227 -> 171 [penwidth=2]
    227 -> 68 [penwidth=2]
    227 -> 138 [penwidth=2]
    227 -> 356 [penwidth=2]
    227 -> 127 [penwidth=2]
    227 -> 167 [penwidth=2]
    227 -> 87 [penwidth=2]
    227 -> 116 [penwidth=2]
    227 -> 104 [penwidth=2]
    227 -> 144 [penwidth=2]
    227 -> 181 [penwidth=2]
    227 -> 107 [penwidth=2]
    227 -> 395 [penwidth=2]
    227 -> 70 [penwidth=2]
    227 -> 164 [penwidth=2]
    227 -> 141 [penwidth=2]
    227 -> 163 [penwidth=2]
    227 -> 176 [penwidth=2]
    227 -> 128 [penwidth=2]
    227 -> 57 [penwidth=2]
    227 -> 24 [penwidth=2]
    227 -> 130 [penwidth=2]
    227 -> 215 [penwidth=2]
    227 -> 200 [penwidth=2]
    227 -> 108 [penwidth=2]
    227 -> 112 [penwidth=2]
    227 -> 85 [penwidth=2]
    227 -> 149 [penwidth=2]
    227 -> 146 [penwidth=2]
    227 -> 220 [penwidth=2]
    227 -> 16 [penwidth=2]
    227 -> 89 [penwidth=2]
    227 -> 173 [penwidth=2]
    227 -> 17 [penwidth=2]
    227 -> 98 [penwidth=2]
    227 -> 147 [penwidth=2]
    227 -> 199 [penwidth=2]
    227 -> 125 [penwidth=2]
    227 -> 81 [penwidth=2]
    227 -> 20 [penwidth=2]
    227 -> 115 [penwidth=2]
    227 -> 25 [penwidth=2]
    237 -> 356 [penwidth=2]
    237 -> 16 [penwidth=2]
    237 -> 200 [penwidth=2]
    237 -> 106 [penwidth=2]
    237 -> 103 [penwidth=2]
    237 -> 161 [penwidth=2]
    237 -> 104 [penwidth=2]
    245 -> 108 [penwidth=2]
    245 -> 123 [penwidth=2]
    245 -> 160 [penwidth=2]
    245 -> 75 [penwidth=2]
    245 -> 214 [penwidth=2]
    245 -> 194 [penwidth=2]
    245 -> 19 [penwidth=2]
    245 -> 57 [penwidth=2]
    245 -> 62 [penwidth=2]
    245 -> 121 [penwidth=2]
    245 -> 153 [penwidth=2]
    245 -> 127 [penwidth=2]
    245 -> 79 [penwidth=2]
    245 -> 181 [penwidth=2]
    245 -> 222 [penwidth=2]
    245 -> 141 [penwidth=2]
    245 -> 64 [penwidth=2]
    245 -> 132 [penwidth=2]
    245 -> 136 [penwidth=2]
    245 -> 167 [penwidth=2]
    245 -> 70 [penwidth=2]
    245 -> 84 [penwidth=2]
    245 -> 93 [penwidth=2]
    245 -> 82 [penwidth=2]
    245 -> 357 [penwidth=2]
    245 -> 102 [penwidth=2]
    245 -> 362 [penwidth=2]
    245 -> 67 [penwidth=2]
    245 -> 113 [penwidth=2]
    245 -> 20 [penwidth=2]
    245 -> 171 [penwidth=2]
    245 -> 168 [penwidth=2]
    245 -> 135 [penwidth=2]
    245 -> 209 [penwidth=2]
    245 -> 202 [penwidth=2]
    245 -> 356 [penwidth=2]
    245 -> 218 [penwidth=2]
    245 -> 17 [penwidth=2]
    245 -> 204 [penwidth=2]
    245 -> 139 [penwidth=2]
    245 -> 203 [penwidth=2]
    245 -> 18 [penwidth=2]
    245 -> 80 [penwidth=2]
    245 -> 117 [penwidth=2]
    245 -> 130 [penwidth=2]
    245 -> 163 [penwidth=2]
    245 -> 166 [penwidth=2]
    245 -> 90 [penwidth=2]
    245 -> 178 [penwidth=2]
    245 -> 393 [penwidth=2]
    245 -> 126 [penwidth=2]
    245 -> 216 [penwidth=2]
    245 -> 164 [penwidth=2]
    245 -> 77 [penwidth=2]
    245 -> 145 [penwidth=2]
    245 -> 96 [penwidth=2]
    245 -> 206 [penwidth=2]
    245 -> 106 [penwidth=2]
    245 -> 129 [penwidth=2]
    245 -> 71 [penwidth=2]
    245 -> 95 [penwidth=2]
    245 -> 195 [penwidth=2]
    245 -> 198 [penwidth=2]
    245 -> 142 [penwidth=2]
    245 -> 91 [penwidth=2]
    245 -> 116 [penwidth=2]
    245 -> 172 [penwidth=2]
    245 -> 118 [penwidth=2]
    245 -> 97 [penwidth=2]
    245 -> 114 [penwidth=2]
    245 -> 219 [penwidth=2]
    245 -> 66 [penwidth=2]
    245 -> 351 [penwidth=2]
    245 -> 89 [penwidth=2]
    245 -> 192 [penwidth=2]
    245 -> 105 [penwidth=2]
    245 -> 158 [penwidth=2]
    245 -> 58 [penwidth=2]
    245 -> 224 [penwidth=2]
    245 -> 119 [penwidth=2]
    245 -> 360 [penwidth=2]
    245 -> 110 [penwidth=2]
    245 -> 131 [penwidth=2]
    245 -> 212 [penwidth=2]
    245 -> 398 [penwidth=2]
    245 -> 16 [penwidth=2]
    245 -> 143 [penwidth=2]
    245 -> 104 [penwidth=2]
    245 -> 124 [penwidth=2]
    245 -> 101 [penwidth=2]
    245 -> 154 [penwidth=2]
    245 -> 94 [penwidth=2]
    245 -> 109 [penwidth=2]
    245 -> 170 [penwidth=2]
    245 -> 177 [penwidth=2]
    245 -> 21 [penwidth=2]
    245 -> 175 [penwidth=2]
    245 -> 353 [penwidth=2]
    245 -> 74 [penwidth=2]
    245 -> 173 [penwidth=2]
    245 -> 182 [penwidth=2]
    245 -> 180 [penwidth=2]
    245 -> 399 [penwidth=2]
    245 -> 86 [penwidth=2]
    245 -> 61 [penwidth=2]
    245 -> 165 [penwidth=2]
    245 -> 223 [penwidth=2]
    245 -> 88 [penwidth=2]
    245 -> 394 [penwidth=2]
    245 -> 144 [penwidth=2]
    245 -> 68 [penwidth=2]
    245 -> 138 [penwidth=2]
    245 -> 115 [penwidth=2]
    247 -> 114 [penwidth=2]
    247 -> 155 [penwidth=2]
    247 -> 68 [penwidth=2]
    247 -> 73 [penwidth=2]
    247 -> 351 [penwidth=2]
    247 -> 83 [penwidth=2]
    247 -> 355 [penwidth=2]
    247 -> 18 [penwidth=2]
    247 -> 139 [penwidth=2]
    247 -> 206 [penwidth=2]
    247 -> 220 [penwidth=2]
    247 -> 93 [penwidth=2]
    247 -> 23 [penwidth=2]
    247 -> 168 [penwidth=2]
    247 -> 62 [penwidth=2]
    247 -> 163 [penwidth=2]
    247 -> 102 [penwidth=2]
    247 -> 197 [penwidth=2]
    247 -> 224 [penwidth=2]
    247 -> 140 [penwidth=2]
    247 -> 148 [penwidth=2]
    247 -> 180 [penwidth=2]
    247 -> 86 [penwidth=2]
    247 -> 194 [penwidth=2]
    247 -> 110 [penwidth=2]
    247 -> 76 [penwidth=2]
    247 -> 128 [penwidth=2]
    247 -> 88 [penwidth=2]
    247 -> 106 [penwidth=2]
    247 -> 166 [penwidth=2]
    247 -> 147 [penwidth=2]
    247 -> 69 [penwidth=2]
    247 -> 174 [penwidth=2]
    247 -> 123 [penwidth=2]
    247 -> 121 [penwidth=2]
    247 -> 137 [penwidth=2]
    247 -> 154 [penwidth=2]
    247 -> 164 [penwidth=2]
    247 -> 129 [penwidth=2]
    247 -> 172 [penwidth=2]
    247 -> 82 [penwidth=2]
    247 -> 173 [penwidth=2]
    247 -> 195 [penwidth=2]
    247 -> 198 [penwidth=2]
    247 -> 200 [penwidth=2]
    247 -> 144 [penwidth=2]
    247 -> 161 [penwidth=2]
    247 -> 142 [penwidth=2]
    247 -> 116 [penwidth=2]
    247 -> 356 [penwidth=2]
    247 -> 101 [penwidth=2]
    247 -> 61 [penwidth=2]
    247 -> 176 [penwidth=2]
    247 -> 134 [penwidth=2]
    247 -> 126 [penwidth=2]
    247 -> 57 [penwidth=2]
    247 -> 109 [penwidth=2]
    247 -> 80 [penwidth=2]
    247 -> 63 [penwidth=2]
    247 -> 211 [penwidth=2]
    247 -> 354 [penwidth=2]
    247 -> 170 [penwidth=2]
    247 -> 360 [penwidth=2]
    247 -> 393 [penwidth=2]
    247 -> 59 [penwidth=2]
    247 -> 84 [penwidth=2]
    247 -> 117 [penwidth=2]
    247 -> 113 [penwidth=2]
    247 -> 115 [penwidth=2]
    247 -> 199 [penwidth=2]
    247 -> 60 [penwidth=2]
    247 -> 395 [penwidth=2]
    247 -> 119 [penwidth=2]
    247 -> 15 [penwidth=2]
    247 -> 19 [penwidth=2]
    247 -> 17 [penwidth=2]
    247 -> 171 [penwidth=2]
    247 -> 192 [penwidth=2]
    247 -> 103 [penwidth=2]
    247 -> 196 [penwidth=2]
    247 -> 145 [penwidth=2]
    247 -> 85 [penwidth=2]
    247 -> 394 [penwidth=2]
    247 -> 78 [penwidth=2]
    247 -> 58 [penwidth=2]
    247 -> 138 [penwidth=2]
    247 -> 179 [penwidth=2]
    247 -> 94 [penwidth=2]
    247 -> 72 [penwidth=2]
    247 -> 133 [penwidth=2]
    257 -> 202 [penwidth=2]
    257 -> 79 [penwidth=2]
    257 -> 141 [penwidth=2]
    257 -> 159 [penwidth=2]
    257 -> 148 [penwidth=2]
    257 -> 131 [penwidth=2]
    257 -> 164 [penwidth=2]
    257 -> 398 [penwidth=2]
    257 -> 357 [penwidth=2]
    257 -> 82 [penwidth=2]
    257 -> 353 [penwidth=2]
    257 -> 143 [penwidth=2]
    257 -> 89 [penwidth=2]
    257 -> 126 [penwidth=2]
    257 -> 352 [penwidth=2]
    257 -> 214 [penwidth=2]
    257 -> 394 [penwidth=2]
    257 -> 395 [penwidth=2]
    257 -> 172 [penwidth=2]
    257 -> 69 [penwidth=2]
    257 -> 73 [penwidth=2]
    257 -> 104 [penwidth=2]
    257 -> 99 [penwidth=2]
    257 -> 354 [penwidth=2]
    257 -> 15 [penwidth=2]
    257 -> 106 [penwidth=2]
    257 -> 361 [penwidth=2]
    257 -> 65 [penwidth=2]
    257 -> 96 [penwidth=2]
    257 -> 217 [penwidth=2]
    257 -> 397 [penwidth=2]
    257 -> 205 [penwidth=2]
    257 -> 101 [penwidth=2]
    257 -> 115 [penwidth=2]
    257 -> 179 [penwidth=2]
    257 -> 75 [penwidth=2]
    257 -> 153 [penwidth=2]
    257 -> 63 [penwidth=2]
    257 -> 71 [penwidth=2]
    257 -> 204 [penwidth=2]
    257 -> 92 [penwidth=2]
    257 -> 207 [penwidth=2]
    257 -> 98 [penwidth=2]
    257 -> 127 [penwidth=2]
    257 -> 180 [penwidth=2]
    257 -> 26 [penwidth=2]
    257 -> 100 [penwidth=2]
    257 -> 83 [penwidth=2]
    257 -> 64 [penwidth=2]
    257 -> 224 [penwidth=2]
    257 -> 170 [penwidth=2]
    257 -> 139 [penwidth=2]
    257 -> 223 [penwidth=2]
    257 -> 80 [penwidth=2]
    257 -> 119 [penwidth=2]
    257 -> 102 [penwidth=2]
    257 -> 221 [penwidth=2]
    257 -> 95 [penwidth=2]
    257 -> 201 [penwidth=2]
    257 -> 116 [penwidth=2]
    257 -> 136 [penwidth=2]
    257 -> 25 [penwidth=2]
    257 -> 209 [penwidth=2]
    257 -> 158 [penwidth=2]
    257 -> 103 [penwidth=2]
    257 -> 156 [penwidth=2]
    257 -> 87 [penwidth=2]
    257 -> 177 [penwidth=2]
    257 -> 166 [penwidth=2]
    257 -> 88 [penwidth=2]
    257 -> 351 [penwidth=2]
    257 -> 132 [penwidth=2]
    257 -> 18 [penwidth=2]
    257 -> 124 [penwidth=2]
    257 -> 174 [penwidth=2]
    257 -> 169 [penwidth=2]
    257 -> 21 [penwidth=2]
}