digraph G {
    0 [penwidth=3,label="0"]
    1 [penwidth=3,label="1"]
    2 [penwidth=3,label="2"]
    3 [penwidth=3,label="3"]
    4 [penwidth=3,label="4"]
    5 [penwidth=3,label="5"]
    6 [penwidth=3,label="6"]
    7 [penwidth=3,label="7"]
    8 [penwidth=3,label="8"]
    9 [penwidth=3,label="9"]
    10 [penwidth=3,label="10"]
    11 [penwidth=3,label="11"]
    12 [penwidth=3,label="12"]
    13 [penwidth=3,label="13"]
    14 [penwidth=3,label="14"]
    15 [penwidth=3,label="15"]
    16 [penwidth=3,label="16"]
    17 [penwidth=3,label="17"]
    18 [penwidth=3,label="18"]
    19 [penwidth=3,label="19"]
    20 [penwidth=3,label="20"]
    21 [penwidth=3,label="21"]
    22 [penwidth=3,label="22"]
    23 [penwidth=3,label="23"]
    24 [penwidth=3,label="24"]
    25 [penwidth=3,label="25"]
    26 [penwidth=3,label="26"]
    27 [penwidth=3,label="27"]
    28 [penwidth=3,label="28"]
    29 [penwidth=3,label="29"]
    30 [penwidth=3,label="30"]
    31 [penwidth=3,label="31"]
    32 [penwidth=3,label="32"]
    33 [penwidth=3,label="33"]
    34 [penwidth=3,label="34"]
    35 [penwidth=3,label="35"]
    36 [penwidth=3,label="36"]
    37 [penwidth=3,label="37"]
    38 [penwidth=3,label="38"]
    39 [penwidth=3,label="39"]
    40 [penwidth=3,label="40"]
    41 [penwidth=3,label="41"]
    42 [penwidth=3,label="42"]
    43 [penwidth=3,label="43"]
    44 [penwidth=3,label="44"]
    45 [penwidth=3,label="45"]
    46 [penwidth=3,label="46"]
    47 [penwidth=3,label="47"]
    48 [penwidth=3,label="48"]
    49 [penwidth=3,label="49"]
    50 [penwidth=3,label="50"]
    51 [penwidth=3,label="51"]
    52 [penwidth=3,label="52"]
    53 [penwidth=3,label="53"]
    54 [penwidth=3,label="54"]
    55 [penwidth=3,label="55"]
    56 [penwidth=3,label="56"]
    57 [penwidth=3,label="57"]
    58 [penwidth=3,label="58"]
    59 [penwidth=3,label="59"]
    60 [penwidth=3,label="60"]
    61 [penwidth=3,label="61"]
    62 [penwidth=3,label="62"]
    63 [penwidth=3,label="63"]
    64 [penwidth=3,label="64"]
    65 [penwidth=3,label="65"]
    66 [penwidth=3,label="66"]
    67 [penwidth=3,label="67"]
    68 [penwidth=3,label="68"]
    69 [penwidth=3,label="69"]
    70 [penwidth=3,label="70"]
    71 [penwidth=3,label="71"]
    72 [penwidth=3,label="72"]
    73 [penwidth=3,label="73"]
    74 [penwidth=3,label="74"]
    75 [penwidth=3,label="75"]
    76 [penwidth=3,label="76"]
    77 [penwidth=3,label="77"]
    78 [penwidth=3,label="78"]
    79 [penwidth=3,label="79"]
    80 [penwidth=3,label="80"]
    81 [penwidth=3,label="81"]
    82 [penwidth=3,label="82"]
    83 [penwidth=3,label="83"]
    84 [penwidth=3,label="84"]
    85 [penwidth=3,label="85"]
    86 [penwidth=3,label="86"]
    87 [penwidth=3,label="87"]
    88 [penwidth=3,label="88"]
    89 [penwidth=3,label="89"]
    90 [penwidth=3,label="90"]
    91 [penwidth=3,label="91"]
    92 [penwidth=3,label="92"]
    93 [penwidth=3,label="93"]
    94 [penwidth=3,label="94"]
    95 [penwidth=3,label="95"]
    96 [penwidth=3,label="96"]
    97 [penwidth=3,label="97"]
    98 [penwidth=3,label="98"]
    99 [penwidth=3,label="99"]
    100 [penwidth=3,label="100"]
    101 [penwidth=3,label="101"]
    102 [penwidth=3,label="102"]
    103 [penwidth=3,label="103"]
    104 [penwidth=3,label="104"]
    105 [penwidth=3,label="105"]
    106 [penwidth=3,label="106"]
    107 [penwidth=3,label="107"]
    108 [penwidth=3,label="108"]
    109 [penwidth=3,label="109"]
    110 [penwidth=3,label="110"]
    111 [penwidth=3,label="111"]
    112 [penwidth=3,label="112"]
    113 [penwidth=3,label="113"]
    114 [penwidth=3,label="114"]
    115 [penwidth=3,label="115"]
    116 [penwidth=3,label="116"]
    117 [penwidth=3,label="117"]
    118 [penwidth=3,label="118"]
    119 [penwidth=3,label="119"]
    120 [penwidth=3,label="120"]
    121 [penwidth=3,label="121"]
    122 [penwidth=3,label="122"]
    123 [penwidth=3,label="123"]
    124 [penwidth=3,label="124"]
    125 [penwidth=3,label="125"]
    126 [penwidth=3,label="126"]
    127 [penwidth=3,label="127"]
    128 [penwidth=3,label="128"]
    129 [penwidth=3,label="129"]
    130 [penwidth=3,label="130"]
    131 [penwidth=3,label="131"]
    132 [penwidth=3,label="132"]
    133 [penwidth=3,label="133"]
    134 [penwidth=3,label="134"]
    135 [penwidth=3,label="135"]
    136 [penwidth=3,label="136"]
    137 [penwidth=3,label="137"]
    138 [penwidth=3,label="138"]
    139 [penwidth=3,label="139"]
    140 [penwidth=3,label="140"]
    141 [penwidth=3,label="141"]
    142 [penwidth=3,label="142"]
    143 [penwidth=3,label="143"]
    144 [penwidth=3,label="144"]
    145 [penwidth=3,label="145"]
    146 [penwidth=3,label="146"]
    147 [penwidth=3,label="147"]
    148 [penwidth=3,label="148"]
    149 [penwidth=3,label="149"]
    150 [penwidth=3,label="150"]
    151 [penwidth=3,label="151"]
    152 [penwidth=3,label="152"]
    153 [penwidth=3,label="153"]
    154 [penwidth=3,label="154"]
    155 [penwidth=3,label="155"]
    156 [penwidth=3,label="156"]
    157 [penwidth=3,label="157"]
    158 [penwidth=3,label="158"]
    159 [penwidth=3,label="159"]
    160 [penwidth=3,label="160"]
    161 [penwidth=3,label="161"]
    162 [penwidth=3,label="162"]
    163 [penwidth=3,label="163"]
    164 [penwidth=3,label="164"]
    165 [penwidth=3,label="165"]
    166 [penwidth=3,label="166"]
    167 [penwidth=3,label="167"]
    168 [penwidth=3,label="168"]
    169 [penwidth=3,label="169"]
    170 [penwidth=3,label="170"]
    171 [penwidth=3,label="171"]
    172 [penwidth=3,label="172"]
    173 [penwidth=3,label="173"]
    174 [penwidth=3,label="174"]
    175 [penwidth=3,label="175"]
    176 [penwidth=3,label="176"]
    177 [penwidth=3,label="177"]
    178 [penwidth=3,label="178"]
    179 [penwidth=3,label="179"]
    180 [penwidth=3,label="180"]
    181 [penwidth=3,label="181"]
    182 [penwidth=3,label="182"]
    183 [penwidth=3,label="183"]
    184 [penwidth=3,label="184"]
    185 [penwidth=3,label="185"]
    186 [penwidth=3,label="186"]
    187 [penwidth=3,label="187"]
    188 [penwidth=3,label="188"]
    189 [penwidth=3,label="189"]
    190 [penwidth=3,label="190"]
    191 [penwidth=3,label="191"]
    192 [penwidth=3,label="192"]
    193 [penwidth=3,label="193"]
    194 [penwidth=3,label="194"]
    195 [penwidth=3,label="195"]
    196 [penwidth=3,label="196"]
    197 [penwidth=3,label="197"]
    198 [penwidth=3,label="198"]
    199 [penwidth=3,label="199"]
    200 [penwidth=3,label="200"]
    201 [penwidth=3,label="201"]
    202 [penwidth=3,label="202"]
    203 [penwidth=3,label="203"]
    204 [penwidth=3,label="204"]
    205 [penwidth=3,label="205"]
    206 [penwidth=3,label="206"]
    207 [penwidth=3,label="207"]
    208 [penwidth=3,label="208"]
    209 [penwidth=3,label="209"]
    210 [penwidth=3,label="210"]
    211 [penwidth=3,label="211"]
    212 [penwidth=3,label="212"]
    213 [penwidth=3,label="213"]
    214 [penwidth=3,label="214"]
    215 [penwidth=3,label="215"]
    216 [penwidth=3,label="216"]
    217 [penwidth=3,label="217"]
    218 [penwidth=3,label="218"]
    219 [penwidth=3,label="219"]
    220 [penwidth=3,label="220"]
    221 [penwidth=3,label="221"]
    222 [penwidth=3,label="222"]
    223 [penwidth=3,label="223"]
    224 [penwidth=3,label="224"]
    225 [penwidth=3,label="225"]
    226 [penwidth=3,label="226"]
    227 [penwidth=3,label="227"]
    228 [penwidth=3,label="228"]
    229 [penwidth=3,label="229"]
    230 [penwidth=3,label="230"]
    231 [penwidth=3,label="231"]
    232 [penwidth=3,label="232"]
    233 [penwidth=3,label="233"]
    234 [penwidth=3,label="234"]
    235 [penwidth=3,label="235"]
    236 [penwidth=3,label="236"]
    237 [penwidth=3,label="237"]
    238 [penwidth=3,label="238"]
    239 [penwidth=3,label="239"]
    240 [penwidth=3,label="240"]
    241 [penwidth=3,label="241"]
    242 [penwidth=3,label="242"]
    243 [penwidth=3,label="243"]
    244 [penwidth=3,label="244"]
    245 [penwidth=3,label="245"]
    246 [penwidth=3,label="246"]
    247 [penwidth=3,label="247"]
    248 [penwidth=3,label="248"]
    249 [penwidth=3,label="249"]
    250 [penwidth=3,label="250"]
    251 [penwidth=3,label="251"]
    252 [penwidth=3,label="252"]
    253 [penwidth=3,label="253"]
    254 [penwidth=3,label="254"]
    255 [penwidth=3,label="255"]
    256 [penwidth=3,label="256"]
    257 [penwidth=3,label="257"]
    258 [penwidth=3,label="258"]
    259 [penwidth=3,label="259"]
    260 [penwidth=3,label="260"]
    261 [penwidth=3,label="261"]
    262 [penwidth=3,label="262"]
    263 [penwidth=3,label="263"]
    264 [penwidth=3,label="264"]
    265 [penwidth=3,label="265"]
    266 [penwidth=3,label="266"]
    267 [penwidth=3,label="267"]
    268 [penwidth=3,label="268"]
    269 [penwidth=3,label="269"]
    270 [penwidth=3,label="270"]
    271 [penwidth=3,label="271"]
    272 [penwidth=3,label="272"]
    273 [penwidth=3,label="273"]
    274 [penwidth=3,label="274"]
    275 [penwidth=3,label="275"]
    276 [penwidth=3,label="276"]
    277 [penwidth=3,label="277"]
    278 [penwidth=3,label="278"]
    279 [penwidth=3,label="279"]
    280 [penwidth=3,label="280"]
    281 [penwidth=3,label="281"]
    282 [penwidth=3,label="282"]
    283 [penwidth=3,label="283"]
    284 [penwidth=3,label="284"]
    285 [penwidth=3,label="285"]
    286 [penwidth=3,label="286"]
    287 [penwidth=3,label="287"]
    288 [penwidth=3,label="288"]
    289 [penwidth=3,label="289"]
    290 [penwidth=3,label="290"]
    291 [penwidth=3,label="291"]
    292 [penwidth=3,label="292"]
    293 [penwidth=3,label="293"]
    294 [penwidth=3,label="294"]
    295 [penwidth=3,label="295"]
    296 [penwidth=3,label="296"]
    297 [penwidth=3,label="297"]
    298 [penwidth=3,label="298"]
    299 [penwidth=3,label="299"]
    300 [penwidth=3,label="300"]
    301 [penwidth=3,label="301"]
    302 [penwidth=3,label="302"]
    303 [penwidth=3,label="303"]
    304 [penwidth=3,label="304"]
    305 [penwidth=3,label="305"]
    306 [penwidth=3,label="306"]
    307 [penwidth=3,label="307"]
    308 [penwidth=3,label="308"]
    309 [penwidth=3,label="309"]
    310 [penwidth=3,label="310"]
    311 [penwidth=3,label="311"]
    312 [penwidth=3,label="312"]
    313 [penwidth=3,label="313"]
    314 [penwidth=3,label="314"]
    315 [penwidth=3,label="315"]
    316 [penwidth=3,label="316"]
    317 [penwidth=3,label="317"]
    318 [penwidth=3,label="318"]
    319 [penwidth=3,label="319"]
    320 [penwidth=3,label="320"]
    321 [penwidth=3,label="321"]
    322 [penwidth=3,label="322"]
    323 [penwidth=3,label="323"]
    324 [penwidth=3,label="324"]
    325 [penwidth=3,label="325"]
    326 [penwidth=3,label="326"]
    327 [penwidth=3,label="327"]
    328 [penwidth=3,label="328"]
    329 [penwidth=3,label="329"]
    330 [penwidth=3,label="330"]
    331 [penwidth=3,label="331"]
    332 [penwidth=3,label="332"]
    333 [penwidth=3,label="333"]
    334 [penwidth=3,label="334"]
    335 [penwidth=3,label="335"]
    336 [penwidth=3,label="336"]
    337 [penwidth=3,label="337"]
    338 [penwidth=3,label="338"]
    339 [penwidth=3,label="339"]
    340 [penwidth=3,label="340"]
    341 [penwidth=3,label="341"]
    342 [penwidth=3,label="342"]
    343 [penwidth=3,label="343"]
    344 [penwidth=3,label="344"]
    345 [penwidth=3,label="345"]
    346 [penwidth=3,label="346"]
    347 [penwidth=3,label="347"]
    348 [penwidth=3,label="348"]
    349 [penwidth=3,label="349"]
    350 [penwidth=3,label="350"]
    351 [penwidth=3,label="351"]
    352 [penwidth=3,label="352"]
    353 [penwidth=3,label="353"]
    354 [penwidth=3,label="354"]
    355 [penwidth=3,label="355"]
    356 [penwidth=3,label="356"]
    357 [penwidth=3,label="357"]
    358 [penwidth=3,label="358"]
    359 [penwidth=3,label="359"]
    360 [penwidth=3,label="360"]
    361 [penwidth=3,label="361"]
    362 [penwidth=3,label="362"]
    363 [penwidth=3,label="363"]
    364 [penwidth=3,label="364"]
    365 [penwidth=3,label="365"]
    366 [penwidth=3,label="366"]
    367 [penwidth=3,label="367"]
    368 [penwidth=3,label="368"]
    369 [penwidth=3,label="369"]
    370 [penwidth=3,label="370"]
    371 [penwidth=3,label="371"]
    372 [penwidth=3,label="372"]
    373 [penwidth=3,label="373"]
    374 [penwidth=3,label="374"]
    375 [penwidth=3,label="375"]
    376 [penwidth=3,label="376"]
    377 [penwidth=3,label="377"]
    378 [penwidth=3,label="378"]
    379 [penwidth=3,label="379"]
    380 [penwidth=3,label="380"]
    381 [penwidth=3,label="381"]
    382 [penwidth=3,label="382"]
    383 [penwidth=3,label="383"]
    384 [penwidth=3,label="384"]
    385 [penwidth=3,label="385"]
    386 [penwidth=3,label="386"]
    387 [penwidth=3,label="387"]
    388 [penwidth=3,label="388"]
    389 [penwidth=3,label="389"]
    390 [penwidth=3,label="390"]
    391 [penwidth=3,label="391"]
    392 [penwidth=3,label="392"]
    393 [penwidth=3,label="393"]
    394 [penwidth=3,label="394"]
    395 [penwidth=3,label="395"]
    396 [penwidth=3,label="396"]
    397 [penwidth=3,label="397"]
    398 [penwidth=3,label="398"]
    399 [penwidth=3,label="399"]

    268 -> 0 [penwidth=2]
    310 -> 0 [penwidth=2]
    269 -> 268 [penwidth=2]
    311 -> 268 [penwidth=2]
    270 -> 268 [penwidth=2]
    312 -> 268 [penwidth=2]
    271 -> 268 [penwidth=2]
    313 -> 268 [penwidth=2]
    272 -> 268 [penwidth=2]
    314 -> 268 [penwidth=2]
    273 -> 268 [penwidth=2]
    315 -> 310 [penwidth=2]
    274 -> 310 [penwidth=2]
    316 -> 310 [penwidth=2]
    275 -> 310 [penwidth=2]
    317 -> 310 [penwidth=2]
    276 -> 310 [penwidth=2]
    318 -> 310 [penwidth=2]
    277 -> 310 [penwidth=2]
    319 -> 310 [penwidth=2]
    278 -> 310 [penwidth=2]
    320 -> 310 [penwidth=2]
    279 -> 310 [penwidth=2]
    321 -> 310 [penwidth=2]
    280 -> 310 [penwidth=2]
    322 -> 310 [penwidth=2]
    281 -> 310 [penwidth=2]
    323 -> 310 [penwidth=2]
    282 -> 310 [penwidth=2]
    324 -> 310 [penwidth=2]
    283 -> 310 [penwidth=2]
    325 -> 269 [penwidth=2]
    393 -> 269 [penwidth=2]
    284 -> 269 [penwidth=2]
    326 -> 269 [penwidth=2]
    285 -> 269 [penwidth=2]
    327 -> 311 [penwidth=2]
    286 -> 311 [penwidth=2]
    328 -> 311 [penwidth=2]
    287 -> 311 [penwidth=2]
    329 -> 311 [penwidth=2]
    288 -> 311 [penwidth=2]
    330 -> 311 [penwidth=2]
    289 -> 311 [penwidth=2]
    331 -> 311 [penwidth=2]
    290 -> 311 [penwidth=2]
    332 -> 311 [penwidth=2]
    291 -> 311 [penwidth=2]
    333 -> 311 [penwidth=2]
    292 -> 311 [penwidth=2]
    334 -> 311 [penwidth=2]
    293 -> 311 [penwidth=2]
    335 -> 311 [penwidth=2]
    294 -> 311 [penwidth=2]
    336 -> 311 [penwidth=2]
    295 -> 311 [penwidth=2]
    337 -> 311 [penwidth=2]
    296 -> 311 [penwidth=2]
    338 -> 311 [penwidth=2]
    297 -> 311 [penwidth=2]
    339 -> 311 [penwidth=2]
    298 -> 311 [penwidth=2]
    340 -> 311 [penwidth=2]
    299 -> 270 [penwidth=2]
    341 -> 270 [penwidth=2]
    300 -> 270 [penwidth=2]
    342 -> 270 [penwidth=2]
    301 -> 270 [penwidth=2]
    343 -> 270 [penwidth=2]
    302 -> 270 [penwidth=2]
    344 -> 270 [penwidth=2]
    303 -> 270 [penwidth=2]
    345 -> 270 [penwidth=2]
    304 -> 270 [penwidth=2]
    346 -> 270 [penwidth=2]
    305 -> 312 [penwidth=2]
    347 -> 312 [penwidth=2]
    306 -> 312 [penwidth=2]
    348 -> 312 [penwidth=2]
    307 -> 312 [penwidth=2]
    349 -> 312 [penwidth=2]
    308 -> 312 [penwidth=2]
    350 -> 312 [penwidth=2]
    309 -> 312 [penwidth=2]
    351 -> 312 [penwidth=2]
    1 -> 312 [penwidth=2]
    2 -> 312 [penwidth=2]
    3 -> 312 [penwidth=2]
    4 -> 312 [penwidth=2]
    5 -> 312 [penwidth=2]
    6 -> 312 [penwidth=2]
    7 -> 312 [penwidth=2]
    8 -> 312 [penwidth=2]
    9 -> 312 [penwidth=2]
    10 -> 312 [penwidth=2]
    11 -> 312 [penwidth=2]
    12 -> 271 [penwidth=2]
    13 -> 271 [penwidth=2]
    14 -> 271 [penwidth=2]
    15 -> 271 [penwidth=2]
    226 -> 271 [penwidth=2]
    227 -> 271 [penwidth=2]
    228 -> 271 [penwidth=2]
    229 -> 271 [penwidth=2]
    230 -> 271 [penwidth=2]
    231 -> 271 [penwidth=2]
    232 -> 271 [penwidth=2]
    233 -> 271 [penwidth=2]
    234 -> 271 [penwidth=2]
    235 -> 271 [penwidth=2]
    236 -> 271 [penwidth=2]
    237 -> 271 [penwidth=2]
    238 -> 271 [penwidth=2]
    239 -> 313 [penwidth=2]
    240 -> 313 [penwidth=2]
    241 -> 313 [penwidth=2]
    242 -> 272 [penwidth=2]
    243 -> 272 [penwidth=2]
    244 -> 272 [penwidth=2]
    245 -> 314 [penwidth=2]
    246 -> 314 [penwidth=2]
    247 -> 314 [penwidth=2]
    248 -> 314 [penwidth=2]
    249 -> 314 [penwidth=2]
    250 -> 314 [penwidth=2]
    251 -> 314 [penwidth=2]
    252 -> 314 [penwidth=2]
    253 -> 314 [penwidth=2]
    254 -> 273 [penwidth=2]
    255 -> 315 [penwidth=2]
    256 -> 315 [penwidth=2]
    257 -> 315 [penwidth=2]
    258 -> 315 [penwidth=2]
    259 -> 315 [penwidth=2]
    260 -> 315 [penwidth=2]
    261 -> 315 [penwidth=2]
    262 -> 315 [penwidth=2]
    263 -> 315 [penwidth=2]
    264 -> 315 [penwidth=2]
    265 -> 315 [penwidth=2]
    266 -> 315 [penwidth=2]
    267 -> 315 [penwidth=2]
    142 -> 315 [penwidth=2]
    184 -> 274 [penwidth=2]
    143 -> 274 [penwidth=2]
    185 -> 274 [penwidth=2]
    144 -> 274 [penwidth=2]
    186 -> 274 [penwidth=2]
    145 -> 274 [penwidth=2]
    187 -> 274 [penwidth=2]
    146 -> 274 [penwidth=2]
    188 -> 274 [penwidth=2]
    147 -> 274 [penwidth=2]
    189 -> 274 [penwidth=2]
    148 -> 274 [penwidth=2]
    190 -> 274 [penwidth=2]
    149 -> 274 [penwidth=2]
    191 -> 274 [penwidth=2]
    150 -> 274 [penwidth=2]
    192 -> 274 [penwidth=2]
    151 -> 274 [penwidth=2]
    193 -> 274 [penwidth=2]
    152 -> 274 [penwidth=2]
    194 -> 274 [penwidth=2]
    153 -> 274 [penwidth=2]
    195 -> 274 [penwidth=2]
    154 -> 274 [penwidth=2]
    196 -> 316 [penwidth=2]
    155 -> 316 [penwidth=2]
    197 -> 316 [penwidth=2]
    156 -> 316 [penwidth=2]
    198 -> 316 [penwidth=2]
    157 -> 316 [penwidth=2]
    199 -> 316 [penwidth=2]
    158 -> 316 [penwidth=2]
    200 -> 316 [penwidth=2]
    159 -> 275 [penwidth=2]
    201 -> 275 [penwidth=2]
    160 -> 275 [penwidth=2]
    202 -> 275 [penwidth=2]
    161 -> 275 [penwidth=2]
    203 -> 275 [penwidth=2]
    162 -> 275 [penwidth=2]
    204 -> 275 [penwidth=2]
    163 -> 275 [penwidth=2]
    205 -> 317 [penwidth=2]
    164 -> 317 [penwidth=2]
    206 -> 317 [penwidth=2]
    165 -> 317 [penwidth=2]
    207 -> 317 [penwidth=2]
    166 -> 317 [penwidth=2]
    208 -> 317 [penwidth=2]
    167 -> 317 [penwidth=2]
    209 -> 317 [penwidth=2]
    168 -> 317 [penwidth=2]
    210 -> 317 [penwidth=2]
    169 -> 317 [penwidth=2]
    211 -> 317 [penwidth=2]
    170 -> 317 [penwidth=2]
    212 -> 317 [penwidth=2]
    171 -> 317 [penwidth=2]
    213 -> 317 [penwidth=2]
    172 -> 317 [penwidth=2]
    214 -> 317 [penwidth=2]
    173 -> 317 [penwidth=2]
    215 -> 317 [penwidth=2]
    174 -> 317 [penwidth=2]
    216 -> 276 [penwidth=2]
    175 -> 276 [penwidth=2]
    217 -> 276 [penwidth=2]
    176 -> 276 [penwidth=2]
    218 -> 276 [penwidth=2]
    177 -> 276 [penwidth=2]
    219 -> 276 [penwidth=2]
    178 -> 276 [penwidth=2]
    220 -> 276 [penwidth=2]
    179 -> 276 [penwidth=2]
    221 -> 318 [penwidth=2]
    180 -> 318 [penwidth=2]
    222 -> 318 [penwidth=2]
    181 -> 318 [penwidth=2]
    223 -> 318 [penwidth=2]
    182 -> 318 [penwidth=2]
    224 -> 318 [penwidth=2]
    183 -> 318 [penwidth=2]
    225 -> 318 [penwidth=2]
    100 -> 318 [penwidth=2]
    101 -> 318 [penwidth=2]
    102 -> 318 [penwidth=2]
    103 -> 318 [penwidth=2]
    104 -> 318 [penwidth=2]
    105 -> 318 [penwidth=2]
    106 -> 318 [penwidth=2]
    107 -> 318 [penwidth=2]
    108 -> 318 [penwidth=2]
    109 -> 318 [penwidth=2]
    110 -> 318 [penwidth=2]
    111 -> 318 [penwidth=2]
    112 -> 318 [penwidth=2]
    113 -> 318 [penwidth=2]
    114 -> 318 [penwidth=2]
    115 -> 318 [penwidth=2]
    116 -> 277 [penwidth=2]
    117 -> 277 [penwidth=2]
    118 -> 277 [penwidth=2]
    119 -> 277 [penwidth=2]
    120 -> 277 [penwidth=2]
    121 -> 277 [penwidth=2]
    122 -> 277 [penwidth=2]
    123 -> 277 [penwidth=2]
    124 -> 277 [penwidth=2]
    125 -> 277 [penwidth=2]
    126 -> 277 [penwidth=2]
    127 -> 277 [penwidth=2]
    128 -> 277 [penwidth=2]
    129 -> 277 [penwidth=2]
    130 -> 277 [penwidth=2]
    131 -> 277 [penwidth=2]
    132 -> 277 [penwidth=2]
    133 -> 277 [penwidth=2]
    134 -> 277 [penwidth=2]
    135 -> 319 [penwidth=2]
    136 -> 319 [penwidth=2]
    137 -> 319 [penwidth=2]
    138 -> 319 [penwidth=2]
    139 -> 319 [penwidth=2]
    140 -> 278 [penwidth=2]
    141 -> 278 [penwidth=2]
    58 -> 278 [penwidth=2]
    59 -> 278 [penwidth=2]
    60 -> 278 [penwidth=2]
    61 -> 278 [penwidth=2]
    62 -> 278 [penwidth=2]
    63 -> 278 [penwidth=2]
    64 -> 278 [penwidth=2]
    65 -> 278 [penwidth=2]
    66 -> 278 [penwidth=2]
    67 -> 278 [penwidth=2]
    68 -> 278 [penwidth=2]
    69 -> 320 [penwidth=2]
    70 -> 320 [penwidth=2]
    71 -> 320 [penwidth=2]
    72 -> 320 [penwidth=2]
    73 -> 320 [penwidth=2]
    74 -> 320 [penwidth=2]
    75 -> 320 [penwidth=2]
    76 -> 320 [penwidth=2]
    77 -> 320 [penwidth=2]
    78 -> 320 [penwidth=2]
    79 -> 320 [penwidth=2]
    80 -> 320 [penwidth=2]
    81 -> 320 [penwidth=2]
    82 -> 320 [penwidth=2]
    83 -> 279 [penwidth=2]
    84 -> 279 [penwidth=2]
    85 -> 279 [penwidth=2]
    86 -> 279 [penwidth=2]
    87 -> 279 [penwidth=2]
    88 -> 279 [penwidth=2]
    89 -> 279 [penwidth=2]
    90 -> 279 [penwidth=2]
    91 -> 279 [penwidth=2]
    92 -> 279 [penwidth=2]
    93 -> 279 [penwidth=2]
    94 -> 279 [penwidth=2]
    95 -> 279 [penwidth=2]
    96 -> 279 [penwidth=2]
    97 -> 279 [penwidth=2]
    98 -> 279 [penwidth=2]
    99 -> 279 [penwidth=2]
    394 -> 279 [penwidth=2]
    395 -> 279 [penwidth=2]
    396 -> 279 [penwidth=2]
    397 -> 279 [penwidth=2]
    398 -> 279 [penwidth=2]
    399 -> 279 [penwidth=2]
    16 -> 279 [penwidth=2]
    352 -> 279 [penwidth=2]
    17 -> 279 [penwidth=2]
    353 -> 321 [penwidth=2]
    18 -> 321 [penwidth=2]
    354 -> 321 [penwidth=2]
    19 -> 321 [penwidth=2]
    355 -> 321 [penwidth=2]
    20 -> 321 [penwidth=2]
    356 -> 280 [penwidth=2]
    21 -> 280 [penwidth=2]
    357 -> 280 [penwidth=2]
    22 -> 280 [penwidth=2]
    358 -> 280 [penwidth=2]
    23 -> 280 [penwidth=2]
    359 -> 280 [penwidth=2]
    24 -> 280 [penwidth=2]
    360 -> 280 [penwidth=2]
    25 -> 280 [penwidth=2]
    361 -> 280 [penwidth=2]
    26 -> 280 [penwidth=2]
    362 -> 280 [penwidth=2]
    27 -> 280 [penwidth=2]
    363 -> 280 [penwidth=2]
    28 -> 280 [penwidth=2]
    364 -> 280 [penwidth=2]
    29 -> 280 [penwidth=2]
    365 -> 280 [penwidth=2]
    30 -> 280 [penwidth=2]
    366 -> 280 [penwidth=2]
    31 -> 280 [penwidth=2]
    367 -> 280 [penwidth=2]
    32 -> 280 [penwidth=2]
    368 -> 280 [penwidth=2]
    33 -> 280 [penwidth=2]
    369 -> 322 [penwidth=2]
    34 -> 322 [penwidth=2]
    370 -> 322 [penwidth=2]
    35 -> 281 [penwidth=2]
    371 -> 281 [penwidth=2]
    36 -> 281 [penwidth=2]
    372 -> 281 [penwidth=2]
    37 -> 281 [penwidth=2]
    373 -> 281 [penwidth=2]
    38 -> 281 [penwidth=2]
    374 -> 281 [penwidth=2]
    39 -> 281 [penwidth=2]
    375 -> 281 [penwidth=2]
    40 -> 281 [penwidth=2]
    376 -> 281 [penwidth=2]
    41 -> 281 [penwidth=2]
    377 -> 281 [penwidth=2]
    42 -> 281 [penwidth=2]
    378 -> 281 [penwidth=2]
    43 -> 281 [penwidth=2]
    379 -> 281 [penwidth=2]
    44 -> 281 [penwidth=2]
    380 -> 281 [penwidth=2]
    45 -> 281 [penwidth=2]
    381 -> 281 [penwidth=2]
    46 -> 281 [penwidth=2]
    382 -> 281 [penwidth=2]
    47 -> 281 [penwidth=2]
    383 -> 323 [penwidth=2]
    48 -> 323 [penwidth=2]
    384 -> 323 [penwidth=2]
    49 -> 282 [penwidth=2]
    385 -> 282 [penwidth=2]
    50 -> 282 [penwidth=2]
    386 -> 282 [penwidth=2]
    51 -> 282 [penwidth=2]
    387 -> 282 [penwidth=2]
    52 -> 282 [penwidth=2]
    388 -> 282 [penwidth=2]
    53 -> 282 [penwidth=2]
    389 -> 282 [penwidth=2]
    54 -> 282 [penwidth=2]
    390 -> 324 [penwidth=2]
    55 -> 324 [penwidth=2]
    391 -> 324 [penwidth=2]
    56 -> 324 [penwidth=2]
    392 -> 324 [penwidth=2]
    57 -> 324 [penwidth=2]
    311 -> 310 [penwidth=2]
    271 -> 310 [penwidth=2]
    272 -> 310 [penwidth=2]
    319 -> 268 [penwidth=2]
    322 -> 268 [penwidth=2]
    289 -> 273 [penwidth=2]
    289 -> 274 [penwidth=2]
    289 -> 276 [penwidth=2]
    289 -> 315 [penwidth=2]
    289 -> 323 [penwidth=2]
    332 -> 315 [penwidth=2]
    332 -> 320 [penwidth=2]
    332 -> 317 [penwidth=2]
    332 -> 323 [penwidth=2]
    332 -> 319 [penwidth=2]
    332 -> 314 [penwidth=2]
    332 -> 324 [penwidth=2]
    337 -> 276 [penwidth=2]
    337 -> 318 [penwidth=2]
    337 -> 323 [penwidth=2]
    337 -> 281 [penwidth=2]
    337 -> 283 [penwidth=2]
    337 -> 321 [penwidth=2]
    337 -> 279 [penwidth=2]
    337 -> 315 [penwidth=2]
    337 -> 270 [penwidth=2]
    337 -> 324 [penwidth=2]
    337 -> 313 [penwidth=2]
    337 -> 274 [penwidth=2]
    337 -> 320 [penwidth=2]
    337 -> 272 [penwidth=2]
    337 -> 317 [penwidth=2]
    337 -> 273 [penwidth=2]
    337 -> 312 [penwidth=2]
    337 -> 277 [penwidth=2]
    337 -> 280 [penwidth=2]
    337 -> 278 [penwidth=2]
    337 -> 314 [penwidth=2]
    337 -> 322 [penwidth=2]
    337 -> 275 [penwidth=2]
    337 -> 316 [penwidth=2]
    298 -> 316 [penwidth=2]
    298 -> 276 [penwidth=2]
    298 -> 275 [penwidth=2]
    298 -> 269 [penwidth=2]
    298 -> 279 [penwidth=2]
    298 -> 321 [penwidth=2]
    298 -> 282 [penwidth=2]
    298 -> 281 [penwidth=2]
    298 -> 273 [penwidth=2]
    298 -> 313 [penwidth=2]
    298 -> 320 [penwidth=2]
    298 -> 318 [penwidth=2]
    300 -> 277 [penwidth=2]
    300 -> 283 [penwidth=2]
    300 -> 316 [penwidth=2]
    300 -> 273 [penwidth=2]
    302 -> 283 [penwidth=2]
    302 -> 315 [penwidth=2]
    302 -> 276 [penwidth=2]
    302 -> 313 [penwidth=2]
    302 -> 314 [penwidth=2]
    302 -> 281 [penwidth=2]
    302 -> 322 [penwidth=2]
    308 -> 319 [penwidth=2]
    308 -> 280 [penwidth=2]
    308 -> 311 [penwidth=2]
    308 -> 323 [penwidth=2]
    308 -> 282 [penwidth=2]
    308 -> 322 [penwidth=2]
    308 -> 314 [penwidth=2]
    308 -> 276 [penwidth=2]
    308 -> 272 [penwidth=2]
    308 -> 277 [penwidth=2]
    308 -> 320 [penwidth=2]
    308 -> 279 [penwidth=2]
    308 -> 316 [penwidth=2]
    308 -> 324 [penwidth=2]
    308 -> 317 [penwidth=2]
    308 -> 278 [penwidth=2]
    308 -> 274 [penwidth=2]
    308 -> 283 [penwidth=2]
    308 -> 271 [penwidth=2]
    308 -> 281 [penwidth=2]
    308 -> 321 [penwidth=2]
    308 -> 273 [penwidth=2]
    308 -> 313 [penwidth=2]
    2 -> 324 [penwidth=2]
    2 -> 314 [penwidth=2]
    2 -> 272 [penwidth=2]
    2 -> 274 [penwidth=2]
    2 -> 273 [penwidth=2]
    2 -> 315 [penwidth=2]
    2 -> 269 [penwidth=2]
    2 -> 271 [penwidth=2]
    2 -> 322 [penwidth=2]
    2 -> 277 [penwidth=2]
    2 -> 270 [penwidth=2]
    2 -> 275 [penwidth=2]
    2 -> 283 [penwidth=2]
    2 -> 282 [penwidth=2]
    2 -> 280 [penwidth=2]
    2 -> 321 [penwidth=2]
    2 -> 279 [penwidth=2]
    235 -> 316 [penwidth=2]
    253 -> 316 [penwidth=2]
    253 -> 318 [penwidth=2]
    253 -> 321 [penwidth=2]
    253 -> 282 [penwidth=2]
    253 -> 322 [penwidth=2]
    253 -> 275 [penwidth=2]
    253 -> 279 [penwidth=2]
    253 -> 273 [penwidth=2]
    253 -> 271 [penwidth=2]
    253 -> 313 [penwidth=2]
    253 -> 312 [penwidth=2]
    253 -> 277 [penwidth=2]
    253 -> 276 [penwidth=2]
    253 -> 323 [penwidth=2]
    253 -> 280 [penwidth=2]
    253 -> 320 [penwidth=2]
    253 -> 272 [penwidth=2]
    253 -> 274 [penwidth=2]
    253 -> 319 [penwidth=2]
    253 -> 278 [penwidth=2]
    253 -> 315 [penwidth=2]
    253 -> 270 [penwidth=2]
    253 -> 281 [penwidth=2]
    253 -> 283 [penwidth=2]
    253 -> 311 [penwidth=2]
    253 -> 269 [penwidth=2]
    253 -> 317 [penwidth=2]
    156 -> 272 [penwidth=2]
    156 -> 280 [penwidth=2]
    156 -> 322 [penwidth=2]
    156 -> 324 [penwidth=2]
    156 -> 275 [penwidth=2]
    156 -> 270 [penwidth=2]
    156 -> 281 [penwidth=2]
    156 -> 318 [penwidth=2]
    156 -> 313 [penwidth=2]
    156 -> 282 [penwidth=2]
    156 -> 321 [penwidth=2]
    156 -> 277 [penwidth=2]
    156 -> 279 [penwidth=2]
    156 -> 271 [penwidth=2]
    156 -> 314 [penwidth=2]
    156 -> 312 [penwidth=2]
    200 -> 322 [penwidth=2]
    200 -> 281 [penwidth=2]
    200 -> 273 [penwidth=2]
    200 -> 275 [penwidth=2]
    200 -> 319 [penwidth=2]
    200 -> 276 [penwidth=2]
    200 -> 280 [penwidth=2]
    200 -> 320 [penwidth=2]
    200 -> 315 [penwidth=2]
    200 -> 271 [penwidth=2]
    200 -> 318 [penwidth=2]
    200 -> 313 [penwidth=2]
    200 -> 321 [penwidth=2]
    200 -> 324 [penwidth=2]
    208 -> 322 [penwidth=2]
    208 -> 316 [penwidth=2]
    208 -> 280 [penwidth=2]
    208 -> 279 [penwidth=2]
    208 -> 314 [penwidth=2]
    208 -> 312 [penwidth=2]
    208 -> 318 [penwidth=2]
    208 -> 320 [penwidth=2]
    208 -> 319 [penwidth=2]
    208 -> 281 [penwidth=2]
    208 -> 271 [penwidth=2]
    208 -> 272 [penwidth=2]
    208 -> 277 [penwidth=2]
    208 -> 323 [penwidth=2]
    208 -> 311 [penwidth=2]
    208 -> 276 [penwidth=2]
    208 -> 324 [penwidth=2]
    208 -> 274 [penwidth=2]
    208 -> 313 [penwidth=2]
    208 -> 282 [penwidth=2]
    208 -> 283 [penwidth=2]
    169 -> 318 [penwidth=2]
    169 -> 314 [penwidth=2]
    169 -> 324 [penwidth=2]
    169 -> 272 [penwidth=2]
    169 -> 312 [penwidth=2]
    169 -> 271 [penwidth=2]
    169 -> 279 [penwidth=2]
    169 -> 273 [penwidth=2]
    169 -> 278 [penwidth=2]
    169 -> 323 [penwidth=2]
    169 -> 311 [penwidth=2]
    169 -> 315 [penwidth=2]
    169 -> 283 [penwidth=2]
    169 -> 321 [penwidth=2]
    169 -> 280 [penwidth=2]
    169 -> 274 [penwidth=2]
    169 -> 281 [penwidth=2]
    169 -> 320 [penwidth=2]
    169 -> 322 [penwidth=2]
    169 -> 270 [penwidth=2]
    169 -> 275 [penwidth=2]
    169 -> 313 [penwidth=2]
    182 -> 276 [penwidth=2]
    182 -> 323 [penwidth=2]
    182 -> 272 [penwidth=2]
    182 -> 270 [penwidth=2]
    182 -> 271 [penwidth=2]
    182 -> 278 [penwidth=2]
    182 -> 312 [penwidth=2]
    182 -> 322 [penwidth=2]
    182 -> 320 [penwidth=2]
    182 -> 319 [penwidth=2]
    182 -> 282 [penwidth=2]
    182 -> 280 [penwidth=2]
    182 -> 324 [penwidth=2]
    182 -> 314 [penwidth=2]
    182 -> 281 [penwidth=2]
    182 -> 277 [penwidth=2]
    182 -> 311 [penwidth=2]
    182 -> 316 [penwidth=2]
    182 -> 321 [penwidth=2]
    225 -> 313 [penwidth=2]
    225 -> 273 [penwidth=2]
    225 -> 280 [penwidth=2]
    225 -> 271 [penwidth=2]
    225 -> 322 [penwidth=2]
    225 -> 315 [penwidth=2]
    225 -> 319 [penwidth=2]
    225 -> 275 [penwidth=2]
    225 -> 276 [penwidth=2]
    225 -> 323 [penwidth=2]
    225 -> 272 [penwidth=2]
    225 -> 311 [penwidth=2]
    225 -> 314 [penwidth=2]
    225 -> 312 [penwidth=2]
    225 -> 270 [penwidth=2]
    225 -> 321 [penwidth=2]
    225 -> 274 [penwidth=2]
    113 -> 274 [penwidth=2]
    113 -> 317 [penwidth=2]
    113 -> 276 [penwidth=2]
    113 -> 281 [penwidth=2]
    113 -> 279 [penwidth=2]
    113 -> 311 [penwidth=2]
    113 -> 280 [penwidth=2]
    113 -> 323 [penwidth=2]
    113 -> 273 [penwidth=2]
    113 -> 313 [penwidth=2]
    113 -> 277 [penwidth=2]
    113 -> 320 [penwidth=2]
    113 -> 316 [penwidth=2]
    113 -> 322 [penwidth=2]
    113 -> 271 [penwidth=2]
    113 -> 269 [penwidth=2]
    113 -> 314 [penwidth=2]
    113 -> 324 [penwidth=2]
    113 -> 283 [penwidth=2]
    113 -> 278 [penwidth=2]
    113 -> 312 [penwidth=2]
    113 -> 275 [penwidth=2]
    113 -> 272 [penwidth=2]
    113 -> 282 [penwidth=2]
    113 -> 270 [penwidth=2]
    125 -> 278 [penwidth=2]
    125 -> 272 [penwidth=2]
    125 -> 275 [penwidth=2]
    125 -> 269 [penwidth=2]
    125 -> 312 [penwidth=2]
    125 -> 313 [penwidth=2]
    125 -> 280 [penwidth=2]
    125 -> 311 [penwidth=2]
    125 -> 279 [penwidth=2]
    125 -> 282 [penwidth=2]
    125 -> 274 [penwidth=2]
    125 -> 273 [penwidth=2]
    125 -> 322 [penwidth=2]
    125 -> 283 [penwidth=2]
    125 -> 319 [penwidth=2]
    125 -> 321 [penwidth=2]
    125 -> 270 [penwidth=2]
    125 -> 320 [penwidth=2]
    125 -> 324 [penwidth=2]
    125 -> 317 [penwidth=2]
    125 -> 314 [penwidth=2]
    125 -> 318 [penwidth=2]
    138 -> 317 [penwidth=2]
    138 -> 277 [penwidth=2]
    138 -> 269 [penwidth=2]
    138 -> 275 [penwidth=2]
    138 -> 312 [penwidth=2]
    138 -> 271 [penwidth=2]
    138 -> 274 [penwidth=2]
    138 -> 280 [penwidth=2]
    138 -> 324 [penwidth=2]
    138 -> 278 [penwidth=2]
    138 -> 322 [penwidth=2]
    138 -> 311 [penwidth=2]
    138 -> 321 [penwidth=2]
    138 -> 270 [penwidth=2]
    138 -> 282 [penwidth=2]
    138 -> 283 [penwidth=2]
    138 -> 313 [penwidth=2]
    138 -> 315 [penwidth=2]
    138 -> 318 [penwidth=2]
    61 -> 276 [penwidth=2]
    61 -> 311 [penwidth=2]
    61 -> 273 [penwidth=2]
    61 -> 322 [penwidth=2]
    61 -> 321 [penwidth=2]
    61 -> 312 [penwidth=2]
    61 -> 282 [penwidth=2]
    61 -> 274 [penwidth=2]
    61 -> 271 [penwidth=2]
    61 -> 316 [penwidth=2]
    61 -> 315 [penwidth=2]
    61 -> 318 [penwidth=2]
    61 -> 324 [penwidth=2]
    61 -> 319 [penwidth=2]
    61 -> 279 [penwidth=2]
    61 -> 314 [penwidth=2]
    61 -> 269 [penwidth=2]
    62 -> 323 [penwidth=2]
    71 -> 314 [penwidth=2]
    71 -> 281 [penwidth=2]
    71 -> 315 [penwidth=2]
    71 -> 278 [penwidth=2]
    71 -> 269 [penwidth=2]
    71 -> 272 [penwidth=2]
    71 -> 321 [penwidth=2]
    71 -> 274 [penwidth=2]
    71 -> 279 [penwidth=2]
    88 -> 271 [penwidth=2]
    88 -> 313 [penwidth=2]
    88 -> 320 [penwidth=2]
    88 -> 314 [penwidth=2]
    88 -> 311 [penwidth=2]
    88 -> 282 [penwidth=2]
    88 -> 312 [penwidth=2]
    88 -> 317 [penwidth=2]
    88 -> 277 [penwidth=2]
    88 -> 315 [penwidth=2]
    88 -> 281 [penwidth=2]
    88 -> 319 [penwidth=2]
    88 -> 316 [penwidth=2]
    88 -> 275 [penwidth=2]
    88 -> 278 [penwidth=2]
    88 -> 274 [penwidth=2]
    88 -> 273 [penwidth=2]
    21 -> 318 [penwidth=2]
    21 -> 283 [penwidth=2]
    21 -> 314 [penwidth=2]
    21 -> 270 [penwidth=2]
    21 -> 317 [penwidth=2]
    21 -> 320 [penwidth=2]
    21 -> 324 [penwidth=2]
    358 -> 274 [penwidth=2]
    358 -> 311 [penwidth=2]
    358 -> 282 [penwidth=2]
    358 -> 270 [penwidth=2]
    358 -> 275 [penwidth=2]
    358 -> 318 [penwidth=2]
    358 -> 283 [penwidth=2]
    27 -> 320 [penwidth=2]
    27 -> 269 [penwidth=2]
    27 -> 282 [penwidth=2]
    27 -> 274 [penwidth=2]
    27 -> 324 [penwidth=2]
    27 -> 319 [penwidth=2]
    29 -> 282 [penwidth=2]
    29 -> 274 [penwidth=2]
    29 -> 276 [penwidth=2]
    368 -> 275 [penwidth=2]
    368 -> 276 [penwidth=2]
    368 -> 270 [penwidth=2]
    368 -> 313 [penwidth=2]
    368 -> 316 [penwidth=2]
    368 -> 281 [penwidth=2]
    381 -> 282 [penwidth=2]
    381 -> 272 [penwidth=2]
    386 -> 269 [penwidth=2]
    386 -> 321 [penwidth=2]
    386 -> 320 [penwidth=2]
    386 -> 324 [penwidth=2]
    386 -> 317 [penwidth=2]
    54 -> 311 [penwidth=2]
    54 -> 314 [penwidth=2]
    54 -> 275 [penwidth=2]
    54 -> 312 [penwidth=2]
    54 -> 315 [penwidth=2]
    54 -> 322 [penwidth=2]
    54 -> 321 [penwidth=2]
    54 -> 317 [penwidth=2]
    54 -> 324 [penwidth=2]
    54 -> 277 [penwidth=2]
    54 -> 278 [penwidth=2]
    54 -> 274 [penwidth=2]
    54 -> 270 [penwidth=2]
    54 -> 283 [penwidth=2]
    54 -> 271 [penwidth=2]
    54 -> 276 [penwidth=2]
    54 -> 269 [penwidth=2]
    54 -> 279 [penwidth=2]
    54 -> 273 [penwidth=2]
    54 -> 320 [penwidth=2]
    54 -> 319 [penwidth=2]
    54 -> 280 [penwidth=2]
    54 -> 323 [penwidth=2]
    54 -> 272 [penwidth=2]
    54 -> 318 [penwidth=2]
    54 -> 313 [penwidth=2]
    55 -> 321 [penwidth=2]
    55 -> 279 [penwidth=2]
    55 -> 281 [penwidth=2]
    55 -> 317 [penwidth=2]
    55 -> 318 [penwidth=2]
    55 -> 277 [penwidth=2]
    55 -> 282 [penwidth=2]
    55 -> 323 [penwidth=2]
    55 -> 315 [penwidth=2]
    55 -> 275 [penwidth=2]
    55 -> 276 [penwidth=2]
    55 -> 312 [penwidth=2]
    55 -> 273 [penwidth=2]
    55 -> 270 [penwidth=2]
    55 -> 311 [penwidth=2]
    55 -> 280 [penwidth=2]
}