digraph G {
    0 [penwidth=3,label="0"]
    1 [penwidth=3,label="1"]
    2 [penwidth=3,label="2"]
    3 [penwidth=3,label="3"]
    4 [penwidth=3,label="4"]
    5 [penwidth=3,label="5"]
    6 [penwidth=3,label="6"]
    7 [penwidth=3,label="7"]
    8 [penwidth=3,label="8"]
    9 [penwidth=3,label="9"]
    10 [penwidth=3,label="10"]
    11 [penwidth=3,label="11"]
    12 [penwidth=3,label="12"]
    13 [penwidth=3,label="13"]
    14 [penwidth=3,label="14"]
    15 [penwidth=3,label="15"]
    16 [penwidth=3,label="16"]
    17 [penwidth=3,label="17"]
    18 [penwidth=3,label="18"]
    19 [penwidth=3,label="19"]
    20 [penwidth=3,label="20"]
    21 [penwidth=3,label="21"]
    22 [penwidth=3,label="22"]
    23 [penwidth=3,label="23"]
    24 [penwidth=3,label="24"]
    25 [penwidth=3,label="25"]
    26 [penwidth=3,label="26"]
    27 [penwidth=3,label="27"]
    28 [penwidth=3,label="28"]
    29 [penwidth=3,label="29"]
    30 [penwidth=3,label="30"]
    31 [penwidth=3,label="31"]
    32 [penwidth=3,label="32"]
    33 [penwidth=3,label="33"]
    34 [penwidth=3,label="34"]
    35 [penwidth=3,label="35"]
    36 [penwidth=3,label="36"]
    37 [penwidth=3,label="37"]
    38 [penwidth=3,label="38"]
    39 [penwidth=3,label="39"]
    40 [penwidth=3,label="40"]
    41 [penwidth=3,label="41"]
    42 [penwidth=3,label="42"]
    43 [penwidth=3,label="43"]
    44 [penwidth=3,label="44"]
    45 [penwidth=3,label="45"]
    46 [penwidth=3,label="46"]
    47 [penwidth=3,label="47"]
    48 [penwidth=3,label="48"]
    49 [penwidth=3,label="49"]
    50 [penwidth=3,label="50"]
    51 [penwidth=3,label="51"]
    52 [penwidth=3,label="52"]
    53 [penwidth=3,label="53"]
    54 [penwidth=3,label="54"]
    55 [penwidth=3,label="55"]
    56 [penwidth=3,label="56"]
    57 [penwidth=3,label="57"]
    58 [penwidth=3,label="58"]
    59 [penwidth=3,label="59"]
    60 [penwidth=3,label="60"]
    61 [penwidth=3,label="61"]
    62 [penwidth=3,label="62"]
    63 [penwidth=3,label="63"]
    64 [penwidth=3,label="64"]
    65 [penwidth=3,label="65"]
    66 [penwidth=3,label="66"]
    67 [penwidth=3,label="67"]
    68 [penwidth=3,label="68"]
    69 [penwidth=3,label="69"]
    70 [penwidth=3,label="70"]
    71 [penwidth=3,label="71"]
    72 [penwidth=3,label="72"]
    73 [penwidth=3,label="73"]
    74 [penwidth=3,label="74"]
    75 [penwidth=3,label="75"]
    76 [penwidth=3,label="76"]
    77 [penwidth=3,label="77"]
    78 [penwidth=3,label="78"]
    79 [penwidth=3,label="79"]
    80 [penwidth=3,label="80"]
    81 [penwidth=3,label="81"]
    82 [penwidth=3,label="82"]
    83 [penwidth=3,label="83"]
    84 [penwidth=3,label="84"]
    85 [penwidth=3,label="85"]
    86 [penwidth=3,label="86"]
    87 [penwidth=3,label="87"]
    88 [penwidth=3,label="88"]
    89 [penwidth=3,label="89"]
    90 [penwidth=3,label="90"]
    91 [penwidth=3,label="91"]
    92 [penwidth=3,label="92"]
    93 [penwidth=3,label="93"]
    94 [penwidth=3,label="94"]
    95 [penwidth=3,label="95"]
    96 [penwidth=3,label="96"]
    97 [penwidth=3,label="97"]
    98 [penwidth=3,label="98"]
    99 [penwidth=3,label="99"]
    100 [penwidth=3,label="100"]
    101 [penwidth=3,label="101"]
    102 [penwidth=3,label="102"]
    103 [penwidth=3,label="103"]
    104 [penwidth=3,label="104"]
    105 [penwidth=3,label="105"]
    106 [penwidth=3,label="106"]
    107 [penwidth=3,label="107"]
    108 [penwidth=3,label="108"]
    109 [penwidth=3,label="109"]
    110 [penwidth=3,label="110"]
    111 [penwidth=3,label="111"]
    112 [penwidth=3,label="112"]
    113 [penwidth=3,label="113"]
    114 [penwidth=3,label="114"]
    115 [penwidth=3,label="115"]
    116 [penwidth=3,label="116"]
    117 [penwidth=3,label="117"]
    118 [penwidth=3,label="118"]
    119 [penwidth=3,label="119"]
    120 [penwidth=3,label="120"]
    121 [penwidth=3,label="121"]
    122 [penwidth=3,label="122"]
    123 [penwidth=3,label="123"]
    124 [penwidth=3,label="124"]
    125 [penwidth=3,label="125"]
    126 [penwidth=3,label="126"]
    127 [penwidth=3,label="127"]
    128 [penwidth=3,label="128"]
    129 [penwidth=3,label="129"]
    130 [penwidth=3,label="130"]
    131 [penwidth=3,label="131"]
    132 [penwidth=3,label="132"]
    133 [penwidth=3,label="133"]
    134 [penwidth=3,label="134"]
    135 [penwidth=3,label="135"]
    136 [penwidth=3,label="136"]
    137 [penwidth=3,label="137"]
    138 [penwidth=3,label="138"]
    139 [penwidth=3,label="139"]
    140 [penwidth=3,label="140"]
    141 [penwidth=3,label="141"]
    142 [penwidth=3,label="142"]
    143 [penwidth=3,label="143"]
    144 [penwidth=3,label="144"]
    145 [penwidth=3,label="145"]
    146 [penwidth=3,label="146"]
    147 [penwidth=3,label="147"]
    148 [penwidth=3,label="148"]
    149 [penwidth=3,label="149"]
    150 [penwidth=3,label="150"]
    151 [penwidth=3,label="151"]
    152 [penwidth=3,label="152"]
    153 [penwidth=3,label="153"]
    154 [penwidth=3,label="154"]
    155 [penwidth=3,label="155"]
    156 [penwidth=3,label="156"]
    157 [penwidth=3,label="157"]
    158 [penwidth=3,label="158"]
    159 [penwidth=3,label="159"]
    160 [penwidth=3,label="160"]
    161 [penwidth=3,label="161"]
    162 [penwidth=3,label="162"]
    163 [penwidth=3,label="163"]
    164 [penwidth=3,label="164"]
    165 [penwidth=3,label="165"]
    166 [penwidth=3,label="166"]
    167 [penwidth=3,label="167"]
    168 [penwidth=3,label="168"]
    169 [penwidth=3,label="169"]
    170 [penwidth=3,label="170"]
    171 [penwidth=3,label="171"]
    172 [penwidth=3,label="172"]
    173 [penwidth=3,label="173"]
    174 [penwidth=3,label="174"]
    175 [penwidth=3,label="175"]
    176 [penwidth=3,label="176"]
    177 [penwidth=3,label="177"]
    178 [penwidth=3,label="178"]
    179 [penwidth=3,label="179"]
    180 [penwidth=3,label="180"]
    181 [penwidth=3,label="181"]
    182 [penwidth=3,label="182"]
    183 [penwidth=3,label="183"]
    184 [penwidth=3,label="184"]
    185 [penwidth=3,label="185"]
    186 [penwidth=3,label="186"]
    187 [penwidth=3,label="187"]
    188 [penwidth=3,label="188"]
    189 [penwidth=3,label="189"]
    190 [penwidth=3,label="190"]
    191 [penwidth=3,label="191"]
    192 [penwidth=3,label="192"]
    193 [penwidth=3,label="193"]
    194 [penwidth=3,label="194"]
    195 [penwidth=3,label="195"]
    196 [penwidth=3,label="196"]
    197 [penwidth=3,label="197"]
    198 [penwidth=3,label="198"]
    199 [penwidth=3,label="199"]
    200 [penwidth=3,label="200"]
    201 [penwidth=3,label="201"]
    202 [penwidth=3,label="202"]
    203 [penwidth=3,label="203"]
    204 [penwidth=3,label="204"]
    205 [penwidth=3,label="205"]
    206 [penwidth=3,label="206"]
    207 [penwidth=3,label="207"]
    208 [penwidth=3,label="208"]
    209 [penwidth=3,label="209"]
    210 [penwidth=3,label="210"]
    211 [penwidth=3,label="211"]
    212 [penwidth=3,label="212"]
    213 [penwidth=3,label="213"]
    214 [penwidth=3,label="214"]
    215 [penwidth=3,label="215"]
    216 [penwidth=3,label="216"]
    217 [penwidth=3,label="217"]
    218 [penwidth=3,label="218"]
    219 [penwidth=3,label="219"]
    220 [penwidth=3,label="220"]
    221 [penwidth=3,label="221"]
    222 [penwidth=3,label="222"]
    223 [penwidth=3,label="223"]
    224 [penwidth=3,label="224"]
    225 [penwidth=3,label="225"]
    226 [penwidth=3,label="226"]
    227 [penwidth=3,label="227"]
    228 [penwidth=3,label="228"]
    229 [penwidth=3,label="229"]
    230 [penwidth=3,label="230"]
    231 [penwidth=3,label="231"]
    232 [penwidth=3,label="232"]
    233 [penwidth=3,label="233"]
    234 [penwidth=3,label="234"]
    235 [penwidth=3,label="235"]
    236 [penwidth=3,label="236"]
    237 [penwidth=3,label="237"]
    238 [penwidth=3,label="238"]
    239 [penwidth=3,label="239"]
    240 [penwidth=3,label="240"]
    241 [penwidth=3,label="241"]
    242 [penwidth=3,label="242"]
    243 [penwidth=3,label="243"]
    244 [penwidth=3,label="244"]
    245 [penwidth=3,label="245"]
    246 [penwidth=3,label="246"]
    247 [penwidth=3,label="247"]
    248 [penwidth=3,label="248"]
    249 [penwidth=3,label="249"]
    250 [penwidth=3,label="250"]
    251 [penwidth=3,label="251"]
    252 [penwidth=3,label="252"]
    253 [penwidth=3,label="253"]
    254 [penwidth=3,label="254"]
    255 [penwidth=3,label="255"]
    256 [penwidth=3,label="256"]
    257 [penwidth=3,label="257"]
    258 [penwidth=3,label="258"]
    259 [penwidth=3,label="259"]
    260 [penwidth=3,label="260"]
    261 [penwidth=3,label="261"]
    262 [penwidth=3,label="262"]
    263 [penwidth=3,label="263"]
    264 [penwidth=3,label="264"]
    265 [penwidth=3,label="265"]
    266 [penwidth=3,label="266"]
    267 [penwidth=3,label="267"]
    268 [penwidth=3,label="268"]
    269 [penwidth=3,label="269"]
    270 [penwidth=3,label="270"]
    271 [penwidth=3,label="271"]
    272 [penwidth=3,label="272"]
    273 [penwidth=3,label="273"]
    274 [penwidth=3,label="274"]
    275 [penwidth=3,label="275"]
    276 [penwidth=3,label="276"]
    277 [penwidth=3,label="277"]
    278 [penwidth=3,label="278"]
    279 [penwidth=3,label="279"]
    280 [penwidth=3,label="280"]
    281 [penwidth=3,label="281"]
    282 [penwidth=3,label="282"]
    283 [penwidth=3,label="283"]
    284 [penwidth=3,label="284"]
    285 [penwidth=3,label="285"]
    286 [penwidth=3,label="286"]
    287 [penwidth=3,label="287"]
    288 [penwidth=3,label="288"]
    289 [penwidth=3,label="289"]
    290 [penwidth=3,label="290"]
    291 [penwidth=3,label="291"]
    292 [penwidth=3,label="292"]
    293 [penwidth=3,label="293"]
    294 [penwidth=3,label="294"]
    295 [penwidth=3,label="295"]
    296 [penwidth=3,label="296"]
    297 [penwidth=3,label="297"]
    298 [penwidth=3,label="298"]
    299 [penwidth=3,label="299"]
    300 [penwidth=3,label="300"]
    301 [penwidth=3,label="301"]
    302 [penwidth=3,label="302"]
    303 [penwidth=3,label="303"]
    304 [penwidth=3,label="304"]
    305 [penwidth=3,label="305"]
    306 [penwidth=3,label="306"]
    307 [penwidth=3,label="307"]
    308 [penwidth=3,label="308"]
    309 [penwidth=3,label="309"]
    310 [penwidth=3,label="310"]
    311 [penwidth=3,label="311"]
    312 [penwidth=3,label="312"]
    313 [penwidth=3,label="313"]
    314 [penwidth=3,label="314"]
    315 [penwidth=3,label="315"]
    316 [penwidth=3,label="316"]
    317 [penwidth=3,label="317"]
    318 [penwidth=3,label="318"]
    319 [penwidth=3,label="319"]
    320 [penwidth=3,label="320"]
    321 [penwidth=3,label="321"]
    322 [penwidth=3,label="322"]
    323 [penwidth=3,label="323"]
    324 [penwidth=3,label="324"]
    325 [penwidth=3,label="325"]
    326 [penwidth=3,label="326"]
    327 [penwidth=3,label="327"]
    328 [penwidth=3,label="328"]
    329 [penwidth=3,label="329"]
    330 [penwidth=3,label="330"]
    331 [penwidth=3,label="331"]
    332 [penwidth=3,label="332"]
    333 [penwidth=3,label="333"]
    334 [penwidth=3,label="334"]
    335 [penwidth=3,label="335"]
    336 [penwidth=3,label="336"]
    337 [penwidth=3,label="337"]
    338 [penwidth=3,label="338"]
    339 [penwidth=3,label="339"]
    340 [penwidth=3,label="340"]
    341 [penwidth=3,label="341"]
    342 [penwidth=3,label="342"]
    343 [penwidth=3,label="343"]
    344 [penwidth=3,label="344"]
    345 [penwidth=3,label="345"]
    346 [penwidth=3,label="346"]
    347 [penwidth=3,label="347"]
    348 [penwidth=3,label="348"]
    349 [penwidth=3,label="349"]
    350 [penwidth=3,label="350"]
    351 [penwidth=3,label="351"]
    352 [penwidth=3,label="352"]
    353 [penwidth=3,label="353"]
    354 [penwidth=3,label="354"]
    355 [penwidth=3,label="355"]
    356 [penwidth=3,label="356"]
    357 [penwidth=3,label="357"]
    358 [penwidth=3,label="358"]
    359 [penwidth=3,label="359"]
    360 [penwidth=3,label="360"]
    361 [penwidth=3,label="361"]
    362 [penwidth=3,label="362"]
    363 [penwidth=3,label="363"]
    364 [penwidth=3,label="364"]
    365 [penwidth=3,label="365"]
    366 [penwidth=3,label="366"]
    367 [penwidth=3,label="367"]
    368 [penwidth=3,label="368"]
    369 [penwidth=3,label="369"]
    370 [penwidth=3,label="370"]
    371 [penwidth=3,label="371"]
    372 [penwidth=3,label="372"]
    373 [penwidth=3,label="373"]
    374 [penwidth=3,label="374"]
    375 [penwidth=3,label="375"]
    376 [penwidth=3,label="376"]
    377 [penwidth=3,label="377"]
    378 [penwidth=3,label="378"]
    379 [penwidth=3,label="379"]
    380 [penwidth=3,label="380"]
    381 [penwidth=3,label="381"]
    382 [penwidth=3,label="382"]
    383 [penwidth=3,label="383"]
    384 [penwidth=3,label="384"]
    385 [penwidth=3,label="385"]
    386 [penwidth=3,label="386"]
    387 [penwidth=3,label="387"]
    388 [penwidth=3,label="388"]
    389 [penwidth=3,label="389"]
    390 [penwidth=3,label="390"]
    391 [penwidth=3,label="391"]
    392 [penwidth=3,label="392"]
    393 [penwidth=3,label="393"]
    394 [penwidth=3,label="394"]
    395 [penwidth=3,label="395"]
    396 [penwidth=3,label="396"]
    397 [penwidth=3,label="397"]
    398 [penwidth=3,label="398"]
    399 [penwidth=3,label="399"]

    382 -> 0 [penwidth=2]
    383 -> 0 [penwidth=2]
    384 -> 0 [penwidth=2]
    385 -> 0 [penwidth=2]
    386 -> 0 [penwidth=2]
    387 -> 0 [penwidth=2]
    388 -> 0 [penwidth=2]
    389 -> 0 [penwidth=2]
    390 -> 0 [penwidth=2]
    391 -> 382 [penwidth=2]
    392 -> 382 [penwidth=2]
    393 -> 382 [penwidth=2]
    394 -> 382 [penwidth=2]
    395 -> 382 [penwidth=2]
    396 -> 382 [penwidth=2]
    397 -> 382 [penwidth=2]
    398 -> 382 [penwidth=2]
    399 -> 382 [penwidth=2]
    340 -> 382 [penwidth=2]
    341 -> 382 [penwidth=2]
    342 -> 382 [penwidth=2]
    343 -> 382 [penwidth=2]
    344 -> 382 [penwidth=2]
    345 -> 382 [penwidth=2]
    346 -> 382 [penwidth=2]
    347 -> 382 [penwidth=2]
    348 -> 382 [penwidth=2]
    349 -> 382 [penwidth=2]
    350 -> 382 [penwidth=2]
    351 -> 383 [penwidth=2]
    352 -> 383 [penwidth=2]
    353 -> 383 [penwidth=2]
    354 -> 383 [penwidth=2]
    355 -> 384 [penwidth=2]
    356 -> 384 [penwidth=2]
    357 -> 384 [penwidth=2]
    358 -> 384 [penwidth=2]
    359 -> 384 [penwidth=2]
    360 -> 384 [penwidth=2]
    361 -> 384 [penwidth=2]
    362 -> 384 [penwidth=2]
    363 -> 384 [penwidth=2]
    364 -> 384 [penwidth=2]
    365 -> 384 [penwidth=2]
    366 -> 384 [penwidth=2]
    367 -> 384 [penwidth=2]
    368 -> 384 [penwidth=2]
    369 -> 384 [penwidth=2]
    370 -> 384 [penwidth=2]
    371 -> 384 [penwidth=2]
    372 -> 384 [penwidth=2]
    373 -> 384 [penwidth=2]
    374 -> 384 [penwidth=2]
    375 -> 384 [penwidth=2]
    376 -> 384 [penwidth=2]
    377 -> 384 [penwidth=2]
    378 -> 384 [penwidth=2]
    379 -> 384 [penwidth=2]
    380 -> 384 [penwidth=2]
    381 -> 384 [penwidth=2]
    4 -> 384 [penwidth=2]
    256 -> 384 [penwidth=2]
    298 -> 384 [penwidth=2]
    5 -> 385 [penwidth=2]
    257 -> 385 [penwidth=2]
    299 -> 385 [penwidth=2]
    6 -> 385 [penwidth=2]
    258 -> 385 [penwidth=2]
    300 -> 385 [penwidth=2]
    7 -> 385 [penwidth=2]
    259 -> 385 [penwidth=2]
    301 -> 385 [penwidth=2]
    8 -> 385 [penwidth=2]
    260 -> 385 [penwidth=2]
    302 -> 385 [penwidth=2]
    9 -> 385 [penwidth=2]
    261 -> 385 [penwidth=2]
    303 -> 385 [penwidth=2]
    10 -> 385 [penwidth=2]
    262 -> 385 [penwidth=2]
    304 -> 385 [penwidth=2]
    11 -> 385 [penwidth=2]
    263 -> 385 [penwidth=2]
    305 -> 386 [penwidth=2]
    12 -> 386 [penwidth=2]
    264 -> 386 [penwidth=2]
    306 -> 386 [penwidth=2]
    13 -> 386 [penwidth=2]
    265 -> 386 [penwidth=2]
    307 -> 386 [penwidth=2]
    14 -> 386 [penwidth=2]
    266 -> 386 [penwidth=2]
    308 -> 386 [penwidth=2]
    15 -> 386 [penwidth=2]
    267 -> 386 [penwidth=2]
    309 -> 386 [penwidth=2]
    16 -> 386 [penwidth=2]
    268 -> 386 [penwidth=2]
    310 -> 386 [penwidth=2]
    17 -> 386 [penwidth=2]
    269 -> 386 [penwidth=2]
    311 -> 387 [penwidth=2]
    18 -> 387 [penwidth=2]
    270 -> 387 [penwidth=2]
    312 -> 387 [penwidth=2]
    19 -> 387 [penwidth=2]
    271 -> 387 [penwidth=2]
    313 -> 387 [penwidth=2]
    20 -> 387 [penwidth=2]
    272 -> 387 [penwidth=2]
    314 -> 387 [penwidth=2]
    21 -> 387 [penwidth=2]
    273 -> 387 [penwidth=2]
    315 -> 387 [penwidth=2]
    22 -> 387 [penwidth=2]
    274 -> 387 [penwidth=2]
    316 -> 387 [penwidth=2]
    23 -> 387 [penwidth=2]
    275 -> 387 [penwidth=2]
    317 -> 387 [penwidth=2]
    24 -> 387 [penwidth=2]
    276 -> 387 [penwidth=2]
    318 -> 387 [penwidth=2]
    25 -> 387 [penwidth=2]
    277 -> 387 [penwidth=2]
    319 -> 387 [penwidth=2]
    26 -> 387 [penwidth=2]
    278 -> 387 [penwidth=2]
    320 -> 388 [penwidth=2]
    27 -> 388 [penwidth=2]
    279 -> 388 [penwidth=2]
    321 -> 388 [penwidth=2]
    28 -> 388 [penwidth=2]
    280 -> 388 [penwidth=2]
    322 -> 388 [penwidth=2]
    29 -> 388 [penwidth=2]
    281 -> 388 [penwidth=2]
    323 -> 388 [penwidth=2]
    30 -> 388 [penwidth=2]
    282 -> 388 [penwidth=2]
    324 -> 388 [penwidth=2]
    31 -> 388 [penwidth=2]
    283 -> 388 [penwidth=2]
    325 -> 388 [penwidth=2]
    32 -> 388 [penwidth=2]
    284 -> 388 [penwidth=2]
    326 -> 388 [penwidth=2]
    33 -> 388 [penwidth=2]
    285 -> 388 [penwidth=2]
    327 -> 388 [penwidth=2]
    34 -> 388 [penwidth=2]
    286 -> 388 [penwidth=2]
    328 -> 389 [penwidth=2]
    35 -> 389 [penwidth=2]
    287 -> 389 [penwidth=2]
    329 -> 389 [penwidth=2]
    36 -> 389 [penwidth=2]
    288 -> 389 [penwidth=2]
    330 -> 389 [penwidth=2]
    37 -> 389 [penwidth=2]
    289 -> 389 [penwidth=2]
    331 -> 389 [penwidth=2]
    38 -> 389 [penwidth=2]
    290 -> 390 [penwidth=2]
    332 -> 390 [penwidth=2]
    39 -> 390 [penwidth=2]
    291 -> 390 [penwidth=2]
    333 -> 390 [penwidth=2]
    40 -> 390 [penwidth=2]
    292 -> 390 [penwidth=2]
    334 -> 390 [penwidth=2]
    41 -> 390 [penwidth=2]
    293 -> 390 [penwidth=2]
    335 -> 390 [penwidth=2]
    42 -> 390 [penwidth=2]
    294 -> 390 [penwidth=2]
    336 -> 390 [penwidth=2]
    43 -> 390 [penwidth=2]
    295 -> 390 [penwidth=2]
    337 -> 390 [penwidth=2]
    44 -> 390 [penwidth=2]
    296 -> 390 [penwidth=2]
    338 -> 390 [penwidth=2]
    45 -> 390 [penwidth=2]
    297 -> 390 [penwidth=2]
    339 -> 390 [penwidth=2]
    214 -> 391 [penwidth=2]
    215 -> 391 [penwidth=2]
    216 -> 391 [penwidth=2]
    217 -> 391 [penwidth=2]
    218 -> 391 [penwidth=2]
    219 -> 391 [penwidth=2]
    220 -> 391 [penwidth=2]
    221 -> 391 [penwidth=2]
    222 -> 391 [penwidth=2]
    223 -> 391 [penwidth=2]
    224 -> 391 [penwidth=2]
    225 -> 391 [penwidth=2]
    226 -> 391 [penwidth=2]
    227 -> 391 [penwidth=2]
    228 -> 391 [penwidth=2]
    229 -> 391 [penwidth=2]
    230 -> 391 [penwidth=2]
    231 -> 391 [penwidth=2]
    232 -> 391 [penwidth=2]
    233 -> 391 [penwidth=2]
    234 -> 391 [penwidth=2]
    235 -> 391 [penwidth=2]
    236 -> 392 [penwidth=2]
    237 -> 392 [penwidth=2]
    86 -> 392 [penwidth=2]
    238 -> 392 [penwidth=2]
    239 -> 392 [penwidth=2]
    240 -> 392 [penwidth=2]
    241 -> 392 [penwidth=2]
    242 -> 392 [penwidth=2]
    87 -> 392 [penwidth=2]
    243 -> 393 [penwidth=2]
    244 -> 393 [penwidth=2]
    245 -> 393 [penwidth=2]
    246 -> 393 [penwidth=2]
    247 -> 393 [penwidth=2]
    128 -> 393 [penwidth=2]
    248 -> 393 [penwidth=2]
    249 -> 393 [penwidth=2]
    250 -> 393 [penwidth=2]
    251 -> 393 [penwidth=2]
    252 -> 393 [penwidth=2]
    1 -> 393 [penwidth=2]
    129 -> 393 [penwidth=2]
    253 -> 393 [penwidth=2]
    254 -> 393 [penwidth=2]
    2 -> 393 [penwidth=2]
    255 -> 394 [penwidth=2]
    3 -> 394 [penwidth=2]
    172 -> 394 [penwidth=2]
    173 -> 394 [penwidth=2]
    174 -> 394 [penwidth=2]
    175 -> 394 [penwidth=2]
    176 -> 394 [penwidth=2]
    177 -> 394 [penwidth=2]
    178 -> 394 [penwidth=2]
    179 -> 394 [penwidth=2]
    180 -> 394 [penwidth=2]
    181 -> 394 [penwidth=2]
    182 -> 394 [penwidth=2]
    183 -> 394 [penwidth=2]
    184 -> 394 [penwidth=2]
    185 -> 394 [penwidth=2]
    186 -> 394 [penwidth=2]
    187 -> 394 [penwidth=2]
    188 -> 394 [penwidth=2]
    189 -> 394 [penwidth=2]
    190 -> 394 [penwidth=2]
    191 -> 394 [penwidth=2]
    192 -> 394 [penwidth=2]
    193 -> 394 [penwidth=2]
    194 -> 394 [penwidth=2]
    195 -> 394 [penwidth=2]
    196 -> 394 [penwidth=2]
    197 -> 395 [penwidth=2]
    198 -> 395 [penwidth=2]
    199 -> 395 [penwidth=2]
    200 -> 395 [penwidth=2]
    201 -> 395 [penwidth=2]
    202 -> 395 [penwidth=2]
    203 -> 395 [penwidth=2]
    204 -> 395 [penwidth=2]
    205 -> 396 [penwidth=2]
    206 -> 396 [penwidth=2]
    207 -> 396 [penwidth=2]
    208 -> 396 [penwidth=2]
    209 -> 396 [penwidth=2]
    210 -> 396 [penwidth=2]
    211 -> 396 [penwidth=2]
    212 -> 396 [penwidth=2]
    213 -> 396 [penwidth=2]
    46 -> 396 [penwidth=2]
    88 -> 397 [penwidth=2]
    130 -> 397 [penwidth=2]
    47 -> 397 [penwidth=2]
    89 -> 397 [penwidth=2]
    131 -> 397 [penwidth=2]
    48 -> 397 [penwidth=2]
    90 -> 397 [penwidth=2]
    132 -> 397 [penwidth=2]
    49 -> 398 [penwidth=2]
    91 -> 398 [penwidth=2]
    133 -> 398 [penwidth=2]
    50 -> 398 [penwidth=2]
    92 -> 398 [penwidth=2]
    134 -> 398 [penwidth=2]
    51 -> 398 [penwidth=2]
    93 -> 398 [penwidth=2]
    135 -> 398 [penwidth=2]
    52 -> 398 [penwidth=2]
    94 -> 398 [penwidth=2]
    136 -> 398 [penwidth=2]
    53 -> 398 [penwidth=2]
    95 -> 398 [penwidth=2]
    137 -> 398 [penwidth=2]
    54 -> 398 [penwidth=2]
    96 -> 398 [penwidth=2]
    138 -> 398 [penwidth=2]
    55 -> 398 [penwidth=2]
    97 -> 399 [penwidth=2]
    139 -> 399 [penwidth=2]
    56 -> 399 [penwidth=2]
    98 -> 399 [penwidth=2]
    140 -> 399 [penwidth=2]
    57 -> 399 [penwidth=2]
    99 -> 399 [penwidth=2]
    141 -> 399 [penwidth=2]
    58 -> 399 [penwidth=2]
    100 -> 399 [penwidth=2]
    142 -> 399 [penwidth=2]
    59 -> 399 [penwidth=2]
    101 -> 399 [penwidth=2]
    143 -> 399 [penwidth=2]
    60 -> 399 [penwidth=2]
    102 -> 399 [penwidth=2]
    144 -> 399 [penwidth=2]
    61 -> 399 [penwidth=2]
    103 -> 399 [penwidth=2]
    145 -> 399 [penwidth=2]
    62 -> 399 [penwidth=2]
    104 -> 399 [penwidth=2]
    146 -> 399 [penwidth=2]
    63 -> 340 [penwidth=2]
    105 -> 340 [penwidth=2]
    147 -> 340 [penwidth=2]
    64 -> 340 [penwidth=2]
    106 -> 340 [penwidth=2]
    148 -> 340 [penwidth=2]
    65 -> 340 [penwidth=2]
    107 -> 340 [penwidth=2]
    149 -> 340 [penwidth=2]
    66 -> 340 [penwidth=2]
    108 -> 340 [penwidth=2]
    150 -> 340 [penwidth=2]
    67 -> 340 [penwidth=2]
    109 -> 340 [penwidth=2]
    151 -> 340 [penwidth=2]
    68 -> 340 [penwidth=2]
    110 -> 340 [penwidth=2]
    152 -> 340 [penwidth=2]
    69 -> 340 [penwidth=2]
    111 -> 340 [penwidth=2]
    153 -> 340 [penwidth=2]
    70 -> 341 [penwidth=2]
    112 -> 341 [penwidth=2]
    154 -> 341 [penwidth=2]
    71 -> 341 [penwidth=2]
    113 -> 341 [penwidth=2]
    155 -> 341 [penwidth=2]
    72 -> 342 [penwidth=2]
    114 -> 342 [penwidth=2]
    156 -> 342 [penwidth=2]
    73 -> 342 [penwidth=2]
    115 -> 342 [penwidth=2]
    157 -> 342 [penwidth=2]
    74 -> 342 [penwidth=2]
    116 -> 342 [penwidth=2]
    158 -> 342 [penwidth=2]
    75 -> 342 [penwidth=2]
    117 -> 342 [penwidth=2]
    159 -> 342 [penwidth=2]
    76 -> 342 [penwidth=2]
    118 -> 342 [penwidth=2]
    160 -> 342 [penwidth=2]
    77 -> 342 [penwidth=2]
    119 -> 342 [penwidth=2]
    161 -> 342 [penwidth=2]
    78 -> 342 [penwidth=2]
    120 -> 342 [penwidth=2]
    162 -> 342 [penwidth=2]
    79 -> 342 [penwidth=2]
    121 -> 342 [penwidth=2]
    163 -> 342 [penwidth=2]
    80 -> 342 [penwidth=2]
    122 -> 342 [penwidth=2]
    164 -> 342 [penwidth=2]
    81 -> 343 [penwidth=2]
    123 -> 343 [penwidth=2]
    165 -> 343 [penwidth=2]
    82 -> 343 [penwidth=2]
    124 -> 343 [penwidth=2]
    166 -> 343 [penwidth=2]
    83 -> 343 [penwidth=2]
    125 -> 343 [penwidth=2]
    167 -> 343 [penwidth=2]
    84 -> 343 [penwidth=2]
    126 -> 343 [penwidth=2]
    168 -> 343 [penwidth=2]
    85 -> 343 [penwidth=2]
    127 -> 343 [penwidth=2]
    169 -> 343 [penwidth=2]
    170 -> 343 [penwidth=2]
    171 -> 344 [penwidth=2]
    392 -> 385 [penwidth=2]
    346 -> 389 [penwidth=2]
    346 -> 384 [penwidth=2]
    346 -> 388 [penwidth=2]
    346 -> 386 [penwidth=2]
    346 -> 387 [penwidth=2]
    349 -> 385 [penwidth=2]
    360 -> 385 [penwidth=2]
    360 -> 390 [penwidth=2]
    360 -> 388 [penwidth=2]
    364 -> 385 [penwidth=2]
    364 -> 383 [penwidth=2]
    364 -> 388 [penwidth=2]
    364 -> 386 [penwidth=2]
    364 -> 390 [penwidth=2]
    364 -> 387 [penwidth=2]
    364 -> 382 [penwidth=2]
    365 -> 386 [penwidth=2]
    365 -> 390 [penwidth=2]
    365 -> 382 [penwidth=2]
    365 -> 387 [penwidth=2]
    365 -> 388 [penwidth=2]
    365 -> 385 [penwidth=2]
    365 -> 383 [penwidth=2]
    372 -> 383 [penwidth=2]
    372 -> 389 [penwidth=2]
    375 -> 385 [penwidth=2]
    380 -> 390 [penwidth=2]
    305 -> 385 [penwidth=2]
    305 -> 382 [penwidth=2]
    307 -> 382 [penwidth=2]
    267 -> 389 [penwidth=2]
    309 -> 387 [penwidth=2]
    309 -> 384 [penwidth=2]
    309 -> 389 [penwidth=2]
    309 -> 390 [penwidth=2]
    309 -> 388 [penwidth=2]
    309 -> 383 [penwidth=2]
    311 -> 383 [penwidth=2]
    311 -> 385 [penwidth=2]
    21 -> 383 [penwidth=2]
    21 -> 382 [penwidth=2]
    21 -> 388 [penwidth=2]
    21 -> 386 [penwidth=2]
    21 -> 389 [penwidth=2]
    316 -> 389 [penwidth=2]
    316 -> 385 [penwidth=2]
    278 -> 389 [penwidth=2]
    278 -> 388 [penwidth=2]
    278 -> 386 [penwidth=2]
    278 -> 383 [penwidth=2]
    278 -> 384 [penwidth=2]
    326 -> 387 [penwidth=2]
    326 -> 390 [penwidth=2]
    327 -> 387 [penwidth=2]
    335 -> 388 [penwidth=2]
    335 -> 387 [penwidth=2]
    335 -> 382 [penwidth=2]
    335 -> 385 [penwidth=2]
    42 -> 384 [penwidth=2]
    42 -> 383 [penwidth=2]
    42 -> 385 [penwidth=2]
    42 -> 382 [penwidth=2]
    42 -> 387 [penwidth=2]
    42 -> 388 [penwidth=2]
    219 -> 263 [penwidth=2]
    219 -> 15 [penwidth=2]
    219 -> 282 [penwidth=2]
    219 -> 272 [penwidth=2]
    219 -> 273 [penwidth=2]
    219 -> 351 [penwidth=2]
    219 -> 271 [penwidth=2]
    219 -> 295 [penwidth=2]
    219 -> 34 [penwidth=2]
    219 -> 362 [penwidth=2]
    219 -> 376 [penwidth=2]
    219 -> 367 [penwidth=2]
    219 -> 334 [penwidth=2]
    219 -> 304 [penwidth=2]
    219 -> 281 [penwidth=2]
    219 -> 380 [penwidth=2]
    219 -> 324 [penwidth=2]
    219 -> 373 [penwidth=2]
    219 -> 311 [penwidth=2]
    219 -> 393 [penwidth=2]
    219 -> 308 [penwidth=2]
    219 -> 21 [penwidth=2]
    219 -> 312 [penwidth=2]
    219 -> 9 [penwidth=2]
    219 -> 355 [penwidth=2]
    219 -> 38 [penwidth=2]
    219 -> 319 [penwidth=2]
    219 -> 349 [penwidth=2]
    219 -> 16 [penwidth=2]
    219 -> 12 [penwidth=2]
    219 -> 264 [penwidth=2]
    219 -> 6 [penwidth=2]
    219 -> 317 [penwidth=2]
    219 -> 25 [penwidth=2]
    219 -> 394 [penwidth=2]
    219 -> 356 [penwidth=2]
    219 -> 301 [penwidth=2]
    219 -> 303 [penwidth=2]
    219 -> 395 [penwidth=2]
    219 -> 306 [penwidth=2]
    219 -> 28 [penwidth=2]
    219 -> 44 [penwidth=2]
    219 -> 354 [penwidth=2]
    219 -> 352 [penwidth=2]
    219 -> 398 [penwidth=2]
    219 -> 283 [penwidth=2]
    219 -> 269 [penwidth=2]
    219 -> 353 [penwidth=2]
    219 -> 299 [penwidth=2]
    219 -> 293 [penwidth=2]
    219 -> 260 [penwidth=2]
    219 -> 336 [penwidth=2]
    219 -> 290 [penwidth=2]
    219 -> 327 [penwidth=2]
    219 -> 307 [penwidth=2]
    219 -> 340 [penwidth=2]
    219 -> 277 [penwidth=2]
    219 -> 392 [penwidth=2]
    219 -> 14 [penwidth=2]
    219 -> 35 [penwidth=2]
    219 -> 374 [penwidth=2]
    219 -> 288 [penwidth=2]
    219 -> 377 [penwidth=2]
    219 -> 360 [penwidth=2]
    219 -> 297 [penwidth=2]
    219 -> 365 [penwidth=2]
    219 -> 31 [penwidth=2]
    219 -> 289 [penwidth=2]
    219 -> 329 [penwidth=2]
    219 -> 278 [penwidth=2]
    219 -> 333 [penwidth=2]
    219 -> 379 [penwidth=2]
    219 -> 5 [penwidth=2]
    219 -> 279 [penwidth=2]
    219 -> 315 [penwidth=2]
    219 -> 328 [penwidth=2]
    219 -> 310 [penwidth=2]
    219 -> 321 [penwidth=2]
    219 -> 4 [penwidth=2]
    219 -> 280 [penwidth=2]
    219 -> 358 [penwidth=2]
    219 -> 364 [penwidth=2]
    219 -> 309 [penwidth=2]
    219 -> 300 [penwidth=2]
    219 -> 26 [penwidth=2]
    219 -> 294 [penwidth=2]
    219 -> 266 [penwidth=2]
    219 -> 29 [penwidth=2]
    219 -> 41 [penwidth=2]
    219 -> 36 [penwidth=2]
    219 -> 344 [penwidth=2]
    219 -> 316 [penwidth=2]
    219 -> 284 [penwidth=2]
    219 -> 32 [penwidth=2]
    219 -> 348 [penwidth=2]
    219 -> 23 [penwidth=2]
    219 -> 342 [penwidth=2]
    219 -> 314 [penwidth=2]
    219 -> 326 [penwidth=2]
    219 -> 318 [penwidth=2]
    219 -> 11 [penwidth=2]
    219 -> 330 [penwidth=2]
    219 -> 370 [penwidth=2]
    219 -> 363 [penwidth=2]
    219 -> 322 [penwidth=2]
    219 -> 285 [penwidth=2]
    219 -> 343 [penwidth=2]
    219 -> 262 [penwidth=2]
    219 -> 338 [penwidth=2]
    219 -> 265 [penwidth=2]
    219 -> 396 [penwidth=2]
    219 -> 27 [penwidth=2]
    219 -> 33 [penwidth=2]
    219 -> 346 [penwidth=2]
    219 -> 325 [penwidth=2]
    219 -> 357 [penwidth=2]
    219 -> 19 [penwidth=2]
    219 -> 30 [penwidth=2]
    219 -> 268 [penwidth=2]
    219 -> 323 [penwidth=2]
    219 -> 313 [penwidth=2]
    219 -> 39 [penwidth=2]
    219 -> 347 [penwidth=2]
    219 -> 320 [penwidth=2]
    219 -> 368 [penwidth=2]
    219 -> 42 [penwidth=2]
    219 -> 13 [penwidth=2]
    219 -> 397 [penwidth=2]
    219 -> 331 [penwidth=2]
    219 -> 369 [penwidth=2]
    219 -> 270 [penwidth=2]
    219 -> 22 [penwidth=2]
    219 -> 359 [penwidth=2]
    219 -> 256 [penwidth=2]
    219 -> 258 [penwidth=2]
    219 -> 375 [penwidth=2]
    219 -> 381 [penwidth=2]
    219 -> 7 [penwidth=2]
    219 -> 399 [penwidth=2]
    219 -> 350 [penwidth=2]
    219 -> 371 [penwidth=2]
    219 -> 298 [penwidth=2]
    219 -> 261 [penwidth=2]
    219 -> 337 [penwidth=2]
    219 -> 372 [penwidth=2]
    219 -> 267 [penwidth=2]
    219 -> 10 [penwidth=2]
    219 -> 37 [penwidth=2]
    219 -> 366 [penwidth=2]
    219 -> 332 [penwidth=2]
    219 -> 257 [penwidth=2]
    219 -> 378 [penwidth=2]
    219 -> 296 [penwidth=2]
    219 -> 18 [penwidth=2]
    219 -> 276 [penwidth=2]
    219 -> 361 [penwidth=2]
    219 -> 40 [penwidth=2]
    219 -> 286 [penwidth=2]
    219 -> 345 [penwidth=2]
    219 -> 24 [penwidth=2]
    219 -> 274 [penwidth=2]
    219 -> 17 [penwidth=2]
    219 -> 302 [penwidth=2]
    219 -> 341 [penwidth=2]
    219 -> 339 [penwidth=2]
    219 -> 287 [penwidth=2]
    219 -> 335 [penwidth=2]
    219 -> 20 [penwidth=2]
    219 -> 275 [penwidth=2]
    219 -> 259 [penwidth=2]
    219 -> 291 [penwidth=2]
    219 -> 45 [penwidth=2]
    219 -> 305 [penwidth=2]
    219 -> 292 [penwidth=2]
    219 -> 8 [penwidth=2]
    86 -> 256 [penwidth=2]
    86 -> 363 [penwidth=2]
    86 -> 320 [penwidth=2]
    86 -> 330 [penwidth=2]
    86 -> 21 [penwidth=2]
    86 -> 328 [penwidth=2]
    86 -> 289 [penwidth=2]
    86 -> 40 [penwidth=2]
    86 -> 373 [penwidth=2]
    86 -> 25 [penwidth=2]
    86 -> 364 [penwidth=2]
    86 -> 327 [penwidth=2]
    86 -> 342 [penwidth=2]
    86 -> 18 [penwidth=2]
    86 -> 352 [penwidth=2]
    86 -> 377 [penwidth=2]
    86 -> 324 [penwidth=2]
    86 -> 278 [penwidth=2]
    86 -> 5 [penwidth=2]
    86 -> 323 [penwidth=2]
    86 -> 295 [penwidth=2]
    86 -> 314 [penwidth=2]
    86 -> 338 [penwidth=2]
    86 -> 396 [penwidth=2]
    86 -> 27 [penwidth=2]
    86 -> 14 [penwidth=2]
    86 -> 376 [penwidth=2]
    86 -> 356 [penwidth=2]
    86 -> 319 [penwidth=2]
    86 -> 336 [penwidth=2]
    86 -> 300 [penwidth=2]
    86 -> 34 [penwidth=2]
    86 -> 306 [penwidth=2]
    86 -> 259 [penwidth=2]
    86 -> 304 [penwidth=2]
    86 -> 29 [penwidth=2]
    86 -> 6 [penwidth=2]
    86 -> 271 [penwidth=2]
    86 -> 293 [penwidth=2]
    86 -> 276 [penwidth=2]
    86 -> 317 [penwidth=2]
    86 -> 345 [penwidth=2]
    86 -> 344 [penwidth=2]
    86 -> 334 [penwidth=2]
    86 -> 313 [penwidth=2]
    86 -> 42 [penwidth=2]
    86 -> 264 [penwidth=2]
    86 -> 33 [penwidth=2]
    86 -> 321 [penwidth=2]
    86 -> 291 [penwidth=2]
    86 -> 309 [penwidth=2]
    86 -> 398 [penwidth=2]
    86 -> 335 [penwidth=2]
    86 -> 354 [penwidth=2]
    86 -> 281 [penwidth=2]
    86 -> 286 [penwidth=2]
    86 -> 360 [penwidth=2]
    86 -> 395 [penwidth=2]
    86 -> 369 [penwidth=2]
    86 -> 7 [penwidth=2]
    86 -> 265 [penwidth=2]
    86 -> 349 [penwidth=2]
    86 -> 28 [penwidth=2]
    86 -> 274 [penwidth=2]
    86 -> 20 [penwidth=2]
    86 -> 267 [penwidth=2]
    86 -> 287 [penwidth=2]
    86 -> 43 [penwidth=2]
    86 -> 341 [penwidth=2]
    86 -> 37 [penwidth=2]
    86 -> 277 [penwidth=2]
    86 -> 348 [penwidth=2]
    86 -> 311 [penwidth=2]
    86 -> 283 [penwidth=2]
    86 -> 17 [penwidth=2]
    86 -> 305 [penwidth=2]
    86 -> 357 [penwidth=2]
    86 -> 292 [penwidth=2]
    86 -> 378 [penwidth=2]
    86 -> 39 [penwidth=2]
    86 -> 272 [penwidth=2]
    86 -> 340 [penwidth=2]
    86 -> 30 [penwidth=2]
    86 -> 15 [penwidth=2]
    86 -> 41 [penwidth=2]
    86 -> 359 [penwidth=2]
    86 -> 358 [penwidth=2]
    86 -> 301 [penwidth=2]
    86 -> 282 [penwidth=2]
    86 -> 288 [penwidth=2]
    86 -> 298 [penwidth=2]
    86 -> 10 [penwidth=2]
    86 -> 371 [penwidth=2]
    86 -> 372 [penwidth=2]
    86 -> 318 [penwidth=2]
    86 -> 316 [penwidth=2]
    86 -> 9 [penwidth=2]
    86 -> 337 [penwidth=2]
    86 -> 263 [penwidth=2]
    86 -> 262 [penwidth=2]
    86 -> 310 [penwidth=2]
    86 -> 332 [penwidth=2]
    86 -> 325 [penwidth=2]
    86 -> 266 [penwidth=2]
    86 -> 399 [penwidth=2]
    86 -> 315 [penwidth=2]
    86 -> 31 [penwidth=2]
    86 -> 366 [penwidth=2]
    86 -> 13 [penwidth=2]
    86 -> 36 [penwidth=2]
    86 -> 261 [penwidth=2]
    86 -> 4 [penwidth=2]
    86 -> 268 [penwidth=2]
    86 -> 355 [penwidth=2]
    86 -> 12 [penwidth=2]
    86 -> 333 [penwidth=2]
    86 -> 391 [penwidth=2]
    86 -> 365 [penwidth=2]
    86 -> 303 [penwidth=2]
    86 -> 258 [penwidth=2]
    86 -> 26 [penwidth=2]
    86 -> 285 [penwidth=2]
    86 -> 257 [penwidth=2]
    86 -> 24 [penwidth=2]
    86 -> 368 [penwidth=2]
    86 -> 38 [penwidth=2]
    86 -> 381 [penwidth=2]
    86 -> 299 [penwidth=2]
    86 -> 296 [penwidth=2]
    86 -> 279 [penwidth=2]
    86 -> 16 [penwidth=2]
    86 -> 343 [penwidth=2]
    86 -> 302 [penwidth=2]
    86 -> 329 [penwidth=2]
    86 -> 393 [penwidth=2]
    86 -> 294 [penwidth=2]
    86 -> 269 [penwidth=2]
    86 -> 397 [penwidth=2]
    86 -> 347 [penwidth=2]
    86 -> 273 [penwidth=2]
    86 -> 23 [penwidth=2]
    86 -> 331 [penwidth=2]
    86 -> 350 [penwidth=2]
    86 -> 35 [penwidth=2]
    86 -> 44 [penwidth=2]
    86 -> 322 [penwidth=2]
    86 -> 362 [penwidth=2]
    86 -> 260 [penwidth=2]
    86 -> 297 [penwidth=2]
    86 -> 8 [penwidth=2]
    86 -> 353 [penwidth=2]
    86 -> 367 [penwidth=2]
    86 -> 346 [penwidth=2]
    86 -> 312 [penwidth=2]
    86 -> 379 [penwidth=2]
    86 -> 339 [penwidth=2]
    86 -> 394 [penwidth=2]
    86 -> 380 [penwidth=2]
    177 -> 29 [penwidth=2]
    177 -> 342 [penwidth=2]
    177 -> 362 [penwidth=2]
    177 -> 365 [penwidth=2]
    177 -> 312 [penwidth=2]
    177 -> 290 [penwidth=2]
    177 -> 24 [penwidth=2]
    177 -> 372 [penwidth=2]
    177 -> 323 [penwidth=2]
    177 -> 40 [penwidth=2]
    177 -> 268 [penwidth=2]
    177 -> 317 [penwidth=2]
    177 -> 303 [penwidth=2]
    177 -> 267 [penwidth=2]
    177 -> 321 [penwidth=2]
    177 -> 19 [penwidth=2]
    177 -> 265 [penwidth=2]
    177 -> 22 [penwidth=2]
    177 -> 396 [penwidth=2]
    177 -> 343 [penwidth=2]
    177 -> 335 [penwidth=2]
    177 -> 364 [penwidth=2]
    177 -> 301 [penwidth=2]
    177 -> 338 [penwidth=2]
    177 -> 339 [penwidth=2]
    177 -> 334 [penwidth=2]
    177 -> 300 [penwidth=2]
    177 -> 356 [penwidth=2]
    177 -> 288 [penwidth=2]
    177 -> 336 [penwidth=2]
    177 -> 307 [penwidth=2]
    177 -> 277 [penwidth=2]
    177 -> 26 [penwidth=2]
    177 -> 275 [penwidth=2]
    177 -> 314 [penwidth=2]
    177 -> 331 [penwidth=2]
    177 -> 318 [penwidth=2]
    177 -> 10 [penwidth=2]
    177 -> 309 [penwidth=2]
    177 -> 11 [penwidth=2]
    177 -> 270 [penwidth=2]
    177 -> 7 [penwidth=2]
    177 -> 311 [penwidth=2]
    177 -> 310 [penwidth=2]
    177 -> 258 [penwidth=2]
    177 -> 38 [penwidth=2]
    177 -> 378 [penwidth=2]
    177 -> 305 [penwidth=2]
    177 -> 278 [penwidth=2]
    177 -> 21 [penwidth=2]
    177 -> 271 [penwidth=2]
    177 -> 8 [penwidth=2]
    177 -> 266 [penwidth=2]
    177 -> 44 [penwidth=2]
    177 -> 349 [penwidth=2]
    177 -> 381 [penwidth=2]
    177 -> 43 [penwidth=2]
    177 -> 272 [penwidth=2]
    177 -> 274 [penwidth=2]
    177 -> 45 [penwidth=2]
    177 -> 269 [penwidth=2]
    177 -> 304 [penwidth=2]
    177 -> 340 [penwidth=2]
    177 -> 325 [penwidth=2]
    177 -> 273 [penwidth=2]
    177 -> 23 [penwidth=2]
    177 -> 261 [penwidth=2]
    177 -> 341 [penwidth=2]
    177 -> 285 [penwidth=2]
    177 -> 354 [penwidth=2]
    177 -> 330 [penwidth=2]
    177 -> 395 [penwidth=2]
    177 -> 12 [penwidth=2]
    177 -> 36 [penwidth=2]
    177 -> 279 [penwidth=2]
    177 -> 322 [penwidth=2]
    177 -> 37 [penwidth=2]
    177 -> 348 [penwidth=2]
    177 -> 17 [penwidth=2]
    177 -> 366 [penwidth=2]
    177 -> 9 [penwidth=2]
    177 -> 5 [penwidth=2]
    177 -> 352 [penwidth=2]
    177 -> 13 [penwidth=2]
    177 -> 369 [penwidth=2]
    177 -> 297 [penwidth=2]
    177 -> 399 [penwidth=2]
    177 -> 357 [penwidth=2]
    177 -> 25 [penwidth=2]
    177 -> 14 [penwidth=2]
    177 -> 374 [penwidth=2]
    177 -> 30 [penwidth=2]
    177 -> 377 [penwidth=2]
    177 -> 16 [penwidth=2]
    177 -> 34 [penwidth=2]
    177 -> 293 [penwidth=2]
    177 -> 4 [penwidth=2]
    177 -> 280 [penwidth=2]
    183 -> 291 [penwidth=2]
    183 -> 11 [penwidth=2]
    183 -> 260 [penwidth=2]
    183 -> 30 [penwidth=2]
    183 -> 258 [penwidth=2]
    183 -> 314 [penwidth=2]
    183 -> 368 [penwidth=2]
    183 -> 306 [penwidth=2]
    183 -> 25 [penwidth=2]
    183 -> 327 [penwidth=2]
    183 -> 298 [penwidth=2]
    183 -> 339 [penwidth=2]
    183 -> 27 [penwidth=2]
    183 -> 361 [penwidth=2]
    183 -> 363 [penwidth=2]
    183 -> 372 [penwidth=2]
    183 -> 312 [penwidth=2]
    183 -> 316 [penwidth=2]
    183 -> 307 [penwidth=2]
    183 -> 31 [penwidth=2]
    183 -> 282 [penwidth=2]
    183 -> 257 [penwidth=2]
    183 -> 348 [penwidth=2]
    183 -> 378 [penwidth=2]
    183 -> 302 [penwidth=2]
    183 -> 399 [penwidth=2]
    183 -> 274 [penwidth=2]
    183 -> 349 [penwidth=2]
    183 -> 352 [penwidth=2]
    183 -> 338 [penwidth=2]
    183 -> 315 [penwidth=2]
    183 -> 317 [penwidth=2]
    183 -> 33 [penwidth=2]
    183 -> 266 [penwidth=2]
    183 -> 24 [penwidth=2]
    183 -> 7 [penwidth=2]
    183 -> 354 [penwidth=2]
    183 -> 311 [penwidth=2]
    183 -> 22 [penwidth=2]
    183 -> 336 [penwidth=2]
    183 -> 371 [penwidth=2]
    183 -> 19 [penwidth=2]
    183 -> 284 [penwidth=2]
    183 -> 319 [penwidth=2]
    183 -> 337 [penwidth=2]
    183 -> 286 [penwidth=2]
    183 -> 357 [penwidth=2]
    183 -> 38 [penwidth=2]
    183 -> 375 [penwidth=2]
    183 -> 340 [penwidth=2]
    183 -> 355 [penwidth=2]
    183 -> 344 [penwidth=2]
    183 -> 14 [penwidth=2]
    183 -> 299 [penwidth=2]
    183 -> 341 [penwidth=2]
    183 -> 343 [penwidth=2]
    183 -> 391 [penwidth=2]
    183 -> 36 [penwidth=2]
    183 -> 45 [penwidth=2]
    183 -> 329 [penwidth=2]
    183 -> 379 [penwidth=2]
    183 -> 377 [penwidth=2]
    183 -> 263 [penwidth=2]
    183 -> 297 [penwidth=2]
    183 -> 44 [penwidth=2]
    183 -> 270 [penwidth=2]
    183 -> 351 [penwidth=2]
    183 -> 395 [penwidth=2]
    183 -> 269 [penwidth=2]
    183 -> 293 [penwidth=2]
    183 -> 305 [penwidth=2]
    183 -> 396 [penwidth=2]
    183 -> 369 [penwidth=2]
    183 -> 347 [penwidth=2]
    183 -> 318 [penwidth=2]
    183 -> 262 [penwidth=2]
    183 -> 397 [penwidth=2]
    183 -> 304 [penwidth=2]
    183 -> 324 [penwidth=2]
    183 -> 356 [penwidth=2]
    183 -> 392 [penwidth=2]
    183 -> 273 [penwidth=2]
    183 -> 289 [penwidth=2]
    183 -> 370 [penwidth=2]
    183 -> 362 [penwidth=2]
    183 -> 353 [penwidth=2]
    183 -> 332 [penwidth=2]
    183 -> 267 [penwidth=2]
    183 -> 271 [penwidth=2]
    183 -> 367 [penwidth=2]
    183 -> 281 [penwidth=2]
    183 -> 26 [penwidth=2]
    183 -> 321 [penwidth=2]
    183 -> 331 [penwidth=2]
    183 -> 290 [penwidth=2]
    183 -> 4 [penwidth=2]
    183 -> 279 [penwidth=2]
    183 -> 34 [penwidth=2]
    183 -> 288 [penwidth=2]
    183 -> 280 [penwidth=2]
    183 -> 268 [penwidth=2]
    183 -> 350 [penwidth=2]
    183 -> 374 [penwidth=2]
    183 -> 330 [penwidth=2]
    183 -> 283 [penwidth=2]
    183 -> 13 [penwidth=2]
    183 -> 18 [penwidth=2]
    183 -> 261 [penwidth=2]
    183 -> 303 [penwidth=2]
    183 -> 334 [penwidth=2]
    183 -> 41 [penwidth=2]
    183 -> 37 [penwidth=2]
    183 -> 322 [penwidth=2]
    183 -> 20 [penwidth=2]
    183 -> 365 [penwidth=2]
    183 -> 294 [penwidth=2]
    183 -> 364 [penwidth=2]
    183 -> 342 [penwidth=2]
    183 -> 381 [penwidth=2]
    183 -> 42 [penwidth=2]
    183 -> 32 [penwidth=2]
    183 -> 301 [penwidth=2]
    183 -> 29 [penwidth=2]
    183 -> 264 [penwidth=2]
    183 -> 259 [penwidth=2]
    183 -> 276 [penwidth=2]
    183 -> 6 [penwidth=2]
    183 -> 358 [penwidth=2]
    183 -> 272 [penwidth=2]
    183 -> 373 [penwidth=2]
    183 -> 345 [penwidth=2]
    183 -> 296 [penwidth=2]
    183 -> 325 [penwidth=2]
    183 -> 326 [penwidth=2]
    183 -> 40 [penwidth=2]
    183 -> 310 [penwidth=2]
    183 -> 285 [penwidth=2]
    183 -> 376 [penwidth=2]
    183 -> 275 [penwidth=2]
    183 -> 9 [penwidth=2]
    183 -> 359 [penwidth=2]
    183 -> 287 [penwidth=2]
    183 -> 277 [penwidth=2]
    183 -> 346 [penwidth=2]
    189 -> 288 [penwidth=2]
    189 -> 399 [penwidth=2]
    189 -> 257 [penwidth=2]
    189 -> 37 [penwidth=2]
    189 -> 309 [penwidth=2]
    189 -> 349 [penwidth=2]
    189 -> 271 [penwidth=2]
    189 -> 14 [penwidth=2]
    189 -> 321 [penwidth=2]
    189 -> 314 [penwidth=2]
    189 -> 11 [penwidth=2]
    189 -> 325 [penwidth=2]
    189 -> 258 [penwidth=2]
    189 -> 330 [penwidth=2]
    189 -> 279 [penwidth=2]
    189 -> 26 [penwidth=2]
    189 -> 292 [penwidth=2]
    189 -> 278 [penwidth=2]
    189 -> 362 [penwidth=2]
    189 -> 377 [penwidth=2]
    189 -> 266 [penwidth=2]
    189 -> 265 [penwidth=2]
    189 -> 344 [penwidth=2]
    189 -> 305 [penwidth=2]
    189 -> 7 [penwidth=2]
    189 -> 301 [penwidth=2]
    189 -> 346 [penwidth=2]
    189 -> 375 [penwidth=2]
    189 -> 260 [penwidth=2]
    189 -> 393 [penwidth=2]
    189 -> 10 [penwidth=2]
    189 -> 25 [penwidth=2]
    189 -> 293 [penwidth=2]
    189 -> 360 [penwidth=2]
    189 -> 345 [penwidth=2]
    189 -> 277 [penwidth=2]
    189 -> 284 [penwidth=2]
    189 -> 372 [penwidth=2]
    189 -> 267 [penwidth=2]
    189 -> 262 [penwidth=2]
    189 -> 274 [penwidth=2]
    189 -> 340 [penwidth=2]
    189 -> 366 [penwidth=2]
    189 -> 343 [penwidth=2]
    189 -> 21 [penwidth=2]
    189 -> 23 [penwidth=2]
    189 -> 364 [penwidth=2]
    189 -> 263 [penwidth=2]
    189 -> 392 [penwidth=2]
    189 -> 295 [penwidth=2]
    189 -> 289 [penwidth=2]
    189 -> 276 [penwidth=2]
    189 -> 303 [penwidth=2]
    189 -> 20 [penwidth=2]
    189 -> 311 [penwidth=2]
    189 -> 335 [penwidth=2]
    189 -> 31 [penwidth=2]
    189 -> 283 [penwidth=2]
    189 -> 28 [penwidth=2]
    189 -> 36 [penwidth=2]
    189 -> 43 [penwidth=2]
    189 -> 38 [penwidth=2]
    189 -> 374 [penwidth=2]
    189 -> 44 [penwidth=2]
    189 -> 347 [penwidth=2]
    189 -> 13 [penwidth=2]
    189 -> 298 [penwidth=2]
    189 -> 391 [penwidth=2]
    189 -> 273 [penwidth=2]
    189 -> 357 [penwidth=2]
    189 -> 332 [penwidth=2]
    189 -> 317 [penwidth=2]
    189 -> 398 [penwidth=2]
    189 -> 356 [penwidth=2]
    189 -> 24 [penwidth=2]
    189 -> 40 [penwidth=2]
    189 -> 327 [penwidth=2]
    189 -> 358 [penwidth=2]
    189 -> 294 [penwidth=2]
    189 -> 310 [penwidth=2]
    189 -> 373 [penwidth=2]
    189 -> 22 [penwidth=2]
    189 -> 378 [penwidth=2]
    189 -> 316 [penwidth=2]
    189 -> 379 [penwidth=2]
    189 -> 365 [penwidth=2]
    189 -> 395 [penwidth=2]
    189 -> 312 [penwidth=2]
    189 -> 261 [penwidth=2]
    189 -> 256 [penwidth=2]
    189 -> 302 [penwidth=2]
    189 -> 8 [penwidth=2]
    189 -> 319 [penwidth=2]
    189 -> 270 [penwidth=2]
    189 -> 369 [penwidth=2]
    189 -> 18 [penwidth=2]
    189 -> 342 [penwidth=2]
    189 -> 39 [penwidth=2]
    189 -> 323 [penwidth=2]
    189 -> 307 [penwidth=2]
    189 -> 42 [penwidth=2]
    189 -> 29 [penwidth=2]
    189 -> 308 [penwidth=2]
    189 -> 334 [penwidth=2]
    189 -> 33 [penwidth=2]
    189 -> 359 [penwidth=2]
    189 -> 322 [penwidth=2]
    189 -> 19 [penwidth=2]
    189 -> 286 [penwidth=2]
    189 -> 370 [penwidth=2]
    189 -> 371 [penwidth=2]
    189 -> 281 [penwidth=2]
    189 -> 17 [penwidth=2]
    194 -> 18 [penwidth=2]
    194 -> 303 [penwidth=2]
    194 -> 280 [penwidth=2]
    194 -> 267 [penwidth=2]
    194 -> 306 [penwidth=2]
    194 -> 9 [penwidth=2]
    194 -> 357 [penwidth=2]
    194 -> 381 [penwidth=2]
    194 -> 40 [penwidth=2]
    194 -> 297 [penwidth=2]
    194 -> 285 [penwidth=2]
    194 -> 358 [penwidth=2]
    194 -> 368 [penwidth=2]
    194 -> 7 [penwidth=2]
    194 -> 334 [penwidth=2]
    194 -> 290 [penwidth=2]
    194 -> 347 [penwidth=2]
    194 -> 362 [penwidth=2]
    194 -> 29 [penwidth=2]
    194 -> 8 [penwidth=2]
    194 -> 314 [penwidth=2]
    194 -> 356 [penwidth=2]
    194 -> 21 [penwidth=2]
    194 -> 34 [penwidth=2]
    194 -> 380 [penwidth=2]
    194 -> 288 [penwidth=2]
    194 -> 19 [penwidth=2]
    194 -> 373 [penwidth=2]
    194 -> 36 [penwidth=2]
    194 -> 374 [penwidth=2]
    194 -> 38 [penwidth=2]
    194 -> 298 [penwidth=2]
    194 -> 333 [penwidth=2]
    194 -> 322 [penwidth=2]
    194 -> 302 [penwidth=2]
    194 -> 276 [penwidth=2]
    194 -> 335 [penwidth=2]
    194 -> 4 [penwidth=2]
    194 -> 20 [penwidth=2]
    194 -> 317 [penwidth=2]
    194 -> 393 [penwidth=2]
    194 -> 299 [penwidth=2]
    194 -> 22 [penwidth=2]
    194 -> 336 [penwidth=2]
    194 -> 346 [penwidth=2]
    194 -> 378 [penwidth=2]
    194 -> 15 [penwidth=2]
    194 -> 295 [penwidth=2]
    194 -> 353 [penwidth=2]
    194 -> 312 [penwidth=2]
    194 -> 289 [penwidth=2]
    194 -> 359 [penwidth=2]
    194 -> 291 [penwidth=2]
    194 -> 348 [penwidth=2]
    194 -> 392 [penwidth=2]
    194 -> 281 [penwidth=2]
    194 -> 397 [penwidth=2]
    194 -> 259 [penwidth=2]
    194 -> 395 [penwidth=2]
    194 -> 379 [penwidth=2]
    194 -> 329 [penwidth=2]
    194 -> 286 [penwidth=2]
    194 -> 292 [penwidth=2]
    194 -> 6 [penwidth=2]
    194 -> 41 [penwidth=2]
    194 -> 377 [penwidth=2]
    194 -> 349 [penwidth=2]
    194 -> 311 [penwidth=2]
    194 -> 370 [penwidth=2]
    194 -> 330 [penwidth=2]
    194 -> 25 [penwidth=2]
    194 -> 338 [penwidth=2]
    194 -> 5 [penwidth=2]
    194 -> 287 [penwidth=2]
    194 -> 364 [penwidth=2]
    194 -> 293 [penwidth=2]
    194 -> 10 [penwidth=2]
    194 -> 258 [penwidth=2]
    194 -> 342 [penwidth=2]
    194 -> 27 [penwidth=2]
    194 -> 345 [penwidth=2]
    194 -> 30 [penwidth=2]
    194 -> 32 [penwidth=2]
    194 -> 270 [penwidth=2]
    194 -> 31 [penwidth=2]
    194 -> 352 [penwidth=2]
    194 -> 33 [penwidth=2]
    194 -> 308 [penwidth=2]
    194 -> 354 [penwidth=2]
    194 -> 257 [penwidth=2]
    194 -> 14 [penwidth=2]
    194 -> 315 [penwidth=2]
    194 -> 360 [penwidth=2]
    194 -> 296 [penwidth=2]
    194 -> 28 [penwidth=2]
    194 -> 363 [penwidth=2]
    194 -> 16 [penwidth=2]
    194 -> 316 [penwidth=2]
    194 -> 43 [penwidth=2]
    194 -> 371 [penwidth=2]
    194 -> 275 [penwidth=2]
    194 -> 283 [penwidth=2]
    194 -> 341 [penwidth=2]
    194 -> 321 [penwidth=2]
    194 -> 35 [penwidth=2]
    194 -> 260 [penwidth=2]
    194 -> 279 [penwidth=2]
    194 -> 26 [penwidth=2]
    194 -> 376 [penwidth=2]
    194 -> 313 [penwidth=2]
    194 -> 17 [penwidth=2]
    210 -> 5 [penwidth=2]
    210 -> 359 [penwidth=2]
    210 -> 38 [penwidth=2]
    210 -> 12 [penwidth=2]
    210 -> 399 [penwidth=2]
    210 -> 347 [penwidth=2]
    210 -> 19 [penwidth=2]
    210 -> 364 [penwidth=2]
    210 -> 23 [penwidth=2]
    210 -> 288 [penwidth=2]
    210 -> 279 [penwidth=2]
    210 -> 8 [penwidth=2]
    92 -> 5 [penwidth=2]
    92 -> 277 [penwidth=2]
    92 -> 358 [penwidth=2]
    92 -> 283 [penwidth=2]
    92 -> 258 [penwidth=2]
    92 -> 397 [penwidth=2]
    92 -> 317 [penwidth=2]
    92 -> 391 [penwidth=2]
    92 -> 44 [penwidth=2]
    92 -> 13 [penwidth=2]
    92 -> 295 [penwidth=2]
    92 -> 272 [penwidth=2]
    92 -> 17 [penwidth=2]
    92 -> 35 [penwidth=2]
    92 -> 343 [penwidth=2]
    92 -> 285 [penwidth=2]
    92 -> 270 [penwidth=2]
    92 -> 367 [penwidth=2]
    92 -> 12 [penwidth=2]
    92 -> 45 [penwidth=2]
    92 -> 265 [penwidth=2]
    92 -> 304 [penwidth=2]
    92 -> 287 [penwidth=2]
    92 -> 15 [penwidth=2]
    92 -> 372 [penwidth=2]
    92 -> 399 [penwidth=2]
    92 -> 381 [penwidth=2]
    92 -> 324 [penwidth=2]
    92 -> 368 [penwidth=2]
    92 -> 396 [penwidth=2]
    92 -> 310 [penwidth=2]
    92 -> 319 [penwidth=2]
    92 -> 294 [penwidth=2]
    92 -> 348 [penwidth=2]
    92 -> 302 [penwidth=2]
    92 -> 263 [penwidth=2]
    92 -> 30 [penwidth=2]
    92 -> 6 [penwidth=2]
    92 -> 335 [penwidth=2]
    92 -> 18 [penwidth=2]
    92 -> 34 [penwidth=2]
    92 -> 8 [penwidth=2]
    92 -> 37 [penwidth=2]
    92 -> 366 [penwidth=2]
    92 -> 323 [penwidth=2]
    92 -> 341 [penwidth=2]
    92 -> 19 [penwidth=2]
    92 -> 298 [penwidth=2]
    92 -> 392 [penwidth=2]
    92 -> 24 [penwidth=2]
    92 -> 378 [penwidth=2]
    92 -> 11 [penwidth=2]
    92 -> 33 [penwidth=2]
    92 -> 334 [penwidth=2]
    92 -> 318 [penwidth=2]
    92 -> 333 [penwidth=2]
    92 -> 297 [penwidth=2]
    92 -> 325 [penwidth=2]
    92 -> 27 [penwidth=2]
    92 -> 320 [penwidth=2]
    92 -> 328 [penwidth=2]
    92 -> 316 [penwidth=2]
    92 -> 353 [penwidth=2]
    92 -> 38 [penwidth=2]
    92 -> 315 [penwidth=2]
    92 -> 380 [penwidth=2]
    92 -> 365 [penwidth=2]
    92 -> 393 [penwidth=2]
    92 -> 340 [penwidth=2]
    135 -> 300 [penwidth=2]
    135 -> 363 [penwidth=2]
    135 -> 354 [penwidth=2]
    135 -> 372 [penwidth=2]
    135 -> 320 [penwidth=2]
    135 -> 396 [penwidth=2]
    135 -> 41 [penwidth=2]
    135 -> 305 [penwidth=2]
    135 -> 328 [penwidth=2]
    135 -> 312 [penwidth=2]
    135 -> 380 [penwidth=2]
    135 -> 351 [penwidth=2]
    135 -> 295 [penwidth=2]
    135 -> 271 [penwidth=2]
    135 -> 258 [penwidth=2]
    135 -> 42 [penwidth=2]
    135 -> 329 [penwidth=2]
    135 -> 340 [penwidth=2]
    135 -> 373 [penwidth=2]
    135 -> 296 [penwidth=2]
    135 -> 299 [penwidth=2]
    135 -> 260 [penwidth=2]
    135 -> 278 [penwidth=2]
    135 -> 357 [penwidth=2]
    135 -> 21 [penwidth=2]
    135 -> 370 [penwidth=2]
    135 -> 13 [penwidth=2]
    135 -> 263 [penwidth=2]
    135 -> 34 [penwidth=2]
    135 -> 283 [penwidth=2]
    135 -> 333 [penwidth=2]
    135 -> 322 [penwidth=2]
    135 -> 37 [penwidth=2]
    135 -> 265 [penwidth=2]
    135 -> 304 [penwidth=2]
    135 -> 279 [penwidth=2]
    135 -> 336 [penwidth=2]
    135 -> 359 [penwidth=2]
    135 -> 361 [penwidth=2]
    135 -> 269 [penwidth=2]
    135 -> 9 [penwidth=2]
    135 -> 22 [penwidth=2]
    135 -> 301 [penwidth=2]
    135 -> 35 [penwidth=2]
    135 -> 318 [penwidth=2]
    135 -> 393 [penwidth=2]
    135 -> 273 [penwidth=2]
    135 -> 377 [penwidth=2]
    135 -> 276 [penwidth=2]
    135 -> 349 [penwidth=2]
    135 -> 323 [penwidth=2]
    135 -> 355 [penwidth=2]
    135 -> 277 [penwidth=2]
    135 -> 335 [penwidth=2]
    135 -> 11 [penwidth=2]
    135 -> 43 [penwidth=2]
    135 -> 262 [penwidth=2]
    135 -> 30 [penwidth=2]
    135 -> 379 [penwidth=2]
    135 -> 16 [penwidth=2]
    137 -> 288 [penwidth=2]
    137 -> 286 [penwidth=2]
    137 -> 28 [penwidth=2]
    137 -> 310 [penwidth=2]
    137 -> 24 [penwidth=2]
    137 -> 333 [penwidth=2]
    137 -> 374 [penwidth=2]
    137 -> 273 [penwidth=2]
    137 -> 394 [penwidth=2]
    137 -> 332 [penwidth=2]
    137 -> 320 [penwidth=2]
    137 -> 312 [penwidth=2]
    137 -> 25 [penwidth=2]
    137 -> 392 [penwidth=2]
    137 -> 277 [penwidth=2]
    137 -> 43 [penwidth=2]
    137 -> 19 [penwidth=2]
    137 -> 395 [penwidth=2]
    137 -> 295 [penwidth=2]
    137 -> 259 [penwidth=2]
    137 -> 12 [penwidth=2]
    137 -> 42 [penwidth=2]
    137 -> 7 [penwidth=2]
    137 -> 321 [penwidth=2]
    137 -> 37 [penwidth=2]
    137 -> 268 [penwidth=2]
    137 -> 287 [penwidth=2]
    137 -> 45 [penwidth=2]
    137 -> 366 [penwidth=2]
    137 -> 347 [penwidth=2]
    137 -> 4 [penwidth=2]
    137 -> 326 [penwidth=2]
    137 -> 283 [penwidth=2]
    137 -> 36 [penwidth=2]
    137 -> 355 [penwidth=2]
    137 -> 290 [penwidth=2]
    137 -> 380 [penwidth=2]
    137 -> 271 [penwidth=2]
    137 -> 308 [penwidth=2]
    137 -> 284 [penwidth=2]
    137 -> 293 [penwidth=2]
    137 -> 302 [penwidth=2]
    137 -> 361 [penwidth=2]
    137 -> 29 [penwidth=2]
    137 -> 353 [penwidth=2]
    137 -> 370 [penwidth=2]
    137 -> 270 [penwidth=2]
    137 -> 291 [penwidth=2]
    137 -> 305 [penwidth=2]
    137 -> 352 [penwidth=2]
    137 -> 307 [penwidth=2]
    137 -> 381 [penwidth=2]
    137 -> 372 [penwidth=2]
    137 -> 13 [penwidth=2]
    137 -> 357 [penwidth=2]
    137 -> 301 [penwidth=2]
    137 -> 373 [penwidth=2]
    137 -> 351 [penwidth=2]
    137 -> 274 [penwidth=2]
    137 -> 281 [penwidth=2]
    137 -> 359 [penwidth=2]
    137 -> 35 [penwidth=2]
    137 -> 314 [penwidth=2]
    137 -> 269 [penwidth=2]
    137 -> 375 [penwidth=2]
    137 -> 364 [penwidth=2]
    137 -> 298 [penwidth=2]
    137 -> 9 [penwidth=2]
    137 -> 334 [penwidth=2]
    137 -> 275 [penwidth=2]
    137 -> 260 [penwidth=2]
    137 -> 39 [penwidth=2]
    137 -> 306 [penwidth=2]
    137 -> 341 [penwidth=2]
    137 -> 358 [penwidth=2]
    137 -> 311 [penwidth=2]
    137 -> 256 [penwidth=2]
    137 -> 279 [penwidth=2]
    137 -> 331 [penwidth=2]
    137 -> 350 [penwidth=2]
    137 -> 327 [penwidth=2]
    137 -> 376 [penwidth=2]
    137 -> 294 [penwidth=2]
    137 -> 304 [penwidth=2]
    137 -> 336 [penwidth=2]
    137 -> 399 [penwidth=2]
    137 -> 335 [penwidth=2]
    137 -> 296 [penwidth=2]
    137 -> 17 [penwidth=2]
    137 -> 40 [penwidth=2]
    137 -> 16 [penwidth=2]
    137 -> 354 [penwidth=2]
    137 -> 41 [penwidth=2]
    137 -> 329 [penwidth=2]
    137 -> 303 [penwidth=2]
    137 -> 328 [penwidth=2]
    137 -> 393 [penwidth=2]
    57 -> 346 [penwidth=2]
    57 -> 268 [penwidth=2]
    57 -> 297 [penwidth=2]
    57 -> 365 [penwidth=2]
    57 -> 336 [penwidth=2]
    57 -> 370 [penwidth=2]
    57 -> 360 [penwidth=2]
    57 -> 296 [penwidth=2]
    57 -> 366 [penwidth=2]
    57 -> 19 [penwidth=2]
    57 -> 16 [penwidth=2]
    57 -> 5 [penwidth=2]
    57 -> 25 [penwidth=2]
    57 -> 344 [penwidth=2]
    57 -> 333 [penwidth=2]
    57 -> 265 [penwidth=2]
    57 -> 293 [penwidth=2]
    57 -> 354 [penwidth=2]
    57 -> 359 [penwidth=2]
    57 -> 26 [penwidth=2]
    57 -> 24 [penwidth=2]
    57 -> 6 [penwidth=2]
    57 -> 259 [penwidth=2]
    57 -> 257 [penwidth=2]
    57 -> 273 [penwidth=2]
    57 -> 315 [penwidth=2]
    57 -> 285 [penwidth=2]
    57 -> 39 [penwidth=2]
    57 -> 283 [penwidth=2]
    57 -> 266 [penwidth=2]
    57 -> 277 [penwidth=2]
    57 -> 340 [penwidth=2]
    57 -> 372 [penwidth=2]
    57 -> 330 [penwidth=2]
    57 -> 358 [penwidth=2]
    57 -> 31 [penwidth=2]
    57 -> 295 [penwidth=2]
    57 -> 261 [penwidth=2]
    57 -> 45 [penwidth=2]
    57 -> 29 [penwidth=2]
    57 -> 376 [penwidth=2]
    57 -> 260 [penwidth=2]
    57 -> 274 [penwidth=2]
    57 -> 338 [penwidth=2]
    57 -> 324 [penwidth=2]
    57 -> 308 [penwidth=2]
    57 -> 341 [penwidth=2]
    57 -> 23 [penwidth=2]
    57 -> 14 [penwidth=2]
    57 -> 278 [penwidth=2]
    57 -> 38 [penwidth=2]
    57 -> 317 [penwidth=2]
    57 -> 319 [penwidth=2]
    57 -> 304 [penwidth=2]
    57 -> 320 [penwidth=2]
    57 -> 307 [penwidth=2]
    57 -> 327 [penwidth=2]
    57 -> 312 [penwidth=2]
    57 -> 262 [penwidth=2]
    57 -> 367 [penwidth=2]
    57 -> 298 [penwidth=2]
    57 -> 377 [penwidth=2]
    57 -> 335 [penwidth=2]
    57 -> 41 [penwidth=2]
    57 -> 279 [penwidth=2]
    57 -> 276 [penwidth=2]
    57 -> 380 [penwidth=2]
    57 -> 394 [penwidth=2]
    57 -> 22 [penwidth=2]
    57 -> 374 [penwidth=2]
    57 -> 288 [penwidth=2]
    57 -> 313 [penwidth=2]
    57 -> 11 [penwidth=2]
    57 -> 263 [penwidth=2]
    57 -> 331 [penwidth=2]
    57 -> 20 [penwidth=2]
    57 -> 34 [penwidth=2]
    57 -> 44 [penwidth=2]
    57 -> 256 [penwidth=2]
    57 -> 21 [penwidth=2]
    57 -> 355 [penwidth=2]
    57 -> 27 [penwidth=2]
    57 -> 364 [penwidth=2]
    57 -> 373 [penwidth=2]
    57 -> 395 [penwidth=2]
    57 -> 332 [penwidth=2]
    57 -> 371 [penwidth=2]
    57 -> 356 [penwidth=2]
    57 -> 379 [penwidth=2]
    57 -> 35 [penwidth=2]
    57 -> 392 [penwidth=2]
    57 -> 269 [penwidth=2]
    57 -> 351 [penwidth=2]
    57 -> 329 [penwidth=2]
    57 -> 305 [penwidth=2]
    57 -> 4 [penwidth=2]
    57 -> 347 [penwidth=2]
    57 -> 280 [penwidth=2]
    57 -> 381 [penwidth=2]
    57 -> 349 [penwidth=2]
    57 -> 321 [penwidth=2]
    57 -> 393 [penwidth=2]
    57 -> 368 [penwidth=2]
    57 -> 291 [penwidth=2]
    57 -> 287 [penwidth=2]
    57 -> 348 [penwidth=2]
    57 -> 300 [penwidth=2]
    57 -> 316 [penwidth=2]
    57 -> 378 [penwidth=2]
    57 -> 33 [penwidth=2]
    57 -> 352 [penwidth=2]
    57 -> 43 [penwidth=2]
    57 -> 294 [penwidth=2]
    57 -> 303 [penwidth=2]
    57 -> 18 [penwidth=2]
    57 -> 343 [penwidth=2]
    57 -> 267 [penwidth=2]
    57 -> 301 [penwidth=2]
    57 -> 369 [penwidth=2]
    57 -> 306 [penwidth=2]
    57 -> 275 [penwidth=2]
    57 -> 362 [penwidth=2]
    57 -> 36 [penwidth=2]
    57 -> 10 [penwidth=2]
    57 -> 302 [penwidth=2]
    57 -> 350 [penwidth=2]
    57 -> 15 [penwidth=2]
    57 -> 264 [penwidth=2]
    57 -> 9 [penwidth=2]
    57 -> 328 [penwidth=2]
    57 -> 323 [penwidth=2]
    57 -> 37 [penwidth=2]
    57 -> 342 [penwidth=2]
    57 -> 7 [penwidth=2]
    57 -> 258 [penwidth=2]
    57 -> 363 [penwidth=2]
    57 -> 281 [penwidth=2]
    57 -> 314 [penwidth=2]
    57 -> 361 [penwidth=2]
    57 -> 272 [penwidth=2]
    57 -> 13 [penwidth=2]
    57 -> 309 [penwidth=2]
    57 -> 339 [penwidth=2]
    57 -> 397 [penwidth=2]
    57 -> 396 [penwidth=2]
    57 -> 334 [penwidth=2]
    57 -> 284 [penwidth=2]
    57 -> 325 [penwidth=2]
    57 -> 292 [penwidth=2]
    57 -> 282 [penwidth=2]
    57 -> 270 [penwidth=2]
    57 -> 326 [penwidth=2]
    57 -> 311 [penwidth=2]
    57 -> 391 [penwidth=2]
    57 -> 322 [penwidth=2]
    57 -> 17 [penwidth=2]
    57 -> 30 [penwidth=2]
    57 -> 318 [penwidth=2]
    57 -> 12 [penwidth=2]
    57 -> 353 [penwidth=2]
    57 -> 290 [penwidth=2]
    57 -> 271 [penwidth=2]
    57 -> 40 [penwidth=2]
    57 -> 28 [penwidth=2]
    57 -> 345 [penwidth=2]
    57 -> 286 [penwidth=2]
    57 -> 398 [penwidth=2]
    142 -> 332 [penwidth=2]
    142 -> 308 [penwidth=2]
    142 -> 334 [penwidth=2]
    142 -> 34 [penwidth=2]
    142 -> 377 [penwidth=2]
    142 -> 356 [penwidth=2]
    142 -> 346 [penwidth=2]
    142 -> 354 [penwidth=2]
    142 -> 293 [penwidth=2]
    142 -> 290 [penwidth=2]
    142 -> 36 [penwidth=2]
    142 -> 344 [penwidth=2]
    142 -> 331 [penwidth=2]
    142 -> 43 [penwidth=2]
    142 -> 339 [penwidth=2]
    142 -> 379 [penwidth=2]
    142 -> 301 [penwidth=2]
    142 -> 10 [penwidth=2]
    142 -> 264 [penwidth=2]
    142 -> 13 [penwidth=2]
    142 -> 266 [penwidth=2]
    142 -> 16 [penwidth=2]
    142 -> 398 [penwidth=2]
    142 -> 380 [penwidth=2]
    142 -> 44 [penwidth=2]
    142 -> 363 [penwidth=2]
    142 -> 345 [penwidth=2]
    142 -> 279 [penwidth=2]
    142 -> 338 [penwidth=2]
    142 -> 261 [penwidth=2]
    142 -> 333 [penwidth=2]
    142 -> 362 [penwidth=2]
    142 -> 19 [penwidth=2]
    142 -> 359 [penwidth=2]
    142 -> 300 [penwidth=2]
    142 -> 260 [penwidth=2]
    142 -> 358 [penwidth=2]
    142 -> 335 [penwidth=2]
    142 -> 381 [penwidth=2]
    142 -> 378 [penwidth=2]
    142 -> 291 [penwidth=2]
    142 -> 41 [penwidth=2]
    142 -> 328 [penwidth=2]
    142 -> 269 [penwidth=2]
    142 -> 364 [penwidth=2]
    142 -> 284 [penwidth=2]
    142 -> 35 [penwidth=2]
    142 -> 270 [penwidth=2]
    142 -> 32 [penwidth=2]
    142 -> 283 [penwidth=2]
    142 -> 329 [penwidth=2]
    142 -> 311 [penwidth=2]
    142 -> 371 [penwidth=2]
    142 -> 286 [penwidth=2]
    142 -> 312 [penwidth=2]
    142 -> 397 [penwidth=2]
    142 -> 348 [penwidth=2]
    142 -> 374 [penwidth=2]
    142 -> 24 [penwidth=2]
    142 -> 336 [penwidth=2]
    142 -> 299 [penwidth=2]
    142 -> 307 [penwidth=2]
    142 -> 37 [penwidth=2]
    142 -> 303 [penwidth=2]
    142 -> 45 [penwidth=2]
    142 -> 21 [penwidth=2]
    142 -> 4 [penwidth=2]
    142 -> 341 [penwidth=2]
    142 -> 318 [penwidth=2]
    142 -> 12 [penwidth=2]
    142 -> 40 [penwidth=2]
    142 -> 276 [penwidth=2]
    142 -> 304 [penwidth=2]
    142 -> 314 [penwidth=2]
    142 -> 313 [penwidth=2]
    142 -> 42 [penwidth=2]
    142 -> 375 [penwidth=2]
    142 -> 326 [penwidth=2]
    142 -> 287 [penwidth=2]
    142 -> 256 [penwidth=2]
    142 -> 25 [penwidth=2]
    142 -> 355 [penwidth=2]
    142 -> 29 [penwidth=2]
    142 -> 14 [penwidth=2]
    142 -> 302 [penwidth=2]
    142 -> 396 [penwidth=2]
    142 -> 366 [penwidth=2]
    142 -> 367 [penwidth=2]
    142 -> 294 [penwidth=2]
    142 -> 305 [penwidth=2]
    142 -> 296 [penwidth=2]
    142 -> 298 [penwidth=2]
    142 -> 259 [penwidth=2]
    142 -> 353 [penwidth=2]
    142 -> 357 [penwidth=2]
    142 -> 20 [penwidth=2]
    142 -> 323 [penwidth=2]
    142 -> 360 [penwidth=2]
    142 -> 18 [penwidth=2]
    142 -> 392 [penwidth=2]
    142 -> 39 [penwidth=2]
    142 -> 365 [penwidth=2]
    142 -> 372 [penwidth=2]
    142 -> 340 [penwidth=2]
    142 -> 274 [penwidth=2]
    142 -> 361 [penwidth=2]
    142 -> 391 [penwidth=2]
    142 -> 327 [penwidth=2]
    142 -> 288 [penwidth=2]
    142 -> 394 [penwidth=2]
    142 -> 33 [penwidth=2]
    142 -> 368 [penwidth=2]
    142 -> 22 [penwidth=2]
    142 -> 321 [penwidth=2]
    142 -> 285 [penwidth=2]
    142 -> 289 [penwidth=2]
    59 -> 354 [penwidth=2]
    59 -> 303 [penwidth=2]
    59 -> 333 [penwidth=2]
    102 -> 310 [penwidth=2]
    102 -> 297 [penwidth=2]
    102 -> 372 [penwidth=2]
    102 -> 296 [penwidth=2]
    102 -> 330 [penwidth=2]
    102 -> 339 [penwidth=2]
    102 -> 291 [penwidth=2]
    102 -> 287 [penwidth=2]
    102 -> 286 [penwidth=2]
    102 -> 324 [penwidth=2]
    102 -> 10 [penwidth=2]
    102 -> 257 [penwidth=2]
    102 -> 338 [penwidth=2]
    102 -> 307 [penwidth=2]
    102 -> 326 [penwidth=2]
    102 -> 359 [penwidth=2]
    102 -> 276 [penwidth=2]
    102 -> 41 [penwidth=2]
    102 -> 32 [penwidth=2]
    102 -> 279 [penwidth=2]
    102 -> 24 [penwidth=2]
    102 -> 4 [penwidth=2]
    102 -> 270 [penwidth=2]
    102 -> 283 [penwidth=2]
    102 -> 361 [penwidth=2]
    102 -> 398 [penwidth=2]
    102 -> 358 [penwidth=2]
    102 -> 18 [penwidth=2]
    102 -> 14 [penwidth=2]
    102 -> 37 [penwidth=2]
    102 -> 33 [penwidth=2]
    102 -> 341 [penwidth=2]
    102 -> 31 [penwidth=2]
    102 -> 371 [penwidth=2]
    102 -> 363 [penwidth=2]
    102 -> 360 [penwidth=2]
    102 -> 298 [penwidth=2]
    102 -> 302 [penwidth=2]
    102 -> 263 [penwidth=2]
    102 -> 350 [penwidth=2]
    102 -> 351 [penwidth=2]
    102 -> 355 [penwidth=2]
    102 -> 311 [penwidth=2]
    102 -> 379 [penwidth=2]
    102 -> 329 [penwidth=2]
    102 -> 395 [penwidth=2]
    102 -> 352 [penwidth=2]
    102 -> 275 [penwidth=2]
    102 -> 273 [penwidth=2]
    102 -> 15 [penwidth=2]
    102 -> 318 [penwidth=2]
    102 -> 21 [penwidth=2]
    102 -> 393 [penwidth=2]
    102 -> 357 [penwidth=2]
    102 -> 271 [penwidth=2]
    102 -> 392 [penwidth=2]
    102 -> 293 [penwidth=2]
    102 -> 278 [penwidth=2]
    102 -> 345 [penwidth=2]
    102 -> 5 [penwidth=2]
    102 -> 349 [penwidth=2]
    102 -> 36 [penwidth=2]
    102 -> 353 [penwidth=2]
    102 -> 289 [penwidth=2]
    102 -> 11 [penwidth=2]
    102 -> 258 [penwidth=2]
    102 -> 281 [penwidth=2]
    102 -> 336 [penwidth=2]
    102 -> 397 [penwidth=2]
    102 -> 356 [penwidth=2]
    102 -> 45 [penwidth=2]
    102 -> 17 [penwidth=2]
    102 -> 322 [penwidth=2]
    102 -> 381 [penwidth=2]
    102 -> 20 [penwidth=2]
    102 -> 9 [penwidth=2]
    102 -> 334 [penwidth=2]
    102 -> 42 [penwidth=2]
    102 -> 260 [penwidth=2]
    102 -> 290 [penwidth=2]
    102 -> 373 [penwidth=2]
    102 -> 337 [penwidth=2]
    102 -> 299 [penwidth=2]
    102 -> 365 [penwidth=2]
    102 -> 262 [penwidth=2]
    102 -> 348 [penwidth=2]
    102 -> 16 [penwidth=2]
    102 -> 369 [penwidth=2]
    102 -> 35 [penwidth=2]
    102 -> 335 [penwidth=2]
    102 -> 26 [penwidth=2]
    102 -> 44 [penwidth=2]
    102 -> 346 [penwidth=2]
    102 -> 314 [penwidth=2]
    102 -> 8 [penwidth=2]
    102 -> 331 [penwidth=2]
    117 -> 312 [penwidth=2]
    117 -> 349 [penwidth=2]
    117 -> 286 [penwidth=2]
    117 -> 259 [penwidth=2]
    117 -> 304 [penwidth=2]
    117 -> 280 [penwidth=2]
    117 -> 343 [penwidth=2]
    117 -> 323 [penwidth=2]
    117 -> 394 [penwidth=2]
    79 -> 397 [penwidth=2]
    79 -> 272 [penwidth=2]
    79 -> 44 [penwidth=2]
    79 -> 351 [penwidth=2]
    79 -> 357 [penwidth=2]
    79 -> 332 [penwidth=2]
    79 -> 331 [penwidth=2]
    79 -> 374 [penwidth=2]
    79 -> 354 [penwidth=2]
    79 -> 317 [penwidth=2]
    79 -> 30 [penwidth=2]
    79 -> 360 [penwidth=2]
    79 -> 393 [penwidth=2]
    79 -> 35 [penwidth=2]
    79 -> 7 [penwidth=2]
    79 -> 362 [penwidth=2]
    79 -> 275 [penwidth=2]
    79 -> 398 [penwidth=2]
    79 -> 23 [penwidth=2]
    79 -> 372 [penwidth=2]
    79 -> 292 [penwidth=2]
    79 -> 34 [penwidth=2]
    79 -> 277 [penwidth=2]
    79 -> 367 [penwidth=2]
    79 -> 36 [penwidth=2]
    79 -> 345 [penwidth=2]
    79 -> 329 [penwidth=2]
    79 -> 394 [penwidth=2]
    79 -> 369 [penwidth=2]
    79 -> 339 [penwidth=2]
    79 -> 364 [penwidth=2]
    79 -> 12 [penwidth=2]
    79 -> 295 [penwidth=2]
    79 -> 319 [penwidth=2]
    79 -> 309 [penwidth=2]
    79 -> 350 [penwidth=2]
    79 -> 282 [penwidth=2]
    79 -> 323 [penwidth=2]
    79 -> 318 [penwidth=2]
    79 -> 37 [penwidth=2]
    79 -> 4 [penwidth=2]
    79 -> 16 [penwidth=2]
    79 -> 279 [penwidth=2]
    79 -> 278 [penwidth=2]
    79 -> 306 [penwidth=2]
    79 -> 40 [penwidth=2]
    79 -> 316 [penwidth=2]
    79 -> 26 [penwidth=2]
    79 -> 268 [penwidth=2]
    79 -> 264 [penwidth=2]
    79 -> 13 [penwidth=2]
    79 -> 45 [penwidth=2]
    79 -> 266 [penwidth=2]
    79 -> 24 [penwidth=2]
    79 -> 285 [penwidth=2]
    79 -> 8 [penwidth=2]
    79 -> 258 [penwidth=2]
    79 -> 328 [penwidth=2]
    79 -> 324 [penwidth=2]
    79 -> 32 [penwidth=2]
    79 -> 14 [penwidth=2]
    79 -> 340 [penwidth=2]
    79 -> 293 [penwidth=2]
    79 -> 262 [penwidth=2]
    79 -> 9 [penwidth=2]
    79 -> 313 [penwidth=2]
    79 -> 336 [penwidth=2]
    79 -> 280 [penwidth=2]
    79 -> 42 [penwidth=2]
    79 -> 299 [penwidth=2]
    79 -> 312 [penwidth=2]
    79 -> 363 [penwidth=2]
    79 -> 305 [penwidth=2]
    79 -> 284 [penwidth=2]
    79 -> 267 [penwidth=2]
    79 -> 352 [penwidth=2]
    79 -> 304 [penwidth=2]
    79 -> 29 [penwidth=2]
    79 -> 21 [penwidth=2]
    79 -> 291 [penwidth=2]
    79 -> 25 [penwidth=2]
    79 -> 17 [penwidth=2]
    79 -> 343 [penwidth=2]
    79 -> 380 [penwidth=2]
    79 -> 326 [penwidth=2]
    79 -> 274 [penwidth=2]
    79 -> 310 [penwidth=2]
    79 -> 341 [penwidth=2]
    79 -> 371 [penwidth=2]
    79 -> 314 [penwidth=2]
    79 -> 337 [penwidth=2]
    79 -> 263 [penwidth=2]
    79 -> 257 [penwidth=2]
    79 -> 303 [penwidth=2]
    79 -> 270 [penwidth=2]
    79 -> 365 [penwidth=2]
    79 -> 294 [penwidth=2]
    79 -> 311 [penwidth=2]
    79 -> 338 [penwidth=2]
    79 -> 347 [penwidth=2]
    79 -> 370 [penwidth=2]
    79 -> 296 [penwidth=2]
    79 -> 399 [penwidth=2]
    79 -> 361 [penwidth=2]
    79 -> 327 [penwidth=2]
    79 -> 22 [penwidth=2]
    79 -> 19 [penwidth=2]
    79 -> 302 [penwidth=2]
    79 -> 307 [penwidth=2]
    79 -> 20 [penwidth=2]
    79 -> 297 [penwidth=2]
    79 -> 298 [penwidth=2]
    79 -> 308 [penwidth=2]
    79 -> 43 [penwidth=2]
    79 -> 6 [penwidth=2]
    79 -> 359 [penwidth=2]
    79 -> 271 [penwidth=2]
    79 -> 286 [penwidth=2]
    79 -> 356 [penwidth=2]
    79 -> 375 [penwidth=2]
    79 -> 346 [penwidth=2]
    79 -> 396 [penwidth=2]
    79 -> 391 [penwidth=2]
    79 -> 265 [penwidth=2]
    79 -> 381 [penwidth=2]
    79 -> 392 [penwidth=2]
    79 -> 376 [penwidth=2]
    79 -> 10 [penwidth=2]
    79 -> 378 [penwidth=2]
    79 -> 349 [penwidth=2]
    79 -> 283 [penwidth=2]
    79 -> 301 [penwidth=2]
    79 -> 321 [penwidth=2]
    79 -> 353 [penwidth=2]
    163 -> 303 [penwidth=2]
    163 -> 321 [penwidth=2]
    163 -> 8 [penwidth=2]
    163 -> 276 [penwidth=2]
    163 -> 310 [penwidth=2]
    163 -> 393 [penwidth=2]
    163 -> 291 [penwidth=2]
    163 -> 357 [penwidth=2]
    163 -> 374 [penwidth=2]
    163 -> 336 [penwidth=2]
    163 -> 324 [penwidth=2]
    163 -> 381 [penwidth=2]
    163 -> 45 [penwidth=2]
    163 -> 24 [penwidth=2]
    163 -> 4 [penwidth=2]
    163 -> 331 [penwidth=2]
    163 -> 260 [penwidth=2]
    163 -> 274 [penwidth=2]
    163 -> 259 [penwidth=2]
    163 -> 317 [penwidth=2]
    163 -> 356 [penwidth=2]
    163 -> 363 [penwidth=2]
    163 -> 41 [penwidth=2]
    163 -> 378 [penwidth=2]
    163 -> 31 [penwidth=2]
    163 -> 39 [penwidth=2]
    163 -> 319 [penwidth=2]
    163 -> 370 [penwidth=2]
    163 -> 316 [penwidth=2]
    163 -> 327 [penwidth=2]
    163 -> 380 [penwidth=2]
    163 -> 15 [penwidth=2]
    163 -> 344 [penwidth=2]
    163 -> 367 [penwidth=2]
    163 -> 399 [penwidth=2]
    163 -> 43 [penwidth=2]
    163 -> 395 [penwidth=2]
    163 -> 22 [penwidth=2]
    163 -> 338 [penwidth=2]
    163 -> 12 [penwidth=2]
    163 -> 18 [penwidth=2]
    163 -> 33 [penwidth=2]
    163 -> 286 [penwidth=2]
    163 -> 329 [penwidth=2]
    163 -> 294 [penwidth=2]
    163 -> 7 [penwidth=2]
    163 -> 282 [penwidth=2]
    163 -> 332 [penwidth=2]
    163 -> 348 [penwidth=2]
    163 -> 14 [penwidth=2]
    163 -> 10 [penwidth=2]
    163 -> 372 [penwidth=2]
    163 -> 366 [penwidth=2]
    163 -> 351 [penwidth=2]
    163 -> 326 [penwidth=2]
    163 -> 333 [penwidth=2]
    163 -> 37 [penwidth=2]
    163 -> 296 [penwidth=2]
    163 -> 307 [penwidth=2]
    163 -> 290 [penwidth=2]
    163 -> 270 [penwidth=2]
    163 -> 320 [penwidth=2]
    163 -> 28 [penwidth=2]
    163 -> 315 [penwidth=2]
    163 -> 292 [penwidth=2]
    163 -> 295 [penwidth=2]
    163 -> 261 [penwidth=2]
    163 -> 353 [penwidth=2]
    163 -> 284 [penwidth=2]
    163 -> 5 [penwidth=2]
    163 -> 302 [penwidth=2]
    163 -> 301 [penwidth=2]
    163 -> 373 [penwidth=2]
    163 -> 306 [penwidth=2]
    163 -> 9 [penwidth=2]
    163 -> 44 [penwidth=2]
    163 -> 289 [penwidth=2]
    163 -> 21 [penwidth=2]
    163 -> 11 [penwidth=2]
    163 -> 283 [penwidth=2]
    163 -> 392 [penwidth=2]
    163 -> 394 [penwidth=2]
    163 -> 268 [penwidth=2]
    163 -> 360 [penwidth=2]
    163 -> 13 [penwidth=2]
    163 -> 397 [penwidth=2]
    163 -> 280 [penwidth=2]
    163 -> 313 [penwidth=2]
    163 -> 305 [penwidth=2]
    163 -> 298 [penwidth=2]
    163 -> 30 [penwidth=2]
    163 -> 25 [penwidth=2]
    163 -> 375 [penwidth=2]
    163 -> 23 [penwidth=2]
    163 -> 262 [penwidth=2]
    163 -> 263 [penwidth=2]
    163 -> 256 [penwidth=2]
    163 -> 271 [penwidth=2]
    163 -> 398 [penwidth=2]
    163 -> 364 [penwidth=2]
    163 -> 273 [penwidth=2]
    163 -> 38 [penwidth=2]
    163 -> 359 [penwidth=2]
    163 -> 334 [penwidth=2]
    163 -> 361 [penwidth=2]
    163 -> 349 [penwidth=2]
    163 -> 354 [penwidth=2]
    163 -> 299 [penwidth=2]
    163 -> 341 [penwidth=2]
    163 -> 309 [penwidth=2]
    163 -> 323 [penwidth=2]
    163 -> 358 [penwidth=2]
    163 -> 325 [penwidth=2]
    163 -> 27 [penwidth=2]
    163 -> 285 [penwidth=2]
    163 -> 371 [penwidth=2]
    163 -> 330 [penwidth=2]
    163 -> 40 [penwidth=2]
    163 -> 312 [penwidth=2]
    163 -> 339 [penwidth=2]
    163 -> 257 [penwidth=2]
    163 -> 35 [penwidth=2]
    163 -> 343 [penwidth=2]
    163 -> 304 [penwidth=2]
    164 -> 293 [penwidth=2]
    164 -> 364 [penwidth=2]
    164 -> 322 [penwidth=2]
    164 -> 302 [penwidth=2]
    164 -> 311 [penwidth=2]
    164 -> 367 [penwidth=2]
    164 -> 45 [penwidth=2]
    164 -> 44 [penwidth=2]
    164 -> 346 [penwidth=2]
    164 -> 259 [penwidth=2]
    164 -> 29 [penwidth=2]
    164 -> 376 [penwidth=2]
    164 -> 336 [penwidth=2]
    164 -> 318 [penwidth=2]
    164 -> 399 [penwidth=2]
    164 -> 317 [penwidth=2]
    164 -> 40 [penwidth=2]
    164 -> 33 [penwidth=2]
    164 -> 315 [penwidth=2]
    164 -> 332 [penwidth=2]
    164 -> 263 [penwidth=2]
    164 -> 325 [penwidth=2]
    164 -> 284 [penwidth=2]
    164 -> 32 [penwidth=2]
    164 -> 278 [penwidth=2]
    164 -> 373 [penwidth=2]
    164 -> 312 [penwidth=2]
    164 -> 291 [penwidth=2]
    164 -> 21 [penwidth=2]
    164 -> 323 [penwidth=2]
    164 -> 292 [penwidth=2]
    164 -> 281 [penwidth=2]
    164 -> 8 [penwidth=2]
    164 -> 330 [penwidth=2]
    164 -> 256 [penwidth=2]
    164 -> 287 [penwidth=2]
    164 -> 350 [penwidth=2]
    164 -> 352 [penwidth=2]
    164 -> 366 [penwidth=2]
    164 -> 343 [penwidth=2]
    164 -> 335 [penwidth=2]
    164 -> 42 [penwidth=2]
    164 -> 26 [penwidth=2]
    164 -> 16 [penwidth=2]
    164 -> 261 [penwidth=2]
    164 -> 41 [penwidth=2]
    164 -> 391 [penwidth=2]
    164 -> 378 [penwidth=2]
    164 -> 395 [penwidth=2]
    164 -> 286 [penwidth=2]
    164 -> 303 [penwidth=2]
    164 -> 379 [penwidth=2]
    164 -> 274 [penwidth=2]
    164 -> 372 [penwidth=2]
    164 -> 279 [penwidth=2]
    164 -> 309 [penwidth=2]
    164 -> 289 [penwidth=2]
    164 -> 296 [penwidth=2]
    164 -> 308 [penwidth=2]
    164 -> 268 [penwidth=2]
    164 -> 7 [penwidth=2]
    164 -> 11 [penwidth=2]
    164 -> 348 [penwidth=2]
    164 -> 294 [penwidth=2]
    164 -> 365 [penwidth=2]
    164 -> 331 [penwidth=2]
    164 -> 319 [penwidth=2]
    164 -> 345 [penwidth=2]
    164 -> 351 [penwidth=2]
    164 -> 38 [penwidth=2]
    164 -> 361 [penwidth=2]
    164 -> 275 [penwidth=2]
    164 -> 39 [penwidth=2]
    164 -> 290 [penwidth=2]
    164 -> 264 [penwidth=2]
    164 -> 300 [penwidth=2]
    164 -> 380 [penwidth=2]
    164 -> 306 [penwidth=2]
    164 -> 397 [penwidth=2]
    164 -> 288 [penwidth=2]
    164 -> 297 [penwidth=2]
    164 -> 324 [penwidth=2]
    164 -> 375 [penwidth=2]
    164 -> 6 [penwidth=2]
    164 -> 301 [penwidth=2]
    164 -> 17 [penwidth=2]
    164 -> 356 [penwidth=2]
    164 -> 295 [penwidth=2]
    164 -> 23 [penwidth=2]
    164 -> 313 [penwidth=2]
    164 -> 269 [penwidth=2]
    164 -> 4 [penwidth=2]
    164 -> 15 [penwidth=2]
    164 -> 368 [penwidth=2]
    164 -> 257 [penwidth=2]
    164 -> 374 [penwidth=2]
    164 -> 277 [penwidth=2]
    164 -> 307 [penwidth=2]
    164 -> 20 [penwidth=2]
    164 -> 267 [penwidth=2]
    164 -> 37 [penwidth=2]
    164 -> 344 [penwidth=2]
    164 -> 43 [penwidth=2]
    164 -> 333 [penwidth=2]
    164 -> 14 [penwidth=2]
    164 -> 265 [penwidth=2]
    164 -> 271 [penwidth=2]
    164 -> 27 [penwidth=2]
    164 -> 276 [penwidth=2]
    164 -> 273 [penwidth=2]
    164 -> 282 [penwidth=2]
    164 -> 272 [penwidth=2]
    164 -> 326 [penwidth=2]
    164 -> 310 [penwidth=2]
    164 -> 377 [penwidth=2]
    164 -> 298 [penwidth=2]
    164 -> 347 [penwidth=2]
    164 -> 260 [penwidth=2]
    164 -> 13 [penwidth=2]
    164 -> 10 [penwidth=2]
    164 -> 320 [penwidth=2]
    164 -> 359 [penwidth=2]
    164 -> 34 [penwidth=2]
    164 -> 18 [penwidth=2]
    164 -> 327 [penwidth=2]
    164 -> 36 [penwidth=2]
    164 -> 354 [penwidth=2]
    164 -> 280 [penwidth=2]
    164 -> 25 [penwidth=2]
    164 -> 258 [penwidth=2]
    164 -> 35 [penwidth=2]
    164 -> 337 [penwidth=2]
    164 -> 371 [penwidth=2]
    164 -> 5 [penwidth=2]
    164 -> 329 [penwidth=2]
    164 -> 398 [penwidth=2]
    164 -> 270 [penwidth=2]
    166 -> 27 [penwidth=2]
    166 -> 324 [penwidth=2]
    166 -> 376 [penwidth=2]
    166 -> 399 [penwidth=2]
    166 -> 350 [penwidth=2]
    166 -> 289 [penwidth=2]
    166 -> 34 [penwidth=2]
    166 -> 25 [penwidth=2]
    166 -> 11 [penwidth=2]
    166 -> 26 [penwidth=2]
    166 -> 286 [penwidth=2]
    166 -> 7 [penwidth=2]
    166 -> 264 [penwidth=2]
    166 -> 300 [penwidth=2]
    166 -> 291 [penwidth=2]
    166 -> 35 [penwidth=2]
    166 -> 41 [penwidth=2]
    166 -> 309 [penwidth=2]
    166 -> 340 [penwidth=2]
    166 -> 32 [penwidth=2]
    166 -> 319 [penwidth=2]
    166 -> 305 [penwidth=2]
    166 -> 19 [penwidth=2]
    166 -> 38 [penwidth=2]
    166 -> 317 [penwidth=2]
    166 -> 24 [penwidth=2]
    166 -> 352 [penwidth=2]
    166 -> 287 [penwidth=2]
    166 -> 342 [penwidth=2]
    166 -> 336 [penwidth=2]
    166 -> 23 [penwidth=2]
    166 -> 362 [penwidth=2]
}