digraph G {
    0 [penwidth=3,label="0"]
    1 [penwidth=3,label="1"]
    2 [penwidth=3,label="2"]
    3 [penwidth=3,label="3"]
    4 [penwidth=3,label="4"]
    5 [penwidth=3,label="5"]
    6 [penwidth=3,label="6"]
    7 [penwidth=3,label="7"]
    8 [penwidth=3,label="8"]
    9 [penwidth=3,label="9"]
    10 [penwidth=3,label="10"]
    11 [penwidth=3,label="11"]
    12 [penwidth=3,label="12"]
    13 [penwidth=3,label="13"]
    14 [penwidth=3,label="14"]
    15 [penwidth=3,label="15"]
    16 [penwidth=3,label="16"]
    17 [penwidth=3,label="17"]
    18 [penwidth=3,label="18"]
    19 [penwidth=3,label="19"]
    20 [penwidth=3,label="20"]
    21 [penwidth=3,label="21"]
    22 [penwidth=3,label="22"]
    23 [penwidth=3,label="23"]
    24 [penwidth=3,label="24"]
    25 [penwidth=3,label="25"]
    26 [penwidth=3,label="26"]
    27 [penwidth=3,label="27"]
    28 [penwidth=3,label="28"]
    29 [penwidth=3,label="29"]
    30 [penwidth=3,label="30"]
    31 [penwidth=3,label="31"]
    32 [penwidth=3,label="32"]
    33 [penwidth=3,label="33"]
    34 [penwidth=3,label="34"]
    35 [penwidth=3,label="35"]
    36 [penwidth=3,label="36"]
    37 [penwidth=3,label="37"]
    38 [penwidth=3,label="38"]
    39 [penwidth=3,label="39"]
    40 [penwidth=3,label="40"]
    41 [penwidth=3,label="41"]
    42 [penwidth=3,label="42"]
    43 [penwidth=3,label="43"]
    44 [penwidth=3,label="44"]
    45 [penwidth=3,label="45"]
    46 [penwidth=3,label="46"]
    47 [penwidth=3,label="47"]
    48 [penwidth=3,label="48"]
    49 [penwidth=3,label="49"]
    50 [penwidth=3,label="50"]
    51 [penwidth=3,label="51"]
    52 [penwidth=3,label="52"]
    53 [penwidth=3,label="53"]
    54 [penwidth=3,label="54"]
    55 [penwidth=3,label="55"]
    56 [penwidth=3,label="56"]
    57 [penwidth=3,label="57"]
    58 [penwidth=3,label="58"]
    59 [penwidth=3,label="59"]
    60 [penwidth=3,label="60"]
    61 [penwidth=3,label="61"]
    62 [penwidth=3,label="62"]
    63 [penwidth=3,label="63"]
    64 [penwidth=3,label="64"]
    65 [penwidth=3,label="65"]
    66 [penwidth=3,label="66"]
    67 [penwidth=3,label="67"]
    68 [penwidth=3,label="68"]
    69 [penwidth=3,label="69"]
    70 [penwidth=3,label="70"]
    71 [penwidth=3,label="71"]
    72 [penwidth=3,label="72"]
    73 [penwidth=3,label="73"]
    74 [penwidth=3,label="74"]
    75 [penwidth=3,label="75"]
    76 [penwidth=3,label="76"]
    77 [penwidth=3,label="77"]
    78 [penwidth=3,label="78"]
    79 [penwidth=3,label="79"]
    80 [penwidth=3,label="80"]
    81 [penwidth=3,label="81"]
    82 [penwidth=3,label="82"]
    83 [penwidth=3,label="83"]
    84 [penwidth=3,label="84"]
    85 [penwidth=3,label="85"]
    86 [penwidth=3,label="86"]
    87 [penwidth=3,label="87"]
    88 [penwidth=3,label="88"]
    89 [penwidth=3,label="89"]
    90 [penwidth=3,label="90"]
    91 [penwidth=3,label="91"]
    92 [penwidth=3,label="92"]
    93 [penwidth=3,label="93"]
    94 [penwidth=3,label="94"]
    95 [penwidth=3,label="95"]
    96 [penwidth=3,label="96"]
    97 [penwidth=3,label="97"]
    98 [penwidth=3,label="98"]
    99 [penwidth=3,label="99"]
    100 [penwidth=3,label="100"]
    101 [penwidth=3,label="101"]
    102 [penwidth=3,label="102"]
    103 [penwidth=3,label="103"]
    104 [penwidth=3,label="104"]
    105 [penwidth=3,label="105"]
    106 [penwidth=3,label="106"]
    107 [penwidth=3,label="107"]
    108 [penwidth=3,label="108"]
    109 [penwidth=3,label="109"]
    110 [penwidth=3,label="110"]
    111 [penwidth=3,label="111"]
    112 [penwidth=3,label="112"]
    113 [penwidth=3,label="113"]
    114 [penwidth=3,label="114"]
    115 [penwidth=3,label="115"]
    116 [penwidth=3,label="116"]
    117 [penwidth=3,label="117"]
    118 [penwidth=3,label="118"]
    119 [penwidth=3,label="119"]
    120 [penwidth=3,label="120"]
    121 [penwidth=3,label="121"]
    122 [penwidth=3,label="122"]
    123 [penwidth=3,label="123"]
    124 [penwidth=3,label="124"]
    125 [penwidth=3,label="125"]
    126 [penwidth=3,label="126"]
    127 [penwidth=3,label="127"]
    128 [penwidth=3,label="128"]
    129 [penwidth=3,label="129"]
    130 [penwidth=3,label="130"]
    131 [penwidth=3,label="131"]
    132 [penwidth=3,label="132"]
    133 [penwidth=3,label="133"]
    134 [penwidth=3,label="134"]
    135 [penwidth=3,label="135"]
    136 [penwidth=3,label="136"]
    137 [penwidth=3,label="137"]
    138 [penwidth=3,label="138"]
    139 [penwidth=3,label="139"]
    140 [penwidth=3,label="140"]
    141 [penwidth=3,label="141"]
    142 [penwidth=3,label="142"]
    143 [penwidth=3,label="143"]
    144 [penwidth=3,label="144"]
    145 [penwidth=3,label="145"]
    146 [penwidth=3,label="146"]
    147 [penwidth=3,label="147"]
    148 [penwidth=3,label="148"]
    149 [penwidth=3,label="149"]
    150 [penwidth=3,label="150"]
    151 [penwidth=3,label="151"]
    152 [penwidth=3,label="152"]
    153 [penwidth=3,label="153"]
    154 [penwidth=3,label="154"]
    155 [penwidth=3,label="155"]
    156 [penwidth=3,label="156"]
    157 [penwidth=3,label="157"]
    158 [penwidth=3,label="158"]
    159 [penwidth=3,label="159"]
    160 [penwidth=3,label="160"]
    161 [penwidth=3,label="161"]
    162 [penwidth=3,label="162"]
    163 [penwidth=3,label="163"]
    164 [penwidth=3,label="164"]
    165 [penwidth=3,label="165"]
    166 [penwidth=3,label="166"]
    167 [penwidth=3,label="167"]
    168 [penwidth=3,label="168"]
    169 [penwidth=3,label="169"]
    170 [penwidth=3,label="170"]
    171 [penwidth=3,label="171"]
    172 [penwidth=3,label="172"]
    173 [penwidth=3,label="173"]
    174 [penwidth=3,label="174"]
    175 [penwidth=3,label="175"]
    176 [penwidth=3,label="176"]
    177 [penwidth=3,label="177"]
    178 [penwidth=3,label="178"]
    179 [penwidth=3,label="179"]
    180 [penwidth=3,label="180"]
    181 [penwidth=3,label="181"]
    182 [penwidth=3,label="182"]
    183 [penwidth=3,label="183"]
    184 [penwidth=3,label="184"]
    185 [penwidth=3,label="185"]
    186 [penwidth=3,label="186"]
    187 [penwidth=3,label="187"]
    188 [penwidth=3,label="188"]
    189 [penwidth=3,label="189"]
    190 [penwidth=3,label="190"]
    191 [penwidth=3,label="191"]
    192 [penwidth=3,label="192"]
    193 [penwidth=3,label="193"]
    194 [penwidth=3,label="194"]
    195 [penwidth=3,label="195"]
    196 [penwidth=3,label="196"]
    197 [penwidth=3,label="197"]
    198 [penwidth=3,label="198"]
    199 [penwidth=3,label="199"]
    200 [penwidth=3,label="200"]
    201 [penwidth=3,label="201"]
    202 [penwidth=3,label="202"]
    203 [penwidth=3,label="203"]
    204 [penwidth=3,label="204"]
    205 [penwidth=3,label="205"]
    206 [penwidth=3,label="206"]
    207 [penwidth=3,label="207"]
    208 [penwidth=3,label="208"]
    209 [penwidth=3,label="209"]
    210 [penwidth=3,label="210"]
    211 [penwidth=3,label="211"]
    212 [penwidth=3,label="212"]
    213 [penwidth=3,label="213"]
    214 [penwidth=3,label="214"]
    215 [penwidth=3,label="215"]
    216 [penwidth=3,label="216"]
    217 [penwidth=3,label="217"]
    218 [penwidth=3,label="218"]
    219 [penwidth=3,label="219"]
    220 [penwidth=3,label="220"]
    221 [penwidth=3,label="221"]
    222 [penwidth=3,label="222"]
    223 [penwidth=3,label="223"]
    224 [penwidth=3,label="224"]
    225 [penwidth=3,label="225"]
    226 [penwidth=3,label="226"]
    227 [penwidth=3,label="227"]
    228 [penwidth=3,label="228"]
    229 [penwidth=3,label="229"]
    230 [penwidth=3,label="230"]
    231 [penwidth=3,label="231"]
    232 [penwidth=3,label="232"]
    233 [penwidth=3,label="233"]
    234 [penwidth=3,label="234"]
    235 [penwidth=3,label="235"]
    236 [penwidth=3,label="236"]
    237 [penwidth=3,label="237"]
    238 [penwidth=3,label="238"]
    239 [penwidth=3,label="239"]
    240 [penwidth=3,label="240"]
    241 [penwidth=3,label="241"]
    242 [penwidth=3,label="242"]
    243 [penwidth=3,label="243"]
    244 [penwidth=3,label="244"]
    245 [penwidth=3,label="245"]
    246 [penwidth=3,label="246"]
    247 [penwidth=3,label="247"]
    248 [penwidth=3,label="248"]
    249 [penwidth=3,label="249"]
    250 [penwidth=3,label="250"]
    251 [penwidth=3,label="251"]
    252 [penwidth=3,label="252"]
    253 [penwidth=3,label="253"]
    254 [penwidth=3,label="254"]
    255 [penwidth=3,label="255"]
    256 [penwidth=3,label="256"]
    257 [penwidth=3,label="257"]
    258 [penwidth=3,label="258"]
    259 [penwidth=3,label="259"]
    260 [penwidth=3,label="260"]
    261 [penwidth=3,label="261"]
    262 [penwidth=3,label="262"]
    263 [penwidth=3,label="263"]
    264 [penwidth=3,label="264"]
    265 [penwidth=3,label="265"]
    266 [penwidth=3,label="266"]
    267 [penwidth=3,label="267"]
    268 [penwidth=3,label="268"]
    269 [penwidth=3,label="269"]
    270 [penwidth=3,label="270"]
    271 [penwidth=3,label="271"]
    272 [penwidth=3,label="272"]
    273 [penwidth=3,label="273"]
    274 [penwidth=3,label="274"]
    275 [penwidth=3,label="275"]
    276 [penwidth=3,label="276"]
    277 [penwidth=3,label="277"]
    278 [penwidth=3,label="278"]
    279 [penwidth=3,label="279"]
    280 [penwidth=3,label="280"]
    281 [penwidth=3,label="281"]
    282 [penwidth=3,label="282"]
    283 [penwidth=3,label="283"]
    284 [penwidth=3,label="284"]
    285 [penwidth=3,label="285"]
    286 [penwidth=3,label="286"]
    287 [penwidth=3,label="287"]
    288 [penwidth=3,label="288"]
    289 [penwidth=3,label="289"]
    290 [penwidth=3,label="290"]
    291 [penwidth=3,label="291"]
    292 [penwidth=3,label="292"]
    293 [penwidth=3,label="293"]
    294 [penwidth=3,label="294"]
    295 [penwidth=3,label="295"]
    296 [penwidth=3,label="296"]
    297 [penwidth=3,label="297"]
    298 [penwidth=3,label="298"]
    299 [penwidth=3,label="299"]
    300 [penwidth=3,label="300"]
    301 [penwidth=3,label="301"]
    302 [penwidth=3,label="302"]
    303 [penwidth=3,label="303"]
    304 [penwidth=3,label="304"]
    305 [penwidth=3,label="305"]
    306 [penwidth=3,label="306"]
    307 [penwidth=3,label="307"]
    308 [penwidth=3,label="308"]
    309 [penwidth=3,label="309"]
    310 [penwidth=3,label="310"]
    311 [penwidth=3,label="311"]
    312 [penwidth=3,label="312"]
    313 [penwidth=3,label="313"]
    314 [penwidth=3,label="314"]
    315 [penwidth=3,label="315"]
    316 [penwidth=3,label="316"]
    317 [penwidth=3,label="317"]
    318 [penwidth=3,label="318"]
    319 [penwidth=3,label="319"]
    320 [penwidth=3,label="320"]
    321 [penwidth=3,label="321"]
    322 [penwidth=3,label="322"]
    323 [penwidth=3,label="323"]
    324 [penwidth=3,label="324"]
    325 [penwidth=3,label="325"]
    326 [penwidth=3,label="326"]
    327 [penwidth=3,label="327"]
    328 [penwidth=3,label="328"]
    329 [penwidth=3,label="329"]
    330 [penwidth=3,label="330"]
    331 [penwidth=3,label="331"]
    332 [penwidth=3,label="332"]
    333 [penwidth=3,label="333"]
    334 [penwidth=3,label="334"]
    335 [penwidth=3,label="335"]
    336 [penwidth=3,label="336"]
    337 [penwidth=3,label="337"]
    338 [penwidth=3,label="338"]
    339 [penwidth=3,label="339"]
    340 [penwidth=3,label="340"]
    341 [penwidth=3,label="341"]
    342 [penwidth=3,label="342"]
    343 [penwidth=3,label="343"]
    344 [penwidth=3,label="344"]
    345 [penwidth=3,label="345"]
    346 [penwidth=3,label="346"]
    347 [penwidth=3,label="347"]
    348 [penwidth=3,label="348"]
    349 [penwidth=3,label="349"]
    350 [penwidth=3,label="350"]
    351 [penwidth=3,label="351"]
    352 [penwidth=3,label="352"]
    353 [penwidth=3,label="353"]
    354 [penwidth=3,label="354"]
    355 [penwidth=3,label="355"]
    356 [penwidth=3,label="356"]
    357 [penwidth=3,label="357"]
    358 [penwidth=3,label="358"]
    359 [penwidth=3,label="359"]
    360 [penwidth=3,label="360"]
    361 [penwidth=3,label="361"]
    362 [penwidth=3,label="362"]
    363 [penwidth=3,label="363"]
    364 [penwidth=3,label="364"]
    365 [penwidth=3,label="365"]
    366 [penwidth=3,label="366"]
    367 [penwidth=3,label="367"]
    368 [penwidth=3,label="368"]
    369 [penwidth=3,label="369"]
    370 [penwidth=3,label="370"]
    371 [penwidth=3,label="371"]
    372 [penwidth=3,label="372"]
    373 [penwidth=3,label="373"]
    374 [penwidth=3,label="374"]
    375 [penwidth=3,label="375"]
    376 [penwidth=3,label="376"]
    377 [penwidth=3,label="377"]
    378 [penwidth=3,label="378"]
    379 [penwidth=3,label="379"]
    380 [penwidth=3,label="380"]
    381 [penwidth=3,label="381"]
    382 [penwidth=3,label="382"]
    383 [penwidth=3,label="383"]
    384 [penwidth=3,label="384"]
    385 [penwidth=3,label="385"]
    386 [penwidth=3,label="386"]
    387 [penwidth=3,label="387"]
    388 [penwidth=3,label="388"]
    389 [penwidth=3,label="389"]
    390 [penwidth=3,label="390"]
    391 [penwidth=3,label="391"]
    392 [penwidth=3,label="392"]
    393 [penwidth=3,label="393"]
    394 [penwidth=3,label="394"]
    395 [penwidth=3,label="395"]
    396 [penwidth=3,label="396"]
    397 [penwidth=3,label="397"]
    398 [penwidth=3,label="398"]
    399 [penwidth=3,label="399"]

    331 -> 0 [penwidth=2]
    373 -> 0 [penwidth=2]
    332 -> 0 [penwidth=2]
    374 -> 0 [penwidth=2]
    333 -> 0 [penwidth=2]
    375 -> 0 [penwidth=2]
    334 -> 331 [penwidth=2]
    376 -> 331 [penwidth=2]
    335 -> 331 [penwidth=2]
    377 -> 331 [penwidth=2]
    336 -> 331 [penwidth=2]
    378 -> 331 [penwidth=2]
    337 -> 331 [penwidth=2]
    379 -> 331 [penwidth=2]
    338 -> 331 [penwidth=2]
    380 -> 331 [penwidth=2]
    339 -> 331 [penwidth=2]
    381 -> 331 [penwidth=2]
    340 -> 331 [penwidth=2]
    382 -> 331 [penwidth=2]
    341 -> 331 [penwidth=2]
    383 -> 331 [penwidth=2]
    342 -> 331 [penwidth=2]
    384 -> 331 [penwidth=2]
    343 -> 331 [penwidth=2]
    385 -> 331 [penwidth=2]
    344 -> 373 [penwidth=2]
    386 -> 373 [penwidth=2]
    345 -> 373 [penwidth=2]
    387 -> 373 [penwidth=2]
    346 -> 373 [penwidth=2]
    388 -> 373 [penwidth=2]
    347 -> 373 [penwidth=2]
    389 -> 373 [penwidth=2]
    348 -> 373 [penwidth=2]
    390 -> 373 [penwidth=2]
    349 -> 373 [penwidth=2]
    391 -> 373 [penwidth=2]
    350 -> 373 [penwidth=2]
    392 -> 373 [penwidth=2]
    351 -> 373 [penwidth=2]
    393 -> 373 [penwidth=2]
    352 -> 373 [penwidth=2]
    394 -> 373 [penwidth=2]
    353 -> 373 [penwidth=2]
    395 -> 373 [penwidth=2]
    354 -> 373 [penwidth=2]
    396 -> 373 [penwidth=2]
    355 -> 373 [penwidth=2]
    397 -> 373 [penwidth=2]
    356 -> 373 [penwidth=2]
    398 -> 373 [penwidth=2]
    357 -> 332 [penwidth=2]
    399 -> 332 [penwidth=2]
    358 -> 332 [penwidth=2]
    359 -> 332 [penwidth=2]
    360 -> 332 [penwidth=2]
    361 -> 332 [penwidth=2]
    362 -> 332 [penwidth=2]
    363 -> 332 [penwidth=2]
    364 -> 332 [penwidth=2]
    365 -> 332 [penwidth=2]
    366 -> 332 [penwidth=2]
    367 -> 332 [penwidth=2]
    368 -> 332 [penwidth=2]
    369 -> 332 [penwidth=2]
    370 -> 332 [penwidth=2]
    371 -> 332 [penwidth=2]
    372 -> 332 [penwidth=2]
    37 -> 332 [penwidth=2]
    79 -> 332 [penwidth=2]
    289 -> 374 [penwidth=2]
    38 -> 374 [penwidth=2]
    80 -> 374 [penwidth=2]
    290 -> 333 [penwidth=2]
    39 -> 333 [penwidth=2]
    81 -> 333 [penwidth=2]
    291 -> 333 [penwidth=2]
    40 -> 375 [penwidth=2]
    82 -> 375 [penwidth=2]
    292 -> 375 [penwidth=2]
    41 -> 375 [penwidth=2]
    83 -> 375 [penwidth=2]
    293 -> 375 [penwidth=2]
    42 -> 375 [penwidth=2]
    84 -> 375 [penwidth=2]
    294 -> 375 [penwidth=2]
    43 -> 375 [penwidth=2]
    85 -> 375 [penwidth=2]
    295 -> 375 [penwidth=2]
    44 -> 375 [penwidth=2]
    86 -> 375 [penwidth=2]
    296 -> 375 [penwidth=2]
    45 -> 375 [penwidth=2]
    87 -> 375 [penwidth=2]
    297 -> 375 [penwidth=2]
    46 -> 375 [penwidth=2]
    88 -> 375 [penwidth=2]
    298 -> 375 [penwidth=2]
    47 -> 375 [penwidth=2]
    89 -> 375 [penwidth=2]
    299 -> 375 [penwidth=2]
    48 -> 375 [penwidth=2]
    90 -> 334 [penwidth=2]
    300 -> 334 [penwidth=2]
    49 -> 334 [penwidth=2]
    91 -> 334 [penwidth=2]
    301 -> 334 [penwidth=2]
    50 -> 334 [penwidth=2]
    92 -> 334 [penwidth=2]
    302 -> 334 [penwidth=2]
    51 -> 334 [penwidth=2]
    93 -> 334 [penwidth=2]
    303 -> 376 [penwidth=2]
    52 -> 376 [penwidth=2]
    94 -> 376 [penwidth=2]
    304 -> 376 [penwidth=2]
    53 -> 335 [penwidth=2]
    95 -> 335 [penwidth=2]
    305 -> 335 [penwidth=2]
    54 -> 335 [penwidth=2]
    96 -> 335 [penwidth=2]
    306 -> 335 [penwidth=2]
    55 -> 335 [penwidth=2]
    97 -> 335 [penwidth=2]
    307 -> 335 [penwidth=2]
    56 -> 335 [penwidth=2]
    98 -> 335 [penwidth=2]
    308 -> 335 [penwidth=2]
    57 -> 335 [penwidth=2]
    99 -> 335 [penwidth=2]
    309 -> 335 [penwidth=2]
    58 -> 377 [penwidth=2]
    100 -> 377 [penwidth=2]
    310 -> 377 [penwidth=2]
    59 -> 377 [penwidth=2]
    101 -> 377 [penwidth=2]
    311 -> 377 [penwidth=2]
    60 -> 377 [penwidth=2]
    102 -> 377 [penwidth=2]
    312 -> 377 [penwidth=2]
    61 -> 377 [penwidth=2]
    103 -> 377 [penwidth=2]
    313 -> 377 [penwidth=2]
    62 -> 336 [penwidth=2]
    104 -> 378 [penwidth=2]
    314 -> 378 [penwidth=2]
    63 -> 378 [penwidth=2]
    105 -> 378 [penwidth=2]
    315 -> 378 [penwidth=2]
    64 -> 378 [penwidth=2]
    106 -> 378 [penwidth=2]
    316 -> 378 [penwidth=2]
    65 -> 378 [penwidth=2]
    107 -> 378 [penwidth=2]
    317 -> 378 [penwidth=2]
    66 -> 378 [penwidth=2]
    108 -> 378 [penwidth=2]
    318 -> 378 [penwidth=2]
    67 -> 378 [penwidth=2]
    109 -> 378 [penwidth=2]
    319 -> 378 [penwidth=2]
    68 -> 378 [penwidth=2]
    110 -> 378 [penwidth=2]
    320 -> 378 [penwidth=2]
    69 -> 337 [penwidth=2]
    111 -> 337 [penwidth=2]
    321 -> 337 [penwidth=2]
    70 -> 337 [penwidth=2]
    112 -> 337 [penwidth=2]
    322 -> 337 [penwidth=2]
    71 -> 337 [penwidth=2]
    113 -> 337 [penwidth=2]
    323 -> 337 [penwidth=2]
    72 -> 337 [penwidth=2]
    114 -> 337 [penwidth=2]
    324 -> 337 [penwidth=2]
    73 -> 337 [penwidth=2]
    115 -> 337 [penwidth=2]
    325 -> 337 [penwidth=2]
    74 -> 337 [penwidth=2]
    116 -> 337 [penwidth=2]
    326 -> 337 [penwidth=2]
    75 -> 337 [penwidth=2]
    117 -> 337 [penwidth=2]
    327 -> 337 [penwidth=2]
    76 -> 337 [penwidth=2]
    118 -> 337 [penwidth=2]
    328 -> 337 [penwidth=2]
    77 -> 337 [penwidth=2]
    119 -> 337 [penwidth=2]
    329 -> 337 [penwidth=2]
    120 -> 379 [penwidth=2]
    78 -> 379 [penwidth=2]
    330 -> 379 [penwidth=2]
    247 -> 379 [penwidth=2]
    248 -> 379 [penwidth=2]
    249 -> 379 [penwidth=2]
    250 -> 379 [penwidth=2]
    251 -> 379 [penwidth=2]
    252 -> 379 [penwidth=2]
    1 -> 379 [penwidth=2]
    253 -> 379 [penwidth=2]
    2 -> 338 [penwidth=2]
    254 -> 338 [penwidth=2]
    3 -> 338 [penwidth=2]
    255 -> 338 [penwidth=2]
    4 -> 338 [penwidth=2]
    256 -> 338 [penwidth=2]
    5 -> 338 [penwidth=2]
    257 -> 338 [penwidth=2]
    6 -> 380 [penwidth=2]
    258 -> 380 [penwidth=2]
    7 -> 339 [penwidth=2]
    259 -> 339 [penwidth=2]
    8 -> 339 [penwidth=2]
    260 -> 339 [penwidth=2]
    9 -> 339 [penwidth=2]
    261 -> 339 [penwidth=2]
    10 -> 339 [penwidth=2]
    262 -> 339 [penwidth=2]
    11 -> 339 [penwidth=2]
    263 -> 339 [penwidth=2]
    12 -> 339 [penwidth=2]
    264 -> 381 [penwidth=2]
    13 -> 381 [penwidth=2]
    265 -> 381 [penwidth=2]
    14 -> 381 [penwidth=2]
    266 -> 381 [penwidth=2]
    15 -> 381 [penwidth=2]
    267 -> 381 [penwidth=2]
    16 -> 381 [penwidth=2]
    268 -> 381 [penwidth=2]
    17 -> 381 [penwidth=2]
    269 -> 381 [penwidth=2]
    18 -> 381 [penwidth=2]
    270 -> 381 [penwidth=2]
    19 -> 381 [penwidth=2]
    271 -> 381 [penwidth=2]
    20 -> 381 [penwidth=2]
    272 -> 381 [penwidth=2]
    21 -> 381 [penwidth=2]
    273 -> 381 [penwidth=2]
    22 -> 381 [penwidth=2]
    274 -> 381 [penwidth=2]
    23 -> 381 [penwidth=2]
    275 -> 381 [penwidth=2]
    24 -> 340 [penwidth=2]
    276 -> 340 [penwidth=2]
    25 -> 340 [penwidth=2]
    277 -> 340 [penwidth=2]
    26 -> 340 [penwidth=2]
    278 -> 340 [penwidth=2]
    27 -> 340 [penwidth=2]
    279 -> 340 [penwidth=2]
    28 -> 340 [penwidth=2]
    280 -> 340 [penwidth=2]
    29 -> 340 [penwidth=2]
    281 -> 382 [penwidth=2]
    30 -> 382 [penwidth=2]
    282 -> 382 [penwidth=2]
    31 -> 382 [penwidth=2]
    283 -> 382 [penwidth=2]
    32 -> 382 [penwidth=2]
    284 -> 382 [penwidth=2]
    33 -> 382 [penwidth=2]
    285 -> 382 [penwidth=2]
    34 -> 382 [penwidth=2]
    286 -> 382 [penwidth=2]
    35 -> 382 [penwidth=2]
    287 -> 382 [penwidth=2]
    36 -> 382 [penwidth=2]
    288 -> 382 [penwidth=2]
    121 -> 382 [penwidth=2]
    205 -> 382 [penwidth=2]
    122 -> 382 [penwidth=2]
    206 -> 382 [penwidth=2]
    123 -> 382 [penwidth=2]
    207 -> 382 [penwidth=2]
    124 -> 382 [penwidth=2]
    208 -> 382 [penwidth=2]
    125 -> 382 [penwidth=2]
    209 -> 382 [penwidth=2]
    126 -> 382 [penwidth=2]
    210 -> 382 [penwidth=2]
    127 -> 382 [penwidth=2]
    211 -> 341 [penwidth=2]
    128 -> 341 [penwidth=2]
    212 -> 341 [penwidth=2]
    129 -> 341 [penwidth=2]
    213 -> 341 [penwidth=2]
    130 -> 341 [penwidth=2]
    214 -> 341 [penwidth=2]
    131 -> 341 [penwidth=2]
    215 -> 341 [penwidth=2]
    132 -> 341 [penwidth=2]
    216 -> 341 [penwidth=2]
    133 -> 341 [penwidth=2]
    217 -> 341 [penwidth=2]
    134 -> 341 [penwidth=2]
    218 -> 341 [penwidth=2]
    135 -> 383 [penwidth=2]
    219 -> 383 [penwidth=2]
    136 -> 383 [penwidth=2]
    220 -> 383 [penwidth=2]
    137 -> 383 [penwidth=2]
    221 -> 383 [penwidth=2]
    138 -> 383 [penwidth=2]
    222 -> 383 [penwidth=2]
    139 -> 383 [penwidth=2]
    223 -> 383 [penwidth=2]
    140 -> 383 [penwidth=2]
    224 -> 383 [penwidth=2]
    141 -> 383 [penwidth=2]
    225 -> 383 [penwidth=2]
    142 -> 383 [penwidth=2]
    226 -> 383 [penwidth=2]
    143 -> 383 [penwidth=2]
    227 -> 383 [penwidth=2]
    144 -> 383 [penwidth=2]
    228 -> 383 [penwidth=2]
    145 -> 383 [penwidth=2]
    229 -> 383 [penwidth=2]
    146 -> 383 [penwidth=2]
    230 -> 383 [penwidth=2]
    147 -> 342 [penwidth=2]
    231 -> 342 [penwidth=2]
    148 -> 342 [penwidth=2]
    232 -> 342 [penwidth=2]
    149 -> 342 [penwidth=2]
    233 -> 342 [penwidth=2]
    150 -> 342 [penwidth=2]
    234 -> 342 [penwidth=2]
    151 -> 342 [penwidth=2]
    235 -> 342 [penwidth=2]
    152 -> 342 [penwidth=2]
    236 -> 342 [penwidth=2]
    153 -> 342 [penwidth=2]
    237 -> 342 [penwidth=2]
    154 -> 342 [penwidth=2]
    238 -> 384 [penwidth=2]
    155 -> 384 [penwidth=2]
    239 -> 384 [penwidth=2]
    156 -> 384 [penwidth=2]
    240 -> 384 [penwidth=2]
    157 -> 384 [penwidth=2]
    241 -> 384 [penwidth=2]
    158 -> 384 [penwidth=2]
    242 -> 384 [penwidth=2]
    159 -> 384 [penwidth=2]
    243 -> 384 [penwidth=2]
    160 -> 384 [penwidth=2]
    244 -> 384 [penwidth=2]
    161 -> 384 [penwidth=2]
    245 -> 384 [penwidth=2]
    246 -> 384 [penwidth=2]
    162 -> 384 [penwidth=2]
    163 -> 384 [penwidth=2]
    164 -> 384 [penwidth=2]
    165 -> 384 [penwidth=2]
    166 -> 384 [penwidth=2]
    167 -> 384 [penwidth=2]
    168 -> 384 [penwidth=2]
    169 -> 384 [penwidth=2]
    170 -> 343 [penwidth=2]
    171 -> 343 [penwidth=2]
    172 -> 343 [penwidth=2]
    173 -> 343 [penwidth=2]
    174 -> 343 [penwidth=2]
    175 -> 343 [penwidth=2]
    176 -> 343 [penwidth=2]
    177 -> 343 [penwidth=2]
    178 -> 343 [penwidth=2]
    179 -> 343 [penwidth=2]
    180 -> 343 [penwidth=2]
    181 -> 343 [penwidth=2]
    182 -> 343 [penwidth=2]
    183 -> 343 [penwidth=2]
    184 -> 343 [penwidth=2]
    185 -> 343 [penwidth=2]
    186 -> 343 [penwidth=2]
    187 -> 343 [penwidth=2]
    188 -> 343 [penwidth=2]
    189 -> 343 [penwidth=2]
    190 -> 343 [penwidth=2]
    191 -> 343 [penwidth=2]
    192 -> 343 [penwidth=2]
    193 -> 343 [penwidth=2]
    194 -> 343 [penwidth=2]
    195 -> 343 [penwidth=2]
    196 -> 343 [penwidth=2]
    197 -> 343 [penwidth=2]
    198 -> 385 [penwidth=2]
    199 -> 385 [penwidth=2]
    200 -> 385 [penwidth=2]
    201 -> 385 [penwidth=2]
    202 -> 385 [penwidth=2]
    203 -> 385 [penwidth=2]
    204 -> 385 [penwidth=2]
    346 -> 333 [penwidth=2]
    353 -> 333 [penwidth=2]
    355 -> 375 [penwidth=2]
    355 -> 333 [penwidth=2]
    355 -> 331 [penwidth=2]
    356 -> 375 [penwidth=2]
    356 -> 374 [penwidth=2]
    361 -> 333 [penwidth=2]
    368 -> 331 [penwidth=2]
    368 -> 375 [penwidth=2]
    368 -> 373 [penwidth=2]
    368 -> 374 [penwidth=2]
    90 -> 353 [penwidth=2]
    90 -> 357 [penwidth=2]
    90 -> 291 [penwidth=2]
    90 -> 369 [penwidth=2]
    90 -> 39 [penwidth=2]
    90 -> 399 [penwidth=2]
    90 -> 371 [penwidth=2]
    90 -> 343 [penwidth=2]
    90 -> 363 [penwidth=2]
    90 -> 292 [penwidth=2]
    90 -> 339 [penwidth=2]
    90 -> 385 [penwidth=2]
    90 -> 290 [penwidth=2]
    90 -> 345 [penwidth=2]
    90 -> 352 [penwidth=2]
    90 -> 293 [penwidth=2]
    90 -> 379 [penwidth=2]
    90 -> 294 [penwidth=2]
    90 -> 79 [penwidth=2]
    90 -> 336 [penwidth=2]
    90 -> 42 [penwidth=2]
    90 -> 48 [penwidth=2]
    90 -> 47 [penwidth=2]
    90 -> 87 [penwidth=2]
    90 -> 354 [penwidth=2]
    90 -> 390 [penwidth=2]
    90 -> 37 [penwidth=2]
    90 -> 358 [penwidth=2]
    90 -> 388 [penwidth=2]
    90 -> 38 [penwidth=2]
    90 -> 382 [penwidth=2]
    90 -> 386 [penwidth=2]
    90 -> 337 [penwidth=2]
    90 -> 43 [penwidth=2]
    90 -> 82 [penwidth=2]
    90 -> 347 [penwidth=2]
    90 -> 376 [penwidth=2]
    54 -> 355 [penwidth=2]
    54 -> 359 [penwidth=2]
    54 -> 292 [penwidth=2]
    54 -> 372 [penwidth=2]
    54 -> 346 [penwidth=2]
    54 -> 336 [penwidth=2]
    54 -> 290 [penwidth=2]
    54 -> 399 [penwidth=2]
    54 -> 392 [penwidth=2]
    54 -> 337 [penwidth=2]
    54 -> 349 [penwidth=2]
    54 -> 368 [penwidth=2]
    54 -> 358 [penwidth=2]
    54 -> 299 [penwidth=2]
    54 -> 354 [penwidth=2]
    54 -> 386 [penwidth=2]
    54 -> 380 [penwidth=2]
    54 -> 367 [penwidth=2]
    54 -> 351 [penwidth=2]
    54 -> 81 [penwidth=2]
    54 -> 87 [penwidth=2]
    54 -> 382 [penwidth=2]
    54 -> 344 [penwidth=2]
    54 -> 353 [penwidth=2]
    54 -> 343 [penwidth=2]
    54 -> 48 [penwidth=2]
    54 -> 378 [penwidth=2]
    54 -> 362 [penwidth=2]
    54 -> 397 [penwidth=2]
    54 -> 393 [penwidth=2]
    54 -> 37 [penwidth=2]
    54 -> 377 [penwidth=2]
    54 -> 39 [penwidth=2]
    54 -> 334 [penwidth=2]
    54 -> 352 [penwidth=2]
    54 -> 361 [penwidth=2]
    54 -> 388 [penwidth=2]
    54 -> 46 [penwidth=2]
    54 -> 365 [penwidth=2]
    54 -> 391 [penwidth=2]
    54 -> 398 [penwidth=2]
    54 -> 342 [penwidth=2]
    54 -> 42 [penwidth=2]
    54 -> 379 [penwidth=2]
    54 -> 293 [penwidth=2]
    54 -> 45 [penwidth=2]
    54 -> 350 [penwidth=2]
    97 -> 296 [penwidth=2]
    97 -> 345 [penwidth=2]
    97 -> 350 [penwidth=2]
    97 -> 399 [penwidth=2]
    97 -> 354 [penwidth=2]
    97 -> 355 [penwidth=2]
    97 -> 389 [penwidth=2]
    97 -> 388 [penwidth=2]
    97 -> 37 [penwidth=2]
    97 -> 377 [penwidth=2]
    97 -> 343 [penwidth=2]
    97 -> 395 [penwidth=2]
    97 -> 352 [penwidth=2]
    97 -> 82 [penwidth=2]
    97 -> 44 [penwidth=2]
    97 -> 48 [penwidth=2]
    97 -> 384 [penwidth=2]
    97 -> 290 [penwidth=2]
    97 -> 344 [penwidth=2]
    97 -> 86 [penwidth=2]
    97 -> 353 [penwidth=2]
    97 -> 38 [penwidth=2]
    97 -> 88 [penwidth=2]
    97 -> 359 [penwidth=2]
    97 -> 383 [penwidth=2]
    97 -> 349 [penwidth=2]
    97 -> 83 [penwidth=2]
    97 -> 382 [penwidth=2]
    97 -> 293 [penwidth=2]
    97 -> 298 [penwidth=2]
    97 -> 365 [penwidth=2]
    97 -> 342 [penwidth=2]
    97 -> 81 [penwidth=2]
    97 -> 370 [penwidth=2]
    97 -> 46 [penwidth=2]
    97 -> 381 [penwidth=2]
    97 -> 41 [penwidth=2]
    97 -> 364 [penwidth=2]
    97 -> 339 [penwidth=2]
    97 -> 393 [penwidth=2]
    97 -> 356 [penwidth=2]
    97 -> 363 [penwidth=2]
    97 -> 289 [penwidth=2]
    97 -> 360 [penwidth=2]
    97 -> 386 [penwidth=2]
    97 -> 379 [penwidth=2]
    97 -> 376 [penwidth=2]
    97 -> 387 [penwidth=2]
    97 -> 341 [penwidth=2]
    97 -> 372 [penwidth=2]
    97 -> 369 [penwidth=2]
    111 -> 366 [penwidth=2]
    111 -> 390 [penwidth=2]
    111 -> 298 [penwidth=2]
    111 -> 354 [penwidth=2]
    111 -> 290 [penwidth=2]
    111 -> 335 [penwidth=2]
    111 -> 369 [penwidth=2]
    111 -> 384 [penwidth=2]
    111 -> 360 [penwidth=2]
    111 -> 397 [penwidth=2]
    322 -> 386 [penwidth=2]
    322 -> 390 [penwidth=2]
    322 -> 336 [penwidth=2]
    322 -> 344 [penwidth=2]
    322 -> 86 [penwidth=2]
    322 -> 372 [penwidth=2]
    322 -> 389 [penwidth=2]
    322 -> 299 [penwidth=2]
    322 -> 366 [penwidth=2]
    322 -> 352 [penwidth=2]
    322 -> 353 [penwidth=2]
    322 -> 80 [penwidth=2]
    322 -> 393 [penwidth=2]
    322 -> 338 [penwidth=2]
    322 -> 341 [penwidth=2]
    322 -> 357 [penwidth=2]
    322 -> 385 [penwidth=2]
    322 -> 340 [penwidth=2]
    322 -> 379 [penwidth=2]
    322 -> 48 [penwidth=2]
    322 -> 382 [penwidth=2]
    322 -> 339 [penwidth=2]
    322 -> 392 [penwidth=2]
    322 -> 82 [penwidth=2]
    322 -> 292 [penwidth=2]
    322 -> 391 [penwidth=2]
    322 -> 395 [penwidth=2]
    322 -> 81 [penwidth=2]
    322 -> 381 [penwidth=2]
    329 -> 377 [penwidth=2]
    329 -> 376 [penwidth=2]
    329 -> 85 [penwidth=2]
    329 -> 398 [penwidth=2]
    329 -> 361 [penwidth=2]
    329 -> 391 [penwidth=2]
    329 -> 395 [penwidth=2]
    329 -> 346 [penwidth=2]
    329 -> 46 [penwidth=2]
    329 -> 41 [penwidth=2]
    329 -> 299 [penwidth=2]
    329 -> 44 [penwidth=2]
    329 -> 366 [penwidth=2]
    329 -> 339 [penwidth=2]
    329 -> 387 [penwidth=2]
    329 -> 294 [penwidth=2]
    329 -> 354 [penwidth=2]
    329 -> 362 [penwidth=2]
    329 -> 84 [penwidth=2]
    329 -> 382 [penwidth=2]
    329 -> 297 [penwidth=2]
    329 -> 363 [penwidth=2]
    329 -> 393 [penwidth=2]
    329 -> 42 [penwidth=2]
    329 -> 334 [penwidth=2]
    329 -> 87 [penwidth=2]
    329 -> 81 [penwidth=2]
    329 -> 341 [penwidth=2]
    329 -> 43 [penwidth=2]
    329 -> 342 [penwidth=2]
    329 -> 356 [penwidth=2]
    329 -> 39 [penwidth=2]
    329 -> 360 [penwidth=2]
    329 -> 296 [penwidth=2]
    329 -> 397 [penwidth=2]
    329 -> 340 [penwidth=2]
    329 -> 369 [penwidth=2]
    329 -> 336 [penwidth=2]
    329 -> 79 [penwidth=2]
    329 -> 295 [penwidth=2]
    329 -> 89 [penwidth=2]
    329 -> 372 [penwidth=2]
    329 -> 347 [penwidth=2]
    329 -> 392 [penwidth=2]
    329 -> 338 [penwidth=2]
    329 -> 379 [penwidth=2]
    329 -> 88 [penwidth=2]
    329 -> 357 [penwidth=2]
    329 -> 82 [penwidth=2]
    329 -> 358 [penwidth=2]
    329 -> 344 [penwidth=2]
    329 -> 292 [penwidth=2]
    329 -> 348 [penwidth=2]
    329 -> 335 [penwidth=2]
    249 -> 47 [penwidth=2]
    249 -> 362 [penwidth=2]
    249 -> 352 [penwidth=2]
    249 -> 378 [penwidth=2]
    249 -> 361 [penwidth=2]
    249 -> 81 [penwidth=2]
    249 -> 334 [penwidth=2]
    249 -> 45 [penwidth=2]
    249 -> 41 [penwidth=2]
    249 -> 48 [penwidth=2]
    249 -> 38 [penwidth=2]
    249 -> 344 [penwidth=2]
    249 -> 298 [penwidth=2]
    249 -> 83 [penwidth=2]
    249 -> 290 [penwidth=2]
    249 -> 337 [penwidth=2]
    249 -> 341 [penwidth=2]
    249 -> 340 [penwidth=2]
    249 -> 398 [penwidth=2]
    249 -> 338 [penwidth=2]
    249 -> 44 [penwidth=2]
    249 -> 296 [penwidth=2]
    249 -> 392 [penwidth=2]
    249 -> 335 [penwidth=2]
    249 -> 348 [penwidth=2]
    249 -> 394 [penwidth=2]
    249 -> 86 [penwidth=2]
    249 -> 345 [penwidth=2]
    249 -> 351 [penwidth=2]
    249 -> 367 [penwidth=2]
    249 -> 377 [penwidth=2]
    249 -> 339 [penwidth=2]
    249 -> 357 [penwidth=2]
    249 -> 43 [penwidth=2]
    249 -> 349 [penwidth=2]
    249 -> 295 [penwidth=2]
    249 -> 294 [penwidth=2]
    249 -> 87 [penwidth=2]
    249 -> 380 [penwidth=2]
    249 -> 384 [penwidth=2]
    249 -> 372 [penwidth=2]
    249 -> 390 [penwidth=2]
    249 -> 386 [penwidth=2]
    249 -> 79 [penwidth=2]
    249 -> 376 [penwidth=2]
    249 -> 366 [penwidth=2]
    249 -> 299 [penwidth=2]
    249 -> 40 [penwidth=2]
    249 -> 385 [penwidth=2]
    249 -> 39 [penwidth=2]
    249 -> 42 [penwidth=2]
    249 -> 395 [penwidth=2]
    249 -> 85 [penwidth=2]
    249 -> 353 [penwidth=2]
    249 -> 388 [penwidth=2]
    249 -> 382 [penwidth=2]
    249 -> 365 [penwidth=2]
    249 -> 292 [penwidth=2]
    249 -> 350 [penwidth=2]
    249 -> 342 [penwidth=2]
    249 -> 387 [penwidth=2]
    249 -> 363 [penwidth=2]
    249 -> 369 [penwidth=2]
    249 -> 370 [penwidth=2]
    249 -> 88 [penwidth=2]
    249 -> 399 [penwidth=2]
    249 -> 356 [penwidth=2]
    249 -> 297 [penwidth=2]
    249 -> 291 [penwidth=2]
    249 -> 371 [penwidth=2]
    249 -> 393 [penwidth=2]
    249 -> 46 [penwidth=2]
    249 -> 84 [penwidth=2]
    249 -> 82 [penwidth=2]
    249 -> 89 [penwidth=2]
    249 -> 37 [penwidth=2]
    249 -> 347 [penwidth=2]
    249 -> 343 [penwidth=2]
    249 -> 289 [penwidth=2]
    249 -> 397 [penwidth=2]
    249 -> 354 [penwidth=2]
    249 -> 80 [penwidth=2]
    249 -> 336 [penwidth=2]
    249 -> 359 [penwidth=2]
    249 -> 360 [penwidth=2]
    249 -> 293 [penwidth=2]
    249 -> 358 [penwidth=2]
    249 -> 391 [penwidth=2]
    249 -> 381 [penwidth=2]
    249 -> 383 [penwidth=2]
    249 -> 389 [penwidth=2]
    249 -> 364 [penwidth=2]
    253 -> 369 [penwidth=2]
    253 -> 362 [penwidth=2]
    253 -> 395 [penwidth=2]
    253 -> 86 [penwidth=2]
    253 -> 357 [penwidth=2]
    253 -> 372 [penwidth=2]
    253 -> 343 [penwidth=2]
    253 -> 350 [penwidth=2]
    253 -> 393 [penwidth=2]
    253 -> 40 [penwidth=2]
    253 -> 47 [penwidth=2]
    253 -> 84 [penwidth=2]
    253 -> 297 [penwidth=2]
    253 -> 383 [penwidth=2]
    253 -> 367 [penwidth=2]
    253 -> 342 [penwidth=2]
    253 -> 385 [penwidth=2]
    253 -> 345 [penwidth=2]
    253 -> 365 [penwidth=2]
    253 -> 37 [penwidth=2]
    253 -> 48 [penwidth=2]
    253 -> 356 [penwidth=2]
    253 -> 80 [penwidth=2]
    253 -> 41 [penwidth=2]
    253 -> 361 [penwidth=2]
    253 -> 337 [penwidth=2]
    253 -> 353 [penwidth=2]
    253 -> 341 [penwidth=2]
    253 -> 79 [penwidth=2]
    253 -> 371 [penwidth=2]
    253 -> 392 [penwidth=2]
    253 -> 44 [penwidth=2]
    253 -> 346 [penwidth=2]
    253 -> 351 [penwidth=2]
    253 -> 376 [penwidth=2]
    253 -> 377 [penwidth=2]
    253 -> 83 [penwidth=2]
    253 -> 382 [penwidth=2]
    253 -> 46 [penwidth=2]
    253 -> 390 [penwidth=2]
    253 -> 386 [penwidth=2]
    253 -> 42 [penwidth=2]
    253 -> 391 [penwidth=2]
    253 -> 384 [penwidth=2]
    253 -> 355 [penwidth=2]
    253 -> 363 [penwidth=2]
    253 -> 347 [penwidth=2]
    253 -> 349 [penwidth=2]
    253 -> 360 [penwidth=2]
    253 -> 87 [penwidth=2]
    253 -> 89 [penwidth=2]
    253 -> 39 [penwidth=2]
    253 -> 368 [penwidth=2]
    253 -> 366 [penwidth=2]
    253 -> 45 [penwidth=2]
    253 -> 82 [penwidth=2]
    253 -> 81 [penwidth=2]
    253 -> 299 [penwidth=2]
    253 -> 334 [penwidth=2]
    253 -> 339 [penwidth=2]
    253 -> 336 [penwidth=2]
    253 -> 380 [penwidth=2]
    253 -> 399 [penwidth=2]
    253 -> 296 [penwidth=2]
    253 -> 397 [penwidth=2]
    253 -> 335 [penwidth=2]
    253 -> 352 [penwidth=2]
    253 -> 370 [penwidth=2]
    253 -> 396 [penwidth=2]
    253 -> 344 [penwidth=2]
    253 -> 364 [penwidth=2]
    253 -> 354 [penwidth=2]
    253 -> 387 [penwidth=2]
    253 -> 298 [penwidth=2]
    253 -> 295 [penwidth=2]
    253 -> 389 [penwidth=2]
    253 -> 292 [penwidth=2]
    253 -> 340 [penwidth=2]
    253 -> 289 [penwidth=2]
    253 -> 359 [penwidth=2]
    253 -> 43 [penwidth=2]
    253 -> 85 [penwidth=2]
    253 -> 294 [penwidth=2]
    253 -> 88 [penwidth=2]
    253 -> 394 [penwidth=2]
    253 -> 388 [penwidth=2]
    253 -> 398 [penwidth=2]
    253 -> 38 [penwidth=2]
    253 -> 348 [penwidth=2]
    253 -> 293 [penwidth=2]
    263 -> 380 [penwidth=2]
    263 -> 381 [penwidth=2]
    263 -> 391 [penwidth=2]
    263 -> 367 [penwidth=2]
    263 -> 342 [penwidth=2]
    263 -> 42 [penwidth=2]
    263 -> 397 [penwidth=2]
    263 -> 364 [penwidth=2]
    263 -> 359 [penwidth=2]
    263 -> 352 [penwidth=2]
    263 -> 349 [penwidth=2]
    263 -> 41 [penwidth=2]
    263 -> 350 [penwidth=2]
    263 -> 353 [penwidth=2]
    263 -> 394 [penwidth=2]
    263 -> 88 [penwidth=2]
    263 -> 387 [penwidth=2]
    263 -> 79 [penwidth=2]
    263 -> 383 [penwidth=2]
    263 -> 393 [penwidth=2]
    263 -> 378 [penwidth=2]
    263 -> 341 [penwidth=2]
    263 -> 346 [penwidth=2]
    263 -> 337 [penwidth=2]
    263 -> 295 [penwidth=2]
    263 -> 297 [penwidth=2]
    263 -> 80 [penwidth=2]
    263 -> 47 [penwidth=2]
    263 -> 390 [penwidth=2]
    263 -> 386 [penwidth=2]
    263 -> 292 [penwidth=2]
    263 -> 81 [penwidth=2]
    263 -> 334 [penwidth=2]
    263 -> 291 [penwidth=2]
    263 -> 370 [penwidth=2]
    263 -> 40 [penwidth=2]
    263 -> 345 [penwidth=2]
    263 -> 376 [penwidth=2]
    263 -> 369 [penwidth=2]
    263 -> 389 [penwidth=2]
    263 -> 39 [penwidth=2]
    263 -> 43 [penwidth=2]
    263 -> 362 [penwidth=2]
    263 -> 86 [penwidth=2]
    263 -> 84 [penwidth=2]
    268 -> 360 [penwidth=2]
    268 -> 81 [penwidth=2]
    268 -> 389 [penwidth=2]
    268 -> 293 [penwidth=2]
    268 -> 46 [penwidth=2]
    268 -> 344 [penwidth=2]
    268 -> 350 [penwidth=2]
    268 -> 396 [penwidth=2]
    268 -> 297 [penwidth=2]
    268 -> 85 [penwidth=2]
    268 -> 39 [penwidth=2]
    268 -> 384 [penwidth=2]
    268 -> 38 [penwidth=2]
    268 -> 298 [penwidth=2]
    268 -> 290 [penwidth=2]
    268 -> 371 [penwidth=2]
    268 -> 369 [penwidth=2]
    268 -> 372 [penwidth=2]
    268 -> 84 [penwidth=2]
    268 -> 393 [penwidth=2]
    268 -> 299 [penwidth=2]
    268 -> 392 [penwidth=2]
    268 -> 361 [penwidth=2]
    268 -> 367 [penwidth=2]
    268 -> 292 [penwidth=2]
    268 -> 379 [penwidth=2]
    268 -> 363 [penwidth=2]
    268 -> 88 [penwidth=2]
    268 -> 355 [penwidth=2]
    268 -> 399 [penwidth=2]
    268 -> 357 [penwidth=2]
    268 -> 358 [penwidth=2]
    268 -> 337 [penwidth=2]
    268 -> 347 [penwidth=2]
    268 -> 364 [penwidth=2]
    268 -> 41 [penwidth=2]
    268 -> 42 [penwidth=2]
    268 -> 385 [penwidth=2]
    268 -> 45 [penwidth=2]
    277 -> 46 [penwidth=2]
    277 -> 397 [penwidth=2]
    277 -> 337 [penwidth=2]
    277 -> 382 [penwidth=2]
    277 -> 381 [penwidth=2]
    277 -> 366 [penwidth=2]
    277 -> 379 [penwidth=2]
    277 -> 386 [penwidth=2]
    277 -> 296 [penwidth=2]
    277 -> 297 [penwidth=2]
    277 -> 354 [penwidth=2]
    277 -> 292 [penwidth=2]
    277 -> 388 [penwidth=2]
    277 -> 349 [penwidth=2]
    277 -> 378 [penwidth=2]
    277 -> 338 [penwidth=2]
    277 -> 84 [penwidth=2]
    277 -> 351 [penwidth=2]
    277 -> 391 [penwidth=2]
    277 -> 358 [penwidth=2]
    277 -> 47 [penwidth=2]
    277 -> 79 [penwidth=2]
    277 -> 355 [penwidth=2]
    277 -> 298 [penwidth=2]
    277 -> 350 [penwidth=2]
    277 -> 343 [penwidth=2]
    277 -> 384 [penwidth=2]
    277 -> 295 [penwidth=2]
    277 -> 361 [penwidth=2]
    277 -> 48 [penwidth=2]
    277 -> 42 [penwidth=2]
    277 -> 293 [penwidth=2]
    277 -> 289 [penwidth=2]
    277 -> 399 [penwidth=2]
    277 -> 360 [penwidth=2]
    277 -> 383 [penwidth=2]
    277 -> 372 [penwidth=2]
    277 -> 39 [penwidth=2]
    277 -> 393 [penwidth=2]
    277 -> 348 [penwidth=2]
    277 -> 341 [penwidth=2]
    277 -> 45 [penwidth=2]
    277 -> 336 [penwidth=2]
    277 -> 359 [penwidth=2]
    277 -> 398 [penwidth=2]
    277 -> 376 [penwidth=2]
    277 -> 89 [penwidth=2]
    277 -> 362 [penwidth=2]
    277 -> 347 [penwidth=2]
    277 -> 364 [penwidth=2]
    277 -> 339 [penwidth=2]
    277 -> 335 [penwidth=2]
    277 -> 334 [penwidth=2]
    277 -> 344 [penwidth=2]
    277 -> 342 [penwidth=2]
    277 -> 38 [penwidth=2]
    277 -> 353 [penwidth=2]
    277 -> 87 [penwidth=2]
    277 -> 41 [penwidth=2]
    277 -> 80 [penwidth=2]
    277 -> 394 [penwidth=2]
    277 -> 294 [penwidth=2]
    277 -> 85 [penwidth=2]
    277 -> 352 [penwidth=2]
    277 -> 385 [penwidth=2]
    277 -> 82 [penwidth=2]
    29 -> 356 [penwidth=2]
    29 -> 45 [penwidth=2]
    29 -> 394 [penwidth=2]
    29 -> 397 [penwidth=2]
    29 -> 294 [penwidth=2]
    29 -> 372 [penwidth=2]
    29 -> 383 [penwidth=2]
    29 -> 296 [penwidth=2]
    29 -> 355 [penwidth=2]
    29 -> 80 [penwidth=2]
    29 -> 298 [penwidth=2]
    29 -> 87 [penwidth=2]
    29 -> 363 [penwidth=2]
    29 -> 376 [penwidth=2]
    29 -> 336 [penwidth=2]
    29 -> 385 [penwidth=2]
    29 -> 368 [penwidth=2]
    29 -> 369 [penwidth=2]
    29 -> 393 [penwidth=2]
    29 -> 37 [penwidth=2]
    29 -> 85 [penwidth=2]
    29 -> 341 [penwidth=2]
    29 -> 367 [penwidth=2]
    29 -> 357 [penwidth=2]
    29 -> 40 [penwidth=2]
    29 -> 339 [penwidth=2]
    29 -> 290 [penwidth=2]
    29 -> 362 [penwidth=2]
    29 -> 349 [penwidth=2]
    29 -> 47 [penwidth=2]
    29 -> 366 [penwidth=2]
    29 -> 46 [penwidth=2]
    29 -> 398 [penwidth=2]
    29 -> 384 [penwidth=2]
    29 -> 396 [penwidth=2]
    29 -> 346 [penwidth=2]
    29 -> 387 [penwidth=2]
    29 -> 370 [penwidth=2]
    29 -> 371 [penwidth=2]
    29 -> 347 [penwidth=2]
    29 -> 291 [penwidth=2]
    29 -> 345 [penwidth=2]
    29 -> 390 [penwidth=2]
    29 -> 392 [penwidth=2]
    29 -> 44 [penwidth=2]
    29 -> 353 [penwidth=2]
    29 -> 365 [penwidth=2]
    29 -> 381 [penwidth=2]
    29 -> 82 [penwidth=2]
    29 -> 391 [penwidth=2]
    29 -> 352 [penwidth=2]
    29 -> 350 [penwidth=2]
    29 -> 389 [penwidth=2]
    29 -> 83 [penwidth=2]
    29 -> 86 [penwidth=2]
    29 -> 359 [penwidth=2]
    29 -> 43 [penwidth=2]
    29 -> 335 [penwidth=2]
    29 -> 378 [penwidth=2]
    29 -> 399 [penwidth=2]
    29 -> 386 [penwidth=2]
    29 -> 342 [penwidth=2]
    29 -> 297 [penwidth=2]
    29 -> 395 [penwidth=2]
    29 -> 42 [penwidth=2]
    29 -> 81 [penwidth=2]
    29 -> 289 [penwidth=2]
    29 -> 89 [penwidth=2]
    29 -> 38 [penwidth=2]
    29 -> 338 [penwidth=2]
    29 -> 79 [penwidth=2]
    29 -> 293 [penwidth=2]
    29 -> 358 [penwidth=2]
    29 -> 344 [penwidth=2]
    29 -> 380 [penwidth=2]
    29 -> 360 [penwidth=2]
    29 -> 39 [penwidth=2]
    29 -> 348 [penwidth=2]
    29 -> 292 [penwidth=2]
    29 -> 48 [penwidth=2]
    29 -> 337 [penwidth=2]
    29 -> 334 [penwidth=2]
    29 -> 361 [penwidth=2]
    29 -> 351 [penwidth=2]
    29 -> 382 [penwidth=2]
    29 -> 88 [penwidth=2]
    29 -> 354 [penwidth=2]
    29 -> 84 [penwidth=2]
    29 -> 295 [penwidth=2]
    285 -> 376 [penwidth=2]
    285 -> 385 [penwidth=2]
    35 -> 358 [penwidth=2]
    35 -> 339 [penwidth=2]
    35 -> 41 [penwidth=2]
    35 -> 39 [penwidth=2]
    35 -> 362 [penwidth=2]
    35 -> 88 [penwidth=2]
    35 -> 390 [penwidth=2]
    35 -> 299 [penwidth=2]
    35 -> 387 [penwidth=2]
    35 -> 341 [penwidth=2]
    35 -> 48 [penwidth=2]
    35 -> 359 [penwidth=2]
    35 -> 343 [penwidth=2]
    35 -> 84 [penwidth=2]
    35 -> 347 [penwidth=2]
    35 -> 361 [penwidth=2]
    35 -> 38 [penwidth=2]
    35 -> 82 [penwidth=2]
    35 -> 370 [penwidth=2]
    35 -> 393 [penwidth=2]
    35 -> 80 [penwidth=2]
    35 -> 388 [penwidth=2]
    35 -> 83 [penwidth=2]
    35 -> 383 [penwidth=2]
    35 -> 79 [penwidth=2]
    35 -> 386 [penwidth=2]
    35 -> 86 [penwidth=2]
    35 -> 350 [penwidth=2]
    35 -> 399 [penwidth=2]
    35 -> 345 [penwidth=2]
    35 -> 368 [penwidth=2]
    35 -> 292 [penwidth=2]
    35 -> 394 [penwidth=2]
    35 -> 397 [penwidth=2]
    35 -> 369 [penwidth=2]
    35 -> 87 [penwidth=2]
    35 -> 396 [penwidth=2]
    35 -> 351 [penwidth=2]
    35 -> 40 [penwidth=2]
    35 -> 372 [penwidth=2]
    35 -> 366 [penwidth=2]
    35 -> 379 [penwidth=2]
    35 -> 354 [penwidth=2]
    35 -> 37 [penwidth=2]
    35 -> 297 [penwidth=2]
    35 -> 377 [penwidth=2]
    35 -> 337 [penwidth=2]
    35 -> 360 [penwidth=2]
    35 -> 298 [penwidth=2]
    35 -> 47 [penwidth=2]
    35 -> 342 [penwidth=2]
    35 -> 42 [penwidth=2]
    35 -> 81 [penwidth=2]
    35 -> 381 [penwidth=2]
    35 -> 89 [penwidth=2]
    35 -> 43 [penwidth=2]
    35 -> 289 [penwidth=2]
    35 -> 290 [penwidth=2]
    35 -> 340 [penwidth=2]
    35 -> 364 [penwidth=2]
    35 -> 356 [penwidth=2]
    35 -> 355 [penwidth=2]
    35 -> 334 [penwidth=2]
    35 -> 336 [penwidth=2]
    35 -> 363 [penwidth=2]
    35 -> 365 [penwidth=2]
    35 -> 380 [penwidth=2]
    35 -> 85 [penwidth=2]
    35 -> 353 [penwidth=2]
    35 -> 357 [penwidth=2]
    35 -> 378 [penwidth=2]
    35 -> 392 [penwidth=2]
    35 -> 371 [penwidth=2]
    35 -> 296 [penwidth=2]
    35 -> 293 [penwidth=2]
    35 -> 391 [penwidth=2]
    35 -> 367 [penwidth=2]
    35 -> 295 [penwidth=2]
    287 -> 344 [penwidth=2]
    287 -> 342 [penwidth=2]
    287 -> 46 [penwidth=2]
    287 -> 297 [penwidth=2]
    287 -> 40 [penwidth=2]
    287 -> 371 [penwidth=2]
    287 -> 367 [penwidth=2]
    287 -> 399 [penwidth=2]
    287 -> 80 [penwidth=2]
    287 -> 85 [penwidth=2]
    287 -> 296 [penwidth=2]
    287 -> 376 [penwidth=2]
    287 -> 345 [penwidth=2]
    287 -> 45 [penwidth=2]
    287 -> 380 [penwidth=2]
    287 -> 289 [penwidth=2]
    287 -> 341 [penwidth=2]
    287 -> 388 [penwidth=2]
    287 -> 294 [penwidth=2]
    287 -> 384 [penwidth=2]
    287 -> 361 [penwidth=2]
    287 -> 338 [penwidth=2]
    287 -> 378 [penwidth=2]
    287 -> 38 [penwidth=2]
    287 -> 363 [penwidth=2]
    287 -> 387 [penwidth=2]
    287 -> 347 [penwidth=2]
    287 -> 394 [penwidth=2]
    287 -> 292 [penwidth=2]
    287 -> 299 [penwidth=2]
    287 -> 44 [penwidth=2]
    287 -> 339 [penwidth=2]
    287 -> 82 [penwidth=2]
    287 -> 340 [penwidth=2]
    287 -> 398 [penwidth=2]
    287 -> 355 [penwidth=2]
    287 -> 357 [penwidth=2]
    287 -> 87 [penwidth=2]
    287 -> 291 [penwidth=2]
    287 -> 360 [penwidth=2]
    287 -> 293 [penwidth=2]
    287 -> 358 [penwidth=2]
    287 -> 43 [penwidth=2]
    287 -> 86 [penwidth=2]
    287 -> 298 [penwidth=2]
    287 -> 370 [penwidth=2]
    287 -> 377 [penwidth=2]
    287 -> 39 [penwidth=2]
    287 -> 359 [penwidth=2]
    287 -> 393 [penwidth=2]
    287 -> 366 [penwidth=2]
    287 -> 364 [penwidth=2]
    287 -> 352 [penwidth=2]
    287 -> 88 [penwidth=2]
    287 -> 351 [penwidth=2]
    287 -> 343 [penwidth=2]
    287 -> 353 [penwidth=2]
    287 -> 391 [penwidth=2]
    287 -> 334 [penwidth=2]
    287 -> 337 [penwidth=2]
    287 -> 389 [penwidth=2]
    287 -> 350 [penwidth=2]
    287 -> 362 [penwidth=2]
    287 -> 348 [penwidth=2]
    287 -> 41 [penwidth=2]
    287 -> 83 [penwidth=2]
    287 -> 396 [penwidth=2]
    287 -> 81 [penwidth=2]
    287 -> 392 [penwidth=2]
    287 -> 48 [penwidth=2]
    208 -> 394 [penwidth=2]
    208 -> 377 [penwidth=2]
    208 -> 380 [penwidth=2]
    208 -> 398 [penwidth=2]
    208 -> 396 [penwidth=2]
    208 -> 367 [penwidth=2]
    208 -> 292 [penwidth=2]
    208 -> 295 [penwidth=2]
    208 -> 363 [penwidth=2]
    208 -> 384 [penwidth=2]
    208 -> 355 [penwidth=2]
    208 -> 44 [penwidth=2]
    208 -> 399 [penwidth=2]
    208 -> 84 [penwidth=2]
    208 -> 39 [penwidth=2]
    208 -> 354 [penwidth=2]
    208 -> 370 [penwidth=2]
    208 -> 388 [penwidth=2]
    208 -> 348 [penwidth=2]
    208 -> 298 [penwidth=2]
    208 -> 372 [penwidth=2]
    208 -> 378 [penwidth=2]
    208 -> 366 [penwidth=2]
    208 -> 361 [penwidth=2]
    208 -> 334 [penwidth=2]
    208 -> 393 [penwidth=2]
    208 -> 81 [penwidth=2]
    208 -> 350 [penwidth=2]
    208 -> 293 [penwidth=2]
    208 -> 391 [penwidth=2]
    208 -> 336 [penwidth=2]
    208 -> 364 [penwidth=2]
    208 -> 290 [penwidth=2]
    208 -> 369 [penwidth=2]
    208 -> 395 [penwidth=2]
    208 -> 299 [penwidth=2]
    208 -> 85 [penwidth=2]
    208 -> 390 [penwidth=2]
    208 -> 342 [penwidth=2]
    208 -> 357 [penwidth=2]
    208 -> 339 [penwidth=2]
    208 -> 289 [penwidth=2]
    208 -> 37 [penwidth=2]
    208 -> 87 [penwidth=2]
    208 -> 335 [penwidth=2]
    208 -> 38 [penwidth=2]
    208 -> 353 [penwidth=2]
    208 -> 340 [penwidth=2]
    208 -> 397 [penwidth=2]
    208 -> 376 [penwidth=2]
    208 -> 386 [penwidth=2]
    208 -> 47 [penwidth=2]
    208 -> 82 [penwidth=2]
    208 -> 294 [penwidth=2]
    208 -> 365 [penwidth=2]
    208 -> 385 [penwidth=2]
    208 -> 48 [penwidth=2]
    208 -> 338 [penwidth=2]
    208 -> 379 [penwidth=2]
    208 -> 347 [penwidth=2]
    208 -> 79 [penwidth=2]
    208 -> 345 [penwidth=2]
    208 -> 352 [penwidth=2]
    208 -> 349 [penwidth=2]
    208 -> 296 [penwidth=2]
    208 -> 360 [penwidth=2]
    208 -> 88 [penwidth=2]
    208 -> 337 [penwidth=2]
    208 -> 41 [penwidth=2]
    208 -> 351 [penwidth=2]
    208 -> 80 [penwidth=2]
    208 -> 346 [penwidth=2]
    208 -> 381 [penwidth=2]
    208 -> 297 [penwidth=2]
    208 -> 387 [penwidth=2]
    208 -> 356 [penwidth=2]
    208 -> 344 [penwidth=2]
    208 -> 358 [penwidth=2]
    208 -> 43 [penwidth=2]
    208 -> 343 [penwidth=2]
    208 -> 83 [penwidth=2]
    208 -> 392 [penwidth=2]
    208 -> 383 [penwidth=2]
    131 -> 39 [penwidth=2]
    131 -> 354 [penwidth=2]
    131 -> 295 [penwidth=2]
    131 -> 297 [penwidth=2]
    131 -> 356 [penwidth=2]
    131 -> 84 [penwidth=2]
    131 -> 398 [penwidth=2]
    131 -> 338 [penwidth=2]
    131 -> 363 [penwidth=2]
    230 -> 353 [penwidth=2]
    230 -> 89 [penwidth=2]
    230 -> 355 [penwidth=2]
    230 -> 289 [penwidth=2]
    230 -> 339 [penwidth=2]
    230 -> 360 [penwidth=2]
    230 -> 376 [penwidth=2]
    230 -> 291 [penwidth=2]
    230 -> 399 [penwidth=2]
    230 -> 337 [penwidth=2]
    230 -> 86 [penwidth=2]
    230 -> 342 [penwidth=2]
    230 -> 85 [penwidth=2]
    230 -> 356 [penwidth=2]
    230 -> 294 [penwidth=2]
    230 -> 345 [penwidth=2]
    230 -> 42 [penwidth=2]
    230 -> 365 [penwidth=2]
    230 -> 48 [penwidth=2]
    230 -> 295 [penwidth=2]
    230 -> 82 [penwidth=2]
    230 -> 46 [penwidth=2]
    230 -> 366 [penwidth=2]
    230 -> 292 [penwidth=2]
    230 -> 378 [penwidth=2]
    230 -> 363 [penwidth=2]
    230 -> 298 [penwidth=2]
    230 -> 297 [penwidth=2]
    230 -> 335 [penwidth=2]
    230 -> 334 [penwidth=2]
    230 -> 388 [penwidth=2]
    230 -> 391 [penwidth=2]
    230 -> 81 [penwidth=2]
    230 -> 45 [penwidth=2]
    230 -> 40 [penwidth=2]
    230 -> 341 [penwidth=2]
    230 -> 368 [penwidth=2]
    230 -> 387 [penwidth=2]
    230 -> 344 [penwidth=2]
    230 -> 351 [penwidth=2]
    230 -> 361 [penwidth=2]
    230 -> 396 [penwidth=2]
    230 -> 41 [penwidth=2]
    230 -> 357 [penwidth=2]
    230 -> 382 [penwidth=2]
    230 -> 384 [penwidth=2]
    230 -> 39 [penwidth=2]
    230 -> 79 [penwidth=2]
    230 -> 354 [penwidth=2]
    230 -> 349 [penwidth=2]
    230 -> 386 [penwidth=2]
    230 -> 371 [penwidth=2]
    230 -> 43 [penwidth=2]
    230 -> 385 [penwidth=2]
    230 -> 44 [penwidth=2]
    230 -> 397 [penwidth=2]
    230 -> 393 [penwidth=2]
    230 -> 347 [penwidth=2]
    230 -> 398 [penwidth=2]
    230 -> 47 [penwidth=2]
    230 -> 338 [penwidth=2]
    230 -> 336 [penwidth=2]
    230 -> 350 [penwidth=2]
    230 -> 87 [penwidth=2]
    230 -> 379 [penwidth=2]
    230 -> 83 [penwidth=2]
    230 -> 296 [penwidth=2]
    230 -> 377 [penwidth=2]
    230 -> 37 [penwidth=2]
    239 -> 385 [penwidth=2]
    239 -> 376 [penwidth=2]
    239 -> 343 [penwidth=2]
    239 -> 44 [penwidth=2]
    239 -> 366 [penwidth=2]
    239 -> 40 [penwidth=2]
    239 -> 41 [penwidth=2]
    239 -> 347 [penwidth=2]
    239 -> 346 [penwidth=2]
    239 -> 356 [penwidth=2]
    239 -> 39 [penwidth=2]
    239 -> 348 [penwidth=2]
    239 -> 398 [penwidth=2]
    239 -> 88 [penwidth=2]
    239 -> 351 [penwidth=2]
    239 -> 355 [penwidth=2]
    239 -> 295 [penwidth=2]
    239 -> 360 [penwidth=2]
    239 -> 386 [penwidth=2]
    239 -> 342 [penwidth=2]
    239 -> 292 [penwidth=2]
    239 -> 291 [penwidth=2]
    239 -> 289 [penwidth=2]
    239 -> 297 [penwidth=2]
    239 -> 361 [penwidth=2]
    239 -> 369 [penwidth=2]
    239 -> 38 [penwidth=2]
    239 -> 84 [penwidth=2]
    239 -> 340 [penwidth=2]
    239 -> 43 [penwidth=2]
    239 -> 87 [penwidth=2]
    239 -> 391 [penwidth=2]
    239 -> 382 [penwidth=2]
    239 -> 368 [penwidth=2]
    239 -> 387 [penwidth=2]
    239 -> 296 [penwidth=2]
    239 -> 82 [penwidth=2]
    239 -> 47 [penwidth=2]
    239 -> 37 [penwidth=2]
    239 -> 381 [penwidth=2]
    239 -> 294 [penwidth=2]
    239 -> 290 [penwidth=2]
    239 -> 299 [penwidth=2]
    239 -> 353 [penwidth=2]
    239 -> 336 [penwidth=2]
    239 -> 358 [penwidth=2]
    239 -> 80 [penwidth=2]
    239 -> 394 [penwidth=2]
    239 -> 350 [penwidth=2]
    157 -> 385 [penwidth=2]
    157 -> 80 [penwidth=2]
    157 -> 298 [penwidth=2]
    157 -> 386 [penwidth=2]
    157 -> 84 [penwidth=2]
    157 -> 38 [penwidth=2]
    157 -> 361 [penwidth=2]
    157 -> 79 [penwidth=2]
    157 -> 41 [penwidth=2]
    157 -> 394 [penwidth=2]
    157 -> 293 [penwidth=2]
    157 -> 289 [penwidth=2]
    157 -> 82 [penwidth=2]
    157 -> 45 [penwidth=2]
    157 -> 349 [penwidth=2]
    157 -> 338 [penwidth=2]
    157 -> 37 [penwidth=2]
    157 -> 364 [penwidth=2]
    157 -> 342 [penwidth=2]
    157 -> 340 [penwidth=2]
    157 -> 40 [penwidth=2]
    157 -> 291 [penwidth=2]
    157 -> 42 [penwidth=2]
    157 -> 365 [penwidth=2]
    157 -> 347 [penwidth=2]
    157 -> 87 [penwidth=2]
    157 -> 393 [penwidth=2]
    157 -> 378 [penwidth=2]
    157 -> 367 [penwidth=2]
    157 -> 348 [penwidth=2]
    157 -> 356 [penwidth=2]
    157 -> 88 [penwidth=2]
    157 -> 339 [penwidth=2]
    157 -> 357 [penwidth=2]
    157 -> 334 [penwidth=2]
    157 -> 294 [penwidth=2]
    157 -> 391 [penwidth=2]
    157 -> 370 [penwidth=2]
    157 -> 346 [penwidth=2]
    157 -> 368 [penwidth=2]
    157 -> 290 [penwidth=2]
    157 -> 341 [penwidth=2]
    157 -> 363 [penwidth=2]
    157 -> 395 [penwidth=2]
    241 -> 387 [penwidth=2]
    241 -> 394 [penwidth=2]
    241 -> 356 [penwidth=2]
    241 -> 366 [penwidth=2]
    241 -> 369 [penwidth=2]
    241 -> 294 [penwidth=2]
    241 -> 348 [penwidth=2]
    241 -> 291 [penwidth=2]
    241 -> 38 [penwidth=2]
    241 -> 372 [penwidth=2]
    241 -> 335 [penwidth=2]
    241 -> 88 [penwidth=2]
    241 -> 360 [penwidth=2]
    241 -> 365 [penwidth=2]
    241 -> 41 [penwidth=2]
    241 -> 342 [penwidth=2]
    241 -> 382 [penwidth=2]
    241 -> 339 [penwidth=2]
    241 -> 290 [penwidth=2]
    241 -> 371 [penwidth=2]
    241 -> 383 [penwidth=2]
    241 -> 296 [penwidth=2]
    241 -> 363 [penwidth=2]
    241 -> 297 [penwidth=2]
    241 -> 368 [penwidth=2]
    241 -> 39 [penwidth=2]
    241 -> 367 [penwidth=2]
    241 -> 379 [penwidth=2]
    241 -> 351 [penwidth=2]
    241 -> 79 [penwidth=2]
    241 -> 334 [penwidth=2]
    241 -> 355 [penwidth=2]
    241 -> 340 [penwidth=2]
    241 -> 42 [penwidth=2]
    241 -> 349 [penwidth=2]
    241 -> 85 [penwidth=2]
    241 -> 346 [penwidth=2]
    241 -> 389 [penwidth=2]
    241 -> 362 [penwidth=2]
    241 -> 289 [penwidth=2]
    241 -> 352 [penwidth=2]
    241 -> 343 [penwidth=2]
    241 -> 388 [penwidth=2]
    241 -> 391 [penwidth=2]
    241 -> 341 [penwidth=2]
    241 -> 385 [penwidth=2]
    241 -> 337 [penwidth=2]
    241 -> 344 [penwidth=2]
    241 -> 398 [penwidth=2]
    241 -> 37 [penwidth=2]
    241 -> 293 [penwidth=2]
    241 -> 292 [penwidth=2]
    241 -> 89 [penwidth=2]
    241 -> 354 [penwidth=2]
    241 -> 82 [penwidth=2]
    241 -> 399 [penwidth=2]
    241 -> 345 [penwidth=2]
    241 -> 47 [penwidth=2]
    241 -> 376 [penwidth=2]
    241 -> 299 [penwidth=2]
    241 -> 44 [penwidth=2]
    241 -> 83 [penwidth=2]
    241 -> 378 [penwidth=2]
    241 -> 86 [penwidth=2]
    241 -> 390 [penwidth=2]
    241 -> 80 [penwidth=2]
    241 -> 40 [penwidth=2]
    241 -> 380 [penwidth=2]
    241 -> 46 [penwidth=2]
    241 -> 393 [penwidth=2]
    241 -> 357 [penwidth=2]
    241 -> 336 [penwidth=2]
    241 -> 338 [penwidth=2]
    241 -> 298 [penwidth=2]
    161 -> 299 [penwidth=2]
    161 -> 289 [penwidth=2]
    161 -> 336 [penwidth=2]
    161 -> 338 [penwidth=2]
    161 -> 43 [penwidth=2]
    161 -> 297 [penwidth=2]
    161 -> 376 [penwidth=2]
    161 -> 82 [penwidth=2]
    161 -> 357 [penwidth=2]
    161 -> 397 [penwidth=2]
    161 -> 352 [penwidth=2]
    161 -> 346 [penwidth=2]
    161 -> 334 [penwidth=2]
    161 -> 398 [penwidth=2]
    161 -> 393 [penwidth=2]
    161 -> 387 [penwidth=2]
    161 -> 89 [penwidth=2]
    161 -> 41 [penwidth=2]
    161 -> 81 [penwidth=2]
    161 -> 365 [penwidth=2]
    161 -> 298 [penwidth=2]
    161 -> 291 [penwidth=2]
    161 -> 391 [penwidth=2]
    161 -> 83 [penwidth=2]
    161 -> 347 [penwidth=2]
    161 -> 79 [penwidth=2]
    161 -> 354 [penwidth=2]
    161 -> 293 [penwidth=2]
    161 -> 80 [penwidth=2]
    161 -> 355 [penwidth=2]
    161 -> 364 [penwidth=2]
    161 -> 46 [penwidth=2]
    161 -> 362 [penwidth=2]
    161 -> 348 [penwidth=2]
    161 -> 358 [penwidth=2]
    161 -> 344 [penwidth=2]
    161 -> 372 [penwidth=2]
    161 -> 378 [penwidth=2]
    161 -> 88 [penwidth=2]
    161 -> 368 [penwidth=2]
    161 -> 385 [penwidth=2]
    161 -> 367 [penwidth=2]
    161 -> 295 [penwidth=2]
    161 -> 292 [penwidth=2]
    161 -> 339 [penwidth=2]
    161 -> 353 [penwidth=2]
    161 -> 363 [penwidth=2]
    161 -> 342 [penwidth=2]
    161 -> 84 [penwidth=2]
    161 -> 335 [penwidth=2]
    161 -> 369 [penwidth=2]
    161 -> 386 [penwidth=2]
    161 -> 371 [penwidth=2]
    161 -> 351 [penwidth=2]
    161 -> 366 [penwidth=2]
    161 -> 39 [penwidth=2]
    161 -> 350 [penwidth=2]
    161 -> 340 [penwidth=2]
    161 -> 45 [penwidth=2]
    161 -> 390 [penwidth=2]
    161 -> 44 [penwidth=2]
    161 -> 382 [penwidth=2]
    161 -> 37 [penwidth=2]
    161 -> 361 [penwidth=2]
    161 -> 370 [penwidth=2]
    161 -> 341 [penwidth=2]
    161 -> 38 [penwidth=2]
    161 -> 396 [penwidth=2]
    161 -> 48 [penwidth=2]
    161 -> 389 [penwidth=2]
    161 -> 380 [penwidth=2]
    161 -> 87 [penwidth=2]
    161 -> 42 [penwidth=2]
    161 -> 337 [penwidth=2]
    161 -> 394 [penwidth=2]
    161 -> 395 [penwidth=2]
    161 -> 85 [penwidth=2]
    161 -> 399 [penwidth=2]
    161 -> 392 [penwidth=2]
    161 -> 296 [penwidth=2]
    161 -> 40 [penwidth=2]
    167 -> 377 [penwidth=2]
    167 -> 368 [penwidth=2]
    167 -> 359 [penwidth=2]
    167 -> 385 [penwidth=2]
    167 -> 298 [penwidth=2]
    167 -> 349 [penwidth=2]
    167 -> 296 [penwidth=2]
    167 -> 395 [penwidth=2]
    167 -> 299 [penwidth=2]
    167 -> 355 [penwidth=2]
    167 -> 81 [penwidth=2]
    167 -> 48 [penwidth=2]
    167 -> 389 [penwidth=2]
    167 -> 343 [penwidth=2]
    167 -> 398 [penwidth=2]
    167 -> 88 [penwidth=2]
    167 -> 358 [penwidth=2]
    167 -> 361 [penwidth=2]
    167 -> 289 [penwidth=2]
    167 -> 80 [penwidth=2]
    167 -> 46 [penwidth=2]
    167 -> 371 [penwidth=2]
    167 -> 44 [penwidth=2]
    167 -> 376 [penwidth=2]
    167 -> 364 [penwidth=2]
    167 -> 293 [penwidth=2]
    167 -> 43 [penwidth=2]
    167 -> 41 [penwidth=2]
    167 -> 356 [penwidth=2]
    167 -> 344 [penwidth=2]
    167 -> 360 [penwidth=2]
    167 -> 89 [penwidth=2]
    167 -> 47 [penwidth=2]
    167 -> 378 [penwidth=2]
    167 -> 357 [penwidth=2]
    167 -> 391 [penwidth=2]
    167 -> 334 [penwidth=2]
    167 -> 294 [penwidth=2]
    167 -> 347 [penwidth=2]
    167 -> 397 [penwidth=2]
    167 -> 341 [penwidth=2]
    167 -> 369 [penwidth=2]
    167 -> 353 [penwidth=2]
    167 -> 354 [penwidth=2]
    167 -> 392 [penwidth=2]
    167 -> 351 [penwidth=2]
    167 -> 352 [penwidth=2]
    167 -> 350 [penwidth=2]
    167 -> 372 [penwidth=2]
    167 -> 362 [penwidth=2]
    167 -> 394 [penwidth=2]
    167 -> 365 [penwidth=2]
    167 -> 348 [penwidth=2]
    167 -> 42 [penwidth=2]
    167 -> 39 [penwidth=2]
    167 -> 336 [penwidth=2]
    167 -> 45 [penwidth=2]
    167 -> 388 [penwidth=2]
    167 -> 79 [penwidth=2]
    167 -> 381 [penwidth=2]
    167 -> 38 [penwidth=2]
    167 -> 86 [penwidth=2]
    167 -> 387 [penwidth=2]
    167 -> 85 [penwidth=2]
    167 -> 83 [penwidth=2]
    167 -> 346 [penwidth=2]
    167 -> 292 [penwidth=2]
    167 -> 295 [penwidth=2]
    167 -> 84 [penwidth=2]
    167 -> 339 [penwidth=2]
    167 -> 382 [penwidth=2]
    167 -> 342 [penwidth=2]
    167 -> 37 [penwidth=2]
    167 -> 399 [penwidth=2]
    168 -> 89 [penwidth=2]
    168 -> 391 [penwidth=2]
    168 -> 358 [penwidth=2]
    168 -> 383 [penwidth=2]
    168 -> 336 [penwidth=2]
    168 -> 298 [penwidth=2]
    168 -> 395 [penwidth=2]
    168 -> 362 [penwidth=2]
    168 -> 351 [penwidth=2]
    168 -> 37 [penwidth=2]
    168 -> 82 [penwidth=2]
    168 -> 394 [penwidth=2]
    168 -> 349 [penwidth=2]
    168 -> 335 [penwidth=2]
    168 -> 364 [penwidth=2]
    168 -> 385 [penwidth=2]
    168 -> 359 [penwidth=2]
    168 -> 299 [penwidth=2]
    168 -> 367 [penwidth=2]
    168 -> 357 [penwidth=2]
    168 -> 386 [penwidth=2]
    168 -> 372 [penwidth=2]
    168 -> 289 [penwidth=2]
    168 -> 40 [penwidth=2]
    168 -> 43 [penwidth=2]
    168 -> 393 [penwidth=2]
    168 -> 360 [penwidth=2]
    168 -> 356 [penwidth=2]
    168 -> 342 [penwidth=2]
    168 -> 293 [penwidth=2]
    168 -> 38 [penwidth=2]
    168 -> 341 [penwidth=2]
    168 -> 355 [penwidth=2]
    168 -> 390 [penwidth=2]
    168 -> 377 [penwidth=2]
    168 -> 361 [penwidth=2]
    168 -> 292 [penwidth=2]
    168 -> 398 [penwidth=2]
    168 -> 369 [penwidth=2]
    168 -> 297 [penwidth=2]
    168 -> 294 [penwidth=2]
    168 -> 396 [penwidth=2]
    168 -> 79 [penwidth=2]
    168 -> 84 [penwidth=2]
    168 -> 81 [penwidth=2]
    168 -> 344 [penwidth=2]
    168 -> 348 [penwidth=2]
    168 -> 365 [penwidth=2]
    168 -> 339 [penwidth=2]
    168 -> 45 [penwidth=2]
    168 -> 88 [penwidth=2]
    168 -> 380 [penwidth=2]
    168 -> 352 [penwidth=2]
    168 -> 340 [penwidth=2]
    168 -> 296 [penwidth=2]
    168 -> 290 [penwidth=2]
    168 -> 389 [penwidth=2]
    168 -> 399 [penwidth=2]
    168 -> 388 [penwidth=2]
    168 -> 370 [penwidth=2]
    168 -> 347 [penwidth=2]
    168 -> 376 [penwidth=2]
    168 -> 44 [penwidth=2]
    168 -> 48 [penwidth=2]
    168 -> 337 [penwidth=2]
    168 -> 291 [penwidth=2]
    168 -> 86 [penwidth=2]
    168 -> 387 [penwidth=2]
    168 -> 42 [penwidth=2]
    168 -> 378 [penwidth=2]
    168 -> 345 [penwidth=2]
    168 -> 46 [penwidth=2]
    168 -> 397 [penwidth=2]
    168 -> 371 [penwidth=2]
    168 -> 368 [penwidth=2]
    168 -> 80 [penwidth=2]
    186 -> 392 [penwidth=2]
    186 -> 396 [penwidth=2]
    186 -> 290 [penwidth=2]
    186 -> 349 [penwidth=2]
    186 -> 382 [penwidth=2]
    186 -> 291 [penwidth=2]
    186 -> 293 [penwidth=2]
    186 -> 383 [penwidth=2]
    186 -> 39 [penwidth=2]
    186 -> 391 [penwidth=2]
    186 -> 376 [penwidth=2]
    186 -> 350 [penwidth=2]
    186 -> 348 [penwidth=2]
    186 -> 289 [penwidth=2]
    186 -> 48 [penwidth=2]
    186 -> 384 [penwidth=2]
    186 -> 366 [penwidth=2]
    186 -> 86 [penwidth=2]
    186 -> 334 [penwidth=2]
    186 -> 299 [penwidth=2]
    186 -> 83 [penwidth=2]
    186 -> 88 [penwidth=2]
    186 -> 353 [penwidth=2]
    186 -> 297 [penwidth=2]
    186 -> 40 [penwidth=2]
    186 -> 399 [penwidth=2]
    186 -> 361 [penwidth=2]
    186 -> 38 [penwidth=2]
    186 -> 397 [penwidth=2]
    186 -> 335 [penwidth=2]
    186 -> 394 [penwidth=2]
    186 -> 356 [penwidth=2]
    186 -> 387 [penwidth=2]
    186 -> 87 [penwidth=2]
    186 -> 368 [penwidth=2]
    186 -> 41 [penwidth=2]
    186 -> 367 [penwidth=2]
    186 -> 47 [penwidth=2]
    186 -> 338 [penwidth=2]
    186 -> 345 [penwidth=2]
    186 -> 355 [penwidth=2]
    186 -> 342 [penwidth=2]
    186 -> 390 [penwidth=2]
    186 -> 360 [penwidth=2]
    186 -> 371 [penwidth=2]
    186 -> 44 [penwidth=2]
    186 -> 341 [penwidth=2]
    186 -> 362 [penwidth=2]
    186 -> 346 [penwidth=2]
    186 -> 379 [penwidth=2]
    186 -> 84 [penwidth=2]
    186 -> 294 [penwidth=2]
    186 -> 393 [penwidth=2]
    186 -> 45 [penwidth=2]
    186 -> 359 [penwidth=2]
    186 -> 89 [penwidth=2]
    186 -> 380 [penwidth=2]
    186 -> 298 [penwidth=2]
    186 -> 365 [penwidth=2]
    186 -> 363 [penwidth=2]
    186 -> 43 [penwidth=2]
    186 -> 337 [penwidth=2]
    186 -> 381 [penwidth=2]
    186 -> 46 [penwidth=2]
    186 -> 389 [penwidth=2]
    186 -> 340 [penwidth=2]
    186 -> 296 [penwidth=2]
    187 -> 383 [penwidth=2]
    187 -> 382 [penwidth=2]
    187 -> 295 [penwidth=2]
    187 -> 39 [penwidth=2]
    187 -> 81 [penwidth=2]
    187 -> 358 [penwidth=2]
    187 -> 356 [penwidth=2]
    187 -> 392 [penwidth=2]
    187 -> 365 [penwidth=2]
    187 -> 369 [penwidth=2]
    187 -> 337 [penwidth=2]
    187 -> 336 [penwidth=2]
    187 -> 299 [penwidth=2]
    187 -> 370 [penwidth=2]
    187 -> 351 [penwidth=2]
    187 -> 394 [penwidth=2]
    187 -> 367 [penwidth=2]
    187 -> 393 [penwidth=2]
    187 -> 340 [penwidth=2]
    187 -> 386 [penwidth=2]
    187 -> 363 [penwidth=2]
    187 -> 346 [penwidth=2]
    187 -> 296 [penwidth=2]
    187 -> 45 [penwidth=2]
    187 -> 89 [penwidth=2]
    187 -> 389 [penwidth=2]
    187 -> 378 [penwidth=2]
    187 -> 379 [penwidth=2]
    187 -> 339 [penwidth=2]
    187 -> 396 [penwidth=2]
    187 -> 290 [penwidth=2]
    187 -> 376 [penwidth=2]
    187 -> 387 [penwidth=2]
    187 -> 87 [penwidth=2]
    187 -> 79 [penwidth=2]
    187 -> 48 [penwidth=2]
    187 -> 350 [penwidth=2]
    187 -> 348 [penwidth=2]
    187 -> 371 [penwidth=2]
    187 -> 46 [penwidth=2]
    187 -> 38 [penwidth=2]
    187 -> 293 [penwidth=2]
    187 -> 395 [penwidth=2]
    187 -> 362 [penwidth=2]
    187 -> 390 [penwidth=2]
    187 -> 341 [penwidth=2]
    190 -> 354 [penwidth=2]
    190 -> 339 [penwidth=2]
    190 -> 384 [penwidth=2]
    190 -> 348 [penwidth=2]
    190 -> 336 [penwidth=2]
    190 -> 370 [penwidth=2]
    190 -> 381 [penwidth=2]
    190 -> 352 [penwidth=2]
    190 -> 41 [penwidth=2]
    190 -> 40 [penwidth=2]
    190 -> 362 [penwidth=2]
    190 -> 356 [penwidth=2]
    190 -> 357 [penwidth=2]
    190 -> 82 [penwidth=2]
    190 -> 364 [penwidth=2]
    190 -> 294 [penwidth=2]
    190 -> 349 [penwidth=2]
    190 -> 353 [penwidth=2]
    190 -> 372 [penwidth=2]
    190 -> 37 [penwidth=2]
    190 -> 297 [penwidth=2]
    190 -> 85 [penwidth=2]
    190 -> 392 [penwidth=2]
    190 -> 385 [penwidth=2]
    190 -> 397 [penwidth=2]
    190 -> 342 [penwidth=2]
    190 -> 396 [penwidth=2]
    190 -> 382 [penwidth=2]
    190 -> 298 [penwidth=2]
    190 -> 43 [penwidth=2]
    190 -> 344 [penwidth=2]
    190 -> 42 [penwidth=2]
    190 -> 79 [penwidth=2]
    190 -> 350 [penwidth=2]
    190 -> 368 [penwidth=2]
    190 -> 366 [penwidth=2]
    190 -> 296 [penwidth=2]
    190 -> 289 [penwidth=2]
    190 -> 345 [penwidth=2]
    190 -> 391 [penwidth=2]
    190 -> 81 [penwidth=2]
    190 -> 335 [penwidth=2]
    190 -> 387 [penwidth=2]
    190 -> 47 [penwidth=2]
    190 -> 346 [penwidth=2]
    190 -> 383 [penwidth=2]
    190 -> 292 [penwidth=2]
    190 -> 45 [penwidth=2]
    190 -> 340 [penwidth=2]
    190 -> 367 [penwidth=2]
    190 -> 380 [penwidth=2]
    190 -> 394 [penwidth=2]
    190 -> 393 [penwidth=2]
    190 -> 299 [penwidth=2]
    190 -> 377 [penwidth=2]
    190 -> 399 [penwidth=2]
    190 -> 369 [penwidth=2]
    190 -> 379 [penwidth=2]
    190 -> 363 [penwidth=2]
    190 -> 376 [penwidth=2]
    190 -> 89 [penwidth=2]
    190 -> 295 [penwidth=2]
    190 -> 390 [penwidth=2]
    190 -> 87 [penwidth=2]
    190 -> 355 [penwidth=2]
    190 -> 84 [penwidth=2]
    190 -> 86 [penwidth=2]
    190 -> 395 [penwidth=2]
    190 -> 341 [penwidth=2]
    190 -> 360 [penwidth=2]
    190 -> 338 [penwidth=2]
    190 -> 290 [penwidth=2]
    190 -> 46 [penwidth=2]
    190 -> 386 [penwidth=2]
    190 -> 39 [penwidth=2]
    190 -> 38 [penwidth=2]
    190 -> 291 [penwidth=2]
    190 -> 361 [penwidth=2]
    203 -> 86 [penwidth=2]
    203 -> 387 [penwidth=2]
    203 -> 350 [penwidth=2]
    203 -> 295 [penwidth=2]
    203 -> 291 [penwidth=2]
    203 -> 289 [penwidth=2]
    203 -> 38 [penwidth=2]
    203 -> 298 [penwidth=2]
    203 -> 357 [penwidth=2]
    203 -> 397 [penwidth=2]
    203 -> 81 [penwidth=2]
    203 -> 369 [penwidth=2]
    203 -> 393 [penwidth=2]
    203 -> 348 [penwidth=2]
    203 -> 396 [penwidth=2]
    203 -> 37 [penwidth=2]
    203 -> 44 [penwidth=2]
    203 -> 87 [penwidth=2]
    203 -> 395 [penwidth=2]
    203 -> 389 [penwidth=2]
    203 -> 80 [penwidth=2]
    203 -> 342 [penwidth=2]
    203 -> 340 [penwidth=2]
    203 -> 360 [penwidth=2]
    203 -> 355 [penwidth=2]
    203 -> 365 [penwidth=2]
    203 -> 366 [penwidth=2]
    203 -> 368 [penwidth=2]
    203 -> 89 [penwidth=2]
    203 -> 41 [penwidth=2]
    203 -> 40 [penwidth=2]
    203 -> 79 [penwidth=2]
    203 -> 377 [penwidth=2]
    203 -> 384 [penwidth=2]
    203 -> 39 [penwidth=2]
    203 -> 292 [penwidth=2]
    203 -> 363 [penwidth=2]
    203 -> 354 [penwidth=2]
    203 -> 336 [penwidth=2]
    203 -> 347 [penwidth=2]
    203 -> 296 [penwidth=2]
    203 -> 290 [penwidth=2]
    203 -> 338 [penwidth=2]
    203 -> 370 [penwidth=2]
    203 -> 43 [penwidth=2]
    203 -> 381 [penwidth=2]
    203 -> 372 [penwidth=2]
    203 -> 335 [penwidth=2]
    203 -> 344 [penwidth=2]
    203 -> 343 [penwidth=2]
    203 -> 299 [penwidth=2]
    203 -> 367 [penwidth=2]
    203 -> 378 [penwidth=2]
    203 -> 82 [penwidth=2]
    203 -> 398 [penwidth=2]
    203 -> 346 [penwidth=2]
    203 -> 45 [penwidth=2]
    203 -> 349 [penwidth=2]
    203 -> 380 [penwidth=2]
    203 -> 351 [penwidth=2]
    203 -> 388 [penwidth=2]
    203 -> 47 [penwidth=2]
    203 -> 362 [penwidth=2]
    203 -> 339 [penwidth=2]
    203 -> 42 [penwidth=2]
    203 -> 383 [penwidth=2]
    203 -> 46 [penwidth=2]
    203 -> 88 [penwidth=2]
    203 -> 84 [penwidth=2]
    203 -> 337 [penwidth=2]
    203 -> 379 [penwidth=2]
    203 -> 382 [penwidth=2]
    203 -> 294 [penwidth=2]
    203 -> 352 [penwidth=2]
    203 -> 48 [penwidth=2]
    203 -> 394 [penwidth=2]
    203 -> 293 [penwidth=2]
    203 -> 390 [penwidth=2]
    203 -> 361 [penwidth=2]
    203 -> 334 [penwidth=2]
    203 -> 359 [penwidth=2]
}