digraph G {
    0 [penwidth=3,label="0"]
    1 [penwidth=3,label="1"]
    2 [penwidth=3,label="2"]
    3 [penwidth=3,label="3"]
    4 [penwidth=3,label="4"]
    5 [penwidth=3,label="5"]
    6 [penwidth=3,label="6"]
    7 [penwidth=3,label="7"]
    8 [penwidth=3,label="8"]
    9 [penwidth=3,label="9"]
    10 [penwidth=3,label="10"]
    11 [penwidth=3,label="11"]
    12 [penwidth=3,label="12"]
    13 [penwidth=3,label="13"]
    14 [penwidth=3,label="14"]
    15 [penwidth=3,label="15"]
    16 [penwidth=3,label="16"]
    17 [penwidth=3,label="17"]
    18 [penwidth=3,label="18"]
    19 [penwidth=3,label="19"]
    20 [penwidth=3,label="20"]
    21 [penwidth=3,label="21"]
    22 [penwidth=3,label="22"]
    23 [penwidth=3,label="23"]
    24 [penwidth=3,label="24"]
    25 [penwidth=3,label="25"]
    26 [penwidth=3,label="26"]
    27 [penwidth=3,label="27"]
    28 [penwidth=3,label="28"]
    29 [penwidth=3,label="29"]
    30 [penwidth=3,label="30"]
    31 [penwidth=3,label="31"]
    32 [penwidth=3,label="32"]
    33 [penwidth=3,label="33"]
    34 [penwidth=3,label="34"]
    35 [penwidth=3,label="35"]
    36 [penwidth=3,label="36"]
    37 [penwidth=3,label="37"]
    38 [penwidth=3,label="38"]
    39 [penwidth=3,label="39"]
    40 [penwidth=3,label="40"]
    41 [penwidth=3,label="41"]
    42 [penwidth=3,label="42"]
    43 [penwidth=3,label="43"]
    44 [penwidth=3,label="44"]
    45 [penwidth=3,label="45"]
    46 [penwidth=3,label="46"]
    47 [penwidth=3,label="47"]
    48 [penwidth=3,label="48"]
    49 [penwidth=3,label="49"]
    50 [penwidth=3,label="50"]
    51 [penwidth=3,label="51"]
    52 [penwidth=3,label="52"]
    53 [penwidth=3,label="53"]
    54 [penwidth=3,label="54"]
    55 [penwidth=3,label="55"]
    56 [penwidth=3,label="56"]
    57 [penwidth=3,label="57"]
    58 [penwidth=3,label="58"]
    59 [penwidth=3,label="59"]
    60 [penwidth=3,label="60"]
    61 [penwidth=3,label="61"]
    62 [penwidth=3,label="62"]
    63 [penwidth=3,label="63"]
    64 [penwidth=3,label="64"]
    65 [penwidth=3,label="65"]
    66 [penwidth=3,label="66"]
    67 [penwidth=3,label="67"]
    68 [penwidth=3,label="68"]
    69 [penwidth=3,label="69"]
    70 [penwidth=3,label="70"]
    71 [penwidth=3,label="71"]
    72 [penwidth=3,label="72"]
    73 [penwidth=3,label="73"]
    74 [penwidth=3,label="74"]
    75 [penwidth=3,label="75"]
    76 [penwidth=3,label="76"]
    77 [penwidth=3,label="77"]
    78 [penwidth=3,label="78"]
    79 [penwidth=3,label="79"]
    80 [penwidth=3,label="80"]
    81 [penwidth=3,label="81"]
    82 [penwidth=3,label="82"]
    83 [penwidth=3,label="83"]
    84 [penwidth=3,label="84"]
    85 [penwidth=3,label="85"]
    86 [penwidth=3,label="86"]
    87 [penwidth=3,label="87"]
    88 [penwidth=3,label="88"]
    89 [penwidth=3,label="89"]
    90 [penwidth=3,label="90"]
    91 [penwidth=3,label="91"]
    92 [penwidth=3,label="92"]
    93 [penwidth=3,label="93"]
    94 [penwidth=3,label="94"]
    95 [penwidth=3,label="95"]
    96 [penwidth=3,label="96"]
    97 [penwidth=3,label="97"]
    98 [penwidth=3,label="98"]
    99 [penwidth=3,label="99"]
    100 [penwidth=3,label="100"]
    101 [penwidth=3,label="101"]
    102 [penwidth=3,label="102"]
    103 [penwidth=3,label="103"]
    104 [penwidth=3,label="104"]
    105 [penwidth=3,label="105"]
    106 [penwidth=3,label="106"]
    107 [penwidth=3,label="107"]
    108 [penwidth=3,label="108"]
    109 [penwidth=3,label="109"]
    110 [penwidth=3,label="110"]
    111 [penwidth=3,label="111"]
    112 [penwidth=3,label="112"]
    113 [penwidth=3,label="113"]
    114 [penwidth=3,label="114"]
    115 [penwidth=3,label="115"]
    116 [penwidth=3,label="116"]
    117 [penwidth=3,label="117"]
    118 [penwidth=3,label="118"]
    119 [penwidth=3,label="119"]
    120 [penwidth=3,label="120"]
    121 [penwidth=3,label="121"]
    122 [penwidth=3,label="122"]
    123 [penwidth=3,label="123"]
    124 [penwidth=3,label="124"]
    125 [penwidth=3,label="125"]
    126 [penwidth=3,label="126"]
    127 [penwidth=3,label="127"]
    128 [penwidth=3,label="128"]
    129 [penwidth=3,label="129"]
    130 [penwidth=3,label="130"]
    131 [penwidth=3,label="131"]
    132 [penwidth=3,label="132"]
    133 [penwidth=3,label="133"]
    134 [penwidth=3,label="134"]
    135 [penwidth=3,label="135"]
    136 [penwidth=3,label="136"]
    137 [penwidth=3,label="137"]
    138 [penwidth=3,label="138"]
    139 [penwidth=3,label="139"]
    140 [penwidth=3,label="140"]
    141 [penwidth=3,label="141"]
    142 [penwidth=3,label="142"]
    143 [penwidth=3,label="143"]
    144 [penwidth=3,label="144"]
    145 [penwidth=3,label="145"]
    146 [penwidth=3,label="146"]
    147 [penwidth=3,label="147"]
    148 [penwidth=3,label="148"]
    149 [penwidth=3,label="149"]
    150 [penwidth=3,label="150"]
    151 [penwidth=3,label="151"]
    152 [penwidth=3,label="152"]
    153 [penwidth=3,label="153"]
    154 [penwidth=3,label="154"]
    155 [penwidth=3,label="155"]
    156 [penwidth=3,label="156"]
    157 [penwidth=3,label="157"]
    158 [penwidth=3,label="158"]
    159 [penwidth=3,label="159"]
    160 [penwidth=3,label="160"]
    161 [penwidth=3,label="161"]
    162 [penwidth=3,label="162"]
    163 [penwidth=3,label="163"]
    164 [penwidth=3,label="164"]
    165 [penwidth=3,label="165"]
    166 [penwidth=3,label="166"]
    167 [penwidth=3,label="167"]
    168 [penwidth=3,label="168"]
    169 [penwidth=3,label="169"]
    170 [penwidth=3,label="170"]
    171 [penwidth=3,label="171"]
    172 [penwidth=3,label="172"]
    173 [penwidth=3,label="173"]
    174 [penwidth=3,label="174"]
    175 [penwidth=3,label="175"]
    176 [penwidth=3,label="176"]
    177 [penwidth=3,label="177"]
    178 [penwidth=3,label="178"]
    179 [penwidth=3,label="179"]
    180 [penwidth=3,label="180"]
    181 [penwidth=3,label="181"]
    182 [penwidth=3,label="182"]
    183 [penwidth=3,label="183"]
    184 [penwidth=3,label="184"]
    185 [penwidth=3,label="185"]
    186 [penwidth=3,label="186"]
    187 [penwidth=3,label="187"]
    188 [penwidth=3,label="188"]
    189 [penwidth=3,label="189"]
    190 [penwidth=3,label="190"]
    191 [penwidth=3,label="191"]
    192 [penwidth=3,label="192"]
    193 [penwidth=3,label="193"]
    194 [penwidth=3,label="194"]
    195 [penwidth=3,label="195"]
    196 [penwidth=3,label="196"]
    197 [penwidth=3,label="197"]
    198 [penwidth=3,label="198"]
    199 [penwidth=3,label="199"]
    200 [penwidth=3,label="200"]
    201 [penwidth=3,label="201"]
    202 [penwidth=3,label="202"]
    203 [penwidth=3,label="203"]
    204 [penwidth=3,label="204"]
    205 [penwidth=3,label="205"]
    206 [penwidth=3,label="206"]
    207 [penwidth=3,label="207"]
    208 [penwidth=3,label="208"]
    209 [penwidth=3,label="209"]
    210 [penwidth=3,label="210"]
    211 [penwidth=3,label="211"]
    212 [penwidth=3,label="212"]
    213 [penwidth=3,label="213"]
    214 [penwidth=3,label="214"]
    215 [penwidth=3,label="215"]
    216 [penwidth=3,label="216"]
    217 [penwidth=3,label="217"]
    218 [penwidth=3,label="218"]
    219 [penwidth=3,label="219"]
    220 [penwidth=3,label="220"]
    221 [penwidth=3,label="221"]
    222 [penwidth=3,label="222"]
    223 [penwidth=3,label="223"]
    224 [penwidth=3,label="224"]
    225 [penwidth=3,label="225"]
    226 [penwidth=3,label="226"]
    227 [penwidth=3,label="227"]
    228 [penwidth=3,label="228"]
    229 [penwidth=3,label="229"]
    230 [penwidth=3,label="230"]
    231 [penwidth=3,label="231"]
    232 [penwidth=3,label="232"]
    233 [penwidth=3,label="233"]
    234 [penwidth=3,label="234"]
    235 [penwidth=3,label="235"]
    236 [penwidth=3,label="236"]
    237 [penwidth=3,label="237"]
    238 [penwidth=3,label="238"]
    239 [penwidth=3,label="239"]
    240 [penwidth=3,label="240"]
    241 [penwidth=3,label="241"]
    242 [penwidth=3,label="242"]
    243 [penwidth=3,label="243"]
    244 [penwidth=3,label="244"]
    245 [penwidth=3,label="245"]
    246 [penwidth=3,label="246"]
    247 [penwidth=3,label="247"]
    248 [penwidth=3,label="248"]
    249 [penwidth=3,label="249"]
    250 [penwidth=3,label="250"]
    251 [penwidth=3,label="251"]
    252 [penwidth=3,label="252"]
    253 [penwidth=3,label="253"]
    254 [penwidth=3,label="254"]
    255 [penwidth=3,label="255"]
    256 [penwidth=3,label="256"]
    257 [penwidth=3,label="257"]
    258 [penwidth=3,label="258"]
    259 [penwidth=3,label="259"]
    260 [penwidth=3,label="260"]
    261 [penwidth=3,label="261"]
    262 [penwidth=3,label="262"]
    263 [penwidth=3,label="263"]
    264 [penwidth=3,label="264"]
    265 [penwidth=3,label="265"]
    266 [penwidth=3,label="266"]
    267 [penwidth=3,label="267"]
    268 [penwidth=3,label="268"]
    269 [penwidth=3,label="269"]
    270 [penwidth=3,label="270"]
    271 [penwidth=3,label="271"]
    272 [penwidth=3,label="272"]
    273 [penwidth=3,label="273"]
    274 [penwidth=3,label="274"]
    275 [penwidth=3,label="275"]
    276 [penwidth=3,label="276"]
    277 [penwidth=3,label="277"]
    278 [penwidth=3,label="278"]
    279 [penwidth=3,label="279"]
    280 [penwidth=3,label="280"]
    281 [penwidth=3,label="281"]
    282 [penwidth=3,label="282"]
    283 [penwidth=3,label="283"]
    284 [penwidth=3,label="284"]
    285 [penwidth=3,label="285"]
    286 [penwidth=3,label="286"]
    287 [penwidth=3,label="287"]
    288 [penwidth=3,label="288"]
    289 [penwidth=3,label="289"]
    290 [penwidth=3,label="290"]
    291 [penwidth=3,label="291"]
    292 [penwidth=3,label="292"]
    293 [penwidth=3,label="293"]
    294 [penwidth=3,label="294"]
    295 [penwidth=3,label="295"]
    296 [penwidth=3,label="296"]
    297 [penwidth=3,label="297"]
    298 [penwidth=3,label="298"]
    299 [penwidth=3,label="299"]
    300 [penwidth=3,label="300"]
    301 [penwidth=3,label="301"]
    302 [penwidth=3,label="302"]
    303 [penwidth=3,label="303"]
    304 [penwidth=3,label="304"]
    305 [penwidth=3,label="305"]
    306 [penwidth=3,label="306"]
    307 [penwidth=3,label="307"]
    308 [penwidth=3,label="308"]
    309 [penwidth=3,label="309"]
    310 [penwidth=3,label="310"]
    311 [penwidth=3,label="311"]
    312 [penwidth=3,label="312"]
    313 [penwidth=3,label="313"]
    314 [penwidth=3,label="314"]
    315 [penwidth=3,label="315"]
    316 [penwidth=3,label="316"]
    317 [penwidth=3,label="317"]
    318 [penwidth=3,label="318"]
    319 [penwidth=3,label="319"]
    320 [penwidth=3,label="320"]
    321 [penwidth=3,label="321"]
    322 [penwidth=3,label="322"]
    323 [penwidth=3,label="323"]
    324 [penwidth=3,label="324"]
    325 [penwidth=3,label="325"]
    326 [penwidth=3,label="326"]
    327 [penwidth=3,label="327"]
    328 [penwidth=3,label="328"]
    329 [penwidth=3,label="329"]
    330 [penwidth=3,label="330"]
    331 [penwidth=3,label="331"]
    332 [penwidth=3,label="332"]
    333 [penwidth=3,label="333"]
    334 [penwidth=3,label="334"]
    335 [penwidth=3,label="335"]
    336 [penwidth=3,label="336"]
    337 [penwidth=3,label="337"]
    338 [penwidth=3,label="338"]
    339 [penwidth=3,label="339"]
    340 [penwidth=3,label="340"]
    341 [penwidth=3,label="341"]
    342 [penwidth=3,label="342"]
    343 [penwidth=3,label="343"]
    344 [penwidth=3,label="344"]
    345 [penwidth=3,label="345"]
    346 [penwidth=3,label="346"]
    347 [penwidth=3,label="347"]
    348 [penwidth=3,label="348"]
    349 [penwidth=3,label="349"]
    350 [penwidth=3,label="350"]
    351 [penwidth=3,label="351"]
    352 [penwidth=3,label="352"]
    353 [penwidth=3,label="353"]
    354 [penwidth=3,label="354"]
    355 [penwidth=3,label="355"]
    356 [penwidth=3,label="356"]
    357 [penwidth=3,label="357"]
    358 [penwidth=3,label="358"]
    359 [penwidth=3,label="359"]
    360 [penwidth=3,label="360"]
    361 [penwidth=3,label="361"]
    362 [penwidth=3,label="362"]
    363 [penwidth=3,label="363"]
    364 [penwidth=3,label="364"]
    365 [penwidth=3,label="365"]
    366 [penwidth=3,label="366"]
    367 [penwidth=3,label="367"]
    368 [penwidth=3,label="368"]
    369 [penwidth=3,label="369"]
    370 [penwidth=3,label="370"]
    371 [penwidth=3,label="371"]
    372 [penwidth=3,label="372"]
    373 [penwidth=3,label="373"]
    374 [penwidth=3,label="374"]
    375 [penwidth=3,label="375"]
    376 [penwidth=3,label="376"]
    377 [penwidth=3,label="377"]
    378 [penwidth=3,label="378"]
    379 [penwidth=3,label="379"]
    380 [penwidth=3,label="380"]
    381 [penwidth=3,label="381"]
    382 [penwidth=3,label="382"]
    383 [penwidth=3,label="383"]
    384 [penwidth=3,label="384"]
    385 [penwidth=3,label="385"]
    386 [penwidth=3,label="386"]
    387 [penwidth=3,label="387"]
    388 [penwidth=3,label="388"]
    389 [penwidth=3,label="389"]
    390 [penwidth=3,label="390"]
    391 [penwidth=3,label="391"]
    392 [penwidth=3,label="392"]
    393 [penwidth=3,label="393"]
    394 [penwidth=3,label="394"]
    395 [penwidth=3,label="395"]
    396 [penwidth=3,label="396"]
    397 [penwidth=3,label="397"]
    398 [penwidth=3,label="398"]
    399 [penwidth=3,label="399"]

    282 -> 0 [penwidth=2]
    324 -> 0 [penwidth=2]
    283 -> 0 [penwidth=2]
    325 -> 0 [penwidth=2]
    284 -> 282 [penwidth=2]
    326 -> 282 [penwidth=2]
    285 -> 282 [penwidth=2]
    327 -> 282 [penwidth=2]
    286 -> 282 [penwidth=2]
    328 -> 282 [penwidth=2]
    287 -> 282 [penwidth=2]
    329 -> 282 [penwidth=2]
    288 -> 282 [penwidth=2]
    330 -> 282 [penwidth=2]
    289 -> 282 [penwidth=2]
    331 -> 282 [penwidth=2]
    290 -> 282 [penwidth=2]
    332 -> 282 [penwidth=2]
    291 -> 282 [penwidth=2]
    333 -> 282 [penwidth=2]
    292 -> 282 [penwidth=2]
    334 -> 324 [penwidth=2]
    293 -> 324 [penwidth=2]
    335 -> 324 [penwidth=2]
    294 -> 324 [penwidth=2]
    336 -> 324 [penwidth=2]
    295 -> 324 [penwidth=2]
    337 -> 324 [penwidth=2]
    296 -> 324 [penwidth=2]
    338 -> 324 [penwidth=2]
    297 -> 324 [penwidth=2]
    339 -> 324 [penwidth=2]
    298 -> 324 [penwidth=2]
    340 -> 324 [penwidth=2]
    299 -> 324 [penwidth=2]
    341 -> 324 [penwidth=2]
    300 -> 324 [penwidth=2]
    342 -> 324 [penwidth=2]
    301 -> 324 [penwidth=2]
    343 -> 324 [penwidth=2]
    302 -> 324 [penwidth=2]
    344 -> 324 [penwidth=2]
    303 -> 324 [penwidth=2]
    345 -> 324 [penwidth=2]
    304 -> 324 [penwidth=2]
    346 -> 324 [penwidth=2]
    305 -> 324 [penwidth=2]
    347 -> 325 [penwidth=2]
    306 -> 325 [penwidth=2]
    348 -> 325 [penwidth=2]
    307 -> 325 [penwidth=2]
    349 -> 325 [penwidth=2]
    308 -> 325 [penwidth=2]
    350 -> 325 [penwidth=2]
    309 -> 325 [penwidth=2]
    351 -> 325 [penwidth=2]
    310 -> 325 [penwidth=2]
    352 -> 325 [penwidth=2]
    311 -> 325 [penwidth=2]
    353 -> 325 [penwidth=2]
    312 -> 325 [penwidth=2]
    354 -> 325 [penwidth=2]
    313 -> 325 [penwidth=2]
    355 -> 325 [penwidth=2]
    314 -> 325 [penwidth=2]
    356 -> 284 [penwidth=2]
    315 -> 284 [penwidth=2]
    357 -> 284 [penwidth=2]
    316 -> 284 [penwidth=2]
    358 -> 284 [penwidth=2]
    317 -> 284 [penwidth=2]
    359 -> 284 [penwidth=2]
    318 -> 284 [penwidth=2]
    360 -> 284 [penwidth=2]
    319 -> 284 [penwidth=2]
    361 -> 284 [penwidth=2]
    320 -> 284 [penwidth=2]
    362 -> 284 [penwidth=2]
    321 -> 284 [penwidth=2]
    363 -> 284 [penwidth=2]
    322 -> 284 [penwidth=2]
    364 -> 284 [penwidth=2]
    323 -> 284 [penwidth=2]
    365 -> 284 [penwidth=2]
    366 -> 284 [penwidth=2]
    367 -> 284 [penwidth=2]
    368 -> 284 [penwidth=2]
    369 -> 284 [penwidth=2]
    370 -> 284 [penwidth=2]
    371 -> 284 [penwidth=2]
    372 -> 284 [penwidth=2]
    373 -> 326 [penwidth=2]
    374 -> 326 [penwidth=2]
    375 -> 326 [penwidth=2]
    376 -> 326 [penwidth=2]
    377 -> 326 [penwidth=2]
    378 -> 326 [penwidth=2]
    379 -> 326 [penwidth=2]
    380 -> 285 [penwidth=2]
    381 -> 285 [penwidth=2]
    382 -> 285 [penwidth=2]
    383 -> 285 [penwidth=2]
    384 -> 285 [penwidth=2]
    385 -> 327 [penwidth=2]
    386 -> 327 [penwidth=2]
    387 -> 327 [penwidth=2]
    388 -> 327 [penwidth=2]
    389 -> 327 [penwidth=2]
    390 -> 327 [penwidth=2]
    391 -> 327 [penwidth=2]
    392 -> 327 [penwidth=2]
    393 -> 327 [penwidth=2]
    394 -> 327 [penwidth=2]
    395 -> 327 [penwidth=2]
    396 -> 327 [penwidth=2]
    397 -> 327 [penwidth=2]
    398 -> 327 [penwidth=2]
    399 -> 327 [penwidth=2]
    114 -> 327 [penwidth=2]
    115 -> 286 [penwidth=2]
    116 -> 286 [penwidth=2]
    117 -> 286 [penwidth=2]
    118 -> 286 [penwidth=2]
    119 -> 286 [penwidth=2]
    120 -> 286 [penwidth=2]
    121 -> 286 [penwidth=2]
    122 -> 286 [penwidth=2]
    123 -> 286 [penwidth=2]
    124 -> 286 [penwidth=2]
    125 -> 286 [penwidth=2]
    126 -> 286 [penwidth=2]
    1 -> 286 [penwidth=2]
    127 -> 286 [penwidth=2]
    2 -> 286 [penwidth=2]
    128 -> 286 [penwidth=2]
    3 -> 286 [penwidth=2]
    129 -> 286 [penwidth=2]
    4 -> 286 [penwidth=2]
    130 -> 286 [penwidth=2]
    5 -> 286 [penwidth=2]
    131 -> 286 [penwidth=2]
    6 -> 286 [penwidth=2]
    132 -> 286 [penwidth=2]
    7 -> 286 [penwidth=2]
    133 -> 286 [penwidth=2]
    8 -> 286 [penwidth=2]
    134 -> 286 [penwidth=2]
    9 -> 328 [penwidth=2]
    135 -> 328 [penwidth=2]
    10 -> 328 [penwidth=2]
    136 -> 328 [penwidth=2]
    11 -> 328 [penwidth=2]
    137 -> 328 [penwidth=2]
    12 -> 328 [penwidth=2]
    138 -> 328 [penwidth=2]
    13 -> 328 [penwidth=2]
    139 -> 328 [penwidth=2]
    14 -> 328 [penwidth=2]
    140 -> 328 [penwidth=2]
    15 -> 328 [penwidth=2]
    141 -> 328 [penwidth=2]
    16 -> 287 [penwidth=2]
    142 -> 287 [penwidth=2]
    17 -> 287 [penwidth=2]
    143 -> 287 [penwidth=2]
    18 -> 287 [penwidth=2]
    144 -> 287 [penwidth=2]
    19 -> 287 [penwidth=2]
    145 -> 287 [penwidth=2]
    20 -> 287 [penwidth=2]
    146 -> 287 [penwidth=2]
    21 -> 287 [penwidth=2]
    147 -> 287 [penwidth=2]
    22 -> 287 [penwidth=2]
    148 -> 287 [penwidth=2]
    23 -> 287 [penwidth=2]
    149 -> 287 [penwidth=2]
    24 -> 287 [penwidth=2]
    150 -> 287 [penwidth=2]
    25 -> 329 [penwidth=2]
    151 -> 329 [penwidth=2]
    26 -> 329 [penwidth=2]
    152 -> 329 [penwidth=2]
    27 -> 329 [penwidth=2]
    153 -> 329 [penwidth=2]
    28 -> 329 [penwidth=2]
    154 -> 329 [penwidth=2]
    155 -> 329 [penwidth=2]
    29 -> 329 [penwidth=2]
    30 -> 329 [penwidth=2]
    72 -> 329 [penwidth=2]
    156 -> 329 [penwidth=2]
    240 -> 329 [penwidth=2]
    31 -> 329 [penwidth=2]
    73 -> 288 [penwidth=2]
    157 -> 288 [penwidth=2]
    218 -> 288 [penwidth=2]
    241 -> 288 [penwidth=2]
    32 -> 288 [penwidth=2]
    74 -> 288 [penwidth=2]
    158 -> 288 [penwidth=2]
    239 -> 288 [penwidth=2]
    242 -> 330 [penwidth=2]
    33 -> 330 [penwidth=2]
    75 -> 330 [penwidth=2]
    159 -> 330 [penwidth=2]
    217 -> 330 [penwidth=2]
    243 -> 330 [penwidth=2]
    34 -> 330 [penwidth=2]
    76 -> 330 [penwidth=2]
    160 -> 330 [penwidth=2]
    238 -> 289 [penwidth=2]
    244 -> 289 [penwidth=2]
    35 -> 289 [penwidth=2]
    77 -> 289 [penwidth=2]
    161 -> 289 [penwidth=2]
    216 -> 289 [penwidth=2]
    245 -> 289 [penwidth=2]
    36 -> 289 [penwidth=2]
    78 -> 289 [penwidth=2]
    162 -> 289 [penwidth=2]
    215 -> 289 [penwidth=2]
    237 -> 289 [penwidth=2]
    246 -> 289 [penwidth=2]
    37 -> 289 [penwidth=2]
    79 -> 289 [penwidth=2]
    163 -> 289 [penwidth=2]
    247 -> 289 [penwidth=2]
    38 -> 289 [penwidth=2]
    80 -> 289 [penwidth=2]
    164 -> 289 [penwidth=2]
    214 -> 289 [penwidth=2]
    236 -> 289 [penwidth=2]
    248 -> 289 [penwidth=2]
    39 -> 289 [penwidth=2]
    81 -> 289 [penwidth=2]
    165 -> 289 [penwidth=2]
    249 -> 289 [penwidth=2]
    40 -> 289 [penwidth=2]
    82 -> 289 [penwidth=2]
    166 -> 331 [penwidth=2]
    213 -> 331 [penwidth=2]
    235 -> 331 [penwidth=2]
    250 -> 331 [penwidth=2]
    41 -> 331 [penwidth=2]
    83 -> 331 [penwidth=2]
    167 -> 331 [penwidth=2]
    251 -> 331 [penwidth=2]
    42 -> 331 [penwidth=2]
    84 -> 331 [penwidth=2]
    168 -> 331 [penwidth=2]
    212 -> 331 [penwidth=2]
    234 -> 331 [penwidth=2]
    252 -> 331 [penwidth=2]
    43 -> 331 [penwidth=2]
    85 -> 331 [penwidth=2]
    169 -> 331 [penwidth=2]
    253 -> 331 [penwidth=2]
    44 -> 331 [penwidth=2]
    86 -> 331 [penwidth=2]
    170 -> 331 [penwidth=2]
    211 -> 331 [penwidth=2]
    233 -> 331 [penwidth=2]
    254 -> 331 [penwidth=2]
    45 -> 331 [penwidth=2]
    87 -> 331 [penwidth=2]
    171 -> 331 [penwidth=2]
    255 -> 331 [penwidth=2]
    46 -> 331 [penwidth=2]
    88 -> 290 [penwidth=2]
    172 -> 290 [penwidth=2]
    210 -> 290 [penwidth=2]
    232 -> 332 [penwidth=2]
    256 -> 332 [penwidth=2]
    47 -> 332 [penwidth=2]
    89 -> 332 [penwidth=2]
    173 -> 332 [penwidth=2]
    257 -> 332 [penwidth=2]
    48 -> 332 [penwidth=2]
    90 -> 332 [penwidth=2]
    174 -> 332 [penwidth=2]
    209 -> 332 [penwidth=2]
    231 -> 332 [penwidth=2]
    258 -> 332 [penwidth=2]
    49 -> 332 [penwidth=2]
    91 -> 332 [penwidth=2]
    175 -> 332 [penwidth=2]
    205 -> 332 [penwidth=2]
    259 -> 332 [penwidth=2]
    50 -> 291 [penwidth=2]
    92 -> 291 [penwidth=2]
    176 -> 291 [penwidth=2]
    208 -> 291 [penwidth=2]
    230 -> 291 [penwidth=2]
    260 -> 291 [penwidth=2]
    51 -> 291 [penwidth=2]
    93 -> 291 [penwidth=2]
    177 -> 291 [penwidth=2]
    261 -> 291 [penwidth=2]
    52 -> 291 [penwidth=2]
    94 -> 291 [penwidth=2]
    178 -> 333 [penwidth=2]
    207 -> 333 [penwidth=2]
    229 -> 333 [penwidth=2]
    262 -> 333 [penwidth=2]
    53 -> 333 [penwidth=2]
    95 -> 333 [penwidth=2]
    179 -> 333 [penwidth=2]
    263 -> 333 [penwidth=2]
    54 -> 333 [penwidth=2]
    96 -> 333 [penwidth=2]
    180 -> 333 [penwidth=2]
    206 -> 333 [penwidth=2]
    228 -> 333 [penwidth=2]
    264 -> 333 [penwidth=2]
    55 -> 333 [penwidth=2]
    97 -> 333 [penwidth=2]
    181 -> 333 [penwidth=2]
    265 -> 333 [penwidth=2]
    56 -> 333 [penwidth=2]
    98 -> 292 [penwidth=2]
    182 -> 334 [penwidth=2]
    227 -> 334 [penwidth=2]
    266 -> 293 [penwidth=2]
    57 -> 293 [penwidth=2]
    99 -> 293 [penwidth=2]
    183 -> 293 [penwidth=2]
    267 -> 293 [penwidth=2]
    58 -> 293 [penwidth=2]
    100 -> 293 [penwidth=2]
    184 -> 293 [penwidth=2]
    204 -> 293 [penwidth=2]
    226 -> 293 [penwidth=2]
    268 -> 293 [penwidth=2]
    59 -> 293 [penwidth=2]
    101 -> 293 [penwidth=2]
    185 -> 293 [penwidth=2]
    269 -> 293 [penwidth=2]
    60 -> 293 [penwidth=2]
    102 -> 293 [penwidth=2]
    186 -> 293 [penwidth=2]
    203 -> 293 [penwidth=2]
    225 -> 293 [penwidth=2]
    270 -> 293 [penwidth=2]
    61 -> 293 [penwidth=2]
    103 -> 293 [penwidth=2]
    187 -> 293 [penwidth=2]
    271 -> 335 [penwidth=2]
    62 -> 335 [penwidth=2]
    104 -> 335 [penwidth=2]
    188 -> 335 [penwidth=2]
    202 -> 335 [penwidth=2]
    224 -> 335 [penwidth=2]
    272 -> 335 [penwidth=2]
    63 -> 335 [penwidth=2]
    105 -> 294 [penwidth=2]
    189 -> 294 [penwidth=2]
    273 -> 294 [penwidth=2]
    64 -> 294 [penwidth=2]
    106 -> 294 [penwidth=2]
    190 -> 294 [penwidth=2]
    201 -> 294 [penwidth=2]
    223 -> 294 [penwidth=2]
    274 -> 294 [penwidth=2]
    65 -> 294 [penwidth=2]
    107 -> 294 [penwidth=2]
    191 -> 294 [penwidth=2]
    275 -> 294 [penwidth=2]
    66 -> 294 [penwidth=2]
    108 -> 294 [penwidth=2]
    192 -> 294 [penwidth=2]
    200 -> 294 [penwidth=2]
    222 -> 294 [penwidth=2]
    276 -> 294 [penwidth=2]
    67 -> 294 [penwidth=2]
    109 -> 294 [penwidth=2]
    193 -> 336 [penwidth=2]
    277 -> 336 [penwidth=2]
    68 -> 336 [penwidth=2]
    110 -> 336 [penwidth=2]
    194 -> 336 [penwidth=2]
    199 -> 336 [penwidth=2]
    221 -> 336 [penwidth=2]
    278 -> 336 [penwidth=2]
    69 -> 336 [penwidth=2]
    111 -> 336 [penwidth=2]
    195 -> 336 [penwidth=2]
    279 -> 336 [penwidth=2]
    70 -> 336 [penwidth=2]
    112 -> 336 [penwidth=2]
    196 -> 336 [penwidth=2]
    198 -> 336 [penwidth=2]
    220 -> 336 [penwidth=2]
    280 -> 336 [penwidth=2]
    71 -> 336 [penwidth=2]
    113 -> 336 [penwidth=2]
    197 -> 336 [penwidth=2]
    219 -> 336 [penwidth=2]
    281 -> 295 [penwidth=2]
    326 -> 324 [penwidth=2]
    285 -> 283 [penwidth=2]
    285 -> 324 [penwidth=2]
    332 -> 283 [penwidth=2]
    345 -> 282 [penwidth=2]
    346 -> 283 [penwidth=2]
    306 -> 282 [penwidth=2]
    306 -> 324 [penwidth=2]
    311 -> 283 [penwidth=2]
    315 -> 290 [penwidth=2]
    315 -> 328 [penwidth=2]
    315 -> 331 [penwidth=2]
    315 -> 293 [penwidth=2]
    315 -> 335 [penwidth=2]
    315 -> 306 [penwidth=2]
    315 -> 343 [penwidth=2]
    315 -> 310 [penwidth=2]
    315 -> 330 [penwidth=2]
    315 -> 297 [penwidth=2]
    315 -> 334 [penwidth=2]
    315 -> 285 [penwidth=2]
    315 -> 292 [penwidth=2]
    315 -> 313 [penwidth=2]
    357 -> 311 [penwidth=2]
    357 -> 298 [penwidth=2]
    357 -> 330 [penwidth=2]
    357 -> 290 [penwidth=2]
    357 -> 295 [penwidth=2]
    357 -> 353 [penwidth=2]
    357 -> 312 [penwidth=2]
    357 -> 297 [penwidth=2]
    357 -> 343 [penwidth=2]
    357 -> 344 [penwidth=2]
    357 -> 346 [penwidth=2]
    357 -> 309 [penwidth=2]
    357 -> 340 [penwidth=2]
    357 -> 308 [penwidth=2]
    357 -> 333 [penwidth=2]
    357 -> 286 [penwidth=2]
    357 -> 300 [penwidth=2]
    357 -> 342 [penwidth=2]
    357 -> 354 [penwidth=2]
    357 -> 302 [penwidth=2]
    357 -> 307 [penwidth=2]
    357 -> 304 [penwidth=2]
    357 -> 310 [penwidth=2]
    357 -> 326 [penwidth=2]
    357 -> 338 [penwidth=2]
    357 -> 289 [penwidth=2]
    357 -> 294 [penwidth=2]
    357 -> 345 [penwidth=2]
    357 -> 332 [penwidth=2]
    357 -> 314 [penwidth=2]
    357 -> 329 [penwidth=2]
    357 -> 285 [penwidth=2]
    357 -> 349 [penwidth=2]
    357 -> 305 [penwidth=2]
    357 -> 331 [penwidth=2]
    357 -> 334 [penwidth=2]
    357 -> 335 [penwidth=2]
    365 -> 300 [penwidth=2]
    365 -> 331 [penwidth=2]
    365 -> 301 [penwidth=2]
    365 -> 297 [penwidth=2]
    365 -> 305 [penwidth=2]
    365 -> 355 [penwidth=2]
    365 -> 332 [penwidth=2]
    365 -> 334 [penwidth=2]
    365 -> 333 [penwidth=2]
    365 -> 291 [penwidth=2]
    365 -> 328 [penwidth=2]
    365 -> 310 [penwidth=2]
    368 -> 340 [penwidth=2]
    368 -> 348 [penwidth=2]
    368 -> 298 [penwidth=2]
    368 -> 347 [penwidth=2]
    368 -> 353 [penwidth=2]
    368 -> 351 [penwidth=2]
    368 -> 291 [penwidth=2]
    368 -> 328 [penwidth=2]
    368 -> 289 [penwidth=2]
    368 -> 339 [penwidth=2]
    368 -> 296 [penwidth=2]
    368 -> 287 [penwidth=2]
    368 -> 343 [penwidth=2]
    368 -> 310 [penwidth=2]
    368 -> 306 [penwidth=2]
    368 -> 297 [penwidth=2]
    368 -> 341 [penwidth=2]
    368 -> 342 [penwidth=2]
    368 -> 331 [penwidth=2]
    368 -> 303 [penwidth=2]
    368 -> 336 [penwidth=2]
    368 -> 335 [penwidth=2]
    368 -> 329 [penwidth=2]
    368 -> 302 [penwidth=2]
    368 -> 334 [penwidth=2]
    368 -> 295 [penwidth=2]
    368 -> 305 [penwidth=2]
    368 -> 314 [penwidth=2]
    368 -> 304 [penwidth=2]
    368 -> 292 [penwidth=2]
    368 -> 288 [penwidth=2]
    368 -> 333 [penwidth=2]
    368 -> 346 [penwidth=2]
    368 -> 350 [penwidth=2]
    368 -> 285 [penwidth=2]
    368 -> 300 [penwidth=2]
    368 -> 330 [penwidth=2]
    368 -> 286 [penwidth=2]
    368 -> 344 [penwidth=2]
    368 -> 332 [penwidth=2]
    368 -> 293 [penwidth=2]
    368 -> 338 [penwidth=2]
    368 -> 326 [penwidth=2]
    368 -> 352 [penwidth=2]
    368 -> 313 [penwidth=2]
    368 -> 309 [penwidth=2]
    368 -> 312 [penwidth=2]
    368 -> 301 [penwidth=2]
    372 -> 287 [penwidth=2]
    372 -> 310 [penwidth=2]
    372 -> 326 [penwidth=2]
    372 -> 285 [penwidth=2]
    372 -> 343 [penwidth=2]
    372 -> 296 [penwidth=2]
    372 -> 347 [penwidth=2]
    372 -> 327 [penwidth=2]
    372 -> 309 [penwidth=2]
    372 -> 286 [penwidth=2]
    372 -> 330 [penwidth=2]
    372 -> 290 [penwidth=2]
    372 -> 292 [penwidth=2]
    372 -> 313 [penwidth=2]
    372 -> 291 [penwidth=2]
    372 -> 334 [penwidth=2]
    372 -> 311 [penwidth=2]
    379 -> 334 [penwidth=2]
    379 -> 330 [penwidth=2]
    379 -> 341 [penwidth=2]
    379 -> 298 [penwidth=2]
    379 -> 312 [penwidth=2]
    379 -> 287 [penwidth=2]
    379 -> 329 [penwidth=2]
    379 -> 333 [penwidth=2]
    379 -> 331 [penwidth=2]
    379 -> 295 [penwidth=2]
    379 -> 308 [penwidth=2]
    379 -> 307 [penwidth=2]
    379 -> 305 [penwidth=2]
    379 -> 290 [penwidth=2]
    379 -> 294 [penwidth=2]
    379 -> 355 [penwidth=2]
    379 -> 342 [penwidth=2]
    379 -> 328 [penwidth=2]
    379 -> 284 [penwidth=2]
    379 -> 344 [penwidth=2]
    379 -> 293 [penwidth=2]
    379 -> 354 [penwidth=2]
    379 -> 343 [penwidth=2]
    379 -> 353 [penwidth=2]
    379 -> 302 [penwidth=2]
    379 -> 300 [penwidth=2]
    379 -> 292 [penwidth=2]
    379 -> 313 [penwidth=2]
    379 -> 346 [penwidth=2]
    379 -> 339 [penwidth=2]
    379 -> 349 [penwidth=2]
    379 -> 286 [penwidth=2]
    379 -> 303 [penwidth=2]
    379 -> 288 [penwidth=2]
    379 -> 314 [penwidth=2]
    379 -> 310 [penwidth=2]
    379 -> 352 [penwidth=2]
    379 -> 327 [penwidth=2]
    384 -> 303 [penwidth=2]
    384 -> 308 [penwidth=2]
    384 -> 349 [penwidth=2]
    384 -> 351 [penwidth=2]
    384 -> 337 [penwidth=2]
    384 -> 300 [penwidth=2]
    384 -> 345 [penwidth=2]
    384 -> 336 [penwidth=2]
    384 -> 310 [penwidth=2]
    384 -> 341 [penwidth=2]
    384 -> 299 [penwidth=2]
    384 -> 289 [penwidth=2]
    384 -> 328 [penwidth=2]
    384 -> 313 [penwidth=2]
    384 -> 339 [penwidth=2]
    384 -> 301 [penwidth=2]
    384 -> 287 [penwidth=2]
    384 -> 297 [penwidth=2]
    384 -> 353 [penwidth=2]
    384 -> 348 [penwidth=2]
    384 -> 338 [penwidth=2]
    384 -> 354 [penwidth=2]
    384 -> 330 [penwidth=2]
    384 -> 306 [penwidth=2]
    384 -> 298 [penwidth=2]
    384 -> 333 [penwidth=2]
    384 -> 290 [penwidth=2]
    384 -> 302 [penwidth=2]
    384 -> 311 [penwidth=2]
    384 -> 286 [penwidth=2]
    384 -> 355 [penwidth=2]
    384 -> 293 [penwidth=2]
    384 -> 295 [penwidth=2]
    384 -> 304 [penwidth=2]
    384 -> 329 [penwidth=2]
    384 -> 331 [penwidth=2]
    384 -> 342 [penwidth=2]
    387 -> 308 [penwidth=2]
    387 -> 342 [penwidth=2]
    387 -> 331 [penwidth=2]
    387 -> 298 [penwidth=2]
    387 -> 286 [penwidth=2]
    387 -> 294 [penwidth=2]
    387 -> 293 [penwidth=2]
    387 -> 292 [penwidth=2]
    387 -> 305 [penwidth=2]
    387 -> 340 [penwidth=2]
    387 -> 288 [penwidth=2]
    387 -> 289 [penwidth=2]
    387 -> 343 [penwidth=2]
    387 -> 338 [penwidth=2]
    387 -> 296 [penwidth=2]
    387 -> 329 [penwidth=2]
    387 -> 301 [penwidth=2]
    387 -> 347 [penwidth=2]
    387 -> 346 [penwidth=2]
    387 -> 348 [penwidth=2]
    387 -> 353 [penwidth=2]
    387 -> 297 [penwidth=2]
    387 -> 354 [penwidth=2]
    387 -> 313 [penwidth=2]
    387 -> 310 [penwidth=2]
    387 -> 284 [penwidth=2]
    387 -> 345 [penwidth=2]
    387 -> 287 [penwidth=2]
    387 -> 311 [penwidth=2]
    387 -> 295 [penwidth=2]
    387 -> 290 [penwidth=2]
    387 -> 349 [penwidth=2]
    387 -> 303 [penwidth=2]
    387 -> 300 [penwidth=2]
    399 -> 354 [penwidth=2]
    399 -> 332 [penwidth=2]
    399 -> 306 [penwidth=2]
    399 -> 344 [penwidth=2]
    399 -> 339 [penwidth=2]
    399 -> 346 [penwidth=2]
    399 -> 338 [penwidth=2]
    399 -> 347 [penwidth=2]
    399 -> 312 [penwidth=2]
    399 -> 298 [penwidth=2]
    399 -> 352 [penwidth=2]
    399 -> 305 [penwidth=2]
    399 -> 345 [penwidth=2]
    399 -> 335 [penwidth=2]
    399 -> 297 [penwidth=2]
    399 -> 334 [penwidth=2]
    399 -> 300 [penwidth=2]
    399 -> 309 [penwidth=2]
    399 -> 284 [penwidth=2]
    399 -> 328 [penwidth=2]
    399 -> 355 [penwidth=2]
    399 -> 353 [penwidth=2]
    399 -> 308 [penwidth=2]
    399 -> 326 [penwidth=2]
    399 -> 348 [penwidth=2]
    399 -> 336 [penwidth=2]
    399 -> 296 [penwidth=2]
    399 -> 351 [penwidth=2]
    399 -> 342 [penwidth=2]
    399 -> 330 [penwidth=2]
    399 -> 333 [penwidth=2]
    399 -> 311 [penwidth=2]
    399 -> 313 [penwidth=2]
    399 -> 303 [penwidth=2]
    399 -> 350 [penwidth=2]
    399 -> 329 [penwidth=2]
    399 -> 307 [penwidth=2]
    399 -> 295 [penwidth=2]
    399 -> 291 [penwidth=2]
    399 -> 341 [penwidth=2]
    399 -> 301 [penwidth=2]
    399 -> 292 [penwidth=2]
    399 -> 331 [penwidth=2]
    399 -> 314 [penwidth=2]
    399 -> 340 [penwidth=2]
    399 -> 343 [penwidth=2]
    399 -> 286 [penwidth=2]
    399 -> 299 [penwidth=2]
    399 -> 288 [penwidth=2]
    399 -> 289 [penwidth=2]
    399 -> 304 [penwidth=2]
    399 -> 349 [penwidth=2]
    399 -> 302 [penwidth=2]
    117 -> 288 [penwidth=2]
    117 -> 329 [penwidth=2]
    117 -> 346 [penwidth=2]
    117 -> 290 [penwidth=2]
    117 -> 309 [penwidth=2]
    117 -> 340 [penwidth=2]
    117 -> 338 [penwidth=2]
    117 -> 344 [penwidth=2]
    117 -> 326 [penwidth=2]
    117 -> 307 [penwidth=2]
    117 -> 301 [penwidth=2]
    117 -> 312 [penwidth=2]
    117 -> 334 [penwidth=2]
    117 -> 298 [penwidth=2]
    117 -> 330 [penwidth=2]
    117 -> 351 [penwidth=2]
    117 -> 349 [penwidth=2]
    117 -> 341 [penwidth=2]
    117 -> 303 [penwidth=2]
    117 -> 293 [penwidth=2]
    117 -> 333 [penwidth=2]
    117 -> 292 [penwidth=2]
    117 -> 287 [penwidth=2]
    117 -> 336 [penwidth=2]
    117 -> 295 [penwidth=2]
    117 -> 306 [penwidth=2]
    117 -> 299 [penwidth=2]
    117 -> 285 [penwidth=2]
    117 -> 345 [penwidth=2]
    117 -> 314 [penwidth=2]
    117 -> 342 [penwidth=2]
    117 -> 305 [penwidth=2]
    117 -> 328 [penwidth=2]
    117 -> 308 [penwidth=2]
    117 -> 335 [penwidth=2]
    117 -> 311 [penwidth=2]
    117 -> 302 [penwidth=2]
    117 -> 289 [penwidth=2]
    117 -> 296 [penwidth=2]
    117 -> 339 [penwidth=2]
    117 -> 294 [penwidth=2]
    117 -> 352 [penwidth=2]
    117 -> 350 [penwidth=2]
    117 -> 327 [penwidth=2]
    117 -> 355 [penwidth=2]
    117 -> 332 [penwidth=2]
    117 -> 348 [penwidth=2]
    117 -> 337 [penwidth=2]
    5 -> 328 [penwidth=2]
    5 -> 338 [penwidth=2]
    5 -> 345 [penwidth=2]
    5 -> 311 [penwidth=2]
    5 -> 355 [penwidth=2]
    5 -> 314 [penwidth=2]
    5 -> 349 [penwidth=2]
    5 -> 339 [penwidth=2]
    5 -> 334 [penwidth=2]
    5 -> 313 [penwidth=2]
    5 -> 290 [penwidth=2]
    5 -> 350 [penwidth=2]
    5 -> 331 [penwidth=2]
    5 -> 309 [penwidth=2]
    5 -> 347 [penwidth=2]
    5 -> 288 [penwidth=2]
    5 -> 346 [penwidth=2]
    5 -> 287 [penwidth=2]
    5 -> 293 [penwidth=2]
    5 -> 296 [penwidth=2]
    5 -> 284 [penwidth=2]
    5 -> 306 [penwidth=2]
    5 -> 300 [penwidth=2]
    5 -> 344 [penwidth=2]
    5 -> 285 [penwidth=2]
    5 -> 307 [penwidth=2]
    5 -> 343 [penwidth=2]
    5 -> 295 [penwidth=2]
    5 -> 336 [penwidth=2]
    5 -> 292 [penwidth=2]
    5 -> 337 [penwidth=2]
    5 -> 299 [penwidth=2]
    5 -> 327 [penwidth=2]
    5 -> 289 [penwidth=2]
    5 -> 332 [penwidth=2]
    5 -> 341 [penwidth=2]
    5 -> 302 [penwidth=2]
    137 -> 341 [penwidth=2]
    137 -> 284 [penwidth=2]
    137 -> 338 [penwidth=2]
    137 -> 297 [penwidth=2]
    137 -> 295 [penwidth=2]
    137 -> 355 [penwidth=2]
    137 -> 288 [penwidth=2]
    137 -> 306 [penwidth=2]
    137 -> 308 [penwidth=2]
    137 -> 309 [penwidth=2]
    137 -> 289 [penwidth=2]
    137 -> 329 [penwidth=2]
    137 -> 307 [penwidth=2]
    137 -> 300 [penwidth=2]
    137 -> 344 [penwidth=2]
    137 -> 313 [penwidth=2]
    137 -> 299 [penwidth=2]
    137 -> 330 [penwidth=2]
    137 -> 293 [penwidth=2]
    137 -> 301 [penwidth=2]
    137 -> 311 [penwidth=2]
    137 -> 339 [penwidth=2]
    137 -> 352 [penwidth=2]
    137 -> 351 [penwidth=2]
    137 -> 326 [penwidth=2]
    137 -> 286 [penwidth=2]
    137 -> 345 [penwidth=2]
    137 -> 354 [penwidth=2]
    137 -> 333 [penwidth=2]
    137 -> 335 [penwidth=2]
    137 -> 337 [penwidth=2]
    137 -> 340 [penwidth=2]
    137 -> 296 [penwidth=2]
    137 -> 348 [penwidth=2]
    137 -> 302 [penwidth=2]
    74 -> 330 [penwidth=2]
    74 -> 310 [penwidth=2]
    74 -> 303 [penwidth=2]
    74 -> 338 [penwidth=2]
    74 -> 285 [penwidth=2]
    74 -> 329 [penwidth=2]
    74 -> 284 [penwidth=2]
    74 -> 347 [penwidth=2]
    74 -> 311 [penwidth=2]
    74 -> 286 [penwidth=2]
    74 -> 295 [penwidth=2]
    74 -> 287 [penwidth=2]
    74 -> 348 [penwidth=2]
    74 -> 350 [penwidth=2]
    74 -> 308 [penwidth=2]
    74 -> 328 [penwidth=2]
    74 -> 354 [penwidth=2]
    74 -> 346 [penwidth=2]
    74 -> 292 [penwidth=2]
    74 -> 299 [penwidth=2]
    74 -> 300 [penwidth=2]
    74 -> 314 [penwidth=2]
    74 -> 331 [penwidth=2]
    74 -> 335 [penwidth=2]
    74 -> 298 [penwidth=2]
    74 -> 297 [penwidth=2]
    74 -> 294 [penwidth=2]
    74 -> 355 [penwidth=2]
    74 -> 337 [penwidth=2]
    74 -> 340 [penwidth=2]
    74 -> 353 [penwidth=2]
    74 -> 336 [penwidth=2]
    74 -> 313 [penwidth=2]
    74 -> 326 [penwidth=2]
    74 -> 339 [penwidth=2]
    74 -> 301 [penwidth=2]
    74 -> 341 [penwidth=2]
    74 -> 327 [penwidth=2]
    74 -> 307 [penwidth=2]
    74 -> 304 [penwidth=2]
    74 -> 332 [penwidth=2]
    74 -> 342 [penwidth=2]
    74 -> 293 [penwidth=2]
    74 -> 345 [penwidth=2]
    74 -> 291 [penwidth=2]
    74 -> 351 [penwidth=2]
    74 -> 312 [penwidth=2]
    74 -> 309 [penwidth=2]
    74 -> 344 [penwidth=2]
    74 -> 334 [penwidth=2]
    74 -> 349 [penwidth=2]
    74 -> 296 [penwidth=2]
    74 -> 352 [penwidth=2]
    74 -> 306 [penwidth=2]
    74 -> 333 [penwidth=2]
    239 -> 300 [penwidth=2]
    239 -> 289 [penwidth=2]
    239 -> 349 [penwidth=2]
    239 -> 334 [penwidth=2]
    239 -> 329 [penwidth=2]
    239 -> 311 [penwidth=2]
    239 -> 327 [penwidth=2]
    239 -> 298 [penwidth=2]
    239 -> 355 [penwidth=2]
    239 -> 350 [penwidth=2]
    239 -> 353 [penwidth=2]
    239 -> 285 [penwidth=2]
    239 -> 312 [penwidth=2]
    239 -> 309 [penwidth=2]
    239 -> 305 [penwidth=2]
    239 -> 342 [penwidth=2]
    239 -> 337 [penwidth=2]
    239 -> 335 [penwidth=2]
    239 -> 303 [penwidth=2]
    239 -> 287 [penwidth=2]
    239 -> 302 [penwidth=2]
    239 -> 290 [penwidth=2]
    239 -> 340 [penwidth=2]
    239 -> 326 [penwidth=2]
    239 -> 299 [penwidth=2]
    239 -> 338 [penwidth=2]
    76 -> 332 [penwidth=2]
    76 -> 328 [penwidth=2]
    76 -> 349 [penwidth=2]
    76 -> 289 [penwidth=2]
    76 -> 334 [penwidth=2]
    76 -> 333 [penwidth=2]
    76 -> 301 [penwidth=2]
    76 -> 295 [penwidth=2]
    76 -> 351 [penwidth=2]
    76 -> 344 [penwidth=2]
    76 -> 288 [penwidth=2]
    76 -> 307 [penwidth=2]
    76 -> 308 [penwidth=2]
    76 -> 350 [penwidth=2]
    76 -> 355 [penwidth=2]
    76 -> 343 [penwidth=2]
    76 -> 335 [penwidth=2]
    76 -> 310 [penwidth=2]
    76 -> 296 [penwidth=2]
    76 -> 329 [penwidth=2]
    76 -> 338 [penwidth=2]
    76 -> 345 [penwidth=2]
    76 -> 312 [penwidth=2]
    76 -> 309 [penwidth=2]
    76 -> 284 [penwidth=2]
    76 -> 287 [penwidth=2]
    76 -> 342 [penwidth=2]
    76 -> 290 [penwidth=2]
    76 -> 346 [penwidth=2]
    76 -> 291 [penwidth=2]
    76 -> 313 [penwidth=2]
    76 -> 326 [penwidth=2]
    76 -> 337 [penwidth=2]
    76 -> 300 [penwidth=2]
    76 -> 303 [penwidth=2]
    76 -> 292 [penwidth=2]
    76 -> 340 [penwidth=2]
    76 -> 347 [penwidth=2]
    76 -> 348 [penwidth=2]
    76 -> 314 [penwidth=2]
    76 -> 299 [penwidth=2]
    76 -> 311 [penwidth=2]
    76 -> 339 [penwidth=2]
    76 -> 302 [penwidth=2]
    76 -> 336 [penwidth=2]
    216 -> 347 [penwidth=2]
    216 -> 284 [penwidth=2]
    216 -> 308 [penwidth=2]
    216 -> 350 [penwidth=2]
    216 -> 312 [penwidth=2]
    216 -> 337 [penwidth=2]
    216 -> 295 [penwidth=2]
    216 -> 305 [penwidth=2]
    216 -> 327 [penwidth=2]
    216 -> 291 [penwidth=2]
    216 -> 328 [penwidth=2]
    216 -> 287 [penwidth=2]
    216 -> 330 [penwidth=2]
    216 -> 355 [penwidth=2]
    216 -> 348 [penwidth=2]
    216 -> 309 [penwidth=2]
    216 -> 285 [penwidth=2]
    216 -> 354 [penwidth=2]
    216 -> 332 [penwidth=2]
    216 -> 333 [penwidth=2]
    216 -> 331 [penwidth=2]
    216 -> 334 [penwidth=2]
    216 -> 297 [penwidth=2]
    216 -> 313 [penwidth=2]
    216 -> 298 [penwidth=2]
    216 -> 338 [penwidth=2]
    216 -> 306 [penwidth=2]
    216 -> 341 [penwidth=2]
    216 -> 344 [penwidth=2]
    216 -> 301 [penwidth=2]
    216 -> 307 [penwidth=2]
    216 -> 299 [penwidth=2]
    216 -> 329 [penwidth=2]
    216 -> 288 [penwidth=2]
    216 -> 293 [penwidth=2]
    216 -> 292 [penwidth=2]
    216 -> 345 [penwidth=2]
    216 -> 342 [penwidth=2]
    216 -> 302 [penwidth=2]
    79 -> 308 [penwidth=2]
    79 -> 310 [penwidth=2]
    79 -> 290 [penwidth=2]
    79 -> 299 [penwidth=2]
    79 -> 329 [penwidth=2]
    79 -> 351 [penwidth=2]
    79 -> 339 [penwidth=2]
    79 -> 304 [penwidth=2]
    79 -> 335 [penwidth=2]
    79 -> 326 [penwidth=2]
    79 -> 301 [penwidth=2]
    79 -> 328 [penwidth=2]
    79 -> 355 [penwidth=2]
    79 -> 311 [penwidth=2]
    79 -> 353 [penwidth=2]
    79 -> 296 [penwidth=2]
    79 -> 338 [penwidth=2]
    79 -> 302 [penwidth=2]
    79 -> 334 [penwidth=2]
    79 -> 348 [penwidth=2]
    79 -> 297 [penwidth=2]
    79 -> 286 [penwidth=2]
    79 -> 332 [penwidth=2]
    79 -> 333 [penwidth=2]
    79 -> 352 [penwidth=2]
    79 -> 313 [penwidth=2]
    79 -> 287 [penwidth=2]
    79 -> 349 [penwidth=2]
    79 -> 303 [penwidth=2]
    79 -> 327 [penwidth=2]
    79 -> 346 [penwidth=2]
    79 -> 341 [penwidth=2]
    79 -> 305 [penwidth=2]
    79 -> 347 [penwidth=2]
    79 -> 284 [penwidth=2]
    79 -> 300 [penwidth=2]
    79 -> 350 [penwidth=2]
    79 -> 294 [penwidth=2]
    79 -> 354 [penwidth=2]
    79 -> 307 [penwidth=2]
    79 -> 340 [penwidth=2]
    79 -> 288 [penwidth=2]
    79 -> 292 [penwidth=2]
    79 -> 309 [penwidth=2]
    79 -> 295 [penwidth=2]
    79 -> 312 [penwidth=2]
    79 -> 344 [penwidth=2]
    79 -> 342 [penwidth=2]
    79 -> 314 [penwidth=2]
    79 -> 330 [penwidth=2]
    79 -> 337 [penwidth=2]
    79 -> 343 [penwidth=2]
    79 -> 291 [penwidth=2]
    79 -> 306 [penwidth=2]
    79 -> 336 [penwidth=2]
    164 -> 329 [penwidth=2]
    164 -> 287 [penwidth=2]
    164 -> 332 [penwidth=2]
    164 -> 336 [penwidth=2]
    164 -> 303 [penwidth=2]
    164 -> 346 [penwidth=2]
    164 -> 310 [penwidth=2]
    164 -> 333 [penwidth=2]
    164 -> 286 [penwidth=2]
    164 -> 304 [penwidth=2]
    164 -> 347 [penwidth=2]
    164 -> 355 [penwidth=2]
    164 -> 298 [penwidth=2]
    164 -> 337 [penwidth=2]
    164 -> 313 [penwidth=2]
    164 -> 331 [penwidth=2]
    164 -> 299 [penwidth=2]
    164 -> 284 [penwidth=2]
    164 -> 288 [penwidth=2]
    164 -> 314 [penwidth=2]
    164 -> 349 [penwidth=2]
    164 -> 292 [penwidth=2]
    164 -> 342 [penwidth=2]
    164 -> 343 [penwidth=2]
    164 -> 307 [penwidth=2]
    164 -> 305 [penwidth=2]
    164 -> 302 [penwidth=2]
    164 -> 285 [penwidth=2]
    164 -> 327 [penwidth=2]
    164 -> 311 [penwidth=2]
    164 -> 328 [penwidth=2]
    164 -> 334 [penwidth=2]
    164 -> 350 [penwidth=2]
    164 -> 345 [penwidth=2]
    164 -> 348 [penwidth=2]
    164 -> 308 [penwidth=2]
    164 -> 291 [penwidth=2]
    164 -> 351 [penwidth=2]
    164 -> 352 [penwidth=2]
    164 -> 293 [penwidth=2]
    164 -> 290 [penwidth=2]
    164 -> 297 [penwidth=2]
    164 -> 344 [penwidth=2]
    164 -> 296 [penwidth=2]
    164 -> 340 [penwidth=2]
    164 -> 339 [penwidth=2]
    164 -> 326 [penwidth=2]
    164 -> 312 [penwidth=2]
    164 -> 338 [penwidth=2]
    164 -> 341 [penwidth=2]
    164 -> 301 [penwidth=2]
    39 -> 352 [penwidth=2]
    39 -> 291 [penwidth=2]
    39 -> 295 [penwidth=2]
    39 -> 304 [penwidth=2]
    39 -> 293 [penwidth=2]
    39 -> 297 [penwidth=2]
    39 -> 302 [penwidth=2]
    39 -> 303 [penwidth=2]
    39 -> 296 [penwidth=2]
    39 -> 285 [penwidth=2]
    39 -> 298 [penwidth=2]
    39 -> 342 [penwidth=2]
    39 -> 288 [penwidth=2]
    39 -> 287 [penwidth=2]
    39 -> 348 [penwidth=2]
    39 -> 292 [penwidth=2]
    39 -> 306 [penwidth=2]
    39 -> 349 [penwidth=2]
    39 -> 353 [penwidth=2]
    39 -> 350 [penwidth=2]
    39 -> 338 [penwidth=2]
    39 -> 327 [penwidth=2]
    39 -> 330 [penwidth=2]
    39 -> 333 [penwidth=2]
    39 -> 312 [penwidth=2]
    39 -> 335 [penwidth=2]
    39 -> 307 [penwidth=2]
    39 -> 340 [penwidth=2]
    39 -> 351 [penwidth=2]
    39 -> 305 [penwidth=2]
    39 -> 336 [penwidth=2]
    39 -> 341 [penwidth=2]
    39 -> 337 [penwidth=2]
    39 -> 347 [penwidth=2]
    39 -> 301 [penwidth=2]
    39 -> 331 [penwidth=2]
    39 -> 326 [penwidth=2]
    39 -> 346 [penwidth=2]
    39 -> 314 [penwidth=2]
    39 -> 355 [penwidth=2]
    39 -> 334 [penwidth=2]
    234 -> 332 [penwidth=2]
    234 -> 346 [penwidth=2]
    234 -> 351 [penwidth=2]
    234 -> 297 [penwidth=2]
    211 -> 339 [penwidth=2]
    211 -> 303 [penwidth=2]
    211 -> 330 [penwidth=2]
    211 -> 288 [penwidth=2]
    211 -> 345 [penwidth=2]
    211 -> 340 [penwidth=2]
    211 -> 310 [penwidth=2]
    211 -> 290 [penwidth=2]
    211 -> 333 [penwidth=2]
    87 -> 344 [penwidth=2]
    87 -> 284 [penwidth=2]
    87 -> 293 [penwidth=2]
    87 -> 285 [penwidth=2]
    87 -> 296 [penwidth=2]
    173 -> 342 [penwidth=2]
    173 -> 304 [penwidth=2]
    173 -> 301 [penwidth=2]
    173 -> 326 [penwidth=2]
    173 -> 299 [penwidth=2]
    173 -> 341 [penwidth=2]
    173 -> 313 [penwidth=2]
    173 -> 300 [penwidth=2]
    173 -> 330 [penwidth=2]
    173 -> 306 [penwidth=2]
    173 -> 310 [penwidth=2]
    173 -> 328 [penwidth=2]
    173 -> 337 [penwidth=2]
    173 -> 293 [penwidth=2]
    173 -> 292 [penwidth=2]
    173 -> 334 [penwidth=2]
    173 -> 307 [penwidth=2]
    173 -> 346 [penwidth=2]
    173 -> 350 [penwidth=2]
    173 -> 312 [penwidth=2]
    173 -> 349 [penwidth=2]
    173 -> 355 [penwidth=2]
    173 -> 314 [penwidth=2]
    173 -> 340 [penwidth=2]
    173 -> 344 [penwidth=2]
    173 -> 296 [penwidth=2]
    173 -> 354 [penwidth=2]
    173 -> 347 [penwidth=2]
    173 -> 348 [penwidth=2]
    173 -> 327 [penwidth=2]
    173 -> 311 [penwidth=2]
    173 -> 335 [penwidth=2]
    90 -> 292 [penwidth=2]
    90 -> 298 [penwidth=2]
    90 -> 328 [penwidth=2]
    90 -> 346 [penwidth=2]
    90 -> 350 [penwidth=2]
    90 -> 351 [penwidth=2]
    90 -> 294 [penwidth=2]
    90 -> 352 [penwidth=2]
    90 -> 348 [penwidth=2]
    90 -> 339 [penwidth=2]
    90 -> 344 [penwidth=2]
    90 -> 312 [penwidth=2]
    90 -> 333 [penwidth=2]
    90 -> 304 [penwidth=2]
    90 -> 326 [penwidth=2]
    90 -> 343 [penwidth=2]
    90 -> 349 [penwidth=2]
    90 -> 313 [penwidth=2]
    90 -> 341 [penwidth=2]
    90 -> 285 [penwidth=2]
    90 -> 288 [penwidth=2]
    90 -> 296 [penwidth=2]
    90 -> 290 [penwidth=2]
    90 -> 329 [penwidth=2]
    90 -> 314 [penwidth=2]
    90 -> 347 [penwidth=2]
    90 -> 331 [penwidth=2]
    90 -> 338 [penwidth=2]
    90 -> 303 [penwidth=2]
    90 -> 345 [penwidth=2]
    90 -> 342 [penwidth=2]
    50 -> 298 [penwidth=2]
    50 -> 284 [penwidth=2]
    50 -> 342 [penwidth=2]
    50 -> 312 [penwidth=2]
    50 -> 311 [penwidth=2]
    50 -> 340 [penwidth=2]
    50 -> 343 [penwidth=2]
    50 -> 330 [penwidth=2]
    50 -> 299 [penwidth=2]
    50 -> 349 [penwidth=2]
    50 -> 346 [penwidth=2]
    262 -> 346 [penwidth=2]
    262 -> 308 [penwidth=2]
    262 -> 344 [penwidth=2]
    262 -> 335 [penwidth=2]
    262 -> 296 [penwidth=2]
    262 -> 332 [penwidth=2]
    262 -> 305 [penwidth=2]
    262 -> 331 [penwidth=2]
    262 -> 284 [penwidth=2]
    262 -> 349 [penwidth=2]
    262 -> 287 [penwidth=2]
    262 -> 290 [penwidth=2]
    262 -> 288 [penwidth=2]
    262 -> 345 [penwidth=2]
    262 -> 328 [penwidth=2]
    262 -> 292 [penwidth=2]
    262 -> 313 [penwidth=2]
    262 -> 329 [penwidth=2]
    262 -> 342 [penwidth=2]
    262 -> 355 [penwidth=2]
    262 -> 301 [penwidth=2]
    262 -> 348 [penwidth=2]
    262 -> 334 [penwidth=2]
    262 -> 314 [penwidth=2]
    262 -> 311 [penwidth=2]
    262 -> 298 [penwidth=2]
    262 -> 295 [penwidth=2]
    262 -> 309 [penwidth=2]
    262 -> 336 [penwidth=2]
    262 -> 343 [penwidth=2]
    262 -> 339 [penwidth=2]
    262 -> 306 [penwidth=2]
    262 -> 285 [penwidth=2]
    262 -> 312 [penwidth=2]
    262 -> 350 [penwidth=2]
    262 -> 337 [penwidth=2]
    262 -> 326 [penwidth=2]
    262 -> 286 [penwidth=2]
    262 -> 340 [penwidth=2]
    262 -> 289 [penwidth=2]
    262 -> 293 [penwidth=2]
    262 -> 347 [penwidth=2]
    262 -> 307 [penwidth=2]
    262 -> 297 [penwidth=2]
    262 -> 327 [penwidth=2]
    262 -> 299 [penwidth=2]
    262 -> 338 [penwidth=2]
    262 -> 304 [penwidth=2]
    262 -> 294 [penwidth=2]
    262 -> 300 [penwidth=2]
    262 -> 310 [penwidth=2]
    262 -> 302 [penwidth=2]
    262 -> 341 [penwidth=2]
    262 -> 303 [penwidth=2]
    262 -> 291 [penwidth=2]
    262 -> 351 [penwidth=2]
    262 -> 330 [penwidth=2]
    262 -> 354 [penwidth=2]
    227 -> 302 [penwidth=2]
    227 -> 338 [penwidth=2]
    227 -> 291 [penwidth=2]
    227 -> 298 [penwidth=2]
    227 -> 343 [penwidth=2]
    227 -> 310 [penwidth=2]
    227 -> 293 [penwidth=2]
    227 -> 301 [penwidth=2]
    227 -> 347 [penwidth=2]
    227 -> 345 [penwidth=2]
    227 -> 285 [penwidth=2]
    227 -> 290 [penwidth=2]
    227 -> 337 [penwidth=2]
    227 -> 350 [penwidth=2]
    227 -> 292 [penwidth=2]
    227 -> 335 [penwidth=2]
    227 -> 353 [penwidth=2]
    227 -> 352 [penwidth=2]
    227 -> 295 [penwidth=2]
    227 -> 296 [penwidth=2]
    227 -> 339 [penwidth=2]
    227 -> 351 [penwidth=2]
    227 -> 346 [penwidth=2]
    227 -> 326 [penwidth=2]
    227 -> 297 [penwidth=2]
    227 -> 311 [penwidth=2]
    227 -> 348 [penwidth=2]
    227 -> 289 [penwidth=2]
    227 -> 354 [penwidth=2]
    227 -> 349 [penwidth=2]
    227 -> 328 [penwidth=2]
    227 -> 300 [penwidth=2]
    227 -> 342 [penwidth=2]
    227 -> 344 [penwidth=2]
    227 -> 333 [penwidth=2]
    99 -> 347 [penwidth=2]
    99 -> 327 [penwidth=2]
    99 -> 299 [penwidth=2]
    99 -> 309 [penwidth=2]
    99 -> 285 [penwidth=2]
    99 -> 304 [penwidth=2]
    99 -> 350 [penwidth=2]
    99 -> 341 [penwidth=2]
    99 -> 310 [penwidth=2]
    99 -> 337 [penwidth=2]
    99 -> 332 [penwidth=2]
    99 -> 336 [penwidth=2]
    99 -> 354 [penwidth=2]
    99 -> 329 [penwidth=2]
    99 -> 301 [penwidth=2]
    99 -> 302 [penwidth=2]
    99 -> 352 [penwidth=2]
    99 -> 328 [penwidth=2]
    99 -> 338 [penwidth=2]
    99 -> 298 [penwidth=2]
    99 -> 287 [penwidth=2]
    99 -> 290 [penwidth=2]
    99 -> 345 [penwidth=2]
    99 -> 294 [penwidth=2]
    183 -> 352 [penwidth=2]
    183 -> 300 [penwidth=2]
    183 -> 330 [penwidth=2]
    183 -> 292 [penwidth=2]
    183 -> 306 [penwidth=2]
    183 -> 295 [penwidth=2]
    183 -> 286 [penwidth=2]
    183 -> 344 [penwidth=2]
    183 -> 301 [penwidth=2]
    183 -> 296 [penwidth=2]
    183 -> 337 [penwidth=2]
    183 -> 308 [penwidth=2]
    183 -> 311 [penwidth=2]
    183 -> 309 [penwidth=2]
    204 -> 338 [penwidth=2]
    204 -> 351 [penwidth=2]
    204 -> 284 [penwidth=2]
    204 -> 331 [penwidth=2]
    204 -> 285 [penwidth=2]
    204 -> 299 [penwidth=2]
    204 -> 341 [penwidth=2]
    204 -> 355 [penwidth=2]
    204 -> 297 [penwidth=2]
    204 -> 326 [penwidth=2]
    204 -> 350 [penwidth=2]
    204 -> 309 [penwidth=2]
    204 -> 334 [penwidth=2]
    204 -> 328 [penwidth=2]
    204 -> 301 [penwidth=2]
    204 -> 345 [penwidth=2]
    204 -> 343 [penwidth=2]
    204 -> 298 [penwidth=2]
    204 -> 300 [penwidth=2]
    204 -> 332 [penwidth=2]
    204 -> 295 [penwidth=2]
    204 -> 353 [penwidth=2]
    204 -> 348 [penwidth=2]
    204 -> 310 [penwidth=2]
    204 -> 287 [penwidth=2]
    204 -> 344 [penwidth=2]
    204 -> 303 [penwidth=2]
    204 -> 352 [penwidth=2]
    204 -> 311 [penwidth=2]
    204 -> 307 [penwidth=2]
    204 -> 302 [penwidth=2]
    204 -> 289 [penwidth=2]
    204 -> 308 [penwidth=2]
    204 -> 349 [penwidth=2]
    204 -> 329 [penwidth=2]
    204 -> 327 [penwidth=2]
    204 -> 354 [penwidth=2]
    204 -> 336 [penwidth=2]
    204 -> 306 [penwidth=2]
    185 -> 353 [penwidth=2]
    185 -> 349 [penwidth=2]
    185 -> 335 [penwidth=2]
    185 -> 354 [penwidth=2]
    273 -> 306 [penwidth=2]
    273 -> 296 [penwidth=2]
    273 -> 342 [penwidth=2]
    273 -> 310 [penwidth=2]
    273 -> 335 [penwidth=2]
    273 -> 353 [penwidth=2]
    273 -> 305 [penwidth=2]
    273 -> 326 [penwidth=2]
    273 -> 307 [penwidth=2]
    273 -> 309 [penwidth=2]
    273 -> 344 [penwidth=2]
    273 -> 311 [penwidth=2]
    273 -> 334 [penwidth=2]
    273 -> 298 [penwidth=2]
    273 -> 355 [penwidth=2]
    273 -> 343 [penwidth=2]
    273 -> 354 [penwidth=2]
    273 -> 331 [penwidth=2]
    273 -> 313 [penwidth=2]
    273 -> 336 [penwidth=2]
    273 -> 297 [penwidth=2]
    273 -> 314 [penwidth=2]
    273 -> 328 [penwidth=2]
    273 -> 352 [penwidth=2]
    107 -> 303 [penwidth=2]
    107 -> 327 [penwidth=2]
    107 -> 314 [penwidth=2]
    107 -> 355 [penwidth=2]
    107 -> 291 [penwidth=2]
    107 -> 306 [penwidth=2]
    107 -> 340 [penwidth=2]
    107 -> 305 [penwidth=2]
    107 -> 341 [penwidth=2]
    107 -> 338 [penwidth=2]
    107 -> 290 [penwidth=2]
    107 -> 328 [penwidth=2]
    107 -> 343 [penwidth=2]
    107 -> 295 [penwidth=2]
    107 -> 285 [penwidth=2]
    107 -> 344 [penwidth=2]
    107 -> 288 [penwidth=2]
    107 -> 354 [penwidth=2]
    107 -> 307 [penwidth=2]
    107 -> 336 [penwidth=2]
    107 -> 311 [penwidth=2]
    107 -> 299 [penwidth=2]
    107 -> 326 [penwidth=2]
    107 -> 310 [penwidth=2]
    107 -> 350 [penwidth=2]
    107 -> 335 [penwidth=2]
    107 -> 332 [penwidth=2]
    107 -> 347 [penwidth=2]
    107 -> 346 [penwidth=2]
    107 -> 337 [penwidth=2]
    107 -> 301 [penwidth=2]
    107 -> 308 [penwidth=2]
    107 -> 349 [penwidth=2]
    108 -> 331 [penwidth=2]
    108 -> 350 [penwidth=2]
    108 -> 353 [penwidth=2]
    108 -> 349 [penwidth=2]
    108 -> 338 [penwidth=2]
    108 -> 295 [penwidth=2]
    108 -> 308 [penwidth=2]
    108 -> 333 [penwidth=2]
    108 -> 311 [penwidth=2]
    108 -> 337 [penwidth=2]
    108 -> 342 [penwidth=2]
    108 -> 290 [penwidth=2]
    108 -> 284 [penwidth=2]
    108 -> 312 [penwidth=2]
    108 -> 355 [penwidth=2]
    193 -> 297 [penwidth=2]
    193 -> 347 [penwidth=2]
    193 -> 342 [penwidth=2]
    193 -> 352 [penwidth=2]
    193 -> 286 [penwidth=2]
    193 -> 339 [penwidth=2]
    193 -> 290 [penwidth=2]
    193 -> 330 [penwidth=2]
    193 -> 307 [penwidth=2]
    193 -> 334 [penwidth=2]
    193 -> 341 [penwidth=2]
    193 -> 304 [penwidth=2]
    193 -> 302 [penwidth=2]
    193 -> 335 [penwidth=2]
    193 -> 353 [penwidth=2]
    193 -> 300 [penwidth=2]
    193 -> 284 [penwidth=2]
    193 -> 343 [penwidth=2]
    193 -> 296 [penwidth=2]
    193 -> 348 [penwidth=2]
    193 -> 292 [penwidth=2]
    193 -> 340 [penwidth=2]
    193 -> 305 [penwidth=2]
    193 -> 345 [penwidth=2]
    193 -> 306 [penwidth=2]
    193 -> 288 [penwidth=2]
    193 -> 333 [penwidth=2]
    193 -> 293 [penwidth=2]
    193 -> 313 [penwidth=2]
    193 -> 303 [penwidth=2]
    193 -> 289 [penwidth=2]
    193 -> 312 [penwidth=2]
    193 -> 308 [penwidth=2]
    193 -> 338 [penwidth=2]
    193 -> 294 [penwidth=2]
    193 -> 299 [penwidth=2]
    193 -> 349 [penwidth=2]
    194 -> 337 [penwidth=2]
    194 -> 339 [penwidth=2]
    194 -> 295 [penwidth=2]
    194 -> 284 [penwidth=2]
    194 -> 311 [penwidth=2]
    194 -> 291 [penwidth=2]
    194 -> 309 [penwidth=2]
    194 -> 354 [penwidth=2]
    194 -> 334 [penwidth=2]
    194 -> 343 [penwidth=2]
    194 -> 346 [penwidth=2]
    194 -> 314 [penwidth=2]
    194 -> 347 [penwidth=2]
    194 -> 293 [penwidth=2]
    194 -> 350 [penwidth=2]
    194 -> 302 [penwidth=2]
    194 -> 330 [penwidth=2]
    194 -> 294 [penwidth=2]
    194 -> 301 [penwidth=2]
    194 -> 289 [penwidth=2]
    194 -> 308 [penwidth=2]
    194 -> 288 [penwidth=2]
    194 -> 326 [penwidth=2]
    194 -> 298 [penwidth=2]
    194 -> 285 [penwidth=2]
    194 -> 349 [penwidth=2]
    194 -> 299 [penwidth=2]
    194 -> 340 [penwidth=2]
    194 -> 297 [penwidth=2]
    194 -> 355 [penwidth=2]
    194 -> 305 [penwidth=2]
    194 -> 296 [penwidth=2]
    194 -> 341 [penwidth=2]
    194 -> 286 [penwidth=2]
    199 -> 284 [penwidth=2]
    199 -> 302 [penwidth=2]
    199 -> 310 [penwidth=2]
    199 -> 333 [penwidth=2]
    199 -> 354 [penwidth=2]
    69 -> 296 [penwidth=2]
    69 -> 308 [penwidth=2]
    69 -> 311 [penwidth=2]
    69 -> 297 [penwidth=2]
    69 -> 298 [penwidth=2]
    69 -> 328 [penwidth=2]
    69 -> 348 [penwidth=2]
    69 -> 331 [penwidth=2]
    69 -> 335 [penwidth=2]
    69 -> 300 [penwidth=2]
    69 -> 337 [penwidth=2]
    69 -> 354 [penwidth=2]
    69 -> 344 [penwidth=2]
    69 -> 350 [penwidth=2]
    69 -> 303 [penwidth=2]
    69 -> 351 [penwidth=2]
    69 -> 346 [penwidth=2]
    69 -> 332 [penwidth=2]
    69 -> 299 [penwidth=2]
    69 -> 294 [penwidth=2]
    69 -> 301 [penwidth=2]
    69 -> 330 [penwidth=2]
    69 -> 352 [penwidth=2]
    69 -> 349 [penwidth=2]
    69 -> 345 [penwidth=2]
    69 -> 287 [penwidth=2]
    69 -> 289 [penwidth=2]
    69 -> 307 [penwidth=2]
    69 -> 327 [penwidth=2]
    69 -> 313 [penwidth=2]
    69 -> 338 [penwidth=2]
    69 -> 333 [penwidth=2]
    69 -> 334 [penwidth=2]
    69 -> 284 [penwidth=2]
    69 -> 355 [penwidth=2]
    69 -> 340 [penwidth=2]
    69 -> 326 [penwidth=2]
    69 -> 291 [penwidth=2]
    69 -> 347 [penwidth=2]
    69 -> 339 [penwidth=2]
    69 -> 305 [penwidth=2]
    69 -> 290 [penwidth=2]
    69 -> 302 [penwidth=2]
    69 -> 285 [penwidth=2]
    69 -> 343 [penwidth=2]
    69 -> 314 [penwidth=2]
    69 -> 288 [penwidth=2]
    69 -> 304 [penwidth=2]
    69 -> 309 [penwidth=2]
    69 -> 329 [penwidth=2]
    69 -> 306 [penwidth=2]
    69 -> 353 [penwidth=2]
    69 -> 341 [penwidth=2]
    69 -> 342 [penwidth=2]
    220 -> 345 [penwidth=2]
    220 -> 338 [penwidth=2]
    220 -> 288 [penwidth=2]
    220 -> 308 [penwidth=2]
    220 -> 331 [penwidth=2]
    220 -> 311 [penwidth=2]
    220 -> 349 [penwidth=2]
    220 -> 330 [penwidth=2]
    220 -> 293 [penwidth=2]
    220 -> 347 [penwidth=2]
    220 -> 303 [penwidth=2]
    220 -> 289 [penwidth=2]
    220 -> 335 [penwidth=2]
    220 -> 298 [penwidth=2]
    220 -> 290 [penwidth=2]
    220 -> 305 [penwidth=2]
    220 -> 313 [penwidth=2]
    220 -> 327 [penwidth=2]
    220 -> 297 [penwidth=2]
    220 -> 350 [penwidth=2]
    220 -> 351 [penwidth=2]
    220 -> 285 [penwidth=2]
    220 -> 341 [penwidth=2]
    220 -> 329 [penwidth=2]
    220 -> 337 [penwidth=2]
    220 -> 286 [penwidth=2]
    220 -> 346 [penwidth=2]
    220 -> 352 [penwidth=2]
    220 -> 307 [penwidth=2]
    280 -> 306 [penwidth=2]
    280 -> 314 [penwidth=2]
    280 -> 293 [penwidth=2]
    280 -> 301 [penwidth=2]
    280 -> 329 [penwidth=2]
}