digraph G {
    0 [penwidth=3,label="0"]
    1 [penwidth=3,label="1"]
    2 [penwidth=3,label="2"]
    3 [penwidth=3,label="3"]
    4 [penwidth=3,label="4"]
    5 [penwidth=3,label="5"]
    6 [penwidth=3,label="6"]
    7 [penwidth=3,label="7"]
    8 [penwidth=3,label="8"]
    9 [penwidth=3,label="9"]
    10 [penwidth=3,label="10"]
    11 [penwidth=3,label="11"]
    12 [penwidth=3,label="12"]
    13 [penwidth=3,label="13"]
    14 [penwidth=3,label="14"]
    15 [penwidth=3,label="15"]
    16 [penwidth=3,label="16"]
    17 [penwidth=3,label="17"]
    18 [penwidth=3,label="18"]
    19 [penwidth=3,label="19"]
    20 [penwidth=3,label="20"]
    21 [penwidth=3,label="21"]
    22 [penwidth=3,label="22"]
    23 [penwidth=3,label="23"]
    24 [penwidth=3,label="24"]
    25 [penwidth=3,label="25"]
    26 [penwidth=3,label="26"]
    27 [penwidth=3,label="27"]
    28 [penwidth=3,label="28"]
    29 [penwidth=3,label="29"]
    30 [penwidth=3,label="30"]
    31 [penwidth=3,label="31"]
    32 [penwidth=3,label="32"]
    33 [penwidth=3,label="33"]
    34 [penwidth=3,label="34"]
    35 [penwidth=3,label="35"]
    36 [penwidth=3,label="36"]
    37 [penwidth=3,label="37"]
    38 [penwidth=3,label="38"]
    39 [penwidth=3,label="39"]
    40 [penwidth=3,label="40"]
    41 [penwidth=3,label="41"]
    42 [penwidth=3,label="42"]
    43 [penwidth=3,label="43"]
    44 [penwidth=3,label="44"]
    45 [penwidth=3,label="45"]
    46 [penwidth=3,label="46"]
    47 [penwidth=3,label="47"]
    48 [penwidth=3,label="48"]
    49 [penwidth=3,label="49"]
    50 [penwidth=3,label="50"]
    51 [penwidth=3,label="51"]
    52 [penwidth=3,label="52"]
    53 [penwidth=3,label="53"]
    54 [penwidth=3,label="54"]
    55 [penwidth=3,label="55"]
    56 [penwidth=3,label="56"]
    57 [penwidth=3,label="57"]
    58 [penwidth=3,label="58"]
    59 [penwidth=3,label="59"]
    60 [penwidth=3,label="60"]
    61 [penwidth=3,label="61"]
    62 [penwidth=3,label="62"]
    63 [penwidth=3,label="63"]
    64 [penwidth=3,label="64"]
    65 [penwidth=3,label="65"]
    66 [penwidth=3,label="66"]
    67 [penwidth=3,label="67"]
    68 [penwidth=3,label="68"]
    69 [penwidth=3,label="69"]
    70 [penwidth=3,label="70"]
    71 [penwidth=3,label="71"]
    72 [penwidth=3,label="72"]
    73 [penwidth=3,label="73"]
    74 [penwidth=3,label="74"]
    75 [penwidth=3,label="75"]
    76 [penwidth=3,label="76"]
    77 [penwidth=3,label="77"]
    78 [penwidth=3,label="78"]
    79 [penwidth=3,label="79"]
    80 [penwidth=3,label="80"]
    81 [penwidth=3,label="81"]
    82 [penwidth=3,label="82"]
    83 [penwidth=3,label="83"]
    84 [penwidth=3,label="84"]
    85 [penwidth=3,label="85"]
    86 [penwidth=3,label="86"]
    87 [penwidth=3,label="87"]
    88 [penwidth=3,label="88"]
    89 [penwidth=3,label="89"]
    90 [penwidth=3,label="90"]
    91 [penwidth=3,label="91"]
    92 [penwidth=3,label="92"]
    93 [penwidth=3,label="93"]
    94 [penwidth=3,label="94"]
    95 [penwidth=3,label="95"]
    96 [penwidth=3,label="96"]
    97 [penwidth=3,label="97"]
    98 [penwidth=3,label="98"]
    99 [penwidth=3,label="99"]
    100 [penwidth=3,label="100"]
    101 [penwidth=3,label="101"]
    102 [penwidth=3,label="102"]
    103 [penwidth=3,label="103"]
    104 [penwidth=3,label="104"]
    105 [penwidth=3,label="105"]
    106 [penwidth=3,label="106"]
    107 [penwidth=3,label="107"]
    108 [penwidth=3,label="108"]
    109 [penwidth=3,label="109"]
    110 [penwidth=3,label="110"]
    111 [penwidth=3,label="111"]
    112 [penwidth=3,label="112"]
    113 [penwidth=3,label="113"]
    114 [penwidth=3,label="114"]
    115 [penwidth=3,label="115"]
    116 [penwidth=3,label="116"]
    117 [penwidth=3,label="117"]
    118 [penwidth=3,label="118"]
    119 [penwidth=3,label="119"]
    120 [penwidth=3,label="120"]
    121 [penwidth=3,label="121"]
    122 [penwidth=3,label="122"]
    123 [penwidth=3,label="123"]
    124 [penwidth=3,label="124"]
    125 [penwidth=3,label="125"]
    126 [penwidth=3,label="126"]
    127 [penwidth=3,label="127"]
    128 [penwidth=3,label="128"]
    129 [penwidth=3,label="129"]
    130 [penwidth=3,label="130"]
    131 [penwidth=3,label="131"]
    132 [penwidth=3,label="132"]
    133 [penwidth=3,label="133"]
    134 [penwidth=3,label="134"]
    135 [penwidth=3,label="135"]
    136 [penwidth=3,label="136"]
    137 [penwidth=3,label="137"]
    138 [penwidth=3,label="138"]
    139 [penwidth=3,label="139"]
    140 [penwidth=3,label="140"]
    141 [penwidth=3,label="141"]
    142 [penwidth=3,label="142"]
    143 [penwidth=3,label="143"]
    144 [penwidth=3,label="144"]
    145 [penwidth=3,label="145"]
    146 [penwidth=3,label="146"]
    147 [penwidth=3,label="147"]
    148 [penwidth=3,label="148"]
    149 [penwidth=3,label="149"]
    150 [penwidth=3,label="150"]
    151 [penwidth=3,label="151"]
    152 [penwidth=3,label="152"]
    153 [penwidth=3,label="153"]
    154 [penwidth=3,label="154"]
    155 [penwidth=3,label="155"]
    156 [penwidth=3,label="156"]
    157 [penwidth=3,label="157"]
    158 [penwidth=3,label="158"]
    159 [penwidth=3,label="159"]
    160 [penwidth=3,label="160"]
    161 [penwidth=3,label="161"]
    162 [penwidth=3,label="162"]
    163 [penwidth=3,label="163"]
    164 [penwidth=3,label="164"]
    165 [penwidth=3,label="165"]
    166 [penwidth=3,label="166"]
    167 [penwidth=3,label="167"]
    168 [penwidth=3,label="168"]
    169 [penwidth=3,label="169"]
    170 [penwidth=3,label="170"]
    171 [penwidth=3,label="171"]
    172 [penwidth=3,label="172"]
    173 [penwidth=3,label="173"]
    174 [penwidth=3,label="174"]
    175 [penwidth=3,label="175"]
    176 [penwidth=3,label="176"]
    177 [penwidth=3,label="177"]
    178 [penwidth=3,label="178"]
    179 [penwidth=3,label="179"]
    180 [penwidth=3,label="180"]
    181 [penwidth=3,label="181"]
    182 [penwidth=3,label="182"]
    183 [penwidth=3,label="183"]
    184 [penwidth=3,label="184"]
    185 [penwidth=3,label="185"]
    186 [penwidth=3,label="186"]
    187 [penwidth=3,label="187"]
    188 [penwidth=3,label="188"]
    189 [penwidth=3,label="189"]
    190 [penwidth=3,label="190"]
    191 [penwidth=3,label="191"]
    192 [penwidth=3,label="192"]
    193 [penwidth=3,label="193"]
    194 [penwidth=3,label="194"]
    195 [penwidth=3,label="195"]
    196 [penwidth=3,label="196"]
    197 [penwidth=3,label="197"]
    198 [penwidth=3,label="198"]
    199 [penwidth=3,label="199"]
    200 [penwidth=3,label="200"]
    201 [penwidth=3,label="201"]
    202 [penwidth=3,label="202"]
    203 [penwidth=3,label="203"]
    204 [penwidth=3,label="204"]
    205 [penwidth=3,label="205"]
    206 [penwidth=3,label="206"]
    207 [penwidth=3,label="207"]
    208 [penwidth=3,label="208"]
    209 [penwidth=3,label="209"]
    210 [penwidth=3,label="210"]
    211 [penwidth=3,label="211"]
    212 [penwidth=3,label="212"]
    213 [penwidth=3,label="213"]
    214 [penwidth=3,label="214"]
    215 [penwidth=3,label="215"]
    216 [penwidth=3,label="216"]
    217 [penwidth=3,label="217"]
    218 [penwidth=3,label="218"]
    219 [penwidth=3,label="219"]
    220 [penwidth=3,label="220"]
    221 [penwidth=3,label="221"]
    222 [penwidth=3,label="222"]
    223 [penwidth=3,label="223"]
    224 [penwidth=3,label="224"]
    225 [penwidth=3,label="225"]
    226 [penwidth=3,label="226"]
    227 [penwidth=3,label="227"]
    228 [penwidth=3,label="228"]
    229 [penwidth=3,label="229"]
    230 [penwidth=3,label="230"]
    231 [penwidth=3,label="231"]
    232 [penwidth=3,label="232"]
    233 [penwidth=3,label="233"]
    234 [penwidth=3,label="234"]
    235 [penwidth=3,label="235"]
    236 [penwidth=3,label="236"]
    237 [penwidth=3,label="237"]
    238 [penwidth=3,label="238"]
    239 [penwidth=3,label="239"]
    240 [penwidth=3,label="240"]
    241 [penwidth=3,label="241"]
    242 [penwidth=3,label="242"]
    243 [penwidth=3,label="243"]
    244 [penwidth=3,label="244"]
    245 [penwidth=3,label="245"]
    246 [penwidth=3,label="246"]
    247 [penwidth=3,label="247"]
    248 [penwidth=3,label="248"]
    249 [penwidth=3,label="249"]
    250 [penwidth=3,label="250"]
    251 [penwidth=3,label="251"]
    252 [penwidth=3,label="252"]
    253 [penwidth=3,label="253"]
    254 [penwidth=3,label="254"]
    255 [penwidth=3,label="255"]
    256 [penwidth=3,label="256"]
    257 [penwidth=3,label="257"]
    258 [penwidth=3,label="258"]
    259 [penwidth=3,label="259"]
    260 [penwidth=3,label="260"]
    261 [penwidth=3,label="261"]
    262 [penwidth=3,label="262"]
    263 [penwidth=3,label="263"]
    264 [penwidth=3,label="264"]
    265 [penwidth=3,label="265"]
    266 [penwidth=3,label="266"]
    267 [penwidth=3,label="267"]
    268 [penwidth=3,label="268"]
    269 [penwidth=3,label="269"]
    270 [penwidth=3,label="270"]
    271 [penwidth=3,label="271"]
    272 [penwidth=3,label="272"]
    273 [penwidth=3,label="273"]
    274 [penwidth=3,label="274"]
    275 [penwidth=3,label="275"]
    276 [penwidth=3,label="276"]
    277 [penwidth=3,label="277"]
    278 [penwidth=3,label="278"]
    279 [penwidth=3,label="279"]
    280 [penwidth=3,label="280"]
    281 [penwidth=3,label="281"]
    282 [penwidth=3,label="282"]
    283 [penwidth=3,label="283"]
    284 [penwidth=3,label="284"]
    285 [penwidth=3,label="285"]
    286 [penwidth=3,label="286"]
    287 [penwidth=3,label="287"]
    288 [penwidth=3,label="288"]
    289 [penwidth=3,label="289"]
    290 [penwidth=3,label="290"]
    291 [penwidth=3,label="291"]
    292 [penwidth=3,label="292"]
    293 [penwidth=3,label="293"]
    294 [penwidth=3,label="294"]
    295 [penwidth=3,label="295"]
    296 [penwidth=3,label="296"]
    297 [penwidth=3,label="297"]
    298 [penwidth=3,label="298"]
    299 [penwidth=3,label="299"]
    300 [penwidth=3,label="300"]
    301 [penwidth=3,label="301"]
    302 [penwidth=3,label="302"]
    303 [penwidth=3,label="303"]
    304 [penwidth=3,label="304"]
    305 [penwidth=3,label="305"]
    306 [penwidth=3,label="306"]
    307 [penwidth=3,label="307"]
    308 [penwidth=3,label="308"]
    309 [penwidth=3,label="309"]
    310 [penwidth=3,label="310"]
    311 [penwidth=3,label="311"]
    312 [penwidth=3,label="312"]
    313 [penwidth=3,label="313"]
    314 [penwidth=3,label="314"]
    315 [penwidth=3,label="315"]
    316 [penwidth=3,label="316"]
    317 [penwidth=3,label="317"]
    318 [penwidth=3,label="318"]
    319 [penwidth=3,label="319"]
    320 [penwidth=3,label="320"]
    321 [penwidth=3,label="321"]
    322 [penwidth=3,label="322"]
    323 [penwidth=3,label="323"]
    324 [penwidth=3,label="324"]
    325 [penwidth=3,label="325"]
    326 [penwidth=3,label="326"]
    327 [penwidth=3,label="327"]
    328 [penwidth=3,label="328"]
    329 [penwidth=3,label="329"]
    330 [penwidth=3,label="330"]
    331 [penwidth=3,label="331"]
    332 [penwidth=3,label="332"]
    333 [penwidth=3,label="333"]
    334 [penwidth=3,label="334"]
    335 [penwidth=3,label="335"]
    336 [penwidth=3,label="336"]
    337 [penwidth=3,label="337"]
    338 [penwidth=3,label="338"]
    339 [penwidth=3,label="339"]
    340 [penwidth=3,label="340"]
    341 [penwidth=3,label="341"]
    342 [penwidth=3,label="342"]
    343 [penwidth=3,label="343"]
    344 [penwidth=3,label="344"]
    345 [penwidth=3,label="345"]
    346 [penwidth=3,label="346"]
    347 [penwidth=3,label="347"]
    348 [penwidth=3,label="348"]
    349 [penwidth=3,label="349"]
    350 [penwidth=3,label="350"]
    351 [penwidth=3,label="351"]
    352 [penwidth=3,label="352"]
    353 [penwidth=3,label="353"]
    354 [penwidth=3,label="354"]
    355 [penwidth=3,label="355"]
    356 [penwidth=3,label="356"]
    357 [penwidth=3,label="357"]
    358 [penwidth=3,label="358"]
    359 [penwidth=3,label="359"]
    360 [penwidth=3,label="360"]
    361 [penwidth=3,label="361"]
    362 [penwidth=3,label="362"]
    363 [penwidth=3,label="363"]
    364 [penwidth=3,label="364"]
    365 [penwidth=3,label="365"]
    366 [penwidth=3,label="366"]
    367 [penwidth=3,label="367"]
    368 [penwidth=3,label="368"]
    369 [penwidth=3,label="369"]
    370 [penwidth=3,label="370"]
    371 [penwidth=3,label="371"]
    372 [penwidth=3,label="372"]
    373 [penwidth=3,label="373"]
    374 [penwidth=3,label="374"]
    375 [penwidth=3,label="375"]
    376 [penwidth=3,label="376"]
    377 [penwidth=3,label="377"]
    378 [penwidth=3,label="378"]
    379 [penwidth=3,label="379"]
    380 [penwidth=3,label="380"]
    381 [penwidth=3,label="381"]
    382 [penwidth=3,label="382"]
    383 [penwidth=3,label="383"]
    384 [penwidth=3,label="384"]
    385 [penwidth=3,label="385"]
    386 [penwidth=3,label="386"]
    387 [penwidth=3,label="387"]
    388 [penwidth=3,label="388"]
    389 [penwidth=3,label="389"]
    390 [penwidth=3,label="390"]
    391 [penwidth=3,label="391"]
    392 [penwidth=3,label="392"]
    393 [penwidth=3,label="393"]
    394 [penwidth=3,label="394"]
    395 [penwidth=3,label="395"]
    396 [penwidth=3,label="396"]
    397 [penwidth=3,label="397"]
    398 [penwidth=3,label="398"]
    399 [penwidth=3,label="399"]

    257 -> 0 [penwidth=2]
    258 -> 0 [penwidth=2]
    259 -> 0 [penwidth=2]
    260 -> 0 [penwidth=2]
    261 -> 0 [penwidth=2]
    262 -> 257 [penwidth=2]
    263 -> 257 [penwidth=2]
    264 -> 257 [penwidth=2]
    265 -> 257 [penwidth=2]
    266 -> 258 [penwidth=2]
    267 -> 258 [penwidth=2]
    268 -> 258 [penwidth=2]
    269 -> 258 [penwidth=2]
    270 -> 258 [penwidth=2]
    271 -> 258 [penwidth=2]
    272 -> 258 [penwidth=2]
    273 -> 259 [penwidth=2]
    274 -> 259 [penwidth=2]
    275 -> 259 [penwidth=2]
    276 -> 259 [penwidth=2]
    277 -> 259 [penwidth=2]
    278 -> 259 [penwidth=2]
    279 -> 259 [penwidth=2]
    280 -> 259 [penwidth=2]
    281 -> 260 [penwidth=2]
    282 -> 261 [penwidth=2]
    283 -> 261 [penwidth=2]
    284 -> 261 [penwidth=2]
    285 -> 261 [penwidth=2]
    286 -> 261 [penwidth=2]
    287 -> 261 [penwidth=2]
    288 -> 261 [penwidth=2]
    289 -> 261 [penwidth=2]
    290 -> 261 [penwidth=2]
    291 -> 261 [penwidth=2]
    292 -> 261 [penwidth=2]
    293 -> 261 [penwidth=2]
    294 -> 261 [penwidth=2]
    295 -> 261 [penwidth=2]
    296 -> 261 [penwidth=2]
    297 -> 261 [penwidth=2]
    298 -> 261 [penwidth=2]
    215 -> 261 [penwidth=2]
    216 -> 261 [penwidth=2]
    217 -> 261 [penwidth=2]
    218 -> 261 [penwidth=2]
    219 -> 261 [penwidth=2]
    220 -> 261 [penwidth=2]
    221 -> 261 [penwidth=2]
    222 -> 261 [penwidth=2]
    223 -> 261 [penwidth=2]
    224 -> 263 [penwidth=2]
    225 -> 264 [penwidth=2]
    226 -> 264 [penwidth=2]
    227 -> 264 [penwidth=2]
    228 -> 264 [penwidth=2]
    229 -> 264 [penwidth=2]
    230 -> 264 [penwidth=2]
    340 -> 264 [penwidth=2]
    231 -> 264 [penwidth=2]
    232 -> 264 [penwidth=2]
    233 -> 264 [penwidth=2]
    234 -> 264 [penwidth=2]
    235 -> 264 [penwidth=2]
    236 -> 264 [penwidth=2]
    237 -> 264 [penwidth=2]
    238 -> 264 [penwidth=2]
    239 -> 264 [penwidth=2]
    240 -> 264 [penwidth=2]
    241 -> 264 [penwidth=2]
    382 -> 264 [penwidth=2]
    242 -> 264 [penwidth=2]
    243 -> 264 [penwidth=2]
    244 -> 264 [penwidth=2]
    245 -> 264 [penwidth=2]
    246 -> 264 [penwidth=2]
    247 -> 264 [penwidth=2]
    248 -> 264 [penwidth=2]
    249 -> 264 [penwidth=2]
    250 -> 264 [penwidth=2]
    251 -> 264 [penwidth=2]
    252 -> 264 [penwidth=2]
    253 -> 265 [penwidth=2]
    254 -> 265 [penwidth=2]
    255 -> 265 [penwidth=2]
    256 -> 265 [penwidth=2]
    173 -> 265 [penwidth=2]
    174 -> 265 [penwidth=2]
    175 -> 266 [penwidth=2]
    176 -> 266 [penwidth=2]
    177 -> 266 [penwidth=2]
    178 -> 266 [penwidth=2]
    179 -> 266 [penwidth=2]
    180 -> 266 [penwidth=2]
    181 -> 266 [penwidth=2]
    182 -> 266 [penwidth=2]
    183 -> 266 [penwidth=2]
    184 -> 266 [penwidth=2]
    185 -> 266 [penwidth=2]
    186 -> 266 [penwidth=2]
    187 -> 266 [penwidth=2]
    188 -> 266 [penwidth=2]
    189 -> 266 [penwidth=2]
    190 -> 266 [penwidth=2]
    191 -> 266 [penwidth=2]
    192 -> 266 [penwidth=2]
    193 -> 266 [penwidth=2]
    194 -> 266 [penwidth=2]
    195 -> 266 [penwidth=2]
    196 -> 266 [penwidth=2]
    197 -> 266 [penwidth=2]
    198 -> 266 [penwidth=2]
    199 -> 266 [penwidth=2]
    200 -> 266 [penwidth=2]
    201 -> 266 [penwidth=2]
    202 -> 266 [penwidth=2]
    203 -> 266 [penwidth=2]
    204 -> 266 [penwidth=2]
    205 -> 267 [penwidth=2]
    206 -> 267 [penwidth=2]
    207 -> 267 [penwidth=2]
    208 -> 267 [penwidth=2]
    209 -> 267 [penwidth=2]
    210 -> 267 [penwidth=2]
    211 -> 267 [penwidth=2]
    212 -> 267 [penwidth=2]
    213 -> 267 [penwidth=2]
    214 -> 267 [penwidth=2]
    89 -> 267 [penwidth=2]
    131 -> 267 [penwidth=2]
    90 -> 267 [penwidth=2]
    132 -> 267 [penwidth=2]
    91 -> 267 [penwidth=2]
    133 -> 267 [penwidth=2]
    92 -> 267 [penwidth=2]
    134 -> 267 [penwidth=2]
    93 -> 267 [penwidth=2]
    135 -> 267 [penwidth=2]
    94 -> 267 [penwidth=2]
    136 -> 267 [penwidth=2]
    95 -> 267 [penwidth=2]
    137 -> 267 [penwidth=2]
    96 -> 267 [penwidth=2]
    138 -> 267 [penwidth=2]
    97 -> 267 [penwidth=2]
    139 -> 268 [penwidth=2]
    98 -> 268 [penwidth=2]
    140 -> 268 [penwidth=2]
    99 -> 268 [penwidth=2]
    141 -> 268 [penwidth=2]
    100 -> 268 [penwidth=2]
    142 -> 268 [penwidth=2]
    101 -> 268 [penwidth=2]
    143 -> 268 [penwidth=2]
    102 -> 268 [penwidth=2]
    144 -> 268 [penwidth=2]
    103 -> 268 [penwidth=2]
    145 -> 268 [penwidth=2]
    104 -> 268 [penwidth=2]
    146 -> 268 [penwidth=2]
    105 -> 268 [penwidth=2]
    147 -> 268 [penwidth=2]
    106 -> 268 [penwidth=2]
    148 -> 268 [penwidth=2]
    107 -> 268 [penwidth=2]
    149 -> 268 [penwidth=2]
    108 -> 268 [penwidth=2]
    150 -> 268 [penwidth=2]
    109 -> 268 [penwidth=2]
    151 -> 268 [penwidth=2]
    110 -> 268 [penwidth=2]
    152 -> 268 [penwidth=2]
    111 -> 268 [penwidth=2]
    153 -> 269 [penwidth=2]
    112 -> 269 [penwidth=2]
    154 -> 269 [penwidth=2]
    113 -> 269 [penwidth=2]
    155 -> 269 [penwidth=2]
    114 -> 269 [penwidth=2]
    156 -> 269 [penwidth=2]
    115 -> 269 [penwidth=2]
    157 -> 269 [penwidth=2]
    116 -> 269 [penwidth=2]
    158 -> 269 [penwidth=2]
    117 -> 269 [penwidth=2]
    159 -> 269 [penwidth=2]
    118 -> 269 [penwidth=2]
    160 -> 269 [penwidth=2]
    119 -> 269 [penwidth=2]
    161 -> 269 [penwidth=2]
    120 -> 269 [penwidth=2]
    162 -> 269 [penwidth=2]
    121 -> 269 [penwidth=2]
    163 -> 269 [penwidth=2]
    122 -> 269 [penwidth=2]
    164 -> 269 [penwidth=2]
    123 -> 270 [penwidth=2]
    165 -> 270 [penwidth=2]
    124 -> 270 [penwidth=2]
    166 -> 270 [penwidth=2]
    125 -> 270 [penwidth=2]
    167 -> 270 [penwidth=2]
    126 -> 270 [penwidth=2]
    168 -> 270 [penwidth=2]
    127 -> 270 [penwidth=2]
    169 -> 270 [penwidth=2]
    128 -> 270 [penwidth=2]
    170 -> 270 [penwidth=2]
    129 -> 270 [penwidth=2]
    171 -> 270 [penwidth=2]
    130 -> 272 [penwidth=2]
    172 -> 272 [penwidth=2]
    47 -> 273 [penwidth=2]
    48 -> 273 [penwidth=2]
    49 -> 273 [penwidth=2]
    50 -> 273 [penwidth=2]
    51 -> 273 [penwidth=2]
    52 -> 273 [penwidth=2]
    53 -> 273 [penwidth=2]
    54 -> 273 [penwidth=2]
    55 -> 273 [penwidth=2]
    56 -> 273 [penwidth=2]
    57 -> 273 [penwidth=2]
    58 -> 273 [penwidth=2]
    59 -> 273 [penwidth=2]
    60 -> 274 [penwidth=2]
    61 -> 274 [penwidth=2]
    62 -> 275 [penwidth=2]
    63 -> 275 [penwidth=2]
    64 -> 275 [penwidth=2]
    65 -> 275 [penwidth=2]
    66 -> 276 [penwidth=2]
    67 -> 276 [penwidth=2]
    68 -> 276 [penwidth=2]
    69 -> 276 [penwidth=2]
    70 -> 276 [penwidth=2]
    71 -> 276 [penwidth=2]
    72 -> 276 [penwidth=2]
    73 -> 276 [penwidth=2]
    74 -> 277 [penwidth=2]
    75 -> 277 [penwidth=2]
    76 -> 277 [penwidth=2]
    77 -> 277 [penwidth=2]
    78 -> 277 [penwidth=2]
    79 -> 277 [penwidth=2]
    80 -> 277 [penwidth=2]
    81 -> 277 [penwidth=2]
    82 -> 277 [penwidth=2]
    83 -> 277 [penwidth=2]
    84 -> 277 [penwidth=2]
    85 -> 277 [penwidth=2]
    86 -> 277 [penwidth=2]
    87 -> 278 [penwidth=2]
    88 -> 278 [penwidth=2]
    5 -> 278 [penwidth=2]
    383 -> 278 [penwidth=2]
    6 -> 278 [penwidth=2]
    384 -> 278 [penwidth=2]
    7 -> 278 [penwidth=2]
    385 -> 278 [penwidth=2]
    8 -> 278 [penwidth=2]
    386 -> 278 [penwidth=2]
    9 -> 278 [penwidth=2]
    387 -> 278 [penwidth=2]
    10 -> 278 [penwidth=2]
    388 -> 278 [penwidth=2]
    11 -> 278 [penwidth=2]
    389 -> 279 [penwidth=2]
    12 -> 280 [penwidth=2]
    390 -> 280 [penwidth=2]
    13 -> 280 [penwidth=2]
    391 -> 280 [penwidth=2]
    14 -> 280 [penwidth=2]
    392 -> 280 [penwidth=2]
    15 -> 280 [penwidth=2]
    393 -> 280 [penwidth=2]
    16 -> 280 [penwidth=2]
    394 -> 280 [penwidth=2]
    17 -> 280 [penwidth=2]
    395 -> 281 [penwidth=2]
    18 -> 281 [penwidth=2]
    396 -> 281 [penwidth=2]
    19 -> 281 [penwidth=2]
    397 -> 281 [penwidth=2]
    20 -> 281 [penwidth=2]
    398 -> 281 [penwidth=2]
    21 -> 281 [penwidth=2]
    399 -> 281 [penwidth=2]
    22 -> 281 [penwidth=2]
    23 -> 281 [penwidth=2]
    24 -> 281 [penwidth=2]
    25 -> 281 [penwidth=2]
    26 -> 281 [penwidth=2]
    27 -> 281 [penwidth=2]
    28 -> 281 [penwidth=2]
    29 -> 281 [penwidth=2]
    30 -> 281 [penwidth=2]
    31 -> 281 [penwidth=2]
    32 -> 281 [penwidth=2]
    33 -> 281 [penwidth=2]
    34 -> 281 [penwidth=2]
    35 -> 281 [penwidth=2]
    36 -> 282 [penwidth=2]
    37 -> 282 [penwidth=2]
    38 -> 282 [penwidth=2]
    39 -> 282 [penwidth=2]
    40 -> 282 [penwidth=2]
    41 -> 282 [penwidth=2]
    42 -> 282 [penwidth=2]
    43 -> 282 [penwidth=2]
    44 -> 282 [penwidth=2]
    45 -> 282 [penwidth=2]
    46 -> 282 [penwidth=2]
    299 -> 282 [penwidth=2]
    341 -> 282 [penwidth=2]
    300 -> 282 [penwidth=2]
    342 -> 282 [penwidth=2]
    301 -> 282 [penwidth=2]
    343 -> 282 [penwidth=2]
    302 -> 282 [penwidth=2]
    344 -> 282 [penwidth=2]
    303 -> 282 [penwidth=2]
    345 -> 282 [penwidth=2]
    304 -> 282 [penwidth=2]
    346 -> 282 [penwidth=2]
    305 -> 282 [penwidth=2]
    347 -> 282 [penwidth=2]
    306 -> 282 [penwidth=2]
    348 -> 282 [penwidth=2]
    307 -> 282 [penwidth=2]
    349 -> 282 [penwidth=2]
    308 -> 282 [penwidth=2]
    350 -> 283 [penwidth=2]
    309 -> 283 [penwidth=2]
    351 -> 283 [penwidth=2]
    310 -> 283 [penwidth=2]
    352 -> 283 [penwidth=2]
    311 -> 283 [penwidth=2]
    353 -> 283 [penwidth=2]
    312 -> 284 [penwidth=2]
    354 -> 284 [penwidth=2]
    313 -> 284 [penwidth=2]
    355 -> 284 [penwidth=2]
    314 -> 284 [penwidth=2]
    356 -> 284 [penwidth=2]
    315 -> 284 [penwidth=2]
    357 -> 284 [penwidth=2]
    316 -> 284 [penwidth=2]
    358 -> 284 [penwidth=2]
    317 -> 285 [penwidth=2]
    359 -> 285 [penwidth=2]
    318 -> 285 [penwidth=2]
    360 -> 285 [penwidth=2]
    319 -> 285 [penwidth=2]
    361 -> 285 [penwidth=2]
    320 -> 285 [penwidth=2]
    362 -> 285 [penwidth=2]
    321 -> 285 [penwidth=2]
    363 -> 285 [penwidth=2]
    322 -> 285 [penwidth=2]
    364 -> 286 [penwidth=2]
    323 -> 286 [penwidth=2]
    365 -> 286 [penwidth=2]
    324 -> 286 [penwidth=2]
    366 -> 286 [penwidth=2]
    325 -> 286 [penwidth=2]
    367 -> 286 [penwidth=2]
    326 -> 286 [penwidth=2]
    368 -> 286 [penwidth=2]
    327 -> 286 [penwidth=2]
    369 -> 286 [penwidth=2]
    328 -> 287 [penwidth=2]
    370 -> 287 [penwidth=2]
    329 -> 287 [penwidth=2]
    371 -> 287 [penwidth=2]
    330 -> 287 [penwidth=2]
    372 -> 287 [penwidth=2]
    331 -> 287 [penwidth=2]
    373 -> 287 [penwidth=2]
    332 -> 287 [penwidth=2]
    374 -> 287 [penwidth=2]
    333 -> 287 [penwidth=2]
    375 -> 287 [penwidth=2]
    334 -> 287 [penwidth=2]
    376 -> 287 [penwidth=2]
    335 -> 287 [penwidth=2]
    377 -> 287 [penwidth=2]
    336 -> 287 [penwidth=2]
    378 -> 287 [penwidth=2]
    1 -> 287 [penwidth=2]
    337 -> 287 [penwidth=2]
    379 -> 287 [penwidth=2]
    2 -> 287 [penwidth=2]
    338 -> 287 [penwidth=2]
    380 -> 287 [penwidth=2]
    3 -> 287 [penwidth=2]
    339 -> 287 [penwidth=2]
    381 -> 288 [penwidth=2]
    4 -> 288 [penwidth=2]
    278 -> 261 [penwidth=2]
    280 -> 261 [penwidth=2]
    280 -> 257 [penwidth=2]
    289 -> 259 [penwidth=2]
    289 -> 257 [penwidth=2]
    289 -> 260 [penwidth=2]
    295 -> 257 [penwidth=2]
    295 -> 258 [penwidth=2]
    222 -> 259 [penwidth=2]
    222 -> 258 [penwidth=2]
    250 -> 219 [penwidth=2]
    250 -> 216 [penwidth=2]
    250 -> 276 [penwidth=2]
    250 -> 271 [penwidth=2]
    250 -> 295 [penwidth=2]
    250 -> 291 [penwidth=2]
    250 -> 275 [penwidth=2]
    250 -> 268 [penwidth=2]
    250 -> 286 [penwidth=2]
    250 -> 217 [penwidth=2]
    250 -> 282 [penwidth=2]
    250 -> 284 [penwidth=2]
    250 -> 222 [penwidth=2]
    250 -> 272 [penwidth=2]
    250 -> 262 [penwidth=2]
    250 -> 273 [penwidth=2]
    250 -> 290 [penwidth=2]
    250 -> 223 [penwidth=2]
    250 -> 220 [penwidth=2]
    250 -> 274 [penwidth=2]
    250 -> 289 [penwidth=2]
    250 -> 296 [penwidth=2]
    250 -> 278 [penwidth=2]
    250 -> 288 [penwidth=2]
    250 -> 281 [penwidth=2]
    250 -> 279 [penwidth=2]
    250 -> 285 [penwidth=2]
    250 -> 294 [penwidth=2]
    250 -> 267 [penwidth=2]
    250 -> 298 [penwidth=2]
    250 -> 293 [penwidth=2]
    250 -> 283 [penwidth=2]
    250 -> 297 [penwidth=2]
    250 -> 269 [penwidth=2]
    256 -> 296 [penwidth=2]
    256 -> 279 [penwidth=2]
    256 -> 223 [penwidth=2]
    256 -> 216 [penwidth=2]
    256 -> 274 [penwidth=2]
    256 -> 270 [penwidth=2]
    256 -> 269 [penwidth=2]
    256 -> 287 [penwidth=2]
    256 -> 267 [penwidth=2]
    256 -> 272 [penwidth=2]
    256 -> 264 [penwidth=2]
    256 -> 297 [penwidth=2]
    256 -> 276 [penwidth=2]
    256 -> 280 [penwidth=2]
    256 -> 291 [penwidth=2]
    256 -> 262 [penwidth=2]
    93 -> 271 [penwidth=2]
    93 -> 263 [penwidth=2]
    93 -> 279 [penwidth=2]
    93 -> 284 [penwidth=2]
    93 -> 286 [penwidth=2]
    93 -> 288 [penwidth=2]
    93 -> 215 [penwidth=2]
    93 -> 269 [penwidth=2]
    93 -> 275 [penwidth=2]
    93 -> 291 [penwidth=2]
    93 -> 277 [penwidth=2]
    93 -> 285 [penwidth=2]
    93 -> 276 [penwidth=2]
    93 -> 220 [penwidth=2]
    93 -> 298 [penwidth=2]
    93 -> 264 [penwidth=2]
    93 -> 270 [penwidth=2]
    93 -> 216 [penwidth=2]
    93 -> 295 [penwidth=2]
    93 -> 289 [penwidth=2]
    93 -> 283 [penwidth=2]
    93 -> 290 [penwidth=2]
    93 -> 219 [penwidth=2]
    93 -> 296 [penwidth=2]
    93 -> 222 [penwidth=2]
    93 -> 287 [penwidth=2]
    93 -> 272 [penwidth=2]
    94 -> 276 [penwidth=2]
    94 -> 272 [penwidth=2]
    94 -> 271 [penwidth=2]
    94 -> 295 [penwidth=2]
    94 -> 270 [penwidth=2]
    94 -> 283 [penwidth=2]
    94 -> 215 [penwidth=2]
    94 -> 265 [penwidth=2]
    94 -> 223 [penwidth=2]
    94 -> 268 [penwidth=2]
    94 -> 285 [penwidth=2]
    94 -> 218 [penwidth=2]
    94 -> 216 [penwidth=2]
    94 -> 263 [penwidth=2]
    94 -> 277 [penwidth=2]
    94 -> 264 [penwidth=2]
    94 -> 298 [penwidth=2]
    94 -> 280 [penwidth=2]
    94 -> 286 [penwidth=2]
    96 -> 281 [penwidth=2]
    96 -> 291 [penwidth=2]
    96 -> 294 [penwidth=2]
    96 -> 221 [penwidth=2]
    96 -> 280 [penwidth=2]
    96 -> 222 [penwidth=2]
    96 -> 297 [penwidth=2]
    96 -> 279 [penwidth=2]
    96 -> 264 [penwidth=2]
    96 -> 293 [penwidth=2]
    96 -> 278 [penwidth=2]
    96 -> 216 [penwidth=2]
    96 -> 219 [penwidth=2]
    96 -> 263 [penwidth=2]
    96 -> 270 [penwidth=2]
    96 -> 218 [penwidth=2]
    96 -> 292 [penwidth=2]
    96 -> 286 [penwidth=2]
    96 -> 268 [penwidth=2]
    100 -> 296 [penwidth=2]
    100 -> 285 [penwidth=2]
    100 -> 297 [penwidth=2]
    100 -> 216 [penwidth=2]
    100 -> 262 [penwidth=2]
    100 -> 270 [penwidth=2]
    100 -> 292 [penwidth=2]
    100 -> 279 [penwidth=2]
    100 -> 278 [penwidth=2]
    100 -> 219 [penwidth=2]
    100 -> 271 [penwidth=2]
    100 -> 276 [penwidth=2]
    100 -> 298 [penwidth=2]
    100 -> 266 [penwidth=2]
    100 -> 267 [penwidth=2]
    100 -> 272 [penwidth=2]
    100 -> 286 [penwidth=2]
    100 -> 223 [penwidth=2]
    100 -> 282 [penwidth=2]
    100 -> 218 [penwidth=2]
    100 -> 295 [penwidth=2]
    100 -> 291 [penwidth=2]
    104 -> 217 [penwidth=2]
    104 -> 293 [penwidth=2]
    104 -> 281 [penwidth=2]
    104 -> 283 [penwidth=2]
    104 -> 263 [penwidth=2]
    104 -> 289 [penwidth=2]
    104 -> 288 [penwidth=2]
    104 -> 270 [penwidth=2]
    104 -> 267 [penwidth=2]
    104 -> 294 [penwidth=2]
    104 -> 275 [penwidth=2]
    104 -> 292 [penwidth=2]
    104 -> 269 [penwidth=2]
    104 -> 222 [penwidth=2]
    104 -> 291 [penwidth=2]
    104 -> 284 [penwidth=2]
    104 -> 216 [penwidth=2]
    104 -> 280 [penwidth=2]
    104 -> 278 [penwidth=2]
    104 -> 218 [penwidth=2]
    104 -> 295 [penwidth=2]
    104 -> 276 [penwidth=2]
    104 -> 282 [penwidth=2]
    104 -> 264 [penwidth=2]
    104 -> 285 [penwidth=2]
    104 -> 262 [penwidth=2]
    104 -> 286 [penwidth=2]
    104 -> 220 [penwidth=2]
    104 -> 219 [penwidth=2]
    104 -> 215 [penwidth=2]
    104 -> 221 [penwidth=2]
    104 -> 277 [penwidth=2]
    104 -> 296 [penwidth=2]
    104 -> 266 [penwidth=2]
    104 -> 265 [penwidth=2]
    104 -> 297 [penwidth=2]
    104 -> 272 [penwidth=2]
    104 -> 287 [penwidth=2]
    104 -> 274 [penwidth=2]
    108 -> 263 [penwidth=2]
    108 -> 290 [penwidth=2]
    108 -> 280 [penwidth=2]
    108 -> 275 [penwidth=2]
    108 -> 273 [penwidth=2]
    108 -> 219 [penwidth=2]
    108 -> 270 [penwidth=2]
    108 -> 266 [penwidth=2]
    109 -> 296 [penwidth=2]
    109 -> 291 [penwidth=2]
    109 -> 276 [penwidth=2]
    109 -> 297 [penwidth=2]
    109 -> 289 [penwidth=2]
    109 -> 267 [penwidth=2]
    109 -> 263 [penwidth=2]
    109 -> 292 [penwidth=2]
    109 -> 264 [penwidth=2]
    109 -> 219 [penwidth=2]
    109 -> 278 [penwidth=2]
    109 -> 273 [penwidth=2]
    109 -> 288 [penwidth=2]
    109 -> 284 [penwidth=2]
    109 -> 220 [penwidth=2]
    109 -> 222 [penwidth=2]
    109 -> 221 [penwidth=2]
    109 -> 283 [penwidth=2]
    109 -> 217 [penwidth=2]
    109 -> 216 [penwidth=2]
    109 -> 262 [penwidth=2]
    109 -> 269 [penwidth=2]
    109 -> 280 [penwidth=2]
    109 -> 270 [penwidth=2]
    109 -> 275 [penwidth=2]
    109 -> 287 [penwidth=2]
    109 -> 215 [penwidth=2]
    154 -> 278 [penwidth=2]
    154 -> 262 [penwidth=2]
    154 -> 280 [penwidth=2]
    154 -> 263 [penwidth=2]
    154 -> 272 [penwidth=2]
    154 -> 282 [penwidth=2]
    154 -> 276 [penwidth=2]
    154 -> 271 [penwidth=2]
    154 -> 216 [penwidth=2]
    154 -> 292 [penwidth=2]
    154 -> 289 [penwidth=2]
    154 -> 264 [penwidth=2]
    154 -> 296 [penwidth=2]
    154 -> 273 [penwidth=2]
    154 -> 281 [penwidth=2]
    154 -> 297 [penwidth=2]
    154 -> 223 [penwidth=2]
    154 -> 274 [penwidth=2]
    154 -> 265 [penwidth=2]
    154 -> 295 [penwidth=2]
    154 -> 293 [penwidth=2]
    154 -> 277 [penwidth=2]
    154 -> 285 [penwidth=2]
    154 -> 268 [penwidth=2]
    154 -> 220 [penwidth=2]
    154 -> 219 [penwidth=2]
    154 -> 294 [penwidth=2]
    154 -> 284 [penwidth=2]
    154 -> 221 [penwidth=2]
    154 -> 270 [penwidth=2]
    154 -> 286 [penwidth=2]
    154 -> 287 [penwidth=2]
    154 -> 288 [penwidth=2]
    154 -> 215 [penwidth=2]
    154 -> 218 [penwidth=2]
    157 -> 292 [penwidth=2]
    157 -> 267 [penwidth=2]
    157 -> 293 [penwidth=2]
    157 -> 279 [penwidth=2]
    157 -> 265 [penwidth=2]
    157 -> 281 [penwidth=2]
    157 -> 291 [penwidth=2]
    157 -> 284 [penwidth=2]
    157 -> 272 [penwidth=2]
    157 -> 216 [penwidth=2]
    157 -> 286 [penwidth=2]
    157 -> 277 [penwidth=2]
    157 -> 296 [penwidth=2]
    157 -> 218 [penwidth=2]
    157 -> 289 [penwidth=2]
    157 -> 283 [penwidth=2]
    157 -> 215 [penwidth=2]
    157 -> 275 [penwidth=2]
    157 -> 298 [penwidth=2]
    157 -> 295 [penwidth=2]
    157 -> 271 [penwidth=2]
    157 -> 221 [penwidth=2]
    157 -> 274 [penwidth=2]
    157 -> 288 [penwidth=2]
    157 -> 285 [penwidth=2]
    157 -> 217 [penwidth=2]
    157 -> 297 [penwidth=2]
    157 -> 268 [penwidth=2]
    161 -> 277 [penwidth=2]
    161 -> 287 [penwidth=2]
    161 -> 215 [penwidth=2]
    161 -> 222 [penwidth=2]
    161 -> 289 [penwidth=2]
    161 -> 267 [penwidth=2]
    161 -> 278 [penwidth=2]
    161 -> 218 [penwidth=2]
    161 -> 273 [penwidth=2]
    161 -> 275 [penwidth=2]
    161 -> 298 [penwidth=2]
    161 -> 285 [penwidth=2]
    161 -> 281 [penwidth=2]
    161 -> 263 [penwidth=2]
    161 -> 274 [penwidth=2]
    161 -> 283 [penwidth=2]
    161 -> 270 [penwidth=2]
    161 -> 291 [penwidth=2]
    161 -> 264 [penwidth=2]
    161 -> 266 [penwidth=2]
    161 -> 268 [penwidth=2]
    161 -> 280 [penwidth=2]
    161 -> 286 [penwidth=2]
    161 -> 219 [penwidth=2]
    161 -> 272 [penwidth=2]
    161 -> 216 [penwidth=2]
    161 -> 297 [penwidth=2]
    161 -> 295 [penwidth=2]
    161 -> 262 [penwidth=2]
    161 -> 296 [penwidth=2]
    161 -> 279 [penwidth=2]
    161 -> 294 [penwidth=2]
    161 -> 265 [penwidth=2]
    161 -> 282 [penwidth=2]
    161 -> 220 [penwidth=2]
    161 -> 293 [penwidth=2]
    161 -> 271 [penwidth=2]
    161 -> 223 [penwidth=2]
    161 -> 217 [penwidth=2]
    161 -> 276 [penwidth=2]
    161 -> 290 [penwidth=2]
    161 -> 288 [penwidth=2]
    163 -> 274 [penwidth=2]
    163 -> 278 [penwidth=2]
    163 -> 291 [penwidth=2]
    163 -> 218 [penwidth=2]
    163 -> 262 [penwidth=2]
    163 -> 223 [penwidth=2]
    163 -> 264 [penwidth=2]
    163 -> 271 [penwidth=2]
    163 -> 292 [penwidth=2]
    163 -> 220 [penwidth=2]
    163 -> 216 [penwidth=2]
    163 -> 268 [penwidth=2]
    163 -> 295 [penwidth=2]
    163 -> 265 [penwidth=2]
    163 -> 286 [penwidth=2]
    163 -> 284 [penwidth=2]
    163 -> 221 [penwidth=2]
    163 -> 296 [penwidth=2]
    128 -> 287 [penwidth=2]
    128 -> 262 [penwidth=2]
    128 -> 266 [penwidth=2]
    128 -> 277 [penwidth=2]
    128 -> 295 [penwidth=2]
    128 -> 222 [penwidth=2]
    128 -> 286 [penwidth=2]
    128 -> 284 [penwidth=2]
    128 -> 278 [penwidth=2]
    128 -> 282 [penwidth=2]
    128 -> 223 [penwidth=2]
    128 -> 263 [penwidth=2]
    128 -> 297 [penwidth=2]
    128 -> 273 [penwidth=2]
    128 -> 264 [penwidth=2]
    128 -> 296 [penwidth=2]
    128 -> 268 [penwidth=2]
    128 -> 283 [penwidth=2]
    128 -> 267 [penwidth=2]
    128 -> 219 [penwidth=2]
    128 -> 288 [penwidth=2]
    128 -> 265 [penwidth=2]
    128 -> 276 [penwidth=2]
    128 -> 279 [penwidth=2]
    128 -> 280 [penwidth=2]
    128 -> 216 [penwidth=2]
    47 -> 271 [penwidth=2]
    75 -> 289 [penwidth=2]
    85 -> 289 [penwidth=2]
    85 -> 271 [penwidth=2]
    85 -> 263 [penwidth=2]
    85 -> 282 [penwidth=2]
    85 -> 276 [penwidth=2]
    85 -> 222 [penwidth=2]
    85 -> 268 [penwidth=2]
    85 -> 264 [penwidth=2]
    85 -> 275 [penwidth=2]
    85 -> 286 [penwidth=2]
    85 -> 281 [penwidth=2]
    85 -> 298 [penwidth=2]
    85 -> 288 [penwidth=2]
    85 -> 292 [penwidth=2]
    85 -> 267 [penwidth=2]
    85 -> 296 [penwidth=2]
    85 -> 218 [penwidth=2]
    85 -> 223 [penwidth=2]
    85 -> 295 [penwidth=2]
    85 -> 220 [penwidth=2]
    86 -> 270 [penwidth=2]
    86 -> 223 [penwidth=2]
    86 -> 280 [penwidth=2]
    86 -> 294 [penwidth=2]
    86 -> 297 [penwidth=2]
    86 -> 221 [penwidth=2]
    86 -> 284 [penwidth=2]
    86 -> 278 [penwidth=2]
    86 -> 298 [penwidth=2]
    86 -> 273 [penwidth=2]
    86 -> 262 [penwidth=2]
    86 -> 267 [penwidth=2]
    86 -> 216 [penwidth=2]
    86 -> 289 [penwidth=2]
    86 -> 264 [penwidth=2]
    86 -> 296 [penwidth=2]
    86 -> 215 [penwidth=2]
    86 -> 272 [penwidth=2]
    86 -> 263 [penwidth=2]
    86 -> 288 [penwidth=2]
    86 -> 269 [penwidth=2]
    86 -> 283 [penwidth=2]
    86 -> 274 [penwidth=2]
    86 -> 276 [penwidth=2]
    86 -> 265 [penwidth=2]
    86 -> 282 [penwidth=2]
    86 -> 281 [penwidth=2]
    86 -> 220 [penwidth=2]
    88 -> 289 [penwidth=2]
    88 -> 263 [penwidth=2]
    88 -> 271 [penwidth=2]
    88 -> 262 [penwidth=2]
    88 -> 217 [penwidth=2]
    88 -> 220 [penwidth=2]
    88 -> 267 [penwidth=2]
    88 -> 222 [penwidth=2]
    88 -> 288 [penwidth=2]
    88 -> 281 [penwidth=2]
    88 -> 215 [penwidth=2]
    88 -> 272 [penwidth=2]
    88 -> 219 [penwidth=2]
    88 -> 218 [penwidth=2]
    88 -> 266 [penwidth=2]
    88 -> 277 [penwidth=2]
    88 -> 273 [penwidth=2]
    88 -> 292 [penwidth=2]
    88 -> 298 [penwidth=2]
    88 -> 285 [penwidth=2]
    88 -> 216 [penwidth=2]
    385 -> 288 [penwidth=2]
    385 -> 267 [penwidth=2]
    385 -> 285 [penwidth=2]
    385 -> 266 [penwidth=2]
    385 -> 286 [penwidth=2]
    385 -> 270 [penwidth=2]
    385 -> 274 [penwidth=2]
    385 -> 268 [penwidth=2]
    385 -> 281 [penwidth=2]
    385 -> 221 [penwidth=2]
    385 -> 223 [penwidth=2]
    385 -> 287 [penwidth=2]
    385 -> 282 [penwidth=2]
    385 -> 280 [penwidth=2]
    385 -> 273 [penwidth=2]
    385 -> 262 [penwidth=2]
    385 -> 275 [penwidth=2]
    385 -> 289 [penwidth=2]
    385 -> 222 [penwidth=2]
    385 -> 219 [penwidth=2]
    385 -> 295 [penwidth=2]
    385 -> 291 [penwidth=2]
    385 -> 284 [penwidth=2]
    385 -> 264 [penwidth=2]
    385 -> 276 [penwidth=2]
    385 -> 272 [penwidth=2]
    385 -> 220 [penwidth=2]
    385 -> 215 [penwidth=2]
    385 -> 216 [penwidth=2]
    385 -> 271 [penwidth=2]
    385 -> 297 [penwidth=2]
    385 -> 279 [penwidth=2]
    385 -> 290 [penwidth=2]
    385 -> 277 [penwidth=2]
    385 -> 298 [penwidth=2]
    385 -> 218 [penwidth=2]
    385 -> 263 [penwidth=2]
    385 -> 265 [penwidth=2]
    385 -> 296 [penwidth=2]
    385 -> 217 [penwidth=2]
    385 -> 294 [penwidth=2]
    385 -> 269 [penwidth=2]
    387 -> 220 [penwidth=2]
    387 -> 272 [penwidth=2]
    389 -> 296 [penwidth=2]
    389 -> 274 [penwidth=2]
    389 -> 266 [penwidth=2]
    389 -> 281 [penwidth=2]
    389 -> 263 [penwidth=2]
    389 -> 283 [penwidth=2]
    389 -> 288 [penwidth=2]
    389 -> 280 [penwidth=2]
    389 -> 267 [penwidth=2]
    389 -> 285 [penwidth=2]
    389 -> 265 [penwidth=2]
    389 -> 290 [penwidth=2]
    389 -> 270 [penwidth=2]
    389 -> 289 [penwidth=2]
    389 -> 262 [penwidth=2]
    389 -> 292 [penwidth=2]
    389 -> 275 [penwidth=2]
    389 -> 268 [penwidth=2]
    389 -> 215 [penwidth=2]
    389 -> 276 [penwidth=2]
    389 -> 277 [penwidth=2]
    389 -> 293 [penwidth=2]
    389 -> 287 [penwidth=2]
    39 -> 292 [penwidth=2]
    39 -> 294 [penwidth=2]
    39 -> 263 [penwidth=2]
    39 -> 216 [penwidth=2]
    39 -> 295 [penwidth=2]
    39 -> 274 [penwidth=2]
    39 -> 222 [penwidth=2]
    39 -> 283 [penwidth=2]
    39 -> 289 [penwidth=2]
    39 -> 281 [penwidth=2]
    39 -> 298 [penwidth=2]
    39 -> 278 [penwidth=2]
    39 -> 217 [penwidth=2]
    39 -> 270 [penwidth=2]
    39 -> 219 [penwidth=2]
    39 -> 265 [penwidth=2]
    39 -> 268 [penwidth=2]
    39 -> 269 [penwidth=2]
    39 -> 290 [penwidth=2]
    39 -> 285 [penwidth=2]
    39 -> 284 [penwidth=2]
    39 -> 291 [penwidth=2]
    39 -> 280 [penwidth=2]
    39 -> 288 [penwidth=2]
    39 -> 267 [penwidth=2]
    39 -> 276 [penwidth=2]
    39 -> 297 [penwidth=2]
    39 -> 215 [penwidth=2]
    39 -> 264 [penwidth=2]
    39 -> 262 [penwidth=2]
    39 -> 279 [penwidth=2]
    39 -> 220 [penwidth=2]
    39 -> 223 [penwidth=2]
    39 -> 218 [penwidth=2]
    39 -> 296 [penwidth=2]
    39 -> 272 [penwidth=2]
    39 -> 287 [penwidth=2]
    39 -> 271 [penwidth=2]
    39 -> 221 [penwidth=2]
    39 -> 293 [penwidth=2]
    39 -> 266 [penwidth=2]
    39 -> 277 [penwidth=2]
    41 -> 286 [penwidth=2]
    41 -> 267 [penwidth=2]
    41 -> 290 [penwidth=2]
    41 -> 273 [penwidth=2]
    41 -> 280 [penwidth=2]
    41 -> 285 [penwidth=2]
    41 -> 295 [penwidth=2]
    41 -> 220 [penwidth=2]
    41 -> 270 [penwidth=2]
    41 -> 294 [penwidth=2]
    41 -> 297 [penwidth=2]
    41 -> 264 [penwidth=2]
    41 -> 272 [penwidth=2]
    41 -> 266 [penwidth=2]
    41 -> 269 [penwidth=2]
    41 -> 298 [penwidth=2]
    41 -> 281 [penwidth=2]
    41 -> 277 [penwidth=2]
    41 -> 293 [penwidth=2]
    41 -> 222 [penwidth=2]
    41 -> 292 [penwidth=2]
    41 -> 275 [penwidth=2]
    41 -> 263 [penwidth=2]
    41 -> 218 [penwidth=2]
    41 -> 279 [penwidth=2]
    41 -> 217 [penwidth=2]
    41 -> 223 [penwidth=2]
    41 -> 274 [penwidth=2]
    41 -> 296 [penwidth=2]
    41 -> 219 [penwidth=2]
    41 -> 215 [penwidth=2]
    41 -> 221 [penwidth=2]
    41 -> 289 [penwidth=2]
    41 -> 278 [penwidth=2]
    41 -> 268 [penwidth=2]
    345 -> 292 [penwidth=2]
    345 -> 264 [penwidth=2]
    345 -> 276 [penwidth=2]
    345 -> 297 [penwidth=2]
    345 -> 296 [penwidth=2]
    345 -> 291 [penwidth=2]
    345 -> 269 [penwidth=2]
    345 -> 263 [penwidth=2]
    345 -> 266 [penwidth=2]
    345 -> 279 [penwidth=2]
    345 -> 289 [penwidth=2]
    345 -> 265 [penwidth=2]
    345 -> 295 [penwidth=2]
    345 -> 285 [penwidth=2]
    345 -> 290 [penwidth=2]
    345 -> 294 [penwidth=2]
    345 -> 278 [penwidth=2]
    345 -> 222 [penwidth=2]
    345 -> 216 [penwidth=2]
    345 -> 283 [penwidth=2]
    345 -> 223 [penwidth=2]
    345 -> 272 [penwidth=2]
    345 -> 267 [penwidth=2]
    345 -> 286 [penwidth=2]
    345 -> 284 [penwidth=2]
    345 -> 218 [penwidth=2]
    345 -> 274 [penwidth=2]
    345 -> 217 [penwidth=2]
    345 -> 221 [penwidth=2]
    345 -> 219 [penwidth=2]
    345 -> 298 [penwidth=2]
    345 -> 293 [penwidth=2]
    345 -> 268 [penwidth=2]
    345 -> 280 [penwidth=2]
    345 -> 281 [penwidth=2]
    345 -> 215 [penwidth=2]
    345 -> 277 [penwidth=2]
    345 -> 287 [penwidth=2]
    345 -> 270 [penwidth=2]
    345 -> 220 [penwidth=2]
    345 -> 271 [penwidth=2]
    345 -> 273 [penwidth=2]
    350 -> 263 [penwidth=2]
    350 -> 223 [penwidth=2]
    350 -> 292 [penwidth=2]
    350 -> 287 [penwidth=2]
    350 -> 277 [penwidth=2]
    353 -> 290 [penwidth=2]
    353 -> 292 [penwidth=2]
    353 -> 282 [penwidth=2]
    353 -> 265 [penwidth=2]
    353 -> 268 [penwidth=2]
    353 -> 217 [penwidth=2]
    353 -> 267 [penwidth=2]
    353 -> 262 [penwidth=2]
    353 -> 269 [penwidth=2]
    353 -> 285 [penwidth=2]
    353 -> 275 [penwidth=2]
    353 -> 264 [penwidth=2]
    353 -> 288 [penwidth=2]
    353 -> 274 [penwidth=2]
    353 -> 284 [penwidth=2]
    353 -> 296 [penwidth=2]
    353 -> 216 [penwidth=2]
    353 -> 294 [penwidth=2]
    353 -> 280 [penwidth=2]
    353 -> 293 [penwidth=2]
    353 -> 218 [penwidth=2]
    353 -> 295 [penwidth=2]
    353 -> 286 [penwidth=2]
    353 -> 278 [penwidth=2]
    353 -> 297 [penwidth=2]
    353 -> 298 [penwidth=2]
    315 -> 292 [penwidth=2]
    315 -> 274 [penwidth=2]
    315 -> 278 [penwidth=2]
    315 -> 265 [penwidth=2]
    315 -> 288 [penwidth=2]
    315 -> 283 [penwidth=2]
    315 -> 216 [penwidth=2]
    315 -> 220 [penwidth=2]
    315 -> 294 [penwidth=2]
    315 -> 221 [penwidth=2]
    315 -> 291 [penwidth=2]
    315 -> 268 [penwidth=2]
    315 -> 271 [penwidth=2]
    315 -> 293 [penwidth=2]
    315 -> 290 [penwidth=2]
    315 -> 276 [penwidth=2]
    315 -> 277 [penwidth=2]
    315 -> 273 [penwidth=2]
    315 -> 264 [penwidth=2]
    315 -> 262 [penwidth=2]
    315 -> 279 [penwidth=2]
    315 -> 282 [penwidth=2]
    315 -> 289 [penwidth=2]
    315 -> 270 [penwidth=2]
    315 -> 263 [penwidth=2]
    315 -> 218 [penwidth=2]
    315 -> 285 [penwidth=2]
    315 -> 296 [penwidth=2]
    315 -> 223 [penwidth=2]
    315 -> 272 [penwidth=2]
    315 -> 297 [penwidth=2]
    315 -> 275 [penwidth=2]
    315 -> 281 [penwidth=2]
    315 -> 215 [penwidth=2]
    315 -> 298 [penwidth=2]
    315 -> 269 [penwidth=2]
    315 -> 267 [penwidth=2]
    315 -> 219 [penwidth=2]
    315 -> 286 [penwidth=2]
    315 -> 222 [penwidth=2]
    315 -> 280 [penwidth=2]
    315 -> 287 [penwidth=2]
    316 -> 279 [penwidth=2]
    358 -> 297 [penwidth=2]
    358 -> 217 [penwidth=2]
    358 -> 266 [penwidth=2]
    358 -> 271 [penwidth=2]
    358 -> 272 [penwidth=2]
    358 -> 222 [penwidth=2]
    358 -> 263 [penwidth=2]
    358 -> 277 [penwidth=2]
    358 -> 265 [penwidth=2]
    358 -> 279 [penwidth=2]
    358 -> 278 [penwidth=2]
    358 -> 219 [penwidth=2]
    358 -> 298 [penwidth=2]
    358 -> 275 [penwidth=2]
    358 -> 293 [penwidth=2]
    358 -> 264 [penwidth=2]
    358 -> 216 [penwidth=2]
    358 -> 294 [penwidth=2]
    358 -> 273 [penwidth=2]
    358 -> 215 [penwidth=2]
    358 -> 288 [penwidth=2]
    358 -> 283 [penwidth=2]
    323 -> 278 [penwidth=2]
    323 -> 269 [penwidth=2]
    323 -> 282 [penwidth=2]
    323 -> 215 [penwidth=2]
    323 -> 293 [penwidth=2]
    323 -> 297 [penwidth=2]
    323 -> 267 [penwidth=2]
    323 -> 288 [penwidth=2]
    323 -> 291 [penwidth=2]
    328 -> 282 [penwidth=2]
    328 -> 291 [penwidth=2]
    328 -> 264 [penwidth=2]
    328 -> 270 [penwidth=2]
    328 -> 263 [penwidth=2]
    328 -> 288 [penwidth=2]
    328 -> 290 [penwidth=2]
    328 -> 221 [penwidth=2]
    328 -> 271 [penwidth=2]
    328 -> 278 [penwidth=2]
    328 -> 292 [penwidth=2]
    328 -> 285 [penwidth=2]
    328 -> 294 [penwidth=2]
    328 -> 277 [penwidth=2]
    328 -> 273 [penwidth=2]
    328 -> 218 [penwidth=2]
    328 -> 274 [penwidth=2]
    328 -> 286 [penwidth=2]
    328 -> 272 [penwidth=2]
    328 -> 280 [penwidth=2]
    328 -> 281 [penwidth=2]
    328 -> 279 [penwidth=2]
    328 -> 265 [penwidth=2]
    328 -> 275 [penwidth=2]
    328 -> 222 [penwidth=2]
    328 -> 219 [penwidth=2]
    328 -> 223 [penwidth=2]
    328 -> 216 [penwidth=2]
    328 -> 289 [penwidth=2]
    328 -> 296 [penwidth=2]
    328 -> 297 [penwidth=2]
    328 -> 267 [penwidth=2]
    328 -> 283 [penwidth=2]
    328 -> 298 [penwidth=2]
    328 -> 217 [penwidth=2]
    328 -> 266 [penwidth=2]
    328 -> 220 [penwidth=2]
    328 -> 262 [penwidth=2]
    378 -> 280 [penwidth=2]
    378 -> 285 [penwidth=2]
    378 -> 275 [penwidth=2]
    378 -> 268 [penwidth=2]
    378 -> 295 [penwidth=2]
    378 -> 298 [penwidth=2]
    378 -> 286 [penwidth=2]
    378 -> 266 [penwidth=2]
    378 -> 281 [penwidth=2]
    378 -> 297 [penwidth=2]
    378 -> 218 [penwidth=2]
    378 -> 293 [penwidth=2]
    378 -> 276 [penwidth=2]
    378 -> 290 [penwidth=2]
    378 -> 220 [penwidth=2]
    378 -> 291 [penwidth=2]
    378 -> 273 [penwidth=2]
    378 -> 221 [penwidth=2]
    378 -> 223 [penwidth=2]
    378 -> 294 [penwidth=2]
    378 -> 262 [penwidth=2]
    378 -> 283 [penwidth=2]
    378 -> 215 [penwidth=2]
    378 -> 267 [penwidth=2]
    378 -> 272 [penwidth=2]
    378 -> 277 [penwidth=2]
    378 -> 278 [penwidth=2]
    378 -> 264 [penwidth=2]
    378 -> 219 [penwidth=2]
    378 -> 271 [penwidth=2]
    378 -> 279 [penwidth=2]
    378 -> 296 [penwidth=2]
    378 -> 292 [penwidth=2]
    378 -> 217 [penwidth=2]
    378 -> 270 [penwidth=2]
    378 -> 282 [penwidth=2]
    378 -> 289 [penwidth=2]
    378 -> 216 [penwidth=2]
    378 -> 288 [penwidth=2]
    378 -> 284 [penwidth=2]
    378 -> 265 [penwidth=2]
    378 -> 274 [penwidth=2]
    378 -> 269 [penwidth=2]
    380 -> 283 [penwidth=2]
    380 -> 298 [penwidth=2]
    380 -> 277 [penwidth=2]
    380 -> 264 [penwidth=2]
    380 -> 220 [penwidth=2]
    380 -> 266 [penwidth=2]
    380 -> 282 [penwidth=2]
    380 -> 269 [penwidth=2]
    380 -> 268 [penwidth=2]
    380 -> 270 [penwidth=2]
}