digraph G {
    0 [penwidth=3,label="0"]
    1 [penwidth=3,label="1"]
    2 [penwidth=3,label="2"]
    3 [penwidth=3,label="3"]
    4 [penwidth=3,label="4"]
    5 [penwidth=3,label="5"]
    6 [penwidth=3,label="6"]
    7 [penwidth=3,label="7"]
    8 [penwidth=3,label="8"]
    9 [penwidth=3,label="9"]
    10 [penwidth=3,label="10"]
    11 [penwidth=3,label="11"]
    12 [penwidth=3,label="12"]
    13 [penwidth=3,label="13"]
    14 [penwidth=3,label="14"]
    15 [penwidth=3,label="15"]
    16 [penwidth=3,label="16"]
    17 [penwidth=3,label="17"]
    18 [penwidth=3,label="18"]
    19 [penwidth=3,label="19"]
    20 [penwidth=3,label="20"]
    21 [penwidth=3,label="21"]
    22 [penwidth=3,label="22"]
    23 [penwidth=3,label="23"]
    24 [penwidth=3,label="24"]
    25 [penwidth=3,label="25"]
    26 [penwidth=3,label="26"]
    27 [penwidth=3,label="27"]
    28 [penwidth=3,label="28"]
    29 [penwidth=3,label="29"]
    30 [penwidth=3,label="30"]
    31 [penwidth=3,label="31"]
    32 [penwidth=3,label="32"]
    33 [penwidth=3,label="33"]
    34 [penwidth=3,label="34"]
    35 [penwidth=3,label="35"]
    36 [penwidth=3,label="36"]
    37 [penwidth=3,label="37"]
    38 [penwidth=3,label="38"]
    39 [penwidth=3,label="39"]
    40 [penwidth=3,label="40"]
    41 [penwidth=3,label="41"]
    42 [penwidth=3,label="42"]
    43 [penwidth=3,label="43"]
    44 [penwidth=3,label="44"]
    45 [penwidth=3,label="45"]
    46 [penwidth=3,label="46"]
    47 [penwidth=3,label="47"]
    48 [penwidth=3,label="48"]
    49 [penwidth=3,label="49"]
    50 [penwidth=3,label="50"]
    51 [penwidth=3,label="51"]
    52 [penwidth=3,label="52"]
    53 [penwidth=3,label="53"]
    54 [penwidth=3,label="54"]
    55 [penwidth=3,label="55"]
    56 [penwidth=3,label="56"]
    57 [penwidth=3,label="57"]
    58 [penwidth=3,label="58"]
    59 [penwidth=3,label="59"]
    60 [penwidth=3,label="60"]
    61 [penwidth=3,label="61"]
    62 [penwidth=3,label="62"]
    63 [penwidth=3,label="63"]
    64 [penwidth=3,label="64"]
    65 [penwidth=3,label="65"]
    66 [penwidth=3,label="66"]
    67 [penwidth=3,label="67"]
    68 [penwidth=3,label="68"]
    69 [penwidth=3,label="69"]
    70 [penwidth=3,label="70"]
    71 [penwidth=3,label="71"]
    72 [penwidth=3,label="72"]
    73 [penwidth=3,label="73"]
    74 [penwidth=3,label="74"]
    75 [penwidth=3,label="75"]
    76 [penwidth=3,label="76"]
    77 [penwidth=3,label="77"]
    78 [penwidth=3,label="78"]
    79 [penwidth=3,label="79"]
    80 [penwidth=3,label="80"]
    81 [penwidth=3,label="81"]
    82 [penwidth=3,label="82"]
    83 [penwidth=3,label="83"]
    84 [penwidth=3,label="84"]
    85 [penwidth=3,label="85"]
    86 [penwidth=3,label="86"]
    87 [penwidth=3,label="87"]
    88 [penwidth=3,label="88"]
    89 [penwidth=3,label="89"]
    90 [penwidth=3,label="90"]
    91 [penwidth=3,label="91"]
    92 [penwidth=3,label="92"]
    93 [penwidth=3,label="93"]
    94 [penwidth=3,label="94"]
    95 [penwidth=3,label="95"]
    96 [penwidth=3,label="96"]
    97 [penwidth=3,label="97"]
    98 [penwidth=3,label="98"]
    99 [penwidth=3,label="99"]
    100 [penwidth=3,label="100"]
    101 [penwidth=3,label="101"]
    102 [penwidth=3,label="102"]
    103 [penwidth=3,label="103"]
    104 [penwidth=3,label="104"]
    105 [penwidth=3,label="105"]
    106 [penwidth=3,label="106"]
    107 [penwidth=3,label="107"]
    108 [penwidth=3,label="108"]
    109 [penwidth=3,label="109"]
    110 [penwidth=3,label="110"]
    111 [penwidth=3,label="111"]
    112 [penwidth=3,label="112"]
    113 [penwidth=3,label="113"]
    114 [penwidth=3,label="114"]
    115 [penwidth=3,label="115"]
    116 [penwidth=3,label="116"]
    117 [penwidth=3,label="117"]
    118 [penwidth=3,label="118"]
    119 [penwidth=3,label="119"]
    120 [penwidth=3,label="120"]
    121 [penwidth=3,label="121"]
    122 [penwidth=3,label="122"]
    123 [penwidth=3,label="123"]
    124 [penwidth=3,label="124"]
    125 [penwidth=3,label="125"]
    126 [penwidth=3,label="126"]
    127 [penwidth=3,label="127"]
    128 [penwidth=3,label="128"]
    129 [penwidth=3,label="129"]
    130 [penwidth=3,label="130"]
    131 [penwidth=3,label="131"]
    132 [penwidth=3,label="132"]
    133 [penwidth=3,label="133"]
    134 [penwidth=3,label="134"]
    135 [penwidth=3,label="135"]
    136 [penwidth=3,label="136"]
    137 [penwidth=3,label="137"]
    138 [penwidth=3,label="138"]
    139 [penwidth=3,label="139"]
    140 [penwidth=3,label="140"]
    141 [penwidth=3,label="141"]
    142 [penwidth=3,label="142"]
    143 [penwidth=3,label="143"]
    144 [penwidth=3,label="144"]
    145 [penwidth=3,label="145"]
    146 [penwidth=3,label="146"]
    147 [penwidth=3,label="147"]
    148 [penwidth=3,label="148"]
    149 [penwidth=3,label="149"]
    150 [penwidth=3,label="150"]
    151 [penwidth=3,label="151"]
    152 [penwidth=3,label="152"]
    153 [penwidth=3,label="153"]
    154 [penwidth=3,label="154"]
    155 [penwidth=3,label="155"]
    156 [penwidth=3,label="156"]
    157 [penwidth=3,label="157"]
    158 [penwidth=3,label="158"]
    159 [penwidth=3,label="159"]
    160 [penwidth=3,label="160"]
    161 [penwidth=3,label="161"]
    162 [penwidth=3,label="162"]
    163 [penwidth=3,label="163"]
    164 [penwidth=3,label="164"]
    165 [penwidth=3,label="165"]
    166 [penwidth=3,label="166"]
    167 [penwidth=3,label="167"]
    168 [penwidth=3,label="168"]
    169 [penwidth=3,label="169"]
    170 [penwidth=3,label="170"]
    171 [penwidth=3,label="171"]
    172 [penwidth=3,label="172"]
    173 [penwidth=3,label="173"]
    174 [penwidth=3,label="174"]
    175 [penwidth=3,label="175"]
    176 [penwidth=3,label="176"]
    177 [penwidth=3,label="177"]
    178 [penwidth=3,label="178"]
    179 [penwidth=3,label="179"]
    180 [penwidth=3,label="180"]
    181 [penwidth=3,label="181"]
    182 [penwidth=3,label="182"]
    183 [penwidth=3,label="183"]
    184 [penwidth=3,label="184"]
    185 [penwidth=3,label="185"]
    186 [penwidth=3,label="186"]
    187 [penwidth=3,label="187"]
    188 [penwidth=3,label="188"]
    189 [penwidth=3,label="189"]
    190 [penwidth=3,label="190"]
    191 [penwidth=3,label="191"]
    192 [penwidth=3,label="192"]
    193 [penwidth=3,label="193"]
    194 [penwidth=3,label="194"]
    195 [penwidth=3,label="195"]
    196 [penwidth=3,label="196"]
    197 [penwidth=3,label="197"]
    198 [penwidth=3,label="198"]
    199 [penwidth=3,label="199"]
    200 [penwidth=3,label="200"]
    201 [penwidth=3,label="201"]
    202 [penwidth=3,label="202"]
    203 [penwidth=3,label="203"]
    204 [penwidth=3,label="204"]
    205 [penwidth=3,label="205"]
    206 [penwidth=3,label="206"]
    207 [penwidth=3,label="207"]
    208 [penwidth=3,label="208"]
    209 [penwidth=3,label="209"]
    210 [penwidth=3,label="210"]
    211 [penwidth=3,label="211"]
    212 [penwidth=3,label="212"]
    213 [penwidth=3,label="213"]
    214 [penwidth=3,label="214"]
    215 [penwidth=3,label="215"]
    216 [penwidth=3,label="216"]
    217 [penwidth=3,label="217"]
    218 [penwidth=3,label="218"]
    219 [penwidth=3,label="219"]
    220 [penwidth=3,label="220"]
    221 [penwidth=3,label="221"]
    222 [penwidth=3,label="222"]
    223 [penwidth=3,label="223"]
    224 [penwidth=3,label="224"]
    225 [penwidth=3,label="225"]
    226 [penwidth=3,label="226"]
    227 [penwidth=3,label="227"]
    228 [penwidth=3,label="228"]
    229 [penwidth=3,label="229"]
    230 [penwidth=3,label="230"]
    231 [penwidth=3,label="231"]
    232 [penwidth=3,label="232"]
    233 [penwidth=3,label="233"]
    234 [penwidth=3,label="234"]
    235 [penwidth=3,label="235"]
    236 [penwidth=3,label="236"]
    237 [penwidth=3,label="237"]
    238 [penwidth=3,label="238"]
    239 [penwidth=3,label="239"]
    240 [penwidth=3,label="240"]
    241 [penwidth=3,label="241"]
    242 [penwidth=3,label="242"]
    243 [penwidth=3,label="243"]
    244 [penwidth=3,label="244"]
    245 [penwidth=3,label="245"]
    246 [penwidth=3,label="246"]
    247 [penwidth=3,label="247"]
    248 [penwidth=3,label="248"]
    249 [penwidth=3,label="249"]
    250 [penwidth=3,label="250"]
    251 [penwidth=3,label="251"]
    252 [penwidth=3,label="252"]
    253 [penwidth=3,label="253"]
    254 [penwidth=3,label="254"]
    255 [penwidth=3,label="255"]
    256 [penwidth=3,label="256"]
    257 [penwidth=3,label="257"]
    258 [penwidth=3,label="258"]
    259 [penwidth=3,label="259"]
    260 [penwidth=3,label="260"]
    261 [penwidth=3,label="261"]
    262 [penwidth=3,label="262"]
    263 [penwidth=3,label="263"]
    264 [penwidth=3,label="264"]
    265 [penwidth=3,label="265"]
    266 [penwidth=3,label="266"]
    267 [penwidth=3,label="267"]
    268 [penwidth=3,label="268"]
    269 [penwidth=3,label="269"]
    270 [penwidth=3,label="270"]
    271 [penwidth=3,label="271"]
    272 [penwidth=3,label="272"]
    273 [penwidth=3,label="273"]
    274 [penwidth=3,label="274"]
    275 [penwidth=3,label="275"]
    276 [penwidth=3,label="276"]
    277 [penwidth=3,label="277"]
    278 [penwidth=3,label="278"]
    279 [penwidth=3,label="279"]
    280 [penwidth=3,label="280"]
    281 [penwidth=3,label="281"]
    282 [penwidth=3,label="282"]
    283 [penwidth=3,label="283"]
    284 [penwidth=3,label="284"]
    285 [penwidth=3,label="285"]
    286 [penwidth=3,label="286"]
    287 [penwidth=3,label="287"]
    288 [penwidth=3,label="288"]
    289 [penwidth=3,label="289"]
    290 [penwidth=3,label="290"]
    291 [penwidth=3,label="291"]
    292 [penwidth=3,label="292"]
    293 [penwidth=3,label="293"]
    294 [penwidth=3,label="294"]
    295 [penwidth=3,label="295"]
    296 [penwidth=3,label="296"]
    297 [penwidth=3,label="297"]
    298 [penwidth=3,label="298"]
    299 [penwidth=3,label="299"]
    300 [penwidth=3,label="300"]
    301 [penwidth=3,label="301"]
    302 [penwidth=3,label="302"]
    303 [penwidth=3,label="303"]
    304 [penwidth=3,label="304"]
    305 [penwidth=3,label="305"]
    306 [penwidth=3,label="306"]
    307 [penwidth=3,label="307"]
    308 [penwidth=3,label="308"]
    309 [penwidth=3,label="309"]
    310 [penwidth=3,label="310"]
    311 [penwidth=3,label="311"]
    312 [penwidth=3,label="312"]
    313 [penwidth=3,label="313"]
    314 [penwidth=3,label="314"]
    315 [penwidth=3,label="315"]
    316 [penwidth=3,label="316"]
    317 [penwidth=3,label="317"]
    318 [penwidth=3,label="318"]
    319 [penwidth=3,label="319"]
    320 [penwidth=3,label="320"]
    321 [penwidth=3,label="321"]
    322 [penwidth=3,label="322"]
    323 [penwidth=3,label="323"]
    324 [penwidth=3,label="324"]
    325 [penwidth=3,label="325"]
    326 [penwidth=3,label="326"]
    327 [penwidth=3,label="327"]
    328 [penwidth=3,label="328"]
    329 [penwidth=3,label="329"]
    330 [penwidth=3,label="330"]
    331 [penwidth=3,label="331"]
    332 [penwidth=3,label="332"]
    333 [penwidth=3,label="333"]
    334 [penwidth=3,label="334"]
    335 [penwidth=3,label="335"]
    336 [penwidth=3,label="336"]
    337 [penwidth=3,label="337"]
    338 [penwidth=3,label="338"]
    339 [penwidth=3,label="339"]
    340 [penwidth=3,label="340"]
    341 [penwidth=3,label="341"]
    342 [penwidth=3,label="342"]
    343 [penwidth=3,label="343"]
    344 [penwidth=3,label="344"]
    345 [penwidth=3,label="345"]
    346 [penwidth=3,label="346"]
    347 [penwidth=3,label="347"]
    348 [penwidth=3,label="348"]
    349 [penwidth=3,label="349"]
    350 [penwidth=3,label="350"]
    351 [penwidth=3,label="351"]
    352 [penwidth=3,label="352"]
    353 [penwidth=3,label="353"]
    354 [penwidth=3,label="354"]
    355 [penwidth=3,label="355"]
    356 [penwidth=3,label="356"]
    357 [penwidth=3,label="357"]
    358 [penwidth=3,label="358"]
    359 [penwidth=3,label="359"]
    360 [penwidth=3,label="360"]
    361 [penwidth=3,label="361"]
    362 [penwidth=3,label="362"]
    363 [penwidth=3,label="363"]
    364 [penwidth=3,label="364"]
    365 [penwidth=3,label="365"]
    366 [penwidth=3,label="366"]
    367 [penwidth=3,label="367"]
    368 [penwidth=3,label="368"]
    369 [penwidth=3,label="369"]
    370 [penwidth=3,label="370"]
    371 [penwidth=3,label="371"]
    372 [penwidth=3,label="372"]
    373 [penwidth=3,label="373"]
    374 [penwidth=3,label="374"]
    375 [penwidth=3,label="375"]
    376 [penwidth=3,label="376"]
    377 [penwidth=3,label="377"]
    378 [penwidth=3,label="378"]
    379 [penwidth=3,label="379"]
    380 [penwidth=3,label="380"]
    381 [penwidth=3,label="381"]
    382 [penwidth=3,label="382"]
    383 [penwidth=3,label="383"]
    384 [penwidth=3,label="384"]
    385 [penwidth=3,label="385"]
    386 [penwidth=3,label="386"]
    387 [penwidth=3,label="387"]
    388 [penwidth=3,label="388"]
    389 [penwidth=3,label="389"]
    390 [penwidth=3,label="390"]
    391 [penwidth=3,label="391"]
    392 [penwidth=3,label="392"]
    393 [penwidth=3,label="393"]
    394 [penwidth=3,label="394"]
    395 [penwidth=3,label="395"]
    396 [penwidth=3,label="396"]
    397 [penwidth=3,label="397"]
    398 [penwidth=3,label="398"]
    399 [penwidth=3,label="399"]

    203 -> 0 [penwidth=2]
    245 -> 0 [penwidth=2]
    204 -> 0 [penwidth=2]
    246 -> 0 [penwidth=2]
    205 -> 0 [penwidth=2]
    247 -> 0 [penwidth=2]
    206 -> 0 [penwidth=2]
    248 -> 0 [penwidth=2]
    207 -> 0 [penwidth=2]
    249 -> 203 [penwidth=2]
    208 -> 203 [penwidth=2]
    250 -> 203 [penwidth=2]
    209 -> 203 [penwidth=2]
    251 -> 203 [penwidth=2]
    210 -> 203 [penwidth=2]
    252 -> 203 [penwidth=2]
    211 -> 203 [penwidth=2]
    253 -> 203 [penwidth=2]
    212 -> 203 [penwidth=2]
    254 -> 203 [penwidth=2]
    213 -> 203 [penwidth=2]
    255 -> 203 [penwidth=2]
    214 -> 203 [penwidth=2]
    256 -> 203 [penwidth=2]
    215 -> 203 [penwidth=2]
    257 -> 203 [penwidth=2]
    216 -> 203 [penwidth=2]
    258 -> 203 [penwidth=2]
    217 -> 245 [penwidth=2]
    259 -> 245 [penwidth=2]
    218 -> 245 [penwidth=2]
    260 -> 245 [penwidth=2]
    219 -> 245 [penwidth=2]
    261 -> 245 [penwidth=2]
    220 -> 245 [penwidth=2]
    262 -> 245 [penwidth=2]
    221 -> 245 [penwidth=2]
    263 -> 245 [penwidth=2]
    222 -> 245 [penwidth=2]
    264 -> 245 [penwidth=2]
    223 -> 245 [penwidth=2]
    265 -> 245 [penwidth=2]
    224 -> 245 [penwidth=2]
    266 -> 245 [penwidth=2]
    225 -> 245 [penwidth=2]
    267 -> 245 [penwidth=2]
    226 -> 245 [penwidth=2]
    268 -> 245 [penwidth=2]
    227 -> 204 [penwidth=2]
    269 -> 204 [penwidth=2]
    228 -> 204 [penwidth=2]
    270 -> 204 [penwidth=2]
    229 -> 204 [penwidth=2]
    271 -> 204 [penwidth=2]
    230 -> 204 [penwidth=2]
    272 -> 204 [penwidth=2]
    231 -> 204 [penwidth=2]
    273 -> 204 [penwidth=2]
    232 -> 204 [penwidth=2]
    274 -> 204 [penwidth=2]
    233 -> 204 [penwidth=2]
    275 -> 204 [penwidth=2]
    234 -> 204 [penwidth=2]
    276 -> 204 [penwidth=2]
    235 -> 204 [penwidth=2]
    277 -> 204 [penwidth=2]
    236 -> 204 [penwidth=2]
    278 -> 204 [penwidth=2]
    237 -> 204 [penwidth=2]
    279 -> 204 [penwidth=2]
    238 -> 204 [penwidth=2]
    280 -> 246 [penwidth=2]
    239 -> 246 [penwidth=2]
    281 -> 246 [penwidth=2]
    240 -> 246 [penwidth=2]
    282 -> 246 [penwidth=2]
    241 -> 246 [penwidth=2]
    283 -> 246 [penwidth=2]
    242 -> 246 [penwidth=2]
    284 -> 246 [penwidth=2]
    243 -> 246 [penwidth=2]
    285 -> 246 [penwidth=2]
    244 -> 246 [penwidth=2]
    286 -> 246 [penwidth=2]
    77 -> 246 [penwidth=2]
    161 -> 246 [penwidth=2]
    78 -> 246 [penwidth=2]
    162 -> 246 [penwidth=2]
    79 -> 246 [penwidth=2]
    163 -> 246 [penwidth=2]
    80 -> 246 [penwidth=2]
    164 -> 246 [penwidth=2]
    81 -> 246 [penwidth=2]
    165 -> 246 [penwidth=2]
    82 -> 246 [penwidth=2]
    166 -> 246 [penwidth=2]
    83 -> 246 [penwidth=2]
    167 -> 246 [penwidth=2]
    84 -> 246 [penwidth=2]
    168 -> 246 [penwidth=2]
    85 -> 205 [penwidth=2]
    169 -> 205 [penwidth=2]
    86 -> 205 [penwidth=2]
    170 -> 247 [penwidth=2]
    87 -> 247 [penwidth=2]
    171 -> 206 [penwidth=2]
    88 -> 206 [penwidth=2]
    172 -> 206 [penwidth=2]
    89 -> 206 [penwidth=2]
    173 -> 206 [penwidth=2]
    90 -> 206 [penwidth=2]
    174 -> 206 [penwidth=2]
    91 -> 206 [penwidth=2]
    175 -> 206 [penwidth=2]
    92 -> 206 [penwidth=2]
    176 -> 206 [penwidth=2]
    93 -> 206 [penwidth=2]
    177 -> 206 [penwidth=2]
    94 -> 206 [penwidth=2]
    178 -> 206 [penwidth=2]
    95 -> 206 [penwidth=2]
    179 -> 206 [penwidth=2]
    96 -> 206 [penwidth=2]
    180 -> 206 [penwidth=2]
    97 -> 206 [penwidth=2]
    181 -> 206 [penwidth=2]
    98 -> 206 [penwidth=2]
    182 -> 206 [penwidth=2]
    99 -> 206 [penwidth=2]
    183 -> 206 [penwidth=2]
    100 -> 206 [penwidth=2]
    184 -> 206 [penwidth=2]
    101 -> 206 [penwidth=2]
    185 -> 206 [penwidth=2]
    102 -> 206 [penwidth=2]
    186 -> 248 [penwidth=2]
    103 -> 248 [penwidth=2]
    187 -> 248 [penwidth=2]
    104 -> 248 [penwidth=2]
    188 -> 248 [penwidth=2]
    105 -> 248 [penwidth=2]
    189 -> 248 [penwidth=2]
    106 -> 248 [penwidth=2]
    190 -> 248 [penwidth=2]
    107 -> 248 [penwidth=2]
    191 -> 207 [penwidth=2]
    108 -> 249 [penwidth=2]
    192 -> 249 [penwidth=2]
    109 -> 249 [penwidth=2]
    193 -> 249 [penwidth=2]
    110 -> 249 [penwidth=2]
    194 -> 249 [penwidth=2]
    111 -> 249 [penwidth=2]
    195 -> 249 [penwidth=2]
    112 -> 249 [penwidth=2]
    196 -> 208 [penwidth=2]
    113 -> 208 [penwidth=2]
    197 -> 208 [penwidth=2]
    114 -> 208 [penwidth=2]
    198 -> 208 [penwidth=2]
    115 -> 208 [penwidth=2]
    199 -> 208 [penwidth=2]
    116 -> 208 [penwidth=2]
    200 -> 208 [penwidth=2]
    117 -> 208 [penwidth=2]
    201 -> 208 [penwidth=2]
    118 -> 208 [penwidth=2]
    202 -> 208 [penwidth=2]
    119 -> 208 [penwidth=2]
    120 -> 208 [penwidth=2]
    121 -> 208 [penwidth=2]
    122 -> 250 [penwidth=2]
    123 -> 250 [penwidth=2]
    124 -> 250 [penwidth=2]
    125 -> 250 [penwidth=2]
    126 -> 250 [penwidth=2]
    127 -> 250 [penwidth=2]
    128 -> 250 [penwidth=2]
    129 -> 250 [penwidth=2]
    130 -> 250 [penwidth=2]
    131 -> 250 [penwidth=2]
    132 -> 250 [penwidth=2]
    133 -> 250 [penwidth=2]
    134 -> 250 [penwidth=2]
    135 -> 250 [penwidth=2]
    136 -> 250 [penwidth=2]
    137 -> 250 [penwidth=2]
    138 -> 250 [penwidth=2]
    139 -> 250 [penwidth=2]
    140 -> 250 [penwidth=2]
    141 -> 250 [penwidth=2]
    142 -> 250 [penwidth=2]
    143 -> 250 [penwidth=2]
    144 -> 250 [penwidth=2]
    145 -> 250 [penwidth=2]
    146 -> 250 [penwidth=2]
    147 -> 250 [penwidth=2]
    148 -> 250 [penwidth=2]
    149 -> 250 [penwidth=2]
    150 -> 250 [penwidth=2]
    151 -> 251 [penwidth=2]
    152 -> 251 [penwidth=2]
    153 -> 251 [penwidth=2]
    154 -> 251 [penwidth=2]
    155 -> 251 [penwidth=2]
    156 -> 251 [penwidth=2]
    157 -> 251 [penwidth=2]
    158 -> 251 [penwidth=2]
    159 -> 251 [penwidth=2]
    160 -> 251 [penwidth=2]
    35 -> 251 [penwidth=2]
    36 -> 251 [penwidth=2]
    37 -> 251 [penwidth=2]
    38 -> 251 [penwidth=2]
    39 -> 251 [penwidth=2]
    40 -> 251 [penwidth=2]
    41 -> 251 [penwidth=2]
    42 -> 251 [penwidth=2]
    43 -> 251 [penwidth=2]
    44 -> 251 [penwidth=2]
    45 -> 251 [penwidth=2]
    46 -> 251 [penwidth=2]
    47 -> 251 [penwidth=2]
    48 -> 251 [penwidth=2]
    49 -> 252 [penwidth=2]
    50 -> 252 [penwidth=2]
    51 -> 252 [penwidth=2]
    52 -> 252 [penwidth=2]
    53 -> 252 [penwidth=2]
    54 -> 252 [penwidth=2]
    55 -> 252 [penwidth=2]
    56 -> 252 [penwidth=2]
    57 -> 252 [penwidth=2]
    58 -> 252 [penwidth=2]
    59 -> 252 [penwidth=2]
    60 -> 252 [penwidth=2]
    61 -> 252 [penwidth=2]
    62 -> 252 [penwidth=2]
    63 -> 252 [penwidth=2]
    64 -> 252 [penwidth=2]
    65 -> 252 [penwidth=2]
    66 -> 252 [penwidth=2]
    67 -> 252 [penwidth=2]
    68 -> 252 [penwidth=2]
    69 -> 252 [penwidth=2]
    70 -> 211 [penwidth=2]
    71 -> 211 [penwidth=2]
    72 -> 211 [penwidth=2]
    73 -> 211 [penwidth=2]
    74 -> 211 [penwidth=2]
    75 -> 211 [penwidth=2]
    76 -> 211 [penwidth=2]
    329 -> 211 [penwidth=2]
    330 -> 211 [penwidth=2]
    331 -> 211 [penwidth=2]
    332 -> 211 [penwidth=2]
    333 -> 211 [penwidth=2]
    334 -> 211 [penwidth=2]
    335 -> 211 [penwidth=2]
    336 -> 211 [penwidth=2]
    337 -> 211 [penwidth=2]
    338 -> 211 [penwidth=2]
    339 -> 211 [penwidth=2]
    340 -> 211 [penwidth=2]
    341 -> 211 [penwidth=2]
    342 -> 211 [penwidth=2]
    343 -> 211 [penwidth=2]
    344 -> 211 [penwidth=2]
    345 -> 211 [penwidth=2]
    346 -> 211 [penwidth=2]
    347 -> 211 [penwidth=2]
    348 -> 253 [penwidth=2]
    349 -> 253 [penwidth=2]
    350 -> 253 [penwidth=2]
    351 -> 253 [penwidth=2]
    352 -> 253 [penwidth=2]
    353 -> 253 [penwidth=2]
    354 -> 253 [penwidth=2]
    355 -> 253 [penwidth=2]
    356 -> 253 [penwidth=2]
    357 -> 253 [penwidth=2]
    358 -> 253 [penwidth=2]
    359 -> 253 [penwidth=2]
    360 -> 253 [penwidth=2]
    361 -> 212 [penwidth=2]
    362 -> 212 [penwidth=2]
    363 -> 212 [penwidth=2]
    364 -> 212 [penwidth=2]
    365 -> 212 [penwidth=2]
    366 -> 254 [penwidth=2]
    367 -> 254 [penwidth=2]
    368 -> 254 [penwidth=2]
    369 -> 254 [penwidth=2]
    370 -> 254 [penwidth=2]
    371 -> 254 [penwidth=2]
    372 -> 254 [penwidth=2]
    373 -> 254 [penwidth=2]
    374 -> 254 [penwidth=2]
    375 -> 254 [penwidth=2]
    376 -> 254 [penwidth=2]
    377 -> 254 [penwidth=2]
    378 -> 254 [penwidth=2]
    1 -> 254 [penwidth=2]
    379 -> 254 [penwidth=2]
    2 -> 254 [penwidth=2]
    380 -> 254 [penwidth=2]
    3 -> 254 [penwidth=2]
    381 -> 254 [penwidth=2]
    4 -> 213 [penwidth=2]
    382 -> 213 [penwidth=2]
    5 -> 213 [penwidth=2]
    383 -> 213 [penwidth=2]
    6 -> 213 [penwidth=2]
    384 -> 213 [penwidth=2]
    7 -> 255 [penwidth=2]
    385 -> 255 [penwidth=2]
    8 -> 255 [penwidth=2]
    386 -> 255 [penwidth=2]
    9 -> 255 [penwidth=2]
    387 -> 214 [penwidth=2]
    10 -> 214 [penwidth=2]
    388 -> 214 [penwidth=2]
    11 -> 214 [penwidth=2]
    389 -> 214 [penwidth=2]
    12 -> 214 [penwidth=2]
    390 -> 214 [penwidth=2]
    13 -> 256 [penwidth=2]
    391 -> 256 [penwidth=2]
    14 -> 256 [penwidth=2]
    392 -> 215 [penwidth=2]
    15 -> 215 [penwidth=2]
    393 -> 215 [penwidth=2]
    16 -> 215 [penwidth=2]
    394 -> 215 [penwidth=2]
    17 -> 215 [penwidth=2]
    395 -> 215 [penwidth=2]
    18 -> 215 [penwidth=2]
    396 -> 215 [penwidth=2]
    19 -> 215 [penwidth=2]
    397 -> 215 [penwidth=2]
    20 -> 215 [penwidth=2]
    398 -> 215 [penwidth=2]
    21 -> 215 [penwidth=2]
    399 -> 215 [penwidth=2]
    22 -> 215 [penwidth=2]
    23 -> 215 [penwidth=2]
    24 -> 215 [penwidth=2]
    25 -> 215 [penwidth=2]
    26 -> 215 [penwidth=2]
    27 -> 257 [penwidth=2]
    28 -> 257 [penwidth=2]
    29 -> 257 [penwidth=2]
    30 -> 257 [penwidth=2]
    31 -> 257 [penwidth=2]
    32 -> 257 [penwidth=2]
    33 -> 257 [penwidth=2]
    34 -> 257 [penwidth=2]
    287 -> 257 [penwidth=2]
    288 -> 257 [penwidth=2]
    289 -> 257 [penwidth=2]
    290 -> 257 [penwidth=2]
    291 -> 257 [penwidth=2]
    292 -> 257 [penwidth=2]
    293 -> 257 [penwidth=2]
    294 -> 257 [penwidth=2]
    295 -> 216 [penwidth=2]
    296 -> 216 [penwidth=2]
    297 -> 258 [penwidth=2]
    298 -> 258 [penwidth=2]
    299 -> 258 [penwidth=2]
    300 -> 258 [penwidth=2]
    301 -> 258 [penwidth=2]
    302 -> 258 [penwidth=2]
    303 -> 258 [penwidth=2]
    304 -> 258 [penwidth=2]
    305 -> 258 [penwidth=2]
    306 -> 217 [penwidth=2]
    307 -> 217 [penwidth=2]
    308 -> 217 [penwidth=2]
    309 -> 217 [penwidth=2]
    310 -> 217 [penwidth=2]
    311 -> 259 [penwidth=2]
    312 -> 259 [penwidth=2]
    313 -> 259 [penwidth=2]
    314 -> 259 [penwidth=2]
    315 -> 259 [penwidth=2]
    316 -> 259 [penwidth=2]
    317 -> 218 [penwidth=2]
    318 -> 218 [penwidth=2]
    319 -> 218 [penwidth=2]
    320 -> 218 [penwidth=2]
    321 -> 218 [penwidth=2]
    322 -> 218 [penwidth=2]
    323 -> 218 [penwidth=2]
    324 -> 218 [penwidth=2]
    325 -> 218 [penwidth=2]
    326 -> 218 [penwidth=2]
    327 -> 218 [penwidth=2]
    328 -> 218 [penwidth=2]
    256 -> 206 [penwidth=2]
    256 -> 246 [penwidth=2]
    256 -> 205 [penwidth=2]
    256 -> 207 [penwidth=2]
    257 -> 206 [penwidth=2]
    261 -> 205 [penwidth=2]
    261 -> 207 [penwidth=2]
    261 -> 247 [penwidth=2]
    221 -> 204 [penwidth=2]
    231 -> 205 [penwidth=2]
    231 -> 203 [penwidth=2]
    231 -> 248 [penwidth=2]
    273 -> 246 [penwidth=2]
    273 -> 205 [penwidth=2]
    273 -> 245 [penwidth=2]
    273 -> 203 [penwidth=2]
    279 -> 248 [penwidth=2]
    83 -> 247 [penwidth=2]
    174 -> 246 [penwidth=2]
    174 -> 248 [penwidth=2]
    174 -> 247 [penwidth=2]
    174 -> 203 [penwidth=2]
    174 -> 207 [penwidth=2]
    174 -> 205 [penwidth=2]
    97 -> 203 [penwidth=2]
    97 -> 248 [penwidth=2]
    97 -> 205 [penwidth=2]
    101 -> 203 [penwidth=2]
    101 -> 205 [penwidth=2]
    101 -> 245 [penwidth=2]
    101 -> 204 [penwidth=2]
    101 -> 247 [penwidth=2]
    189 -> 205 [penwidth=2]
    189 -> 247 [penwidth=2]
    189 -> 246 [penwidth=2]
    193 -> 280 [penwidth=2]
    193 -> 103 [penwidth=2]
    193 -> 167 [penwidth=2]
    193 -> 214 [penwidth=2]
    193 -> 265 [penwidth=2]
    193 -> 187 [penwidth=2]
    193 -> 262 [penwidth=2]
    193 -> 94 [penwidth=2]
    193 -> 179 [penwidth=2]
    193 -> 219 [penwidth=2]
    193 -> 174 [penwidth=2]
    193 -> 190 [penwidth=2]
    193 -> 185 [penwidth=2]
    193 -> 90 [penwidth=2]
    193 -> 267 [penwidth=2]
    193 -> 172 [penwidth=2]
    193 -> 234 [penwidth=2]
    193 -> 209 [penwidth=2]
    193 -> 235 [penwidth=2]
    193 -> 272 [penwidth=2]
    193 -> 285 [penwidth=2]
    193 -> 165 [penwidth=2]
    193 -> 85 [penwidth=2]
    193 -> 168 [penwidth=2]
    193 -> 256 [penwidth=2]
    193 -> 92 [penwidth=2]
    193 -> 162 [penwidth=2]
    193 -> 81 [penwidth=2]
    193 -> 84 [penwidth=2]
    193 -> 79 [penwidth=2]
    193 -> 87 [penwidth=2]
    193 -> 279 [penwidth=2]
    193 -> 223 [penwidth=2]
    111 -> 241 [penwidth=2]
    111 -> 186 [penwidth=2]
    111 -> 80 [penwidth=2]
    111 -> 161 [penwidth=2]
    111 -> 240 [penwidth=2]
    111 -> 164 [penwidth=2]
    111 -> 230 [penwidth=2]
    111 -> 189 [penwidth=2]
    111 -> 264 [penwidth=2]
    111 -> 268 [penwidth=2]
    111 -> 258 [penwidth=2]
    111 -> 239 [penwidth=2]
    111 -> 82 [penwidth=2]
    111 -> 190 [penwidth=2]
    111 -> 265 [penwidth=2]
    111 -> 92 [penwidth=2]
    111 -> 276 [penwidth=2]
    111 -> 180 [penwidth=2]
    111 -> 171 [penwidth=2]
    111 -> 257 [penwidth=2]
    111 -> 89 [penwidth=2]
    111 -> 260 [penwidth=2]
    111 -> 283 [penwidth=2]
    111 -> 244 [penwidth=2]
    111 -> 284 [penwidth=2]
    198 -> 216 [penwidth=2]
    198 -> 284 [penwidth=2]
    198 -> 176 [penwidth=2]
    198 -> 263 [penwidth=2]
    198 -> 172 [penwidth=2]
    198 -> 272 [penwidth=2]
    198 -> 162 [penwidth=2]
    198 -> 80 [penwidth=2]
    198 -> 94 [penwidth=2]
    198 -> 82 [penwidth=2]
    198 -> 238 [penwidth=2]
    198 -> 92 [penwidth=2]
    198 -> 222 [penwidth=2]
    198 -> 241 [penwidth=2]
    198 -> 266 [penwidth=2]
    198 -> 95 [penwidth=2]
    198 -> 280 [penwidth=2]
    198 -> 179 [penwidth=2]
    198 -> 244 [penwidth=2]
    198 -> 97 [penwidth=2]
    198 -> 180 [penwidth=2]
    201 -> 263 [penwidth=2]
    201 -> 163 [penwidth=2]
    201 -> 103 [penwidth=2]
    201 -> 210 [penwidth=2]
    201 -> 90 [penwidth=2]
    201 -> 95 [penwidth=2]
    201 -> 256 [penwidth=2]
    201 -> 243 [penwidth=2]
    201 -> 264 [penwidth=2]
    201 -> 184 [penwidth=2]
    201 -> 271 [penwidth=2]
    201 -> 176 [penwidth=2]
    201 -> 104 [penwidth=2]
    201 -> 81 [penwidth=2]
    201 -> 96 [penwidth=2]
    201 -> 275 [penwidth=2]
    201 -> 239 [penwidth=2]
    201 -> 223 [penwidth=2]
    201 -> 209 [penwidth=2]
    131 -> 262 [penwidth=2]
    131 -> 83 [penwidth=2]
    131 -> 225 [penwidth=2]
    131 -> 90 [penwidth=2]
    131 -> 266 [penwidth=2]
    131 -> 211 [penwidth=2]
    131 -> 164 [penwidth=2]
    131 -> 217 [penwidth=2]
    131 -> 166 [penwidth=2]
    131 -> 268 [penwidth=2]
    131 -> 98 [penwidth=2]
    131 -> 183 [penwidth=2]
    131 -> 103 [penwidth=2]
    131 -> 260 [penwidth=2]
    131 -> 249 [penwidth=2]
    131 -> 230 [penwidth=2]
    131 -> 182 [penwidth=2]
    131 -> 272 [penwidth=2]
    131 -> 271 [penwidth=2]
    131 -> 263 [penwidth=2]
    131 -> 256 [penwidth=2]
    131 -> 104 [penwidth=2]
    131 -> 77 [penwidth=2]
    131 -> 276 [penwidth=2]
    131 -> 161 [penwidth=2]
    131 -> 285 [penwidth=2]
    131 -> 215 [penwidth=2]
    131 -> 244 [penwidth=2]
    131 -> 96 [penwidth=2]
    131 -> 216 [penwidth=2]
    131 -> 238 [penwidth=2]
    131 -> 274 [penwidth=2]
    131 -> 99 [penwidth=2]
    131 -> 264 [penwidth=2]
    131 -> 162 [penwidth=2]
    131 -> 173 [penwidth=2]
    131 -> 226 [penwidth=2]
    131 -> 177 [penwidth=2]
    131 -> 178 [penwidth=2]
    131 -> 252 [penwidth=2]
    131 -> 220 [penwidth=2]
    131 -> 212 [penwidth=2]
    131 -> 174 [penwidth=2]
    131 -> 259 [penwidth=2]
    131 -> 273 [penwidth=2]
    131 -> 267 [penwidth=2]
    131 -> 81 [penwidth=2]
    131 -> 236 [penwidth=2]
    131 -> 84 [penwidth=2]
    131 -> 175 [penwidth=2]
    131 -> 94 [penwidth=2]
    131 -> 243 [penwidth=2]
    131 -> 101 [penwidth=2]
    131 -> 210 [penwidth=2]
    131 -> 218 [penwidth=2]
    131 -> 179 [penwidth=2]
    131 -> 188 [penwidth=2]
    131 -> 255 [penwidth=2]
    131 -> 191 [penwidth=2]
    131 -> 229 [penwidth=2]
    131 -> 280 [penwidth=2]
    131 -> 240 [penwidth=2]
    131 -> 214 [penwidth=2]
    131 -> 168 [penwidth=2]
    131 -> 95 [penwidth=2]
    131 -> 185 [penwidth=2]
    131 -> 167 [penwidth=2]
    131 -> 79 [penwidth=2]
    131 -> 208 [penwidth=2]
    131 -> 235 [penwidth=2]
    131 -> 163 [penwidth=2]
    131 -> 82 [penwidth=2]
    131 -> 209 [penwidth=2]
    131 -> 107 [penwidth=2]
    131 -> 231 [penwidth=2]
    131 -> 228 [penwidth=2]
    131 -> 257 [penwidth=2]
    131 -> 223 [penwidth=2]
    131 -> 282 [penwidth=2]
    131 -> 190 [penwidth=2]
    131 -> 283 [penwidth=2]
    131 -> 233 [penwidth=2]
    131 -> 242 [penwidth=2]
    131 -> 184 [penwidth=2]
    131 -> 189 [penwidth=2]
    131 -> 251 [penwidth=2]
    131 -> 88 [penwidth=2]
    131 -> 93 [penwidth=2]
    131 -> 269 [penwidth=2]
    131 -> 106 [penwidth=2]
    131 -> 102 [penwidth=2]
    131 -> 234 [penwidth=2]
    131 -> 224 [penwidth=2]
    131 -> 270 [penwidth=2]
    131 -> 91 [penwidth=2]
    131 -> 279 [penwidth=2]
    131 -> 105 [penwidth=2]
    131 -> 187 [penwidth=2]
    131 -> 286 [penwidth=2]
    131 -> 186 [penwidth=2]
    131 -> 239 [penwidth=2]
    131 -> 277 [penwidth=2]
    131 -> 221 [penwidth=2]
    141 -> 98 [penwidth=2]
    141 -> 77 [penwidth=2]
    141 -> 190 [penwidth=2]
    141 -> 229 [penwidth=2]
    141 -> 165 [penwidth=2]
    141 -> 209 [penwidth=2]
    141 -> 176 [penwidth=2]
    141 -> 106 [penwidth=2]
    141 -> 182 [penwidth=2]
    141 -> 249 [penwidth=2]
    141 -> 89 [penwidth=2]
    141 -> 230 [penwidth=2]
    141 -> 286 [penwidth=2]
    141 -> 268 [penwidth=2]
    141 -> 80 [penwidth=2]
    141 -> 271 [penwidth=2]
    141 -> 280 [penwidth=2]
    141 -> 234 [penwidth=2]
    141 -> 161 [penwidth=2]
    141 -> 105 [penwidth=2]
    141 -> 169 [penwidth=2]
    141 -> 263 [penwidth=2]
    141 -> 244 [penwidth=2]
    141 -> 216 [penwidth=2]
    141 -> 81 [penwidth=2]
    141 -> 78 [penwidth=2]
    141 -> 79 [penwidth=2]
    141 -> 254 [penwidth=2]
    141 -> 278 [penwidth=2]
    141 -> 232 [penwidth=2]
    141 -> 162 [penwidth=2]
    141 -> 262 [penwidth=2]
    141 -> 224 [penwidth=2]
    141 -> 175 [penwidth=2]
    141 -> 281 [penwidth=2]
    141 -> 87 [penwidth=2]
    141 -> 180 [penwidth=2]
    141 -> 183 [penwidth=2]
    141 -> 191 [penwidth=2]
    141 -> 217 [penwidth=2]
    141 -> 219 [penwidth=2]
    141 -> 101 [penwidth=2]
    141 -> 276 [penwidth=2]
    141 -> 236 [penwidth=2]
    141 -> 225 [penwidth=2]
    141 -> 212 [penwidth=2]
    141 -> 107 [penwidth=2]
    141 -> 170 [penwidth=2]
    141 -> 270 [penwidth=2]
    141 -> 103 [penwidth=2]
    141 -> 208 [penwidth=2]
    141 -> 214 [penwidth=2]
    141 -> 186 [penwidth=2]
    141 -> 83 [penwidth=2]
    141 -> 253 [penwidth=2]
    141 -> 86 [penwidth=2]
    141 -> 88 [penwidth=2]
    141 -> 243 [penwidth=2]
    141 -> 99 [penwidth=2]
    141 -> 252 [penwidth=2]
    141 -> 221 [penwidth=2]
    141 -> 227 [penwidth=2]
    141 -> 173 [penwidth=2]
    141 -> 181 [penwidth=2]
    141 -> 97 [penwidth=2]
    141 -> 242 [penwidth=2]
    141 -> 177 [penwidth=2]
    141 -> 185 [penwidth=2]
    141 -> 215 [penwidth=2]
    141 -> 174 [penwidth=2]
    141 -> 184 [penwidth=2]
    141 -> 233 [penwidth=2]
    141 -> 178 [penwidth=2]
    141 -> 285 [penwidth=2]
    141 -> 239 [penwidth=2]
    141 -> 241 [penwidth=2]
    141 -> 187 [penwidth=2]
    141 -> 168 [penwidth=2]
    141 -> 240 [penwidth=2]
    141 -> 172 [penwidth=2]
    141 -> 257 [penwidth=2]
    141 -> 282 [penwidth=2]
    141 -> 267 [penwidth=2]
    141 -> 82 [penwidth=2]
    141 -> 223 [penwidth=2]
    141 -> 266 [penwidth=2]
    141 -> 231 [penwidth=2]
    141 -> 259 [penwidth=2]
    141 -> 189 [penwidth=2]
    141 -> 258 [penwidth=2]
    141 -> 235 [penwidth=2]
    141 -> 226 [penwidth=2]
    141 -> 171 [penwidth=2]
    141 -> 272 [penwidth=2]
    141 -> 264 [penwidth=2]
    141 -> 228 [penwidth=2]
    141 -> 167 [penwidth=2]
    141 -> 104 [penwidth=2]
    141 -> 94 [penwidth=2]
    141 -> 251 [penwidth=2]
    141 -> 260 [penwidth=2]
    141 -> 277 [penwidth=2]
    35 -> 281 [penwidth=2]
    35 -> 219 [penwidth=2]
    35 -> 242 [penwidth=2]
    35 -> 262 [penwidth=2]
    35 -> 165 [penwidth=2]
    35 -> 94 [penwidth=2]
    35 -> 190 [penwidth=2]
    35 -> 259 [penwidth=2]
    35 -> 175 [penwidth=2]
    35 -> 164 [penwidth=2]
    35 -> 81 [penwidth=2]
    35 -> 213 [penwidth=2]
    35 -> 181 [penwidth=2]
    35 -> 169 [penwidth=2]
    35 -> 231 [penwidth=2]
    35 -> 187 [penwidth=2]
    35 -> 79 [penwidth=2]
    35 -> 102 [penwidth=2]
    35 -> 274 [penwidth=2]
    35 -> 239 [penwidth=2]
    35 -> 188 [penwidth=2]
    35 -> 95 [penwidth=2]
    35 -> 167 [penwidth=2]
    35 -> 210 [penwidth=2]
    35 -> 220 [penwidth=2]
    35 -> 89 [penwidth=2]
    35 -> 177 [penwidth=2]
    35 -> 284 [penwidth=2]
    35 -> 252 [penwidth=2]
    35 -> 249 [penwidth=2]
    35 -> 263 [penwidth=2]
    35 -> 173 [penwidth=2]
    35 -> 93 [penwidth=2]
    35 -> 172 [penwidth=2]
    35 -> 276 [penwidth=2]
    35 -> 257 [penwidth=2]
    35 -> 223 [penwidth=2]
    35 -> 265 [penwidth=2]
    35 -> 286 [penwidth=2]
    35 -> 183 [penwidth=2]
    35 -> 260 [penwidth=2]
    35 -> 221 [penwidth=2]
    35 -> 166 [penwidth=2]
    35 -> 208 [penwidth=2]
    35 -> 170 [penwidth=2]
    35 -> 97 [penwidth=2]
    35 -> 98 [penwidth=2]
    35 -> 280 [penwidth=2]
    35 -> 256 [penwidth=2]
    35 -> 233 [penwidth=2]
    35 -> 178 [penwidth=2]
    35 -> 217 [penwidth=2]
    35 -> 186 [penwidth=2]
    35 -> 100 [penwidth=2]
    35 -> 258 [penwidth=2]
    35 -> 209 [penwidth=2]
    35 -> 279 [penwidth=2]
    35 -> 266 [penwidth=2]
    35 -> 282 [penwidth=2]
    35 -> 267 [penwidth=2]
    35 -> 87 [penwidth=2]
    35 -> 215 [penwidth=2]
    35 -> 268 [penwidth=2]
    35 -> 161 [penwidth=2]
    35 -> 78 [penwidth=2]
    35 -> 162 [penwidth=2]
    35 -> 163 [penwidth=2]
    35 -> 222 [penwidth=2]
    35 -> 83 [penwidth=2]
    35 -> 255 [penwidth=2]
    35 -> 285 [penwidth=2]
    35 -> 230 [penwidth=2]
    35 -> 240 [penwidth=2]
    35 -> 228 [penwidth=2]
    35 -> 278 [penwidth=2]
    35 -> 107 [penwidth=2]
    35 -> 238 [penwidth=2]
    35 -> 232 [penwidth=2]
    35 -> 191 [penwidth=2]
    35 -> 92 [penwidth=2]
    35 -> 168 [penwidth=2]
    35 -> 271 [penwidth=2]
    35 -> 179 [penwidth=2]
    35 -> 91 [penwidth=2]
    35 -> 250 [penwidth=2]
    35 -> 235 [penwidth=2]
    35 -> 82 [penwidth=2]
    35 -> 90 [penwidth=2]
    35 -> 243 [penwidth=2]
    35 -> 189 [penwidth=2]
    35 -> 101 [penwidth=2]
    35 -> 234 [penwidth=2]
    35 -> 184 [penwidth=2]
    35 -> 214 [penwidth=2]
    35 -> 99 [penwidth=2]
    35 -> 226 [penwidth=2]
    35 -> 212 [penwidth=2]
    35 -> 273 [penwidth=2]
    35 -> 80 [penwidth=2]
    35 -> 283 [penwidth=2]
    35 -> 261 [penwidth=2]
    35 -> 254 [penwidth=2]
    35 -> 84 [penwidth=2]
    35 -> 269 [penwidth=2]
    35 -> 96 [penwidth=2]
    35 -> 185 [penwidth=2]
    35 -> 241 [penwidth=2]
    35 -> 105 [penwidth=2]
    35 -> 264 [penwidth=2]
    35 -> 77 [penwidth=2]
    35 -> 171 [penwidth=2]
    35 -> 88 [penwidth=2]
    35 -> 229 [penwidth=2]
    35 -> 182 [penwidth=2]
    35 -> 104 [penwidth=2]
    35 -> 211 [penwidth=2]
    35 -> 236 [penwidth=2]
    44 -> 254 [penwidth=2]
    44 -> 165 [penwidth=2]
    44 -> 93 [penwidth=2]
    44 -> 167 [penwidth=2]
    44 -> 85 [penwidth=2]
    44 -> 169 [penwidth=2]
    44 -> 237 [penwidth=2]
    44 -> 180 [penwidth=2]
    44 -> 282 [penwidth=2]
    44 -> 186 [penwidth=2]
    44 -> 235 [penwidth=2]
    44 -> 185 [penwidth=2]
    44 -> 161 [penwidth=2]
    44 -> 268 [penwidth=2]
    44 -> 100 [penwidth=2]
    44 -> 271 [penwidth=2]
    44 -> 230 [penwidth=2]
    44 -> 208 [penwidth=2]
    44 -> 98 [penwidth=2]
    44 -> 226 [penwidth=2]
    44 -> 177 [penwidth=2]
    44 -> 84 [penwidth=2]
    44 -> 82 [penwidth=2]
    44 -> 80 [penwidth=2]
    44 -> 270 [penwidth=2]
    44 -> 105 [penwidth=2]
    44 -> 233 [penwidth=2]
    44 -> 225 [penwidth=2]
    44 -> 238 [penwidth=2]
    44 -> 189 [penwidth=2]
    44 -> 106 [penwidth=2]
    44 -> 214 [penwidth=2]
    44 -> 168 [penwidth=2]
    44 -> 217 [penwidth=2]
    44 -> 267 [penwidth=2]
    44 -> 95 [penwidth=2]
    44 -> 163 [penwidth=2]
    44 -> 183 [penwidth=2]
    44 -> 188 [penwidth=2]
    44 -> 171 [penwidth=2]
    44 -> 252 [penwidth=2]
    46 -> 219 [penwidth=2]
    46 -> 173 [penwidth=2]
    46 -> 167 [penwidth=2]
    46 -> 215 [penwidth=2]
    46 -> 281 [penwidth=2]
    46 -> 265 [penwidth=2]
    46 -> 280 [penwidth=2]
    46 -> 216 [penwidth=2]
    46 -> 214 [penwidth=2]
    46 -> 238 [penwidth=2]
    46 -> 178 [penwidth=2]
    51 -> 237 [penwidth=2]
    51 -> 275 [penwidth=2]
    51 -> 260 [penwidth=2]
    51 -> 267 [penwidth=2]
    51 -> 261 [penwidth=2]
    51 -> 259 [penwidth=2]
    51 -> 164 [penwidth=2]
    51 -> 218 [penwidth=2]
    51 -> 171 [penwidth=2]
    51 -> 211 [penwidth=2]
    51 -> 216 [penwidth=2]
    51 -> 217 [penwidth=2]
    51 -> 214 [penwidth=2]
    51 -> 174 [penwidth=2]
    51 -> 268 [penwidth=2]
    51 -> 77 [penwidth=2]
    51 -> 167 [penwidth=2]
    51 -> 266 [penwidth=2]
    51 -> 90 [penwidth=2]
    51 -> 191 [penwidth=2]
    51 -> 243 [penwidth=2]
    51 -> 183 [penwidth=2]
    51 -> 258 [penwidth=2]
    51 -> 286 [penwidth=2]
    51 -> 89 [penwidth=2]
    51 -> 103 [penwidth=2]
    51 -> 242 [penwidth=2]
    51 -> 105 [penwidth=2]
    51 -> 272 [penwidth=2]
    51 -> 257 [penwidth=2]
    51 -> 163 [penwidth=2]
    51 -> 278 [penwidth=2]
    51 -> 264 [penwidth=2]
    51 -> 190 [penwidth=2]
    51 -> 210 [penwidth=2]
    51 -> 219 [penwidth=2]
    51 -> 100 [penwidth=2]
    51 -> 161 [penwidth=2]
    51 -> 177 [penwidth=2]
    51 -> 215 [penwidth=2]
    51 -> 254 [penwidth=2]
    51 -> 82 [penwidth=2]
    51 -> 79 [penwidth=2]
    51 -> 165 [penwidth=2]
    51 -> 280 [penwidth=2]
    51 -> 166 [penwidth=2]
    51 -> 228 [penwidth=2]
    51 -> 269 [penwidth=2]
    51 -> 221 [penwidth=2]
    51 -> 185 [penwidth=2]
    51 -> 78 [penwidth=2]
    51 -> 181 [penwidth=2]
    51 -> 168 [penwidth=2]
    51 -> 244 [penwidth=2]
    51 -> 180 [penwidth=2]
    51 -> 104 [penwidth=2]
    51 -> 256 [penwidth=2]
    51 -> 273 [penwidth=2]
    51 -> 241 [penwidth=2]
    51 -> 188 [penwidth=2]
    51 -> 220 [penwidth=2]
    51 -> 92 [penwidth=2]
    51 -> 271 [penwidth=2]
    51 -> 173 [penwidth=2]
    51 -> 208 [penwidth=2]
    51 -> 80 [penwidth=2]
    51 -> 84 [penwidth=2]
    51 -> 226 [penwidth=2]
    51 -> 107 [penwidth=2]
    53 -> 262 [penwidth=2]
    53 -> 84 [penwidth=2]
    53 -> 177 [penwidth=2]
    53 -> 263 [penwidth=2]
    53 -> 105 [penwidth=2]
    53 -> 267 [penwidth=2]
    53 -> 249 [penwidth=2]
    53 -> 286 [penwidth=2]
    53 -> 89 [penwidth=2]
    53 -> 226 [penwidth=2]
    53 -> 269 [penwidth=2]
    53 -> 176 [penwidth=2]
    53 -> 233 [penwidth=2]
    53 -> 282 [penwidth=2]
    53 -> 236 [penwidth=2]
    53 -> 208 [penwidth=2]
    53 -> 238 [penwidth=2]
    53 -> 169 [penwidth=2]
    53 -> 251 [penwidth=2]
    53 -> 161 [penwidth=2]
    53 -> 93 [penwidth=2]
    53 -> 265 [penwidth=2]
    53 -> 278 [penwidth=2]
    53 -> 164 [penwidth=2]
    53 -> 80 [penwidth=2]
    53 -> 243 [penwidth=2]
    53 -> 188 [penwidth=2]
    53 -> 214 [penwidth=2]
    53 -> 264 [penwidth=2]
    53 -> 173 [penwidth=2]
    53 -> 83 [penwidth=2]
    53 -> 78 [penwidth=2]
    53 -> 260 [penwidth=2]
    53 -> 162 [penwidth=2]
    53 -> 97 [penwidth=2]
    53 -> 256 [penwidth=2]
    53 -> 170 [penwidth=2]
    53 -> 79 [penwidth=2]
    53 -> 270 [penwidth=2]
    53 -> 77 [penwidth=2]
    53 -> 218 [penwidth=2]
    53 -> 231 [penwidth=2]
    53 -> 227 [penwidth=2]
    53 -> 87 [penwidth=2]
    53 -> 209 [penwidth=2]
    53 -> 213 [penwidth=2]
    53 -> 99 [penwidth=2]
    53 -> 279 [penwidth=2]
    53 -> 239 [penwidth=2]
    53 -> 90 [penwidth=2]
    53 -> 210 [penwidth=2]
    53 -> 228 [penwidth=2]
    53 -> 272 [penwidth=2]
    53 -> 168 [penwidth=2]
    53 -> 281 [penwidth=2]
    53 -> 242 [penwidth=2]
    53 -> 211 [penwidth=2]
    53 -> 230 [penwidth=2]
    53 -> 172 [penwidth=2]
    53 -> 181 [penwidth=2]
    53 -> 271 [penwidth=2]
    53 -> 88 [penwidth=2]
    53 -> 212 [penwidth=2]
    53 -> 184 [penwidth=2]
    53 -> 101 [penwidth=2]
    53 -> 190 [penwidth=2]
    53 -> 96 [penwidth=2]
    53 -> 106 [penwidth=2]
    53 -> 275 [penwidth=2]
    53 -> 244 [penwidth=2]
    53 -> 187 [penwidth=2]
    53 -> 276 [penwidth=2]
    53 -> 266 [penwidth=2]
    53 -> 255 [penwidth=2]
    53 -> 220 [penwidth=2]
    53 -> 235 [penwidth=2]
    58 -> 173 [penwidth=2]
    58 -> 221 [penwidth=2]
    58 -> 167 [penwidth=2]
    58 -> 282 [penwidth=2]
    58 -> 79 [penwidth=2]
    58 -> 106 [penwidth=2]
    58 -> 249 [penwidth=2]
    58 -> 233 [penwidth=2]
    58 -> 227 [penwidth=2]
    58 -> 212 [penwidth=2]
    58 -> 182 [penwidth=2]
    58 -> 277 [penwidth=2]
    58 -> 97 [penwidth=2]
    58 -> 253 [penwidth=2]
    58 -> 220 [penwidth=2]
    58 -> 174 [penwidth=2]
    58 -> 234 [penwidth=2]
    58 -> 185 [penwidth=2]
    58 -> 283 [penwidth=2]
    58 -> 188 [penwidth=2]
    58 -> 93 [penwidth=2]
    58 -> 78 [penwidth=2]
    58 -> 244 [penwidth=2]
    58 -> 180 [penwidth=2]
    58 -> 230 [penwidth=2]
    58 -> 268 [penwidth=2]
    58 -> 266 [penwidth=2]
    58 -> 286 [penwidth=2]
    58 -> 231 [penwidth=2]
    58 -> 88 [penwidth=2]
    58 -> 239 [penwidth=2]
    58 -> 89 [penwidth=2]
    58 -> 170 [penwidth=2]
    58 -> 210 [penwidth=2]
    58 -> 162 [penwidth=2]
    58 -> 269 [penwidth=2]
    58 -> 226 [penwidth=2]
    58 -> 280 [penwidth=2]
    58 -> 251 [penwidth=2]
    58 -> 95 [penwidth=2]
    58 -> 279 [penwidth=2]
    58 -> 161 [penwidth=2]
    58 -> 85 [penwidth=2]
    58 -> 175 [penwidth=2]
    58 -> 265 [penwidth=2]
    58 -> 237 [penwidth=2]
    58 -> 165 [penwidth=2]
    58 -> 236 [penwidth=2]
    58 -> 235 [penwidth=2]
    58 -> 276 [penwidth=2]
    58 -> 250 [penwidth=2]
    58 -> 102 [penwidth=2]
    58 -> 169 [penwidth=2]
    58 -> 187 [penwidth=2]
    58 -> 261 [penwidth=2]
    58 -> 215 [penwidth=2]
    58 -> 186 [penwidth=2]
    58 -> 263 [penwidth=2]
    58 -> 87 [penwidth=2]
    58 -> 81 [penwidth=2]
    58 -> 166 [penwidth=2]
    58 -> 82 [penwidth=2]
    58 -> 223 [penwidth=2]
    58 -> 214 [penwidth=2]
    58 -> 217 [penwidth=2]
    58 -> 225 [penwidth=2]
    58 -> 240 [penwidth=2]
    58 -> 271 [penwidth=2]
    58 -> 208 [penwidth=2]
    58 -> 267 [penwidth=2]
    58 -> 80 [penwidth=2]
    58 -> 272 [penwidth=2]
    58 -> 243 [penwidth=2]
    58 -> 164 [penwidth=2]
    58 -> 91 [penwidth=2]
    58 -> 179 [penwidth=2]
    58 -> 209 [penwidth=2]
    58 -> 216 [penwidth=2]
    58 -> 224 [penwidth=2]
    58 -> 256 [penwidth=2]
    58 -> 222 [penwidth=2]
    58 -> 77 [penwidth=2]
    58 -> 176 [penwidth=2]
    58 -> 241 [penwidth=2]
    58 -> 181 [penwidth=2]
    58 -> 100 [penwidth=2]
    58 -> 104 [penwidth=2]
    58 -> 177 [penwidth=2]
    58 -> 84 [penwidth=2]
    58 -> 163 [penwidth=2]
    58 -> 90 [penwidth=2]
    58 -> 92 [penwidth=2]
    58 -> 218 [penwidth=2]
    58 -> 284 [penwidth=2]
    58 -> 255 [penwidth=2]
    58 -> 191 [penwidth=2]
    58 -> 94 [penwidth=2]
    58 -> 229 [penwidth=2]
    58 -> 262 [penwidth=2]
    58 -> 190 [penwidth=2]
    58 -> 178 [penwidth=2]
    58 -> 232 [penwidth=2]
    58 -> 278 [penwidth=2]
    58 -> 168 [penwidth=2]
    58 -> 260 [penwidth=2]
    58 -> 264 [penwidth=2]
    58 -> 183 [penwidth=2]
    58 -> 213 [penwidth=2]
    58 -> 281 [penwidth=2]
    58 -> 270 [penwidth=2]
    58 -> 254 [penwidth=2]
    58 -> 96 [penwidth=2]
    58 -> 105 [penwidth=2]
    58 -> 285 [penwidth=2]
    58 -> 99 [penwidth=2]
    58 -> 274 [penwidth=2]
    58 -> 257 [penwidth=2]
    58 -> 275 [penwidth=2]
    334 -> 280 [penwidth=2]
    334 -> 176 [penwidth=2]
    334 -> 164 [penwidth=2]
    334 -> 209 [penwidth=2]
    334 -> 178 [penwidth=2]
    334 -> 219 [penwidth=2]
    334 -> 266 [penwidth=2]
    334 -> 254 [penwidth=2]
    334 -> 270 [penwidth=2]
    334 -> 173 [penwidth=2]
    334 -> 222 [penwidth=2]
    334 -> 284 [penwidth=2]
    334 -> 104 [penwidth=2]
    334 -> 163 [penwidth=2]
    334 -> 261 [penwidth=2]
    334 -> 215 [penwidth=2]
    334 -> 190 [penwidth=2]
    334 -> 240 [penwidth=2]
    334 -> 252 [penwidth=2]
    334 -> 82 [penwidth=2]
    334 -> 259 [penwidth=2]
    334 -> 243 [penwidth=2]
    334 -> 260 [penwidth=2]
    357 -> 91 [penwidth=2]
    357 -> 82 [penwidth=2]
    357 -> 272 [penwidth=2]
    357 -> 242 [penwidth=2]
    357 -> 88 [penwidth=2]
    357 -> 217 [penwidth=2]
    357 -> 185 [penwidth=2]
    357 -> 216 [penwidth=2]
    357 -> 220 [penwidth=2]
    357 -> 263 [penwidth=2]
    357 -> 170 [penwidth=2]
    357 -> 186 [penwidth=2]
    357 -> 87 [penwidth=2]
    357 -> 255 [penwidth=2]
    357 -> 177 [penwidth=2]
    357 -> 183 [penwidth=2]
    357 -> 168 [penwidth=2]
    357 -> 211 [penwidth=2]
    357 -> 161 [penwidth=2]
    357 -> 179 [penwidth=2]
    357 -> 81 [penwidth=2]
    359 -> 97 [penwidth=2]
    359 -> 233 [penwidth=2]
    359 -> 211 [penwidth=2]
    359 -> 212 [penwidth=2]
    359 -> 181 [penwidth=2]
    359 -> 170 [penwidth=2]
    359 -> 250 [penwidth=2]
    359 -> 161 [penwidth=2]
    359 -> 209 [penwidth=2]
    359 -> 225 [penwidth=2]
    359 -> 187 [penwidth=2]
    359 -> 185 [penwidth=2]
    359 -> 278 [penwidth=2]
    359 -> 264 [penwidth=2]
    359 -> 274 [penwidth=2]
    359 -> 277 [penwidth=2]
    359 -> 223 [penwidth=2]
    359 -> 101 [penwidth=2]
    359 -> 98 [penwidth=2]
    359 -> 249 [penwidth=2]
    359 -> 261 [penwidth=2]
    359 -> 254 [penwidth=2]
    359 -> 234 [penwidth=2]
    359 -> 256 [penwidth=2]
    359 -> 184 [penwidth=2]
    362 -> 103 [penwidth=2]
    362 -> 257 [penwidth=2]
    362 -> 104 [penwidth=2]
    362 -> 162 [penwidth=2]
    362 -> 218 [penwidth=2]
    362 -> 78 [penwidth=2]
    362 -> 260 [penwidth=2]
    362 -> 268 [penwidth=2]
    362 -> 262 [penwidth=2]
    362 -> 80 [penwidth=2]
    362 -> 267 [penwidth=2]
    362 -> 234 [penwidth=2]
    362 -> 98 [penwidth=2]
    362 -> 172 [penwidth=2]
    362 -> 94 [penwidth=2]
    362 -> 230 [penwidth=2]
    362 -> 88 [penwidth=2]
    362 -> 84 [penwidth=2]
    362 -> 92 [penwidth=2]
    362 -> 269 [penwidth=2]
    362 -> 213 [penwidth=2]
    362 -> 214 [penwidth=2]
    362 -> 279 [penwidth=2]
    362 -> 177 [penwidth=2]
    362 -> 101 [penwidth=2]
    362 -> 90 [penwidth=2]
    362 -> 278 [penwidth=2]
    362 -> 215 [penwidth=2]
    362 -> 256 [penwidth=2]
    362 -> 283 [penwidth=2]
    362 -> 225 [penwidth=2]
    362 -> 107 [penwidth=2]
    362 -> 222 [penwidth=2]
    362 -> 81 [penwidth=2]
    362 -> 249 [penwidth=2]
    362 -> 232 [penwidth=2]
    362 -> 85 [penwidth=2]
    362 -> 174 [penwidth=2]
    362 -> 239 [penwidth=2]
    362 -> 96 [penwidth=2]
    362 -> 185 [penwidth=2]
    362 -> 187 [penwidth=2]
    362 -> 259 [penwidth=2]
    362 -> 180 [penwidth=2]
    362 -> 191 [penwidth=2]
    362 -> 273 [penwidth=2]
    362 -> 163 [penwidth=2]
    362 -> 220 [penwidth=2]
    362 -> 263 [penwidth=2]
    362 -> 91 [penwidth=2]
    362 -> 282 [penwidth=2]
    362 -> 169 [penwidth=2]
    362 -> 242 [penwidth=2]
    362 -> 93 [penwidth=2]
    362 -> 183 [penwidth=2]
    362 -> 228 [penwidth=2]
    362 -> 235 [penwidth=2]
    362 -> 265 [penwidth=2]
    362 -> 284 [penwidth=2]
    362 -> 189 [penwidth=2]
    362 -> 258 [penwidth=2]
    362 -> 272 [penwidth=2]
    362 -> 181 [penwidth=2]
    362 -> 173 [penwidth=2]
    362 -> 77 [penwidth=2]
    362 -> 161 [penwidth=2]
    362 -> 285 [penwidth=2]
    362 -> 95 [penwidth=2]
    362 -> 89 [penwidth=2]
    362 -> 236 [penwidth=2]
    362 -> 274 [penwidth=2]
    362 -> 219 [penwidth=2]
    362 -> 280 [penwidth=2]
    362 -> 270 [penwidth=2]
    362 -> 166 [penwidth=2]
    362 -> 105 [penwidth=2]
    362 -> 227 [penwidth=2]
    362 -> 171 [penwidth=2]
    362 -> 86 [penwidth=2]
    362 -> 241 [penwidth=2]
    362 -> 82 [penwidth=2]
    362 -> 164 [penwidth=2]
    362 -> 251 [penwidth=2]
    362 -> 210 [penwidth=2]
    362 -> 240 [penwidth=2]
    362 -> 167 [penwidth=2]
    362 -> 190 [penwidth=2]
    362 -> 87 [penwidth=2]
    362 -> 226 [penwidth=2]
    362 -> 250 [penwidth=2]
    362 -> 106 [penwidth=2]
    362 -> 231 [penwidth=2]
    362 -> 266 [penwidth=2]
    362 -> 182 [penwidth=2]
    362 -> 209 [penwidth=2]
    362 -> 165 [penwidth=2]
    362 -> 184 [penwidth=2]
    362 -> 244 [penwidth=2]
    362 -> 281 [penwidth=2]
    362 -> 175 [penwidth=2]
    362 -> 83 [penwidth=2]
    372 -> 209 [penwidth=2]
    372 -> 163 [penwidth=2]
    372 -> 220 [penwidth=2]
    372 -> 189 [penwidth=2]
    372 -> 167 [penwidth=2]
    372 -> 253 [penwidth=2]
    372 -> 234 [penwidth=2]
    372 -> 273 [penwidth=2]
    372 -> 98 [penwidth=2]
    372 -> 257 [penwidth=2]
    372 -> 174 [penwidth=2]
    372 -> 101 [penwidth=2]
    372 -> 236 [penwidth=2]
    372 -> 258 [penwidth=2]
    372 -> 274 [penwidth=2]
    372 -> 100 [penwidth=2]
    372 -> 259 [penwidth=2]
    372 -> 211 [penwidth=2]
    372 -> 281 [penwidth=2]
    372 -> 250 [penwidth=2]
    372 -> 96 [penwidth=2]
    372 -> 240 [penwidth=2]
    372 -> 235 [penwidth=2]
    372 -> 179 [penwidth=2]
    372 -> 265 [penwidth=2]
    372 -> 78 [penwidth=2]
    372 -> 242 [penwidth=2]
    372 -> 191 [penwidth=2]
    372 -> 95 [penwidth=2]
    372 -> 263 [penwidth=2]
    372 -> 97 [penwidth=2]
    372 -> 275 [penwidth=2]
    372 -> 243 [penwidth=2]
    372 -> 80 [penwidth=2]
    372 -> 228 [penwidth=2]
    372 -> 176 [penwidth=2]
    372 -> 178 [penwidth=2]
    372 -> 85 [penwidth=2]
    372 -> 213 [penwidth=2]
    372 -> 217 [penwidth=2]
    387 -> 187 [penwidth=2]
    387 -> 85 [penwidth=2]
    387 -> 165 [penwidth=2]
    387 -> 233 [penwidth=2]
    387 -> 242 [penwidth=2]
    387 -> 178 [penwidth=2]
    387 -> 86 [penwidth=2]
    387 -> 229 [penwidth=2]
    387 -> 226 [penwidth=2]
    387 -> 88 [penwidth=2]
    387 -> 277 [penwidth=2]
    387 -> 252 [penwidth=2]
    387 -> 106 [penwidth=2]
    387 -> 176 [penwidth=2]
    387 -> 80 [penwidth=2]
    387 -> 275 [penwidth=2]
    387 -> 228 [penwidth=2]
    387 -> 254 [penwidth=2]
    387 -> 93 [penwidth=2]
    387 -> 104 [penwidth=2]
    387 -> 236 [penwidth=2]
    387 -> 163 [penwidth=2]
    387 -> 219 [penwidth=2]
    387 -> 260 [penwidth=2]
    387 -> 232 [penwidth=2]
    387 -> 269 [penwidth=2]
    387 -> 220 [penwidth=2]
    387 -> 78 [penwidth=2]
    387 -> 213 [penwidth=2]
    387 -> 282 [penwidth=2]
    387 -> 208 [penwidth=2]
    387 -> 271 [penwidth=2]
    387 -> 283 [penwidth=2]
    387 -> 169 [penwidth=2]
    387 -> 170 [penwidth=2]
    387 -> 286 [penwidth=2]
    387 -> 259 [penwidth=2]
    387 -> 103 [penwidth=2]
    387 -> 211 [penwidth=2]
    387 -> 171 [penwidth=2]
    387 -> 91 [penwidth=2]
    387 -> 255 [penwidth=2]
    387 -> 230 [penwidth=2]
    387 -> 231 [penwidth=2]
    387 -> 185 [penwidth=2]
    387 -> 79 [penwidth=2]
    387 -> 89 [penwidth=2]
    387 -> 188 [penwidth=2]
    387 -> 90 [penwidth=2]
    387 -> 265 [penwidth=2]
    387 -> 273 [penwidth=2]
    387 -> 105 [penwidth=2]
    387 -> 267 [penwidth=2]
    16 -> 217 [penwidth=2]
    16 -> 235 [penwidth=2]
    16 -> 93 [penwidth=2]
    16 -> 257 [penwidth=2]
    16 -> 78 [penwidth=2]
    16 -> 282 [penwidth=2]
    16 -> 88 [penwidth=2]
    16 -> 103 [penwidth=2]
    16 -> 227 [penwidth=2]
    16 -> 231 [penwidth=2]
    16 -> 105 [penwidth=2]
    16 -> 218 [penwidth=2]
    16 -> 232 [penwidth=2]
    16 -> 162 [penwidth=2]
    16 -> 172 [penwidth=2]
    16 -> 208 [penwidth=2]
    16 -> 260 [penwidth=2]
    16 -> 274 [penwidth=2]
    16 -> 258 [penwidth=2]
    16 -> 242 [penwidth=2]
    16 -> 277 [penwidth=2]
    16 -> 171 [penwidth=2]
    16 -> 271 [penwidth=2]
    16 -> 244 [penwidth=2]
    16 -> 222 [penwidth=2]
    16 -> 241 [penwidth=2]
    16 -> 85 [penwidth=2]
    16 -> 179 [penwidth=2]
    16 -> 267 [penwidth=2]
    16 -> 252 [penwidth=2]
    16 -> 279 [penwidth=2]
    16 -> 239 [penwidth=2]
    16 -> 170 [penwidth=2]
    16 -> 77 [penwidth=2]
    16 -> 175 [penwidth=2]
    16 -> 91 [penwidth=2]
    16 -> 243 [penwidth=2]
    16 -> 249 [penwidth=2]
    16 -> 268 [penwidth=2]
    16 -> 224 [penwidth=2]
    16 -> 262 [penwidth=2]
    16 -> 185 [penwidth=2]
    16 -> 169 [penwidth=2]
    16 -> 281 [penwidth=2]
    16 -> 80 [penwidth=2]
    395 -> 235 [penwidth=2]
    395 -> 255 [penwidth=2]
    395 -> 263 [penwidth=2]
    395 -> 176 [penwidth=2]
    395 -> 106 [penwidth=2]
    395 -> 273 [penwidth=2]
    395 -> 283 [penwidth=2]
    395 -> 182 [penwidth=2]
    395 -> 86 [penwidth=2]
    395 -> 85 [penwidth=2]
    395 -> 78 [penwidth=2]
    395 -> 260 [penwidth=2]
    395 -> 97 [penwidth=2]
    395 -> 173 [penwidth=2]
    395 -> 226 [penwidth=2]
    395 -> 221 [penwidth=2]
    395 -> 227 [penwidth=2]
    395 -> 95 [penwidth=2]
    395 -> 168 [penwidth=2]
    395 -> 92 [penwidth=2]
    395 -> 191 [penwidth=2]
    395 -> 265 [penwidth=2]
    395 -> 161 [penwidth=2]
    395 -> 185 [penwidth=2]
    395 -> 80 [penwidth=2]
    395 -> 259 [penwidth=2]
    395 -> 281 [penwidth=2]
    395 -> 231 [penwidth=2]
    395 -> 234 [penwidth=2]
    395 -> 213 [penwidth=2]
    395 -> 261 [penwidth=2]
    395 -> 81 [penwidth=2]
    395 -> 286 [penwidth=2]
    395 -> 184 [penwidth=2]
    395 -> 251 [penwidth=2]
    395 -> 164 [penwidth=2]
    395 -> 219 [penwidth=2]
    395 -> 186 [penwidth=2]
    395 -> 277 [penwidth=2]
    395 -> 258 [penwidth=2]
    395 -> 208 [penwidth=2]
    395 -> 90 [penwidth=2]
    395 -> 77 [penwidth=2]
    395 -> 180 [penwidth=2]
    395 -> 82 [penwidth=2]
    395 -> 79 [penwidth=2]
    395 -> 264 [penwidth=2]
    395 -> 101 [penwidth=2]
    395 -> 228 [penwidth=2]
    395 -> 278 [penwidth=2]
    395 -> 271 [penwidth=2]
    395 -> 240 [penwidth=2]
    395 -> 266 [penwidth=2]
    395 -> 105 [penwidth=2]
    395 -> 276 [penwidth=2]
    395 -> 166 [penwidth=2]
    395 -> 236 [penwidth=2]
    395 -> 211 [penwidth=2]
    395 -> 222 [penwidth=2]
    395 -> 232 [penwidth=2]
    395 -> 256 [penwidth=2]
    395 -> 216 [penwidth=2]
    395 -> 238 [penwidth=2]
    395 -> 253 [penwidth=2]
    395 -> 163 [penwidth=2]
    395 -> 250 [penwidth=2]
    395 -> 89 [penwidth=2]
    395 -> 242 [penwidth=2]
    395 -> 162 [penwidth=2]
    395 -> 99 [penwidth=2]
    395 -> 171 [penwidth=2]
    395 -> 181 [penwidth=2]
    395 -> 93 [penwidth=2]
    395 -> 252 [penwidth=2]
    395 -> 165 [penwidth=2]
    395 -> 94 [penwidth=2]
    395 -> 170 [penwidth=2]
    395 -> 104 [penwidth=2]
    395 -> 189 [penwidth=2]
    395 -> 274 [penwidth=2]
    395 -> 91 [penwidth=2]
    395 -> 249 [penwidth=2]
    395 -> 275 [penwidth=2]
    395 -> 239 [penwidth=2]
    395 -> 102 [penwidth=2]
    395 -> 272 [penwidth=2]
    395 -> 167 [penwidth=2]
    395 -> 174 [penwidth=2]
    395 -> 282 [penwidth=2]
    395 -> 217 [penwidth=2]
    395 -> 237 [penwidth=2]
    395 -> 172 [penwidth=2]
    397 -> 174 [penwidth=2]
    397 -> 85 [penwidth=2]
    397 -> 79 [penwidth=2]
    397 -> 253 [penwidth=2]
    397 -> 213 [penwidth=2]
    397 -> 276 [penwidth=2]
    397 -> 220 [penwidth=2]
    397 -> 165 [penwidth=2]
    397 -> 92 [penwidth=2]
    397 -> 277 [penwidth=2]
    397 -> 278 [penwidth=2]
    397 -> 231 [penwidth=2]
    397 -> 251 [penwidth=2]
    397 -> 260 [penwidth=2]
    397 -> 88 [penwidth=2]
    397 -> 90 [penwidth=2]
    397 -> 285 [penwidth=2]
    397 -> 252 [penwidth=2]
    397 -> 237 [penwidth=2]
    397 -> 264 [penwidth=2]
    397 -> 95 [penwidth=2]
    397 -> 265 [penwidth=2]
    397 -> 283 [penwidth=2]
    397 -> 282 [penwidth=2]
    397 -> 106 [penwidth=2]
    397 -> 250 [penwidth=2]
    397 -> 242 [penwidth=2]
    397 -> 178 [penwidth=2]
    397 -> 259 [penwidth=2]
    397 -> 80 [penwidth=2]
    397 -> 89 [penwidth=2]
    397 -> 226 [penwidth=2]
    397 -> 211 [penwidth=2]
    397 -> 271 [penwidth=2]
    397 -> 102 [penwidth=2]
    397 -> 78 [penwidth=2]
    397 -> 81 [penwidth=2]
    397 -> 181 [penwidth=2]
    397 -> 230 [penwidth=2]
    397 -> 241 [penwidth=2]
    397 -> 177 [penwidth=2]
    397 -> 91 [penwidth=2]
    397 -> 224 [penwidth=2]
    397 -> 100 [penwidth=2]
    397 -> 269 [penwidth=2]
    397 -> 219 [penwidth=2]
    397 -> 104 [penwidth=2]
    397 -> 87 [penwidth=2]
    397 -> 263 [penwidth=2]
    397 -> 179 [penwidth=2]
    397 -> 225 [penwidth=2]
    397 -> 223 [penwidth=2]
    397 -> 107 [penwidth=2]
    397 -> 173 [penwidth=2]
    397 -> 254 [penwidth=2]
    397 -> 267 [penwidth=2]
    397 -> 266 [penwidth=2]
    397 -> 171 [penwidth=2]
    397 -> 258 [penwidth=2]
    397 -> 240 [penwidth=2]
    397 -> 191 [penwidth=2]
    397 -> 239 [penwidth=2]
    397 -> 286 [penwidth=2]
    397 -> 172 [penwidth=2]
    397 -> 284 [penwidth=2]
    397 -> 229 [penwidth=2]
    397 -> 167 [penwidth=2]
    397 -> 227 [penwidth=2]
    397 -> 261 [penwidth=2]
    397 -> 257 [penwidth=2]
    397 -> 186 [penwidth=2]
    397 -> 208 [penwidth=2]
    397 -> 233 [penwidth=2]
    397 -> 188 [penwidth=2]
    397 -> 216 [penwidth=2]
    397 -> 235 [penwidth=2]
    397 -> 101 [penwidth=2]
    397 -> 82 [penwidth=2]
    397 -> 163 [penwidth=2]
    397 -> 180 [penwidth=2]
    397 -> 270 [penwidth=2]
    397 -> 217 [penwidth=2]
    397 -> 221 [penwidth=2]
    397 -> 212 [penwidth=2]
    397 -> 77 [penwidth=2]
    397 -> 210 [penwidth=2]
    397 -> 280 [penwidth=2]
    397 -> 234 [penwidth=2]
    397 -> 190 [penwidth=2]
    397 -> 164 [penwidth=2]
    397 -> 105 [penwidth=2]
    397 -> 183 [penwidth=2]
    397 -> 168 [penwidth=2]
    397 -> 175 [penwidth=2]
    397 -> 166 [penwidth=2]
    397 -> 103 [penwidth=2]
    397 -> 268 [penwidth=2]
    397 -> 232 [penwidth=2]
    397 -> 96 [penwidth=2]
    397 -> 169 [penwidth=2]
    397 -> 249 [penwidth=2]
    28 -> 208 [penwidth=2]
    28 -> 218 [penwidth=2]
    28 -> 276 [penwidth=2]
    28 -> 81 [penwidth=2]
    28 -> 168 [penwidth=2]
    28 -> 176 [penwidth=2]
    28 -> 89 [penwidth=2]
    28 -> 260 [penwidth=2]
    28 -> 163 [penwidth=2]
    28 -> 261 [penwidth=2]
    28 -> 214 [penwidth=2]
    28 -> 92 [penwidth=2]
    28 -> 82 [penwidth=2]
    28 -> 270 [penwidth=2]
    28 -> 189 [penwidth=2]
    28 -> 269 [penwidth=2]
    28 -> 102 [penwidth=2]
    28 -> 220 [penwidth=2]
    28 -> 101 [penwidth=2]
    28 -> 103 [penwidth=2]
    28 -> 227 [penwidth=2]
    28 -> 223 [penwidth=2]
    28 -> 226 [penwidth=2]
    28 -> 212 [penwidth=2]
    28 -> 106 [penwidth=2]
    28 -> 216 [penwidth=2]
    28 -> 281 [penwidth=2]
    28 -> 264 [penwidth=2]
    28 -> 184 [penwidth=2]
    28 -> 278 [penwidth=2]
    28 -> 266 [penwidth=2]
    28 -> 180 [penwidth=2]
    28 -> 253 [penwidth=2]
    28 -> 94 [penwidth=2]
    28 -> 262 [penwidth=2]
    28 -> 215 [penwidth=2]
    28 -> 265 [penwidth=2]
    28 -> 179 [penwidth=2]
    28 -> 255 [penwidth=2]
    28 -> 185 [penwidth=2]
    28 -> 87 [penwidth=2]
    28 -> 268 [penwidth=2]
    28 -> 254 [penwidth=2]
    28 -> 80 [penwidth=2]
    28 -> 231 [penwidth=2]
    28 -> 211 [penwidth=2]
    28 -> 258 [penwidth=2]
    28 -> 166 [penwidth=2]
    28 -> 233 [penwidth=2]
    28 -> 274 [penwidth=2]
    28 -> 275 [penwidth=2]
    28 -> 105 [penwidth=2]
    28 -> 244 [penwidth=2]
    28 -> 283 [penwidth=2]
    28 -> 285 [penwidth=2]
    28 -> 91 [penwidth=2]
    28 -> 241 [penwidth=2]
    28 -> 104 [penwidth=2]
    28 -> 164 [penwidth=2]
    28 -> 250 [penwidth=2]
    28 -> 280 [penwidth=2]
    28 -> 259 [penwidth=2]
    28 -> 234 [penwidth=2]
    290 -> 188 [penwidth=2]
    290 -> 266 [penwidth=2]
    290 -> 240 [penwidth=2]
    290 -> 271 [penwidth=2]
    290 -> 91 [penwidth=2]
    290 -> 209 [penwidth=2]
    290 -> 164 [penwidth=2]
    290 -> 223 [penwidth=2]
    290 -> 218 [penwidth=2]
    290 -> 216 [penwidth=2]
    290 -> 283 [penwidth=2]
    290 -> 100 [penwidth=2]
    290 -> 285 [penwidth=2]
    290 -> 252 [penwidth=2]
    290 -> 211 [penwidth=2]
    290 -> 179 [penwidth=2]
    290 -> 184 [penwidth=2]
    290 -> 208 [penwidth=2]
    290 -> 277 [penwidth=2]
    290 -> 97 [penwidth=2]
    290 -> 255 [penwidth=2]
    290 -> 98 [penwidth=2]
    290 -> 260 [penwidth=2]
    290 -> 101 [penwidth=2]
    290 -> 81 [penwidth=2]
    290 -> 280 [penwidth=2]
    290 -> 254 [penwidth=2]
    290 -> 103 [penwidth=2]
    290 -> 191 [penwidth=2]
    290 -> 227 [penwidth=2]
    290 -> 273 [penwidth=2]
    290 -> 281 [penwidth=2]
    290 -> 94 [penwidth=2]
    290 -> 88 [penwidth=2]
    290 -> 278 [penwidth=2]
    290 -> 174 [penwidth=2]
    290 -> 95 [penwidth=2]
    290 -> 105 [penwidth=2]
    290 -> 238 [penwidth=2]
    290 -> 82 [penwidth=2]
    290 -> 269 [penwidth=2]
    290 -> 87 [penwidth=2]
    290 -> 170 [penwidth=2]
    290 -> 180 [penwidth=2]
    290 -> 169 [penwidth=2]
    290 -> 259 [penwidth=2]
    290 -> 226 [penwidth=2]
    290 -> 182 [penwidth=2]
    290 -> 78 [penwidth=2]
    290 -> 83 [penwidth=2]
    290 -> 212 [penwidth=2]
    290 -> 244 [penwidth=2]
    290 -> 106 [penwidth=2]
    290 -> 93 [penwidth=2]
    290 -> 175 [penwidth=2]
    290 -> 258 [penwidth=2]
    290 -> 237 [penwidth=2]
    290 -> 96 [penwidth=2]
    290 -> 162 [penwidth=2]
    290 -> 210 [penwidth=2]
    290 -> 172 [penwidth=2]
    290 -> 79 [penwidth=2]
    290 -> 263 [penwidth=2]
    290 -> 241 [penwidth=2]
    290 -> 275 [penwidth=2]
    294 -> 223 [penwidth=2]
    294 -> 276 [penwidth=2]
    294 -> 208 [penwidth=2]
    294 -> 104 [penwidth=2]
    294 -> 186 [penwidth=2]
    294 -> 211 [penwidth=2]
    294 -> 224 [penwidth=2]
    294 -> 212 [penwidth=2]
    294 -> 238 [penwidth=2]
    294 -> 220 [penwidth=2]
    294 -> 100 [penwidth=2]
    294 -> 285 [penwidth=2]
    294 -> 164 [penwidth=2]
    294 -> 241 [penwidth=2]
    294 -> 177 [penwidth=2]
    294 -> 182 [penwidth=2]
    294 -> 234 [penwidth=2]
    294 -> 266 [penwidth=2]
    294 -> 232 [penwidth=2]
    294 -> 85 [penwidth=2]
    294 -> 174 [penwidth=2]
    294 -> 256 [penwidth=2]
    294 -> 190 [penwidth=2]
    294 -> 171 [penwidth=2]
    294 -> 278 [penwidth=2]
    294 -> 228 [penwidth=2]
    294 -> 239 [penwidth=2]
    294 -> 281 [penwidth=2]
    294 -> 219 [penwidth=2]
    294 -> 93 [penwidth=2]
    294 -> 81 [penwidth=2]
    294 -> 87 [penwidth=2]
    294 -> 169 [penwidth=2]
    294 -> 213 [penwidth=2]
    294 -> 265 [penwidth=2]
    294 -> 258 [penwidth=2]
    294 -> 180 [penwidth=2]
    294 -> 214 [penwidth=2]
    294 -> 168 [penwidth=2]
    294 -> 260 [penwidth=2]
    294 -> 250 [penwidth=2]
    294 -> 249 [penwidth=2]
    294 -> 271 [penwidth=2]
    294 -> 189 [penwidth=2]
    294 -> 96 [penwidth=2]
    294 -> 82 [penwidth=2]
    294 -> 225 [penwidth=2]
    294 -> 105 [penwidth=2]
    294 -> 170 [penwidth=2]
    294 -> 237 [penwidth=2]
    294 -> 280 [penwidth=2]
    294 -> 242 [penwidth=2]
    294 -> 77 [penwidth=2]
    294 -> 178 [penwidth=2]
    294 -> 254 [penwidth=2]
    294 -> 244 [penwidth=2]
    294 -> 173 [penwidth=2]
    294 -> 243 [penwidth=2]
    294 -> 274 [penwidth=2]
    294 -> 79 [penwidth=2]
    294 -> 94 [penwidth=2]
    294 -> 283 [penwidth=2]
    294 -> 162 [penwidth=2]
    294 -> 209 [penwidth=2]
    294 -> 103 [penwidth=2]
    294 -> 270 [penwidth=2]
    294 -> 215 [penwidth=2]
    294 -> 251 [penwidth=2]
    294 -> 83 [penwidth=2]
    294 -> 185 [penwidth=2]
    294 -> 166 [penwidth=2]
    294 -> 92 [penwidth=2]
    294 -> 91 [penwidth=2]
    294 -> 273 [penwidth=2]
    294 -> 107 [penwidth=2]
    294 -> 210 [penwidth=2]
    303 -> 105 [penwidth=2]
    303 -> 93 [penwidth=2]
    303 -> 191 [penwidth=2]
    303 -> 187 [penwidth=2]
    303 -> 265 [penwidth=2]
    303 -> 164 [penwidth=2]
    303 -> 161 [penwidth=2]
    303 -> 217 [penwidth=2]
    303 -> 223 [penwidth=2]
    303 -> 282 [penwidth=2]
    303 -> 230 [penwidth=2]
    303 -> 234 [penwidth=2]
    303 -> 185 [penwidth=2]
    303 -> 253 [penwidth=2]
    303 -> 210 [penwidth=2]
    303 -> 80 [penwidth=2]
    303 -> 77 [penwidth=2]
    303 -> 239 [penwidth=2]
    303 -> 235 [penwidth=2]
    303 -> 175 [penwidth=2]
    303 -> 254 [penwidth=2]
    303 -> 96 [penwidth=2]
    303 -> 218 [penwidth=2]
    303 -> 216 [penwidth=2]
    303 -> 224 [penwidth=2]
    303 -> 165 [penwidth=2]
    303 -> 99 [penwidth=2]
    303 -> 180 [penwidth=2]
    303 -> 244 [penwidth=2]
    303 -> 281 [penwidth=2]
    303 -> 236 [penwidth=2]
    303 -> 209 [penwidth=2]
    303 -> 286 [penwidth=2]
    303 -> 107 [penwidth=2]
    303 -> 208 [penwidth=2]
    303 -> 188 [penwidth=2]
    303 -> 174 [penwidth=2]
    303 -> 243 [penwidth=2]
    303 -> 242 [penwidth=2]
    303 -> 178 [penwidth=2]
    303 -> 232 [penwidth=2]
    303 -> 269 [penwidth=2]
    303 -> 284 [penwidth=2]
    303 -> 259 [penwidth=2]
    303 -> 267 [penwidth=2]
    303 -> 240 [penwidth=2]
    303 -> 226 [penwidth=2]
    303 -> 280 [penwidth=2]
    303 -> 229 [penwidth=2]
    303 -> 271 [penwidth=2]
    303 -> 92 [penwidth=2]
    303 -> 268 [penwidth=2]
    303 -> 262 [penwidth=2]
    303 -> 106 [penwidth=2]
    303 -> 167 [penwidth=2]
    303 -> 214 [penwidth=2]
    303 -> 277 [penwidth=2]
    303 -> 238 [penwidth=2]
    303 -> 78 [penwidth=2]
    303 -> 91 [penwidth=2]
    303 -> 228 [penwidth=2]
    303 -> 87 [penwidth=2]
    303 -> 257 [penwidth=2]
    303 -> 103 [penwidth=2]
    303 -> 162 [penwidth=2]
    303 -> 97 [penwidth=2]
    303 -> 95 [penwidth=2]
    303 -> 279 [penwidth=2]
    303 -> 98 [penwidth=2]
    303 -> 82 [penwidth=2]
    303 -> 266 [penwidth=2]
    303 -> 171 [penwidth=2]
    303 -> 81 [penwidth=2]
    303 -> 272 [penwidth=2]
    303 -> 168 [penwidth=2]
    303 -> 256 [penwidth=2]
    303 -> 90 [penwidth=2]
    303 -> 261 [penwidth=2]
    303 -> 179 [penwidth=2]
    303 -> 211 [penwidth=2]
    303 -> 212 [penwidth=2]
    303 -> 252 [penwidth=2]
    303 -> 85 [penwidth=2]
    303 -> 84 [penwidth=2]
    303 -> 170 [penwidth=2]
    303 -> 270 [penwidth=2]
    303 -> 273 [penwidth=2]
    303 -> 102 [penwidth=2]
    303 -> 283 [penwidth=2]
    303 -> 94 [penwidth=2]
    303 -> 255 [penwidth=2]
    303 -> 163 [penwidth=2]
    303 -> 183 [penwidth=2]
    303 -> 89 [penwidth=2]
    303 -> 237 [penwidth=2]
    303 -> 190 [penwidth=2]
    303 -> 260 [penwidth=2]
    303 -> 241 [penwidth=2]
    303 -> 233 [penwidth=2]
    303 -> 220 [penwidth=2]
    303 -> 215 [penwidth=2]
    303 -> 172 [penwidth=2]
    303 -> 219 [penwidth=2]
    303 -> 263 [penwidth=2]
    303 -> 275 [penwidth=2]
    303 -> 227 [penwidth=2]
    303 -> 189 [penwidth=2]
    303 -> 104 [penwidth=2]
    303 -> 250 [penwidth=2]
    303 -> 184 [penwidth=2]
    310 -> 268 [penwidth=2]
    310 -> 171 [penwidth=2]
    310 -> 274 [penwidth=2]
    310 -> 90 [penwidth=2]
    310 -> 102 [penwidth=2]
    310 -> 262 [penwidth=2]
    310 -> 240 [penwidth=2]
    310 -> 181 [penwidth=2]
    310 -> 244 [penwidth=2]
    310 -> 231 [penwidth=2]
    310 -> 88 [penwidth=2]
    310 -> 272 [penwidth=2]
    310 -> 241 [penwidth=2]
    310 -> 264 [penwidth=2]
    310 -> 273 [penwidth=2]
    310 -> 257 [penwidth=2]
    310 -> 167 [penwidth=2]
    310 -> 282 [penwidth=2]
    310 -> 255 [penwidth=2]
    310 -> 208 [penwidth=2]
    310 -> 161 [penwidth=2]
    310 -> 175 [penwidth=2]
    310 -> 100 [penwidth=2]
    310 -> 210 [penwidth=2]
    310 -> 242 [penwidth=2]
    310 -> 256 [penwidth=2]
    310 -> 234 [penwidth=2]
    310 -> 269 [penwidth=2]
    310 -> 213 [penwidth=2]
    310 -> 178 [penwidth=2]
    310 -> 284 [penwidth=2]
    310 -> 230 [penwidth=2]
    310 -> 236 [penwidth=2]
    310 -> 172 [penwidth=2]
    310 -> 169 [penwidth=2]
    310 -> 253 [penwidth=2]
    310 -> 104 [penwidth=2]
    310 -> 184 [penwidth=2]
    310 -> 101 [penwidth=2]
    310 -> 105 [penwidth=2]
    310 -> 91 [penwidth=2]
    310 -> 265 [penwidth=2]
    310 -> 232 [penwidth=2]
    310 -> 216 [penwidth=2]
    310 -> 185 [penwidth=2]
    310 -> 271 [penwidth=2]
    310 -> 174 [penwidth=2]
    310 -> 252 [penwidth=2]
    310 -> 254 [penwidth=2]
    310 -> 276 [penwidth=2]
    310 -> 221 [penwidth=2]
    310 -> 168 [penwidth=2]
    310 -> 224 [penwidth=2]
    315 -> 189 [penwidth=2]
    315 -> 102 [penwidth=2]
    315 -> 171 [penwidth=2]
    315 -> 231 [penwidth=2]
    315 -> 95 [penwidth=2]
    315 -> 179 [penwidth=2]
    315 -> 170 [penwidth=2]
    315 -> 253 [penwidth=2]
    315 -> 271 [penwidth=2]
    315 -> 270 [penwidth=2]
    315 -> 269 [penwidth=2]
    315 -> 174 [penwidth=2]
    315 -> 264 [penwidth=2]
    315 -> 105 [penwidth=2]
    315 -> 89 [penwidth=2]
    315 -> 239 [penwidth=2]
    315 -> 218 [penwidth=2]
    315 -> 104 [penwidth=2]
    315 -> 188 [penwidth=2]
    315 -> 92 [penwidth=2]
    315 -> 182 [penwidth=2]
    315 -> 251 [penwidth=2]
    315 -> 244 [penwidth=2]
    315 -> 278 [penwidth=2]
    315 -> 165 [penwidth=2]
    315 -> 175 [penwidth=2]
    315 -> 176 [penwidth=2]
    315 -> 213 [penwidth=2]
    315 -> 78 [penwidth=2]
    315 -> 96 [penwidth=2]
    315 -> 256 [penwidth=2]
    315 -> 85 [penwidth=2]
    315 -> 88 [penwidth=2]
    315 -> 103 [penwidth=2]
    315 -> 81 [penwidth=2]
    315 -> 279 [penwidth=2]
    315 -> 101 [penwidth=2]
    315 -> 106 [penwidth=2]
    315 -> 265 [penwidth=2]
    315 -> 229 [penwidth=2]
    315 -> 285 [penwidth=2]
    315 -> 240 [penwidth=2]
    315 -> 249 [penwidth=2]
    315 -> 263 [penwidth=2]
    315 -> 177 [penwidth=2]
    315 -> 232 [penwidth=2]
    315 -> 215 [penwidth=2]
    315 -> 277 [penwidth=2]
    315 -> 163 [penwidth=2]
    315 -> 266 [penwidth=2]
    315 -> 261 [penwidth=2]
    315 -> 77 [penwidth=2]
    315 -> 162 [penwidth=2]
    315 -> 282 [penwidth=2]
    315 -> 235 [penwidth=2]
    315 -> 94 [penwidth=2]
    315 -> 225 [penwidth=2]
    315 -> 216 [penwidth=2]
    315 -> 181 [penwidth=2]
    315 -> 184 [penwidth=2]
    315 -> 80 [penwidth=2]
    315 -> 220 [penwidth=2]
    315 -> 241 [penwidth=2]
    315 -> 100 [penwidth=2]
    315 -> 255 [penwidth=2]
    315 -> 164 [penwidth=2]
    315 -> 209 [penwidth=2]
    315 -> 217 [penwidth=2]
    315 -> 234 [penwidth=2]
    315 -> 222 [penwidth=2]
    315 -> 224 [penwidth=2]
    315 -> 168 [penwidth=2]
    315 -> 185 [penwidth=2]
    315 -> 238 [penwidth=2]
    315 -> 166 [penwidth=2]
    315 -> 99 [penwidth=2]
    315 -> 276 [penwidth=2]
    315 -> 284 [penwidth=2]
    315 -> 236 [penwidth=2]
    315 -> 178 [penwidth=2]
    315 -> 274 [penwidth=2]
    315 -> 211 [penwidth=2]
    315 -> 191 [penwidth=2]
    315 -> 90 [penwidth=2]
    315 -> 221 [penwidth=2]
    315 -> 254 [penwidth=2]
    315 -> 83 [penwidth=2]
    315 -> 172 [penwidth=2]
    315 -> 243 [penwidth=2]
    315 -> 161 [penwidth=2]
    315 -> 86 [penwidth=2]
    315 -> 227 [penwidth=2]
    315 -> 93 [penwidth=2]
    315 -> 91 [penwidth=2]
    315 -> 210 [penwidth=2]
    315 -> 233 [penwidth=2]
    315 -> 79 [penwidth=2]
    315 -> 286 [penwidth=2]
    315 -> 267 [penwidth=2]
    315 -> 82 [penwidth=2]
    315 -> 260 [penwidth=2]
    315 -> 214 [penwidth=2]
    315 -> 187 [penwidth=2]
    315 -> 84 [penwidth=2]
    315 -> 283 [penwidth=2]
    315 -> 268 [penwidth=2]
    315 -> 97 [penwidth=2]
    315 -> 173 [penwidth=2]
    315 -> 230 [penwidth=2]
    315 -> 237 [penwidth=2]
    315 -> 186 [penwidth=2]
    315 -> 183 [penwidth=2]
    315 -> 272 [penwidth=2]
    315 -> 219 [penwidth=2]
    315 -> 262 [penwidth=2]
    315 -> 87 [penwidth=2]
    315 -> 107 [penwidth=2]
    315 -> 223 [penwidth=2]
    315 -> 212 [penwidth=2]
    315 -> 273 [penwidth=2]
    315 -> 180 [penwidth=2]
    315 -> 281 [penwidth=2]
    315 -> 167 [penwidth=2]
    315 -> 280 [penwidth=2]
    315 -> 252 [penwidth=2]
    315 -> 208 [penwidth=2]
    327 -> 270 [penwidth=2]
    327 -> 222 [penwidth=2]
    327 -> 186 [penwidth=2]
    327 -> 233 [penwidth=2]
    327 -> 79 [penwidth=2]
    327 -> 231 [penwidth=2]
    327 -> 263 [penwidth=2]
    327 -> 235 [penwidth=2]
    327 -> 223 [penwidth=2]
    327 -> 210 [penwidth=2]
    327 -> 272 [penwidth=2]
    327 -> 234 [penwidth=2]
    327 -> 255 [penwidth=2]
    327 -> 281 [penwidth=2]
    327 -> 279 [penwidth=2]
    327 -> 230 [penwidth=2]
    327 -> 238 [penwidth=2]
    327 -> 262 [penwidth=2]
    327 -> 162 [penwidth=2]
    327 -> 226 [penwidth=2]
    327 -> 182 [penwidth=2]
    327 -> 106 [penwidth=2]
    327 -> 284 [penwidth=2]
    327 -> 237 [penwidth=2]
    327 -> 264 [penwidth=2]
    327 -> 82 [penwidth=2]
    327 -> 211 [penwidth=2]
    327 -> 91 [penwidth=2]
    327 -> 164 [penwidth=2]
    327 -> 273 [penwidth=2]
    327 -> 171 [penwidth=2]
    327 -> 78 [penwidth=2]
    327 -> 93 [penwidth=2]
    327 -> 105 [penwidth=2]
    327 -> 240 [penwidth=2]
    327 -> 214 [penwidth=2]
    327 -> 178 [penwidth=2]
    327 -> 268 [penwidth=2]
    327 -> 190 [penwidth=2]
    327 -> 94 [penwidth=2]
    327 -> 96 [penwidth=2]
    327 -> 175 [penwidth=2]
    327 -> 228 [penwidth=2]
    327 -> 183 [penwidth=2]
    327 -> 107 [penwidth=2]
    327 -> 244 [penwidth=2]
    327 -> 266 [penwidth=2]
    327 -> 181 [penwidth=2]
    327 -> 216 [penwidth=2]
    327 -> 100 [penwidth=2]
    327 -> 215 [penwidth=2]
    327 -> 276 [penwidth=2]
    327 -> 213 [penwidth=2]
    327 -> 170 [penwidth=2]
    327 -> 220 [penwidth=2]
    327 -> 221 [penwidth=2]
    327 -> 267 [penwidth=2]
    327 -> 187 [penwidth=2]
    327 -> 191 [penwidth=2]
    327 -> 99 [penwidth=2]
    327 -> 242 [penwidth=2]
    327 -> 80 [penwidth=2]
    327 -> 88 [penwidth=2]
    327 -> 285 [penwidth=2]
    327 -> 176 [penwidth=2]
    327 -> 167 [penwidth=2]
    327 -> 77 [penwidth=2]
    327 -> 212 [penwidth=2]
    327 -> 84 [penwidth=2]
    327 -> 172 [penwidth=2]
    327 -> 185 [penwidth=2]
    327 -> 209 [penwidth=2]
    327 -> 258 [penwidth=2]
    327 -> 102 [penwidth=2]
    327 -> 261 [penwidth=2]
    327 -> 85 [penwidth=2]
    327 -> 161 [penwidth=2]
    327 -> 251 [penwidth=2]
    327 -> 227 [penwidth=2]
    327 -> 283 [penwidth=2]
    327 -> 95 [penwidth=2]
    327 -> 166 [penwidth=2]
    327 -> 101 [penwidth=2]
    327 -> 92 [penwidth=2]
}