digraph G {
    0 [penwidth=3,label="0"]
    1 [penwidth=3,label="1"]
    2 [penwidth=3,label="2"]
    3 [penwidth=3,label="3"]
    4 [penwidth=3,label="4"]
    5 [penwidth=3,label="5"]
    6 [penwidth=3,label="6"]
    7 [penwidth=3,label="7"]
    8 [penwidth=3,label="8"]
    9 [penwidth=3,label="9"]
    10 [penwidth=3,label="10"]
    11 [penwidth=3,label="11"]
    12 [penwidth=3,label="12"]
    13 [penwidth=3,label="13"]
    14 [penwidth=3,label="14"]
    15 [penwidth=3,label="15"]
    16 [penwidth=3,label="16"]
    17 [penwidth=3,label="17"]
    18 [penwidth=3,label="18"]
    19 [penwidth=3,label="19"]
    20 [penwidth=3,label="20"]
    21 [penwidth=3,label="21"]
    22 [penwidth=3,label="22"]
    23 [penwidth=3,label="23"]
    24 [penwidth=3,label="24"]
    25 [penwidth=3,label="25"]
    26 [penwidth=3,label="26"]
    27 [penwidth=3,label="27"]
    28 [penwidth=3,label="28"]
    29 [penwidth=3,label="29"]
    30 [penwidth=3,label="30"]
    31 [penwidth=3,label="31"]
    32 [penwidth=3,label="32"]
    33 [penwidth=3,label="33"]
    34 [penwidth=3,label="34"]
    35 [penwidth=3,label="35"]
    36 [penwidth=3,label="36"]
    37 [penwidth=3,label="37"]
    38 [penwidth=3,label="38"]
    39 [penwidth=3,label="39"]
    40 [penwidth=3,label="40"]
    41 [penwidth=3,label="41"]
    42 [penwidth=3,label="42"]
    43 [penwidth=3,label="43"]
    44 [penwidth=3,label="44"]
    45 [penwidth=3,label="45"]
    46 [penwidth=3,label="46"]
    47 [penwidth=3,label="47"]
    48 [penwidth=3,label="48"]
    49 [penwidth=3,label="49"]
    50 [penwidth=3,label="50"]
    51 [penwidth=3,label="51"]
    52 [penwidth=3,label="52"]
    53 [penwidth=3,label="53"]
    54 [penwidth=3,label="54"]
    55 [penwidth=3,label="55"]
    56 [penwidth=3,label="56"]
    57 [penwidth=3,label="57"]
    58 [penwidth=3,label="58"]
    59 [penwidth=3,label="59"]
    60 [penwidth=3,label="60"]
    61 [penwidth=3,label="61"]
    62 [penwidth=3,label="62"]
    63 [penwidth=3,label="63"]
    64 [penwidth=3,label="64"]
    65 [penwidth=3,label="65"]
    66 [penwidth=3,label="66"]
    67 [penwidth=3,label="67"]
    68 [penwidth=3,label="68"]
    69 [penwidth=3,label="69"]
    70 [penwidth=3,label="70"]
    71 [penwidth=3,label="71"]
    72 [penwidth=3,label="72"]
    73 [penwidth=3,label="73"]
    74 [penwidth=3,label="74"]
    75 [penwidth=3,label="75"]
    76 [penwidth=3,label="76"]
    77 [penwidth=3,label="77"]
    78 [penwidth=3,label="78"]
    79 [penwidth=3,label="79"]
    80 [penwidth=3,label="80"]
    81 [penwidth=3,label="81"]
    82 [penwidth=3,label="82"]
    83 [penwidth=3,label="83"]
    84 [penwidth=3,label="84"]
    85 [penwidth=3,label="85"]
    86 [penwidth=3,label="86"]
    87 [penwidth=3,label="87"]
    88 [penwidth=3,label="88"]
    89 [penwidth=3,label="89"]
    90 [penwidth=3,label="90"]
    91 [penwidth=3,label="91"]
    92 [penwidth=3,label="92"]
    93 [penwidth=3,label="93"]
    94 [penwidth=3,label="94"]
    95 [penwidth=3,label="95"]
    96 [penwidth=3,label="96"]
    97 [penwidth=3,label="97"]
    98 [penwidth=3,label="98"]
    99 [penwidth=3,label="99"]
    100 [penwidth=3,label="100"]
    101 [penwidth=3,label="101"]
    102 [penwidth=3,label="102"]
    103 [penwidth=3,label="103"]
    104 [penwidth=3,label="104"]
    105 [penwidth=3,label="105"]
    106 [penwidth=3,label="106"]
    107 [penwidth=3,label="107"]
    108 [penwidth=3,label="108"]
    109 [penwidth=3,label="109"]
    110 [penwidth=3,label="110"]
    111 [penwidth=3,label="111"]
    112 [penwidth=3,label="112"]
    113 [penwidth=3,label="113"]
    114 [penwidth=3,label="114"]
    115 [penwidth=3,label="115"]
    116 [penwidth=3,label="116"]
    117 [penwidth=3,label="117"]
    118 [penwidth=3,label="118"]
    119 [penwidth=3,label="119"]
    120 [penwidth=3,label="120"]
    121 [penwidth=3,label="121"]
    122 [penwidth=3,label="122"]
    123 [penwidth=3,label="123"]
    124 [penwidth=3,label="124"]
    125 [penwidth=3,label="125"]
    126 [penwidth=3,label="126"]
    127 [penwidth=3,label="127"]
    128 [penwidth=3,label="128"]
    129 [penwidth=3,label="129"]
    130 [penwidth=3,label="130"]
    131 [penwidth=3,label="131"]
    132 [penwidth=3,label="132"]
    133 [penwidth=3,label="133"]
    134 [penwidth=3,label="134"]
    135 [penwidth=3,label="135"]
    136 [penwidth=3,label="136"]
    137 [penwidth=3,label="137"]
    138 [penwidth=3,label="138"]
    139 [penwidth=3,label="139"]
    140 [penwidth=3,label="140"]
    141 [penwidth=3,label="141"]
    142 [penwidth=3,label="142"]
    143 [penwidth=3,label="143"]
    144 [penwidth=3,label="144"]
    145 [penwidth=3,label="145"]
    146 [penwidth=3,label="146"]
    147 [penwidth=3,label="147"]
    148 [penwidth=3,label="148"]
    149 [penwidth=3,label="149"]
    150 [penwidth=3,label="150"]
    151 [penwidth=3,label="151"]
    152 [penwidth=3,label="152"]
    153 [penwidth=3,label="153"]
    154 [penwidth=3,label="154"]
    155 [penwidth=3,label="155"]
    156 [penwidth=3,label="156"]
    157 [penwidth=3,label="157"]
    158 [penwidth=3,label="158"]
    159 [penwidth=3,label="159"]
    160 [penwidth=3,label="160"]
    161 [penwidth=3,label="161"]
    162 [penwidth=3,label="162"]
    163 [penwidth=3,label="163"]
    164 [penwidth=3,label="164"]
    165 [penwidth=3,label="165"]
    166 [penwidth=3,label="166"]
    167 [penwidth=3,label="167"]
    168 [penwidth=3,label="168"]
    169 [penwidth=3,label="169"]
    170 [penwidth=3,label="170"]
    171 [penwidth=3,label="171"]
    172 [penwidth=3,label="172"]
    173 [penwidth=3,label="173"]
    174 [penwidth=3,label="174"]
    175 [penwidth=3,label="175"]
    176 [penwidth=3,label="176"]
    177 [penwidth=3,label="177"]
    178 [penwidth=3,label="178"]
    179 [penwidth=3,label="179"]
    180 [penwidth=3,label="180"]
    181 [penwidth=3,label="181"]
    182 [penwidth=3,label="182"]
    183 [penwidth=3,label="183"]
    184 [penwidth=3,label="184"]
    185 [penwidth=3,label="185"]
    186 [penwidth=3,label="186"]
    187 [penwidth=3,label="187"]
    188 [penwidth=3,label="188"]
    189 [penwidth=3,label="189"]
    190 [penwidth=3,label="190"]
    191 [penwidth=3,label="191"]
    192 [penwidth=3,label="192"]
    193 [penwidth=3,label="193"]
    194 [penwidth=3,label="194"]
    195 [penwidth=3,label="195"]
    196 [penwidth=3,label="196"]
    197 [penwidth=3,label="197"]
    198 [penwidth=3,label="198"]
    199 [penwidth=3,label="199"]
    200 [penwidth=3,label="200"]
    201 [penwidth=3,label="201"]
    202 [penwidth=3,label="202"]
    203 [penwidth=3,label="203"]
    204 [penwidth=3,label="204"]
    205 [penwidth=3,label="205"]
    206 [penwidth=3,label="206"]
    207 [penwidth=3,label="207"]
    208 [penwidth=3,label="208"]
    209 [penwidth=3,label="209"]
    210 [penwidth=3,label="210"]
    211 [penwidth=3,label="211"]
    212 [penwidth=3,label="212"]
    213 [penwidth=3,label="213"]
    214 [penwidth=3,label="214"]
    215 [penwidth=3,label="215"]
    216 [penwidth=3,label="216"]
    217 [penwidth=3,label="217"]
    218 [penwidth=3,label="218"]
    219 [penwidth=3,label="219"]
    220 [penwidth=3,label="220"]
    221 [penwidth=3,label="221"]
    222 [penwidth=3,label="222"]
    223 [penwidth=3,label="223"]
    224 [penwidth=3,label="224"]
    225 [penwidth=3,label="225"]
    226 [penwidth=3,label="226"]
    227 [penwidth=3,label="227"]
    228 [penwidth=3,label="228"]
    229 [penwidth=3,label="229"]
    230 [penwidth=3,label="230"]
    231 [penwidth=3,label="231"]
    232 [penwidth=3,label="232"]
    233 [penwidth=3,label="233"]
    234 [penwidth=3,label="234"]
    235 [penwidth=3,label="235"]
    236 [penwidth=3,label="236"]
    237 [penwidth=3,label="237"]
    238 [penwidth=3,label="238"]
    239 [penwidth=3,label="239"]
    240 [penwidth=3,label="240"]
    241 [penwidth=3,label="241"]
    242 [penwidth=3,label="242"]
    243 [penwidth=3,label="243"]
    244 [penwidth=3,label="244"]
    245 [penwidth=3,label="245"]
    246 [penwidth=3,label="246"]
    247 [penwidth=3,label="247"]
    248 [penwidth=3,label="248"]
    249 [penwidth=3,label="249"]
    250 [penwidth=3,label="250"]
    251 [penwidth=3,label="251"]
    252 [penwidth=3,label="252"]
    253 [penwidth=3,label="253"]
    254 [penwidth=3,label="254"]
    255 [penwidth=3,label="255"]
    256 [penwidth=3,label="256"]
    257 [penwidth=3,label="257"]
    258 [penwidth=3,label="258"]
    259 [penwidth=3,label="259"]
    260 [penwidth=3,label="260"]
    261 [penwidth=3,label="261"]
    262 [penwidth=3,label="262"]
    263 [penwidth=3,label="263"]
    264 [penwidth=3,label="264"]
    265 [penwidth=3,label="265"]
    266 [penwidth=3,label="266"]
    267 [penwidth=3,label="267"]
    268 [penwidth=3,label="268"]
    269 [penwidth=3,label="269"]
    270 [penwidth=3,label="270"]
    271 [penwidth=3,label="271"]
    272 [penwidth=3,label="272"]
    273 [penwidth=3,label="273"]
    274 [penwidth=3,label="274"]
    275 [penwidth=3,label="275"]
    276 [penwidth=3,label="276"]
    277 [penwidth=3,label="277"]
    278 [penwidth=3,label="278"]
    279 [penwidth=3,label="279"]
    280 [penwidth=3,label="280"]
    281 [penwidth=3,label="281"]
    282 [penwidth=3,label="282"]
    283 [penwidth=3,label="283"]
    284 [penwidth=3,label="284"]
    285 [penwidth=3,label="285"]
    286 [penwidth=3,label="286"]
    287 [penwidth=3,label="287"]
    288 [penwidth=3,label="288"]
    289 [penwidth=3,label="289"]
    290 [penwidth=3,label="290"]
    291 [penwidth=3,label="291"]
    292 [penwidth=3,label="292"]
    293 [penwidth=3,label="293"]
    294 [penwidth=3,label="294"]
    295 [penwidth=3,label="295"]
    296 [penwidth=3,label="296"]
    297 [penwidth=3,label="297"]
    298 [penwidth=3,label="298"]
    299 [penwidth=3,label="299"]
    300 [penwidth=3,label="300"]
    301 [penwidth=3,label="301"]
    302 [penwidth=3,label="302"]
    303 [penwidth=3,label="303"]
    304 [penwidth=3,label="304"]
    305 [penwidth=3,label="305"]
    306 [penwidth=3,label="306"]
    307 [penwidth=3,label="307"]
    308 [penwidth=3,label="308"]
    309 [penwidth=3,label="309"]
    310 [penwidth=3,label="310"]
    311 [penwidth=3,label="311"]
    312 [penwidth=3,label="312"]
    313 [penwidth=3,label="313"]
    314 [penwidth=3,label="314"]
    315 [penwidth=3,label="315"]
    316 [penwidth=3,label="316"]
    317 [penwidth=3,label="317"]
    318 [penwidth=3,label="318"]
    319 [penwidth=3,label="319"]
    320 [penwidth=3,label="320"]
    321 [penwidth=3,label="321"]
    322 [penwidth=3,label="322"]
    323 [penwidth=3,label="323"]
    324 [penwidth=3,label="324"]
    325 [penwidth=3,label="325"]
    326 [penwidth=3,label="326"]
    327 [penwidth=3,label="327"]
    328 [penwidth=3,label="328"]
    329 [penwidth=3,label="329"]
    330 [penwidth=3,label="330"]
    331 [penwidth=3,label="331"]
    332 [penwidth=3,label="332"]
    333 [penwidth=3,label="333"]
    334 [penwidth=3,label="334"]
    335 [penwidth=3,label="335"]
    336 [penwidth=3,label="336"]
    337 [penwidth=3,label="337"]
    338 [penwidth=3,label="338"]
    339 [penwidth=3,label="339"]
    340 [penwidth=3,label="340"]
    341 [penwidth=3,label="341"]
    342 [penwidth=3,label="342"]
    343 [penwidth=3,label="343"]
    344 [penwidth=3,label="344"]
    345 [penwidth=3,label="345"]
    346 [penwidth=3,label="346"]
    347 [penwidth=3,label="347"]
    348 [penwidth=3,label="348"]
    349 [penwidth=3,label="349"]
    350 [penwidth=3,label="350"]
    351 [penwidth=3,label="351"]
    352 [penwidth=3,label="352"]
    353 [penwidth=3,label="353"]
    354 [penwidth=3,label="354"]
    355 [penwidth=3,label="355"]
    356 [penwidth=3,label="356"]
    357 [penwidth=3,label="357"]
    358 [penwidth=3,label="358"]
    359 [penwidth=3,label="359"]
    360 [penwidth=3,label="360"]
    361 [penwidth=3,label="361"]
    362 [penwidth=3,label="362"]
    363 [penwidth=3,label="363"]
    364 [penwidth=3,label="364"]
    365 [penwidth=3,label="365"]
    366 [penwidth=3,label="366"]
    367 [penwidth=3,label="367"]
    368 [penwidth=3,label="368"]
    369 [penwidth=3,label="369"]
    370 [penwidth=3,label="370"]
    371 [penwidth=3,label="371"]
    372 [penwidth=3,label="372"]
    373 [penwidth=3,label="373"]
    374 [penwidth=3,label="374"]
    375 [penwidth=3,label="375"]
    376 [penwidth=3,label="376"]
    377 [penwidth=3,label="377"]
    378 [penwidth=3,label="378"]
    379 [penwidth=3,label="379"]
    380 [penwidth=3,label="380"]
    381 [penwidth=3,label="381"]
    382 [penwidth=3,label="382"]
    383 [penwidth=3,label="383"]
    384 [penwidth=3,label="384"]
    385 [penwidth=3,label="385"]
    386 [penwidth=3,label="386"]
    387 [penwidth=3,label="387"]
    388 [penwidth=3,label="388"]
    389 [penwidth=3,label="389"]
    390 [penwidth=3,label="390"]
    391 [penwidth=3,label="391"]
    392 [penwidth=3,label="392"]
    393 [penwidth=3,label="393"]
    394 [penwidth=3,label="394"]
    395 [penwidth=3,label="395"]
    396 [penwidth=3,label="396"]
    397 [penwidth=3,label="397"]
    398 [penwidth=3,label="398"]
    399 [penwidth=3,label="399"]

    60 -> 0 [penwidth=2]
    61 -> 0 [penwidth=2]
    62 -> 0 [penwidth=2]
    63 -> 0 [penwidth=2]
    64 -> 0 [penwidth=2]
    65 -> 0 [penwidth=2]
    66 -> 0 [penwidth=2]
    67 -> 60 [penwidth=2]
    68 -> 60 [penwidth=2]
    69 -> 60 [penwidth=2]
    70 -> 60 [penwidth=2]
    71 -> 60 [penwidth=2]
    72 -> 61 [penwidth=2]
    73 -> 61 [penwidth=2]
    74 -> 61 [penwidth=2]
    75 -> 61 [penwidth=2]
    76 -> 61 [penwidth=2]
    77 -> 61 [penwidth=2]
    78 -> 61 [penwidth=2]
    79 -> 61 [penwidth=2]
    80 -> 61 [penwidth=2]
    81 -> 61 [penwidth=2]
    82 -> 62 [penwidth=2]
    83 -> 62 [penwidth=2]
    84 -> 62 [penwidth=2]
    85 -> 62 [penwidth=2]
    86 -> 62 [penwidth=2]
    87 -> 62 [penwidth=2]
    88 -> 62 [penwidth=2]
    89 -> 62 [penwidth=2]
    90 -> 62 [penwidth=2]
    91 -> 62 [penwidth=2]
    92 -> 62 [penwidth=2]
    93 -> 62 [penwidth=2]
    94 -> 62 [penwidth=2]
    95 -> 62 [penwidth=2]
    96 -> 62 [penwidth=2]
    97 -> 62 [penwidth=2]
    98 -> 63 [penwidth=2]
    99 -> 63 [penwidth=2]
    100 -> 63 [penwidth=2]
    101 -> 63 [penwidth=2]
    396 -> 63 [penwidth=2]
    397 -> 63 [penwidth=2]
    398 -> 64 [penwidth=2]
    399 -> 64 [penwidth=2]
    312 -> 64 [penwidth=2]
    354 -> 64 [penwidth=2]
    313 -> 64 [penwidth=2]
    355 -> 64 [penwidth=2]
    314 -> 64 [penwidth=2]
    356 -> 65 [penwidth=2]
    315 -> 65 [penwidth=2]
    357 -> 65 [penwidth=2]
    316 -> 65 [penwidth=2]
    358 -> 65 [penwidth=2]
    317 -> 65 [penwidth=2]
    359 -> 65 [penwidth=2]
    318 -> 65 [penwidth=2]
    360 -> 65 [penwidth=2]
    319 -> 65 [penwidth=2]
    361 -> 65 [penwidth=2]
    320 -> 65 [penwidth=2]
    362 -> 65 [penwidth=2]
    321 -> 65 [penwidth=2]
    363 -> 66 [penwidth=2]
    322 -> 66 [penwidth=2]
    364 -> 66 [penwidth=2]
    323 -> 66 [penwidth=2]
    365 -> 66 [penwidth=2]
    324 -> 66 [penwidth=2]
    366 -> 66 [penwidth=2]
    325 -> 66 [penwidth=2]
    367 -> 66 [penwidth=2]
    326 -> 66 [penwidth=2]
    368 -> 66 [penwidth=2]
    327 -> 66 [penwidth=2]
    369 -> 66 [penwidth=2]
    328 -> 66 [penwidth=2]
    370 -> 66 [penwidth=2]
    329 -> 66 [penwidth=2]
    371 -> 66 [penwidth=2]
    330 -> 66 [penwidth=2]
    372 -> 66 [penwidth=2]
    331 -> 67 [penwidth=2]
    373 -> 67 [penwidth=2]
    332 -> 67 [penwidth=2]
    374 -> 67 [penwidth=2]
    333 -> 68 [penwidth=2]
    375 -> 68 [penwidth=2]
    334 -> 68 [penwidth=2]
    376 -> 68 [penwidth=2]
    335 -> 68 [penwidth=2]
    377 -> 68 [penwidth=2]
    336 -> 68 [penwidth=2]
    378 -> 68 [penwidth=2]
    1 -> 69 [penwidth=2]
    337 -> 69 [penwidth=2]
    379 -> 69 [penwidth=2]
    2 -> 69 [penwidth=2]
    338 -> 69 [penwidth=2]
    380 -> 69 [penwidth=2]
    3 -> 69 [penwidth=2]
    339 -> 69 [penwidth=2]
    381 -> 69 [penwidth=2]
    4 -> 70 [penwidth=2]
    340 -> 70 [penwidth=2]
    382 -> 71 [penwidth=2]
    5 -> 71 [penwidth=2]
    341 -> 71 [penwidth=2]
    383 -> 71 [penwidth=2]
    6 -> 71 [penwidth=2]
    342 -> 71 [penwidth=2]
    384 -> 72 [penwidth=2]
    7 -> 72 [penwidth=2]
    343 -> 72 [penwidth=2]
    385 -> 73 [penwidth=2]
    8 -> 73 [penwidth=2]
    344 -> 73 [penwidth=2]
    386 -> 73 [penwidth=2]
    9 -> 73 [penwidth=2]
    345 -> 73 [penwidth=2]
    387 -> 73 [penwidth=2]
    10 -> 73 [penwidth=2]
    346 -> 73 [penwidth=2]
    388 -> 73 [penwidth=2]
    11 -> 73 [penwidth=2]
    347 -> 73 [penwidth=2]
    389 -> 73 [penwidth=2]
    12 -> 73 [penwidth=2]
    348 -> 73 [penwidth=2]
    390 -> 73 [penwidth=2]
    13 -> 73 [penwidth=2]
    349 -> 73 [penwidth=2]
    391 -> 73 [penwidth=2]
    14 -> 73 [penwidth=2]
    350 -> 73 [penwidth=2]
    392 -> 73 [penwidth=2]
    15 -> 74 [penwidth=2]
    351 -> 75 [penwidth=2]
    393 -> 75 [penwidth=2]
    16 -> 75 [penwidth=2]
    352 -> 75 [penwidth=2]
    394 -> 75 [penwidth=2]
    17 -> 75 [penwidth=2]
    353 -> 75 [penwidth=2]
    395 -> 75 [penwidth=2]
    18 -> 75 [penwidth=2]
    270 -> 75 [penwidth=2]
    19 -> 75 [penwidth=2]
    271 -> 75 [penwidth=2]
    20 -> 75 [penwidth=2]
    272 -> 75 [penwidth=2]
    21 -> 75 [penwidth=2]
    273 -> 75 [penwidth=2]
    22 -> 76 [penwidth=2]
    274 -> 76 [penwidth=2]
    23 -> 76 [penwidth=2]
    275 -> 76 [penwidth=2]
    24 -> 76 [penwidth=2]
    276 -> 76 [penwidth=2]
    25 -> 76 [penwidth=2]
    277 -> 76 [penwidth=2]
    26 -> 76 [penwidth=2]
    278 -> 76 [penwidth=2]
    27 -> 76 [penwidth=2]
    279 -> 76 [penwidth=2]
    28 -> 76 [penwidth=2]
    280 -> 76 [penwidth=2]
    29 -> 76 [penwidth=2]
    281 -> 76 [penwidth=2]
    30 -> 76 [penwidth=2]
    282 -> 76 [penwidth=2]
    31 -> 76 [penwidth=2]
    283 -> 76 [penwidth=2]
    32 -> 76 [penwidth=2]
    284 -> 76 [penwidth=2]
    33 -> 76 [penwidth=2]
    285 -> 76 [penwidth=2]
    34 -> 76 [penwidth=2]
    286 -> 76 [penwidth=2]
    35 -> 77 [penwidth=2]
    287 -> 78 [penwidth=2]
    36 -> 78 [penwidth=2]
    288 -> 78 [penwidth=2]
    37 -> 78 [penwidth=2]
    289 -> 78 [penwidth=2]
    38 -> 78 [penwidth=2]
    290 -> 78 [penwidth=2]
    39 -> 78 [penwidth=2]
    291 -> 78 [penwidth=2]
    40 -> 78 [penwidth=2]
    292 -> 78 [penwidth=2]
    41 -> 78 [penwidth=2]
    293 -> 78 [penwidth=2]
    42 -> 79 [penwidth=2]
    294 -> 79 [penwidth=2]
    43 -> 79 [penwidth=2]
    295 -> 79 [penwidth=2]
    44 -> 79 [penwidth=2]
    296 -> 79 [penwidth=2]
    45 -> 79 [penwidth=2]
    297 -> 79 [penwidth=2]
    46 -> 79 [penwidth=2]
    298 -> 79 [penwidth=2]
    47 -> 79 [penwidth=2]
    299 -> 79 [penwidth=2]
    48 -> 79 [penwidth=2]
    300 -> 80 [penwidth=2]
    49 -> 80 [penwidth=2]
    301 -> 80 [penwidth=2]
    50 -> 80 [penwidth=2]
    302 -> 80 [penwidth=2]
    51 -> 80 [penwidth=2]
    303 -> 80 [penwidth=2]
    52 -> 80 [penwidth=2]
    304 -> 80 [penwidth=2]
    53 -> 80 [penwidth=2]
    305 -> 80 [penwidth=2]
    54 -> 80 [penwidth=2]
    306 -> 80 [penwidth=2]
    55 -> 80 [penwidth=2]
    307 -> 80 [penwidth=2]
    56 -> 80 [penwidth=2]
    308 -> 80 [penwidth=2]
    57 -> 80 [penwidth=2]
    309 -> 80 [penwidth=2]
    58 -> 80 [penwidth=2]
    310 -> 80 [penwidth=2]
    59 -> 80 [penwidth=2]
    311 -> 80 [penwidth=2]
    228 -> 80 [penwidth=2]
    229 -> 80 [penwidth=2]
    230 -> 80 [penwidth=2]
    231 -> 80 [penwidth=2]
    232 -> 80 [penwidth=2]
    233 -> 80 [penwidth=2]
    234 -> 80 [penwidth=2]
    235 -> 81 [penwidth=2]
    236 -> 81 [penwidth=2]
    237 -> 81 [penwidth=2]
    238 -> 81 [penwidth=2]
    239 -> 81 [penwidth=2]
    240 -> 81 [penwidth=2]
    241 -> 81 [penwidth=2]
    242 -> 81 [penwidth=2]
    243 -> 81 [penwidth=2]
    244 -> 81 [penwidth=2]
    245 -> 81 [penwidth=2]
    246 -> 81 [penwidth=2]
    247 -> 81 [penwidth=2]
    248 -> 81 [penwidth=2]
    249 -> 81 [penwidth=2]
    250 -> 81 [penwidth=2]
    251 -> 81 [penwidth=2]
    252 -> 81 [penwidth=2]
    253 -> 81 [penwidth=2]
    254 -> 81 [penwidth=2]
    255 -> 81 [penwidth=2]
    256 -> 81 [penwidth=2]
    257 -> 81 [penwidth=2]
    258 -> 81 [penwidth=2]
    259 -> 81 [penwidth=2]
    260 -> 81 [penwidth=2]
    261 -> 81 [penwidth=2]
    262 -> 81 [penwidth=2]
    263 -> 81 [penwidth=2]
    264 -> 81 [penwidth=2]
    265 -> 82 [penwidth=2]
    266 -> 82 [penwidth=2]
    267 -> 82 [penwidth=2]
    268 -> 82 [penwidth=2]
    269 -> 82 [penwidth=2]
    186 -> 82 [penwidth=2]
    187 -> 82 [penwidth=2]
    188 -> 83 [penwidth=2]
    189 -> 83 [penwidth=2]
    190 -> 83 [penwidth=2]
    191 -> 83 [penwidth=2]
    192 -> 83 [penwidth=2]
    193 -> 83 [penwidth=2]
    194 -> 83 [penwidth=2]
    195 -> 83 [penwidth=2]
    196 -> 83 [penwidth=2]
    197 -> 83 [penwidth=2]
    198 -> 83 [penwidth=2]
    199 -> 83 [penwidth=2]
    200 -> 83 [penwidth=2]
    201 -> 83 [penwidth=2]
    202 -> 83 [penwidth=2]
    203 -> 83 [penwidth=2]
    204 -> 83 [penwidth=2]
    205 -> 84 [penwidth=2]
    206 -> 84 [penwidth=2]
    207 -> 84 [penwidth=2]
    208 -> 84 [penwidth=2]
    209 -> 84 [penwidth=2]
    210 -> 84 [penwidth=2]
    211 -> 84 [penwidth=2]
    212 -> 84 [penwidth=2]
    213 -> 84 [penwidth=2]
    214 -> 84 [penwidth=2]
    215 -> 84 [penwidth=2]
    216 -> 84 [penwidth=2]
    217 -> 84 [penwidth=2]
    218 -> 84 [penwidth=2]
    219 -> 84 [penwidth=2]
    220 -> 84 [penwidth=2]
    221 -> 84 [penwidth=2]
    222 -> 84 [penwidth=2]
    223 -> 84 [penwidth=2]
    224 -> 84 [penwidth=2]
    225 -> 84 [penwidth=2]
    226 -> 84 [penwidth=2]
    227 -> 84 [penwidth=2]
    102 -> 84 [penwidth=2]
    144 -> 84 [penwidth=2]
    103 -> 84 [penwidth=2]
    145 -> 84 [penwidth=2]
    104 -> 84 [penwidth=2]
    146 -> 84 [penwidth=2]
    105 -> 85 [penwidth=2]
    147 -> 85 [penwidth=2]
    106 -> 85 [penwidth=2]
    148 -> 85 [penwidth=2]
    107 -> 85 [penwidth=2]
    149 -> 85 [penwidth=2]
    108 -> 85 [penwidth=2]
    150 -> 85 [penwidth=2]
    109 -> 85 [penwidth=2]
    151 -> 85 [penwidth=2]
    110 -> 85 [penwidth=2]
    152 -> 85 [penwidth=2]
    111 -> 85 [penwidth=2]
    153 -> 85 [penwidth=2]
    112 -> 85 [penwidth=2]
    154 -> 85 [penwidth=2]
    113 -> 86 [penwidth=2]
    155 -> 86 [penwidth=2]
    114 -> 86 [penwidth=2]
    156 -> 86 [penwidth=2]
    115 -> 86 [penwidth=2]
    157 -> 86 [penwidth=2]
    116 -> 86 [penwidth=2]
    158 -> 86 [penwidth=2]
    117 -> 86 [penwidth=2]
    159 -> 87 [penwidth=2]
    118 -> 87 [penwidth=2]
    160 -> 87 [penwidth=2]
    119 -> 87 [penwidth=2]
    161 -> 87 [penwidth=2]
    120 -> 87 [penwidth=2]
    162 -> 87 [penwidth=2]
    121 -> 87 [penwidth=2]
    163 -> 88 [penwidth=2]
    122 -> 88 [penwidth=2]
    164 -> 88 [penwidth=2]
    123 -> 88 [penwidth=2]
    165 -> 88 [penwidth=2]
    124 -> 88 [penwidth=2]
    166 -> 88 [penwidth=2]
    125 -> 88 [penwidth=2]
    167 -> 88 [penwidth=2]
    126 -> 88 [penwidth=2]
    168 -> 88 [penwidth=2]
    127 -> 88 [penwidth=2]
    169 -> 88 [penwidth=2]
    128 -> 89 [penwidth=2]
    170 -> 89 [penwidth=2]
    129 -> 89 [penwidth=2]
    171 -> 90 [penwidth=2]
    130 -> 90 [penwidth=2]
    172 -> 90 [penwidth=2]
    131 -> 90 [penwidth=2]
    173 -> 90 [penwidth=2]
    132 -> 90 [penwidth=2]
    174 -> 90 [penwidth=2]
    133 -> 90 [penwidth=2]
    175 -> 90 [penwidth=2]
    134 -> 90 [penwidth=2]
    176 -> 90 [penwidth=2]
    135 -> 90 [penwidth=2]
    177 -> 90 [penwidth=2]
    136 -> 90 [penwidth=2]
    178 -> 90 [penwidth=2]
    137 -> 90 [penwidth=2]
    179 -> 90 [penwidth=2]
    138 -> 90 [penwidth=2]
    180 -> 90 [penwidth=2]
    139 -> 90 [penwidth=2]
    181 -> 90 [penwidth=2]
    140 -> 90 [penwidth=2]
    182 -> 90 [penwidth=2]
    141 -> 90 [penwidth=2]
    183 -> 90 [penwidth=2]
    142 -> 90 [penwidth=2]
    184 -> 90 [penwidth=2]
    143 -> 90 [penwidth=2]
    185 -> 91 [penwidth=2]
    87 -> 65 [penwidth=2]
    98 -> 62 [penwidth=2]
    98 -> 61 [penwidth=2]
    98 -> 65 [penwidth=2]
    312 -> 61 [penwidth=2]
    321 -> 64 [penwidth=2]
    374 -> 315 [penwidth=2]
    374 -> 330 [penwidth=2]
    374 -> 99 [penwidth=2]
    374 -> 94 [penwidth=2]
    374 -> 365 [penwidth=2]
    374 -> 357 [penwidth=2]
    374 -> 372 [penwidth=2]
    374 -> 360 [penwidth=2]
    375 -> 363 [penwidth=2]
    375 -> 317 [penwidth=2]
    375 -> 97 [penwidth=2]
    375 -> 73 [penwidth=2]
    375 -> 396 [penwidth=2]
    375 -> 367 [penwidth=2]
    375 -> 91 [penwidth=2]
    375 -> 360 [penwidth=2]
    375 -> 325 [penwidth=2]
    375 -> 82 [penwidth=2]
    375 -> 79 [penwidth=2]
    375 -> 312 [penwidth=2]
    375 -> 95 [penwidth=2]
    375 -> 399 [penwidth=2]
    375 -> 372 [penwidth=2]
    375 -> 322 [penwidth=2]
    375 -> 315 [penwidth=2]
    375 -> 81 [penwidth=2]
    375 -> 101 [penwidth=2]
    375 -> 359 [penwidth=2]
    375 -> 98 [penwidth=2]
    375 -> 75 [penwidth=2]
    375 -> 318 [penwidth=2]
    375 -> 89 [penwidth=2]
    375 -> 354 [penwidth=2]
    375 -> 84 [penwidth=2]
    375 -> 72 [penwidth=2]
    375 -> 90 [penwidth=2]
    375 -> 327 [penwidth=2]
    375 -> 313 [penwidth=2]
    375 -> 398 [penwidth=2]
    375 -> 67 [penwidth=2]
    375 -> 80 [penwidth=2]
    375 -> 328 [penwidth=2]
    375 -> 371 [penwidth=2]
    375 -> 83 [penwidth=2]
    375 -> 365 [penwidth=2]
    375 -> 76 [penwidth=2]
    375 -> 316 [penwidth=2]
    375 -> 326 [penwidth=2]
    375 -> 361 [penwidth=2]
    375 -> 74 [penwidth=2]
    375 -> 320 [penwidth=2]
    375 -> 319 [penwidth=2]
    375 -> 323 [penwidth=2]
    375 -> 370 [penwidth=2]
    375 -> 70 [penwidth=2]
    375 -> 86 [penwidth=2]
    375 -> 364 [penwidth=2]
    375 -> 362 [penwidth=2]
    375 -> 369 [penwidth=2]
    375 -> 77 [penwidth=2]
    375 -> 330 [penwidth=2]
    375 -> 324 [penwidth=2]
    375 -> 88 [penwidth=2]
    375 -> 357 [penwidth=2]
    375 -> 71 [penwidth=2]
    375 -> 358 [penwidth=2]
    375 -> 93 [penwidth=2]
    375 -> 96 [penwidth=2]
    375 -> 69 [penwidth=2]
    375 -> 78 [penwidth=2]
    375 -> 397 [penwidth=2]
    375 -> 355 [penwidth=2]
    375 -> 356 [penwidth=2]
    375 -> 85 [penwidth=2]
    375 -> 94 [penwidth=2]
    337 -> 92 [penwidth=2]
    337 -> 330 [penwidth=2]
    337 -> 329 [penwidth=2]
    337 -> 88 [penwidth=2]
    337 -> 82 [penwidth=2]
    337 -> 366 [penwidth=2]
    337 -> 396 [penwidth=2]
    337 -> 90 [penwidth=2]
    337 -> 93 [penwidth=2]
    337 -> 87 [penwidth=2]
    337 -> 358 [penwidth=2]
    337 -> 95 [penwidth=2]
    337 -> 86 [penwidth=2]
    337 -> 81 [penwidth=2]
    337 -> 99 [penwidth=2]
    337 -> 327 [penwidth=2]
    337 -> 369 [penwidth=2]
    337 -> 320 [penwidth=2]
    337 -> 372 [penwidth=2]
    337 -> 101 [penwidth=2]
    337 -> 360 [penwidth=2]
    337 -> 355 [penwidth=2]
    337 -> 370 [penwidth=2]
    337 -> 363 [penwidth=2]
    337 -> 100 [penwidth=2]
    337 -> 321 [penwidth=2]
    337 -> 365 [penwidth=2]
    337 -> 322 [penwidth=2]
    337 -> 96 [penwidth=2]
    337 -> 325 [penwidth=2]
    337 -> 356 [penwidth=2]
    337 -> 368 [penwidth=2]
    337 -> 73 [penwidth=2]
    337 -> 85 [penwidth=2]
    337 -> 399 [penwidth=2]
    337 -> 364 [penwidth=2]
    337 -> 362 [penwidth=2]
    337 -> 80 [penwidth=2]
    337 -> 97 [penwidth=2]
    337 -> 74 [penwidth=2]
    337 -> 398 [penwidth=2]
    337 -> 354 [penwidth=2]
    337 -> 77 [penwidth=2]
    337 -> 318 [penwidth=2]
    337 -> 84 [penwidth=2]
    337 -> 315 [penwidth=2]
    380 -> 316 [penwidth=2]
    380 -> 359 [penwidth=2]
    380 -> 361 [penwidth=2]
    380 -> 90 [penwidth=2]
    380 -> 67 [penwidth=2]
    380 -> 99 [penwidth=2]
    380 -> 75 [penwidth=2]
    380 -> 76 [penwidth=2]
    380 -> 399 [penwidth=2]
    380 -> 314 [penwidth=2]
    380 -> 355 [penwidth=2]
    380 -> 362 [penwidth=2]
    380 -> 88 [penwidth=2]
    380 -> 73 [penwidth=2]
    380 -> 360 [penwidth=2]
    380 -> 94 [penwidth=2]
    380 -> 320 [penwidth=2]
    380 -> 367 [penwidth=2]
    380 -> 322 [penwidth=2]
    380 -> 370 [penwidth=2]
    380 -> 315 [penwidth=2]
    380 -> 68 [penwidth=2]
    380 -> 101 [penwidth=2]
    380 -> 81 [penwidth=2]
    380 -> 398 [penwidth=2]
    380 -> 100 [penwidth=2]
    380 -> 95 [penwidth=2]
    380 -> 79 [penwidth=2]
    380 -> 366 [penwidth=2]
    380 -> 91 [penwidth=2]
    380 -> 72 [penwidth=2]
    380 -> 96 [penwidth=2]
    380 -> 318 [penwidth=2]
    380 -> 326 [penwidth=2]
    380 -> 313 [penwidth=2]
    380 -> 93 [penwidth=2]
    380 -> 97 [penwidth=2]
    380 -> 357 [penwidth=2]
    380 -> 324 [penwidth=2]
    380 -> 319 [penwidth=2]
    380 -> 82 [penwidth=2]
    380 -> 372 [penwidth=2]
    380 -> 323 [penwidth=2]
    380 -> 84 [penwidth=2]
    380 -> 368 [penwidth=2]
    380 -> 365 [penwidth=2]
    380 -> 80 [penwidth=2]
    380 -> 330 [penwidth=2]
    380 -> 71 [penwidth=2]
    380 -> 369 [penwidth=2]
    380 -> 83 [penwidth=2]
    380 -> 85 [penwidth=2]
    380 -> 397 [penwidth=2]
    380 -> 87 [penwidth=2]
    380 -> 92 [penwidth=2]
    380 -> 329 [penwidth=2]
    380 -> 363 [penwidth=2]
    380 -> 89 [penwidth=2]
    380 -> 317 [penwidth=2]
    380 -> 321 [penwidth=2]
    380 -> 364 [penwidth=2]
    380 -> 371 [penwidth=2]
    380 -> 78 [penwidth=2]
    380 -> 86 [penwidth=2]
    380 -> 70 [penwidth=2]
    380 -> 356 [penwidth=2]
    380 -> 77 [penwidth=2]
    380 -> 358 [penwidth=2]
    380 -> 325 [penwidth=2]
    380 -> 74 [penwidth=2]
    380 -> 98 [penwidth=2]
    380 -> 354 [penwidth=2]
    380 -> 396 [penwidth=2]
    380 -> 312 [penwidth=2]
    342 -> 358 [penwidth=2]
    342 -> 326 [penwidth=2]
    342 -> 97 [penwidth=2]
    342 -> 91 [penwidth=2]
    342 -> 359 [penwidth=2]
    342 -> 68 [penwidth=2]
    342 -> 72 [penwidth=2]
    342 -> 323 [penwidth=2]
    342 -> 372 [penwidth=2]
    342 -> 371 [penwidth=2]
    342 -> 84 [penwidth=2]
    342 -> 73 [penwidth=2]
    342 -> 328 [penwidth=2]
    342 -> 356 [penwidth=2]
    342 -> 94 [penwidth=2]
    342 -> 101 [penwidth=2]
    342 -> 92 [penwidth=2]
    342 -> 74 [penwidth=2]
    342 -> 82 [penwidth=2]
    342 -> 90 [penwidth=2]
    342 -> 327 [penwidth=2]
    342 -> 70 [penwidth=2]
    342 -> 399 [penwidth=2]
    342 -> 322 [penwidth=2]
    387 -> 313 [penwidth=2]
    387 -> 85 [penwidth=2]
    387 -> 325 [penwidth=2]
    387 -> 101 [penwidth=2]
    387 -> 99 [penwidth=2]
    387 -> 366 [penwidth=2]
    387 -> 94 [penwidth=2]
    387 -> 316 [penwidth=2]
    387 -> 90 [penwidth=2]
    387 -> 77 [penwidth=2]
    387 -> 368 [penwidth=2]
    387 -> 360 [penwidth=2]
    387 -> 364 [penwidth=2]
    387 -> 318 [penwidth=2]
    387 -> 89 [penwidth=2]
    387 -> 76 [penwidth=2]
    387 -> 369 [penwidth=2]
    387 -> 75 [penwidth=2]
    387 -> 358 [penwidth=2]
    387 -> 87 [penwidth=2]
    387 -> 71 [penwidth=2]
    387 -> 97 [penwidth=2]
    387 -> 317 [penwidth=2]
    387 -> 328 [penwidth=2]
    347 -> 330 [penwidth=2]
    347 -> 364 [penwidth=2]
    347 -> 316 [penwidth=2]
    347 -> 363 [penwidth=2]
    347 -> 85 [penwidth=2]
    347 -> 91 [penwidth=2]
    347 -> 83 [penwidth=2]
    347 -> 80 [penwidth=2]
    347 -> 370 [penwidth=2]
    347 -> 88 [penwidth=2]
    347 -> 75 [penwidth=2]
    347 -> 86 [penwidth=2]
    347 -> 95 [penwidth=2]
    347 -> 327 [penwidth=2]
    347 -> 71 [penwidth=2]
    347 -> 357 [penwidth=2]
    347 -> 89 [penwidth=2]
    347 -> 397 [penwidth=2]
    347 -> 354 [penwidth=2]
    347 -> 78 [penwidth=2]
    347 -> 90 [penwidth=2]
    347 -> 399 [penwidth=2]
    347 -> 359 [penwidth=2]
    347 -> 368 [penwidth=2]
    347 -> 398 [penwidth=2]
    347 -> 324 [penwidth=2]
    347 -> 396 [penwidth=2]
    347 -> 100 [penwidth=2]
    347 -> 84 [penwidth=2]
    347 -> 358 [penwidth=2]
    347 -> 322 [penwidth=2]
    347 -> 317 [penwidth=2]
    347 -> 312 [penwidth=2]
    347 -> 326 [penwidth=2]
    347 -> 371 [penwidth=2]
    347 -> 315 [penwidth=2]
    347 -> 94 [penwidth=2]
    347 -> 362 [penwidth=2]
    347 -> 97 [penwidth=2]
    347 -> 313 [penwidth=2]
    347 -> 68 [penwidth=2]
    347 -> 320 [penwidth=2]
    347 -> 77 [penwidth=2]
    347 -> 70 [penwidth=2]
    347 -> 101 [penwidth=2]
    347 -> 96 [penwidth=2]
    347 -> 329 [penwidth=2]
    347 -> 372 [penwidth=2]
    347 -> 81 [penwidth=2]
    347 -> 323 [penwidth=2]
    347 -> 98 [penwidth=2]
    347 -> 93 [penwidth=2]
    347 -> 92 [penwidth=2]
    347 -> 72 [penwidth=2]
    347 -> 318 [penwidth=2]
    347 -> 367 [penwidth=2]
    347 -> 69 [penwidth=2]
    347 -> 79 [penwidth=2]
    12 -> 330 [penwidth=2]
    12 -> 74 [penwidth=2]
    12 -> 92 [penwidth=2]
    12 -> 97 [penwidth=2]
    12 -> 367 [penwidth=2]
    12 -> 78 [penwidth=2]
    12 -> 86 [penwidth=2]
    12 -> 89 [penwidth=2]
    12 -> 360 [penwidth=2]
    12 -> 67 [penwidth=2]
    12 -> 318 [penwidth=2]
    12 -> 317 [penwidth=2]
    12 -> 398 [penwidth=2]
    350 -> 85 [penwidth=2]
    350 -> 68 [penwidth=2]
    350 -> 325 [penwidth=2]
    350 -> 317 [penwidth=2]
    350 -> 69 [penwidth=2]
    350 -> 94 [penwidth=2]
    350 -> 322 [penwidth=2]
    350 -> 80 [penwidth=2]
    350 -> 92 [penwidth=2]
    350 -> 75 [penwidth=2]
    350 -> 316 [penwidth=2]
    350 -> 360 [penwidth=2]
    350 -> 397 [penwidth=2]
    350 -> 312 [penwidth=2]
    350 -> 83 [penwidth=2]
    350 -> 370 [penwidth=2]
    350 -> 79 [penwidth=2]
    350 -> 329 [penwidth=2]
    350 -> 330 [penwidth=2]
    350 -> 320 [penwidth=2]
    394 -> 94 [penwidth=2]
    394 -> 71 [penwidth=2]
    394 -> 96 [penwidth=2]
    394 -> 370 [penwidth=2]
    394 -> 68 [penwidth=2]
    394 -> 362 [penwidth=2]
    394 -> 372 [penwidth=2]
    394 -> 76 [penwidth=2]
    394 -> 359 [penwidth=2]
    394 -> 321 [penwidth=2]
    394 -> 312 [penwidth=2]
    394 -> 371 [penwidth=2]
    394 -> 398 [penwidth=2]
    394 -> 313 [penwidth=2]
    394 -> 399 [penwidth=2]
    394 -> 364 [penwidth=2]
    394 -> 98 [penwidth=2]
    394 -> 397 [penwidth=2]
    394 -> 79 [penwidth=2]
    394 -> 318 [penwidth=2]
    394 -> 315 [penwidth=2]
    394 -> 88 [penwidth=2]
    394 -> 356 [penwidth=2]
    394 -> 317 [penwidth=2]
    394 -> 358 [penwidth=2]
    394 -> 319 [penwidth=2]
    394 -> 330 [penwidth=2]
    394 -> 324 [penwidth=2]
    394 -> 83 [penwidth=2]
    394 -> 89 [penwidth=2]
    394 -> 366 [penwidth=2]
    394 -> 367 [penwidth=2]
    394 -> 95 [penwidth=2]
    394 -> 86 [penwidth=2]
    394 -> 396 [penwidth=2]
    394 -> 70 [penwidth=2]
    394 -> 73 [penwidth=2]
    394 -> 97 [penwidth=2]
    394 -> 329 [penwidth=2]
    394 -> 355 [penwidth=2]
    394 -> 87 [penwidth=2]
    27 -> 78 [penwidth=2]
    27 -> 359 [penwidth=2]
    27 -> 71 [penwidth=2]
    27 -> 357 [penwidth=2]
    27 -> 88 [penwidth=2]
    27 -> 360 [penwidth=2]
    27 -> 75 [penwidth=2]
    27 -> 96 [penwidth=2]
    27 -> 89 [penwidth=2]
    27 -> 70 [penwidth=2]
    27 -> 319 [penwidth=2]
    27 -> 321 [penwidth=2]
    27 -> 361 [penwidth=2]
    27 -> 68 [penwidth=2]
    27 -> 90 [penwidth=2]
    27 -> 356 [penwidth=2]
    27 -> 322 [penwidth=2]
    39 -> 67 [penwidth=2]
    39 -> 362 [penwidth=2]
    39 -> 364 [penwidth=2]
    39 -> 323 [penwidth=2]
    39 -> 358 [penwidth=2]
    39 -> 318 [penwidth=2]
    39 -> 94 [penwidth=2]
    39 -> 312 [penwidth=2]
    39 -> 325 [penwidth=2]
    39 -> 327 [penwidth=2]
    39 -> 357 [penwidth=2]
    39 -> 322 [penwidth=2]
    39 -> 91 [penwidth=2]
    39 -> 85 [penwidth=2]
    39 -> 68 [penwidth=2]
    39 -> 367 [penwidth=2]
    39 -> 83 [penwidth=2]
    39 -> 368 [penwidth=2]
    39 -> 328 [penwidth=2]
    39 -> 365 [penwidth=2]
    39 -> 99 [penwidth=2]
    39 -> 359 [penwidth=2]
    39 -> 369 [penwidth=2]
    39 -> 398 [penwidth=2]
    39 -> 313 [penwidth=2]
    39 -> 98 [penwidth=2]
    39 -> 93 [penwidth=2]
    39 -> 76 [penwidth=2]
    39 -> 324 [penwidth=2]
    39 -> 70 [penwidth=2]
    39 -> 89 [penwidth=2]
    39 -> 355 [penwidth=2]
    39 -> 79 [penwidth=2]
    39 -> 315 [penwidth=2]
    39 -> 74 [penwidth=2]
    39 -> 72 [penwidth=2]
    39 -> 97 [penwidth=2]
    39 -> 87 [penwidth=2]
    39 -> 329 [penwidth=2]
    39 -> 321 [penwidth=2]
    39 -> 319 [penwidth=2]
    39 -> 372 [penwidth=2]
    39 -> 366 [penwidth=2]
    39 -> 397 [penwidth=2]
    39 -> 92 [penwidth=2]
    39 -> 69 [penwidth=2]
    39 -> 363 [penwidth=2]
    40 -> 327 [penwidth=2]
    40 -> 92 [penwidth=2]
    40 -> 397 [penwidth=2]
    40 -> 72 [penwidth=2]
    40 -> 73 [penwidth=2]
    40 -> 355 [penwidth=2]
    40 -> 323 [penwidth=2]
    40 -> 322 [penwidth=2]
    40 -> 319 [penwidth=2]
    40 -> 365 [penwidth=2]
    40 -> 315 [penwidth=2]
    40 -> 318 [penwidth=2]
    40 -> 77 [penwidth=2]
    40 -> 361 [penwidth=2]
    40 -> 86 [penwidth=2]
    40 -> 101 [penwidth=2]
    40 -> 80 [penwidth=2]
    40 -> 370 [penwidth=2]
    40 -> 364 [penwidth=2]
    40 -> 90 [penwidth=2]
    40 -> 366 [penwidth=2]
    40 -> 357 [penwidth=2]
    40 -> 371 [penwidth=2]
    40 -> 79 [penwidth=2]
    40 -> 94 [penwidth=2]
    40 -> 356 [penwidth=2]
    40 -> 91 [penwidth=2]
    40 -> 313 [penwidth=2]
    40 -> 328 [penwidth=2]
    40 -> 368 [penwidth=2]
    40 -> 93 [penwidth=2]
    40 -> 399 [penwidth=2]
    40 -> 396 [penwidth=2]
    40 -> 317 [penwidth=2]
    40 -> 87 [penwidth=2]
    40 -> 95 [penwidth=2]
    40 -> 362 [penwidth=2]
    50 -> 398 [penwidth=2]
    50 -> 69 [penwidth=2]
    50 -> 330 [penwidth=2]
    50 -> 101 [penwidth=2]
    50 -> 372 [penwidth=2]
    50 -> 357 [penwidth=2]
    50 -> 81 [penwidth=2]
    50 -> 371 [penwidth=2]
    50 -> 354 [penwidth=2]
    50 -> 75 [penwidth=2]
    50 -> 92 [penwidth=2]
    50 -> 98 [penwidth=2]
    50 -> 85 [penwidth=2]
    50 -> 83 [penwidth=2]
    50 -> 87 [penwidth=2]
    50 -> 93 [penwidth=2]
    50 -> 363 [penwidth=2]
    50 -> 327 [penwidth=2]
    50 -> 316 [penwidth=2]
    50 -> 74 [penwidth=2]
    305 -> 365 [penwidth=2]
    305 -> 358 [penwidth=2]
    305 -> 81 [penwidth=2]
    305 -> 327 [penwidth=2]
    305 -> 91 [penwidth=2]
    305 -> 93 [penwidth=2]
    305 -> 355 [penwidth=2]
    305 -> 396 [penwidth=2]
    305 -> 361 [penwidth=2]
    305 -> 73 [penwidth=2]
    305 -> 83 [penwidth=2]
    305 -> 321 [penwidth=2]
    305 -> 359 [penwidth=2]
    305 -> 313 [penwidth=2]
    305 -> 324 [penwidth=2]
    305 -> 315 [penwidth=2]
    305 -> 372 [penwidth=2]
    305 -> 322 [penwidth=2]
    305 -> 362 [penwidth=2]
    305 -> 371 [penwidth=2]
    305 -> 96 [penwidth=2]
    305 -> 367 [penwidth=2]
    305 -> 97 [penwidth=2]
    305 -> 320 [penwidth=2]
    305 -> 370 [penwidth=2]
    305 -> 74 [penwidth=2]
    305 -> 399 [penwidth=2]
    305 -> 68 [penwidth=2]
    305 -> 328 [penwidth=2]
    305 -> 70 [penwidth=2]
    305 -> 319 [penwidth=2]
    305 -> 92 [penwidth=2]
    305 -> 325 [penwidth=2]
    305 -> 398 [penwidth=2]
    305 -> 88 [penwidth=2]
    305 -> 329 [penwidth=2]
    305 -> 101 [penwidth=2]
    305 -> 77 [penwidth=2]
    311 -> 360 [penwidth=2]
    311 -> 370 [penwidth=2]
    311 -> 315 [penwidth=2]
    311 -> 75 [penwidth=2]
    311 -> 329 [penwidth=2]
    311 -> 323 [penwidth=2]
    311 -> 86 [penwidth=2]
    311 -> 83 [penwidth=2]
    311 -> 81 [penwidth=2]
    311 -> 320 [penwidth=2]
    311 -> 73 [penwidth=2]
    311 -> 314 [penwidth=2]
    311 -> 78 [penwidth=2]
    311 -> 88 [penwidth=2]
    311 -> 396 [penwidth=2]
    311 -> 92 [penwidth=2]
    311 -> 362 [penwidth=2]
    311 -> 90 [penwidth=2]
    311 -> 93 [penwidth=2]
    311 -> 355 [penwidth=2]
    311 -> 85 [penwidth=2]
    311 -> 94 [penwidth=2]
    311 -> 96 [penwidth=2]
    311 -> 68 [penwidth=2]
    311 -> 365 [penwidth=2]
    311 -> 77 [penwidth=2]
    311 -> 101 [penwidth=2]
    311 -> 321 [penwidth=2]
    311 -> 100 [penwidth=2]
    311 -> 366 [penwidth=2]
    311 -> 356 [penwidth=2]
    311 -> 361 [penwidth=2]
    311 -> 84 [penwidth=2]
    311 -> 316 [penwidth=2]
    311 -> 398 [penwidth=2]
    311 -> 313 [penwidth=2]
    311 -> 371 [penwidth=2]
    311 -> 359 [penwidth=2]
    311 -> 369 [penwidth=2]
    311 -> 330 [penwidth=2]
    311 -> 372 [penwidth=2]
    311 -> 82 [penwidth=2]
    311 -> 74 [penwidth=2]
    311 -> 79 [penwidth=2]
    311 -> 317 [penwidth=2]
    263 -> 85 [penwidth=2]
    263 -> 88 [penwidth=2]
    263 -> 67 [penwidth=2]
    263 -> 357 [penwidth=2]
    263 -> 321 [penwidth=2]
    263 -> 396 [penwidth=2]
    263 -> 87 [penwidth=2]
    263 -> 371 [penwidth=2]
    263 -> 329 [penwidth=2]
    263 -> 86 [penwidth=2]
    263 -> 318 [penwidth=2]
    263 -> 325 [penwidth=2]
    263 -> 316 [penwidth=2]
    263 -> 397 [penwidth=2]
    263 -> 79 [penwidth=2]
    263 -> 75 [penwidth=2]
    263 -> 82 [penwidth=2]
    263 -> 362 [penwidth=2]
    263 -> 326 [penwidth=2]
    263 -> 84 [penwidth=2]
    263 -> 312 [penwidth=2]
    263 -> 322 [penwidth=2]
    263 -> 90 [penwidth=2]
    263 -> 96 [penwidth=2]
    263 -> 319 [penwidth=2]
    263 -> 74 [penwidth=2]
    263 -> 89 [penwidth=2]
    263 -> 95 [penwidth=2]
    263 -> 356 [penwidth=2]
    263 -> 366 [penwidth=2]
    263 -> 355 [penwidth=2]
    263 -> 360 [penwidth=2]
    263 -> 398 [penwidth=2]
    263 -> 364 [penwidth=2]
    263 -> 314 [penwidth=2]
    263 -> 365 [penwidth=2]
    263 -> 99 [penwidth=2]
    263 -> 71 [penwidth=2]
    194 -> 399 [penwidth=2]
    194 -> 95 [penwidth=2]
    194 -> 70 [penwidth=2]
    194 -> 89 [penwidth=2]
    194 -> 96 [penwidth=2]
    194 -> 371 [penwidth=2]
    194 -> 372 [penwidth=2]
    194 -> 361 [penwidth=2]
    194 -> 313 [penwidth=2]
    194 -> 368 [penwidth=2]
    194 -> 330 [penwidth=2]
    194 -> 79 [penwidth=2]
    194 -> 316 [penwidth=2]
    194 -> 312 [penwidth=2]
    194 -> 81 [penwidth=2]
    194 -> 329 [penwidth=2]
    194 -> 80 [penwidth=2]
    194 -> 363 [penwidth=2]
    194 -> 98 [penwidth=2]
    194 -> 325 [penwidth=2]
    194 -> 317 [penwidth=2]
    194 -> 370 [penwidth=2]
    194 -> 67 [penwidth=2]
    194 -> 101 [penwidth=2]
    194 -> 320 [penwidth=2]
    194 -> 327 [penwidth=2]
    194 -> 92 [penwidth=2]
    194 -> 88 [penwidth=2]
    194 -> 97 [penwidth=2]
    194 -> 326 [penwidth=2]
    194 -> 324 [penwidth=2]
    194 -> 315 [penwidth=2]
    194 -> 90 [penwidth=2]
    194 -> 100 [penwidth=2]
    194 -> 94 [penwidth=2]
    194 -> 72 [penwidth=2]
    194 -> 93 [penwidth=2]
    194 -> 76 [penwidth=2]
    194 -> 357 [penwidth=2]
    194 -> 365 [penwidth=2]
    194 -> 358 [penwidth=2]
    194 -> 69 [penwidth=2]
    194 -> 367 [penwidth=2]
    194 -> 82 [penwidth=2]
    194 -> 355 [penwidth=2]
    194 -> 359 [penwidth=2]
    194 -> 354 [penwidth=2]
    207 -> 68 [penwidth=2]
    207 -> 316 [penwidth=2]
    207 -> 96 [penwidth=2]
    207 -> 78 [penwidth=2]
    207 -> 77 [penwidth=2]
    207 -> 76 [penwidth=2]
    207 -> 313 [penwidth=2]
    207 -> 327 [penwidth=2]
    207 -> 319 [penwidth=2]
    207 -> 71 [penwidth=2]
    207 -> 372 [penwidth=2]
    207 -> 358 [penwidth=2]
    207 -> 72 [penwidth=2]
    207 -> 81 [penwidth=2]
    207 -> 329 [penwidth=2]
    207 -> 73 [penwidth=2]
    207 -> 368 [penwidth=2]
    207 -> 326 [penwidth=2]
    207 -> 99 [penwidth=2]
    207 -> 67 [penwidth=2]
    207 -> 398 [penwidth=2]
    207 -> 79 [penwidth=2]
    207 -> 328 [penwidth=2]
    207 -> 101 [penwidth=2]
    207 -> 98 [penwidth=2]
    207 -> 95 [penwidth=2]
    207 -> 369 [penwidth=2]
    207 -> 321 [penwidth=2]
    207 -> 371 [penwidth=2]
    207 -> 83 [penwidth=2]
    207 -> 91 [penwidth=2]
    207 -> 86 [penwidth=2]
    207 -> 70 [penwidth=2]
    207 -> 97 [penwidth=2]
    207 -> 396 [penwidth=2]
    207 -> 93 [penwidth=2]
    207 -> 330 [penwidth=2]
    207 -> 69 [penwidth=2]
    207 -> 360 [penwidth=2]
    207 -> 320 [penwidth=2]
    207 -> 80 [penwidth=2]
    207 -> 366 [penwidth=2]
    207 -> 87 [penwidth=2]
    207 -> 85 [penwidth=2]
    207 -> 367 [penwidth=2]
    207 -> 363 [penwidth=2]
    207 -> 370 [penwidth=2]
    207 -> 355 [penwidth=2]
    207 -> 315 [penwidth=2]
    207 -> 75 [penwidth=2]
    207 -> 365 [penwidth=2]
    207 -> 324 [penwidth=2]
    207 -> 92 [penwidth=2]
    207 -> 100 [penwidth=2]
    218 -> 96 [penwidth=2]
    218 -> 98 [penwidth=2]
    218 -> 69 [penwidth=2]
    218 -> 101 [penwidth=2]
    218 -> 364 [penwidth=2]
    218 -> 82 [penwidth=2]
    218 -> 100 [penwidth=2]
    218 -> 369 [penwidth=2]
    218 -> 321 [penwidth=2]
    218 -> 319 [penwidth=2]
    218 -> 325 [penwidth=2]
    218 -> 360 [penwidth=2]
    218 -> 359 [penwidth=2]
    218 -> 87 [penwidth=2]
    218 -> 371 [penwidth=2]
    218 -> 358 [penwidth=2]
    218 -> 71 [penwidth=2]
    218 -> 93 [penwidth=2]
    218 -> 365 [penwidth=2]
    218 -> 315 [penwidth=2]
    218 -> 72 [penwidth=2]
    218 -> 86 [penwidth=2]
    218 -> 76 [penwidth=2]
    218 -> 326 [penwidth=2]
    218 -> 366 [penwidth=2]
    218 -> 80 [penwidth=2]
    218 -> 370 [penwidth=2]
    218 -> 328 [penwidth=2]
    218 -> 89 [penwidth=2]
    218 -> 73 [penwidth=2]
    218 -> 397 [penwidth=2]
    218 -> 330 [penwidth=2]
    218 -> 317 [penwidth=2]
    218 -> 396 [penwidth=2]
    218 -> 318 [penwidth=2]
    218 -> 68 [penwidth=2]
    218 -> 90 [penwidth=2]
    218 -> 398 [penwidth=2]
    218 -> 313 [penwidth=2]
    218 -> 67 [penwidth=2]
    218 -> 99 [penwidth=2]
    218 -> 320 [penwidth=2]
    218 -> 354 [penwidth=2]
    218 -> 91 [penwidth=2]
    218 -> 323 [penwidth=2]
    218 -> 367 [penwidth=2]
    218 -> 92 [penwidth=2]
    218 -> 357 [penwidth=2]
    218 -> 75 [penwidth=2]
    218 -> 324 [penwidth=2]
    218 -> 79 [penwidth=2]
    218 -> 83 [penwidth=2]
    218 -> 355 [penwidth=2]
    218 -> 70 [penwidth=2]
    218 -> 368 [penwidth=2]
    218 -> 372 [penwidth=2]
    218 -> 314 [penwidth=2]
    218 -> 95 [penwidth=2]
    218 -> 78 [penwidth=2]
    218 -> 94 [penwidth=2]
    218 -> 322 [penwidth=2]
    218 -> 329 [penwidth=2]
    222 -> 398 [penwidth=2]
    222 -> 326 [penwidth=2]
    222 -> 71 [penwidth=2]
    222 -> 93 [penwidth=2]
    222 -> 323 [penwidth=2]
    222 -> 95 [penwidth=2]
    222 -> 371 [penwidth=2]
    222 -> 82 [penwidth=2]
    222 -> 363 [penwidth=2]
    222 -> 360 [penwidth=2]
    223 -> 315 [penwidth=2]
    223 -> 398 [penwidth=2]
    223 -> 68 [penwidth=2]
    223 -> 94 [penwidth=2]
    223 -> 86 [penwidth=2]
    223 -> 367 [penwidth=2]
    223 -> 362 [penwidth=2]
    223 -> 83 [penwidth=2]
    223 -> 91 [penwidth=2]
    223 -> 73 [penwidth=2]
    223 -> 360 [penwidth=2]
    223 -> 366 [penwidth=2]
    223 -> 318 [penwidth=2]
    223 -> 396 [penwidth=2]
    223 -> 90 [penwidth=2]
    223 -> 357 [penwidth=2]
    223 -> 321 [penwidth=2]
    223 -> 355 [penwidth=2]
    223 -> 364 [penwidth=2]
    223 -> 75 [penwidth=2]
    223 -> 319 [penwidth=2]
    223 -> 95 [penwidth=2]
    223 -> 324 [penwidth=2]
    223 -> 81 [penwidth=2]
    223 -> 329 [penwidth=2]
    223 -> 326 [penwidth=2]
    223 -> 397 [penwidth=2]
    223 -> 99 [penwidth=2]
    110 -> 90 [penwidth=2]
    110 -> 94 [penwidth=2]
    110 -> 315 [penwidth=2]
    110 -> 83 [penwidth=2]
    110 -> 323 [penwidth=2]
    110 -> 317 [penwidth=2]
    110 -> 95 [penwidth=2]
    110 -> 364 [penwidth=2]
    110 -> 313 [penwidth=2]
    110 -> 356 [penwidth=2]
    110 -> 93 [penwidth=2]
    110 -> 68 [penwidth=2]
    110 -> 367 [penwidth=2]
    164 -> 76 [penwidth=2]
    164 -> 361 [penwidth=2]
    164 -> 87 [penwidth=2]
    164 -> 359 [penwidth=2]
    164 -> 89 [penwidth=2]
    164 -> 355 [penwidth=2]
    164 -> 68 [penwidth=2]
    164 -> 97 [penwidth=2]
    164 -> 326 [penwidth=2]
    164 -> 96 [penwidth=2]
    164 -> 91 [penwidth=2]
    164 -> 98 [penwidth=2]
    164 -> 316 [penwidth=2]
    164 -> 85 [penwidth=2]
    164 -> 95 [penwidth=2]
    164 -> 82 [penwidth=2]
    164 -> 94 [penwidth=2]
    164 -> 367 [penwidth=2]
    164 -> 371 [penwidth=2]
    164 -> 67 [penwidth=2]
    164 -> 99 [penwidth=2]
    164 -> 358 [penwidth=2]
    164 -> 363 [penwidth=2]
    164 -> 90 [penwidth=2]
    164 -> 356 [penwidth=2]
    164 -> 322 [penwidth=2]
    164 -> 323 [penwidth=2]
    164 -> 324 [penwidth=2]
    164 -> 396 [penwidth=2]
    164 -> 319 [penwidth=2]
    166 -> 98 [penwidth=2]
    166 -> 81 [penwidth=2]
    166 -> 76 [penwidth=2]
    166 -> 364 [penwidth=2]
    166 -> 368 [penwidth=2]
    166 -> 84 [penwidth=2]
    166 -> 362 [penwidth=2]
    166 -> 366 [penwidth=2]
    166 -> 78 [penwidth=2]
    166 -> 71 [penwidth=2]
    166 -> 91 [penwidth=2]
    166 -> 95 [penwidth=2]
    166 -> 398 [penwidth=2]
    166 -> 79 [penwidth=2]
    166 -> 67 [penwidth=2]
    166 -> 323 [penwidth=2]
    166 -> 371 [penwidth=2]
    166 -> 92 [penwidth=2]
    166 -> 314 [penwidth=2]
    166 -> 72 [penwidth=2]
    166 -> 83 [penwidth=2]
    166 -> 68 [penwidth=2]
    166 -> 325 [penwidth=2]
    166 -> 369 [penwidth=2]
    166 -> 316 [penwidth=2]
    166 -> 318 [penwidth=2]
    166 -> 77 [penwidth=2]
    166 -> 89 [penwidth=2]
    166 -> 87 [penwidth=2]
    166 -> 363 [penwidth=2]
    166 -> 94 [penwidth=2]
    166 -> 73 [penwidth=2]
    166 -> 370 [penwidth=2]
    166 -> 356 [penwidth=2]
    166 -> 90 [penwidth=2]
    166 -> 367 [penwidth=2]
    166 -> 324 [penwidth=2]
    166 -> 360 [penwidth=2]
    166 -> 315 [penwidth=2]
    166 -> 329 [penwidth=2]
    166 -> 322 [penwidth=2]
    166 -> 80 [penwidth=2]
    166 -> 358 [penwidth=2]
    166 -> 93 [penwidth=2]
    166 -> 365 [penwidth=2]
    166 -> 355 [penwidth=2]
    135 -> 365 [penwidth=2]
    135 -> 68 [penwidth=2]
    135 -> 89 [penwidth=2]
    135 -> 360 [penwidth=2]
    135 -> 88 [penwidth=2]
    135 -> 74 [penwidth=2]
    135 -> 85 [penwidth=2]
    135 -> 326 [penwidth=2]
    135 -> 330 [penwidth=2]
    135 -> 76 [penwidth=2]
    135 -> 396 [penwidth=2]
    135 -> 314 [penwidth=2]
    135 -> 99 [penwidth=2]
    135 -> 323 [penwidth=2]
    135 -> 96 [penwidth=2]
    135 -> 86 [penwidth=2]
    135 -> 321 [penwidth=2]
    135 -> 324 [penwidth=2]
    135 -> 97 [penwidth=2]
    135 -> 82 [penwidth=2]
    135 -> 67 [penwidth=2]
    135 -> 95 [penwidth=2]
    135 -> 327 [penwidth=2]
    135 -> 361 [penwidth=2]
    135 -> 354 [penwidth=2]
    135 -> 81 [penwidth=2]
    135 -> 357 [penwidth=2]
    135 -> 322 [penwidth=2]
    135 -> 93 [penwidth=2]
    135 -> 355 [penwidth=2]
    135 -> 87 [penwidth=2]
    135 -> 369 [penwidth=2]
    135 -> 72 [penwidth=2]
    135 -> 359 [penwidth=2]
    135 -> 397 [penwidth=2]
    135 -> 362 [penwidth=2]
    135 -> 79 [penwidth=2]
    135 -> 371 [penwidth=2]
    135 -> 367 [penwidth=2]
    135 -> 399 [penwidth=2]
    135 -> 84 [penwidth=2]
    135 -> 320 [penwidth=2]
    135 -> 370 [penwidth=2]
    135 -> 329 [penwidth=2]
    135 -> 328 [penwidth=2]
    135 -> 366 [penwidth=2]
    135 -> 319 [penwidth=2]
    135 -> 313 [penwidth=2]
    135 -> 316 [penwidth=2]
    135 -> 91 [penwidth=2]
    135 -> 83 [penwidth=2]
    135 -> 315 [penwidth=2]
    135 -> 101 [penwidth=2]
    135 -> 363 [penwidth=2]
    135 -> 71 [penwidth=2]
    135 -> 312 [penwidth=2]
    177 -> 81 [penwidth=2]
    177 -> 72 [penwidth=2]
    177 -> 366 [penwidth=2]
    179 -> 87 [penwidth=2]
    179 -> 101 [penwidth=2]
    179 -> 399 [penwidth=2]
    179 -> 355 [penwidth=2]
    179 -> 96 [penwidth=2]
    179 -> 97 [penwidth=2]
    179 -> 92 [penwidth=2]
    179 -> 370 [penwidth=2]
    179 -> 67 [penwidth=2]
    179 -> 371 [penwidth=2]
    179 -> 83 [penwidth=2]
    179 -> 396 [penwidth=2]
    179 -> 322 [penwidth=2]
    179 -> 84 [penwidth=2]
    179 -> 94 [penwidth=2]
    179 -> 319 [penwidth=2]
    179 -> 95 [penwidth=2]
    179 -> 98 [penwidth=2]
    179 -> 324 [penwidth=2]
    179 -> 354 [penwidth=2]
    179 -> 398 [penwidth=2]
    179 -> 366 [penwidth=2]
    179 -> 317 [penwidth=2]
    179 -> 327 [penwidth=2]
    179 -> 312 [penwidth=2]
    179 -> 359 [penwidth=2]
    179 -> 81 [penwidth=2]
    179 -> 77 [penwidth=2]
    179 -> 89 [penwidth=2]
    179 -> 316 [penwidth=2]
    179 -> 79 [penwidth=2]
    179 -> 361 [penwidth=2]
    179 -> 329 [penwidth=2]
    179 -> 363 [penwidth=2]
    179 -> 93 [penwidth=2]
    179 -> 100 [penwidth=2]
    179 -> 358 [penwidth=2]
    179 -> 72 [penwidth=2]
    179 -> 372 [penwidth=2]
    179 -> 321 [penwidth=2]
    179 -> 71 [penwidth=2]
    179 -> 86 [penwidth=2]
    179 -> 75 [penwidth=2]
    179 -> 326 [penwidth=2]
    179 -> 69 [penwidth=2]
}