digraph G {
    0 [penwidth=3,label="0"]
    1 [penwidth=3,label="1"]
    2 [penwidth=3,label="2"]
    3 [penwidth=3,label="3"]
    4 [penwidth=3,label="4"]
    5 [penwidth=3,label="5"]
    6 [penwidth=3,label="6"]
    7 [penwidth=3,label="7"]
    8 [penwidth=3,label="8"]
    9 [penwidth=3,label="9"]
    10 [penwidth=3,label="10"]
    11 [penwidth=3,label="11"]
    12 [penwidth=3,label="12"]
    13 [penwidth=3,label="13"]
    14 [penwidth=3,label="14"]
    15 [penwidth=3,label="15"]
    16 [penwidth=3,label="16"]
    17 [penwidth=3,label="17"]
    18 [penwidth=3,label="18"]
    19 [penwidth=3,label="19"]
    20 [penwidth=3,label="20"]
    21 [penwidth=3,label="21"]
    22 [penwidth=3,label="22"]
    23 [penwidth=3,label="23"]
    24 [penwidth=3,label="24"]
    25 [penwidth=3,label="25"]
    26 [penwidth=3,label="26"]
    27 [penwidth=3,label="27"]
    28 [penwidth=3,label="28"]
    29 [penwidth=3,label="29"]
    30 [penwidth=3,label="30"]
    31 [penwidth=3,label="31"]
    32 [penwidth=3,label="32"]
    33 [penwidth=3,label="33"]
    34 [penwidth=3,label="34"]
    35 [penwidth=3,label="35"]
    36 [penwidth=3,label="36"]
    37 [penwidth=3,label="37"]
    38 [penwidth=3,label="38"]
    39 [penwidth=3,label="39"]
    40 [penwidth=3,label="40"]
    41 [penwidth=3,label="41"]
    42 [penwidth=3,label="42"]
    43 [penwidth=3,label="43"]
    44 [penwidth=3,label="44"]
    45 [penwidth=3,label="45"]
    46 [penwidth=3,label="46"]
    47 [penwidth=3,label="47"]
    48 [penwidth=3,label="48"]
    49 [penwidth=3,label="49"]
    50 [penwidth=3,label="50"]
    51 [penwidth=3,label="51"]
    52 [penwidth=3,label="52"]
    53 [penwidth=3,label="53"]
    54 [penwidth=3,label="54"]
    55 [penwidth=3,label="55"]
    56 [penwidth=3,label="56"]
    57 [penwidth=3,label="57"]
    58 [penwidth=3,label="58"]
    59 [penwidth=3,label="59"]
    60 [penwidth=3,label="60"]
    61 [penwidth=3,label="61"]
    62 [penwidth=3,label="62"]
    63 [penwidth=3,label="63"]
    64 [penwidth=3,label="64"]
    65 [penwidth=3,label="65"]
    66 [penwidth=3,label="66"]
    67 [penwidth=3,label="67"]
    68 [penwidth=3,label="68"]
    69 [penwidth=3,label="69"]
    70 [penwidth=3,label="70"]
    71 [penwidth=3,label="71"]
    72 [penwidth=3,label="72"]
    73 [penwidth=3,label="73"]
    74 [penwidth=3,label="74"]
    75 [penwidth=3,label="75"]
    76 [penwidth=3,label="76"]
    77 [penwidth=3,label="77"]
    78 [penwidth=3,label="78"]
    79 [penwidth=3,label="79"]
    80 [penwidth=3,label="80"]
    81 [penwidth=3,label="81"]
    82 [penwidth=3,label="82"]
    83 [penwidth=3,label="83"]
    84 [penwidth=3,label="84"]
    85 [penwidth=3,label="85"]
    86 [penwidth=3,label="86"]
    87 [penwidth=3,label="87"]
    88 [penwidth=3,label="88"]
    89 [penwidth=3,label="89"]
    90 [penwidth=3,label="90"]
    91 [penwidth=3,label="91"]
    92 [penwidth=3,label="92"]
    93 [penwidth=3,label="93"]
    94 [penwidth=3,label="94"]
    95 [penwidth=3,label="95"]
    96 [penwidth=3,label="96"]
    97 [penwidth=3,label="97"]
    98 [penwidth=3,label="98"]
    99 [penwidth=3,label="99"]
    100 [penwidth=3,label="100"]
    101 [penwidth=3,label="101"]
    102 [penwidth=3,label="102"]
    103 [penwidth=3,label="103"]
    104 [penwidth=3,label="104"]
    105 [penwidth=3,label="105"]
    106 [penwidth=3,label="106"]
    107 [penwidth=3,label="107"]
    108 [penwidth=3,label="108"]
    109 [penwidth=3,label="109"]
    110 [penwidth=3,label="110"]
    111 [penwidth=3,label="111"]
    112 [penwidth=3,label="112"]
    113 [penwidth=3,label="113"]
    114 [penwidth=3,label="114"]
    115 [penwidth=3,label="115"]
    116 [penwidth=3,label="116"]
    117 [penwidth=3,label="117"]
    118 [penwidth=3,label="118"]
    119 [penwidth=3,label="119"]
    120 [penwidth=3,label="120"]
    121 [penwidth=3,label="121"]
    122 [penwidth=3,label="122"]
    123 [penwidth=3,label="123"]
    124 [penwidth=3,label="124"]
    125 [penwidth=3,label="125"]
    126 [penwidth=3,label="126"]
    127 [penwidth=3,label="127"]
    128 [penwidth=3,label="128"]
    129 [penwidth=3,label="129"]
    130 [penwidth=3,label="130"]
    131 [penwidth=3,label="131"]
    132 [penwidth=3,label="132"]
    133 [penwidth=3,label="133"]
    134 [penwidth=3,label="134"]
    135 [penwidth=3,label="135"]
    136 [penwidth=3,label="136"]
    137 [penwidth=3,label="137"]
    138 [penwidth=3,label="138"]
    139 [penwidth=3,label="139"]
    140 [penwidth=3,label="140"]
    141 [penwidth=3,label="141"]
    142 [penwidth=3,label="142"]
    143 [penwidth=3,label="143"]
    144 [penwidth=3,label="144"]
    145 [penwidth=3,label="145"]
    146 [penwidth=3,label="146"]
    147 [penwidth=3,label="147"]
    148 [penwidth=3,label="148"]
    149 [penwidth=3,label="149"]
    150 [penwidth=3,label="150"]
    151 [penwidth=3,label="151"]
    152 [penwidth=3,label="152"]
    153 [penwidth=3,label="153"]
    154 [penwidth=3,label="154"]
    155 [penwidth=3,label="155"]
    156 [penwidth=3,label="156"]
    157 [penwidth=3,label="157"]
    158 [penwidth=3,label="158"]
    159 [penwidth=3,label="159"]
    160 [penwidth=3,label="160"]
    161 [penwidth=3,label="161"]
    162 [penwidth=3,label="162"]
    163 [penwidth=3,label="163"]
    164 [penwidth=3,label="164"]
    165 [penwidth=3,label="165"]
    166 [penwidth=3,label="166"]
    167 [penwidth=3,label="167"]
    168 [penwidth=3,label="168"]
    169 [penwidth=3,label="169"]
    170 [penwidth=3,label="170"]
    171 [penwidth=3,label="171"]
    172 [penwidth=3,label="172"]
    173 [penwidth=3,label="173"]
    174 [penwidth=3,label="174"]
    175 [penwidth=3,label="175"]
    176 [penwidth=3,label="176"]
    177 [penwidth=3,label="177"]
    178 [penwidth=3,label="178"]
    179 [penwidth=3,label="179"]
    180 [penwidth=3,label="180"]
    181 [penwidth=3,label="181"]
    182 [penwidth=3,label="182"]
    183 [penwidth=3,label="183"]
    184 [penwidth=3,label="184"]
    185 [penwidth=3,label="185"]
    186 [penwidth=3,label="186"]
    187 [penwidth=3,label="187"]
    188 [penwidth=3,label="188"]
    189 [penwidth=3,label="189"]
    190 [penwidth=3,label="190"]
    191 [penwidth=3,label="191"]
    192 [penwidth=3,label="192"]
    193 [penwidth=3,label="193"]
    194 [penwidth=3,label="194"]
    195 [penwidth=3,label="195"]
    196 [penwidth=3,label="196"]
    197 [penwidth=3,label="197"]
    198 [penwidth=3,label="198"]
    199 [penwidth=3,label="199"]
    200 [penwidth=3,label="200"]
    201 [penwidth=3,label="201"]
    202 [penwidth=3,label="202"]
    203 [penwidth=3,label="203"]
    204 [penwidth=3,label="204"]
    205 [penwidth=3,label="205"]
    206 [penwidth=3,label="206"]
    207 [penwidth=3,label="207"]
    208 [penwidth=3,label="208"]
    209 [penwidth=3,label="209"]
    210 [penwidth=3,label="210"]
    211 [penwidth=3,label="211"]
    212 [penwidth=3,label="212"]
    213 [penwidth=3,label="213"]
    214 [penwidth=3,label="214"]
    215 [penwidth=3,label="215"]
    216 [penwidth=3,label="216"]
    217 [penwidth=3,label="217"]
    218 [penwidth=3,label="218"]
    219 [penwidth=3,label="219"]
    220 [penwidth=3,label="220"]
    221 [penwidth=3,label="221"]
    222 [penwidth=3,label="222"]
    223 [penwidth=3,label="223"]
    224 [penwidth=3,label="224"]
    225 [penwidth=3,label="225"]
    226 [penwidth=3,label="226"]
    227 [penwidth=3,label="227"]
    228 [penwidth=3,label="228"]
    229 [penwidth=3,label="229"]
    230 [penwidth=3,label="230"]
    231 [penwidth=3,label="231"]
    232 [penwidth=3,label="232"]
    233 [penwidth=3,label="233"]
    234 [penwidth=3,label="234"]
    235 [penwidth=3,label="235"]
    236 [penwidth=3,label="236"]
    237 [penwidth=3,label="237"]
    238 [penwidth=3,label="238"]
    239 [penwidth=3,label="239"]
    240 [penwidth=3,label="240"]
    241 [penwidth=3,label="241"]
    242 [penwidth=3,label="242"]
    243 [penwidth=3,label="243"]
    244 [penwidth=3,label="244"]
    245 [penwidth=3,label="245"]
    246 [penwidth=3,label="246"]
    247 [penwidth=3,label="247"]
    248 [penwidth=3,label="248"]
    249 [penwidth=3,label="249"]
    250 [penwidth=3,label="250"]
    251 [penwidth=3,label="251"]
    252 [penwidth=3,label="252"]
    253 [penwidth=3,label="253"]
    254 [penwidth=3,label="254"]
    255 [penwidth=3,label="255"]
    256 [penwidth=3,label="256"]
    257 [penwidth=3,label="257"]
    258 [penwidth=3,label="258"]
    259 [penwidth=3,label="259"]
    260 [penwidth=3,label="260"]
    261 [penwidth=3,label="261"]
    262 [penwidth=3,label="262"]
    263 [penwidth=3,label="263"]
    264 [penwidth=3,label="264"]
    265 [penwidth=3,label="265"]
    266 [penwidth=3,label="266"]
    267 [penwidth=3,label="267"]
    268 [penwidth=3,label="268"]
    269 [penwidth=3,label="269"]
    270 [penwidth=3,label="270"]
    271 [penwidth=3,label="271"]
    272 [penwidth=3,label="272"]
    273 [penwidth=3,label="273"]
    274 [penwidth=3,label="274"]
    275 [penwidth=3,label="275"]
    276 [penwidth=3,label="276"]
    277 [penwidth=3,label="277"]
    278 [penwidth=3,label="278"]
    279 [penwidth=3,label="279"]
    280 [penwidth=3,label="280"]
    281 [penwidth=3,label="281"]
    282 [penwidth=3,label="282"]
    283 [penwidth=3,label="283"]
    284 [penwidth=3,label="284"]
    285 [penwidth=3,label="285"]
    286 [penwidth=3,label="286"]
    287 [penwidth=3,label="287"]
    288 [penwidth=3,label="288"]
    289 [penwidth=3,label="289"]
    290 [penwidth=3,label="290"]
    291 [penwidth=3,label="291"]
    292 [penwidth=3,label="292"]
    293 [penwidth=3,label="293"]
    294 [penwidth=3,label="294"]
    295 [penwidth=3,label="295"]
    296 [penwidth=3,label="296"]
    297 [penwidth=3,label="297"]
    298 [penwidth=3,label="298"]
    299 [penwidth=3,label="299"]
    300 [penwidth=3,label="300"]
    301 [penwidth=3,label="301"]
    302 [penwidth=3,label="302"]
    303 [penwidth=3,label="303"]
    304 [penwidth=3,label="304"]
    305 [penwidth=3,label="305"]
    306 [penwidth=3,label="306"]
    307 [penwidth=3,label="307"]
    308 [penwidth=3,label="308"]
    309 [penwidth=3,label="309"]
    310 [penwidth=3,label="310"]
    311 [penwidth=3,label="311"]
    312 [penwidth=3,label="312"]
    313 [penwidth=3,label="313"]
    314 [penwidth=3,label="314"]
    315 [penwidth=3,label="315"]
    316 [penwidth=3,label="316"]
    317 [penwidth=3,label="317"]
    318 [penwidth=3,label="318"]
    319 [penwidth=3,label="319"]
    320 [penwidth=3,label="320"]
    321 [penwidth=3,label="321"]
    322 [penwidth=3,label="322"]
    323 [penwidth=3,label="323"]
    324 [penwidth=3,label="324"]
    325 [penwidth=3,label="325"]
    326 [penwidth=3,label="326"]
    327 [penwidth=3,label="327"]
    328 [penwidth=3,label="328"]
    329 [penwidth=3,label="329"]
    330 [penwidth=3,label="330"]
    331 [penwidth=3,label="331"]
    332 [penwidth=3,label="332"]
    333 [penwidth=3,label="333"]
    334 [penwidth=3,label="334"]
    335 [penwidth=3,label="335"]
    336 [penwidth=3,label="336"]
    337 [penwidth=3,label="337"]
    338 [penwidth=3,label="338"]
    339 [penwidth=3,label="339"]
    340 [penwidth=3,label="340"]
    341 [penwidth=3,label="341"]
    342 [penwidth=3,label="342"]
    343 [penwidth=3,label="343"]
    344 [penwidth=3,label="344"]
    345 [penwidth=3,label="345"]
    346 [penwidth=3,label="346"]
    347 [penwidth=3,label="347"]
    348 [penwidth=3,label="348"]
    349 [penwidth=3,label="349"]
    350 [penwidth=3,label="350"]
    351 [penwidth=3,label="351"]
    352 [penwidth=3,label="352"]
    353 [penwidth=3,label="353"]
    354 [penwidth=3,label="354"]
    355 [penwidth=3,label="355"]
    356 [penwidth=3,label="356"]
    357 [penwidth=3,label="357"]
    358 [penwidth=3,label="358"]
    359 [penwidth=3,label="359"]
    360 [penwidth=3,label="360"]
    361 [penwidth=3,label="361"]
    362 [penwidth=3,label="362"]
    363 [penwidth=3,label="363"]
    364 [penwidth=3,label="364"]
    365 [penwidth=3,label="365"]
    366 [penwidth=3,label="366"]
    367 [penwidth=3,label="367"]
    368 [penwidth=3,label="368"]
    369 [penwidth=3,label="369"]
    370 [penwidth=3,label="370"]
    371 [penwidth=3,label="371"]
    372 [penwidth=3,label="372"]
    373 [penwidth=3,label="373"]
    374 [penwidth=3,label="374"]
    375 [penwidth=3,label="375"]
    376 [penwidth=3,label="376"]
    377 [penwidth=3,label="377"]
    378 [penwidth=3,label="378"]
    379 [penwidth=3,label="379"]
    380 [penwidth=3,label="380"]
    381 [penwidth=3,label="381"]
    382 [penwidth=3,label="382"]
    383 [penwidth=3,label="383"]
    384 [penwidth=3,label="384"]
    385 [penwidth=3,label="385"]
    386 [penwidth=3,label="386"]
    387 [penwidth=3,label="387"]
    388 [penwidth=3,label="388"]
    389 [penwidth=3,label="389"]
    390 [penwidth=3,label="390"]
    391 [penwidth=3,label="391"]
    392 [penwidth=3,label="392"]
    393 [penwidth=3,label="393"]
    394 [penwidth=3,label="394"]
    395 [penwidth=3,label="395"]
    396 [penwidth=3,label="396"]
    397 [penwidth=3,label="397"]
    398 [penwidth=3,label="398"]
    399 [penwidth=3,label="399"]

    233 -> 0 [penwidth=2]
    275 -> 0 [penwidth=2]
    234 -> 0 [penwidth=2]
    276 -> 0 [penwidth=2]
    235 -> 0 [penwidth=2]
    277 -> 0 [penwidth=2]
    236 -> 233 [penwidth=2]
    278 -> 233 [penwidth=2]
    237 -> 233 [penwidth=2]
    279 -> 233 [penwidth=2]
    238 -> 233 [penwidth=2]
    280 -> 233 [penwidth=2]
    239 -> 233 [penwidth=2]
    281 -> 233 [penwidth=2]
    240 -> 233 [penwidth=2]
    282 -> 233 [penwidth=2]
    241 -> 233 [penwidth=2]
    283 -> 233 [penwidth=2]
    242 -> 233 [penwidth=2]
    284 -> 233 [penwidth=2]
    243 -> 233 [penwidth=2]
    285 -> 233 [penwidth=2]
    244 -> 233 [penwidth=2]
    286 -> 233 [penwidth=2]
    245 -> 233 [penwidth=2]
    287 -> 233 [penwidth=2]
    246 -> 233 [penwidth=2]
    288 -> 233 [penwidth=2]
    247 -> 233 [penwidth=2]
    289 -> 233 [penwidth=2]
    248 -> 275 [penwidth=2]
    290 -> 275 [penwidth=2]
    249 -> 275 [penwidth=2]
    291 -> 275 [penwidth=2]
    250 -> 275 [penwidth=2]
    292 -> 275 [penwidth=2]
    251 -> 275 [penwidth=2]
    293 -> 275 [penwidth=2]
    252 -> 275 [penwidth=2]
    294 -> 275 [penwidth=2]
    253 -> 275 [penwidth=2]
    295 -> 275 [penwidth=2]
    254 -> 275 [penwidth=2]
    296 -> 275 [penwidth=2]
    255 -> 275 [penwidth=2]
    297 -> 275 [penwidth=2]
    256 -> 275 [penwidth=2]
    298 -> 275 [penwidth=2]
    257 -> 234 [penwidth=2]
    299 -> 234 [penwidth=2]
    258 -> 234 [penwidth=2]
    300 -> 234 [penwidth=2]
    259 -> 234 [penwidth=2]
    301 -> 234 [penwidth=2]
    260 -> 234 [penwidth=2]
    302 -> 234 [penwidth=2]
    261 -> 234 [penwidth=2]
    303 -> 234 [penwidth=2]
    262 -> 234 [penwidth=2]
    304 -> 234 [penwidth=2]
    263 -> 234 [penwidth=2]
    305 -> 234 [penwidth=2]
    264 -> 234 [penwidth=2]
    306 -> 234 [penwidth=2]
    265 -> 234 [penwidth=2]
    307 -> 234 [penwidth=2]
    266 -> 234 [penwidth=2]
    308 -> 234 [penwidth=2]
    267 -> 234 [penwidth=2]
    309 -> 234 [penwidth=2]
    268 -> 234 [penwidth=2]
    310 -> 276 [penwidth=2]
    269 -> 276 [penwidth=2]
    311 -> 276 [penwidth=2]
    270 -> 276 [penwidth=2]
    312 -> 276 [penwidth=2]
    271 -> 276 [penwidth=2]
    313 -> 276 [penwidth=2]
    272 -> 276 [penwidth=2]
    314 -> 276 [penwidth=2]
    273 -> 276 [penwidth=2]
    315 -> 276 [penwidth=2]
    274 -> 276 [penwidth=2]
    316 -> 276 [penwidth=2]
    191 -> 276 [penwidth=2]
    192 -> 276 [penwidth=2]
    193 -> 276 [penwidth=2]
    194 -> 276 [penwidth=2]
    195 -> 276 [penwidth=2]
    196 -> 276 [penwidth=2]
    197 -> 276 [penwidth=2]
    198 -> 276 [penwidth=2]
    199 -> 276 [penwidth=2]
    200 -> 276 [penwidth=2]
    201 -> 276 [penwidth=2]
    202 -> 276 [penwidth=2]
    203 -> 276 [penwidth=2]
    204 -> 276 [penwidth=2]
    205 -> 276 [penwidth=2]
    206 -> 276 [penwidth=2]
    207 -> 235 [penwidth=2]
    208 -> 235 [penwidth=2]
    209 -> 235 [penwidth=2]
    210 -> 235 [penwidth=2]
    211 -> 235 [penwidth=2]
    212 -> 235 [penwidth=2]
    213 -> 235 [penwidth=2]
    214 -> 235 [penwidth=2]
    215 -> 235 [penwidth=2]
    216 -> 235 [penwidth=2]
    217 -> 235 [penwidth=2]
    218 -> 235 [penwidth=2]
    219 -> 235 [penwidth=2]
    220 -> 235 [penwidth=2]
    221 -> 235 [penwidth=2]
    222 -> 235 [penwidth=2]
    223 -> 235 [penwidth=2]
    224 -> 277 [penwidth=2]
    225 -> 277 [penwidth=2]
    226 -> 277 [penwidth=2]
    227 -> 277 [penwidth=2]
    228 -> 277 [penwidth=2]
    229 -> 277 [penwidth=2]
    230 -> 277 [penwidth=2]
    231 -> 277 [penwidth=2]
    232 -> 277 [penwidth=2]
    107 -> 277 [penwidth=2]
    149 -> 277 [penwidth=2]
    108 -> 277 [penwidth=2]
    150 -> 277 [penwidth=2]
    109 -> 277 [penwidth=2]
    151 -> 236 [penwidth=2]
    110 -> 236 [penwidth=2]
    152 -> 236 [penwidth=2]
    111 -> 236 [penwidth=2]
    153 -> 236 [penwidth=2]
    112 -> 236 [penwidth=2]
    154 -> 236 [penwidth=2]
    113 -> 278 [penwidth=2]
    155 -> 278 [penwidth=2]
    114 -> 278 [penwidth=2]
    156 -> 278 [penwidth=2]
    115 -> 278 [penwidth=2]
    157 -> 278 [penwidth=2]
    116 -> 278 [penwidth=2]
    158 -> 278 [penwidth=2]
    117 -> 278 [penwidth=2]
    159 -> 278 [penwidth=2]
    118 -> 278 [penwidth=2]
    160 -> 278 [penwidth=2]
    119 -> 278 [penwidth=2]
    161 -> 278 [penwidth=2]
    120 -> 278 [penwidth=2]
    162 -> 278 [penwidth=2]
    121 -> 278 [penwidth=2]
    163 -> 278 [penwidth=2]
    122 -> 278 [penwidth=2]
    164 -> 278 [penwidth=2]
    123 -> 278 [penwidth=2]
    165 -> 278 [penwidth=2]
    124 -> 278 [penwidth=2]
    166 -> 278 [penwidth=2]
    125 -> 237 [penwidth=2]
    167 -> 237 [penwidth=2]
    126 -> 237 [penwidth=2]
    168 -> 237 [penwidth=2]
    127 -> 237 [penwidth=2]
    169 -> 237 [penwidth=2]
    128 -> 237 [penwidth=2]
    170 -> 237 [penwidth=2]
    129 -> 237 [penwidth=2]
    171 -> 237 [penwidth=2]
    130 -> 237 [penwidth=2]
    172 -> 237 [penwidth=2]
    131 -> 237 [penwidth=2]
    173 -> 237 [penwidth=2]
    132 -> 237 [penwidth=2]
    174 -> 237 [penwidth=2]
    133 -> 237 [penwidth=2]
    175 -> 237 [penwidth=2]
    134 -> 237 [penwidth=2]
    176 -> 237 [penwidth=2]
    135 -> 237 [penwidth=2]
    177 -> 237 [penwidth=2]
    136 -> 237 [penwidth=2]
    178 -> 237 [penwidth=2]
    137 -> 237 [penwidth=2]
    179 -> 237 [penwidth=2]
    138 -> 237 [penwidth=2]
    180 -> 237 [penwidth=2]
    139 -> 237 [penwidth=2]
    181 -> 279 [penwidth=2]
    140 -> 279 [penwidth=2]
    182 -> 279 [penwidth=2]
    141 -> 279 [penwidth=2]
    183 -> 279 [penwidth=2]
    142 -> 279 [penwidth=2]
    184 -> 279 [penwidth=2]
    143 -> 279 [penwidth=2]
    185 -> 279 [penwidth=2]
    144 -> 279 [penwidth=2]
    186 -> 279 [penwidth=2]
    145 -> 279 [penwidth=2]
    187 -> 279 [penwidth=2]
    146 -> 279 [penwidth=2]
    188 -> 279 [penwidth=2]
    147 -> 238 [penwidth=2]
    189 -> 238 [penwidth=2]
    148 -> 238 [penwidth=2]
    190 -> 238 [penwidth=2]
    65 -> 238 [penwidth=2]
    66 -> 238 [penwidth=2]
    67 -> 238 [penwidth=2]
    68 -> 238 [penwidth=2]
    69 -> 238 [penwidth=2]
    70 -> 238 [penwidth=2]
    71 -> 238 [penwidth=2]
    72 -> 238 [penwidth=2]
    73 -> 238 [penwidth=2]
    74 -> 238 [penwidth=2]
    75 -> 238 [penwidth=2]
    76 -> 238 [penwidth=2]
    77 -> 238 [penwidth=2]
    78 -> 238 [penwidth=2]
    79 -> 238 [penwidth=2]
    80 -> 238 [penwidth=2]
    81 -> 280 [penwidth=2]
    82 -> 280 [penwidth=2]
    83 -> 239 [penwidth=2]
    84 -> 239 [penwidth=2]
    85 -> 239 [penwidth=2]
    86 -> 239 [penwidth=2]
    87 -> 239 [penwidth=2]
    88 -> 239 [penwidth=2]
    89 -> 239 [penwidth=2]
    90 -> 239 [penwidth=2]
    91 -> 239 [penwidth=2]
    92 -> 239 [penwidth=2]
    93 -> 239 [penwidth=2]
    94 -> 239 [penwidth=2]
    95 -> 239 [penwidth=2]
    96 -> 281 [penwidth=2]
    97 -> 281 [penwidth=2]
    98 -> 281 [penwidth=2]
    99 -> 281 [penwidth=2]
    100 -> 281 [penwidth=2]
    101 -> 281 [penwidth=2]
    102 -> 281 [penwidth=2]
    103 -> 281 [penwidth=2]
    104 -> 281 [penwidth=2]
    105 -> 281 [penwidth=2]
    106 -> 281 [penwidth=2]
    359 -> 281 [penwidth=2]
    360 -> 281 [penwidth=2]
    361 -> 281 [penwidth=2]
    362 -> 281 [penwidth=2]
    363 -> 281 [penwidth=2]
    364 -> 281 [penwidth=2]
    365 -> 281 [penwidth=2]
    366 -> 281 [penwidth=2]
    367 -> 281 [penwidth=2]
    368 -> 281 [penwidth=2]
    369 -> 281 [penwidth=2]
    370 -> 281 [penwidth=2]
    371 -> 281 [penwidth=2]
    372 -> 281 [penwidth=2]
    373 -> 281 [penwidth=2]
    374 -> 281 [penwidth=2]
    375 -> 240 [penwidth=2]
    376 -> 240 [penwidth=2]
    377 -> 240 [penwidth=2]
    378 -> 240 [penwidth=2]
    1 -> 240 [penwidth=2]
    379 -> 240 [penwidth=2]
    2 -> 240 [penwidth=2]
    380 -> 240 [penwidth=2]
    3 -> 240 [penwidth=2]
    381 -> 240 [penwidth=2]
    4 -> 240 [penwidth=2]
    382 -> 240 [penwidth=2]
    357 -> 240 [penwidth=2]
    5 -> 240 [penwidth=2]
    383 -> 240 [penwidth=2]
    6 -> 240 [penwidth=2]
    384 -> 240 [penwidth=2]
    7 -> 240 [penwidth=2]
    385 -> 240 [penwidth=2]
    8 -> 240 [penwidth=2]
    386 -> 240 [penwidth=2]
    9 -> 240 [penwidth=2]
    387 -> 240 [penwidth=2]
    358 -> 240 [penwidth=2]
    10 -> 240 [penwidth=2]
    388 -> 240 [penwidth=2]
    11 -> 241 [penwidth=2]
    389 -> 241 [penwidth=2]
    12 -> 241 [penwidth=2]
    390 -> 241 [penwidth=2]
    13 -> 241 [penwidth=2]
    391 -> 241 [penwidth=2]
    14 -> 241 [penwidth=2]
    392 -> 241 [penwidth=2]
    15 -> 241 [penwidth=2]
    393 -> 241 [penwidth=2]
    16 -> 241 [penwidth=2]
    394 -> 241 [penwidth=2]
    17 -> 241 [penwidth=2]
    395 -> 241 [penwidth=2]
    18 -> 241 [penwidth=2]
    396 -> 241 [penwidth=2]
    19 -> 241 [penwidth=2]
    397 -> 241 [penwidth=2]
    20 -> 283 [penwidth=2]
    398 -> 283 [penwidth=2]
    21 -> 283 [penwidth=2]
    399 -> 283 [penwidth=2]
    22 -> 283 [penwidth=2]
    23 -> 283 [penwidth=2]
    317 -> 283 [penwidth=2]
    24 -> 283 [penwidth=2]
    318 -> 283 [penwidth=2]
    25 -> 283 [penwidth=2]
    319 -> 283 [penwidth=2]
    26 -> 283 [penwidth=2]
    320 -> 283 [penwidth=2]
    27 -> 283 [penwidth=2]
    321 -> 283 [penwidth=2]
    28 -> 283 [penwidth=2]
    322 -> 283 [penwidth=2]
    29 -> 283 [penwidth=2]
    323 -> 283 [penwidth=2]
    30 -> 283 [penwidth=2]
    324 -> 283 [penwidth=2]
    31 -> 283 [penwidth=2]
    325 -> 283 [penwidth=2]
    32 -> 283 [penwidth=2]
    326 -> 283 [penwidth=2]
    33 -> 283 [penwidth=2]
    327 -> 283 [penwidth=2]
    34 -> 283 [penwidth=2]
    328 -> 283 [penwidth=2]
    35 -> 283 [penwidth=2]
    329 -> 242 [penwidth=2]
    36 -> 242 [penwidth=2]
    330 -> 242 [penwidth=2]
    37 -> 242 [penwidth=2]
    331 -> 242 [penwidth=2]
    38 -> 242 [penwidth=2]
    332 -> 242 [penwidth=2]
    39 -> 284 [penwidth=2]
    333 -> 284 [penwidth=2]
    40 -> 284 [penwidth=2]
    334 -> 284 [penwidth=2]
    41 -> 284 [penwidth=2]
    335 -> 284 [penwidth=2]
    42 -> 284 [penwidth=2]
    336 -> 284 [penwidth=2]
    43 -> 284 [penwidth=2]
    337 -> 243 [penwidth=2]
    44 -> 243 [penwidth=2]
    338 -> 243 [penwidth=2]
    45 -> 243 [penwidth=2]
    339 -> 243 [penwidth=2]
    46 -> 285 [penwidth=2]
    340 -> 285 [penwidth=2]
    47 -> 285 [penwidth=2]
    341 -> 285 [penwidth=2]
    48 -> 285 [penwidth=2]
    342 -> 285 [penwidth=2]
    49 -> 285 [penwidth=2]
    343 -> 285 [penwidth=2]
    50 -> 285 [penwidth=2]
    344 -> 285 [penwidth=2]
    51 -> 285 [penwidth=2]
    345 -> 285 [penwidth=2]
    52 -> 285 [penwidth=2]
    346 -> 285 [penwidth=2]
    53 -> 285 [penwidth=2]
    347 -> 285 [penwidth=2]
    54 -> 285 [penwidth=2]
    348 -> 285 [penwidth=2]
    55 -> 285 [penwidth=2]
    349 -> 285 [penwidth=2]
    56 -> 285 [penwidth=2]
    350 -> 285 [penwidth=2]
    57 -> 285 [penwidth=2]
    351 -> 285 [penwidth=2]
    58 -> 285 [penwidth=2]
    352 -> 285 [penwidth=2]
    59 -> 285 [penwidth=2]
    353 -> 285 [penwidth=2]
    60 -> 285 [penwidth=2]
    354 -> 244 [penwidth=2]
    61 -> 244 [penwidth=2]
    355 -> 244 [penwidth=2]
    62 -> 244 [penwidth=2]
    356 -> 244 [penwidth=2]
    63 -> 244 [penwidth=2]
    64 -> 244 [penwidth=2]
    280 -> 235 [penwidth=2]
    280 -> 234 [penwidth=2]
    280 -> 276 [penwidth=2]
    281 -> 275 [penwidth=2]
    281 -> 276 [penwidth=2]
    255 -> 235 [penwidth=2]
    255 -> 233 [penwidth=2]
    255 -> 234 [penwidth=2]
    255 -> 277 [penwidth=2]
    297 -> 233 [penwidth=2]
    297 -> 277 [penwidth=2]
    297 -> 235 [penwidth=2]
    300 -> 275 [penwidth=2]
    300 -> 276 [penwidth=2]
    300 -> 233 [penwidth=2]
    267 -> 233 [penwidth=2]
    267 -> 276 [penwidth=2]
    313 -> 233 [penwidth=2]
    313 -> 277 [penwidth=2]
    273 -> 275 [penwidth=2]
    273 -> 235 [penwidth=2]
    273 -> 233 [penwidth=2]
    274 -> 234 [penwidth=2]
    274 -> 235 [penwidth=2]
    191 -> 277 [penwidth=2]
    191 -> 275 [penwidth=2]
    192 -> 234 [penwidth=2]
    192 -> 277 [penwidth=2]
    192 -> 275 [penwidth=2]
    192 -> 235 [penwidth=2]
    231 -> 276 [penwidth=2]
    231 -> 235 [penwidth=2]
    231 -> 275 [penwidth=2]
    149 -> 235 [penwidth=2]
    110 -> 201 [penwidth=2]
    110 -> 199 [penwidth=2]
    110 -> 270 [penwidth=2]
    110 -> 215 [penwidth=2]
    110 -> 283 [penwidth=2]
    110 -> 304 [penwidth=2]
    110 -> 307 [penwidth=2]
    110 -> 221 [penwidth=2]
    110 -> 213 [penwidth=2]
    110 -> 192 [penwidth=2]
    110 -> 309 [penwidth=2]
    110 -> 261 [penwidth=2]
    110 -> 249 [penwidth=2]
    110 -> 195 [penwidth=2]
    110 -> 305 [penwidth=2]
    110 -> 218 [penwidth=2]
    110 -> 253 [penwidth=2]
    110 -> 238 [penwidth=2]
    110 -> 245 [penwidth=2]
    110 -> 299 [penwidth=2]
    110 -> 295 [penwidth=2]
    110 -> 225 [penwidth=2]
    110 -> 306 [penwidth=2]
    110 -> 223 [penwidth=2]
    110 -> 262 [penwidth=2]
    110 -> 278 [penwidth=2]
    110 -> 298 [penwidth=2]
    110 -> 246 [penwidth=2]
    110 -> 226 [penwidth=2]
    110 -> 211 [penwidth=2]
    110 -> 230 [penwidth=2]
    110 -> 220 [penwidth=2]
    110 -> 292 [penwidth=2]
    110 -> 281 [penwidth=2]
    110 -> 263 [penwidth=2]
    110 -> 206 [penwidth=2]
    110 -> 274 [penwidth=2]
    110 -> 300 [penwidth=2]
    110 -> 251 [penwidth=2]
    110 -> 244 [penwidth=2]
    110 -> 208 [penwidth=2]
    110 -> 237 [penwidth=2]
    110 -> 286 [penwidth=2]
    110 -> 242 [penwidth=2]
    110 -> 241 [penwidth=2]
    110 -> 240 [penwidth=2]
    110 -> 257 [penwidth=2]
    110 -> 259 [penwidth=2]
    110 -> 247 [penwidth=2]
    110 -> 258 [penwidth=2]
    110 -> 303 [penwidth=2]
    110 -> 308 [penwidth=2]
    110 -> 254 [penwidth=2]
    110 -> 219 [penwidth=2]
    110 -> 216 [penwidth=2]
    110 -> 268 [penwidth=2]
    110 -> 214 [penwidth=2]
    110 -> 265 [penwidth=2]
    110 -> 272 [penwidth=2]
    110 -> 293 [penwidth=2]
    110 -> 285 [penwidth=2]
    110 -> 212 [penwidth=2]
    110 -> 109 [penwidth=2]
    110 -> 260 [penwidth=2]
    110 -> 200 [penwidth=2]
    110 -> 231 [penwidth=2]
    110 -> 291 [penwidth=2]
    110 -> 205 [penwidth=2]
    164 -> 270 [penwidth=2]
    164 -> 109 [penwidth=2]
    164 -> 244 [penwidth=2]
    164 -> 256 [penwidth=2]
    164 -> 240 [penwidth=2]
    164 -> 289 [penwidth=2]
    164 -> 211 [penwidth=2]
    164 -> 207 [penwidth=2]
    164 -> 107 [penwidth=2]
    164 -> 299 [penwidth=2]
    164 -> 229 [penwidth=2]
    164 -> 274 [penwidth=2]
    164 -> 273 [penwidth=2]
    164 -> 242 [penwidth=2]
    164 -> 301 [penwidth=2]
    164 -> 314 [penwidth=2]
    164 -> 302 [penwidth=2]
    164 -> 200 [penwidth=2]
    164 -> 222 [penwidth=2]
    164 -> 228 [penwidth=2]
    164 -> 231 [penwidth=2]
    164 -> 224 [penwidth=2]
    164 -> 225 [penwidth=2]
    164 -> 281 [penwidth=2]
    164 -> 261 [penwidth=2]
    164 -> 255 [penwidth=2]
    164 -> 193 [penwidth=2]
    164 -> 201 [penwidth=2]
    164 -> 293 [penwidth=2]
    164 -> 247 [penwidth=2]
    164 -> 149 [penwidth=2]
    164 -> 232 [penwidth=2]
    164 -> 202 [penwidth=2]
    164 -> 272 [penwidth=2]
    164 -> 259 [penwidth=2]
    164 -> 285 [penwidth=2]
    164 -> 286 [penwidth=2]
    164 -> 195 [penwidth=2]
    164 -> 266 [penwidth=2]
    164 -> 310 [penwidth=2]
    164 -> 108 [penwidth=2]
    167 -> 285 [penwidth=2]
    167 -> 191 [penwidth=2]
    167 -> 288 [penwidth=2]
    167 -> 194 [penwidth=2]
    167 -> 226 [penwidth=2]
    167 -> 295 [penwidth=2]
    167 -> 246 [penwidth=2]
    167 -> 195 [penwidth=2]
    167 -> 109 [penwidth=2]
    167 -> 107 [penwidth=2]
    167 -> 301 [penwidth=2]
    167 -> 262 [penwidth=2]
    167 -> 297 [penwidth=2]
    167 -> 261 [penwidth=2]
    167 -> 255 [penwidth=2]
    167 -> 229 [penwidth=2]
    167 -> 243 [penwidth=2]
    167 -> 258 [penwidth=2]
    167 -> 287 [penwidth=2]
    167 -> 268 [penwidth=2]
    167 -> 200 [penwidth=2]
    167 -> 238 [penwidth=2]
    167 -> 269 [penwidth=2]
    167 -> 314 [penwidth=2]
    167 -> 202 [penwidth=2]
    167 -> 242 [penwidth=2]
    167 -> 266 [penwidth=2]
    167 -> 279 [penwidth=2]
    167 -> 220 [penwidth=2]
    167 -> 231 [penwidth=2]
    167 -> 265 [penwidth=2]
    167 -> 281 [penwidth=2]
    167 -> 236 [penwidth=2]
    167 -> 293 [penwidth=2]
    167 -> 310 [penwidth=2]
    167 -> 294 [penwidth=2]
    167 -> 271 [penwidth=2]
    167 -> 298 [penwidth=2]
    167 -> 192 [penwidth=2]
    167 -> 213 [penwidth=2]
    167 -> 230 [penwidth=2]
    167 -> 250 [penwidth=2]
    167 -> 232 [penwidth=2]
    167 -> 316 [penwidth=2]
    167 -> 304 [penwidth=2]
    167 -> 272 [penwidth=2]
    167 -> 241 [penwidth=2]
    167 -> 257 [penwidth=2]
    167 -> 289 [penwidth=2]
    167 -> 249 [penwidth=2]
    167 -> 196 [penwidth=2]
    167 -> 204 [penwidth=2]
    134 -> 219 [penwidth=2]
    134 -> 252 [penwidth=2]
    134 -> 270 [penwidth=2]
    134 -> 260 [penwidth=2]
    134 -> 258 [penwidth=2]
    134 -> 315 [penwidth=2]
    134 -> 220 [penwidth=2]
    134 -> 305 [penwidth=2]
    134 -> 261 [penwidth=2]
    134 -> 263 [penwidth=2]
    134 -> 208 [penwidth=2]
    134 -> 248 [penwidth=2]
    134 -> 299 [penwidth=2]
    134 -> 212 [penwidth=2]
    134 -> 298 [penwidth=2]
    134 -> 312 [penwidth=2]
    134 -> 204 [penwidth=2]
    134 -> 232 [penwidth=2]
    134 -> 194 [penwidth=2]
    134 -> 198 [penwidth=2]
    134 -> 257 [penwidth=2]
    134 -> 290 [penwidth=2]
    134 -> 209 [penwidth=2]
    134 -> 228 [penwidth=2]
    134 -> 210 [penwidth=2]
    134 -> 240 [penwidth=2]
    134 -> 316 [penwidth=2]
    134 -> 150 [penwidth=2]
    134 -> 229 [penwidth=2]
    134 -> 311 [penwidth=2]
    134 -> 108 [penwidth=2]
    134 -> 259 [penwidth=2]
    134 -> 236 [penwidth=2]
    134 -> 293 [penwidth=2]
    134 -> 218 [penwidth=2]
    134 -> 222 [penwidth=2]
    134 -> 216 [penwidth=2]
    134 -> 279 [penwidth=2]
    134 -> 191 [penwidth=2]
    134 -> 280 [penwidth=2]
    134 -> 247 [penwidth=2]
    134 -> 255 [penwidth=2]
    134 -> 272 [penwidth=2]
    134 -> 306 [penwidth=2]
    134 -> 284 [penwidth=2]
    134 -> 207 [penwidth=2]
    134 -> 285 [penwidth=2]
    134 -> 278 [penwidth=2]
    134 -> 271 [penwidth=2]
    134 -> 242 [penwidth=2]
    134 -> 301 [penwidth=2]
    134 -> 206 [penwidth=2]
    134 -> 211 [penwidth=2]
    134 -> 302 [penwidth=2]
    134 -> 203 [penwidth=2]
    134 -> 289 [penwidth=2]
    134 -> 274 [penwidth=2]
    134 -> 313 [penwidth=2]
    134 -> 264 [penwidth=2]
    134 -> 227 [penwidth=2]
    134 -> 269 [penwidth=2]
    134 -> 286 [penwidth=2]
    134 -> 304 [penwidth=2]
    134 -> 202 [penwidth=2]
    134 -> 215 [penwidth=2]
    134 -> 291 [penwidth=2]
    134 -> 282 [penwidth=2]
    134 -> 221 [penwidth=2]
    134 -> 314 [penwidth=2]
    134 -> 254 [penwidth=2]
    134 -> 230 [penwidth=2]
    134 -> 303 [penwidth=2]
    134 -> 268 [penwidth=2]
    134 -> 238 [penwidth=2]
    185 -> 255 [penwidth=2]
    185 -> 215 [penwidth=2]
    185 -> 253 [penwidth=2]
    185 -> 278 [penwidth=2]
    185 -> 316 [penwidth=2]
    185 -> 298 [penwidth=2]
    185 -> 236 [penwidth=2]
    185 -> 285 [penwidth=2]
    185 -> 216 [penwidth=2]
    185 -> 228 [penwidth=2]
    185 -> 258 [penwidth=2]
    185 -> 150 [penwidth=2]
    185 -> 304 [penwidth=2]
    185 -> 283 [penwidth=2]
    185 -> 313 [penwidth=2]
    185 -> 108 [penwidth=2]
    185 -> 301 [penwidth=2]
    185 -> 242 [penwidth=2]
    185 -> 199 [penwidth=2]
    185 -> 251 [penwidth=2]
    185 -> 273 [penwidth=2]
    185 -> 289 [penwidth=2]
    185 -> 192 [penwidth=2]
    185 -> 300 [penwidth=2]
    185 -> 201 [penwidth=2]
    185 -> 248 [penwidth=2]
    185 -> 226 [penwidth=2]
    185 -> 310 [penwidth=2]
    185 -> 260 [penwidth=2]
    185 -> 305 [penwidth=2]
    185 -> 272 [penwidth=2]
    185 -> 212 [penwidth=2]
    185 -> 231 [penwidth=2]
    185 -> 200 [penwidth=2]
    185 -> 206 [penwidth=2]
    185 -> 284 [penwidth=2]
    185 -> 209 [penwidth=2]
    185 -> 222 [penwidth=2]
    185 -> 280 [penwidth=2]
    185 -> 257 [penwidth=2]
    185 -> 198 [penwidth=2]
    185 -> 225 [penwidth=2]
    185 -> 149 [penwidth=2]
    185 -> 270 [penwidth=2]
    185 -> 246 [penwidth=2]
    185 -> 312 [penwidth=2]
    185 -> 205 [penwidth=2]
    185 -> 315 [penwidth=2]
    185 -> 230 [penwidth=2]
    185 -> 250 [penwidth=2]
    185 -> 107 [penwidth=2]
    185 -> 286 [penwidth=2]
    185 -> 311 [penwidth=2]
    185 -> 213 [penwidth=2]
    185 -> 243 [penwidth=2]
    185 -> 262 [penwidth=2]
    185 -> 264 [penwidth=2]
    185 -> 261 [penwidth=2]
    185 -> 297 [penwidth=2]
    185 -> 218 [penwidth=2]
    185 -> 247 [penwidth=2]
    185 -> 302 [penwidth=2]
    185 -> 306 [penwidth=2]
    185 -> 287 [penwidth=2]
    185 -> 274 [penwidth=2]
    185 -> 294 [penwidth=2]
    185 -> 266 [penwidth=2]
    190 -> 281 [penwidth=2]
    190 -> 200 [penwidth=2]
    190 -> 199 [penwidth=2]
    190 -> 272 [penwidth=2]
    190 -> 211 [penwidth=2]
    190 -> 314 [penwidth=2]
    190 -> 217 [penwidth=2]
    190 -> 284 [penwidth=2]
    190 -> 307 [penwidth=2]
    190 -> 264 [penwidth=2]
    190 -> 286 [penwidth=2]
    190 -> 315 [penwidth=2]
    190 -> 203 [penwidth=2]
    190 -> 206 [penwidth=2]
    190 -> 262 [penwidth=2]
    190 -> 296 [penwidth=2]
    190 -> 107 [penwidth=2]
    190 -> 218 [penwidth=2]
    190 -> 301 [penwidth=2]
    190 -> 237 [penwidth=2]
    190 -> 261 [penwidth=2]
    190 -> 242 [penwidth=2]
    81 -> 206 [penwidth=2]
    81 -> 212 [penwidth=2]
    81 -> 243 [penwidth=2]
    81 -> 222 [penwidth=2]
    81 -> 310 [penwidth=2]
    81 -> 150 [penwidth=2]
    81 -> 257 [penwidth=2]
    81 -> 229 [penwidth=2]
    81 -> 284 [penwidth=2]
    81 -> 274 [penwidth=2]
    81 -> 237 [penwidth=2]
    81 -> 265 [penwidth=2]
    81 -> 302 [penwidth=2]
    81 -> 236 [penwidth=2]
    81 -> 283 [penwidth=2]
    81 -> 294 [penwidth=2]
    81 -> 245 [penwidth=2]
    81 -> 252 [penwidth=2]
    81 -> 305 [penwidth=2]
    81 -> 260 [penwidth=2]
    81 -> 259 [penwidth=2]
    81 -> 225 [penwidth=2]
    81 -> 238 [penwidth=2]
    81 -> 197 [penwidth=2]
    81 -> 273 [penwidth=2]
    81 -> 218 [penwidth=2]
    81 -> 244 [penwidth=2]
    81 -> 271 [penwidth=2]
    81 -> 312 [penwidth=2]
    81 -> 256 [penwidth=2]
    81 -> 303 [penwidth=2]
    81 -> 255 [penwidth=2]
    81 -> 315 [penwidth=2]
    81 -> 213 [penwidth=2]
    81 -> 262 [penwidth=2]
    81 -> 219 [penwidth=2]
    81 -> 258 [penwidth=2]
    81 -> 193 [penwidth=2]
    81 -> 309 [penwidth=2]
    81 -> 251 [penwidth=2]
    81 -> 282 [penwidth=2]
    81 -> 192 [penwidth=2]
    81 -> 307 [penwidth=2]
    81 -> 293 [penwidth=2]
    81 -> 288 [penwidth=2]
    81 -> 228 [penwidth=2]
    81 -> 195 [penwidth=2]
    81 -> 316 [penwidth=2]
    81 -> 194 [penwidth=2]
    81 -> 270 [penwidth=2]
    81 -> 296 [penwidth=2]
    81 -> 250 [penwidth=2]
    81 -> 232 [penwidth=2]
    81 -> 210 [penwidth=2]
    81 -> 196 [penwidth=2]
    81 -> 220 [penwidth=2]
    81 -> 253 [penwidth=2]
    81 -> 278 [penwidth=2]
    81 -> 199 [penwidth=2]
    81 -> 109 [penwidth=2]
    81 -> 304 [penwidth=2]
    81 -> 230 [penwidth=2]
    81 -> 286 [penwidth=2]
    81 -> 227 [penwidth=2]
    81 -> 200 [penwidth=2]
    81 -> 308 [penwidth=2]
    81 -> 201 [penwidth=2]
    81 -> 299 [penwidth=2]
    81 -> 207 [penwidth=2]
    81 -> 247 [penwidth=2]
    81 -> 263 [penwidth=2]
    81 -> 300 [penwidth=2]
    81 -> 205 [penwidth=2]
    81 -> 214 [penwidth=2]
    81 -> 211 [penwidth=2]
    81 -> 203 [penwidth=2]
    81 -> 306 [penwidth=2]
    81 -> 266 [penwidth=2]
    81 -> 272 [penwidth=2]
    81 -> 313 [penwidth=2]
    81 -> 298 [penwidth=2]
    81 -> 208 [penwidth=2]
    81 -> 279 [penwidth=2]
    81 -> 246 [penwidth=2]
    81 -> 254 [penwidth=2]
    81 -> 281 [penwidth=2]
    81 -> 249 [penwidth=2]
    81 -> 290 [penwidth=2]
    81 -> 107 [penwidth=2]
    81 -> 292 [penwidth=2]
    81 -> 204 [penwidth=2]
    81 -> 202 [penwidth=2]
    81 -> 217 [penwidth=2]
    81 -> 239 [penwidth=2]
    81 -> 285 [penwidth=2]
    81 -> 221 [penwidth=2]
    81 -> 241 [penwidth=2]
    81 -> 226 [penwidth=2]
    81 -> 108 [penwidth=2]
    81 -> 297 [penwidth=2]
    81 -> 311 [penwidth=2]
    81 -> 268 [penwidth=2]
    81 -> 209 [penwidth=2]
    81 -> 242 [penwidth=2]
    81 -> 215 [penwidth=2]
    81 -> 291 [penwidth=2]
    81 -> 191 [penwidth=2]
    81 -> 198 [penwidth=2]
    81 -> 261 [penwidth=2]
    81 -> 216 [penwidth=2]
    81 -> 289 [penwidth=2]
    81 -> 264 [penwidth=2]
    81 -> 231 [penwidth=2]
    84 -> 292 [penwidth=2]
    84 -> 205 [penwidth=2]
    84 -> 264 [penwidth=2]
    84 -> 196 [penwidth=2]
    84 -> 237 [penwidth=2]
    84 -> 263 [penwidth=2]
    84 -> 236 [penwidth=2]
    84 -> 282 [penwidth=2]
    84 -> 283 [penwidth=2]
    84 -> 267 [penwidth=2]
    84 -> 250 [penwidth=2]
    84 -> 195 [penwidth=2]
    84 -> 230 [penwidth=2]
    84 -> 308 [penwidth=2]
    84 -> 224 [penwidth=2]
    84 -> 268 [penwidth=2]
    84 -> 247 [penwidth=2]
    84 -> 302 [penwidth=2]
    84 -> 214 [penwidth=2]
    84 -> 108 [penwidth=2]
    84 -> 191 [penwidth=2]
    91 -> 254 [penwidth=2]
    91 -> 241 [penwidth=2]
    91 -> 236 [penwidth=2]
    91 -> 207 [penwidth=2]
    91 -> 228 [penwidth=2]
    91 -> 255 [penwidth=2]
    91 -> 295 [penwidth=2]
    91 -> 216 [penwidth=2]
    91 -> 229 [penwidth=2]
    91 -> 107 [penwidth=2]
    91 -> 260 [penwidth=2]
    91 -> 259 [penwidth=2]
    91 -> 246 [penwidth=2]
    91 -> 271 [penwidth=2]
    91 -> 196 [penwidth=2]
    91 -> 284 [penwidth=2]
    91 -> 264 [penwidth=2]
    91 -> 288 [penwidth=2]
    91 -> 199 [penwidth=2]
    91 -> 193 [penwidth=2]
    91 -> 281 [penwidth=2]
    91 -> 200 [penwidth=2]
    91 -> 214 [penwidth=2]
    91 -> 279 [penwidth=2]
    91 -> 293 [penwidth=2]
    91 -> 249 [penwidth=2]
    91 -> 280 [penwidth=2]
    91 -> 213 [penwidth=2]
    91 -> 195 [penwidth=2]
    91 -> 224 [penwidth=2]
    91 -> 253 [penwidth=2]
    91 -> 300 [penwidth=2]
    91 -> 240 [penwidth=2]
    91 -> 308 [penwidth=2]
    91 -> 244 [penwidth=2]
    91 -> 192 [penwidth=2]
    91 -> 302 [penwidth=2]
    91 -> 201 [penwidth=2]
    91 -> 294 [penwidth=2]
    91 -> 299 [penwidth=2]
    91 -> 315 [penwidth=2]
    91 -> 209 [penwidth=2]
    91 -> 202 [penwidth=2]
    91 -> 242 [penwidth=2]
    91 -> 223 [penwidth=2]
    91 -> 221 [penwidth=2]
    91 -> 252 [penwidth=2]
    91 -> 297 [penwidth=2]
    91 -> 278 [penwidth=2]
    91 -> 226 [penwidth=2]
    91 -> 237 [penwidth=2]
    91 -> 309 [penwidth=2]
    91 -> 290 [penwidth=2]
    91 -> 296 [penwidth=2]
    91 -> 311 [penwidth=2]
    91 -> 257 [penwidth=2]
    91 -> 243 [penwidth=2]
    91 -> 206 [penwidth=2]
    91 -> 258 [penwidth=2]
    91 -> 248 [penwidth=2]
    91 -> 282 [penwidth=2]
    91 -> 256 [penwidth=2]
    91 -> 261 [penwidth=2]
    91 -> 227 [penwidth=2]
    91 -> 283 [penwidth=2]
    91 -> 205 [penwidth=2]
    91 -> 306 [penwidth=2]
    91 -> 312 [penwidth=2]
    91 -> 215 [penwidth=2]
    91 -> 289 [penwidth=2]
    91 -> 268 [penwidth=2]
    91 -> 211 [penwidth=2]
    91 -> 238 [penwidth=2]
    91 -> 108 [penwidth=2]
    91 -> 219 [penwidth=2]
    91 -> 266 [penwidth=2]
    91 -> 316 [penwidth=2]
    91 -> 314 [penwidth=2]
    91 -> 269 [penwidth=2]
    91 -> 298 [penwidth=2]
    91 -> 272 [penwidth=2]
    91 -> 263 [penwidth=2]
    91 -> 194 [penwidth=2]
    91 -> 310 [penwidth=2]
    91 -> 273 [penwidth=2]
    91 -> 285 [penwidth=2]
    91 -> 208 [penwidth=2]
    91 -> 304 [penwidth=2]
    91 -> 230 [penwidth=2]
    91 -> 287 [penwidth=2]
    91 -> 313 [penwidth=2]
    91 -> 225 [penwidth=2]
    91 -> 251 [penwidth=2]
    91 -> 274 [penwidth=2]
    91 -> 218 [penwidth=2]
    91 -> 292 [penwidth=2]
    91 -> 191 [penwidth=2]
    91 -> 220 [penwidth=2]
    91 -> 149 [penwidth=2]
    91 -> 204 [penwidth=2]
    91 -> 212 [penwidth=2]
    91 -> 247 [penwidth=2]
    91 -> 210 [penwidth=2]
    91 -> 232 [penwidth=2]
    91 -> 303 [penwidth=2]
    91 -> 301 [penwidth=2]
    91 -> 197 [penwidth=2]
    91 -> 198 [penwidth=2]
    91 -> 245 [penwidth=2]
    91 -> 150 [penwidth=2]
    91 -> 231 [penwidth=2]
    91 -> 286 [penwidth=2]
    91 -> 267 [penwidth=2]
    94 -> 108 [penwidth=2]
    94 -> 284 [penwidth=2]
    94 -> 222 [penwidth=2]
    94 -> 293 [penwidth=2]
    94 -> 201 [penwidth=2]
    94 -> 287 [penwidth=2]
    94 -> 283 [penwidth=2]
    94 -> 191 [penwidth=2]
    94 -> 289 [penwidth=2]
    94 -> 298 [penwidth=2]
    94 -> 227 [penwidth=2]
    94 -> 267 [penwidth=2]
    94 -> 220 [penwidth=2]
    94 -> 265 [penwidth=2]
    94 -> 240 [penwidth=2]
    94 -> 316 [penwidth=2]
    94 -> 207 [penwidth=2]
    94 -> 241 [penwidth=2]
    94 -> 208 [penwidth=2]
    94 -> 193 [penwidth=2]
    94 -> 212 [penwidth=2]
    94 -> 313 [penwidth=2]
    94 -> 218 [penwidth=2]
    94 -> 219 [penwidth=2]
    94 -> 242 [penwidth=2]
    94 -> 245 [penwidth=2]
    94 -> 216 [penwidth=2]
    94 -> 198 [penwidth=2]
    94 -> 294 [penwidth=2]
    94 -> 248 [penwidth=2]
    94 -> 195 [penwidth=2]
    94 -> 150 [penwidth=2]
    94 -> 259 [penwidth=2]
    94 -> 223 [penwidth=2]
    94 -> 258 [penwidth=2]
    94 -> 255 [penwidth=2]
    94 -> 205 [penwidth=2]
    94 -> 244 [penwidth=2]
    94 -> 213 [penwidth=2]
    94 -> 226 [penwidth=2]
    94 -> 285 [penwidth=2]
    94 -> 251 [penwidth=2]
    94 -> 297 [penwidth=2]
    94 -> 266 [penwidth=2]
    95 -> 295 [penwidth=2]
    95 -> 220 [penwidth=2]
    95 -> 313 [penwidth=2]
    95 -> 291 [penwidth=2]
    95 -> 311 [penwidth=2]
    95 -> 312 [penwidth=2]
    95 -> 293 [penwidth=2]
    95 -> 150 [penwidth=2]
    95 -> 212 [penwidth=2]
    95 -> 300 [penwidth=2]
    95 -> 208 [penwidth=2]
    95 -> 284 [penwidth=2]
    95 -> 197 [penwidth=2]
    95 -> 268 [penwidth=2]
    95 -> 286 [penwidth=2]
    95 -> 207 [penwidth=2]
    95 -> 222 [penwidth=2]
    95 -> 271 [penwidth=2]
    95 -> 223 [penwidth=2]
    95 -> 285 [penwidth=2]
    95 -> 310 [penwidth=2]
    95 -> 270 [penwidth=2]
    95 -> 232 [penwidth=2]
    95 -> 279 [penwidth=2]
    95 -> 221 [penwidth=2]
    95 -> 289 [penwidth=2]
    95 -> 304 [penwidth=2]
    95 -> 262 [penwidth=2]
    95 -> 227 [penwidth=2]
    95 -> 107 [penwidth=2]
    95 -> 282 [penwidth=2]
    95 -> 241 [penwidth=2]
    95 -> 193 [penwidth=2]
    95 -> 200 [penwidth=2]
    95 -> 309 [penwidth=2]
    95 -> 258 [penwidth=2]
    95 -> 314 [penwidth=2]
    95 -> 196 [penwidth=2]
    95 -> 249 [penwidth=2]
    95 -> 209 [penwidth=2]
    95 -> 198 [penwidth=2]
    95 -> 257 [penwidth=2]
    95 -> 229 [penwidth=2]
    95 -> 206 [penwidth=2]
    95 -> 194 [penwidth=2]
    95 -> 248 [penwidth=2]
    95 -> 204 [penwidth=2]
    95 -> 303 [penwidth=2]
    95 -> 215 [penwidth=2]
    95 -> 226 [penwidth=2]
    95 -> 192 [penwidth=2]
    95 -> 214 [penwidth=2]
    95 -> 259 [penwidth=2]
    95 -> 213 [penwidth=2]
    95 -> 224 [penwidth=2]
    95 -> 195 [penwidth=2]
    95 -> 308 [penwidth=2]
    95 -> 149 [penwidth=2]
    95 -> 240 [penwidth=2]
    95 -> 290 [penwidth=2]
    95 -> 272 [penwidth=2]
    95 -> 237 [penwidth=2]
    95 -> 231 [penwidth=2]
    95 -> 216 [penwidth=2]
    95 -> 298 [penwidth=2]
    95 -> 301 [penwidth=2]
    95 -> 292 [penwidth=2]
    95 -> 205 [penwidth=2]
    95 -> 306 [penwidth=2]
    95 -> 217 [penwidth=2]
    95 -> 219 [penwidth=2]
    95 -> 250 [penwidth=2]
    95 -> 246 [penwidth=2]
    95 -> 251 [penwidth=2]
    95 -> 305 [penwidth=2]
    95 -> 280 [penwidth=2]
    95 -> 225 [penwidth=2]
    95 -> 288 [penwidth=2]
    95 -> 242 [penwidth=2]
    95 -> 256 [penwidth=2]
    95 -> 315 [penwidth=2]
    95 -> 278 [penwidth=2]
    95 -> 299 [penwidth=2]
    95 -> 283 [penwidth=2]
    95 -> 307 [penwidth=2]
    95 -> 287 [penwidth=2]
    95 -> 260 [penwidth=2]
    95 -> 273 [penwidth=2]
    95 -> 218 [penwidth=2]
    95 -> 294 [penwidth=2]
    95 -> 210 [penwidth=2]
    95 -> 269 [penwidth=2]
    95 -> 201 [penwidth=2]
    95 -> 274 [penwidth=2]
    95 -> 263 [penwidth=2]
    95 -> 253 [penwidth=2]
    95 -> 230 [penwidth=2]
    95 -> 255 [penwidth=2]
    95 -> 266 [penwidth=2]
    95 -> 202 [penwidth=2]
    95 -> 265 [penwidth=2]
    95 -> 191 [penwidth=2]
    95 -> 236 [penwidth=2]
    95 -> 297 [penwidth=2]
    95 -> 211 [penwidth=2]
    95 -> 199 [penwidth=2]
    95 -> 252 [penwidth=2]
    95 -> 261 [penwidth=2]
    359 -> 109 [penwidth=2]
    359 -> 201 [penwidth=2]
    359 -> 269 [penwidth=2]
    359 -> 274 [penwidth=2]
    359 -> 191 [penwidth=2]
    359 -> 301 [penwidth=2]
    359 -> 213 [penwidth=2]
    359 -> 252 [penwidth=2]
    359 -> 107 [penwidth=2]
    359 -> 223 [penwidth=2]
    359 -> 292 [penwidth=2]
    359 -> 286 [penwidth=2]
    359 -> 210 [penwidth=2]
    359 -> 198 [penwidth=2]
    359 -> 208 [penwidth=2]
    359 -> 300 [penwidth=2]
    359 -> 290 [penwidth=2]
    359 -> 283 [penwidth=2]
    359 -> 206 [penwidth=2]
    359 -> 256 [penwidth=2]
    359 -> 226 [penwidth=2]
    359 -> 150 [penwidth=2]
    359 -> 215 [penwidth=2]
    359 -> 216 [penwidth=2]
    359 -> 311 [penwidth=2]
    359 -> 288 [penwidth=2]
    359 -> 192 [penwidth=2]
    359 -> 242 [penwidth=2]
    359 -> 199 [penwidth=2]
    359 -> 273 [penwidth=2]
    359 -> 264 [penwidth=2]
    359 -> 258 [penwidth=2]
    359 -> 225 [penwidth=2]
    359 -> 262 [penwidth=2]
    359 -> 195 [penwidth=2]
    359 -> 231 [penwidth=2]
    359 -> 305 [penwidth=2]
    359 -> 266 [penwidth=2]
    359 -> 244 [penwidth=2]
    359 -> 222 [penwidth=2]
    359 -> 249 [penwidth=2]
    359 -> 248 [penwidth=2]
    359 -> 310 [penwidth=2]
    359 -> 209 [penwidth=2]
    359 -> 260 [penwidth=2]
    359 -> 298 [penwidth=2]
    359 -> 217 [penwidth=2]
    359 -> 220 [penwidth=2]
    359 -> 250 [penwidth=2]
    359 -> 232 [penwidth=2]
    359 -> 313 [penwidth=2]
    359 -> 196 [penwidth=2]
    359 -> 306 [penwidth=2]
    359 -> 236 [penwidth=2]
    359 -> 230 [penwidth=2]
    359 -> 251 [penwidth=2]
    359 -> 254 [penwidth=2]
    359 -> 309 [penwidth=2]
    359 -> 238 [penwidth=2]
    359 -> 243 [penwidth=2]
    359 -> 221 [penwidth=2]
    359 -> 261 [penwidth=2]
    359 -> 204 [penwidth=2]
    359 -> 214 [penwidth=2]
    359 -> 294 [penwidth=2]
    359 -> 278 [penwidth=2]
    359 -> 308 [penwidth=2]
    359 -> 272 [penwidth=2]
    359 -> 295 [penwidth=2]
    359 -> 202 [penwidth=2]
    359 -> 193 [penwidth=2]
    359 -> 205 [penwidth=2]
    359 -> 149 [penwidth=2]
    359 -> 237 [penwidth=2]
    359 -> 229 [penwidth=2]
    359 -> 212 [penwidth=2]
    359 -> 270 [penwidth=2]
    359 -> 247 [penwidth=2]
    359 -> 291 [penwidth=2]
    359 -> 245 [penwidth=2]
    359 -> 299 [penwidth=2]
    359 -> 239 [penwidth=2]
    359 -> 240 [penwidth=2]
    359 -> 267 [penwidth=2]
    359 -> 108 [penwidth=2]
    359 -> 304 [penwidth=2]
    359 -> 207 [penwidth=2]
    359 -> 303 [penwidth=2]
    359 -> 218 [penwidth=2]
    359 -> 200 [penwidth=2]
    359 -> 211 [penwidth=2]
    359 -> 287 [penwidth=2]
    359 -> 302 [penwidth=2]
    359 -> 246 [penwidth=2]
    359 -> 253 [penwidth=2]
    359 -> 265 [penwidth=2]
    359 -> 255 [penwidth=2]
    359 -> 257 [penwidth=2]
    359 -> 279 [penwidth=2]
    359 -> 228 [penwidth=2]
    359 -> 285 [penwidth=2]
    359 -> 259 [penwidth=2]
    359 -> 197 [penwidth=2]
    359 -> 263 [penwidth=2]
    359 -> 312 [penwidth=2]
    359 -> 314 [penwidth=2]
    359 -> 289 [penwidth=2]
    359 -> 316 [penwidth=2]
    359 -> 307 [penwidth=2]
    359 -> 297 [penwidth=2]
    359 -> 241 [penwidth=2]
    359 -> 203 [penwidth=2]
    359 -> 282 [penwidth=2]
    359 -> 315 [penwidth=2]
    359 -> 293 [penwidth=2]
    359 -> 268 [penwidth=2]
    359 -> 280 [penwidth=2]
    359 -> 219 [penwidth=2]
    359 -> 271 [penwidth=2]
    359 -> 227 [penwidth=2]
    359 -> 284 [penwidth=2]
    359 -> 224 [penwidth=2]
    368 -> 214 [penwidth=2]
    368 -> 263 [penwidth=2]
    368 -> 254 [penwidth=2]
    368 -> 308 [penwidth=2]
    368 -> 313 [penwidth=2]
    368 -> 223 [penwidth=2]
    368 -> 250 [penwidth=2]
    368 -> 253 [penwidth=2]
    368 -> 229 [penwidth=2]
    368 -> 290 [penwidth=2]
    368 -> 298 [penwidth=2]
    368 -> 215 [penwidth=2]
    368 -> 232 [penwidth=2]
    368 -> 213 [penwidth=2]
    368 -> 245 [penwidth=2]
    368 -> 294 [penwidth=2]
    368 -> 248 [penwidth=2]
    368 -> 291 [penwidth=2]
    368 -> 271 [penwidth=2]
    368 -> 297 [penwidth=2]
    368 -> 266 [penwidth=2]
    368 -> 204 [penwidth=2]
    368 -> 247 [penwidth=2]
    368 -> 211 [penwidth=2]
    368 -> 287 [penwidth=2]
    368 -> 221 [penwidth=2]
    368 -> 198 [penwidth=2]
    368 -> 201 [penwidth=2]
    368 -> 295 [penwidth=2]
    368 -> 314 [penwidth=2]
    368 -> 197 [penwidth=2]
    368 -> 227 [penwidth=2]
    368 -> 307 [penwidth=2]
    368 -> 280 [penwidth=2]
    368 -> 207 [penwidth=2]
    368 -> 269 [penwidth=2]
    368 -> 312 [penwidth=2]
    368 -> 310 [penwidth=2]
    368 -> 262 [penwidth=2]
    368 -> 192 [penwidth=2]
    368 -> 255 [penwidth=2]
    368 -> 222 [penwidth=2]
    368 -> 282 [penwidth=2]
    368 -> 203 [penwidth=2]
    368 -> 199 [penwidth=2]
    368 -> 299 [penwidth=2]
    368 -> 202 [penwidth=2]
    368 -> 283 [penwidth=2]
    368 -> 216 [penwidth=2]
    368 -> 305 [penwidth=2]
    368 -> 150 [penwidth=2]
    368 -> 296 [penwidth=2]
    368 -> 260 [penwidth=2]
    368 -> 149 [penwidth=2]
    368 -> 261 [penwidth=2]
    368 -> 304 [penwidth=2]
    368 -> 301 [penwidth=2]
    368 -> 241 [penwidth=2]
    368 -> 243 [penwidth=2]
    368 -> 284 [penwidth=2]
    368 -> 200 [penwidth=2]
    368 -> 252 [penwidth=2]
    368 -> 230 [penwidth=2]
    368 -> 274 [penwidth=2]
    368 -> 259 [penwidth=2]
    368 -> 300 [penwidth=2]
    368 -> 306 [penwidth=2]
    368 -> 220 [penwidth=2]
    368 -> 286 [penwidth=2]
    368 -> 212 [penwidth=2]
    368 -> 237 [penwidth=2]
    368 -> 264 [penwidth=2]
    368 -> 249 [penwidth=2]
    368 -> 231 [penwidth=2]
    368 -> 196 [penwidth=2]
    368 -> 205 [penwidth=2]
    368 -> 244 [penwidth=2]
    368 -> 109 [penwidth=2]
    368 -> 309 [penwidth=2]
    368 -> 191 [penwidth=2]
    368 -> 316 [penwidth=2]
    368 -> 272 [penwidth=2]
    368 -> 278 [penwidth=2]
    368 -> 257 [penwidth=2]
    368 -> 246 [penwidth=2]
    368 -> 251 [penwidth=2]
    368 -> 236 [penwidth=2]
    368 -> 238 [penwidth=2]
    368 -> 240 [penwidth=2]
    368 -> 273 [penwidth=2]
    368 -> 256 [penwidth=2]
    368 -> 303 [penwidth=2]
    368 -> 268 [penwidth=2]
    368 -> 279 [penwidth=2]
    368 -> 217 [penwidth=2]
    368 -> 208 [penwidth=2]
    368 -> 292 [penwidth=2]
    368 -> 239 [penwidth=2]
    368 -> 107 [penwidth=2]
    368 -> 226 [penwidth=2]
    368 -> 302 [penwidth=2]
    368 -> 218 [penwidth=2]
    368 -> 285 [penwidth=2]
    368 -> 225 [penwidth=2]
    368 -> 270 [penwidth=2]
    368 -> 224 [penwidth=2]
    368 -> 108 [penwidth=2]
    368 -> 265 [penwidth=2]
    368 -> 209 [penwidth=2]
    368 -> 315 [penwidth=2]
    368 -> 293 [penwidth=2]
    368 -> 206 [penwidth=2]
    368 -> 228 [penwidth=2]
    370 -> 231 [penwidth=2]
    370 -> 291 [penwidth=2]
    370 -> 246 [penwidth=2]
    370 -> 242 [penwidth=2]
    370 -> 228 [penwidth=2]
    370 -> 265 [penwidth=2]
    370 -> 302 [penwidth=2]
    370 -> 107 [penwidth=2]
    370 -> 212 [penwidth=2]
    370 -> 206 [penwidth=2]
    370 -> 310 [penwidth=2]
    370 -> 202 [penwidth=2]
    370 -> 297 [penwidth=2]
    370 -> 252 [penwidth=2]
    370 -> 254 [penwidth=2]
    370 -> 299 [penwidth=2]
    370 -> 312 [penwidth=2]
    370 -> 269 [penwidth=2]
    370 -> 223 [penwidth=2]
    370 -> 197 [penwidth=2]
    370 -> 263 [penwidth=2]
    370 -> 308 [penwidth=2]
    370 -> 301 [penwidth=2]
    370 -> 149 [penwidth=2]
    370 -> 283 [penwidth=2]
    370 -> 227 [penwidth=2]
    370 -> 210 [penwidth=2]
    370 -> 204 [penwidth=2]
    370 -> 225 [penwidth=2]
    370 -> 250 [penwidth=2]
    370 -> 203 [penwidth=2]
    370 -> 257 [penwidth=2]
    370 -> 316 [penwidth=2]
    370 -> 285 [penwidth=2]
    370 -> 282 [penwidth=2]
    370 -> 267 [penwidth=2]
    370 -> 224 [penwidth=2]
    370 -> 109 [penwidth=2]
    370 -> 226 [penwidth=2]
    370 -> 194 [penwidth=2]
    370 -> 243 [penwidth=2]
    370 -> 244 [penwidth=2]
    370 -> 213 [penwidth=2]
    370 -> 208 [penwidth=2]
    370 -> 311 [penwidth=2]
    370 -> 219 [penwidth=2]
    370 -> 198 [penwidth=2]
    370 -> 270 [penwidth=2]
    370 -> 237 [penwidth=2]
    370 -> 211 [penwidth=2]
    370 -> 193 [penwidth=2]
    370 -> 238 [penwidth=2]
    370 -> 214 [penwidth=2]
    370 -> 272 [penwidth=2]
    370 -> 229 [penwidth=2]
    370 -> 273 [penwidth=2]
    370 -> 266 [penwidth=2]
    370 -> 313 [penwidth=2]
    370 -> 274 [penwidth=2]
    370 -> 264 [penwidth=2]
    370 -> 298 [penwidth=2]
    370 -> 240 [penwidth=2]
    370 -> 295 [penwidth=2]
    370 -> 268 [penwidth=2]
    370 -> 215 [penwidth=2]
    370 -> 200 [penwidth=2]
    370 -> 287 [penwidth=2]
    370 -> 251 [penwidth=2]
    370 -> 150 [penwidth=2]
    370 -> 248 [penwidth=2]
    370 -> 259 [penwidth=2]
    370 -> 192 [penwidth=2]
    370 -> 191 [penwidth=2]
    370 -> 220 [penwidth=2]
    370 -> 292 [penwidth=2]
    370 -> 293 [penwidth=2]
    370 -> 296 [penwidth=2]
    370 -> 260 [penwidth=2]
    370 -> 221 [penwidth=2]
    370 -> 303 [penwidth=2]
    370 -> 195 [penwidth=2]
    370 -> 255 [penwidth=2]
    370 -> 280 [penwidth=2]
    370 -> 230 [penwidth=2]
    370 -> 216 [penwidth=2]
    370 -> 217 [penwidth=2]
    370 -> 305 [penwidth=2]
    370 -> 201 [penwidth=2]
    370 -> 258 [penwidth=2]
    370 -> 284 [penwidth=2]
    370 -> 245 [penwidth=2]
    370 -> 247 [penwidth=2]
    372 -> 272 [penwidth=2]
    372 -> 282 [penwidth=2]
    372 -> 274 [penwidth=2]
    372 -> 219 [penwidth=2]
    372 -> 244 [penwidth=2]
    372 -> 295 [penwidth=2]
    372 -> 192 [penwidth=2]
    372 -> 109 [penwidth=2]
    372 -> 280 [penwidth=2]
    372 -> 253 [penwidth=2]
    372 -> 218 [penwidth=2]
    372 -> 248 [penwidth=2]
    372 -> 108 [penwidth=2]
    372 -> 264 [penwidth=2]
    372 -> 307 [penwidth=2]
    372 -> 204 [penwidth=2]
    372 -> 107 [penwidth=2]
    372 -> 230 [penwidth=2]
    372 -> 229 [penwidth=2]
    372 -> 271 [penwidth=2]
    372 -> 239 [penwidth=2]
    372 -> 260 [penwidth=2]
    372 -> 245 [penwidth=2]
    372 -> 268 [penwidth=2]
    372 -> 289 [penwidth=2]
    372 -> 224 [penwidth=2]
    372 -> 210 [penwidth=2]
    372 -> 216 [penwidth=2]
    372 -> 236 [penwidth=2]
    372 -> 269 [penwidth=2]
    372 -> 150 [penwidth=2]
    372 -> 283 [penwidth=2]
    372 -> 209 [penwidth=2]
    372 -> 314 [penwidth=2]
    372 -> 191 [penwidth=2]
    372 -> 267 [penwidth=2]
    372 -> 309 [penwidth=2]
    372 -> 250 [penwidth=2]
    372 -> 259 [penwidth=2]
    372 -> 311 [penwidth=2]
    372 -> 270 [penwidth=2]
    372 -> 256 [penwidth=2]
    372 -> 206 [penwidth=2]
    372 -> 202 [penwidth=2]
    372 -> 278 [penwidth=2]
    372 -> 220 [penwidth=2]
    372 -> 241 [penwidth=2]
    372 -> 302 [penwidth=2]
    372 -> 258 [penwidth=2]
    372 -> 290 [penwidth=2]
    372 -> 305 [penwidth=2]
    372 -> 211 [penwidth=2]
    372 -> 315 [penwidth=2]
    372 -> 298 [penwidth=2]
    372 -> 257 [penwidth=2]
    372 -> 243 [penwidth=2]
    372 -> 300 [penwidth=2]
    372 -> 149 [penwidth=2]
    372 -> 225 [penwidth=2]
    372 -> 201 [penwidth=2]
    372 -> 285 [penwidth=2]
    372 -> 299 [penwidth=2]
    372 -> 265 [penwidth=2]
    372 -> 197 [penwidth=2]
    372 -> 205 [penwidth=2]
    372 -> 284 [penwidth=2]
    372 -> 252 [penwidth=2]
    372 -> 313 [penwidth=2]
    372 -> 207 [penwidth=2]
    372 -> 303 [penwidth=2]
    372 -> 294 [penwidth=2]
    372 -> 238 [penwidth=2]
    372 -> 287 [penwidth=2]
    372 -> 237 [penwidth=2]
    390 -> 261 [penwidth=2]
    390 -> 213 [penwidth=2]
    390 -> 285 [penwidth=2]
    390 -> 219 [penwidth=2]
    390 -> 316 [penwidth=2]
    390 -> 264 [penwidth=2]
    390 -> 263 [penwidth=2]
    390 -> 306 [penwidth=2]
    391 -> 242 [penwidth=2]
    391 -> 209 [penwidth=2]
    391 -> 313 [penwidth=2]
    391 -> 220 [penwidth=2]
    391 -> 193 [penwidth=2]
    391 -> 291 [penwidth=2]
    391 -> 202 [penwidth=2]
    391 -> 312 [penwidth=2]
    391 -> 273 [penwidth=2]
    391 -> 222 [penwidth=2]
    391 -> 270 [penwidth=2]
    391 -> 256 [penwidth=2]
    391 -> 284 [penwidth=2]
    391 -> 211 [penwidth=2]
    391 -> 287 [penwidth=2]
    391 -> 279 [penwidth=2]
    391 -> 246 [penwidth=2]
    391 -> 316 [penwidth=2]
    391 -> 308 [penwidth=2]
    391 -> 225 [penwidth=2]
    391 -> 299 [penwidth=2]
    391 -> 203 [penwidth=2]
    391 -> 191 [penwidth=2]
    391 -> 150 [penwidth=2]
    391 -> 282 [penwidth=2]
    391 -> 198 [penwidth=2]
    391 -> 297 [penwidth=2]
    391 -> 238 [penwidth=2]
    391 -> 213 [penwidth=2]
    391 -> 254 [penwidth=2]
    391 -> 239 [penwidth=2]
    391 -> 219 [penwidth=2]
    391 -> 258 [penwidth=2]
    391 -> 251 [penwidth=2]
    391 -> 244 [penwidth=2]
    391 -> 194 [penwidth=2]
    391 -> 212 [penwidth=2]
    391 -> 300 [penwidth=2]
    391 -> 200 [penwidth=2]
    391 -> 109 [penwidth=2]
    391 -> 304 [penwidth=2]
    391 -> 289 [penwidth=2]
    391 -> 261 [penwidth=2]
    391 -> 250 [penwidth=2]
    391 -> 227 [penwidth=2]
    391 -> 259 [penwidth=2]
    391 -> 283 [penwidth=2]
    391 -> 305 [penwidth=2]
    391 -> 247 [penwidth=2]
    391 -> 107 [penwidth=2]
    391 -> 292 [penwidth=2]
    391 -> 311 [penwidth=2]
    391 -> 266 [penwidth=2]
    393 -> 297 [penwidth=2]
    393 -> 205 [penwidth=2]
    49 -> 150 [penwidth=2]
    49 -> 218 [penwidth=2]
    54 -> 289 [penwidth=2]
    54 -> 192 [penwidth=2]
    54 -> 248 [penwidth=2]
    54 -> 242 [penwidth=2]
    54 -> 197 [penwidth=2]
    54 -> 252 [penwidth=2]
    54 -> 254 [penwidth=2]
    54 -> 298 [penwidth=2]
    54 -> 251 [penwidth=2]
    54 -> 226 [penwidth=2]
    54 -> 301 [penwidth=2]
    54 -> 199 [penwidth=2]
    54 -> 286 [penwidth=2]
    54 -> 270 [penwidth=2]
    356 -> 292 [penwidth=2]
    356 -> 316 [penwidth=2]
    356 -> 196 [penwidth=2]
    356 -> 262 [penwidth=2]
    356 -> 219 [penwidth=2]
    356 -> 107 [penwidth=2]
    356 -> 246 [penwidth=2]
    356 -> 291 [penwidth=2]
    356 -> 109 [penwidth=2]
    356 -> 245 [penwidth=2]
    356 -> 315 [penwidth=2]
    356 -> 220 [penwidth=2]
    356 -> 255 [penwidth=2]
    356 -> 307 [penwidth=2]
    356 -> 191 [penwidth=2]
    356 -> 271 [penwidth=2]
    356 -> 285 [penwidth=2]
    356 -> 298 [penwidth=2]
    356 -> 206 [penwidth=2]
    356 -> 288 [penwidth=2]
    356 -> 201 [penwidth=2]
    356 -> 279 [penwidth=2]
    356 -> 280 [penwidth=2]
    356 -> 293 [penwidth=2]
    356 -> 253 [penwidth=2]
    356 -> 225 [penwidth=2]
    356 -> 207 [penwidth=2]
    356 -> 230 [penwidth=2]
    356 -> 218 [penwidth=2]
    356 -> 199 [penwidth=2]
    356 -> 217 [penwidth=2]
    356 -> 210 [penwidth=2]
    356 -> 212 [penwidth=2]
    356 -> 286 [penwidth=2]
    356 -> 296 [penwidth=2]
    356 -> 108 [penwidth=2]
    356 -> 289 [penwidth=2]
    356 -> 287 [penwidth=2]
    356 -> 267 [penwidth=2]
    356 -> 259 [penwidth=2]
    356 -> 249 [penwidth=2]
    356 -> 241 [penwidth=2]
    356 -> 250 [penwidth=2]
    356 -> 261 [penwidth=2]
    356 -> 195 [penwidth=2]
    356 -> 211 [penwidth=2]
    356 -> 239 [penwidth=2]
    356 -> 297 [penwidth=2]
    356 -> 193 [penwidth=2]
}