digraph G {
    0 [penwidth=3,label="0"]
    1 [penwidth=3,label="1"]
    2 [penwidth=3,label="2"]
    3 [penwidth=3,label="3"]
    4 [penwidth=3,label="4"]
    5 [penwidth=3,label="5"]
    6 [penwidth=3,label="6"]
    7 [penwidth=3,label="7"]
    8 [penwidth=3,label="8"]
    9 [penwidth=3,label="9"]
    10 [penwidth=3,label="10"]
    11 [penwidth=3,label="11"]
    12 [penwidth=3,label="12"]
    13 [penwidth=3,label="13"]
    14 [penwidth=3,label="14"]
    15 [penwidth=3,label="15"]
    16 [penwidth=3,label="16"]
    17 [penwidth=3,label="17"]
    18 [penwidth=3,label="18"]
    19 [penwidth=3,label="19"]
    20 [penwidth=3,label="20"]
    21 [penwidth=3,label="21"]
    22 [penwidth=3,label="22"]
    23 [penwidth=3,label="23"]
    24 [penwidth=3,label="24"]
    25 [penwidth=3,label="25"]
    26 [penwidth=3,label="26"]
    27 [penwidth=3,label="27"]
    28 [penwidth=3,label="28"]
    29 [penwidth=3,label="29"]
    30 [penwidth=3,label="30"]
    31 [penwidth=3,label="31"]
    32 [penwidth=3,label="32"]
    33 [penwidth=3,label="33"]
    34 [penwidth=3,label="34"]
    35 [penwidth=3,label="35"]
    36 [penwidth=3,label="36"]
    37 [penwidth=3,label="37"]
    38 [penwidth=3,label="38"]
    39 [penwidth=3,label="39"]
    40 [penwidth=3,label="40"]
    41 [penwidth=3,label="41"]
    42 [penwidth=3,label="42"]
    43 [penwidth=3,label="43"]
    44 [penwidth=3,label="44"]
    45 [penwidth=3,label="45"]
    46 [penwidth=3,label="46"]
    47 [penwidth=3,label="47"]
    48 [penwidth=3,label="48"]
    49 [penwidth=3,label="49"]
    50 [penwidth=3,label="50"]
    51 [penwidth=3,label="51"]
    52 [penwidth=3,label="52"]
    53 [penwidth=3,label="53"]
    54 [penwidth=3,label="54"]
    55 [penwidth=3,label="55"]
    56 [penwidth=3,label="56"]
    57 [penwidth=3,label="57"]
    58 [penwidth=3,label="58"]
    59 [penwidth=3,label="59"]
    60 [penwidth=3,label="60"]
    61 [penwidth=3,label="61"]
    62 [penwidth=3,label="62"]
    63 [penwidth=3,label="63"]
    64 [penwidth=3,label="64"]
    65 [penwidth=3,label="65"]
    66 [penwidth=3,label="66"]
    67 [penwidth=3,label="67"]
    68 [penwidth=3,label="68"]
    69 [penwidth=3,label="69"]
    70 [penwidth=3,label="70"]
    71 [penwidth=3,label="71"]
    72 [penwidth=3,label="72"]
    73 [penwidth=3,label="73"]
    74 [penwidth=3,label="74"]
    75 [penwidth=3,label="75"]
    76 [penwidth=3,label="76"]
    77 [penwidth=3,label="77"]
    78 [penwidth=3,label="78"]
    79 [penwidth=3,label="79"]
    80 [penwidth=3,label="80"]
    81 [penwidth=3,label="81"]
    82 [penwidth=3,label="82"]
    83 [penwidth=3,label="83"]
    84 [penwidth=3,label="84"]
    85 [penwidth=3,label="85"]
    86 [penwidth=3,label="86"]
    87 [penwidth=3,label="87"]
    88 [penwidth=3,label="88"]
    89 [penwidth=3,label="89"]
    90 [penwidth=3,label="90"]
    91 [penwidth=3,label="91"]
    92 [penwidth=3,label="92"]
    93 [penwidth=3,label="93"]
    94 [penwidth=3,label="94"]
    95 [penwidth=3,label="95"]
    96 [penwidth=3,label="96"]
    97 [penwidth=3,label="97"]
    98 [penwidth=3,label="98"]
    99 [penwidth=3,label="99"]
    100 [penwidth=3,label="100"]
    101 [penwidth=3,label="101"]
    102 [penwidth=3,label="102"]
    103 [penwidth=3,label="103"]
    104 [penwidth=3,label="104"]
    105 [penwidth=3,label="105"]
    106 [penwidth=3,label="106"]
    107 [penwidth=3,label="107"]
    108 [penwidth=3,label="108"]
    109 [penwidth=3,label="109"]
    110 [penwidth=3,label="110"]
    111 [penwidth=3,label="111"]
    112 [penwidth=3,label="112"]
    113 [penwidth=3,label="113"]
    114 [penwidth=3,label="114"]
    115 [penwidth=3,label="115"]
    116 [penwidth=3,label="116"]
    117 [penwidth=3,label="117"]
    118 [penwidth=3,label="118"]
    119 [penwidth=3,label="119"]
    120 [penwidth=3,label="120"]
    121 [penwidth=3,label="121"]
    122 [penwidth=3,label="122"]
    123 [penwidth=3,label="123"]
    124 [penwidth=3,label="124"]
    125 [penwidth=3,label="125"]
    126 [penwidth=3,label="126"]
    127 [penwidth=3,label="127"]
    128 [penwidth=3,label="128"]
    129 [penwidth=3,label="129"]
    130 [penwidth=3,label="130"]
    131 [penwidth=3,label="131"]
    132 [penwidth=3,label="132"]
    133 [penwidth=3,label="133"]
    134 [penwidth=3,label="134"]
    135 [penwidth=3,label="135"]
    136 [penwidth=3,label="136"]
    137 [penwidth=3,label="137"]
    138 [penwidth=3,label="138"]
    139 [penwidth=3,label="139"]
    140 [penwidth=3,label="140"]
    141 [penwidth=3,label="141"]
    142 [penwidth=3,label="142"]
    143 [penwidth=3,label="143"]
    144 [penwidth=3,label="144"]
    145 [penwidth=3,label="145"]
    146 [penwidth=3,label="146"]
    147 [penwidth=3,label="147"]
    148 [penwidth=3,label="148"]
    149 [penwidth=3,label="149"]
    150 [penwidth=3,label="150"]
    151 [penwidth=3,label="151"]
    152 [penwidth=3,label="152"]
    153 [penwidth=3,label="153"]
    154 [penwidth=3,label="154"]
    155 [penwidth=3,label="155"]
    156 [penwidth=3,label="156"]
    157 [penwidth=3,label="157"]
    158 [penwidth=3,label="158"]
    159 [penwidth=3,label="159"]
    160 [penwidth=3,label="160"]
    161 [penwidth=3,label="161"]
    162 [penwidth=3,label="162"]
    163 [penwidth=3,label="163"]
    164 [penwidth=3,label="164"]
    165 [penwidth=3,label="165"]
    166 [penwidth=3,label="166"]
    167 [penwidth=3,label="167"]
    168 [penwidth=3,label="168"]
    169 [penwidth=3,label="169"]
    170 [penwidth=3,label="170"]
    171 [penwidth=3,label="171"]
    172 [penwidth=3,label="172"]
    173 [penwidth=3,label="173"]
    174 [penwidth=3,label="174"]
    175 [penwidth=3,label="175"]
    176 [penwidth=3,label="176"]
    177 [penwidth=3,label="177"]
    178 [penwidth=3,label="178"]
    179 [penwidth=3,label="179"]
    180 [penwidth=3,label="180"]
    181 [penwidth=3,label="181"]
    182 [penwidth=3,label="182"]
    183 [penwidth=3,label="183"]
    184 [penwidth=3,label="184"]
    185 [penwidth=3,label="185"]
    186 [penwidth=3,label="186"]
    187 [penwidth=3,label="187"]
    188 [penwidth=3,label="188"]
    189 [penwidth=3,label="189"]
    190 [penwidth=3,label="190"]
    191 [penwidth=3,label="191"]
    192 [penwidth=3,label="192"]
    193 [penwidth=3,label="193"]
    194 [penwidth=3,label="194"]
    195 [penwidth=3,label="195"]
    196 [penwidth=3,label="196"]
    197 [penwidth=3,label="197"]
    198 [penwidth=3,label="198"]
    199 [penwidth=3,label="199"]
    200 [penwidth=3,label="200"]
    201 [penwidth=3,label="201"]
    202 [penwidth=3,label="202"]
    203 [penwidth=3,label="203"]
    204 [penwidth=3,label="204"]
    205 [penwidth=3,label="205"]
    206 [penwidth=3,label="206"]
    207 [penwidth=3,label="207"]
    208 [penwidth=3,label="208"]
    209 [penwidth=3,label="209"]
    210 [penwidth=3,label="210"]
    211 [penwidth=3,label="211"]
    212 [penwidth=3,label="212"]
    213 [penwidth=3,label="213"]
    214 [penwidth=3,label="214"]
    215 [penwidth=3,label="215"]
    216 [penwidth=3,label="216"]
    217 [penwidth=3,label="217"]
    218 [penwidth=3,label="218"]
    219 [penwidth=3,label="219"]
    220 [penwidth=3,label="220"]
    221 [penwidth=3,label="221"]
    222 [penwidth=3,label="222"]
    223 [penwidth=3,label="223"]
    224 [penwidth=3,label="224"]
    225 [penwidth=3,label="225"]
    226 [penwidth=3,label="226"]
    227 [penwidth=3,label="227"]
    228 [penwidth=3,label="228"]
    229 [penwidth=3,label="229"]
    230 [penwidth=3,label="230"]
    231 [penwidth=3,label="231"]
    232 [penwidth=3,label="232"]
    233 [penwidth=3,label="233"]
    234 [penwidth=3,label="234"]
    235 [penwidth=3,label="235"]
    236 [penwidth=3,label="236"]
    237 [penwidth=3,label="237"]
    238 [penwidth=3,label="238"]
    239 [penwidth=3,label="239"]
    240 [penwidth=3,label="240"]
    241 [penwidth=3,label="241"]
    242 [penwidth=3,label="242"]
    243 [penwidth=3,label="243"]
    244 [penwidth=3,label="244"]
    245 [penwidth=3,label="245"]
    246 [penwidth=3,label="246"]
    247 [penwidth=3,label="247"]
    248 [penwidth=3,label="248"]
    249 [penwidth=3,label="249"]
    250 [penwidth=3,label="250"]
    251 [penwidth=3,label="251"]
    252 [penwidth=3,label="252"]
    253 [penwidth=3,label="253"]
    254 [penwidth=3,label="254"]
    255 [penwidth=3,label="255"]
    256 [penwidth=3,label="256"]
    257 [penwidth=3,label="257"]
    258 [penwidth=3,label="258"]
    259 [penwidth=3,label="259"]
    260 [penwidth=3,label="260"]
    261 [penwidth=3,label="261"]
    262 [penwidth=3,label="262"]
    263 [penwidth=3,label="263"]
    264 [penwidth=3,label="264"]
    265 [penwidth=3,label="265"]
    266 [penwidth=3,label="266"]
    267 [penwidth=3,label="267"]
    268 [penwidth=3,label="268"]
    269 [penwidth=3,label="269"]
    270 [penwidth=3,label="270"]
    271 [penwidth=3,label="271"]
    272 [penwidth=3,label="272"]
    273 [penwidth=3,label="273"]
    274 [penwidth=3,label="274"]
    275 [penwidth=3,label="275"]
    276 [penwidth=3,label="276"]
    277 [penwidth=3,label="277"]
    278 [penwidth=3,label="278"]
    279 [penwidth=3,label="279"]
    280 [penwidth=3,label="280"]
    281 [penwidth=3,label="281"]
    282 [penwidth=3,label="282"]
    283 [penwidth=3,label="283"]
    284 [penwidth=3,label="284"]
    285 [penwidth=3,label="285"]
    286 [penwidth=3,label="286"]
    287 [penwidth=3,label="287"]
    288 [penwidth=3,label="288"]
    289 [penwidth=3,label="289"]
    290 [penwidth=3,label="290"]
    291 [penwidth=3,label="291"]
    292 [penwidth=3,label="292"]
    293 [penwidth=3,label="293"]
    294 [penwidth=3,label="294"]
    295 [penwidth=3,label="295"]
    296 [penwidth=3,label="296"]
    297 [penwidth=3,label="297"]
    298 [penwidth=3,label="298"]
    299 [penwidth=3,label="299"]
    300 [penwidth=3,label="300"]
    301 [penwidth=3,label="301"]
    302 [penwidth=3,label="302"]
    303 [penwidth=3,label="303"]
    304 [penwidth=3,label="304"]
    305 [penwidth=3,label="305"]
    306 [penwidth=3,label="306"]
    307 [penwidth=3,label="307"]
    308 [penwidth=3,label="308"]
    309 [penwidth=3,label="309"]
    310 [penwidth=3,label="310"]
    311 [penwidth=3,label="311"]
    312 [penwidth=3,label="312"]
    313 [penwidth=3,label="313"]
    314 [penwidth=3,label="314"]
    315 [penwidth=3,label="315"]
    316 [penwidth=3,label="316"]
    317 [penwidth=3,label="317"]
    318 [penwidth=3,label="318"]
    319 [penwidth=3,label="319"]
    320 [penwidth=3,label="320"]
    321 [penwidth=3,label="321"]
    322 [penwidth=3,label="322"]
    323 [penwidth=3,label="323"]
    324 [penwidth=3,label="324"]
    325 [penwidth=3,label="325"]
    326 [penwidth=3,label="326"]
    327 [penwidth=3,label="327"]
    328 [penwidth=3,label="328"]
    329 [penwidth=3,label="329"]
    330 [penwidth=3,label="330"]
    331 [penwidth=3,label="331"]
    332 [penwidth=3,label="332"]
    333 [penwidth=3,label="333"]
    334 [penwidth=3,label="334"]
    335 [penwidth=3,label="335"]
    336 [penwidth=3,label="336"]
    337 [penwidth=3,label="337"]
    338 [penwidth=3,label="338"]
    339 [penwidth=3,label="339"]
    340 [penwidth=3,label="340"]
    341 [penwidth=3,label="341"]
    342 [penwidth=3,label="342"]
    343 [penwidth=3,label="343"]
    344 [penwidth=3,label="344"]
    345 [penwidth=3,label="345"]
    346 [penwidth=3,label="346"]
    347 [penwidth=3,label="347"]
    348 [penwidth=3,label="348"]
    349 [penwidth=3,label="349"]
    350 [penwidth=3,label="350"]
    351 [penwidth=3,label="351"]
    352 [penwidth=3,label="352"]
    353 [penwidth=3,label="353"]
    354 [penwidth=3,label="354"]
    355 [penwidth=3,label="355"]
    356 [penwidth=3,label="356"]
    357 [penwidth=3,label="357"]
    358 [penwidth=3,label="358"]
    359 [penwidth=3,label="359"]
    360 [penwidth=3,label="360"]
    361 [penwidth=3,label="361"]
    362 [penwidth=3,label="362"]
    363 [penwidth=3,label="363"]
    364 [penwidth=3,label="364"]
    365 [penwidth=3,label="365"]
    366 [penwidth=3,label="366"]
    367 [penwidth=3,label="367"]
    368 [penwidth=3,label="368"]
    369 [penwidth=3,label="369"]
    370 [penwidth=3,label="370"]
    371 [penwidth=3,label="371"]
    372 [penwidth=3,label="372"]
    373 [penwidth=3,label="373"]
    374 [penwidth=3,label="374"]
    375 [penwidth=3,label="375"]
    376 [penwidth=3,label="376"]
    377 [penwidth=3,label="377"]
    378 [penwidth=3,label="378"]
    379 [penwidth=3,label="379"]
    380 [penwidth=3,label="380"]
    381 [penwidth=3,label="381"]
    382 [penwidth=3,label="382"]
    383 [penwidth=3,label="383"]
    384 [penwidth=3,label="384"]
    385 [penwidth=3,label="385"]
    386 [penwidth=3,label="386"]
    387 [penwidth=3,label="387"]
    388 [penwidth=3,label="388"]
    389 [penwidth=3,label="389"]
    390 [penwidth=3,label="390"]
    391 [penwidth=3,label="391"]
    392 [penwidth=3,label="392"]
    393 [penwidth=3,label="393"]
    394 [penwidth=3,label="394"]
    395 [penwidth=3,label="395"]
    396 [penwidth=3,label="396"]
    397 [penwidth=3,label="397"]
    398 [penwidth=3,label="398"]
    399 [penwidth=3,label="399"]

    140 -> 0 [penwidth=2]
    141 -> 0 [penwidth=2]
    142 -> 0 [penwidth=2]
    143 -> 0 [penwidth=2]
    144 -> 0 [penwidth=2]
    145 -> 0 [penwidth=2]
    146 -> 140 [penwidth=2]
    147 -> 140 [penwidth=2]
    148 -> 140 [penwidth=2]
    149 -> 140 [penwidth=2]
    150 -> 140 [penwidth=2]
    151 -> 140 [penwidth=2]
    152 -> 140 [penwidth=2]
    153 -> 140 [penwidth=2]
    154 -> 140 [penwidth=2]
    155 -> 140 [penwidth=2]
    156 -> 140 [penwidth=2]
    157 -> 140 [penwidth=2]
    158 -> 140 [penwidth=2]
    159 -> 140 [penwidth=2]
    160 -> 140 [penwidth=2]
    161 -> 140 [penwidth=2]
    162 -> 140 [penwidth=2]
    163 -> 140 [penwidth=2]
    164 -> 141 [penwidth=2]
    165 -> 141 [penwidth=2]
    166 -> 141 [penwidth=2]
    167 -> 141 [penwidth=2]
    168 -> 141 [penwidth=2]
    169 -> 141 [penwidth=2]
    170 -> 141 [penwidth=2]
    171 -> 141 [penwidth=2]
    172 -> 141 [penwidth=2]
    173 -> 141 [penwidth=2]
    174 -> 141 [penwidth=2]
    175 -> 141 [penwidth=2]
    176 -> 142 [penwidth=2]
    177 -> 142 [penwidth=2]
    178 -> 142 [penwidth=2]
    179 -> 142 [penwidth=2]
    180 -> 142 [penwidth=2]
    181 -> 142 [penwidth=2]
    56 -> 142 [penwidth=2]
    98 -> 142 [penwidth=2]
    392 -> 142 [penwidth=2]
    57 -> 142 [penwidth=2]
    99 -> 142 [penwidth=2]
    393 -> 142 [penwidth=2]
    58 -> 142 [penwidth=2]
    100 -> 142 [penwidth=2]
    394 -> 142 [penwidth=2]
    59 -> 142 [penwidth=2]
    101 -> 142 [penwidth=2]
    395 -> 142 [penwidth=2]
    60 -> 142 [penwidth=2]
    102 -> 143 [penwidth=2]
    396 -> 143 [penwidth=2]
    61 -> 143 [penwidth=2]
    103 -> 143 [penwidth=2]
    397 -> 143 [penwidth=2]
    62 -> 143 [penwidth=2]
    104 -> 143 [penwidth=2]
    398 -> 143 [penwidth=2]
    63 -> 143 [penwidth=2]
    105 -> 143 [penwidth=2]
    399 -> 143 [penwidth=2]
    64 -> 143 [penwidth=2]
    106 -> 143 [penwidth=2]
    65 -> 143 [penwidth=2]
    107 -> 143 [penwidth=2]
    66 -> 143 [penwidth=2]
    108 -> 143 [penwidth=2]
    67 -> 143 [penwidth=2]
    109 -> 143 [penwidth=2]
    68 -> 143 [penwidth=2]
    110 -> 143 [penwidth=2]
    69 -> 143 [penwidth=2]
    111 -> 143 [penwidth=2]
    70 -> 143 [penwidth=2]
    112 -> 143 [penwidth=2]
    71 -> 144 [penwidth=2]
    113 -> 144 [penwidth=2]
    72 -> 144 [penwidth=2]
    114 -> 144 [penwidth=2]
    73 -> 144 [penwidth=2]
    115 -> 144 [penwidth=2]
    74 -> 144 [penwidth=2]
    116 -> 144 [penwidth=2]
    75 -> 144 [penwidth=2]
    117 -> 144 [penwidth=2]
    76 -> 144 [penwidth=2]
    118 -> 144 [penwidth=2]
    77 -> 144 [penwidth=2]
    119 -> 144 [penwidth=2]
    78 -> 144 [penwidth=2]
    120 -> 144 [penwidth=2]
    79 -> 145 [penwidth=2]
    121 -> 145 [penwidth=2]
    80 -> 145 [penwidth=2]
    122 -> 145 [penwidth=2]
    81 -> 145 [penwidth=2]
    123 -> 145 [penwidth=2]
    82 -> 145 [penwidth=2]
    124 -> 145 [penwidth=2]
    83 -> 145 [penwidth=2]
    125 -> 145 [penwidth=2]
    84 -> 145 [penwidth=2]
    126 -> 145 [penwidth=2]
    85 -> 145 [penwidth=2]
    127 -> 145 [penwidth=2]
    86 -> 145 [penwidth=2]
    128 -> 145 [penwidth=2]
    87 -> 145 [penwidth=2]
    129 -> 145 [penwidth=2]
    88 -> 145 [penwidth=2]
    130 -> 145 [penwidth=2]
    89 -> 145 [penwidth=2]
    131 -> 145 [penwidth=2]
    90 -> 145 [penwidth=2]
    132 -> 145 [penwidth=2]
    91 -> 145 [penwidth=2]
    133 -> 145 [penwidth=2]
    92 -> 145 [penwidth=2]
    134 -> 145 [penwidth=2]
    93 -> 146 [penwidth=2]
    135 -> 146 [penwidth=2]
    94 -> 146 [penwidth=2]
    136 -> 146 [penwidth=2]
    95 -> 146 [penwidth=2]
    137 -> 146 [penwidth=2]
    138 -> 146 [penwidth=2]
    96 -> 146 [penwidth=2]
    97 -> 146 [penwidth=2]
    139 -> 146 [penwidth=2]
    14 -> 146 [penwidth=2]
    308 -> 146 [penwidth=2]
    350 -> 146 [penwidth=2]
    15 -> 146 [penwidth=2]
    309 -> 146 [penwidth=2]
    351 -> 146 [penwidth=2]
    16 -> 146 [penwidth=2]
    310 -> 146 [penwidth=2]
    352 -> 146 [penwidth=2]
    17 -> 146 [penwidth=2]
    311 -> 146 [penwidth=2]
    353 -> 146 [penwidth=2]
    18 -> 146 [penwidth=2]
    312 -> 146 [penwidth=2]
    354 -> 146 [penwidth=2]
    19 -> 146 [penwidth=2]
    313 -> 146 [penwidth=2]
    355 -> 146 [penwidth=2]
    20 -> 146 [penwidth=2]
    314 -> 147 [penwidth=2]
    356 -> 147 [penwidth=2]
    21 -> 147 [penwidth=2]
    315 -> 147 [penwidth=2]
    357 -> 147 [penwidth=2]
    22 -> 147 [penwidth=2]
    316 -> 147 [penwidth=2]
    358 -> 147 [penwidth=2]
    23 -> 147 [penwidth=2]
    317 -> 147 [penwidth=2]
    359 -> 147 [penwidth=2]
    24 -> 147 [penwidth=2]
    318 -> 147 [penwidth=2]
    360 -> 147 [penwidth=2]
    25 -> 148 [penwidth=2]
    319 -> 148 [penwidth=2]
    361 -> 148 [penwidth=2]
    26 -> 148 [penwidth=2]
    320 -> 148 [penwidth=2]
    362 -> 148 [penwidth=2]
    27 -> 148 [penwidth=2]
    321 -> 148 [penwidth=2]
    363 -> 148 [penwidth=2]
    28 -> 148 [penwidth=2]
    322 -> 148 [penwidth=2]
    364 -> 148 [penwidth=2]
    29 -> 148 [penwidth=2]
    323 -> 148 [penwidth=2]
    365 -> 148 [penwidth=2]
    30 -> 148 [penwidth=2]
    324 -> 148 [penwidth=2]
    366 -> 149 [penwidth=2]
    31 -> 149 [penwidth=2]
    325 -> 150 [penwidth=2]
    367 -> 150 [penwidth=2]
    32 -> 150 [penwidth=2]
    326 -> 150 [penwidth=2]
    368 -> 150 [penwidth=2]
    33 -> 150 [penwidth=2]
    327 -> 150 [penwidth=2]
    369 -> 150 [penwidth=2]
    34 -> 150 [penwidth=2]
    328 -> 150 [penwidth=2]
    370 -> 150 [penwidth=2]
    35 -> 150 [penwidth=2]
    329 -> 150 [penwidth=2]
    371 -> 150 [penwidth=2]
    36 -> 151 [penwidth=2]
    330 -> 151 [penwidth=2]
    372 -> 151 [penwidth=2]
    37 -> 151 [penwidth=2]
    331 -> 151 [penwidth=2]
    373 -> 151 [penwidth=2]
    38 -> 151 [penwidth=2]
    332 -> 151 [penwidth=2]
    374 -> 151 [penwidth=2]
    39 -> 151 [penwidth=2]
    333 -> 151 [penwidth=2]
    375 -> 151 [penwidth=2]
    40 -> 151 [penwidth=2]
    334 -> 151 [penwidth=2]
    376 -> 151 [penwidth=2]
    41 -> 151 [penwidth=2]
    335 -> 151 [penwidth=2]
    377 -> 151 [penwidth=2]
    42 -> 151 [penwidth=2]
    336 -> 152 [penwidth=2]
    378 -> 152 [penwidth=2]
    43 -> 152 [penwidth=2]
    337 -> 152 [penwidth=2]
    379 -> 152 [penwidth=2]
    44 -> 152 [penwidth=2]
    338 -> 152 [penwidth=2]
    380 -> 152 [penwidth=2]
    45 -> 152 [penwidth=2]
    339 -> 152 [penwidth=2]
    381 -> 152 [penwidth=2]
    46 -> 152 [penwidth=2]
    340 -> 152 [penwidth=2]
    382 -> 152 [penwidth=2]
    47 -> 153 [penwidth=2]
    341 -> 153 [penwidth=2]
    383 -> 153 [penwidth=2]
    48 -> 153 [penwidth=2]
    342 -> 153 [penwidth=2]
    384 -> 153 [penwidth=2]
    49 -> 154 [penwidth=2]
    343 -> 154 [penwidth=2]
    385 -> 155 [penwidth=2]
    50 -> 155 [penwidth=2]
    344 -> 155 [penwidth=2]
    386 -> 155 [penwidth=2]
    51 -> 155 [penwidth=2]
    345 -> 155 [penwidth=2]
    387 -> 155 [penwidth=2]
    52 -> 155 [penwidth=2]
    346 -> 155 [penwidth=2]
    388 -> 155 [penwidth=2]
    53 -> 155 [penwidth=2]
    347 -> 155 [penwidth=2]
    389 -> 155 [penwidth=2]
    54 -> 155 [penwidth=2]
    348 -> 155 [penwidth=2]
    390 -> 155 [penwidth=2]
    55 -> 155 [penwidth=2]
    349 -> 155 [penwidth=2]
    391 -> 156 [penwidth=2]
    266 -> 156 [penwidth=2]
    267 -> 156 [penwidth=2]
    268 -> 156 [penwidth=2]
    269 -> 156 [penwidth=2]
    270 -> 156 [penwidth=2]
    271 -> 156 [penwidth=2]
    272 -> 156 [penwidth=2]
    273 -> 156 [penwidth=2]
    274 -> 156 [penwidth=2]
    275 -> 156 [penwidth=2]
    276 -> 156 [penwidth=2]
    277 -> 156 [penwidth=2]
    278 -> 156 [penwidth=2]
    279 -> 156 [penwidth=2]
    280 -> 156 [penwidth=2]
    281 -> 156 [penwidth=2]
    282 -> 156 [penwidth=2]
    283 -> 156 [penwidth=2]
    284 -> 156 [penwidth=2]
    285 -> 156 [penwidth=2]
    286 -> 156 [penwidth=2]
    287 -> 156 [penwidth=2]
    288 -> 156 [penwidth=2]
    289 -> 156 [penwidth=2]
    290 -> 156 [penwidth=2]
    291 -> 156 [penwidth=2]
    292 -> 157 [penwidth=2]
    293 -> 157 [penwidth=2]
    294 -> 157 [penwidth=2]
    1 -> 157 [penwidth=2]
    295 -> 157 [penwidth=2]
    2 -> 158 [penwidth=2]
    296 -> 158 [penwidth=2]
    3 -> 158 [penwidth=2]
    297 -> 158 [penwidth=2]
    4 -> 158 [penwidth=2]
    298 -> 158 [penwidth=2]
    5 -> 158 [penwidth=2]
    299 -> 158 [penwidth=2]
    6 -> 158 [penwidth=2]
    300 -> 159 [penwidth=2]
    7 -> 159 [penwidth=2]
    301 -> 159 [penwidth=2]
    8 -> 159 [penwidth=2]
    302 -> 159 [penwidth=2]
    9 -> 159 [penwidth=2]
    303 -> 159 [penwidth=2]
    10 -> 159 [penwidth=2]
    304 -> 159 [penwidth=2]
    11 -> 159 [penwidth=2]
    305 -> 159 [penwidth=2]
    306 -> 159 [penwidth=2]
    12 -> 159 [penwidth=2]
    307 -> 159 [penwidth=2]
    13 -> 159 [penwidth=2]
    264 -> 159 [penwidth=2]
    265 -> 159 [penwidth=2]
    182 -> 160 [penwidth=2]
    224 -> 160 [penwidth=2]
    183 -> 160 [penwidth=2]
    225 -> 160 [penwidth=2]
    184 -> 160 [penwidth=2]
    226 -> 160 [penwidth=2]
    185 -> 160 [penwidth=2]
    227 -> 160 [penwidth=2]
    186 -> 160 [penwidth=2]
    228 -> 160 [penwidth=2]
    187 -> 160 [penwidth=2]
    229 -> 160 [penwidth=2]
    188 -> 160 [penwidth=2]
    230 -> 160 [penwidth=2]
    189 -> 160 [penwidth=2]
    231 -> 160 [penwidth=2]
    190 -> 160 [penwidth=2]
    232 -> 160 [penwidth=2]
    191 -> 160 [penwidth=2]
    233 -> 160 [penwidth=2]
    192 -> 160 [penwidth=2]
    234 -> 160 [penwidth=2]
    193 -> 161 [penwidth=2]
    235 -> 161 [penwidth=2]
    194 -> 161 [penwidth=2]
    236 -> 161 [penwidth=2]
    195 -> 162 [penwidth=2]
    237 -> 162 [penwidth=2]
    196 -> 162 [penwidth=2]
    238 -> 162 [penwidth=2]
    197 -> 162 [penwidth=2]
    239 -> 162 [penwidth=2]
    198 -> 162 [penwidth=2]
    240 -> 162 [penwidth=2]
    199 -> 162 [penwidth=2]
    241 -> 162 [penwidth=2]
    200 -> 162 [penwidth=2]
    242 -> 162 [penwidth=2]
    201 -> 162 [penwidth=2]
    243 -> 162 [penwidth=2]
    202 -> 162 [penwidth=2]
    244 -> 162 [penwidth=2]
    203 -> 162 [penwidth=2]
    245 -> 162 [penwidth=2]
    204 -> 162 [penwidth=2]
    246 -> 162 [penwidth=2]
    205 -> 162 [penwidth=2]
    247 -> 162 [penwidth=2]
    206 -> 162 [penwidth=2]
    248 -> 162 [penwidth=2]
    207 -> 163 [penwidth=2]
    249 -> 163 [penwidth=2]
    208 -> 163 [penwidth=2]
    250 -> 163 [penwidth=2]
    209 -> 163 [penwidth=2]
    251 -> 163 [penwidth=2]
    210 -> 163 [penwidth=2]
    252 -> 163 [penwidth=2]
    211 -> 163 [penwidth=2]
    253 -> 163 [penwidth=2]
    212 -> 163 [penwidth=2]
    254 -> 163 [penwidth=2]
    213 -> 163 [penwidth=2]
    255 -> 163 [penwidth=2]
    214 -> 163 [penwidth=2]
    256 -> 163 [penwidth=2]
    215 -> 163 [penwidth=2]
    257 -> 163 [penwidth=2]
    216 -> 163 [penwidth=2]
    258 -> 163 [penwidth=2]
    217 -> 163 [penwidth=2]
    259 -> 164 [penwidth=2]
    218 -> 164 [penwidth=2]
    260 -> 164 [penwidth=2]
    219 -> 164 [penwidth=2]
    261 -> 164 [penwidth=2]
    220 -> 164 [penwidth=2]
    262 -> 164 [penwidth=2]
    221 -> 164 [penwidth=2]
    263 -> 164 [penwidth=2]
    222 -> 164 [penwidth=2]
    223 -> 164 [penwidth=2]
    156 -> 145 [penwidth=2]
    156 -> 141 [penwidth=2]
    156 -> 143 [penwidth=2]
    156 -> 144 [penwidth=2]
    172 -> 143 [penwidth=2]
    174 -> 143 [penwidth=2]
    174 -> 144 [penwidth=2]
    174 -> 145 [penwidth=2]
    175 -> 143 [penwidth=2]
    175 -> 140 [penwidth=2]
    175 -> 145 [penwidth=2]
    99 -> 141 [penwidth=2]
    394 -> 145 [penwidth=2]
    394 -> 144 [penwidth=2]
    394 -> 141 [penwidth=2]
    101 -> 140 [penwidth=2]
    60 -> 144 [penwidth=2]
    105 -> 144 [penwidth=2]
    105 -> 142 [penwidth=2]
    109 -> 140 [penwidth=2]
    109 -> 142 [penwidth=2]
    109 -> 144 [penwidth=2]
    109 -> 141 [penwidth=2]
    80 -> 144 [penwidth=2]
    85 -> 140 [penwidth=2]
    85 -> 141 [penwidth=2]
    87 -> 144 [penwidth=2]
    87 -> 143 [penwidth=2]
    87 -> 142 [penwidth=2]
    87 -> 140 [penwidth=2]
    129 -> 142 [penwidth=2]
    129 -> 141 [penwidth=2]
    129 -> 140 [penwidth=2]
    129 -> 143 [penwidth=2]
    131 -> 142 [penwidth=2]
    131 -> 140 [penwidth=2]
    131 -> 143 [penwidth=2]
    131 -> 144 [penwidth=2]
    97 -> 170 [penwidth=2]
    97 -> 109 [penwidth=2]
    97 -> 67 [penwidth=2]
    97 -> 59 [penwidth=2]
    97 -> 393 [penwidth=2]
    97 -> 179 [penwidth=2]
    97 -> 57 [penwidth=2]
    97 -> 108 [penwidth=2]
    97 -> 88 [penwidth=2]
    97 -> 397 [penwidth=2]
    97 -> 399 [penwidth=2]
    97 -> 86 [penwidth=2]
    97 -> 76 [penwidth=2]
    97 -> 77 [penwidth=2]
    97 -> 92 [penwidth=2]
    97 -> 172 [penwidth=2]
    97 -> 98 [penwidth=2]
    97 -> 107 [penwidth=2]
    97 -> 66 [penwidth=2]
    97 -> 167 [penwidth=2]
    97 -> 180 [penwidth=2]
    97 -> 131 [penwidth=2]
    97 -> 110 [penwidth=2]
    97 -> 56 [penwidth=2]
    97 -> 168 [penwidth=2]
    97 -> 89 [penwidth=2]
    97 -> 394 [penwidth=2]
    97 -> 160 [penwidth=2]
    97 -> 153 [penwidth=2]
    97 -> 101 [penwidth=2]
    97 -> 126 [penwidth=2]
    97 -> 155 [penwidth=2]
    97 -> 132 [penwidth=2]
    97 -> 78 [penwidth=2]
    97 -> 392 [penwidth=2]
    97 -> 99 [penwidth=2]
    97 -> 100 [penwidth=2]
    97 -> 123 [penwidth=2]
    97 -> 69 [penwidth=2]
    97 -> 122 [penwidth=2]
    97 -> 151 [penwidth=2]
    97 -> 63 [penwidth=2]
    97 -> 181 [penwidth=2]
    97 -> 398 [penwidth=2]
    97 -> 163 [penwidth=2]
    97 -> 130 [penwidth=2]
    97 -> 158 [penwidth=2]
    97 -> 64 [penwidth=2]
    97 -> 133 [penwidth=2]
    97 -> 82 [penwidth=2]
    97 -> 112 [penwidth=2]
    97 -> 79 [penwidth=2]
    97 -> 111 [penwidth=2]
    97 -> 148 [penwidth=2]
    97 -> 103 [penwidth=2]
    97 -> 91 [penwidth=2]
    97 -> 128 [penwidth=2]
    97 -> 81 [penwidth=2]
    97 -> 157 [penwidth=2]
    97 -> 164 [penwidth=2]
    97 -> 147 [penwidth=2]
    97 -> 83 [penwidth=2]
    97 -> 152 [penwidth=2]
    97 -> 159 [penwidth=2]
    97 -> 162 [penwidth=2]
    97 -> 61 [penwidth=2]
    97 -> 80 [penwidth=2]
    97 -> 68 [penwidth=2]
    97 -> 134 [penwidth=2]
    97 -> 87 [penwidth=2]
    97 -> 114 [penwidth=2]
    97 -> 58 [penwidth=2]
    97 -> 125 [penwidth=2]
    97 -> 395 [penwidth=2]
    311 -> 171 [penwidth=2]
    311 -> 166 [penwidth=2]
    311 -> 120 [penwidth=2]
    311 -> 63 [penwidth=2]
    311 -> 147 [penwidth=2]
    311 -> 165 [penwidth=2]
    311 -> 152 [penwidth=2]
    311 -> 77 [penwidth=2]
    311 -> 73 [penwidth=2]
    311 -> 74 [penwidth=2]
    311 -> 126 [penwidth=2]
    311 -> 104 [penwidth=2]
    311 -> 99 [penwidth=2]
    311 -> 159 [penwidth=2]
    311 -> 66 [penwidth=2]
    311 -> 150 [penwidth=2]
    311 -> 117 [penwidth=2]
    311 -> 181 [penwidth=2]
    311 -> 103 [penwidth=2]
    311 -> 154 [penwidth=2]
    311 -> 92 [penwidth=2]
    311 -> 163 [penwidth=2]
    311 -> 81 [penwidth=2]
    311 -> 107 [penwidth=2]
    311 -> 395 [penwidth=2]
    311 -> 64 [penwidth=2]
    311 -> 75 [penwidth=2]
    311 -> 112 [penwidth=2]
    311 -> 148 [penwidth=2]
    311 -> 101 [penwidth=2]
    311 -> 122 [penwidth=2]
    311 -> 397 [penwidth=2]
    311 -> 105 [penwidth=2]
    311 -> 131 [penwidth=2]
    311 -> 123 [penwidth=2]
    311 -> 155 [penwidth=2]
    311 -> 59 [penwidth=2]
    311 -> 102 [penwidth=2]
    311 -> 180 [penwidth=2]
    311 -> 114 [penwidth=2]
    311 -> 70 [penwidth=2]
    311 -> 83 [penwidth=2]
    311 -> 128 [penwidth=2]
    311 -> 127 [penwidth=2]
    311 -> 167 [penwidth=2]
    311 -> 173 [penwidth=2]
    311 -> 177 [penwidth=2]
    311 -> 67 [penwidth=2]
    311 -> 398 [penwidth=2]
    311 -> 156 [penwidth=2]
    311 -> 175 [penwidth=2]
    18 -> 66 [penwidth=2]
    18 -> 396 [penwidth=2]
    18 -> 85 [penwidth=2]
    18 -> 114 [penwidth=2]
    18 -> 158 [penwidth=2]
    18 -> 176 [penwidth=2]
    18 -> 119 [penwidth=2]
    18 -> 170 [penwidth=2]
    18 -> 131 [penwidth=2]
    18 -> 121 [penwidth=2]
    18 -> 173 [penwidth=2]
    18 -> 160 [penwidth=2]
    18 -> 62 [penwidth=2]
    18 -> 174 [penwidth=2]
    355 -> 92 [penwidth=2]
    355 -> 170 [penwidth=2]
    20 -> 132 [penwidth=2]
    20 -> 118 [penwidth=2]
    20 -> 67 [penwidth=2]
    20 -> 80 [penwidth=2]
    20 -> 91 [penwidth=2]
    20 -> 57 [penwidth=2]
    20 -> 111 [penwidth=2]
    20 -> 121 [penwidth=2]
    20 -> 129 [penwidth=2]
    20 -> 134 [penwidth=2]
    20 -> 102 [penwidth=2]
    21 -> 154 [penwidth=2]
    21 -> 108 [penwidth=2]
    21 -> 178 [penwidth=2]
    21 -> 165 [penwidth=2]
    21 -> 87 [penwidth=2]
    21 -> 60 [penwidth=2]
    21 -> 176 [penwidth=2]
    21 -> 399 [penwidth=2]
    21 -> 88 [penwidth=2]
    21 -> 98 [penwidth=2]
    21 -> 110 [penwidth=2]
    21 -> 119 [penwidth=2]
    21 -> 133 [penwidth=2]
    21 -> 172 [penwidth=2]
    21 -> 153 [penwidth=2]
    21 -> 111 [penwidth=2]
    21 -> 173 [penwidth=2]
    21 -> 157 [penwidth=2]
    21 -> 74 [penwidth=2]
    21 -> 121 [penwidth=2]
    21 -> 112 [penwidth=2]
    21 -> 116 [penwidth=2]
    21 -> 123 [penwidth=2]
    21 -> 159 [penwidth=2]
    21 -> 174 [penwidth=2]
    21 -> 160 [penwidth=2]
    21 -> 73 [penwidth=2]
    21 -> 61 [penwidth=2]
    21 -> 105 [penwidth=2]
    21 -> 102 [penwidth=2]
    21 -> 128 [penwidth=2]
    21 -> 75 [penwidth=2]
    21 -> 161 [penwidth=2]
    318 -> 167 [penwidth=2]
    360 -> 158 [penwidth=2]
    360 -> 163 [penwidth=2]
    360 -> 102 [penwidth=2]
    360 -> 100 [penwidth=2]
    360 -> 149 [penwidth=2]
    360 -> 152 [penwidth=2]
    360 -> 397 [penwidth=2]
    360 -> 130 [penwidth=2]
    360 -> 84 [penwidth=2]
    360 -> 86 [penwidth=2]
    360 -> 91 [penwidth=2]
    360 -> 167 [penwidth=2]
    360 -> 67 [penwidth=2]
    360 -> 126 [penwidth=2]
    360 -> 104 [penwidth=2]
    360 -> 72 [penwidth=2]
    360 -> 120 [penwidth=2]
    360 -> 105 [penwidth=2]
    360 -> 178 [penwidth=2]
    360 -> 157 [penwidth=2]
    360 -> 124 [penwidth=2]
    360 -> 56 [penwidth=2]
    360 -> 101 [penwidth=2]
    360 -> 60 [penwidth=2]
    360 -> 177 [penwidth=2]
    360 -> 159 [penwidth=2]
    360 -> 155 [penwidth=2]
    360 -> 174 [penwidth=2]
    360 -> 166 [penwidth=2]
    360 -> 179 [penwidth=2]
    360 -> 73 [penwidth=2]
    360 -> 77 [penwidth=2]
    360 -> 87 [penwidth=2]
    360 -> 89 [penwidth=2]
    360 -> 154 [penwidth=2]
    360 -> 107 [penwidth=2]
    360 -> 399 [penwidth=2]
    360 -> 148 [penwidth=2]
    360 -> 61 [penwidth=2]
    360 -> 118 [penwidth=2]
    360 -> 112 [penwidth=2]
    360 -> 92 [penwidth=2]
    323 -> 172 [penwidth=2]
    323 -> 181 [penwidth=2]
    323 -> 168 [penwidth=2]
    323 -> 74 [penwidth=2]
    323 -> 392 [penwidth=2]
    323 -> 109 [penwidth=2]
    323 -> 114 [penwidth=2]
    323 -> 171 [penwidth=2]
    323 -> 80 [penwidth=2]
    323 -> 85 [penwidth=2]
    323 -> 112 [penwidth=2]
    323 -> 174 [penwidth=2]
    323 -> 152 [penwidth=2]
    323 -> 131 [penwidth=2]
    323 -> 76 [penwidth=2]
    323 -> 90 [penwidth=2]
    323 -> 58 [penwidth=2]
    323 -> 126 [penwidth=2]
    323 -> 128 [penwidth=2]
    323 -> 159 [penwidth=2]
    323 -> 149 [penwidth=2]
    323 -> 87 [penwidth=2]
    323 -> 395 [penwidth=2]
    323 -> 111 [penwidth=2]
    323 -> 399 [penwidth=2]
    323 -> 397 [penwidth=2]
    323 -> 71 [penwidth=2]
    323 -> 75 [penwidth=2]
    323 -> 79 [penwidth=2]
    323 -> 146 [penwidth=2]
    323 -> 160 [penwidth=2]
    323 -> 62 [penwidth=2]
    323 -> 78 [penwidth=2]
    323 -> 60 [penwidth=2]
    323 -> 158 [penwidth=2]
    33 -> 149 [penwidth=2]
    33 -> 85 [penwidth=2]
    33 -> 133 [penwidth=2]
    33 -> 66 [penwidth=2]
    33 -> 109 [penwidth=2]
    33 -> 72 [penwidth=2]
    33 -> 115 [penwidth=2]
    33 -> 398 [penwidth=2]
    33 -> 172 [penwidth=2]
    33 -> 117 [penwidth=2]
    33 -> 160 [penwidth=2]
    33 -> 65 [penwidth=2]
    33 -> 99 [penwidth=2]
    33 -> 169 [penwidth=2]
    33 -> 79 [penwidth=2]
    33 -> 63 [penwidth=2]
    33 -> 177 [penwidth=2]
    33 -> 176 [penwidth=2]
    33 -> 68 [penwidth=2]
    33 -> 178 [penwidth=2]
    33 -> 168 [penwidth=2]
    33 -> 162 [penwidth=2]
    33 -> 148 [penwidth=2]
    33 -> 399 [penwidth=2]
    33 -> 157 [penwidth=2]
    33 -> 153 [penwidth=2]
    33 -> 98 [penwidth=2]
    33 -> 118 [penwidth=2]
    33 -> 67 [penwidth=2]
    33 -> 110 [penwidth=2]
    33 -> 120 [penwidth=2]
    33 -> 152 [penwidth=2]
    33 -> 397 [penwidth=2]
    33 -> 127 [penwidth=2]
    33 -> 166 [penwidth=2]
    33 -> 102 [penwidth=2]
    33 -> 154 [penwidth=2]
    33 -> 114 [penwidth=2]
    33 -> 155 [penwidth=2]
    33 -> 108 [penwidth=2]
    33 -> 100 [penwidth=2]
    33 -> 123 [penwidth=2]
    33 -> 163 [penwidth=2]
    33 -> 122 [penwidth=2]
    33 -> 69 [penwidth=2]
    33 -> 131 [penwidth=2]
    33 -> 181 [penwidth=2]
    33 -> 86 [penwidth=2]
    33 -> 170 [penwidth=2]
    33 -> 77 [penwidth=2]
    33 -> 104 [penwidth=2]
    33 -> 64 [penwidth=2]
    33 -> 113 [penwidth=2]
    33 -> 90 [penwidth=2]
    33 -> 58 [penwidth=2]
    33 -> 107 [penwidth=2]
    33 -> 116 [penwidth=2]
    33 -> 87 [penwidth=2]
    33 -> 393 [penwidth=2]
    33 -> 105 [penwidth=2]
    33 -> 125 [penwidth=2]
    33 -> 396 [penwidth=2]
    33 -> 84 [penwidth=2]
    33 -> 56 [penwidth=2]
    33 -> 179 [penwidth=2]
    33 -> 60 [penwidth=2]
    33 -> 156 [penwidth=2]
    33 -> 121 [penwidth=2]
    33 -> 57 [penwidth=2]
    33 -> 171 [penwidth=2]
    33 -> 76 [penwidth=2]
    33 -> 132 [penwidth=2]
    33 -> 59 [penwidth=2]
    33 -> 158 [penwidth=2]
    33 -> 91 [penwidth=2]
    33 -> 112 [penwidth=2]
    33 -> 103 [penwidth=2]
    35 -> 398 [penwidth=2]
    35 -> 164 [penwidth=2]
    35 -> 160 [penwidth=2]
    35 -> 113 [penwidth=2]
    35 -> 87 [penwidth=2]
    35 -> 393 [penwidth=2]
    35 -> 132 [penwidth=2]
    35 -> 161 [penwidth=2]
    35 -> 57 [penwidth=2]
    35 -> 146 [penwidth=2]
    35 -> 90 [penwidth=2]
    35 -> 179 [penwidth=2]
    35 -> 64 [penwidth=2]
    35 -> 157 [penwidth=2]
    35 -> 394 [penwidth=2]
    35 -> 106 [penwidth=2]
    35 -> 117 [penwidth=2]
    35 -> 107 [penwidth=2]
    35 -> 56 [penwidth=2]
    35 -> 123 [penwidth=2]
    35 -> 153 [penwidth=2]
    35 -> 76 [penwidth=2]
    35 -> 83 [penwidth=2]
    35 -> 66 [penwidth=2]
    35 -> 69 [penwidth=2]
    35 -> 154 [penwidth=2]
    35 -> 67 [penwidth=2]
    35 -> 181 [penwidth=2]
    35 -> 121 [penwidth=2]
    35 -> 122 [penwidth=2]
    35 -> 74 [penwidth=2]
    35 -> 163 [penwidth=2]
    35 -> 108 [penwidth=2]
    35 -> 104 [penwidth=2]
    35 -> 127 [penwidth=2]
    35 -> 173 [penwidth=2]
    35 -> 176 [penwidth=2]
    35 -> 109 [penwidth=2]
    35 -> 59 [penwidth=2]
    35 -> 156 [penwidth=2]
    35 -> 105 [penwidth=2]
    35 -> 80 [penwidth=2]
    35 -> 177 [penwidth=2]
    35 -> 148 [penwidth=2]
    35 -> 167 [penwidth=2]
    35 -> 158 [penwidth=2]
    35 -> 130 [penwidth=2]
    35 -> 172 [penwidth=2]
    35 -> 103 [penwidth=2]
    35 -> 178 [penwidth=2]
    35 -> 115 [penwidth=2]
    35 -> 392 [penwidth=2]
    35 -> 91 [penwidth=2]
    35 -> 125 [penwidth=2]
    35 -> 85 [penwidth=2]
    35 -> 162 [penwidth=2]
    35 -> 131 [penwidth=2]
    35 -> 88 [penwidth=2]
    35 -> 129 [penwidth=2]
    35 -> 395 [penwidth=2]
    35 -> 102 [penwidth=2]
    35 -> 78 [penwidth=2]
    35 -> 399 [penwidth=2]
    35 -> 84 [penwidth=2]
    35 -> 155 [penwidth=2]
    35 -> 118 [penwidth=2]
    35 -> 159 [penwidth=2]
    35 -> 151 [penwidth=2]
    35 -> 68 [penwidth=2]
    35 -> 92 [penwidth=2]
    35 -> 82 [penwidth=2]
    35 -> 396 [penwidth=2]
    35 -> 124 [penwidth=2]
    35 -> 100 [penwidth=2]
    35 -> 134 [penwidth=2]
    35 -> 126 [penwidth=2]
    35 -> 86 [penwidth=2]
    35 -> 65 [penwidth=2]
    35 -> 114 [penwidth=2]
    35 -> 171 [penwidth=2]
    35 -> 73 [penwidth=2]
    35 -> 175 [penwidth=2]
    35 -> 79 [penwidth=2]
    35 -> 70 [penwidth=2]
    329 -> 134 [penwidth=2]
    329 -> 57 [penwidth=2]
    329 -> 122 [penwidth=2]
    329 -> 71 [penwidth=2]
    329 -> 393 [penwidth=2]
    329 -> 104 [penwidth=2]
    329 -> 120 [penwidth=2]
    329 -> 81 [penwidth=2]
    329 -> 394 [penwidth=2]
    329 -> 58 [penwidth=2]
    329 -> 108 [penwidth=2]
    329 -> 62 [penwidth=2]
    329 -> 87 [penwidth=2]
    329 -> 74 [penwidth=2]
    329 -> 162 [penwidth=2]
    329 -> 63 [penwidth=2]
    329 -> 109 [penwidth=2]
    329 -> 107 [penwidth=2]
    329 -> 170 [penwidth=2]
    329 -> 119 [penwidth=2]
    329 -> 155 [penwidth=2]
    329 -> 158 [penwidth=2]
    329 -> 118 [penwidth=2]
    329 -> 151 [penwidth=2]
    329 -> 102 [penwidth=2]
    329 -> 116 [penwidth=2]
    329 -> 68 [penwidth=2]
    329 -> 179 [penwidth=2]
    329 -> 111 [penwidth=2]
    329 -> 130 [penwidth=2]
    329 -> 392 [penwidth=2]
    329 -> 396 [penwidth=2]
    329 -> 128 [penwidth=2]
    329 -> 113 [penwidth=2]
    329 -> 161 [penwidth=2]
    329 -> 112 [penwidth=2]
    329 -> 171 [penwidth=2]
    329 -> 75 [penwidth=2]
    329 -> 152 [penwidth=2]
    329 -> 110 [penwidth=2]
    329 -> 98 [penwidth=2]
    329 -> 86 [penwidth=2]
    329 -> 181 [penwidth=2]
    329 -> 178 [penwidth=2]
    329 -> 73 [penwidth=2]
    329 -> 399 [penwidth=2]
    329 -> 160 [penwidth=2]
    329 -> 89 [penwidth=2]
    329 -> 83 [penwidth=2]
    329 -> 125 [penwidth=2]
    329 -> 115 [penwidth=2]
    329 -> 59 [penwidth=2]
    329 -> 72 [penwidth=2]
    329 -> 106 [penwidth=2]
    329 -> 165 [penwidth=2]
    329 -> 126 [penwidth=2]
    329 -> 177 [penwidth=2]
    329 -> 56 [penwidth=2]
    329 -> 132 [penwidth=2]
    329 -> 64 [penwidth=2]
    329 -> 398 [penwidth=2]
    329 -> 114 [penwidth=2]
    329 -> 60 [penwidth=2]
    329 -> 153 [penwidth=2]
    329 -> 117 [penwidth=2]
    329 -> 101 [penwidth=2]
    329 -> 146 [penwidth=2]
    39 -> 106 [penwidth=2]
    39 -> 104 [penwidth=2]
    39 -> 397 [penwidth=2]
    39 -> 101 [penwidth=2]
    39 -> 86 [penwidth=2]
    39 -> 85 [penwidth=2]
    39 -> 146 [penwidth=2]
    39 -> 132 [penwidth=2]
    39 -> 170 [penwidth=2]
    39 -> 150 [penwidth=2]
    39 -> 160 [penwidth=2]
    39 -> 79 [penwidth=2]
    39 -> 120 [penwidth=2]
    39 -> 92 [penwidth=2]
    39 -> 153 [penwidth=2]
    39 -> 119 [penwidth=2]
    39 -> 129 [penwidth=2]
    39 -> 62 [penwidth=2]
    39 -> 98 [penwidth=2]
    39 -> 159 [penwidth=2]
    39 -> 177 [penwidth=2]
    39 -> 112 [penwidth=2]
    39 -> 148 [penwidth=2]
    39 -> 57 [penwidth=2]
    39 -> 108 [penwidth=2]
    39 -> 84 [penwidth=2]
    39 -> 58 [penwidth=2]
    39 -> 173 [penwidth=2]
    39 -> 131 [penwidth=2]
    39 -> 152 [penwidth=2]
    39 -> 178 [penwidth=2]
    39 -> 155 [penwidth=2]
    39 -> 87 [penwidth=2]
    39 -> 154 [penwidth=2]
    39 -> 72 [penwidth=2]
    39 -> 165 [penwidth=2]
    39 -> 161 [penwidth=2]
    39 -> 110 [penwidth=2]
    39 -> 67 [penwidth=2]
    39 -> 75 [penwidth=2]
    39 -> 124 [penwidth=2]
    39 -> 394 [penwidth=2]
    39 -> 89 [penwidth=2]
    39 -> 116 [penwidth=2]
    39 -> 80 [penwidth=2]
    39 -> 81 [penwidth=2]
    39 -> 60 [penwidth=2]
    48 -> 398 [penwidth=2]
    48 -> 163 [penwidth=2]
    48 -> 179 [penwidth=2]
    48 -> 108 [penwidth=2]
    48 -> 395 [penwidth=2]
    48 -> 122 [penwidth=2]
    48 -> 113 [penwidth=2]
    48 -> 160 [penwidth=2]
    48 -> 399 [penwidth=2]
    48 -> 162 [penwidth=2]
    48 -> 62 [penwidth=2]
    48 -> 166 [penwidth=2]
    48 -> 397 [penwidth=2]
    48 -> 149 [penwidth=2]
    48 -> 91 [penwidth=2]
    48 -> 164 [penwidth=2]
    48 -> 394 [penwidth=2]
    48 -> 161 [penwidth=2]
    48 -> 99 [penwidth=2]
    48 -> 103 [penwidth=2]
    48 -> 82 [penwidth=2]
    48 -> 126 [penwidth=2]
    48 -> 127 [penwidth=2]
    48 -> 72 [penwidth=2]
    48 -> 110 [penwidth=2]
    48 -> 148 [penwidth=2]
    48 -> 112 [penwidth=2]
    48 -> 80 [penwidth=2]
    48 -> 98 [penwidth=2]
    48 -> 79 [penwidth=2]
    48 -> 393 [penwidth=2]
    48 -> 104 [penwidth=2]
    48 -> 61 [penwidth=2]
    48 -> 76 [penwidth=2]
    48 -> 150 [penwidth=2]
    48 -> 116 [penwidth=2]
    48 -> 120 [penwidth=2]
    48 -> 152 [penwidth=2]
    48 -> 172 [penwidth=2]
    48 -> 109 [penwidth=2]
    48 -> 396 [penwidth=2]
    48 -> 165 [penwidth=2]
    48 -> 159 [penwidth=2]
    48 -> 151 [penwidth=2]
    345 -> 91 [penwidth=2]
    345 -> 150 [penwidth=2]
    345 -> 131 [penwidth=2]
    345 -> 177 [penwidth=2]
    345 -> 80 [penwidth=2]
    345 -> 148 [penwidth=2]
    345 -> 146 [penwidth=2]
    345 -> 396 [penwidth=2]
    345 -> 111 [penwidth=2]
    345 -> 156 [penwidth=2]
    345 -> 173 [penwidth=2]
    345 -> 100 [penwidth=2]
    345 -> 170 [penwidth=2]
    345 -> 114 [penwidth=2]
    345 -> 105 [penwidth=2]
    345 -> 134 [penwidth=2]
    345 -> 81 [penwidth=2]
    345 -> 108 [penwidth=2]
    345 -> 117 [penwidth=2]
    345 -> 179 [penwidth=2]
    345 -> 88 [penwidth=2]
    345 -> 85 [penwidth=2]
    345 -> 153 [penwidth=2]
    345 -> 59 [penwidth=2]
    345 -> 115 [penwidth=2]
    345 -> 90 [penwidth=2]
    345 -> 165 [penwidth=2]
    345 -> 157 [penwidth=2]
    345 -> 167 [penwidth=2]
    345 -> 122 [penwidth=2]
    345 -> 120 [penwidth=2]
    345 -> 123 [penwidth=2]
    345 -> 394 [penwidth=2]
    345 -> 149 [penwidth=2]
    345 -> 63 [penwidth=2]
    345 -> 129 [penwidth=2]
    345 -> 56 [penwidth=2]
    345 -> 151 [penwidth=2]
    345 -> 130 [penwidth=2]
    345 -> 397 [penwidth=2]
    389 -> 395 [penwidth=2]
    389 -> 89 [penwidth=2]
    389 -> 162 [penwidth=2]
    389 -> 131 [penwidth=2]
    389 -> 78 [penwidth=2]
    389 -> 170 [penwidth=2]
    389 -> 76 [penwidth=2]
    389 -> 114 [penwidth=2]
    389 -> 120 [penwidth=2]
    389 -> 92 [penwidth=2]
    389 -> 119 [penwidth=2]
    389 -> 68 [penwidth=2]
    389 -> 102 [penwidth=2]
    389 -> 106 [penwidth=2]
    389 -> 164 [penwidth=2]
    389 -> 91 [penwidth=2]
    389 -> 129 [penwidth=2]
    389 -> 133 [penwidth=2]
    389 -> 181 [penwidth=2]
    389 -> 173 [penwidth=2]
    389 -> 124 [penwidth=2]
    389 -> 156 [penwidth=2]
    389 -> 81 [penwidth=2]
    389 -> 117 [penwidth=2]
    389 -> 67 [penwidth=2]
    389 -> 126 [penwidth=2]
    389 -> 160 [penwidth=2]
    389 -> 85 [penwidth=2]
    389 -> 69 [penwidth=2]
    389 -> 74 [penwidth=2]
    389 -> 108 [penwidth=2]
    389 -> 62 [penwidth=2]
    389 -> 176 [penwidth=2]
    389 -> 57 [penwidth=2]
    389 -> 121 [penwidth=2]
    389 -> 147 [penwidth=2]
    389 -> 90 [penwidth=2]
    389 -> 105 [penwidth=2]
    389 -> 128 [penwidth=2]
    389 -> 60 [penwidth=2]
    389 -> 151 [penwidth=2]
    389 -> 398 [penwidth=2]
    389 -> 171 [penwidth=2]
    389 -> 397 [penwidth=2]
    389 -> 83 [penwidth=2]
    389 -> 71 [penwidth=2]
    389 -> 107 [penwidth=2]
    389 -> 166 [penwidth=2]
    389 -> 393 [penwidth=2]
    389 -> 63 [penwidth=2]
    389 -> 163 [penwidth=2]
    389 -> 394 [penwidth=2]
    389 -> 64 [penwidth=2]
    389 -> 392 [penwidth=2]
    389 -> 118 [penwidth=2]
    389 -> 115 [penwidth=2]
    389 -> 103 [penwidth=2]
    389 -> 125 [penwidth=2]
    389 -> 61 [penwidth=2]
    389 -> 148 [penwidth=2]
    389 -> 58 [penwidth=2]
    389 -> 161 [penwidth=2]
    389 -> 123 [penwidth=2]
    389 -> 168 [penwidth=2]
    389 -> 88 [penwidth=2]
    389 -> 165 [penwidth=2]
    389 -> 178 [penwidth=2]
    389 -> 100 [penwidth=2]
    389 -> 130 [penwidth=2]
    389 -> 159 [penwidth=2]
    389 -> 154 [penwidth=2]
    389 -> 66 [penwidth=2]
    389 -> 122 [penwidth=2]
    389 -> 112 [penwidth=2]
    389 -> 111 [penwidth=2]
    389 -> 179 [penwidth=2]
    389 -> 84 [penwidth=2]
    389 -> 99 [penwidth=2]
    389 -> 65 [penwidth=2]
    389 -> 116 [penwidth=2]
    389 -> 153 [penwidth=2]
    389 -> 150 [penwidth=2]
    389 -> 132 [penwidth=2]
    389 -> 70 [penwidth=2]
    389 -> 73 [penwidth=2]
    389 -> 56 [penwidth=2]
    389 -> 146 [penwidth=2]
    389 -> 127 [penwidth=2]
    389 -> 177 [penwidth=2]
    389 -> 109 [penwidth=2]
    389 -> 134 [penwidth=2]
    389 -> 158 [penwidth=2]
    389 -> 75 [penwidth=2]
    389 -> 113 [penwidth=2]
    274 -> 160 [penwidth=2]
    274 -> 91 [penwidth=2]
    274 -> 66 [penwidth=2]
    274 -> 178 [penwidth=2]
    274 -> 169 [penwidth=2]
    274 -> 72 [penwidth=2]
    274 -> 90 [penwidth=2]
    274 -> 167 [penwidth=2]
    274 -> 398 [penwidth=2]
    274 -> 117 [penwidth=2]
    274 -> 171 [penwidth=2]
    274 -> 65 [penwidth=2]
    274 -> 148 [penwidth=2]
    274 -> 83 [penwidth=2]
    274 -> 158 [penwidth=2]
    274 -> 87 [penwidth=2]
    274 -> 121 [penwidth=2]
    274 -> 163 [penwidth=2]
    274 -> 98 [penwidth=2]
    274 -> 99 [penwidth=2]
    274 -> 115 [penwidth=2]
    274 -> 89 [penwidth=2]
    274 -> 124 [penwidth=2]
    274 -> 114 [penwidth=2]
    274 -> 61 [penwidth=2]
    274 -> 69 [penwidth=2]
    274 -> 63 [penwidth=2]
    274 -> 172 [penwidth=2]
    274 -> 100 [penwidth=2]
    274 -> 122 [penwidth=2]
    274 -> 74 [penwidth=2]
    274 -> 151 [penwidth=2]
    274 -> 150 [penwidth=2]
    274 -> 118 [penwidth=2]
    274 -> 84 [penwidth=2]
    274 -> 176 [penwidth=2]
    274 -> 85 [penwidth=2]
    274 -> 152 [penwidth=2]
    274 -> 108 [penwidth=2]
    274 -> 88 [penwidth=2]
    274 -> 60 [penwidth=2]
    274 -> 134 [penwidth=2]
    274 -> 59 [penwidth=2]
    274 -> 119 [penwidth=2]
    274 -> 127 [penwidth=2]
    274 -> 57 [penwidth=2]
    274 -> 181 [penwidth=2]
    274 -> 103 [penwidth=2]
    274 -> 179 [penwidth=2]
    274 -> 159 [penwidth=2]
    274 -> 165 [penwidth=2]
    274 -> 130 [penwidth=2]
    274 -> 76 [penwidth=2]
    274 -> 123 [penwidth=2]
    274 -> 120 [penwidth=2]
    274 -> 155 [penwidth=2]
    274 -> 133 [penwidth=2]
    274 -> 161 [penwidth=2]
    274 -> 101 [penwidth=2]
    274 -> 109 [penwidth=2]
    274 -> 395 [penwidth=2]
    274 -> 111 [penwidth=2]
    274 -> 110 [penwidth=2]
    274 -> 104 [penwidth=2]
    274 -> 154 [penwidth=2]
    274 -> 392 [penwidth=2]
    274 -> 153 [penwidth=2]
    274 -> 79 [penwidth=2]
    274 -> 62 [penwidth=2]
    274 -> 177 [penwidth=2]
    274 -> 81 [penwidth=2]
    274 -> 70 [penwidth=2]
    274 -> 77 [penwidth=2]
    274 -> 162 [penwidth=2]
    274 -> 173 [penwidth=2]
    274 -> 146 [penwidth=2]
    274 -> 168 [penwidth=2]
    274 -> 129 [penwidth=2]
    274 -> 73 [penwidth=2]
    274 -> 105 [penwidth=2]
    274 -> 86 [penwidth=2]
    274 -> 58 [penwidth=2]
    274 -> 92 [penwidth=2]
    274 -> 68 [penwidth=2]
    274 -> 132 [penwidth=2]
    274 -> 102 [penwidth=2]
    274 -> 166 [penwidth=2]
    274 -> 116 [penwidth=2]
    274 -> 164 [penwidth=2]
    274 -> 106 [penwidth=2]
    274 -> 107 [penwidth=2]
    274 -> 174 [penwidth=2]
    274 -> 399 [penwidth=2]
    274 -> 71 [penwidth=2]
    274 -> 125 [penwidth=2]
    274 -> 128 [penwidth=2]
    274 -> 56 [penwidth=2]
    274 -> 80 [penwidth=2]
    274 -> 131 [penwidth=2]
    274 -> 170 [penwidth=2]
    274 -> 394 [penwidth=2]
    274 -> 126 [penwidth=2]
    274 -> 396 [penwidth=2]
    274 -> 180 [penwidth=2]
    285 -> 114 [penwidth=2]
    285 -> 61 [penwidth=2]
    285 -> 154 [penwidth=2]
    285 -> 115 [penwidth=2]
    285 -> 103 [penwidth=2]
    285 -> 84 [penwidth=2]
    285 -> 129 [penwidth=2]
    285 -> 108 [penwidth=2]
    285 -> 79 [penwidth=2]
    285 -> 394 [penwidth=2]
    285 -> 396 [penwidth=2]
    285 -> 147 [penwidth=2]
    285 -> 169 [penwidth=2]
    285 -> 175 [penwidth=2]
    285 -> 119 [penwidth=2]
    285 -> 120 [penwidth=2]
    285 -> 71 [penwidth=2]
    285 -> 57 [penwidth=2]
    285 -> 155 [penwidth=2]
    285 -> 85 [penwidth=2]
    285 -> 128 [penwidth=2]
    285 -> 398 [penwidth=2]
    285 -> 392 [penwidth=2]
    285 -> 101 [penwidth=2]
    285 -> 163 [penwidth=2]
    285 -> 89 [penwidth=2]
    285 -> 102 [penwidth=2]
    285 -> 66 [penwidth=2]
    8 -> 133 [penwidth=2]
    8 -> 395 [penwidth=2]
    8 -> 179 [penwidth=2]
    8 -> 126 [penwidth=2]
    8 -> 150 [penwidth=2]
    8 -> 61 [penwidth=2]
    8 -> 174 [penwidth=2]
    8 -> 123 [penwidth=2]
    8 -> 167 [penwidth=2]
    8 -> 89 [penwidth=2]
    8 -> 175 [penwidth=2]
    8 -> 77 [penwidth=2]
    8 -> 163 [penwidth=2]
    8 -> 104 [penwidth=2]
    8 -> 134 [penwidth=2]
    8 -> 177 [penwidth=2]
    8 -> 169 [penwidth=2]
    8 -> 99 [penwidth=2]
    8 -> 165 [penwidth=2]
    8 -> 59 [penwidth=2]
    183 -> 59 [penwidth=2]
    183 -> 164 [penwidth=2]
    183 -> 76 [penwidth=2]
    183 -> 109 [penwidth=2]
    183 -> 65 [penwidth=2]
    183 -> 128 [penwidth=2]
    183 -> 146 [penwidth=2]
    183 -> 69 [penwidth=2]
    183 -> 111 [penwidth=2]
    183 -> 148 [penwidth=2]
    183 -> 399 [penwidth=2]
    183 -> 115 [penwidth=2]
    183 -> 68 [penwidth=2]
    183 -> 60 [penwidth=2]
    183 -> 132 [penwidth=2]
    183 -> 80 [penwidth=2]
    183 -> 175 [penwidth=2]
    183 -> 75 [penwidth=2]
    183 -> 105 [penwidth=2]
    183 -> 102 [penwidth=2]
    183 -> 114 [penwidth=2]
    183 -> 162 [penwidth=2]
    183 -> 78 [penwidth=2]
    183 -> 176 [penwidth=2]
    183 -> 124 [penwidth=2]
    183 -> 106 [penwidth=2]
    183 -> 116 [penwidth=2]
    183 -> 100 [penwidth=2]
    183 -> 73 [penwidth=2]
    183 -> 117 [penwidth=2]
    183 -> 166 [penwidth=2]
    183 -> 168 [penwidth=2]
    183 -> 180 [penwidth=2]
    183 -> 126 [penwidth=2]
    183 -> 86 [penwidth=2]
    183 -> 70 [penwidth=2]
    183 -> 155 [penwidth=2]
    183 -> 125 [penwidth=2]
    183 -> 92 [penwidth=2]
    183 -> 58 [penwidth=2]
    183 -> 104 [penwidth=2]
    183 -> 87 [penwidth=2]
    183 -> 171 [penwidth=2]
    183 -> 159 [penwidth=2]
    183 -> 66 [penwidth=2]
    183 -> 83 [penwidth=2]
    183 -> 127 [penwidth=2]
    183 -> 108 [penwidth=2]
    183 -> 79 [penwidth=2]
    183 -> 62 [penwidth=2]
    183 -> 121 [penwidth=2]
    183 -> 157 [penwidth=2]
    183 -> 172 [penwidth=2]
    183 -> 153 [penwidth=2]
    183 -> 64 [penwidth=2]
    188 -> 154 [penwidth=2]
    188 -> 148 [penwidth=2]
    188 -> 90 [penwidth=2]
    188 -> 117 [penwidth=2]
    188 -> 63 [penwidth=2]
    188 -> 76 [penwidth=2]
    188 -> 92 [penwidth=2]
    188 -> 126 [penwidth=2]
    188 -> 111 [penwidth=2]
    188 -> 71 [penwidth=2]
    207 -> 58 [penwidth=2]
    207 -> 131 [penwidth=2]
    207 -> 159 [penwidth=2]
    207 -> 88 [penwidth=2]
    207 -> 154 [penwidth=2]
    207 -> 394 [penwidth=2]
    207 -> 77 [penwidth=2]
    207 -> 146 [penwidth=2]
    207 -> 102 [penwidth=2]
    207 -> 165 [penwidth=2]
    207 -> 133 [penwidth=2]
    207 -> 115 [penwidth=2]
    207 -> 85 [penwidth=2]
    207 -> 178 [penwidth=2]
    207 -> 84 [penwidth=2]
    207 -> 69 [penwidth=2]
    207 -> 56 [penwidth=2]
    207 -> 152 [penwidth=2]
    207 -> 86 [penwidth=2]
    207 -> 116 [penwidth=2]
    207 -> 147 [penwidth=2]
    207 -> 158 [penwidth=2]
    207 -> 125 [penwidth=2]
    207 -> 62 [penwidth=2]
    207 -> 75 [penwidth=2]
    207 -> 126 [penwidth=2]
    207 -> 395 [penwidth=2]
    207 -> 90 [penwidth=2]
    207 -> 166 [penwidth=2]
    207 -> 103 [penwidth=2]
    207 -> 60 [penwidth=2]
    207 -> 81 [penwidth=2]
    207 -> 92 [penwidth=2]
    207 -> 80 [penwidth=2]
    207 -> 82 [penwidth=2]
    207 -> 121 [penwidth=2]
    207 -> 132 [penwidth=2]
    207 -> 106 [penwidth=2]
    207 -> 78 [penwidth=2]
    207 -> 87 [penwidth=2]
    207 -> 68 [penwidth=2]
    207 -> 130 [penwidth=2]
    207 -> 164 [penwidth=2]
    207 -> 151 [penwidth=2]
    207 -> 123 [penwidth=2]
    207 -> 74 [penwidth=2]
    207 -> 148 [penwidth=2]
    207 -> 79 [penwidth=2]
    207 -> 112 [penwidth=2]
    207 -> 122 [penwidth=2]
    207 -> 155 [penwidth=2]
    207 -> 175 [penwidth=2]
    207 -> 157 [penwidth=2]
    207 -> 98 [penwidth=2]
    207 -> 114 [penwidth=2]
    207 -> 177 [penwidth=2]
    207 -> 173 [penwidth=2]
    207 -> 67 [penwidth=2]
    207 -> 113 [penwidth=2]
    207 -> 107 [penwidth=2]
    207 -> 129 [penwidth=2]
    207 -> 171 [penwidth=2]
    207 -> 161 [penwidth=2]
    207 -> 176 [penwidth=2]
    207 -> 101 [penwidth=2]
    207 -> 59 [penwidth=2]
    207 -> 168 [penwidth=2]
    207 -> 99 [penwidth=2]
    207 -> 89 [penwidth=2]
    207 -> 70 [penwidth=2]
    207 -> 57 [penwidth=2]
    207 -> 110 [penwidth=2]
    207 -> 83 [penwidth=2]
    207 -> 120 [penwidth=2]
    207 -> 393 [penwidth=2]
    207 -> 76 [penwidth=2]
    207 -> 170 [penwidth=2]
    207 -> 119 [penwidth=2]
    207 -> 180 [penwidth=2]
    207 -> 179 [penwidth=2]
    207 -> 124 [penwidth=2]
    207 -> 109 [penwidth=2]
    207 -> 149 [penwidth=2]
    207 -> 108 [penwidth=2]
    207 -> 134 [penwidth=2]
    207 -> 162 [penwidth=2]
    207 -> 91 [penwidth=2]
    261 -> 106 [penwidth=2]
    261 -> 398 [penwidth=2]
    261 -> 87 [penwidth=2]
    261 -> 99 [penwidth=2]
    261 -> 174 [penwidth=2]
    261 -> 114 [penwidth=2]
    261 -> 169 [penwidth=2]
    261 -> 394 [penwidth=2]
    261 -> 125 [penwidth=2]
    261 -> 60 [penwidth=2]
    261 -> 152 [penwidth=2]
    261 -> 179 [penwidth=2]
    261 -> 102 [penwidth=2]
    261 -> 162 [penwidth=2]
    261 -> 71 [penwidth=2]
    261 -> 88 [penwidth=2]
    261 -> 67 [penwidth=2]
    261 -> 64 [penwidth=2]
    261 -> 166 [penwidth=2]
    261 -> 73 [penwidth=2]
    261 -> 133 [penwidth=2]
    261 -> 181 [penwidth=2]
    261 -> 80 [penwidth=2]
    261 -> 81 [penwidth=2]
    220 -> 110 [penwidth=2]
    220 -> 169 [penwidth=2]
    220 -> 73 [penwidth=2]
    220 -> 87 [penwidth=2]
    220 -> 82 [penwidth=2]
    220 -> 114 [penwidth=2]
    220 -> 60 [penwidth=2]
    220 -> 160 [penwidth=2]
    220 -> 72 [penwidth=2]
    220 -> 159 [penwidth=2]
    220 -> 68 [penwidth=2]
    220 -> 154 [penwidth=2]
    220 -> 99 [penwidth=2]
    220 -> 76 [penwidth=2]
    220 -> 150 [penwidth=2]
    220 -> 128 [penwidth=2]
    220 -> 396 [penwidth=2]
    220 -> 397 [penwidth=2]
    220 -> 106 [penwidth=2]
    220 -> 116 [penwidth=2]
    220 -> 155 [penwidth=2]
    220 -> 148 [penwidth=2]
    220 -> 102 [penwidth=2]
    220 -> 62 [penwidth=2]
    220 -> 125 [penwidth=2]
    220 -> 149 [penwidth=2]
    220 -> 119 [penwidth=2]
    220 -> 176 [penwidth=2]
    220 -> 64 [penwidth=2]
    220 -> 130 [penwidth=2]
    220 -> 124 [penwidth=2]
    220 -> 175 [penwidth=2]
    220 -> 392 [penwidth=2]
    220 -> 69 [penwidth=2]
    220 -> 133 [penwidth=2]
    220 -> 90 [penwidth=2]
    220 -> 80 [penwidth=2]
    220 -> 129 [penwidth=2]
    220 -> 101 [penwidth=2]
    220 -> 163 [penwidth=2]
    220 -> 398 [penwidth=2]
    220 -> 153 [penwidth=2]
    220 -> 100 [penwidth=2]
    220 -> 399 [penwidth=2]
    220 -> 65 [penwidth=2]
    220 -> 70 [penwidth=2]
    220 -> 98 [penwidth=2]
    220 -> 118 [penwidth=2]
    220 -> 107 [penwidth=2]
    220 -> 158 [penwidth=2]
    220 -> 89 [penwidth=2]
    220 -> 394 [penwidth=2]
    220 -> 168 [penwidth=2]
    220 -> 61 [penwidth=2]
    220 -> 161 [penwidth=2]
    220 -> 171 [penwidth=2]
    220 -> 56 [penwidth=2]
}