digraph G {
    0 [penwidth=3,label="0"]
    1 [penwidth=3,label="1"]
    2 [penwidth=3,label="2"]
    3 [penwidth=3,label="3"]
    4 [penwidth=3,label="4"]
    5 [penwidth=3,label="5"]
    6 [penwidth=3,label="6"]
    7 [penwidth=3,label="7"]
    8 [penwidth=3,label="8"]
    9 [penwidth=3,label="9"]
    10 [penwidth=3,label="10"]
    11 [penwidth=3,label="11"]
    12 [penwidth=3,label="12"]
    13 [penwidth=3,label="13"]
    14 [penwidth=3,label="14"]
    15 [penwidth=3,label="15"]
    16 [penwidth=3,label="16"]
    17 [penwidth=3,label="17"]
    18 [penwidth=3,label="18"]
    19 [penwidth=3,label="19"]
    20 [penwidth=3,label="20"]
    21 [penwidth=3,label="21"]
    22 [penwidth=3,label="22"]
    23 [penwidth=3,label="23"]
    24 [penwidth=3,label="24"]
    25 [penwidth=3,label="25"]
    26 [penwidth=3,label="26"]
    27 [penwidth=3,label="27"]
    28 [penwidth=3,label="28"]
    29 [penwidth=3,label="29"]
    30 [penwidth=3,label="30"]
    31 [penwidth=3,label="31"]
    32 [penwidth=3,label="32"]
    33 [penwidth=3,label="33"]
    34 [penwidth=3,label="34"]
    35 [penwidth=3,label="35"]
    36 [penwidth=3,label="36"]
    37 [penwidth=3,label="37"]
    38 [penwidth=3,label="38"]
    39 [penwidth=3,label="39"]
    40 [penwidth=3,label="40"]
    41 [penwidth=3,label="41"]
    42 [penwidth=3,label="42"]
    43 [penwidth=3,label="43"]
    44 [penwidth=3,label="44"]
    45 [penwidth=3,label="45"]
    46 [penwidth=3,label="46"]
    47 [penwidth=3,label="47"]
    48 [penwidth=3,label="48"]
    49 [penwidth=3,label="49"]
    50 [penwidth=3,label="50"]
    51 [penwidth=3,label="51"]
    52 [penwidth=3,label="52"]
    53 [penwidth=3,label="53"]
    54 [penwidth=3,label="54"]
    55 [penwidth=3,label="55"]
    56 [penwidth=3,label="56"]
    57 [penwidth=3,label="57"]
    58 [penwidth=3,label="58"]
    59 [penwidth=3,label="59"]
    60 [penwidth=3,label="60"]
    61 [penwidth=3,label="61"]
    62 [penwidth=3,label="62"]
    63 [penwidth=3,label="63"]
    64 [penwidth=3,label="64"]
    65 [penwidth=3,label="65"]
    66 [penwidth=3,label="66"]
    67 [penwidth=3,label="67"]
    68 [penwidth=3,label="68"]
    69 [penwidth=3,label="69"]
    70 [penwidth=3,label="70"]
    71 [penwidth=3,label="71"]
    72 [penwidth=3,label="72"]
    73 [penwidth=3,label="73"]
    74 [penwidth=3,label="74"]
    75 [penwidth=3,label="75"]
    76 [penwidth=3,label="76"]
    77 [penwidth=3,label="77"]
    78 [penwidth=3,label="78"]
    79 [penwidth=3,label="79"]
    80 [penwidth=3,label="80"]
    81 [penwidth=3,label="81"]
    82 [penwidth=3,label="82"]
    83 [penwidth=3,label="83"]
    84 [penwidth=3,label="84"]
    85 [penwidth=3,label="85"]
    86 [penwidth=3,label="86"]
    87 [penwidth=3,label="87"]
    88 [penwidth=3,label="88"]
    89 [penwidth=3,label="89"]
    90 [penwidth=3,label="90"]
    91 [penwidth=3,label="91"]
    92 [penwidth=3,label="92"]
    93 [penwidth=3,label="93"]
    94 [penwidth=3,label="94"]
    95 [penwidth=3,label="95"]
    96 [penwidth=3,label="96"]
    97 [penwidth=3,label="97"]
    98 [penwidth=3,label="98"]
    99 [penwidth=3,label="99"]
    100 [penwidth=3,label="100"]
    101 [penwidth=3,label="101"]
    102 [penwidth=3,label="102"]
    103 [penwidth=3,label="103"]
    104 [penwidth=3,label="104"]
    105 [penwidth=3,label="105"]
    106 [penwidth=3,label="106"]
    107 [penwidth=3,label="107"]
    108 [penwidth=3,label="108"]
    109 [penwidth=3,label="109"]
    110 [penwidth=3,label="110"]
    111 [penwidth=3,label="111"]
    112 [penwidth=3,label="112"]
    113 [penwidth=3,label="113"]
    114 [penwidth=3,label="114"]
    115 [penwidth=3,label="115"]
    116 [penwidth=3,label="116"]
    117 [penwidth=3,label="117"]
    118 [penwidth=3,label="118"]
    119 [penwidth=3,label="119"]
    120 [penwidth=3,label="120"]
    121 [penwidth=3,label="121"]
    122 [penwidth=3,label="122"]
    123 [penwidth=3,label="123"]
    124 [penwidth=3,label="124"]
    125 [penwidth=3,label="125"]
    126 [penwidth=3,label="126"]
    127 [penwidth=3,label="127"]
    128 [penwidth=3,label="128"]
    129 [penwidth=3,label="129"]
    130 [penwidth=3,label="130"]
    131 [penwidth=3,label="131"]
    132 [penwidth=3,label="132"]
    133 [penwidth=3,label="133"]
    134 [penwidth=3,label="134"]
    135 [penwidth=3,label="135"]
    136 [penwidth=3,label="136"]
    137 [penwidth=3,label="137"]
    138 [penwidth=3,label="138"]
    139 [penwidth=3,label="139"]
    140 [penwidth=3,label="140"]
    141 [penwidth=3,label="141"]
    142 [penwidth=3,label="142"]
    143 [penwidth=3,label="143"]
    144 [penwidth=3,label="144"]
    145 [penwidth=3,label="145"]
    146 [penwidth=3,label="146"]
    147 [penwidth=3,label="147"]
    148 [penwidth=3,label="148"]
    149 [penwidth=3,label="149"]
    150 [penwidth=3,label="150"]
    151 [penwidth=3,label="151"]
    152 [penwidth=3,label="152"]
    153 [penwidth=3,label="153"]
    154 [penwidth=3,label="154"]
    155 [penwidth=3,label="155"]
    156 [penwidth=3,label="156"]
    157 [penwidth=3,label="157"]
    158 [penwidth=3,label="158"]
    159 [penwidth=3,label="159"]
    160 [penwidth=3,label="160"]
    161 [penwidth=3,label="161"]
    162 [penwidth=3,label="162"]
    163 [penwidth=3,label="163"]
    164 [penwidth=3,label="164"]
    165 [penwidth=3,label="165"]
    166 [penwidth=3,label="166"]
    167 [penwidth=3,label="167"]
    168 [penwidth=3,label="168"]
    169 [penwidth=3,label="169"]
    170 [penwidth=3,label="170"]
    171 [penwidth=3,label="171"]
    172 [penwidth=3,label="172"]
    173 [penwidth=3,label="173"]
    174 [penwidth=3,label="174"]
    175 [penwidth=3,label="175"]
    176 [penwidth=3,label="176"]
    177 [penwidth=3,label="177"]
    178 [penwidth=3,label="178"]
    179 [penwidth=3,label="179"]
    180 [penwidth=3,label="180"]
    181 [penwidth=3,label="181"]
    182 [penwidth=3,label="182"]
    183 [penwidth=3,label="183"]
    184 [penwidth=3,label="184"]
    185 [penwidth=3,label="185"]
    186 [penwidth=3,label="186"]
    187 [penwidth=3,label="187"]
    188 [penwidth=3,label="188"]
    189 [penwidth=3,label="189"]
    190 [penwidth=3,label="190"]
    191 [penwidth=3,label="191"]
    192 [penwidth=3,label="192"]
    193 [penwidth=3,label="193"]
    194 [penwidth=3,label="194"]
    195 [penwidth=3,label="195"]
    196 [penwidth=3,label="196"]
    197 [penwidth=3,label="197"]
    198 [penwidth=3,label="198"]
    199 [penwidth=3,label="199"]
    200 [penwidth=3,label="200"]
    201 [penwidth=3,label="201"]
    202 [penwidth=3,label="202"]
    203 [penwidth=3,label="203"]
    204 [penwidth=3,label="204"]
    205 [penwidth=3,label="205"]
    206 [penwidth=3,label="206"]
    207 [penwidth=3,label="207"]
    208 [penwidth=3,label="208"]
    209 [penwidth=3,label="209"]
    210 [penwidth=3,label="210"]
    211 [penwidth=3,label="211"]
    212 [penwidth=3,label="212"]
    213 [penwidth=3,label="213"]
    214 [penwidth=3,label="214"]
    215 [penwidth=3,label="215"]
    216 [penwidth=3,label="216"]
    217 [penwidth=3,label="217"]
    218 [penwidth=3,label="218"]
    219 [penwidth=3,label="219"]
    220 [penwidth=3,label="220"]
    221 [penwidth=3,label="221"]
    222 [penwidth=3,label="222"]
    223 [penwidth=3,label="223"]
    224 [penwidth=3,label="224"]
    225 [penwidth=3,label="225"]
    226 [penwidth=3,label="226"]
    227 [penwidth=3,label="227"]
    228 [penwidth=3,label="228"]
    229 [penwidth=3,label="229"]
    230 [penwidth=3,label="230"]
    231 [penwidth=3,label="231"]
    232 [penwidth=3,label="232"]
    233 [penwidth=3,label="233"]
    234 [penwidth=3,label="234"]
    235 [penwidth=3,label="235"]
    236 [penwidth=3,label="236"]
    237 [penwidth=3,label="237"]
    238 [penwidth=3,label="238"]
    239 [penwidth=3,label="239"]
    240 [penwidth=3,label="240"]
    241 [penwidth=3,label="241"]
    242 [penwidth=3,label="242"]
    243 [penwidth=3,label="243"]
    244 [penwidth=3,label="244"]
    245 [penwidth=3,label="245"]
    246 [penwidth=3,label="246"]
    247 [penwidth=3,label="247"]
    248 [penwidth=3,label="248"]
    249 [penwidth=3,label="249"]
    250 [penwidth=3,label="250"]
    251 [penwidth=3,label="251"]
    252 [penwidth=3,label="252"]
    253 [penwidth=3,label="253"]
    254 [penwidth=3,label="254"]
    255 [penwidth=3,label="255"]
    256 [penwidth=3,label="256"]
    257 [penwidth=3,label="257"]
    258 [penwidth=3,label="258"]
    259 [penwidth=3,label="259"]
    260 [penwidth=3,label="260"]
    261 [penwidth=3,label="261"]
    262 [penwidth=3,label="262"]
    263 [penwidth=3,label="263"]
    264 [penwidth=3,label="264"]
    265 [penwidth=3,label="265"]
    266 [penwidth=3,label="266"]
    267 [penwidth=3,label="267"]
    268 [penwidth=3,label="268"]
    269 [penwidth=3,label="269"]
    270 [penwidth=3,label="270"]
    271 [penwidth=3,label="271"]
    272 [penwidth=3,label="272"]
    273 [penwidth=3,label="273"]
    274 [penwidth=3,label="274"]
    275 [penwidth=3,label="275"]
    276 [penwidth=3,label="276"]
    277 [penwidth=3,label="277"]
    278 [penwidth=3,label="278"]
    279 [penwidth=3,label="279"]
    280 [penwidth=3,label="280"]
    281 [penwidth=3,label="281"]
    282 [penwidth=3,label="282"]
    283 [penwidth=3,label="283"]
    284 [penwidth=3,label="284"]
    285 [penwidth=3,label="285"]
    286 [penwidth=3,label="286"]
    287 [penwidth=3,label="287"]
    288 [penwidth=3,label="288"]
    289 [penwidth=3,label="289"]
    290 [penwidth=3,label="290"]
    291 [penwidth=3,label="291"]
    292 [penwidth=3,label="292"]
    293 [penwidth=3,label="293"]
    294 [penwidth=3,label="294"]
    295 [penwidth=3,label="295"]
    296 [penwidth=3,label="296"]
    297 [penwidth=3,label="297"]
    298 [penwidth=3,label="298"]
    299 [penwidth=3,label="299"]
    300 [penwidth=3,label="300"]
    301 [penwidth=3,label="301"]
    302 [penwidth=3,label="302"]
    303 [penwidth=3,label="303"]
    304 [penwidth=3,label="304"]
    305 [penwidth=3,label="305"]
    306 [penwidth=3,label="306"]
    307 [penwidth=3,label="307"]
    308 [penwidth=3,label="308"]
    309 [penwidth=3,label="309"]
    310 [penwidth=3,label="310"]
    311 [penwidth=3,label="311"]
    312 [penwidth=3,label="312"]
    313 [penwidth=3,label="313"]
    314 [penwidth=3,label="314"]
    315 [penwidth=3,label="315"]
    316 [penwidth=3,label="316"]
    317 [penwidth=3,label="317"]
    318 [penwidth=3,label="318"]
    319 [penwidth=3,label="319"]
    320 [penwidth=3,label="320"]
    321 [penwidth=3,label="321"]
    322 [penwidth=3,label="322"]
    323 [penwidth=3,label="323"]
    324 [penwidth=3,label="324"]
    325 [penwidth=3,label="325"]
    326 [penwidth=3,label="326"]
    327 [penwidth=3,label="327"]
    328 [penwidth=3,label="328"]
    329 [penwidth=3,label="329"]
    330 [penwidth=3,label="330"]
    331 [penwidth=3,label="331"]
    332 [penwidth=3,label="332"]
    333 [penwidth=3,label="333"]
    334 [penwidth=3,label="334"]
    335 [penwidth=3,label="335"]
    336 [penwidth=3,label="336"]
    337 [penwidth=3,label="337"]
    338 [penwidth=3,label="338"]
    339 [penwidth=3,label="339"]
    340 [penwidth=3,label="340"]
    341 [penwidth=3,label="341"]
    342 [penwidth=3,label="342"]
    343 [penwidth=3,label="343"]
    344 [penwidth=3,label="344"]
    345 [penwidth=3,label="345"]
    346 [penwidth=3,label="346"]
    347 [penwidth=3,label="347"]
    348 [penwidth=3,label="348"]
    349 [penwidth=3,label="349"]
    350 [penwidth=3,label="350"]
    351 [penwidth=3,label="351"]
    352 [penwidth=3,label="352"]
    353 [penwidth=3,label="353"]
    354 [penwidth=3,label="354"]
    355 [penwidth=3,label="355"]
    356 [penwidth=3,label="356"]
    357 [penwidth=3,label="357"]
    358 [penwidth=3,label="358"]
    359 [penwidth=3,label="359"]
    360 [penwidth=3,label="360"]
    361 [penwidth=3,label="361"]
    362 [penwidth=3,label="362"]
    363 [penwidth=3,label="363"]
    364 [penwidth=3,label="364"]
    365 [penwidth=3,label="365"]
    366 [penwidth=3,label="366"]
    367 [penwidth=3,label="367"]
    368 [penwidth=3,label="368"]
    369 [penwidth=3,label="369"]
    370 [penwidth=3,label="370"]
    371 [penwidth=3,label="371"]
    372 [penwidth=3,label="372"]
    373 [penwidth=3,label="373"]
    374 [penwidth=3,label="374"]
    375 [penwidth=3,label="375"]
    376 [penwidth=3,label="376"]
    377 [penwidth=3,label="377"]
    378 [penwidth=3,label="378"]
    379 [penwidth=3,label="379"]
    380 [penwidth=3,label="380"]
    381 [penwidth=3,label="381"]
    382 [penwidth=3,label="382"]
    383 [penwidth=3,label="383"]
    384 [penwidth=3,label="384"]
    385 [penwidth=3,label="385"]
    386 [penwidth=3,label="386"]
    387 [penwidth=3,label="387"]
    388 [penwidth=3,label="388"]
    389 [penwidth=3,label="389"]
    390 [penwidth=3,label="390"]
    391 [penwidth=3,label="391"]
    392 [penwidth=3,label="392"]
    393 [penwidth=3,label="393"]
    394 [penwidth=3,label="394"]
    395 [penwidth=3,label="395"]
    396 [penwidth=3,label="396"]
    397 [penwidth=3,label="397"]
    398 [penwidth=3,label="398"]
    399 [penwidth=3,label="399"]

    309 -> 0 [penwidth=2]
    310 -> 0 [penwidth=2]
    311 -> 309 [penwidth=2]
    312 -> 310 [penwidth=2]
    313 -> 310 [penwidth=2]
    314 -> 310 [penwidth=2]
    315 -> 310 [penwidth=2]
    316 -> 310 [penwidth=2]
    317 -> 310 [penwidth=2]
    318 -> 310 [penwidth=2]
    319 -> 310 [penwidth=2]
    320 -> 310 [penwidth=2]
    321 -> 310 [penwidth=2]
    55 -> 310 [penwidth=2]
    322 -> 310 [penwidth=2]
    323 -> 310 [penwidth=2]
    324 -> 310 [penwidth=2]
    325 -> 310 [penwidth=2]
    326 -> 310 [penwidth=2]
    56 -> 310 [penwidth=2]
    327 -> 310 [penwidth=2]
    328 -> 310 [penwidth=2]
    329 -> 310 [penwidth=2]
    330 -> 310 [penwidth=2]
    331 -> 310 [penwidth=2]
    332 -> 310 [penwidth=2]
    333 -> 310 [penwidth=2]
    334 -> 310 [penwidth=2]
    335 -> 310 [penwidth=2]
    336 -> 310 [penwidth=2]
    337 -> 310 [penwidth=2]
    338 -> 311 [penwidth=2]
    339 -> 311 [penwidth=2]
    340 -> 311 [penwidth=2]
    341 -> 311 [penwidth=2]
    342 -> 311 [penwidth=2]
    343 -> 311 [penwidth=2]
    344 -> 311 [penwidth=2]
    345 -> 311 [penwidth=2]
    346 -> 311 [penwidth=2]
    347 -> 311 [penwidth=2]
    348 -> 311 [penwidth=2]
    349 -> 311 [penwidth=2]
    350 -> 311 [penwidth=2]
    225 -> 311 [penwidth=2]
    267 -> 311 [penwidth=2]
    226 -> 311 [penwidth=2]
    268 -> 311 [penwidth=2]
    227 -> 312 [penwidth=2]
    269 -> 312 [penwidth=2]
    228 -> 312 [penwidth=2]
    270 -> 312 [penwidth=2]
    229 -> 312 [penwidth=2]
    271 -> 312 [penwidth=2]
    230 -> 312 [penwidth=2]
    272 -> 313 [penwidth=2]
    231 -> 313 [penwidth=2]
    273 -> 313 [penwidth=2]
    232 -> 313 [penwidth=2]
    274 -> 313 [penwidth=2]
    233 -> 313 [penwidth=2]
    275 -> 313 [penwidth=2]
    234 -> 313 [penwidth=2]
    276 -> 313 [penwidth=2]
    235 -> 313 [penwidth=2]
    277 -> 313 [penwidth=2]
    236 -> 313 [penwidth=2]
    278 -> 314 [penwidth=2]
    237 -> 314 [penwidth=2]
    279 -> 314 [penwidth=2]
    238 -> 314 [penwidth=2]
    280 -> 314 [penwidth=2]
    239 -> 314 [penwidth=2]
    281 -> 314 [penwidth=2]
    240 -> 314 [penwidth=2]
    282 -> 314 [penwidth=2]
    241 -> 314 [penwidth=2]
    283 -> 314 [penwidth=2]
    242 -> 314 [penwidth=2]
    284 -> 314 [penwidth=2]
    243 -> 314 [penwidth=2]
    285 -> 314 [penwidth=2]
    244 -> 314 [penwidth=2]
    286 -> 314 [penwidth=2]
    245 -> 314 [penwidth=2]
    287 -> 315 [penwidth=2]
    246 -> 315 [penwidth=2]
    288 -> 315 [penwidth=2]
    247 -> 315 [penwidth=2]
    289 -> 315 [penwidth=2]
    248 -> 315 [penwidth=2]
    290 -> 315 [penwidth=2]
    249 -> 315 [penwidth=2]
    291 -> 315 [penwidth=2]
    250 -> 315 [penwidth=2]
    292 -> 315 [penwidth=2]
    251 -> 315 [penwidth=2]
    293 -> 315 [penwidth=2]
    252 -> 315 [penwidth=2]
    294 -> 315 [penwidth=2]
    253 -> 315 [penwidth=2]
    295 -> 315 [penwidth=2]
    254 -> 315 [penwidth=2]
    296 -> 315 [penwidth=2]
    255 -> 315 [penwidth=2]
    297 -> 315 [penwidth=2]
    256 -> 315 [penwidth=2]
    298 -> 315 [penwidth=2]
    257 -> 315 [penwidth=2]
    299 -> 315 [penwidth=2]
    258 -> 315 [penwidth=2]
    300 -> 316 [penwidth=2]
    259 -> 316 [penwidth=2]
    301 -> 316 [penwidth=2]
    260 -> 316 [penwidth=2]
    302 -> 316 [penwidth=2]
    261 -> 316 [penwidth=2]
    303 -> 317 [penwidth=2]
    262 -> 317 [penwidth=2]
    304 -> 317 [penwidth=2]
    263 -> 317 [penwidth=2]
    305 -> 317 [penwidth=2]
    264 -> 317 [penwidth=2]
    306 -> 317 [penwidth=2]
    265 -> 317 [penwidth=2]
    307 -> 317 [penwidth=2]
    266 -> 317 [penwidth=2]
    308 -> 317 [penwidth=2]
    183 -> 317 [penwidth=2]
    184 -> 317 [penwidth=2]
    185 -> 317 [penwidth=2]
    391 -> 317 [penwidth=2]
    186 -> 317 [penwidth=2]
    187 -> 317 [penwidth=2]
    188 -> 317 [penwidth=2]
    189 -> 317 [penwidth=2]
    190 -> 317 [penwidth=2]
    392 -> 317 [penwidth=2]
    191 -> 318 [penwidth=2]
    192 -> 318 [penwidth=2]
    193 -> 318 [penwidth=2]
    194 -> 318 [penwidth=2]
    195 -> 318 [penwidth=2]
    196 -> 318 [penwidth=2]
    197 -> 318 [penwidth=2]
    198 -> 318 [penwidth=2]
    199 -> 318 [penwidth=2]
    200 -> 318 [penwidth=2]
    201 -> 318 [penwidth=2]
    202 -> 318 [penwidth=2]
    203 -> 318 [penwidth=2]
    204 -> 318 [penwidth=2]
    205 -> 318 [penwidth=2]
    206 -> 318 [penwidth=2]
    207 -> 318 [penwidth=2]
    208 -> 318 [penwidth=2]
    209 -> 318 [penwidth=2]
    210 -> 318 [penwidth=2]
    211 -> 318 [penwidth=2]
    212 -> 318 [penwidth=2]
    213 -> 319 [penwidth=2]
    214 -> 319 [penwidth=2]
    215 -> 319 [penwidth=2]
    216 -> 319 [penwidth=2]
    217 -> 319 [penwidth=2]
    218 -> 319 [penwidth=2]
    219 -> 319 [penwidth=2]
    220 -> 319 [penwidth=2]
    221 -> 319 [penwidth=2]
    222 -> 319 [penwidth=2]
    223 -> 319 [penwidth=2]
    224 -> 319 [penwidth=2]
    99 -> 319 [penwidth=2]
    141 -> 319 [penwidth=2]
    100 -> 319 [penwidth=2]
    142 -> 319 [penwidth=2]
    101 -> 319 [penwidth=2]
    143 -> 319 [penwidth=2]
    102 -> 319 [penwidth=2]
    144 -> 319 [penwidth=2]
    103 -> 319 [penwidth=2]
    145 -> 319 [penwidth=2]
    104 -> 319 [penwidth=2]
    146 -> 319 [penwidth=2]
    105 -> 319 [penwidth=2]
    147 -> 320 [penwidth=2]
    106 -> 320 [penwidth=2]
    148 -> 320 [penwidth=2]
    107 -> 320 [penwidth=2]
    149 -> 320 [penwidth=2]
    108 -> 320 [penwidth=2]
    150 -> 320 [penwidth=2]
    109 -> 320 [penwidth=2]
    151 -> 320 [penwidth=2]
    110 -> 321 [penwidth=2]
    152 -> 321 [penwidth=2]
    111 -> 321 [penwidth=2]
    153 -> 321 [penwidth=2]
    112 -> 321 [penwidth=2]
    154 -> 321 [penwidth=2]
    113 -> 321 [penwidth=2]
    155 -> 321 [penwidth=2]
    114 -> 55 [penwidth=2]
    156 -> 55 [penwidth=2]
    115 -> 55 [penwidth=2]
    157 -> 55 [penwidth=2]
    116 -> 55 [penwidth=2]
    158 -> 55 [penwidth=2]
    117 -> 55 [penwidth=2]
    159 -> 55 [penwidth=2]
    118 -> 55 [penwidth=2]
    160 -> 55 [penwidth=2]
    119 -> 55 [penwidth=2]
    161 -> 55 [penwidth=2]
    120 -> 322 [penwidth=2]
    162 -> 322 [penwidth=2]
    121 -> 322 [penwidth=2]
    163 -> 322 [penwidth=2]
    122 -> 322 [penwidth=2]
    164 -> 322 [penwidth=2]
    123 -> 322 [penwidth=2]
    165 -> 322 [penwidth=2]
    124 -> 322 [penwidth=2]
    166 -> 323 [penwidth=2]
    125 -> 323 [penwidth=2]
    167 -> 323 [penwidth=2]
    126 -> 323 [penwidth=2]
    168 -> 323 [penwidth=2]
    127 -> 323 [penwidth=2]
    169 -> 323 [penwidth=2]
    128 -> 323 [penwidth=2]
    170 -> 323 [penwidth=2]
    129 -> 323 [penwidth=2]
    171 -> 323 [penwidth=2]
    130 -> 323 [penwidth=2]
    172 -> 323 [penwidth=2]
    131 -> 323 [penwidth=2]
    173 -> 323 [penwidth=2]
    132 -> 323 [penwidth=2]
    174 -> 323 [penwidth=2]
    133 -> 323 [penwidth=2]
    175 -> 323 [penwidth=2]
    134 -> 323 [penwidth=2]
    176 -> 323 [penwidth=2]
    135 -> 323 [penwidth=2]
    177 -> 323 [penwidth=2]
    136 -> 323 [penwidth=2]
    178 -> 323 [penwidth=2]
    137 -> 323 [penwidth=2]
    179 -> 323 [penwidth=2]
    138 -> 323 [penwidth=2]
    180 -> 323 [penwidth=2]
    139 -> 324 [penwidth=2]
    181 -> 324 [penwidth=2]
    140 -> 324 [penwidth=2]
    182 -> 324 [penwidth=2]
    57 -> 324 [penwidth=2]
    58 -> 324 [penwidth=2]
    59 -> 324 [penwidth=2]
    60 -> 324 [penwidth=2]
    61 -> 324 [penwidth=2]
    62 -> 325 [penwidth=2]
    63 -> 325 [penwidth=2]
    64 -> 325 [penwidth=2]
    65 -> 325 [penwidth=2]
    66 -> 325 [penwidth=2]
    67 -> 325 [penwidth=2]
    68 -> 325 [penwidth=2]
    69 -> 325 [penwidth=2]
    70 -> 325 [penwidth=2]
    71 -> 325 [penwidth=2]
    72 -> 325 [penwidth=2]
    73 -> 325 [penwidth=2]
    74 -> 325 [penwidth=2]
    75 -> 325 [penwidth=2]
    76 -> 325 [penwidth=2]
    77 -> 325 [penwidth=2]
    78 -> 325 [penwidth=2]
    79 -> 325 [penwidth=2]
    80 -> 325 [penwidth=2]
    81 -> 326 [penwidth=2]
    82 -> 326 [penwidth=2]
    83 -> 326 [penwidth=2]
    84 -> 326 [penwidth=2]
    85 -> 56 [penwidth=2]
    86 -> 56 [penwidth=2]
    87 -> 327 [penwidth=2]
    88 -> 327 [penwidth=2]
    89 -> 327 [penwidth=2]
    90 -> 327 [penwidth=2]
    91 -> 327 [penwidth=2]
    92 -> 327 [penwidth=2]
    93 -> 327 [penwidth=2]
    94 -> 327 [penwidth=2]
    95 -> 327 [penwidth=2]
    96 -> 327 [penwidth=2]
    97 -> 327 [penwidth=2]
    98 -> 327 [penwidth=2]
    15 -> 327 [penwidth=2]
    351 -> 327 [penwidth=2]
    393 -> 327 [penwidth=2]
    16 -> 327 [penwidth=2]
    352 -> 327 [penwidth=2]
    394 -> 327 [penwidth=2]
    17 -> 327 [penwidth=2]
    353 -> 327 [penwidth=2]
    395 -> 327 [penwidth=2]
    18 -> 327 [penwidth=2]
    354 -> 327 [penwidth=2]
    396 -> 328 [penwidth=2]
    19 -> 328 [penwidth=2]
    355 -> 328 [penwidth=2]
    397 -> 328 [penwidth=2]
    20 -> 328 [penwidth=2]
    356 -> 328 [penwidth=2]
    398 -> 328 [penwidth=2]
    21 -> 328 [penwidth=2]
    357 -> 328 [penwidth=2]
    399 -> 328 [penwidth=2]
    22 -> 328 [penwidth=2]
    358 -> 328 [penwidth=2]
    23 -> 328 [penwidth=2]
    359 -> 328 [penwidth=2]
    24 -> 328 [penwidth=2]
    360 -> 328 [penwidth=2]
    25 -> 328 [penwidth=2]
    361 -> 328 [penwidth=2]
    26 -> 328 [penwidth=2]
    362 -> 328 [penwidth=2]
    27 -> 328 [penwidth=2]
    363 -> 328 [penwidth=2]
    28 -> 328 [penwidth=2]
    364 -> 328 [penwidth=2]
    29 -> 328 [penwidth=2]
    365 -> 328 [penwidth=2]
    30 -> 329 [penwidth=2]
    366 -> 329 [penwidth=2]
    31 -> 329 [penwidth=2]
    367 -> 329 [penwidth=2]
    32 -> 329 [penwidth=2]
    368 -> 329 [penwidth=2]
    33 -> 329 [penwidth=2]
    369 -> 329 [penwidth=2]
    34 -> 329 [penwidth=2]
    370 -> 331 [penwidth=2]
    35 -> 331 [penwidth=2]
    371 -> 331 [penwidth=2]
    36 -> 331 [penwidth=2]
    372 -> 331 [penwidth=2]
    37 -> 331 [penwidth=2]
    373 -> 331 [penwidth=2]
    38 -> 331 [penwidth=2]
    374 -> 331 [penwidth=2]
    39 -> 331 [penwidth=2]
    375 -> 331 [penwidth=2]
    40 -> 331 [penwidth=2]
    376 -> 331 [penwidth=2]
    41 -> 331 [penwidth=2]
    377 -> 332 [penwidth=2]
    42 -> 332 [penwidth=2]
    378 -> 332 [penwidth=2]
    1 -> 332 [penwidth=2]
    43 -> 332 [penwidth=2]
    379 -> 332 [penwidth=2]
    2 -> 332 [penwidth=2]
    44 -> 332 [penwidth=2]
    380 -> 332 [penwidth=2]
    3 -> 332 [penwidth=2]
    45 -> 332 [penwidth=2]
    381 -> 332 [penwidth=2]
    4 -> 332 [penwidth=2]
    46 -> 332 [penwidth=2]
    382 -> 332 [penwidth=2]
    5 -> 332 [penwidth=2]
    47 -> 332 [penwidth=2]
    383 -> 332 [penwidth=2]
    6 -> 332 [penwidth=2]
    48 -> 333 [penwidth=2]
    384 -> 333 [penwidth=2]
    7 -> 333 [penwidth=2]
    49 -> 333 [penwidth=2]
    385 -> 333 [penwidth=2]
    8 -> 333 [penwidth=2]
    50 -> 333 [penwidth=2]
    386 -> 333 [penwidth=2]
    9 -> 333 [penwidth=2]
    51 -> 333 [penwidth=2]
    387 -> 333 [penwidth=2]
    10 -> 333 [penwidth=2]
    52 -> 333 [penwidth=2]
    388 -> 333 [penwidth=2]
    11 -> 333 [penwidth=2]
    53 -> 334 [penwidth=2]
    389 -> 334 [penwidth=2]
    12 -> 334 [penwidth=2]
    54 -> 334 [penwidth=2]
    390 -> 334 [penwidth=2]
    13 -> 334 [penwidth=2]
    14 -> 334 [penwidth=2]
    56 -> 309 [penwidth=2]
    339 -> 325 [penwidth=2]
    339 -> 321 [penwidth=2]
    339 -> 324 [penwidth=2]
    339 -> 320 [penwidth=2]
    339 -> 313 [penwidth=2]
    339 -> 322 [penwidth=2]
    339 -> 318 [penwidth=2]
    339 -> 315 [penwidth=2]
    339 -> 336 [penwidth=2]
    339 -> 312 [penwidth=2]
    339 -> 326 [penwidth=2]
    339 -> 334 [penwidth=2]
    339 -> 314 [penwidth=2]
    339 -> 330 [penwidth=2]
    339 -> 316 [penwidth=2]
    339 -> 56 [penwidth=2]
    339 -> 332 [penwidth=2]
    339 -> 335 [penwidth=2]
    339 -> 331 [penwidth=2]
    339 -> 328 [penwidth=2]
    339 -> 337 [penwidth=2]
    339 -> 327 [penwidth=2]
    339 -> 319 [penwidth=2]
    339 -> 323 [penwidth=2]
    339 -> 55 [penwidth=2]
    339 -> 333 [penwidth=2]
    343 -> 317 [penwidth=2]
    343 -> 322 [penwidth=2]
    343 -> 325 [penwidth=2]
    343 -> 334 [penwidth=2]
    343 -> 332 [penwidth=2]
    343 -> 330 [penwidth=2]
    343 -> 313 [penwidth=2]
    343 -> 320 [penwidth=2]
    343 -> 328 [penwidth=2]
    343 -> 336 [penwidth=2]
    343 -> 319 [penwidth=2]
    343 -> 315 [penwidth=2]
    343 -> 316 [penwidth=2]
    343 -> 318 [penwidth=2]
    343 -> 55 [penwidth=2]
    343 -> 331 [penwidth=2]
    343 -> 326 [penwidth=2]
    343 -> 56 [penwidth=2]
    349 -> 316 [penwidth=2]
    349 -> 322 [penwidth=2]
    349 -> 326 [penwidth=2]
    349 -> 315 [penwidth=2]
    349 -> 314 [penwidth=2]
    349 -> 312 [penwidth=2]
    349 -> 327 [penwidth=2]
    349 -> 317 [penwidth=2]
    349 -> 323 [penwidth=2]
    349 -> 56 [penwidth=2]
    349 -> 320 [penwidth=2]
    349 -> 333 [penwidth=2]
    349 -> 331 [penwidth=2]
    349 -> 321 [penwidth=2]
    349 -> 318 [penwidth=2]
    349 -> 313 [penwidth=2]
    349 -> 325 [penwidth=2]
    349 -> 337 [penwidth=2]
    349 -> 328 [penwidth=2]
    349 -> 332 [penwidth=2]
    286 -> 318 [penwidth=2]
    286 -> 328 [penwidth=2]
    286 -> 315 [penwidth=2]
    286 -> 319 [penwidth=2]
    286 -> 322 [penwidth=2]
    286 -> 56 [penwidth=2]
    286 -> 320 [penwidth=2]
    286 -> 326 [penwidth=2]
    286 -> 312 [penwidth=2]
    286 -> 337 [penwidth=2]
    286 -> 324 [penwidth=2]
    286 -> 313 [penwidth=2]
    286 -> 311 [penwidth=2]
    286 -> 327 [penwidth=2]
    286 -> 333 [penwidth=2]
    286 -> 323 [penwidth=2]
    286 -> 330 [penwidth=2]
    286 -> 317 [penwidth=2]
    286 -> 331 [penwidth=2]
    286 -> 329 [penwidth=2]
    286 -> 336 [penwidth=2]
    286 -> 321 [penwidth=2]
    286 -> 325 [penwidth=2]
    286 -> 334 [penwidth=2]
    286 -> 335 [penwidth=2]
    286 -> 55 [penwidth=2]
    286 -> 316 [penwidth=2]
    287 -> 326 [penwidth=2]
    287 -> 312 [penwidth=2]
    287 -> 327 [penwidth=2]
    287 -> 324 [penwidth=2]
    287 -> 329 [penwidth=2]
    287 -> 318 [penwidth=2]
    287 -> 337 [penwidth=2]
    287 -> 328 [penwidth=2]
    287 -> 313 [penwidth=2]
    287 -> 323 [penwidth=2]
    287 -> 332 [penwidth=2]
    287 -> 335 [penwidth=2]
    287 -> 325 [penwidth=2]
    287 -> 317 [penwidth=2]
    287 -> 331 [penwidth=2]
    287 -> 55 [penwidth=2]
    287 -> 319 [penwidth=2]
    287 -> 334 [penwidth=2]
    287 -> 56 [penwidth=2]
    287 -> 314 [penwidth=2]
    248 -> 313 [penwidth=2]
    248 -> 333 [penwidth=2]
    248 -> 321 [penwidth=2]
    248 -> 317 [penwidth=2]
    248 -> 329 [penwidth=2]
    248 -> 323 [penwidth=2]
    248 -> 331 [penwidth=2]
    248 -> 314 [penwidth=2]
    248 -> 330 [penwidth=2]
    248 -> 334 [penwidth=2]
    248 -> 326 [penwidth=2]
    248 -> 328 [penwidth=2]
    248 -> 324 [penwidth=2]
    248 -> 337 [penwidth=2]
    248 -> 55 [penwidth=2]
    248 -> 56 [penwidth=2]
    253 -> 332 [penwidth=2]
    253 -> 333 [penwidth=2]
    253 -> 322 [penwidth=2]
    253 -> 321 [penwidth=2]
    253 -> 55 [penwidth=2]
    253 -> 323 [penwidth=2]
    253 -> 334 [penwidth=2]
    253 -> 335 [penwidth=2]
    253 -> 331 [penwidth=2]
    253 -> 325 [penwidth=2]
    253 -> 326 [penwidth=2]
    253 -> 313 [penwidth=2]
    253 -> 324 [penwidth=2]
    253 -> 312 [penwidth=2]
    253 -> 311 [penwidth=2]
    253 -> 56 [penwidth=2]
    253 -> 319 [penwidth=2]
    253 -> 329 [penwidth=2]
    253 -> 336 [penwidth=2]
    253 -> 327 [penwidth=2]
    253 -> 328 [penwidth=2]
    253 -> 330 [penwidth=2]
    254 -> 337 [penwidth=2]
    254 -> 333 [penwidth=2]
    254 -> 326 [penwidth=2]
    254 -> 313 [penwidth=2]
    300 -> 315 [penwidth=2]
    300 -> 327 [penwidth=2]
    300 -> 331 [penwidth=2]
    300 -> 326 [penwidth=2]
    300 -> 333 [penwidth=2]
    300 -> 330 [penwidth=2]
    300 -> 334 [penwidth=2]
    300 -> 325 [penwidth=2]
    300 -> 336 [penwidth=2]
    300 -> 318 [penwidth=2]
    300 -> 321 [penwidth=2]
    300 -> 56 [penwidth=2]
    300 -> 317 [penwidth=2]
    300 -> 313 [penwidth=2]
    300 -> 320 [penwidth=2]
    300 -> 55 [penwidth=2]
    300 -> 337 [penwidth=2]
    300 -> 329 [penwidth=2]
    300 -> 323 [penwidth=2]
    300 -> 324 [penwidth=2]
    300 -> 311 [penwidth=2]
    186 -> 329 [penwidth=2]
    186 -> 313 [penwidth=2]
    186 -> 322 [penwidth=2]
    186 -> 318 [penwidth=2]
    186 -> 311 [penwidth=2]
    195 -> 331 [penwidth=2]
    195 -> 316 [penwidth=2]
    195 -> 322 [penwidth=2]
    195 -> 313 [penwidth=2]
    195 -> 320 [penwidth=2]
    195 -> 329 [penwidth=2]
    195 -> 312 [penwidth=2]
    206 -> 334 [penwidth=2]
    206 -> 321 [penwidth=2]
    206 -> 337 [penwidth=2]
    206 -> 317 [penwidth=2]
    206 -> 319 [penwidth=2]
    206 -> 56 [penwidth=2]
    206 -> 322 [penwidth=2]
    206 -> 333 [penwidth=2]
    206 -> 327 [penwidth=2]
    206 -> 330 [penwidth=2]
    206 -> 316 [penwidth=2]
    206 -> 329 [penwidth=2]
    206 -> 332 [penwidth=2]
    206 -> 331 [penwidth=2]
    206 -> 313 [penwidth=2]
    206 -> 55 [penwidth=2]
    206 -> 314 [penwidth=2]
    206 -> 325 [penwidth=2]
    206 -> 328 [penwidth=2]
    206 -> 315 [penwidth=2]
    206 -> 320 [penwidth=2]
    207 -> 326 [penwidth=2]
    207 -> 321 [penwidth=2]
    207 -> 322 [penwidth=2]
    207 -> 314 [penwidth=2]
    207 -> 329 [penwidth=2]
    220 -> 328 [penwidth=2]
    220 -> 334 [penwidth=2]
    220 -> 325 [penwidth=2]
    220 -> 332 [penwidth=2]
    220 -> 330 [penwidth=2]
    220 -> 55 [penwidth=2]
    220 -> 324 [penwidth=2]
    220 -> 318 [penwidth=2]
    220 -> 327 [penwidth=2]
    220 -> 331 [penwidth=2]
    220 -> 322 [penwidth=2]
    101 -> 323 [penwidth=2]
    146 -> 327 [penwidth=2]
    146 -> 334 [penwidth=2]
    146 -> 329 [penwidth=2]
    146 -> 315 [penwidth=2]
    146 -> 316 [penwidth=2]
    146 -> 336 [penwidth=2]
    146 -> 312 [penwidth=2]
    146 -> 314 [penwidth=2]
    146 -> 333 [penwidth=2]
    146 -> 326 [penwidth=2]
    146 -> 56 [penwidth=2]
    146 -> 323 [penwidth=2]
    146 -> 337 [penwidth=2]
    146 -> 330 [penwidth=2]
    106 -> 333 [penwidth=2]
    106 -> 337 [penwidth=2]
    106 -> 323 [penwidth=2]
    106 -> 318 [penwidth=2]
    106 -> 319 [penwidth=2]
    106 -> 312 [penwidth=2]
    106 -> 314 [penwidth=2]
    106 -> 330 [penwidth=2]
    106 -> 336 [penwidth=2]
    106 -> 326 [penwidth=2]
    106 -> 321 [penwidth=2]
    106 -> 56 [penwidth=2]
    106 -> 311 [penwidth=2]
    106 -> 329 [penwidth=2]
    106 -> 316 [penwidth=2]
    106 -> 325 [penwidth=2]
    106 -> 317 [penwidth=2]
    106 -> 327 [penwidth=2]
    106 -> 334 [penwidth=2]
    106 -> 322 [penwidth=2]
    106 -> 328 [penwidth=2]
    106 -> 331 [penwidth=2]
    106 -> 324 [penwidth=2]
    106 -> 315 [penwidth=2]
    150 -> 323 [penwidth=2]
    150 -> 325 [penwidth=2]
    150 -> 319 [penwidth=2]
    150 -> 327 [penwidth=2]
    150 -> 328 [penwidth=2]
    150 -> 313 [penwidth=2]
    150 -> 334 [penwidth=2]
    150 -> 316 [penwidth=2]
    150 -> 332 [penwidth=2]
    150 -> 333 [penwidth=2]
    150 -> 330 [penwidth=2]
    150 -> 335 [penwidth=2]
    150 -> 317 [penwidth=2]
    150 -> 55 [penwidth=2]
    150 -> 337 [penwidth=2]
    150 -> 315 [penwidth=2]
    150 -> 322 [penwidth=2]
    150 -> 318 [penwidth=2]
    150 -> 336 [penwidth=2]
    150 -> 314 [penwidth=2]
    150 -> 331 [penwidth=2]
    150 -> 324 [penwidth=2]
    150 -> 312 [penwidth=2]
    150 -> 56 [penwidth=2]
    150 -> 326 [penwidth=2]
    150 -> 329 [penwidth=2]
    114 -> 314 [penwidth=2]
    114 -> 321 [penwidth=2]
    114 -> 311 [penwidth=2]
    114 -> 313 [penwidth=2]
    114 -> 331 [penwidth=2]
    114 -> 326 [penwidth=2]
    114 -> 333 [penwidth=2]
    114 -> 328 [penwidth=2]
    114 -> 335 [penwidth=2]
    114 -> 330 [penwidth=2]
    114 -> 327 [penwidth=2]
    114 -> 329 [penwidth=2]
    114 -> 56 [penwidth=2]
    158 -> 327 [penwidth=2]
    158 -> 333 [penwidth=2]
    158 -> 329 [penwidth=2]
    158 -> 320 [penwidth=2]
    158 -> 337 [penwidth=2]
    122 -> 332 [penwidth=2]
    122 -> 336 [penwidth=2]
    122 -> 317 [penwidth=2]
    122 -> 331 [penwidth=2]
    122 -> 328 [penwidth=2]
    122 -> 334 [penwidth=2]
    122 -> 329 [penwidth=2]
    122 -> 319 [penwidth=2]
    122 -> 55 [penwidth=2]
    123 -> 316 [penwidth=2]
    123 -> 313 [penwidth=2]
    123 -> 325 [penwidth=2]
    123 -> 319 [penwidth=2]
    123 -> 324 [penwidth=2]
    123 -> 314 [penwidth=2]
    123 -> 321 [penwidth=2]
    123 -> 337 [penwidth=2]
    123 -> 56 [penwidth=2]
    123 -> 330 [penwidth=2]
    123 -> 333 [penwidth=2]
    123 -> 312 [penwidth=2]
    124 -> 333 [penwidth=2]
    124 -> 334 [penwidth=2]
    124 -> 318 [penwidth=2]
    166 -> 319 [penwidth=2]
    166 -> 332 [penwidth=2]
    166 -> 327 [penwidth=2]
    166 -> 331 [penwidth=2]
    166 -> 335 [penwidth=2]
    166 -> 318 [penwidth=2]
    166 -> 311 [penwidth=2]
    166 -> 324 [penwidth=2]
    166 -> 314 [penwidth=2]
    126 -> 315 [penwidth=2]
    126 -> 330 [penwidth=2]
    126 -> 312 [penwidth=2]
    126 -> 317 [penwidth=2]
    126 -> 320 [penwidth=2]
    126 -> 331 [penwidth=2]
    126 -> 336 [penwidth=2]
    126 -> 313 [penwidth=2]
    129 -> 314 [penwidth=2]
    129 -> 320 [penwidth=2]
    129 -> 330 [penwidth=2]
    129 -> 328 [penwidth=2]
    129 -> 321 [penwidth=2]
    129 -> 317 [penwidth=2]
    177 -> 327 [penwidth=2]
    181 -> 323 [penwidth=2]
    181 -> 311 [penwidth=2]
    181 -> 55 [penwidth=2]
    181 -> 315 [penwidth=2]
    181 -> 316 [penwidth=2]
    181 -> 327 [penwidth=2]
    181 -> 336 [penwidth=2]
    181 -> 328 [penwidth=2]
    181 -> 332 [penwidth=2]
    181 -> 56 [penwidth=2]
    181 -> 334 [penwidth=2]
    181 -> 313 [penwidth=2]
    181 -> 317 [penwidth=2]
    181 -> 322 [penwidth=2]
    181 -> 321 [penwidth=2]
    181 -> 312 [penwidth=2]
    181 -> 330 [penwidth=2]
    181 -> 329 [penwidth=2]
    181 -> 331 [penwidth=2]
    181 -> 335 [penwidth=2]
    181 -> 325 [penwidth=2]
    181 -> 337 [penwidth=2]
    181 -> 314 [penwidth=2]
    80 -> 335 [penwidth=2]
    80 -> 320 [penwidth=2]
    80 -> 324 [penwidth=2]
    80 -> 311 [penwidth=2]
    80 -> 326 [penwidth=2]
    80 -> 315 [penwidth=2]
    80 -> 327 [penwidth=2]
    80 -> 313 [penwidth=2]
    80 -> 317 [penwidth=2]
    80 -> 321 [penwidth=2]
    80 -> 318 [penwidth=2]
    80 -> 337 [penwidth=2]
    80 -> 334 [penwidth=2]
    80 -> 55 [penwidth=2]
    80 -> 323 [penwidth=2]
    80 -> 314 [penwidth=2]
    83 -> 333 [penwidth=2]
    83 -> 311 [penwidth=2]
    83 -> 312 [penwidth=2]
    83 -> 331 [penwidth=2]
    83 -> 324 [penwidth=2]
    83 -> 336 [penwidth=2]
    83 -> 55 [penwidth=2]
    83 -> 332 [penwidth=2]
    83 -> 327 [penwidth=2]
    83 -> 325 [penwidth=2]
    83 -> 318 [penwidth=2]
    83 -> 321 [penwidth=2]
    83 -> 335 [penwidth=2]
    83 -> 314 [penwidth=2]
    83 -> 329 [penwidth=2]
    83 -> 315 [penwidth=2]
    83 -> 320 [penwidth=2]
    83 -> 323 [penwidth=2]
    83 -> 313 [penwidth=2]
    83 -> 319 [penwidth=2]
    83 -> 330 [penwidth=2]
    83 -> 317 [penwidth=2]
    83 -> 316 [penwidth=2]
    83 -> 328 [penwidth=2]
    393 -> 318 [penwidth=2]
    393 -> 320 [penwidth=2]
    393 -> 333 [penwidth=2]
    393 -> 311 [penwidth=2]
    393 -> 316 [penwidth=2]
    393 -> 328 [penwidth=2]
    393 -> 313 [penwidth=2]
    393 -> 55 [penwidth=2]
    393 -> 326 [penwidth=2]
    393 -> 322 [penwidth=2]
    393 -> 319 [penwidth=2]
    393 -> 315 [penwidth=2]
    393 -> 323 [penwidth=2]
    393 -> 56 [penwidth=2]
    393 -> 336 [penwidth=2]
    393 -> 332 [penwidth=2]
    393 -> 331 [penwidth=2]
    393 -> 325 [penwidth=2]
    393 -> 330 [penwidth=2]
    393 -> 329 [penwidth=2]
    393 -> 335 [penwidth=2]
    393 -> 324 [penwidth=2]
    393 -> 314 [penwidth=2]
    393 -> 337 [penwidth=2]
    393 -> 321 [penwidth=2]
    393 -> 317 [penwidth=2]
    358 -> 319 [penwidth=2]
    359 -> 331 [penwidth=2]
    359 -> 312 [penwidth=2]
    359 -> 315 [penwidth=2]
    359 -> 325 [penwidth=2]
    359 -> 335 [penwidth=2]
    359 -> 55 [penwidth=2]
    359 -> 311 [penwidth=2]
    359 -> 337 [penwidth=2]
    359 -> 336 [penwidth=2]
    359 -> 326 [penwidth=2]
    359 -> 330 [penwidth=2]
    359 -> 324 [penwidth=2]
    359 -> 334 [penwidth=2]
    359 -> 327 [penwidth=2]
    359 -> 314 [penwidth=2]
    359 -> 313 [penwidth=2]
    359 -> 318 [penwidth=2]
    359 -> 329 [penwidth=2]
    359 -> 319 [penwidth=2]
    359 -> 316 [penwidth=2]
    359 -> 56 [penwidth=2]
    359 -> 321 [penwidth=2]
    359 -> 332 [penwidth=2]
    359 -> 317 [penwidth=2]
    359 -> 323 [penwidth=2]
    360 -> 332 [penwidth=2]
    360 -> 315 [penwidth=2]
    360 -> 319 [penwidth=2]
    360 -> 313 [penwidth=2]
    360 -> 317 [penwidth=2]
    360 -> 321 [penwidth=2]
    360 -> 336 [penwidth=2]
    360 -> 329 [penwidth=2]
    360 -> 326 [penwidth=2]
    360 -> 337 [penwidth=2]
    360 -> 312 [penwidth=2]
    360 -> 323 [penwidth=2]
    360 -> 314 [penwidth=2]
    360 -> 325 [penwidth=2]
    25 -> 313 [penwidth=2]
    25 -> 317 [penwidth=2]
    25 -> 322 [penwidth=2]
    25 -> 329 [penwidth=2]
    362 -> 330 [penwidth=2]
    362 -> 316 [penwidth=2]
    362 -> 313 [penwidth=2]
    362 -> 322 [penwidth=2]
    362 -> 333 [penwidth=2]
    362 -> 319 [penwidth=2]
    362 -> 55 [penwidth=2]
    362 -> 323 [penwidth=2]
    362 -> 331 [penwidth=2]
    362 -> 312 [penwidth=2]
    364 -> 318 [penwidth=2]
    364 -> 56 [penwidth=2]
    364 -> 337 [penwidth=2]
    364 -> 335 [penwidth=2]
    364 -> 312 [penwidth=2]
    364 -> 316 [penwidth=2]
    364 -> 331 [penwidth=2]
    364 -> 313 [penwidth=2]
    364 -> 333 [penwidth=2]
    364 -> 329 [penwidth=2]
    364 -> 334 [penwidth=2]
    364 -> 325 [penwidth=2]
    364 -> 321 [penwidth=2]
    364 -> 320 [penwidth=2]
    364 -> 332 [penwidth=2]
    364 -> 326 [penwidth=2]
    364 -> 317 [penwidth=2]
    364 -> 315 [penwidth=2]
    364 -> 330 [penwidth=2]
    364 -> 327 [penwidth=2]
    32 -> 327 [penwidth=2]
    32 -> 324 [penwidth=2]
    32 -> 313 [penwidth=2]
    32 -> 331 [penwidth=2]
    32 -> 334 [penwidth=2]
    32 -> 318 [penwidth=2]
    32 -> 321 [penwidth=2]
    32 -> 314 [penwidth=2]
    32 -> 311 [penwidth=2]
    32 -> 336 [penwidth=2]
    32 -> 316 [penwidth=2]
    32 -> 317 [penwidth=2]
    32 -> 322 [penwidth=2]
    32 -> 56 [penwidth=2]
    32 -> 323 [penwidth=2]
    2 -> 326 [penwidth=2]
    2 -> 334 [penwidth=2]
    2 -> 312 [penwidth=2]
    2 -> 321 [penwidth=2]
    11 -> 336 [penwidth=2]
    11 -> 328 [penwidth=2]
    11 -> 314 [penwidth=2]
    11 -> 326 [penwidth=2]
    11 -> 332 [penwidth=2]
    11 -> 334 [penwidth=2]
    11 -> 311 [penwidth=2]
    11 -> 331 [penwidth=2]
    11 -> 330 [penwidth=2]
    11 -> 315 [penwidth=2]
    11 -> 329 [penwidth=2]
    11 -> 321 [penwidth=2]
    11 -> 327 [penwidth=2]
    11 -> 335 [penwidth=2]
    11 -> 320 [penwidth=2]
    11 -> 313 [penwidth=2]
    11 -> 318 [penwidth=2]
    11 -> 325 [penwidth=2]
    11 -> 316 [penwidth=2]
    11 -> 317 [penwidth=2]
    11 -> 324 [penwidth=2]
    12 -> 326 [penwidth=2]
    12 -> 322 [penwidth=2]
    12 -> 318 [penwidth=2]
    12 -> 331 [penwidth=2]
    12 -> 319 [penwidth=2]
    12 -> 336 [penwidth=2]
    12 -> 320 [penwidth=2]
    12 -> 337 [penwidth=2]
    12 -> 324 [penwidth=2]
    12 -> 325 [penwidth=2]
    12 -> 321 [penwidth=2]
    12 -> 55 [penwidth=2]
}