digraph G {
    0 [penwidth=3,label="0"]
    1 [penwidth=3,label="1"]
    2 [penwidth=3,label="2"]
    3 [penwidth=3,label="3"]
    4 [penwidth=3,label="4"]
    5 [penwidth=3,label="5"]
    6 [penwidth=3,label="6"]
    7 [penwidth=3,label="7"]
    8 [penwidth=3,label="8"]
    9 [penwidth=3,label="9"]
    10 [penwidth=3,label="10"]
    11 [penwidth=3,label="11"]
    12 [penwidth=3,label="12"]
    13 [penwidth=3,label="13"]
    14 [penwidth=3,label="14"]
    15 [penwidth=3,label="15"]
    16 [penwidth=3,label="16"]
    17 [penwidth=3,label="17"]
    18 [penwidth=3,label="18"]
    19 [penwidth=3,label="19"]
    20 [penwidth=3,label="20"]
    21 [penwidth=3,label="21"]
    22 [penwidth=3,label="22"]
    23 [penwidth=3,label="23"]
    24 [penwidth=3,label="24"]
    25 [penwidth=3,label="25"]
    26 [penwidth=3,label="26"]
    27 [penwidth=3,label="27"]
    28 [penwidth=3,label="28"]
    29 [penwidth=3,label="29"]
    30 [penwidth=3,label="30"]
    31 [penwidth=3,label="31"]
    32 [penwidth=3,label="32"]
    33 [penwidth=3,label="33"]
    34 [penwidth=3,label="34"]
    35 [penwidth=3,label="35"]
    36 [penwidth=3,label="36"]
    37 [penwidth=3,label="37"]
    38 [penwidth=3,label="38"]
    39 [penwidth=3,label="39"]
    40 [penwidth=3,label="40"]
    41 [penwidth=3,label="41"]
    42 [penwidth=3,label="42"]
    43 [penwidth=3,label="43"]
    44 [penwidth=3,label="44"]
    45 [penwidth=3,label="45"]
    46 [penwidth=3,label="46"]
    47 [penwidth=3,label="47"]
    48 [penwidth=3,label="48"]
    49 [penwidth=3,label="49"]
    50 [penwidth=3,label="50"]
    51 [penwidth=3,label="51"]
    52 [penwidth=3,label="52"]
    53 [penwidth=3,label="53"]
    54 [penwidth=3,label="54"]
    55 [penwidth=3,label="55"]
    56 [penwidth=3,label="56"]
    57 [penwidth=3,label="57"]
    58 [penwidth=3,label="58"]
    59 [penwidth=3,label="59"]
    60 [penwidth=3,label="60"]
    61 [penwidth=3,label="61"]
    62 [penwidth=3,label="62"]
    63 [penwidth=3,label="63"]
    64 [penwidth=3,label="64"]
    65 [penwidth=3,label="65"]
    66 [penwidth=3,label="66"]
    67 [penwidth=3,label="67"]
    68 [penwidth=3,label="68"]
    69 [penwidth=3,label="69"]
    70 [penwidth=3,label="70"]
    71 [penwidth=3,label="71"]
    72 [penwidth=3,label="72"]
    73 [penwidth=3,label="73"]
    74 [penwidth=3,label="74"]
    75 [penwidth=3,label="75"]
    76 [penwidth=3,label="76"]
    77 [penwidth=3,label="77"]
    78 [penwidth=3,label="78"]
    79 [penwidth=3,label="79"]
    80 [penwidth=3,label="80"]
    81 [penwidth=3,label="81"]
    82 [penwidth=3,label="82"]
    83 [penwidth=3,label="83"]
    84 [penwidth=3,label="84"]
    85 [penwidth=3,label="85"]
    86 [penwidth=3,label="86"]
    87 [penwidth=3,label="87"]
    88 [penwidth=3,label="88"]
    89 [penwidth=3,label="89"]
    90 [penwidth=3,label="90"]
    91 [penwidth=3,label="91"]
    92 [penwidth=3,label="92"]
    93 [penwidth=3,label="93"]
    94 [penwidth=3,label="94"]
    95 [penwidth=3,label="95"]
    96 [penwidth=3,label="96"]
    97 [penwidth=3,label="97"]
    98 [penwidth=3,label="98"]
    99 [penwidth=3,label="99"]
    100 [penwidth=3,label="100"]
    101 [penwidth=3,label="101"]
    102 [penwidth=3,label="102"]
    103 [penwidth=3,label="103"]
    104 [penwidth=3,label="104"]
    105 [penwidth=3,label="105"]
    106 [penwidth=3,label="106"]
    107 [penwidth=3,label="107"]
    108 [penwidth=3,label="108"]
    109 [penwidth=3,label="109"]
    110 [penwidth=3,label="110"]
    111 [penwidth=3,label="111"]
    112 [penwidth=3,label="112"]
    113 [penwidth=3,label="113"]
    114 [penwidth=3,label="114"]
    115 [penwidth=3,label="115"]
    116 [penwidth=3,label="116"]
    117 [penwidth=3,label="117"]
    118 [penwidth=3,label="118"]
    119 [penwidth=3,label="119"]
    120 [penwidth=3,label="120"]
    121 [penwidth=3,label="121"]
    122 [penwidth=3,label="122"]
    123 [penwidth=3,label="123"]
    124 [penwidth=3,label="124"]
    125 [penwidth=3,label="125"]
    126 [penwidth=3,label="126"]
    127 [penwidth=3,label="127"]
    128 [penwidth=3,label="128"]
    129 [penwidth=3,label="129"]
    130 [penwidth=3,label="130"]
    131 [penwidth=3,label="131"]
    132 [penwidth=3,label="132"]
    133 [penwidth=3,label="133"]
    134 [penwidth=3,label="134"]
    135 [penwidth=3,label="135"]
    136 [penwidth=3,label="136"]
    137 [penwidth=3,label="137"]
    138 [penwidth=3,label="138"]
    139 [penwidth=3,label="139"]
    140 [penwidth=3,label="140"]
    141 [penwidth=3,label="141"]
    142 [penwidth=3,label="142"]
    143 [penwidth=3,label="143"]
    144 [penwidth=3,label="144"]
    145 [penwidth=3,label="145"]
    146 [penwidth=3,label="146"]
    147 [penwidth=3,label="147"]
    148 [penwidth=3,label="148"]
    149 [penwidth=3,label="149"]
    150 [penwidth=3,label="150"]
    151 [penwidth=3,label="151"]
    152 [penwidth=3,label="152"]
    153 [penwidth=3,label="153"]
    154 [penwidth=3,label="154"]
    155 [penwidth=3,label="155"]
    156 [penwidth=3,label="156"]
    157 [penwidth=3,label="157"]
    158 [penwidth=3,label="158"]
    159 [penwidth=3,label="159"]
    160 [penwidth=3,label="160"]
    161 [penwidth=3,label="161"]
    162 [penwidth=3,label="162"]
    163 [penwidth=3,label="163"]
    164 [penwidth=3,label="164"]
    165 [penwidth=3,label="165"]
    166 [penwidth=3,label="166"]
    167 [penwidth=3,label="167"]
    168 [penwidth=3,label="168"]
    169 [penwidth=3,label="169"]
    170 [penwidth=3,label="170"]
    171 [penwidth=3,label="171"]
    172 [penwidth=3,label="172"]
    173 [penwidth=3,label="173"]
    174 [penwidth=3,label="174"]
    175 [penwidth=3,label="175"]
    176 [penwidth=3,label="176"]
    177 [penwidth=3,label="177"]
    178 [penwidth=3,label="178"]
    179 [penwidth=3,label="179"]
    180 [penwidth=3,label="180"]
    181 [penwidth=3,label="181"]
    182 [penwidth=3,label="182"]
    183 [penwidth=3,label="183"]
    184 [penwidth=3,label="184"]
    185 [penwidth=3,label="185"]
    186 [penwidth=3,label="186"]
    187 [penwidth=3,label="187"]
    188 [penwidth=3,label="188"]
    189 [penwidth=3,label="189"]
    190 [penwidth=3,label="190"]
    191 [penwidth=3,label="191"]
    192 [penwidth=3,label="192"]
    193 [penwidth=3,label="193"]
    194 [penwidth=3,label="194"]
    195 [penwidth=3,label="195"]
    196 [penwidth=3,label="196"]
    197 [penwidth=3,label="197"]
    198 [penwidth=3,label="198"]
    199 [penwidth=3,label="199"]
    200 [penwidth=3,label="200"]
    201 [penwidth=3,label="201"]
    202 [penwidth=3,label="202"]
    203 [penwidth=3,label="203"]
    204 [penwidth=3,label="204"]
    205 [penwidth=3,label="205"]
    206 [penwidth=3,label="206"]
    207 [penwidth=3,label="207"]
    208 [penwidth=3,label="208"]
    209 [penwidth=3,label="209"]
    210 [penwidth=3,label="210"]
    211 [penwidth=3,label="211"]
    212 [penwidth=3,label="212"]
    213 [penwidth=3,label="213"]
    214 [penwidth=3,label="214"]
    215 [penwidth=3,label="215"]
    216 [penwidth=3,label="216"]
    217 [penwidth=3,label="217"]
    218 [penwidth=3,label="218"]
    219 [penwidth=3,label="219"]
    220 [penwidth=3,label="220"]
    221 [penwidth=3,label="221"]
    222 [penwidth=3,label="222"]
    223 [penwidth=3,label="223"]
    224 [penwidth=3,label="224"]
    225 [penwidth=3,label="225"]
    226 [penwidth=3,label="226"]
    227 [penwidth=3,label="227"]
    228 [penwidth=3,label="228"]
    229 [penwidth=3,label="229"]
    230 [penwidth=3,label="230"]
    231 [penwidth=3,label="231"]
    232 [penwidth=3,label="232"]
    233 [penwidth=3,label="233"]
    234 [penwidth=3,label="234"]
    235 [penwidth=3,label="235"]
    236 [penwidth=3,label="236"]
    237 [penwidth=3,label="237"]
    238 [penwidth=3,label="238"]
    239 [penwidth=3,label="239"]
    240 [penwidth=3,label="240"]
    241 [penwidth=3,label="241"]
    242 [penwidth=3,label="242"]
    243 [penwidth=3,label="243"]
    244 [penwidth=3,label="244"]
    245 [penwidth=3,label="245"]
    246 [penwidth=3,label="246"]
    247 [penwidth=3,label="247"]
    248 [penwidth=3,label="248"]
    249 [penwidth=3,label="249"]
    250 [penwidth=3,label="250"]
    251 [penwidth=3,label="251"]
    252 [penwidth=3,label="252"]
    253 [penwidth=3,label="253"]
    254 [penwidth=3,label="254"]
    255 [penwidth=3,label="255"]
    256 [penwidth=3,label="256"]
    257 [penwidth=3,label="257"]
    258 [penwidth=3,label="258"]
    259 [penwidth=3,label="259"]
    260 [penwidth=3,label="260"]
    261 [penwidth=3,label="261"]
    262 [penwidth=3,label="262"]
    263 [penwidth=3,label="263"]
    264 [penwidth=3,label="264"]
    265 [penwidth=3,label="265"]
    266 [penwidth=3,label="266"]
    267 [penwidth=3,label="267"]
    268 [penwidth=3,label="268"]
    269 [penwidth=3,label="269"]
    270 [penwidth=3,label="270"]
    271 [penwidth=3,label="271"]
    272 [penwidth=3,label="272"]
    273 [penwidth=3,label="273"]
    274 [penwidth=3,label="274"]
    275 [penwidth=3,label="275"]
    276 [penwidth=3,label="276"]
    277 [penwidth=3,label="277"]
    278 [penwidth=3,label="278"]
    279 [penwidth=3,label="279"]
    280 [penwidth=3,label="280"]
    281 [penwidth=3,label="281"]
    282 [penwidth=3,label="282"]
    283 [penwidth=3,label="283"]
    284 [penwidth=3,label="284"]
    285 [penwidth=3,label="285"]
    286 [penwidth=3,label="286"]
    287 [penwidth=3,label="287"]
    288 [penwidth=3,label="288"]
    289 [penwidth=3,label="289"]
    290 [penwidth=3,label="290"]
    291 [penwidth=3,label="291"]
    292 [penwidth=3,label="292"]
    293 [penwidth=3,label="293"]
    294 [penwidth=3,label="294"]
    295 [penwidth=3,label="295"]
    296 [penwidth=3,label="296"]
    297 [penwidth=3,label="297"]
    298 [penwidth=3,label="298"]
    299 [penwidth=3,label="299"]
    300 [penwidth=3,label="300"]
    301 [penwidth=3,label="301"]
    302 [penwidth=3,label="302"]
    303 [penwidth=3,label="303"]
    304 [penwidth=3,label="304"]
    305 [penwidth=3,label="305"]
    306 [penwidth=3,label="306"]
    307 [penwidth=3,label="307"]
    308 [penwidth=3,label="308"]
    309 [penwidth=3,label="309"]
    310 [penwidth=3,label="310"]
    311 [penwidth=3,label="311"]
    312 [penwidth=3,label="312"]
    313 [penwidth=3,label="313"]
    314 [penwidth=3,label="314"]
    315 [penwidth=3,label="315"]
    316 [penwidth=3,label="316"]
    317 [penwidth=3,label="317"]
    318 [penwidth=3,label="318"]
    319 [penwidth=3,label="319"]
    320 [penwidth=3,label="320"]
    321 [penwidth=3,label="321"]
    322 [penwidth=3,label="322"]
    323 [penwidth=3,label="323"]
    324 [penwidth=3,label="324"]
    325 [penwidth=3,label="325"]
    326 [penwidth=3,label="326"]
    327 [penwidth=3,label="327"]
    328 [penwidth=3,label="328"]
    329 [penwidth=3,label="329"]
    330 [penwidth=3,label="330"]
    331 [penwidth=3,label="331"]
    332 [penwidth=3,label="332"]
    333 [penwidth=3,label="333"]
    334 [penwidth=3,label="334"]
    335 [penwidth=3,label="335"]
    336 [penwidth=3,label="336"]
    337 [penwidth=3,label="337"]
    338 [penwidth=3,label="338"]
    339 [penwidth=3,label="339"]
    340 [penwidth=3,label="340"]
    341 [penwidth=3,label="341"]
    342 [penwidth=3,label="342"]
    343 [penwidth=3,label="343"]
    344 [penwidth=3,label="344"]
    345 [penwidth=3,label="345"]
    346 [penwidth=3,label="346"]
    347 [penwidth=3,label="347"]
    348 [penwidth=3,label="348"]
    349 [penwidth=3,label="349"]
    350 [penwidth=3,label="350"]
    351 [penwidth=3,label="351"]
    352 [penwidth=3,label="352"]
    353 [penwidth=3,label="353"]
    354 [penwidth=3,label="354"]
    355 [penwidth=3,label="355"]
    356 [penwidth=3,label="356"]
    357 [penwidth=3,label="357"]
    358 [penwidth=3,label="358"]
    359 [penwidth=3,label="359"]
    360 [penwidth=3,label="360"]
    361 [penwidth=3,label="361"]
    362 [penwidth=3,label="362"]
    363 [penwidth=3,label="363"]
    364 [penwidth=3,label="364"]
    365 [penwidth=3,label="365"]
    366 [penwidth=3,label="366"]
    367 [penwidth=3,label="367"]
    368 [penwidth=3,label="368"]
    369 [penwidth=3,label="369"]
    370 [penwidth=3,label="370"]
    371 [penwidth=3,label="371"]
    372 [penwidth=3,label="372"]
    373 [penwidth=3,label="373"]
    374 [penwidth=3,label="374"]
    375 [penwidth=3,label="375"]
    376 [penwidth=3,label="376"]
    377 [penwidth=3,label="377"]
    378 [penwidth=3,label="378"]
    379 [penwidth=3,label="379"]
    380 [penwidth=3,label="380"]
    381 [penwidth=3,label="381"]
    382 [penwidth=3,label="382"]
    383 [penwidth=3,label="383"]
    384 [penwidth=3,label="384"]
    385 [penwidth=3,label="385"]
    386 [penwidth=3,label="386"]
    387 [penwidth=3,label="387"]
    388 [penwidth=3,label="388"]
    389 [penwidth=3,label="389"]
    390 [penwidth=3,label="390"]
    391 [penwidth=3,label="391"]
    392 [penwidth=3,label="392"]
    393 [penwidth=3,label="393"]
    394 [penwidth=3,label="394"]
    395 [penwidth=3,label="395"]
    396 [penwidth=3,label="396"]
    397 [penwidth=3,label="397"]
    398 [penwidth=3,label="398"]
    399 [penwidth=3,label="399"]

    213 -> 0 [penwidth=2]
    214 -> 0 [penwidth=2]
    215 -> 0 [penwidth=2]
    216 -> 0 [penwidth=2]
    217 -> 0 [penwidth=2]
    218 -> 0 [penwidth=2]
    219 -> 213 [penwidth=2]
    220 -> 213 [penwidth=2]
    221 -> 213 [penwidth=2]
    222 -> 213 [penwidth=2]
    223 -> 213 [penwidth=2]
    224 -> 213 [penwidth=2]
    225 -> 213 [penwidth=2]
    226 -> 213 [penwidth=2]
    227 -> 214 [penwidth=2]
    228 -> 214 [penwidth=2]
    229 -> 214 [penwidth=2]
    230 -> 214 [penwidth=2]
    231 -> 214 [penwidth=2]
    232 -> 214 [penwidth=2]
    233 -> 214 [penwidth=2]
    234 -> 214 [penwidth=2]
    235 -> 214 [penwidth=2]
    236 -> 214 [penwidth=2]
    237 -> 214 [penwidth=2]
    238 -> 214 [penwidth=2]
    239 -> 214 [penwidth=2]
    240 -> 214 [penwidth=2]
    241 -> 214 [penwidth=2]
    242 -> 214 [penwidth=2]
    243 -> 214 [penwidth=2]
    244 -> 214 [penwidth=2]
    245 -> 214 [penwidth=2]
    246 -> 214 [penwidth=2]
    247 -> 214 [penwidth=2]
    248 -> 214 [penwidth=2]
    249 -> 215 [penwidth=2]
    250 -> 215 [penwidth=2]
    251 -> 215 [penwidth=2]
    252 -> 215 [penwidth=2]
    253 -> 215 [penwidth=2]
    254 -> 215 [penwidth=2]
    255 -> 215 [penwidth=2]
    381 -> 215 [penwidth=2]
    256 -> 215 [penwidth=2]
    382 -> 216 [penwidth=2]
    257 -> 216 [penwidth=2]
    383 -> 216 [penwidth=2]
    258 -> 216 [penwidth=2]
    384 -> 216 [penwidth=2]
    259 -> 216 [penwidth=2]
    385 -> 216 [penwidth=2]
    260 -> 216 [penwidth=2]
    386 -> 216 [penwidth=2]
    261 -> 216 [penwidth=2]
    387 -> 216 [penwidth=2]
    262 -> 216 [penwidth=2]
    388 -> 216 [penwidth=2]
    263 -> 216 [penwidth=2]
    389 -> 216 [penwidth=2]
    264 -> 216 [penwidth=2]
    390 -> 216 [penwidth=2]
    265 -> 216 [penwidth=2]
    391 -> 216 [penwidth=2]
    266 -> 216 [penwidth=2]
    392 -> 216 [penwidth=2]
    267 -> 217 [penwidth=2]
    393 -> 217 [penwidth=2]
    268 -> 217 [penwidth=2]
    394 -> 217 [penwidth=2]
    269 -> 217 [penwidth=2]
    395 -> 217 [penwidth=2]
    270 -> 217 [penwidth=2]
    396 -> 218 [penwidth=2]
    271 -> 218 [penwidth=2]
    397 -> 218 [penwidth=2]
    272 -> 218 [penwidth=2]
    398 -> 218 [penwidth=2]
    273 -> 218 [penwidth=2]
    399 -> 218 [penwidth=2]
    274 -> 218 [penwidth=2]
    275 -> 218 [penwidth=2]
    276 -> 218 [penwidth=2]
    277 -> 218 [penwidth=2]
    278 -> 218 [penwidth=2]
    279 -> 218 [penwidth=2]
    280 -> 218 [penwidth=2]
    281 -> 218 [penwidth=2]
    282 -> 218 [penwidth=2]
    283 -> 218 [penwidth=2]
    284 -> 218 [penwidth=2]
    285 -> 218 [penwidth=2]
    286 -> 218 [penwidth=2]
    287 -> 218 [penwidth=2]
    288 -> 218 [penwidth=2]
    289 -> 218 [penwidth=2]
    290 -> 218 [penwidth=2]
    291 -> 218 [penwidth=2]
    292 -> 218 [penwidth=2]
    293 -> 218 [penwidth=2]
    294 -> 219 [penwidth=2]
    295 -> 219 [penwidth=2]
    296 -> 219 [penwidth=2]
    3 -> 219 [penwidth=2]
    171 -> 219 [penwidth=2]
    339 -> 219 [penwidth=2]
    4 -> 219 [penwidth=2]
    172 -> 219 [penwidth=2]
    340 -> 219 [penwidth=2]
    5 -> 219 [penwidth=2]
    173 -> 219 [penwidth=2]
    341 -> 219 [penwidth=2]
    6 -> 219 [penwidth=2]
    174 -> 219 [penwidth=2]
    342 -> 219 [penwidth=2]
    7 -> 219 [penwidth=2]
    175 -> 219 [penwidth=2]
    343 -> 219 [penwidth=2]
    8 -> 219 [penwidth=2]
    176 -> 219 [penwidth=2]
    344 -> 219 [penwidth=2]
    9 -> 220 [penwidth=2]
    177 -> 220 [penwidth=2]
    345 -> 220 [penwidth=2]
    10 -> 220 [penwidth=2]
    178 -> 220 [penwidth=2]
    346 -> 220 [penwidth=2]
    11 -> 220 [penwidth=2]
    179 -> 220 [penwidth=2]
    347 -> 220 [penwidth=2]
    12 -> 220 [penwidth=2]
    180 -> 220 [penwidth=2]
    348 -> 220 [penwidth=2]
    13 -> 220 [penwidth=2]
    181 -> 220 [penwidth=2]
    349 -> 220 [penwidth=2]
    14 -> 220 [penwidth=2]
    182 -> 220 [penwidth=2]
    350 -> 221 [penwidth=2]
    15 -> 221 [penwidth=2]
    183 -> 221 [penwidth=2]
    351 -> 221 [penwidth=2]
    16 -> 221 [penwidth=2]
    184 -> 221 [penwidth=2]
    352 -> 221 [penwidth=2]
    17 -> 221 [penwidth=2]
    185 -> 221 [penwidth=2]
    353 -> 221 [penwidth=2]
    18 -> 221 [penwidth=2]
    186 -> 222 [penwidth=2]
    354 -> 222 [penwidth=2]
    19 -> 222 [penwidth=2]
    187 -> 222 [penwidth=2]
    355 -> 222 [penwidth=2]
    20 -> 222 [penwidth=2]
    188 -> 222 [penwidth=2]
    356 -> 222 [penwidth=2]
    21 -> 222 [penwidth=2]
    189 -> 222 [penwidth=2]
    357 -> 222 [penwidth=2]
    22 -> 222 [penwidth=2]
    190 -> 222 [penwidth=2]
    358 -> 222 [penwidth=2]
    23 -> 222 [penwidth=2]
    191 -> 222 [penwidth=2]
    359 -> 222 [penwidth=2]
    24 -> 223 [penwidth=2]
    192 -> 224 [penwidth=2]
    360 -> 224 [penwidth=2]
    25 -> 224 [penwidth=2]
    193 -> 224 [penwidth=2]
    361 -> 224 [penwidth=2]
    26 -> 224 [penwidth=2]
    194 -> 224 [penwidth=2]
    362 -> 224 [penwidth=2]
    27 -> 224 [penwidth=2]
    195 -> 224 [penwidth=2]
    363 -> 224 [penwidth=2]
    28 -> 224 [penwidth=2]
    196 -> 224 [penwidth=2]
    364 -> 224 [penwidth=2]
    29 -> 224 [penwidth=2]
    197 -> 225 [penwidth=2]
    365 -> 225 [penwidth=2]
    30 -> 225 [penwidth=2]
    198 -> 225 [penwidth=2]
    366 -> 225 [penwidth=2]
    31 -> 225 [penwidth=2]
    199 -> 225 [penwidth=2]
    367 -> 225 [penwidth=2]
    32 -> 225 [penwidth=2]
    200 -> 225 [penwidth=2]
    368 -> 225 [penwidth=2]
    33 -> 225 [penwidth=2]
    201 -> 225 [penwidth=2]
    369 -> 225 [penwidth=2]
    34 -> 225 [penwidth=2]
    202 -> 225 [penwidth=2]
    370 -> 225 [penwidth=2]
    35 -> 225 [penwidth=2]
    203 -> 225 [penwidth=2]
    371 -> 225 [penwidth=2]
    36 -> 225 [penwidth=2]
    204 -> 225 [penwidth=2]
    372 -> 225 [penwidth=2]
    37 -> 225 [penwidth=2]
    205 -> 226 [penwidth=2]
    373 -> 226 [penwidth=2]
    38 -> 226 [penwidth=2]
    206 -> 226 [penwidth=2]
    374 -> 226 [penwidth=2]
    39 -> 226 [penwidth=2]
    207 -> 226 [penwidth=2]
    375 -> 226 [penwidth=2]
    40 -> 226 [penwidth=2]
    208 -> 226 [penwidth=2]
    376 -> 226 [penwidth=2]
    41 -> 226 [penwidth=2]
    209 -> 227 [penwidth=2]
    377 -> 227 [penwidth=2]
    42 -> 227 [penwidth=2]
    210 -> 227 [penwidth=2]
    378 -> 227 [penwidth=2]
    211 -> 227 [penwidth=2]
    43 -> 227 [penwidth=2]
    379 -> 227 [penwidth=2]
    212 -> 227 [penwidth=2]
    44 -> 227 [penwidth=2]
    380 -> 227 [penwidth=2]
    297 -> 227 [penwidth=2]
    298 -> 227 [penwidth=2]
    299 -> 227 [penwidth=2]
    300 -> 228 [penwidth=2]
    301 -> 228 [penwidth=2]
    302 -> 228 [penwidth=2]
    303 -> 228 [penwidth=2]
    304 -> 228 [penwidth=2]
    305 -> 228 [penwidth=2]
    306 -> 229 [penwidth=2]
    307 -> 229 [penwidth=2]
    308 -> 229 [penwidth=2]
    309 -> 229 [penwidth=2]
    310 -> 229 [penwidth=2]
    311 -> 229 [penwidth=2]
    312 -> 229 [penwidth=2]
    313 -> 229 [penwidth=2]
    314 -> 230 [penwidth=2]
    315 -> 230 [penwidth=2]
    316 -> 230 [penwidth=2]
    317 -> 230 [penwidth=2]
    318 -> 230 [penwidth=2]
    319 -> 230 [penwidth=2]
    320 -> 230 [penwidth=2]
    321 -> 230 [penwidth=2]
    322 -> 230 [penwidth=2]
    323 -> 230 [penwidth=2]
    324 -> 230 [penwidth=2]
    325 -> 230 [penwidth=2]
    326 -> 230 [penwidth=2]
    327 -> 230 [penwidth=2]
    328 -> 230 [penwidth=2]
    329 -> 230 [penwidth=2]
    330 -> 230 [penwidth=2]
    331 -> 230 [penwidth=2]
    332 -> 230 [penwidth=2]
    333 -> 230 [penwidth=2]
    334 -> 230 [penwidth=2]
    335 -> 230 [penwidth=2]
    336 -> 230 [penwidth=2]
    1 -> 230 [penwidth=2]
    337 -> 230 [penwidth=2]
    2 -> 230 [penwidth=2]
    338 -> 230 [penwidth=2]
    129 -> 230 [penwidth=2]
    130 -> 231 [penwidth=2]
    131 -> 231 [penwidth=2]
    132 -> 231 [penwidth=2]
    133 -> 231 [penwidth=2]
    134 -> 231 [penwidth=2]
    135 -> 231 [penwidth=2]
    136 -> 231 [penwidth=2]
    137 -> 231 [penwidth=2]
    138 -> 231 [penwidth=2]
    139 -> 231 [penwidth=2]
    140 -> 231 [penwidth=2]
    141 -> 231 [penwidth=2]
    142 -> 231 [penwidth=2]
    143 -> 231 [penwidth=2]
    144 -> 231 [penwidth=2]
    145 -> 231 [penwidth=2]
    146 -> 231 [penwidth=2]
    147 -> 231 [penwidth=2]
    148 -> 232 [penwidth=2]
    149 -> 232 [penwidth=2]
    150 -> 232 [penwidth=2]
    151 -> 232 [penwidth=2]
    152 -> 232 [penwidth=2]
    153 -> 232 [penwidth=2]
    154 -> 232 [penwidth=2]
    155 -> 232 [penwidth=2]
    156 -> 233 [penwidth=2]
    157 -> 233 [penwidth=2]
    158 -> 233 [penwidth=2]
    159 -> 233 [penwidth=2]
    160 -> 233 [penwidth=2]
    161 -> 233 [penwidth=2]
    162 -> 234 [penwidth=2]
    163 -> 234 [penwidth=2]
    164 -> 234 [penwidth=2]
    165 -> 234 [penwidth=2]
    166 -> 234 [penwidth=2]
    167 -> 234 [penwidth=2]
    168 -> 234 [penwidth=2]
    169 -> 234 [penwidth=2]
    170 -> 234 [penwidth=2]
    45 -> 234 [penwidth=2]
    87 -> 234 [penwidth=2]
    46 -> 234 [penwidth=2]
    88 -> 234 [penwidth=2]
    47 -> 234 [penwidth=2]
    85 -> 234 [penwidth=2]
    89 -> 234 [penwidth=2]
    48 -> 234 [penwidth=2]
    90 -> 234 [penwidth=2]
    49 -> 234 [penwidth=2]
    91 -> 234 [penwidth=2]
    50 -> 234 [penwidth=2]
    92 -> 234 [penwidth=2]
    51 -> 234 [penwidth=2]
    93 -> 234 [penwidth=2]
    52 -> 234 [penwidth=2]
    86 -> 235 [penwidth=2]
    94 -> 235 [penwidth=2]
    53 -> 235 [penwidth=2]
    95 -> 235 [penwidth=2]
    54 -> 235 [penwidth=2]
    96 -> 235 [penwidth=2]
    55 -> 235 [penwidth=2]
    97 -> 235 [penwidth=2]
    56 -> 235 [penwidth=2]
    98 -> 235 [penwidth=2]
    57 -> 235 [penwidth=2]
    99 -> 235 [penwidth=2]
    58 -> 235 [penwidth=2]
    100 -> 235 [penwidth=2]
    59 -> 235 [penwidth=2]
    101 -> 236 [penwidth=2]
    60 -> 236 [penwidth=2]
    102 -> 236 [penwidth=2]
    61 -> 236 [penwidth=2]
    103 -> 236 [penwidth=2]
    62 -> 236 [penwidth=2]
    104 -> 236 [penwidth=2]
    63 -> 236 [penwidth=2]
    105 -> 236 [penwidth=2]
    64 -> 236 [penwidth=2]
    106 -> 236 [penwidth=2]
    65 -> 236 [penwidth=2]
    107 -> 236 [penwidth=2]
    66 -> 236 [penwidth=2]
    108 -> 236 [penwidth=2]
    67 -> 236 [penwidth=2]
    109 -> 236 [penwidth=2]
    68 -> 236 [penwidth=2]
    110 -> 236 [penwidth=2]
    69 -> 236 [penwidth=2]
    111 -> 236 [penwidth=2]
    70 -> 236 [penwidth=2]
    112 -> 236 [penwidth=2]
    71 -> 236 [penwidth=2]
    113 -> 236 [penwidth=2]
    72 -> 237 [penwidth=2]
    114 -> 237 [penwidth=2]
    73 -> 237 [penwidth=2]
    115 -> 237 [penwidth=2]
    74 -> 237 [penwidth=2]
    116 -> 238 [penwidth=2]
    75 -> 238 [penwidth=2]
    117 -> 238 [penwidth=2]
    76 -> 238 [penwidth=2]
    118 -> 238 [penwidth=2]
    77 -> 238 [penwidth=2]
    119 -> 238 [penwidth=2]
    78 -> 238 [penwidth=2]
    120 -> 238 [penwidth=2]
    79 -> 238 [penwidth=2]
    121 -> 238 [penwidth=2]
    80 -> 238 [penwidth=2]
    122 -> 238 [penwidth=2]
    81 -> 238 [penwidth=2]
    123 -> 238 [penwidth=2]
    82 -> 238 [penwidth=2]
    124 -> 238 [penwidth=2]
    83 -> 238 [penwidth=2]
    125 -> 238 [penwidth=2]
    84 -> 238 [penwidth=2]
    126 -> 238 [penwidth=2]
    127 -> 238 [penwidth=2]
    128 -> 238 [penwidth=2]
    230 -> 217 [penwidth=2]
    230 -> 216 [penwidth=2]
    382 -> 218 [penwidth=2]
    382 -> 217 [penwidth=2]
    382 -> 213 [penwidth=2]
    382 -> 214 [penwidth=2]
    268 -> 218 [penwidth=2]
    272 -> 217 [penwidth=2]
    287 -> 214 [penwidth=2]
    287 -> 213 [penwidth=2]
    290 -> 216 [penwidth=2]
    290 -> 214 [penwidth=2]
    290 -> 213 [penwidth=2]
    290 -> 215 [penwidth=2]
    5 -> 284 [penwidth=2]
    5 -> 271 [penwidth=2]
    5 -> 256 [penwidth=2]
    5 -> 263 [penwidth=2]
    5 -> 272 [penwidth=2]
    5 -> 241 [penwidth=2]
    5 -> 252 [penwidth=2]
    5 -> 259 [penwidth=2]
    5 -> 258 [penwidth=2]
    5 -> 385 [penwidth=2]
    5 -> 382 [penwidth=2]
    5 -> 290 [penwidth=2]
    5 -> 286 [penwidth=2]
    5 -> 245 [penwidth=2]
    5 -> 222 [penwidth=2]
    5 -> 394 [penwidth=2]
    5 -> 248 [penwidth=2]
    5 -> 274 [penwidth=2]
    5 -> 262 [penwidth=2]
    5 -> 226 [penwidth=2]
    5 -> 227 [penwidth=2]
    5 -> 254 [penwidth=2]
    5 -> 293 [penwidth=2]
    5 -> 247 [penwidth=2]
    5 -> 291 [penwidth=2]
    5 -> 383 [penwidth=2]
    5 -> 381 [penwidth=2]
    5 -> 240 [penwidth=2]
    5 -> 265 [penwidth=2]
    5 -> 288 [penwidth=2]
    5 -> 239 [penwidth=2]
    5 -> 268 [penwidth=2]
    5 -> 384 [penwidth=2]
    5 -> 234 [penwidth=2]
    5 -> 225 [penwidth=2]
    5 -> 283 [penwidth=2]
    5 -> 264 [penwidth=2]
    5 -> 233 [penwidth=2]
    5 -> 395 [penwidth=2]
    5 -> 393 [penwidth=2]
    5 -> 275 [penwidth=2]
    5 -> 232 [penwidth=2]
    5 -> 228 [penwidth=2]
    5 -> 279 [penwidth=2]
    5 -> 276 [penwidth=2]
    5 -> 235 [penwidth=2]
    5 -> 257 [penwidth=2]
    5 -> 223 [penwidth=2]
    5 -> 224 [penwidth=2]
    5 -> 229 [penwidth=2]
    5 -> 280 [penwidth=2]
    5 -> 292 [penwidth=2]
    5 -> 387 [penwidth=2]
    5 -> 391 [penwidth=2]
    5 -> 266 [penwidth=2]
    5 -> 221 [penwidth=2]
    5 -> 398 [penwidth=2]
    5 -> 389 [penwidth=2]
    5 -> 267 [penwidth=2]
    5 -> 277 [penwidth=2]
    5 -> 231 [penwidth=2]
    5 -> 250 [penwidth=2]
    5 -> 236 [penwidth=2]
    5 -> 386 [penwidth=2]
    5 -> 237 [penwidth=2]
    5 -> 251 [penwidth=2]
    5 -> 261 [penwidth=2]
    5 -> 238 [penwidth=2]
    5 -> 230 [penwidth=2]
    6 -> 277 [penwidth=2]
    6 -> 393 [penwidth=2]
    6 -> 247 [penwidth=2]
    6 -> 293 [penwidth=2]
    6 -> 265 [penwidth=2]
    6 -> 391 [penwidth=2]
    6 -> 239 [penwidth=2]
    6 -> 273 [penwidth=2]
    6 -> 284 [penwidth=2]
    6 -> 267 [penwidth=2]
    6 -> 383 [penwidth=2]
    6 -> 272 [penwidth=2]
    6 -> 245 [penwidth=2]
    6 -> 243 [penwidth=2]
    6 -> 244 [penwidth=2]
    6 -> 394 [penwidth=2]
    6 -> 270 [penwidth=2]
    6 -> 283 [penwidth=2]
    6 -> 385 [penwidth=2]
    6 -> 382 [penwidth=2]
    6 -> 246 [penwidth=2]
    6 -> 268 [penwidth=2]
    6 -> 291 [penwidth=2]
    6 -> 253 [penwidth=2]
    6 -> 281 [penwidth=2]
    6 -> 227 [penwidth=2]
    6 -> 276 [penwidth=2]
    6 -> 386 [penwidth=2]
    6 -> 237 [penwidth=2]
    6 -> 231 [penwidth=2]
    6 -> 389 [penwidth=2]
    6 -> 275 [penwidth=2]
    6 -> 223 [penwidth=2]
    6 -> 262 [penwidth=2]
    6 -> 242 [penwidth=2]
    6 -> 397 [penwidth=2]
    6 -> 249 [penwidth=2]
    6 -> 264 [penwidth=2]
    6 -> 286 [penwidth=2]
    6 -> 250 [penwidth=2]
    6 -> 240 [penwidth=2]
    6 -> 238 [penwidth=2]
    6 -> 230 [penwidth=2]
    6 -> 257 [penwidth=2]
    6 -> 255 [penwidth=2]
    6 -> 220 [penwidth=2]
    6 -> 234 [penwidth=2]
    6 -> 222 [penwidth=2]
    6 -> 388 [penwidth=2]
    6 -> 226 [penwidth=2]
    6 -> 269 [penwidth=2]
    6 -> 289 [penwidth=2]
    6 -> 258 [penwidth=2]
    6 -> 235 [penwidth=2]
    6 -> 390 [penwidth=2]
    6 -> 224 [penwidth=2]
    6 -> 232 [penwidth=2]
    6 -> 292 [penwidth=2]
    6 -> 290 [penwidth=2]
    6 -> 381 [penwidth=2]
    6 -> 287 [penwidth=2]
    6 -> 261 [penwidth=2]
    6 -> 256 [penwidth=2]
    6 -> 280 [penwidth=2]
    6 -> 282 [penwidth=2]
    6 -> 228 [penwidth=2]
    6 -> 229 [penwidth=2]
    6 -> 274 [penwidth=2]
    6 -> 392 [penwidth=2]
    6 -> 395 [penwidth=2]
    6 -> 396 [penwidth=2]
    6 -> 271 [penwidth=2]
    6 -> 288 [penwidth=2]
    6 -> 225 [penwidth=2]
    6 -> 254 [penwidth=2]
    175 -> 223 [penwidth=2]
    175 -> 268 [penwidth=2]
    175 -> 234 [penwidth=2]
    175 -> 224 [penwidth=2]
    175 -> 388 [penwidth=2]
    175 -> 279 [penwidth=2]
    175 -> 254 [penwidth=2]
    175 -> 241 [penwidth=2]
    175 -> 280 [penwidth=2]
    175 -> 289 [penwidth=2]
    175 -> 247 [penwidth=2]
    175 -> 221 [penwidth=2]
    175 -> 275 [penwidth=2]
    175 -> 266 [penwidth=2]
    175 -> 286 [penwidth=2]
    175 -> 272 [penwidth=2]
    175 -> 258 [penwidth=2]
    175 -> 225 [penwidth=2]
    175 -> 389 [penwidth=2]
    175 -> 290 [penwidth=2]
    175 -> 242 [penwidth=2]
    175 -> 273 [penwidth=2]
    175 -> 395 [penwidth=2]
    175 -> 282 [penwidth=2]
    175 -> 229 [penwidth=2]
    175 -> 232 [penwidth=2]
    175 -> 250 [penwidth=2]
    175 -> 260 [penwidth=2]
    175 -> 293 [penwidth=2]
    175 -> 385 [penwidth=2]
    175 -> 274 [penwidth=2]
    175 -> 384 [penwidth=2]
    175 -> 271 [penwidth=2]
    175 -> 284 [penwidth=2]
    175 -> 249 [penwidth=2]
    175 -> 398 [penwidth=2]
    175 -> 276 [penwidth=2]
    175 -> 259 [penwidth=2]
    175 -> 285 [penwidth=2]
    175 -> 267 [penwidth=2]
    175 -> 235 [penwidth=2]
    175 -> 397 [penwidth=2]
    175 -> 228 [penwidth=2]
    175 -> 288 [penwidth=2]
    175 -> 265 [penwidth=2]
    175 -> 230 [penwidth=2]
    175 -> 263 [penwidth=2]
    175 -> 257 [penwidth=2]
    175 -> 396 [penwidth=2]
    175 -> 246 [penwidth=2]
    175 -> 292 [penwidth=2]
    175 -> 261 [penwidth=2]
    175 -> 237 [penwidth=2]
    175 -> 283 [penwidth=2]
    175 -> 391 [penwidth=2]
    175 -> 390 [penwidth=2]
    175 -> 226 [penwidth=2]
    175 -> 248 [penwidth=2]
    175 -> 244 [penwidth=2]
    175 -> 238 [penwidth=2]
    175 -> 381 [penwidth=2]
    175 -> 220 [penwidth=2]
    175 -> 277 [penwidth=2]
    175 -> 227 [penwidth=2]
    175 -> 239 [penwidth=2]
    175 -> 393 [penwidth=2]
    175 -> 399 [penwidth=2]
    175 -> 392 [penwidth=2]
    175 -> 251 [penwidth=2]
    175 -> 256 [penwidth=2]
    9 -> 287 [penwidth=2]
    9 -> 279 [penwidth=2]
    9 -> 281 [penwidth=2]
    9 -> 239 [penwidth=2]
    10 -> 278 [penwidth=2]
    10 -> 257 [penwidth=2]
    10 -> 238 [penwidth=2]
    10 -> 256 [penwidth=2]
    10 -> 292 [penwidth=2]
    10 -> 231 [penwidth=2]
    10 -> 288 [penwidth=2]
    10 -> 290 [penwidth=2]
    10 -> 387 [penwidth=2]
    10 -> 237 [penwidth=2]
    10 -> 266 [penwidth=2]
    10 -> 271 [penwidth=2]
    10 -> 228 [penwidth=2]
    10 -> 255 [penwidth=2]
    10 -> 384 [penwidth=2]
    10 -> 254 [penwidth=2]
    10 -> 386 [penwidth=2]
    10 -> 226 [penwidth=2]
    10 -> 265 [penwidth=2]
    10 -> 391 [penwidth=2]
    10 -> 234 [penwidth=2]
    10 -> 286 [penwidth=2]
    10 -> 279 [penwidth=2]
    10 -> 272 [penwidth=2]
    10 -> 264 [penwidth=2]
    10 -> 263 [penwidth=2]
    10 -> 232 [penwidth=2]
    10 -> 381 [penwidth=2]
    10 -> 267 [penwidth=2]
    179 -> 230 [penwidth=2]
    179 -> 395 [penwidth=2]
    179 -> 393 [penwidth=2]
    179 -> 240 [penwidth=2]
    179 -> 398 [penwidth=2]
    179 -> 232 [penwidth=2]
    179 -> 286 [penwidth=2]
    179 -> 233 [penwidth=2]
    179 -> 245 [penwidth=2]
    179 -> 291 [penwidth=2]
    179 -> 271 [penwidth=2]
    179 -> 228 [penwidth=2]
    179 -> 383 [penwidth=2]
    179 -> 224 [penwidth=2]
    179 -> 241 [penwidth=2]
    179 -> 289 [penwidth=2]
    179 -> 397 [penwidth=2]
    179 -> 388 [penwidth=2]
    179 -> 386 [penwidth=2]
    179 -> 288 [penwidth=2]
    179 -> 272 [penwidth=2]
    179 -> 236 [penwidth=2]
    179 -> 246 [penwidth=2]
    179 -> 282 [penwidth=2]
    179 -> 257 [penwidth=2]
    179 -> 222 [penwidth=2]
    179 -> 247 [penwidth=2]
    179 -> 255 [penwidth=2]
    179 -> 278 [penwidth=2]
    179 -> 261 [penwidth=2]
    179 -> 287 [penwidth=2]
    179 -> 292 [penwidth=2]
    179 -> 258 [penwidth=2]
    179 -> 225 [penwidth=2]
    182 -> 226 [penwidth=2]
    182 -> 225 [penwidth=2]
    182 -> 242 [penwidth=2]
    182 -> 264 [penwidth=2]
    182 -> 382 [penwidth=2]
    182 -> 273 [penwidth=2]
    182 -> 276 [penwidth=2]
    182 -> 272 [penwidth=2]
    182 -> 288 [penwidth=2]
    182 -> 239 [penwidth=2]
    184 -> 243 [penwidth=2]
    184 -> 223 [penwidth=2]
    184 -> 245 [penwidth=2]
    184 -> 266 [penwidth=2]
    184 -> 240 [penwidth=2]
    184 -> 286 [penwidth=2]
    184 -> 269 [penwidth=2]
    184 -> 277 [penwidth=2]
    184 -> 233 [penwidth=2]
    184 -> 293 [penwidth=2]
    184 -> 234 [penwidth=2]
    184 -> 279 [penwidth=2]
    184 -> 397 [penwidth=2]
    184 -> 228 [penwidth=2]
    184 -> 255 [penwidth=2]
    184 -> 290 [penwidth=2]
    184 -> 386 [penwidth=2]
    184 -> 227 [penwidth=2]
    184 -> 271 [penwidth=2]
    184 -> 263 [penwidth=2]
    184 -> 230 [penwidth=2]
    184 -> 256 [penwidth=2]
    184 -> 399 [penwidth=2]
    184 -> 257 [penwidth=2]
    184 -> 239 [penwidth=2]
    184 -> 383 [penwidth=2]
    184 -> 392 [penwidth=2]
    184 -> 231 [penwidth=2]
    184 -> 224 [penwidth=2]
    184 -> 287 [penwidth=2]
    184 -> 388 [penwidth=2]
    184 -> 278 [penwidth=2]
    184 -> 387 [penwidth=2]
    184 -> 291 [penwidth=2]
    184 -> 258 [penwidth=2]
    184 -> 270 [penwidth=2]
    184 -> 225 [penwidth=2]
    184 -> 253 [penwidth=2]
    184 -> 220 [penwidth=2]
    184 -> 229 [penwidth=2]
    184 -> 276 [penwidth=2]
    184 -> 394 [penwidth=2]
    184 -> 265 [penwidth=2]
    184 -> 264 [penwidth=2]
    184 -> 273 [penwidth=2]
    184 -> 382 [penwidth=2]
    184 -> 385 [penwidth=2]
    184 -> 292 [penwidth=2]
    184 -> 288 [penwidth=2]
    184 -> 282 [penwidth=2]
    184 -> 248 [penwidth=2]
    184 -> 267 [penwidth=2]
    184 -> 389 [penwidth=2]
    184 -> 396 [penwidth=2]
    184 -> 219 [penwidth=2]
    184 -> 268 [penwidth=2]
    184 -> 262 [penwidth=2]
    184 -> 285 [penwidth=2]
    184 -> 393 [penwidth=2]
    184 -> 381 [penwidth=2]
    184 -> 235 [penwidth=2]
    184 -> 222 [penwidth=2]
    184 -> 260 [penwidth=2]
    184 -> 384 [penwidth=2]
    184 -> 284 [penwidth=2]
    184 -> 238 [penwidth=2]
    353 -> 391 [penwidth=2]
    18 -> 242 [penwidth=2]
    18 -> 384 [penwidth=2]
    18 -> 233 [penwidth=2]
    18 -> 274 [penwidth=2]
    18 -> 246 [penwidth=2]
    18 -> 248 [penwidth=2]
    18 -> 293 [penwidth=2]
    18 -> 266 [penwidth=2]
    18 -> 383 [penwidth=2]
    18 -> 225 [penwidth=2]
    18 -> 234 [penwidth=2]
    18 -> 228 [penwidth=2]
    18 -> 235 [penwidth=2]
    18 -> 273 [penwidth=2]
    18 -> 252 [penwidth=2]
    18 -> 254 [penwidth=2]
    18 -> 387 [penwidth=2]
    18 -> 389 [penwidth=2]
    18 -> 232 [penwidth=2]
    18 -> 244 [penwidth=2]
    18 -> 286 [penwidth=2]
    18 -> 394 [penwidth=2]
    18 -> 259 [penwidth=2]
    18 -> 261 [penwidth=2]
    18 -> 399 [penwidth=2]
    18 -> 229 [penwidth=2]
    18 -> 277 [penwidth=2]
    18 -> 270 [penwidth=2]
    18 -> 276 [penwidth=2]
    18 -> 287 [penwidth=2]
    18 -> 262 [penwidth=2]
    18 -> 260 [penwidth=2]
    18 -> 280 [penwidth=2]
    18 -> 395 [penwidth=2]
    18 -> 271 [penwidth=2]
    18 -> 251 [penwidth=2]
    18 -> 238 [penwidth=2]
    18 -> 381 [penwidth=2]
    18 -> 264 [penwidth=2]
    18 -> 386 [penwidth=2]
    18 -> 231 [penwidth=2]
    18 -> 396 [penwidth=2]
    18 -> 253 [penwidth=2]
    18 -> 255 [penwidth=2]
    18 -> 290 [penwidth=2]
    18 -> 220 [penwidth=2]
    18 -> 243 [penwidth=2]
    18 -> 279 [penwidth=2]
    18 -> 275 [penwidth=2]
    18 -> 237 [penwidth=2]
    18 -> 226 [penwidth=2]
    18 -> 269 [penwidth=2]
    18 -> 257 [penwidth=2]
    18 -> 278 [penwidth=2]
    18 -> 397 [penwidth=2]
    18 -> 382 [penwidth=2]
    188 -> 388 [penwidth=2]
    188 -> 262 [penwidth=2]
    188 -> 245 [penwidth=2]
    188 -> 236 [penwidth=2]
    188 -> 290 [penwidth=2]
    188 -> 234 [penwidth=2]
    188 -> 269 [penwidth=2]
    188 -> 240 [penwidth=2]
    188 -> 393 [penwidth=2]
    188 -> 386 [penwidth=2]
    188 -> 275 [penwidth=2]
    188 -> 389 [penwidth=2]
    188 -> 399 [penwidth=2]
    188 -> 397 [penwidth=2]
    188 -> 286 [penwidth=2]
    188 -> 233 [penwidth=2]
    188 -> 252 [penwidth=2]
    188 -> 225 [penwidth=2]
    188 -> 285 [penwidth=2]
    188 -> 244 [penwidth=2]
    188 -> 287 [penwidth=2]
    188 -> 228 [penwidth=2]
    188 -> 246 [penwidth=2]
    188 -> 248 [penwidth=2]
    188 -> 270 [penwidth=2]
    188 -> 387 [penwidth=2]
    188 -> 256 [penwidth=2]
    188 -> 272 [penwidth=2]
    188 -> 238 [penwidth=2]
    188 -> 223 [penwidth=2]
    188 -> 229 [penwidth=2]
    188 -> 232 [penwidth=2]
    188 -> 273 [penwidth=2]
    188 -> 250 [penwidth=2]
    188 -> 221 [penwidth=2]
    188 -> 381 [penwidth=2]
    188 -> 241 [penwidth=2]
    188 -> 384 [penwidth=2]
    188 -> 247 [penwidth=2]
    188 -> 392 [penwidth=2]
    188 -> 291 [penwidth=2]
    188 -> 231 [penwidth=2]
    188 -> 239 [penwidth=2]
    188 -> 224 [penwidth=2]
    188 -> 271 [penwidth=2]
    188 -> 258 [penwidth=2]
    188 -> 278 [penwidth=2]
    188 -> 230 [penwidth=2]
    188 -> 394 [penwidth=2]
    188 -> 284 [penwidth=2]
    188 -> 283 [penwidth=2]
    188 -> 383 [penwidth=2]
    188 -> 277 [penwidth=2]
    188 -> 254 [penwidth=2]
    188 -> 264 [penwidth=2]
    188 -> 265 [penwidth=2]
    188 -> 398 [penwidth=2]
    188 -> 257 [penwidth=2]
    188 -> 261 [penwidth=2]
    188 -> 282 [penwidth=2]
    188 -> 267 [penwidth=2]
    188 -> 227 [penwidth=2]
    188 -> 391 [penwidth=2]
    188 -> 242 [penwidth=2]
    188 -> 249 [penwidth=2]
    188 -> 390 [penwidth=2]
    188 -> 220 [penwidth=2]
    188 -> 281 [penwidth=2]
    188 -> 274 [penwidth=2]
    188 -> 292 [penwidth=2]
    188 -> 263 [penwidth=2]
    188 -> 255 [penwidth=2]
    188 -> 395 [penwidth=2]
    188 -> 251 [penwidth=2]
    188 -> 279 [penwidth=2]
    188 -> 382 [penwidth=2]
    190 -> 236 [penwidth=2]
    190 -> 382 [penwidth=2]
    190 -> 243 [penwidth=2]
    190 -> 282 [penwidth=2]
    190 -> 387 [penwidth=2]
    190 -> 245 [penwidth=2]
    190 -> 238 [penwidth=2]
    190 -> 293 [penwidth=2]
    190 -> 252 [penwidth=2]
    190 -> 388 [penwidth=2]
    190 -> 253 [penwidth=2]
    190 -> 240 [penwidth=2]
    190 -> 235 [penwidth=2]
    190 -> 224 [penwidth=2]
    190 -> 274 [penwidth=2]
    190 -> 260 [penwidth=2]
    190 -> 241 [penwidth=2]
    190 -> 290 [penwidth=2]
    190 -> 229 [penwidth=2]
    190 -> 254 [penwidth=2]
    190 -> 250 [penwidth=2]
    190 -> 394 [penwidth=2]
    190 -> 279 [penwidth=2]
    190 -> 221 [penwidth=2]
    190 -> 234 [penwidth=2]
    190 -> 393 [penwidth=2]
    190 -> 391 [penwidth=2]
    190 -> 261 [penwidth=2]
    190 -> 381 [penwidth=2]
    190 -> 397 [penwidth=2]
    190 -> 283 [penwidth=2]
    190 -> 287 [penwidth=2]
    190 -> 258 [penwidth=2]
    190 -> 226 [penwidth=2]
    190 -> 262 [penwidth=2]
    190 -> 251 [penwidth=2]
    190 -> 233 [penwidth=2]
    190 -> 270 [penwidth=2]
    190 -> 246 [penwidth=2]
    190 -> 225 [penwidth=2]
    190 -> 263 [penwidth=2]
    190 -> 284 [penwidth=2]
    190 -> 247 [penwidth=2]
    190 -> 259 [penwidth=2]
    190 -> 273 [penwidth=2]
    190 -> 265 [penwidth=2]
    190 -> 255 [penwidth=2]
    190 -> 277 [penwidth=2]
    190 -> 269 [penwidth=2]
    190 -> 385 [penwidth=2]
    190 -> 264 [penwidth=2]
    190 -> 268 [penwidth=2]
    190 -> 396 [penwidth=2]
    190 -> 220 [penwidth=2]
    190 -> 227 [penwidth=2]
    190 -> 276 [penwidth=2]
    190 -> 286 [penwidth=2]
    190 -> 285 [penwidth=2]
    190 -> 219 [penwidth=2]
    190 -> 223 [penwidth=2]
    190 -> 239 [penwidth=2]
    190 -> 289 [penwidth=2]
    190 -> 248 [penwidth=2]
    190 -> 386 [penwidth=2]
    190 -> 231 [penwidth=2]
    190 -> 383 [penwidth=2]
    190 -> 228 [penwidth=2]
    190 -> 230 [penwidth=2]
    190 -> 249 [penwidth=2]
    190 -> 292 [penwidth=2]
    190 -> 271 [penwidth=2]
    190 -> 389 [penwidth=2]
    190 -> 278 [penwidth=2]
    190 -> 395 [penwidth=2]
    190 -> 390 [penwidth=2]
    190 -> 266 [penwidth=2]
    190 -> 242 [penwidth=2]
    190 -> 392 [penwidth=2]
    190 -> 272 [penwidth=2]
    363 -> 245 [penwidth=2]
    363 -> 242 [penwidth=2]
    363 -> 262 [penwidth=2]
    363 -> 392 [penwidth=2]
    363 -> 226 [penwidth=2]
    363 -> 386 [penwidth=2]
    363 -> 293 [penwidth=2]
    363 -> 255 [penwidth=2]
    363 -> 389 [penwidth=2]
    363 -> 247 [penwidth=2]
    363 -> 225 [penwidth=2]
    363 -> 279 [penwidth=2]
    363 -> 265 [penwidth=2]
    363 -> 250 [penwidth=2]
    365 -> 275 [penwidth=2]
    365 -> 282 [penwidth=2]
    365 -> 291 [penwidth=2]
    365 -> 238 [penwidth=2]
    365 -> 390 [penwidth=2]
    365 -> 388 [penwidth=2]
    365 -> 396 [penwidth=2]
    365 -> 234 [penwidth=2]
    365 -> 263 [penwidth=2]
    365 -> 391 [penwidth=2]
    365 -> 384 [penwidth=2]
    365 -> 226 [penwidth=2]
    365 -> 293 [penwidth=2]
    365 -> 276 [penwidth=2]
    365 -> 287 [penwidth=2]
    365 -> 392 [penwidth=2]
    365 -> 274 [penwidth=2]
    365 -> 223 [penwidth=2]
    365 -> 228 [penwidth=2]
    365 -> 381 [penwidth=2]
    365 -> 219 [penwidth=2]
    365 -> 250 [penwidth=2]
    365 -> 271 [penwidth=2]
    365 -> 260 [penwidth=2]
    365 -> 221 [penwidth=2]
    365 -> 227 [penwidth=2]
    365 -> 246 [penwidth=2]
    365 -> 395 [penwidth=2]
    365 -> 279 [penwidth=2]
    365 -> 261 [penwidth=2]
    34 -> 227 [penwidth=2]
    34 -> 273 [penwidth=2]
    34 -> 272 [penwidth=2]
    34 -> 268 [penwidth=2]
    34 -> 287 [penwidth=2]
    34 -> 387 [penwidth=2]
    34 -> 289 [penwidth=2]
    34 -> 398 [penwidth=2]
    34 -> 385 [penwidth=2]
    34 -> 229 [penwidth=2]
    34 -> 382 [penwidth=2]
    34 -> 231 [penwidth=2]
    34 -> 265 [penwidth=2]
    34 -> 249 [penwidth=2]
    34 -> 252 [penwidth=2]
    34 -> 396 [penwidth=2]
    34 -> 219 [penwidth=2]
    34 -> 269 [penwidth=2]
    34 -> 228 [penwidth=2]
    34 -> 248 [penwidth=2]
    34 -> 251 [penwidth=2]
    34 -> 284 [penwidth=2]
    34 -> 239 [penwidth=2]
    34 -> 274 [penwidth=2]
    34 -> 267 [penwidth=2]
    34 -> 290 [penwidth=2]
    34 -> 259 [penwidth=2]
    34 -> 271 [penwidth=2]
    34 -> 293 [penwidth=2]
    204 -> 385 [penwidth=2]
    204 -> 269 [penwidth=2]
    204 -> 222 [penwidth=2]
    204 -> 251 [penwidth=2]
    204 -> 272 [penwidth=2]
    204 -> 234 [penwidth=2]
    204 -> 281 [penwidth=2]
    204 -> 274 [penwidth=2]
    204 -> 230 [penwidth=2]
    204 -> 223 [penwidth=2]
    204 -> 391 [penwidth=2]
    204 -> 284 [penwidth=2]
    204 -> 255 [penwidth=2]
    204 -> 267 [penwidth=2]
    204 -> 273 [penwidth=2]
    204 -> 253 [penwidth=2]
    204 -> 292 [penwidth=2]
    204 -> 279 [penwidth=2]
    204 -> 282 [penwidth=2]
    204 -> 384 [penwidth=2]
    204 -> 268 [penwidth=2]
    204 -> 395 [penwidth=2]
    204 -> 228 [penwidth=2]
    204 -> 259 [penwidth=2]
    204 -> 382 [penwidth=2]
    204 -> 248 [penwidth=2]
    204 -> 397 [penwidth=2]
    204 -> 257 [penwidth=2]
    204 -> 247 [penwidth=2]
    204 -> 254 [penwidth=2]
    204 -> 240 [penwidth=2]
    373 -> 286 [penwidth=2]
    373 -> 246 [penwidth=2]
    373 -> 381 [penwidth=2]
    373 -> 397 [penwidth=2]
    373 -> 391 [penwidth=2]
    373 -> 266 [penwidth=2]
    373 -> 283 [penwidth=2]
    373 -> 225 [penwidth=2]
    373 -> 261 [penwidth=2]
    373 -> 253 [penwidth=2]
    373 -> 275 [penwidth=2]
    373 -> 251 [penwidth=2]
    373 -> 255 [penwidth=2]
    373 -> 231 [penwidth=2]
    373 -> 279 [penwidth=2]
    373 -> 219 [penwidth=2]
    373 -> 224 [penwidth=2]
    373 -> 244 [penwidth=2]
    373 -> 239 [penwidth=2]
    373 -> 232 [penwidth=2]
    373 -> 221 [penwidth=2]
    373 -> 271 [penwidth=2]
    42 -> 279 [penwidth=2]
    42 -> 395 [penwidth=2]
    42 -> 237 [penwidth=2]
    42 -> 290 [penwidth=2]
    42 -> 265 [penwidth=2]
    42 -> 293 [penwidth=2]
    42 -> 256 [penwidth=2]
    42 -> 275 [penwidth=2]
    42 -> 382 [penwidth=2]
    42 -> 221 [penwidth=2]
    42 -> 266 [penwidth=2]
    42 -> 381 [penwidth=2]
    42 -> 254 [penwidth=2]
    44 -> 230 [penwidth=2]
    44 -> 239 [penwidth=2]
    44 -> 219 [penwidth=2]
    44 -> 228 [penwidth=2]
    44 -> 244 [penwidth=2]
    44 -> 394 [penwidth=2]
    44 -> 225 [penwidth=2]
    44 -> 391 [penwidth=2]
    44 -> 257 [penwidth=2]
    44 -> 293 [penwidth=2]
    44 -> 384 [penwidth=2]
    44 -> 387 [penwidth=2]
    44 -> 242 [penwidth=2]
    44 -> 395 [penwidth=2]
    44 -> 279 [penwidth=2]
    44 -> 274 [penwidth=2]
    44 -> 273 [penwidth=2]
    44 -> 247 [penwidth=2]
    44 -> 238 [penwidth=2]
    44 -> 396 [penwidth=2]
    44 -> 281 [penwidth=2]
    44 -> 284 [penwidth=2]
    44 -> 397 [penwidth=2]
    44 -> 223 [penwidth=2]
    44 -> 390 [penwidth=2]
    44 -> 229 [penwidth=2]
    44 -> 265 [penwidth=2]
    44 -> 259 [penwidth=2]
    44 -> 254 [penwidth=2]
    44 -> 271 [penwidth=2]
    44 -> 399 [penwidth=2]
    312 -> 230 [penwidth=2]
    312 -> 248 [penwidth=2]
    312 -> 274 [penwidth=2]
    312 -> 398 [penwidth=2]
    312 -> 270 [penwidth=2]
    312 -> 228 [penwidth=2]
    312 -> 252 [penwidth=2]
    312 -> 393 [penwidth=2]
    312 -> 260 [penwidth=2]
    312 -> 282 [penwidth=2]
    312 -> 267 [penwidth=2]
    312 -> 286 [penwidth=2]
    315 -> 237 [penwidth=2]
    315 -> 231 [penwidth=2]
    315 -> 236 [penwidth=2]
    315 -> 260 [penwidth=2]
    315 -> 281 [penwidth=2]
    315 -> 246 [penwidth=2]
    315 -> 292 [penwidth=2]
    315 -> 250 [penwidth=2]
    315 -> 229 [penwidth=2]
    315 -> 220 [penwidth=2]
    315 -> 282 [penwidth=2]
    315 -> 283 [penwidth=2]
    315 -> 272 [penwidth=2]
    315 -> 219 [penwidth=2]
    315 -> 226 [penwidth=2]
    315 -> 381 [penwidth=2]
    315 -> 393 [penwidth=2]
    315 -> 284 [penwidth=2]
    315 -> 279 [penwidth=2]
    315 -> 280 [penwidth=2]
    315 -> 264 [penwidth=2]
    315 -> 288 [penwidth=2]
    315 -> 392 [penwidth=2]
    315 -> 233 [penwidth=2]
    315 -> 387 [penwidth=2]
    315 -> 285 [penwidth=2]
    315 -> 286 [penwidth=2]
    315 -> 277 [penwidth=2]
    315 -> 269 [penwidth=2]
    315 -> 239 [penwidth=2]
    315 -> 258 [penwidth=2]
    315 -> 221 [penwidth=2]
    315 -> 223 [penwidth=2]
    315 -> 390 [penwidth=2]
    315 -> 243 [penwidth=2]
    315 -> 261 [penwidth=2]
    315 -> 232 [penwidth=2]
    315 -> 271 [penwidth=2]
    315 -> 259 [penwidth=2]
    315 -> 242 [penwidth=2]
    315 -> 383 [penwidth=2]
    315 -> 252 [penwidth=2]
    315 -> 389 [penwidth=2]
    315 -> 270 [penwidth=2]
    315 -> 399 [penwidth=2]
    315 -> 395 [penwidth=2]
    315 -> 257 [penwidth=2]
    315 -> 238 [penwidth=2]
    315 -> 235 [penwidth=2]
    315 -> 276 [penwidth=2]
    315 -> 267 [penwidth=2]
    315 -> 245 [penwidth=2]
    315 -> 278 [penwidth=2]
    315 -> 386 [penwidth=2]
    315 -> 265 [penwidth=2]
    315 -> 227 [penwidth=2]
    315 -> 293 [penwidth=2]
    315 -> 241 [penwidth=2]
    315 -> 255 [penwidth=2]
    315 -> 391 [penwidth=2]
    315 -> 290 [penwidth=2]
    315 -> 382 [penwidth=2]
    315 -> 289 [penwidth=2]
    315 -> 384 [penwidth=2]
    315 -> 222 [penwidth=2]
    315 -> 394 [penwidth=2]
    316 -> 255 [penwidth=2]
    316 -> 244 [penwidth=2]
    316 -> 252 [penwidth=2]
    316 -> 266 [penwidth=2]
    316 -> 281 [penwidth=2]
    316 -> 242 [penwidth=2]
    316 -> 257 [penwidth=2]
    316 -> 232 [penwidth=2]
    316 -> 278 [penwidth=2]
    316 -> 220 [penwidth=2]
    316 -> 265 [penwidth=2]
    316 -> 229 [penwidth=2]
    316 -> 399 [penwidth=2]
    316 -> 262 [penwidth=2]
    316 -> 289 [penwidth=2]
    316 -> 263 [penwidth=2]
    316 -> 233 [penwidth=2]
    316 -> 285 [penwidth=2]
    316 -> 394 [penwidth=2]
    316 -> 291 [penwidth=2]
    316 -> 392 [penwidth=2]
    316 -> 276 [penwidth=2]
    316 -> 387 [penwidth=2]
    316 -> 249 [penwidth=2]
    316 -> 384 [penwidth=2]
    316 -> 247 [penwidth=2]
    316 -> 271 [penwidth=2]
    316 -> 397 [penwidth=2]
    316 -> 273 [penwidth=2]
    316 -> 277 [penwidth=2]
    316 -> 261 [penwidth=2]
    316 -> 259 [penwidth=2]
    316 -> 275 [penwidth=2]
    316 -> 283 [penwidth=2]
    316 -> 388 [penwidth=2]
    316 -> 391 [penwidth=2]
    316 -> 228 [penwidth=2]
    316 -> 256 [penwidth=2]
    316 -> 284 [penwidth=2]
    316 -> 382 [penwidth=2]
    337 -> 276 [penwidth=2]
    337 -> 386 [penwidth=2]
    337 -> 232 [penwidth=2]
    337 -> 236 [penwidth=2]
    337 -> 273 [penwidth=2]
    337 -> 227 [penwidth=2]
    337 -> 270 [penwidth=2]
    337 -> 239 [penwidth=2]
    337 -> 229 [penwidth=2]
    337 -> 285 [penwidth=2]
    337 -> 272 [penwidth=2]
    337 -> 248 [penwidth=2]
    337 -> 244 [penwidth=2]
    337 -> 234 [penwidth=2]
    337 -> 267 [penwidth=2]
    337 -> 289 [penwidth=2]
    337 -> 394 [penwidth=2]
    337 -> 247 [penwidth=2]
    337 -> 235 [penwidth=2]
    337 -> 246 [penwidth=2]
    337 -> 220 [penwidth=2]
    337 -> 219 [penwidth=2]
    337 -> 395 [penwidth=2]
    337 -> 224 [penwidth=2]
    337 -> 293 [penwidth=2]
    337 -> 250 [penwidth=2]
    337 -> 393 [penwidth=2]
    337 -> 231 [penwidth=2]
    337 -> 242 [penwidth=2]
    337 -> 256 [penwidth=2]
    337 -> 275 [penwidth=2]
    337 -> 252 [penwidth=2]
    337 -> 241 [penwidth=2]
    337 -> 255 [penwidth=2]
    337 -> 264 [penwidth=2]
    337 -> 253 [penwidth=2]
    337 -> 254 [penwidth=2]
    337 -> 233 [penwidth=2]
    337 -> 278 [penwidth=2]
    337 -> 381 [penwidth=2]
    337 -> 397 [penwidth=2]
    337 -> 265 [penwidth=2]
    337 -> 389 [penwidth=2]
    337 -> 226 [penwidth=2]
    337 -> 277 [penwidth=2]
    337 -> 259 [penwidth=2]
    337 -> 291 [penwidth=2]
    337 -> 398 [penwidth=2]
    337 -> 382 [penwidth=2]
    337 -> 268 [penwidth=2]
    337 -> 292 [penwidth=2]
    337 -> 283 [penwidth=2]
    337 -> 280 [penwidth=2]
    337 -> 399 [penwidth=2]
    337 -> 390 [penwidth=2]
    337 -> 238 [penwidth=2]
    337 -> 262 [penwidth=2]
    337 -> 225 [penwidth=2]
    337 -> 228 [penwidth=2]
    337 -> 223 [penwidth=2]
    337 -> 243 [penwidth=2]
    337 -> 251 [penwidth=2]
    337 -> 391 [penwidth=2]
    337 -> 284 [penwidth=2]
    337 -> 221 [penwidth=2]
    337 -> 237 [penwidth=2]
    337 -> 222 [penwidth=2]
    337 -> 388 [penwidth=2]
    337 -> 245 [penwidth=2]
    338 -> 287 [penwidth=2]
    338 -> 228 [penwidth=2]
    338 -> 385 [penwidth=2]
    338 -> 224 [penwidth=2]
    338 -> 382 [penwidth=2]
    338 -> 252 [penwidth=2]
    338 -> 274 [penwidth=2]
    338 -> 253 [penwidth=2]
    338 -> 271 [penwidth=2]
    338 -> 229 [penwidth=2]
    338 -> 399 [penwidth=2]
    338 -> 259 [penwidth=2]
    338 -> 270 [penwidth=2]
    338 -> 235 [penwidth=2]
    338 -> 381 [penwidth=2]
    338 -> 260 [penwidth=2]
    338 -> 231 [penwidth=2]
    338 -> 390 [penwidth=2]
    338 -> 386 [penwidth=2]
    338 -> 251 [penwidth=2]
    338 -> 285 [penwidth=2]
    338 -> 391 [penwidth=2]
    338 -> 262 [penwidth=2]
    338 -> 254 [penwidth=2]
    338 -> 281 [penwidth=2]
    338 -> 249 [penwidth=2]
    338 -> 388 [penwidth=2]
    338 -> 225 [penwidth=2]
    338 -> 284 [penwidth=2]
    338 -> 389 [penwidth=2]
    338 -> 383 [penwidth=2]
    338 -> 240 [penwidth=2]
    338 -> 283 [penwidth=2]
    338 -> 246 [penwidth=2]
    338 -> 290 [penwidth=2]
    338 -> 256 [penwidth=2]
    338 -> 277 [penwidth=2]
    338 -> 392 [penwidth=2]
    338 -> 276 [penwidth=2]
    338 -> 227 [penwidth=2]
    338 -> 236 [penwidth=2]
    130 -> 254 [penwidth=2]
    130 -> 388 [penwidth=2]
    130 -> 271 [penwidth=2]
    130 -> 229 [penwidth=2]
    130 -> 279 [penwidth=2]
    130 -> 251 [penwidth=2]
    130 -> 244 [penwidth=2]
    130 -> 242 [penwidth=2]
    130 -> 232 [penwidth=2]
    130 -> 227 [penwidth=2]
    130 -> 233 [penwidth=2]
    130 -> 260 [penwidth=2]
    130 -> 245 [penwidth=2]
    130 -> 255 [penwidth=2]
    130 -> 228 [penwidth=2]
    130 -> 285 [penwidth=2]
    130 -> 262 [penwidth=2]
    130 -> 277 [penwidth=2]
    130 -> 237 [penwidth=2]
    130 -> 266 [penwidth=2]
    130 -> 274 [penwidth=2]
    130 -> 392 [penwidth=2]
    130 -> 272 [penwidth=2]
    130 -> 383 [penwidth=2]
    130 -> 249 [penwidth=2]
    130 -> 288 [penwidth=2]
    130 -> 276 [penwidth=2]
    130 -> 284 [penwidth=2]
    130 -> 238 [penwidth=2]
    130 -> 292 [penwidth=2]
    130 -> 275 [penwidth=2]
    130 -> 289 [penwidth=2]
    130 -> 220 [penwidth=2]
    130 -> 393 [penwidth=2]
    130 -> 391 [penwidth=2]
    130 -> 224 [penwidth=2]
    132 -> 287 [penwidth=2]
    132 -> 259 [penwidth=2]
    132 -> 244 [penwidth=2]
    132 -> 384 [penwidth=2]
    132 -> 261 [penwidth=2]
    132 -> 284 [penwidth=2]
    132 -> 291 [penwidth=2]
    132 -> 245 [penwidth=2]
    132 -> 390 [penwidth=2]
    132 -> 381 [penwidth=2]
    132 -> 276 [penwidth=2]
    132 -> 386 [penwidth=2]
    132 -> 269 [penwidth=2]
    132 -> 236 [penwidth=2]
    132 -> 235 [penwidth=2]
    132 -> 262 [penwidth=2]
    132 -> 389 [penwidth=2]
    132 -> 271 [penwidth=2]
    132 -> 265 [penwidth=2]
    132 -> 391 [penwidth=2]
    132 -> 260 [penwidth=2]
    132 -> 273 [penwidth=2]
    132 -> 275 [penwidth=2]
    132 -> 232 [penwidth=2]
    132 -> 289 [penwidth=2]
    132 -> 293 [penwidth=2]
    132 -> 270 [penwidth=2]
    132 -> 292 [penwidth=2]
    132 -> 224 [penwidth=2]
    132 -> 398 [penwidth=2]
    132 -> 251 [penwidth=2]
    132 -> 239 [penwidth=2]
    132 -> 281 [penwidth=2]
    132 -> 258 [penwidth=2]
    132 -> 241 [penwidth=2]
    132 -> 383 [penwidth=2]
    132 -> 277 [penwidth=2]
    132 -> 387 [penwidth=2]
    132 -> 252 [penwidth=2]
    132 -> 268 [penwidth=2]
    132 -> 240 [penwidth=2]
    132 -> 266 [penwidth=2]
    132 -> 282 [penwidth=2]
    132 -> 263 [penwidth=2]
    132 -> 399 [penwidth=2]
    132 -> 267 [penwidth=2]
    132 -> 248 [penwidth=2]
    132 -> 278 [penwidth=2]
    132 -> 288 [penwidth=2]
    132 -> 219 [penwidth=2]
    132 -> 388 [penwidth=2]
    132 -> 246 [penwidth=2]
    132 -> 242 [penwidth=2]
    132 -> 286 [penwidth=2]
    132 -> 222 [penwidth=2]
    132 -> 253 [penwidth=2]
    132 -> 285 [penwidth=2]
    132 -> 264 [penwidth=2]
    132 -> 392 [penwidth=2]
    132 -> 221 [penwidth=2]
    132 -> 393 [penwidth=2]
    132 -> 238 [penwidth=2]
    132 -> 397 [penwidth=2]
    132 -> 233 [penwidth=2]
    132 -> 250 [penwidth=2]
    132 -> 226 [penwidth=2]
    132 -> 249 [penwidth=2]
    139 -> 391 [penwidth=2]
    139 -> 287 [penwidth=2]
    139 -> 262 [penwidth=2]
    139 -> 269 [penwidth=2]
    139 -> 223 [penwidth=2]
    139 -> 293 [penwidth=2]
    139 -> 261 [penwidth=2]
    139 -> 385 [penwidth=2]
    139 -> 275 [penwidth=2]
    139 -> 284 [penwidth=2]
    139 -> 280 [penwidth=2]
    139 -> 266 [penwidth=2]
    139 -> 272 [penwidth=2]
    139 -> 264 [penwidth=2]
    139 -> 277 [penwidth=2]
    139 -> 228 [penwidth=2]
    139 -> 281 [penwidth=2]
    139 -> 219 [penwidth=2]
    139 -> 233 [penwidth=2]
    139 -> 395 [penwidth=2]
    139 -> 271 [penwidth=2]
    139 -> 386 [penwidth=2]
    139 -> 227 [penwidth=2]
    139 -> 245 [penwidth=2]
    139 -> 235 [penwidth=2]
    139 -> 283 [penwidth=2]
    139 -> 226 [penwidth=2]
    139 -> 396 [penwidth=2]
    139 -> 229 [penwidth=2]
    139 -> 384 [penwidth=2]
    139 -> 263 [penwidth=2]
    139 -> 247 [penwidth=2]
    139 -> 278 [penwidth=2]
    139 -> 389 [penwidth=2]
    139 -> 282 [penwidth=2]
    139 -> 388 [penwidth=2]
    139 -> 249 [penwidth=2]
    139 -> 253 [penwidth=2]
    139 -> 232 [penwidth=2]
    139 -> 279 [penwidth=2]
    139 -> 241 [penwidth=2]
    139 -> 238 [penwidth=2]
    139 -> 276 [penwidth=2]
    139 -> 225 [penwidth=2]
    139 -> 291 [penwidth=2]
    139 -> 252 [penwidth=2]
    139 -> 239 [penwidth=2]
    139 -> 251 [penwidth=2]
    139 -> 243 [penwidth=2]
    139 -> 221 [penwidth=2]
    139 -> 393 [penwidth=2]
    139 -> 383 [penwidth=2]
    139 -> 259 [penwidth=2]
    139 -> 292 [penwidth=2]
    139 -> 273 [penwidth=2]
    139 -> 387 [penwidth=2]
    139 -> 394 [penwidth=2]
    139 -> 236 [penwidth=2]
    139 -> 242 [penwidth=2]
    139 -> 250 [penwidth=2]
    139 -> 256 [penwidth=2]
    139 -> 392 [penwidth=2]
    140 -> 391 [penwidth=2]
    140 -> 249 [penwidth=2]
    140 -> 281 [penwidth=2]
    140 -> 386 [penwidth=2]
    140 -> 225 [penwidth=2]
    140 -> 277 [penwidth=2]
    140 -> 270 [penwidth=2]
    140 -> 259 [penwidth=2]
    140 -> 241 [penwidth=2]
    140 -> 229 [penwidth=2]
    140 -> 230 [penwidth=2]
    140 -> 232 [penwidth=2]
    140 -> 238 [penwidth=2]
    140 -> 285 [penwidth=2]
    140 -> 262 [penwidth=2]
    140 -> 219 [penwidth=2]
    140 -> 258 [penwidth=2]
    140 -> 269 [penwidth=2]
    140 -> 275 [penwidth=2]
    140 -> 234 [penwidth=2]
    140 -> 255 [penwidth=2]
    140 -> 292 [penwidth=2]
    140 -> 290 [penwidth=2]
    140 -> 381 [penwidth=2]
    143 -> 235 [penwidth=2]
    143 -> 275 [penwidth=2]
    143 -> 264 [penwidth=2]
    143 -> 243 [penwidth=2]
    143 -> 258 [penwidth=2]
    143 -> 260 [penwidth=2]
    143 -> 246 [penwidth=2]
    143 -> 263 [penwidth=2]
    143 -> 238 [penwidth=2]
    152 -> 242 [penwidth=2]
    152 -> 225 [penwidth=2]
    152 -> 287 [penwidth=2]
    152 -> 243 [penwidth=2]
    152 -> 227 [penwidth=2]
    152 -> 244 [penwidth=2]
    152 -> 222 [penwidth=2]
    152 -> 384 [penwidth=2]
    152 -> 387 [penwidth=2]
    152 -> 381 [penwidth=2]
    152 -> 280 [penwidth=2]
    152 -> 259 [penwidth=2]
    152 -> 251 [penwidth=2]
    152 -> 233 [penwidth=2]
    152 -> 252 [penwidth=2]
    152 -> 264 [penwidth=2]
    152 -> 270 [penwidth=2]
    152 -> 289 [penwidth=2]
    152 -> 383 [penwidth=2]
    152 -> 236 [penwidth=2]
    152 -> 254 [penwidth=2]
    152 -> 239 [penwidth=2]
    152 -> 234 [penwidth=2]
    152 -> 288 [penwidth=2]
    152 -> 389 [penwidth=2]
    152 -> 277 [penwidth=2]
    152 -> 238 [penwidth=2]
    152 -> 385 [penwidth=2]
    152 -> 271 [penwidth=2]
    152 -> 260 [penwidth=2]
    152 -> 263 [penwidth=2]
    152 -> 395 [penwidth=2]
    152 -> 399 [penwidth=2]
    152 -> 262 [penwidth=2]
    152 -> 235 [penwidth=2]
    152 -> 274 [penwidth=2]
    152 -> 382 [penwidth=2]
    152 -> 391 [penwidth=2]
    152 -> 230 [penwidth=2]
    152 -> 390 [penwidth=2]
    152 -> 221 [penwidth=2]
    152 -> 290 [penwidth=2]
    152 -> 398 [penwidth=2]
    152 -> 224 [penwidth=2]
    152 -> 266 [penwidth=2]
    152 -> 255 [penwidth=2]
    152 -> 278 [penwidth=2]
    152 -> 293 [penwidth=2]
    152 -> 247 [penwidth=2]
    152 -> 275 [penwidth=2]
    152 -> 269 [penwidth=2]
    152 -> 386 [penwidth=2]
    152 -> 291 [penwidth=2]
    152 -> 248 [penwidth=2]
    152 -> 261 [penwidth=2]
    152 -> 396 [penwidth=2]
    152 -> 283 [penwidth=2]
    152 -> 394 [penwidth=2]
    152 -> 257 [penwidth=2]
    152 -> 285 [penwidth=2]
    152 -> 268 [penwidth=2]
    152 -> 281 [penwidth=2]
    152 -> 392 [penwidth=2]
    152 -> 276 [penwidth=2]
    152 -> 292 [penwidth=2]
    152 -> 237 [penwidth=2]
    152 -> 253 [penwidth=2]
    152 -> 226 [penwidth=2]
    152 -> 245 [penwidth=2]
    152 -> 284 [penwidth=2]
    152 -> 273 [penwidth=2]
    152 -> 393 [penwidth=2]
    152 -> 256 [penwidth=2]
    152 -> 272 [penwidth=2]
    152 -> 286 [penwidth=2]
    152 -> 219 [penwidth=2]
    152 -> 231 [penwidth=2]
    152 -> 282 [penwidth=2]
    162 -> 254 [penwidth=2]
    162 -> 282 [penwidth=2]
    162 -> 236 [penwidth=2]
    162 -> 226 [penwidth=2]
    162 -> 242 [penwidth=2]
    162 -> 228 [penwidth=2]
    162 -> 231 [penwidth=2]
    162 -> 385 [penwidth=2]
    162 -> 387 [penwidth=2]
    162 -> 265 [penwidth=2]
    162 -> 241 [penwidth=2]
    162 -> 292 [penwidth=2]
    162 -> 394 [penwidth=2]
    162 -> 232 [penwidth=2]
    162 -> 287 [penwidth=2]
    162 -> 258 [penwidth=2]
    162 -> 239 [penwidth=2]
    162 -> 261 [penwidth=2]
    162 -> 257 [penwidth=2]
    162 -> 286 [penwidth=2]
    162 -> 270 [penwidth=2]
    162 -> 277 [penwidth=2]
    162 -> 256 [penwidth=2]
    162 -> 388 [penwidth=2]
    162 -> 251 [penwidth=2]
    162 -> 223 [penwidth=2]
    162 -> 253 [penwidth=2]
    162 -> 243 [penwidth=2]
    162 -> 384 [penwidth=2]
    162 -> 281 [penwidth=2]
    162 -> 272 [penwidth=2]
    162 -> 259 [penwidth=2]
    162 -> 224 [penwidth=2]
    162 -> 389 [penwidth=2]
    162 -> 398 [penwidth=2]
    162 -> 399 [penwidth=2]
    162 -> 397 [penwidth=2]
    162 -> 293 [penwidth=2]
    162 -> 268 [penwidth=2]
    162 -> 249 [penwidth=2]
    162 -> 280 [penwidth=2]
    92 -> 275 [penwidth=2]
    92 -> 233 [penwidth=2]
    92 -> 238 [penwidth=2]
    92 -> 290 [penwidth=2]
    92 -> 226 [penwidth=2]
    92 -> 256 [penwidth=2]
    92 -> 393 [penwidth=2]
    92 -> 252 [penwidth=2]
    92 -> 280 [penwidth=2]
    92 -> 382 [penwidth=2]
    92 -> 250 [penwidth=2]
    92 -> 239 [penwidth=2]
    92 -> 289 [penwidth=2]
    92 -> 396 [penwidth=2]
    92 -> 283 [penwidth=2]
    92 -> 394 [penwidth=2]
    92 -> 230 [penwidth=2]
    92 -> 395 [penwidth=2]
    92 -> 251 [penwidth=2]
    64 -> 229 [penwidth=2]
    64 -> 382 [penwidth=2]
    64 -> 223 [penwidth=2]
    109 -> 389 [penwidth=2]
    109 -> 383 [penwidth=2]
    109 -> 249 [penwidth=2]
    109 -> 229 [penwidth=2]
    109 -> 269 [penwidth=2]
    109 -> 268 [penwidth=2]
    109 -> 232 [penwidth=2]
    109 -> 293 [penwidth=2]
    109 -> 266 [penwidth=2]
    109 -> 277 [penwidth=2]
    109 -> 238 [penwidth=2]
    109 -> 384 [penwidth=2]
    109 -> 290 [penwidth=2]
    109 -> 287 [penwidth=2]
    109 -> 261 [penwidth=2]
    109 -> 253 [penwidth=2]
    109 -> 255 [penwidth=2]
    109 -> 250 [penwidth=2]
    109 -> 237 [penwidth=2]
    109 -> 242 [penwidth=2]
    109 -> 234 [penwidth=2]
    109 -> 284 [penwidth=2]
    109 -> 388 [penwidth=2]
    109 -> 265 [penwidth=2]
    109 -> 267 [penwidth=2]
    109 -> 398 [penwidth=2]
    109 -> 230 [penwidth=2]
    109 -> 244 [penwidth=2]
    109 -> 235 [penwidth=2]
    109 -> 263 [penwidth=2]
    109 -> 262 [penwidth=2]
    109 -> 239 [penwidth=2]
    109 -> 289 [penwidth=2]
    109 -> 390 [penwidth=2]
    109 -> 257 [penwidth=2]
    109 -> 280 [penwidth=2]
    109 -> 396 [penwidth=2]
    109 -> 231 [penwidth=2]
    109 -> 283 [penwidth=2]
    109 -> 286 [penwidth=2]
    109 -> 225 [penwidth=2]
    109 -> 240 [penwidth=2]
    109 -> 273 [penwidth=2]
    109 -> 281 [penwidth=2]
    109 -> 245 [penwidth=2]
    109 -> 260 [penwidth=2]
    109 -> 224 [penwidth=2]
    109 -> 392 [penwidth=2]
    109 -> 219 [penwidth=2]
    109 -> 258 [penwidth=2]
    109 -> 282 [penwidth=2]
    109 -> 285 [penwidth=2]
    109 -> 399 [penwidth=2]
    109 -> 292 [penwidth=2]
    109 -> 222 [penwidth=2]
    109 -> 270 [penwidth=2]
    109 -> 382 [penwidth=2]
    109 -> 251 [penwidth=2]
    109 -> 220 [penwidth=2]
    109 -> 391 [penwidth=2]
    109 -> 228 [penwidth=2]
    109 -> 254 [penwidth=2]
    109 -> 259 [penwidth=2]
    109 -> 395 [penwidth=2]
    109 -> 386 [penwidth=2]
    109 -> 223 [penwidth=2]
    109 -> 278 [penwidth=2]
    109 -> 288 [penwidth=2]
    109 -> 248 [penwidth=2]
    109 -> 256 [penwidth=2]
    109 -> 385 [penwidth=2]
    109 -> 275 [penwidth=2]
    109 -> 227 [penwidth=2]
    109 -> 247 [penwidth=2]
    109 -> 252 [penwidth=2]
    109 -> 246 [penwidth=2]
    109 -> 243 [penwidth=2]
    109 -> 272 [penwidth=2]
    109 -> 264 [penwidth=2]
    109 -> 279 [penwidth=2]
    109 -> 274 [penwidth=2]
    109 -> 276 [penwidth=2]
    109 -> 387 [penwidth=2]
    109 -> 393 [penwidth=2]
    109 -> 221 [penwidth=2]
    109 -> 291 [penwidth=2]
    72 -> 260 [penwidth=2]
    72 -> 240 [penwidth=2]
    72 -> 285 [penwidth=2]
    72 -> 254 [penwidth=2]
    72 -> 386 [penwidth=2]
    72 -> 234 [penwidth=2]
    72 -> 293 [penwidth=2]
    72 -> 257 [penwidth=2]
    72 -> 275 [penwidth=2]
    72 -> 226 [penwidth=2]
    72 -> 241 [penwidth=2]
    72 -> 261 [penwidth=2]
    72 -> 238 [penwidth=2]
    72 -> 272 [penwidth=2]
    72 -> 392 [penwidth=2]
    72 -> 274 [penwidth=2]
    72 -> 391 [penwidth=2]
    72 -> 292 [penwidth=2]
    72 -> 231 [penwidth=2]
    72 -> 290 [penwidth=2]
    72 -> 267 [penwidth=2]
    72 -> 242 [penwidth=2]
    72 -> 395 [penwidth=2]
    72 -> 276 [penwidth=2]
    72 -> 390 [penwidth=2]
    72 -> 277 [penwidth=2]
    72 -> 228 [penwidth=2]
    72 -> 235 [penwidth=2]
    72 -> 287 [penwidth=2]
    72 -> 248 [penwidth=2]
    72 -> 251 [penwidth=2]
    72 -> 381 [penwidth=2]
    72 -> 219 [penwidth=2]
    72 -> 223 [penwidth=2]
    72 -> 279 [penwidth=2]
    72 -> 243 [penwidth=2]
    72 -> 250 [penwidth=2]
    72 -> 396 [penwidth=2]
    72 -> 252 [penwidth=2]
    72 -> 259 [penwidth=2]
    72 -> 384 [penwidth=2]
    72 -> 229 [penwidth=2]
    72 -> 286 [penwidth=2]
    72 -> 398 [penwidth=2]
    72 -> 281 [penwidth=2]
    72 -> 393 [penwidth=2]
    72 -> 262 [penwidth=2]
    72 -> 220 [penwidth=2]
    72 -> 263 [penwidth=2]
    72 -> 239 [penwidth=2]
    72 -> 278 [penwidth=2]
    72 -> 383 [penwidth=2]
    72 -> 397 [penwidth=2]
    72 -> 282 [penwidth=2]
    72 -> 385 [penwidth=2]
    72 -> 264 [penwidth=2]
    72 -> 288 [penwidth=2]
    72 -> 244 [penwidth=2]
    72 -> 270 [penwidth=2]
    72 -> 399 [penwidth=2]
    72 -> 232 [penwidth=2]
    72 -> 389 [penwidth=2]
    72 -> 394 [penwidth=2]
    72 -> 222 [penwidth=2]
    72 -> 227 [penwidth=2]
    72 -> 388 [penwidth=2]
    72 -> 382 [penwidth=2]
    72 -> 284 [penwidth=2]
    72 -> 230 [penwidth=2]
    72 -> 247 [penwidth=2]
    72 -> 266 [penwidth=2]
    72 -> 253 [penwidth=2]
    72 -> 258 [penwidth=2]
    116 -> 387 [penwidth=2]
    116 -> 251 [penwidth=2]
    116 -> 233 [penwidth=2]
    116 -> 389 [penwidth=2]
    116 -> 250 [penwidth=2]
    116 -> 394 [penwidth=2]
    116 -> 263 [penwidth=2]
    116 -> 243 [penwidth=2]
    116 -> 248 [penwidth=2]
    116 -> 252 [penwidth=2]
    116 -> 267 [penwidth=2]
    116 -> 230 [penwidth=2]
    116 -> 260 [penwidth=2]
    116 -> 242 [penwidth=2]
    116 -> 255 [penwidth=2]
    116 -> 228 [penwidth=2]
    116 -> 266 [penwidth=2]
    116 -> 290 [penwidth=2]
    116 -> 237 [penwidth=2]
    116 -> 283 [penwidth=2]
    116 -> 398 [penwidth=2]
    116 -> 241 [penwidth=2]
    116 -> 399 [penwidth=2]
    116 -> 247 [penwidth=2]
    116 -> 293 [penwidth=2]
    116 -> 261 [penwidth=2]
    116 -> 277 [penwidth=2]
    116 -> 236 [penwidth=2]
    116 -> 262 [penwidth=2]
    116 -> 390 [penwidth=2]
    116 -> 393 [penwidth=2]
    116 -> 279 [penwidth=2]
    77 -> 388 [penwidth=2]
    77 -> 276 [penwidth=2]
    77 -> 274 [penwidth=2]
    77 -> 255 [penwidth=2]
    77 -> 263 [penwidth=2]
    77 -> 384 [penwidth=2]
    77 -> 225 [penwidth=2]
    77 -> 287 [penwidth=2]
    77 -> 251 [penwidth=2]
    77 -> 382 [penwidth=2]
    77 -> 282 [penwidth=2]
    77 -> 284 [penwidth=2]
    77 -> 271 [penwidth=2]
    77 -> 277 [penwidth=2]
    77 -> 237 [penwidth=2]
    77 -> 290 [penwidth=2]
    77 -> 289 [penwidth=2]
    77 -> 390 [penwidth=2]
    77 -> 391 [penwidth=2]
    77 -> 241 [penwidth=2]
    77 -> 240 [penwidth=2]
    77 -> 292 [penwidth=2]
    77 -> 389 [penwidth=2]
    77 -> 273 [penwidth=2]
    77 -> 262 [penwidth=2]
    77 -> 246 [penwidth=2]
    77 -> 396 [penwidth=2]
    77 -> 258 [penwidth=2]
    77 -> 275 [penwidth=2]
    77 -> 386 [penwidth=2]
    77 -> 230 [penwidth=2]
    77 -> 272 [penwidth=2]
    77 -> 260 [penwidth=2]
    77 -> 291 [penwidth=2]
    77 -> 231 [penwidth=2]
    77 -> 259 [penwidth=2]
    77 -> 398 [penwidth=2]
    77 -> 283 [penwidth=2]
    77 -> 381 [penwidth=2]
    77 -> 219 [penwidth=2]
    77 -> 245 [penwidth=2]
    77 -> 242 [penwidth=2]
    77 -> 394 [penwidth=2]
    77 -> 265 [penwidth=2]
    77 -> 261 [penwidth=2]
    77 -> 383 [penwidth=2]
    77 -> 236 [penwidth=2]
    77 -> 252 [penwidth=2]
    77 -> 397 [penwidth=2]
    77 -> 220 [penwidth=2]
    77 -> 248 [penwidth=2]
    77 -> 385 [penwidth=2]
    77 -> 229 [penwidth=2]
    77 -> 234 [penwidth=2]
    77 -> 281 [penwidth=2]
    77 -> 256 [penwidth=2]
    77 -> 249 [penwidth=2]
    77 -> 239 [penwidth=2]
    77 -> 224 [penwidth=2]
    77 -> 280 [penwidth=2]
    77 -> 269 [penwidth=2]
    77 -> 253 [penwidth=2]
    77 -> 270 [penwidth=2]
    77 -> 226 [penwidth=2]
    77 -> 293 [penwidth=2]
    77 -> 387 [penwidth=2]
    77 -> 250 [penwidth=2]
    77 -> 267 [penwidth=2]
    77 -> 278 [penwidth=2]
    77 -> 264 [penwidth=2]
    77 -> 395 [penwidth=2]
    77 -> 285 [penwidth=2]
    77 -> 235 [penwidth=2]
    77 -> 243 [penwidth=2]
    77 -> 227 [penwidth=2]
    77 -> 393 [penwidth=2]
    77 -> 233 [penwidth=2]
    77 -> 228 [penwidth=2]
    77 -> 222 [penwidth=2]
    77 -> 399 [penwidth=2]
    77 -> 254 [penwidth=2]
    77 -> 266 [penwidth=2]
    77 -> 257 [penwidth=2]
    77 -> 223 [penwidth=2]
    77 -> 288 [penwidth=2]
    78 -> 232 [penwidth=2]
    78 -> 398 [penwidth=2]
    78 -> 262 [penwidth=2]
    78 -> 264 [penwidth=2]
    78 -> 385 [penwidth=2]
    78 -> 392 [penwidth=2]
    78 -> 253 [penwidth=2]
    78 -> 236 [penwidth=2]
    78 -> 231 [penwidth=2]
    78 -> 287 [penwidth=2]
    78 -> 259 [penwidth=2]
    78 -> 233 [penwidth=2]
    78 -> 255 [penwidth=2]
    78 -> 234 [penwidth=2]
    78 -> 263 [penwidth=2]
    78 -> 245 [penwidth=2]
    78 -> 291 [penwidth=2]
    78 -> 293 [penwidth=2]
    78 -> 258 [penwidth=2]
    78 -> 226 [penwidth=2]
    78 -> 281 [penwidth=2]
    78 -> 387 [penwidth=2]
    78 -> 227 [penwidth=2]
    78 -> 266 [penwidth=2]
    78 -> 239 [penwidth=2]
    78 -> 247 [penwidth=2]
    78 -> 237 [penwidth=2]
    78 -> 283 [penwidth=2]
    78 -> 220 [penwidth=2]
    78 -> 399 [penwidth=2]
    78 -> 261 [penwidth=2]
    78 -> 251 [penwidth=2]
    78 -> 249 [penwidth=2]
    78 -> 273 [penwidth=2]
    78 -> 395 [penwidth=2]
    78 -> 235 [penwidth=2]
    78 -> 277 [penwidth=2]
    78 -> 254 [penwidth=2]
    83 -> 395 [penwidth=2]
    83 -> 267 [penwidth=2]
    83 -> 293 [penwidth=2]
    83 -> 256 [penwidth=2]
    83 -> 227 [penwidth=2]
    83 -> 251 [penwidth=2]
    83 -> 247 [penwidth=2]
    83 -> 254 [penwidth=2]
    83 -> 290 [penwidth=2]
    83 -> 233 [penwidth=2]
    83 -> 262 [penwidth=2]
    83 -> 261 [penwidth=2]
    83 -> 260 [penwidth=2]
    83 -> 386 [penwidth=2]
    83 -> 394 [penwidth=2]
    83 -> 270 [penwidth=2]
    83 -> 387 [penwidth=2]
    83 -> 245 [penwidth=2]
    83 -> 255 [penwidth=2]
    83 -> 241 [penwidth=2]
    83 -> 253 [penwidth=2]
    83 -> 399 [penwidth=2]
    83 -> 248 [penwidth=2]
    83 -> 266 [penwidth=2]
    83 -> 252 [penwidth=2]
    83 -> 287 [penwidth=2]
    83 -> 258 [penwidth=2]
    83 -> 397 [penwidth=2]
    83 -> 292 [penwidth=2]
    83 -> 240 [penwidth=2]
    83 -> 278 [penwidth=2]
    83 -> 264 [penwidth=2]
    83 -> 280 [penwidth=2]
    83 -> 398 [penwidth=2]
    83 -> 242 [penwidth=2]
    83 -> 243 [penwidth=2]
    83 -> 393 [penwidth=2]
    83 -> 244 [penwidth=2]
    83 -> 246 [penwidth=2]
    83 -> 273 [penwidth=2]
    83 -> 225 [penwidth=2]
    83 -> 234 [penwidth=2]
    83 -> 230 [penwidth=2]
    83 -> 388 [penwidth=2]
    83 -> 289 [penwidth=2]
    83 -> 265 [penwidth=2]
    83 -> 396 [penwidth=2]
    83 -> 239 [penwidth=2]
    83 -> 382 [penwidth=2]
    83 -> 391 [penwidth=2]
    83 -> 381 [penwidth=2]
    83 -> 291 [penwidth=2]
    83 -> 279 [penwidth=2]
    83 -> 275 [penwidth=2]
    83 -> 392 [penwidth=2]
    83 -> 236 [penwidth=2]
    83 -> 286 [penwidth=2]
    83 -> 229 [penwidth=2]
    83 -> 385 [penwidth=2]
    83 -> 271 [penwidth=2]
    83 -> 249 [penwidth=2]
    83 -> 223 [penwidth=2]
    83 -> 269 [penwidth=2]
    83 -> 288 [penwidth=2]
}