digraph G {
    0 [penwidth=3,label="0"]
    1 [penwidth=3,label="1"]
    2 [penwidth=3,label="2"]
    3 [penwidth=3,label="3"]
    4 [penwidth=3,label="4"]
    5 [penwidth=3,label="5"]
    6 [penwidth=3,label="6"]
    7 [penwidth=3,label="7"]
    8 [penwidth=3,label="8"]
    9 [penwidth=3,label="9"]
    10 [penwidth=3,label="10"]
    11 [penwidth=3,label="11"]
    12 [penwidth=3,label="12"]
    13 [penwidth=3,label="13"]
    14 [penwidth=3,label="14"]
    15 [penwidth=3,label="15"]
    16 [penwidth=3,label="16"]
    17 [penwidth=3,label="17"]
    18 [penwidth=3,label="18"]
    19 [penwidth=3,label="19"]
    20 [penwidth=3,label="20"]
    21 [penwidth=3,label="21"]
    22 [penwidth=3,label="22"]
    23 [penwidth=3,label="23"]
    24 [penwidth=3,label="24"]
    25 [penwidth=3,label="25"]
    26 [penwidth=3,label="26"]
    27 [penwidth=3,label="27"]
    28 [penwidth=3,label="28"]
    29 [penwidth=3,label="29"]
    30 [penwidth=3,label="30"]
    31 [penwidth=3,label="31"]
    32 [penwidth=3,label="32"]
    33 [penwidth=3,label="33"]
    34 [penwidth=3,label="34"]
    35 [penwidth=3,label="35"]
    36 [penwidth=3,label="36"]
    37 [penwidth=3,label="37"]
    38 [penwidth=3,label="38"]
    39 [penwidth=3,label="39"]
    40 [penwidth=3,label="40"]
    41 [penwidth=3,label="41"]
    42 [penwidth=3,label="42"]
    43 [penwidth=3,label="43"]
    44 [penwidth=3,label="44"]
    45 [penwidth=3,label="45"]
    46 [penwidth=3,label="46"]
    47 [penwidth=3,label="47"]
    48 [penwidth=3,label="48"]
    49 [penwidth=3,label="49"]
    50 [penwidth=3,label="50"]
    51 [penwidth=3,label="51"]
    52 [penwidth=3,label="52"]
    53 [penwidth=3,label="53"]
    54 [penwidth=3,label="54"]
    55 [penwidth=3,label="55"]
    56 [penwidth=3,label="56"]
    57 [penwidth=3,label="57"]
    58 [penwidth=3,label="58"]
    59 [penwidth=3,label="59"]
    60 [penwidth=3,label="60"]
    61 [penwidth=3,label="61"]
    62 [penwidth=3,label="62"]
    63 [penwidth=3,label="63"]
    64 [penwidth=3,label="64"]
    65 [penwidth=3,label="65"]
    66 [penwidth=3,label="66"]
    67 [penwidth=3,label="67"]
    68 [penwidth=3,label="68"]
    69 [penwidth=3,label="69"]
    70 [penwidth=3,label="70"]
    71 [penwidth=3,label="71"]
    72 [penwidth=3,label="72"]
    73 [penwidth=3,label="73"]
    74 [penwidth=3,label="74"]
    75 [penwidth=3,label="75"]
    76 [penwidth=3,label="76"]
    77 [penwidth=3,label="77"]
    78 [penwidth=3,label="78"]
    79 [penwidth=3,label="79"]
    80 [penwidth=3,label="80"]
    81 [penwidth=3,label="81"]
    82 [penwidth=3,label="82"]
    83 [penwidth=3,label="83"]
    84 [penwidth=3,label="84"]
    85 [penwidth=3,label="85"]
    86 [penwidth=3,label="86"]
    87 [penwidth=3,label="87"]
    88 [penwidth=3,label="88"]
    89 [penwidth=3,label="89"]
    90 [penwidth=3,label="90"]
    91 [penwidth=3,label="91"]
    92 [penwidth=3,label="92"]
    93 [penwidth=3,label="93"]
    94 [penwidth=3,label="94"]
    95 [penwidth=3,label="95"]
    96 [penwidth=3,label="96"]
    97 [penwidth=3,label="97"]
    98 [penwidth=3,label="98"]
    99 [penwidth=3,label="99"]
    100 [penwidth=3,label="100"]
    101 [penwidth=3,label="101"]
    102 [penwidth=3,label="102"]
    103 [penwidth=3,label="103"]
    104 [penwidth=3,label="104"]
    105 [penwidth=3,label="105"]
    106 [penwidth=3,label="106"]
    107 [penwidth=3,label="107"]
    108 [penwidth=3,label="108"]
    109 [penwidth=3,label="109"]
    110 [penwidth=3,label="110"]
    111 [penwidth=3,label="111"]
    112 [penwidth=3,label="112"]
    113 [penwidth=3,label="113"]
    114 [penwidth=3,label="114"]
    115 [penwidth=3,label="115"]
    116 [penwidth=3,label="116"]
    117 [penwidth=3,label="117"]
    118 [penwidth=3,label="118"]
    119 [penwidth=3,label="119"]
    120 [penwidth=3,label="120"]
    121 [penwidth=3,label="121"]
    122 [penwidth=3,label="122"]
    123 [penwidth=3,label="123"]
    124 [penwidth=3,label="124"]
    125 [penwidth=3,label="125"]
    126 [penwidth=3,label="126"]
    127 [penwidth=3,label="127"]
    128 [penwidth=3,label="128"]
    129 [penwidth=3,label="129"]
    130 [penwidth=3,label="130"]
    131 [penwidth=3,label="131"]
    132 [penwidth=3,label="132"]
    133 [penwidth=3,label="133"]
    134 [penwidth=3,label="134"]
    135 [penwidth=3,label="135"]
    136 [penwidth=3,label="136"]
    137 [penwidth=3,label="137"]
    138 [penwidth=3,label="138"]
    139 [penwidth=3,label="139"]
    140 [penwidth=3,label="140"]
    141 [penwidth=3,label="141"]
    142 [penwidth=3,label="142"]
    143 [penwidth=3,label="143"]
    144 [penwidth=3,label="144"]
    145 [penwidth=3,label="145"]
    146 [penwidth=3,label="146"]
    147 [penwidth=3,label="147"]
    148 [penwidth=3,label="148"]
    149 [penwidth=3,label="149"]
    150 [penwidth=3,label="150"]
    151 [penwidth=3,label="151"]
    152 [penwidth=3,label="152"]
    153 [penwidth=3,label="153"]
    154 [penwidth=3,label="154"]
    155 [penwidth=3,label="155"]
    156 [penwidth=3,label="156"]
    157 [penwidth=3,label="157"]
    158 [penwidth=3,label="158"]
    159 [penwidth=3,label="159"]
    160 [penwidth=3,label="160"]
    161 [penwidth=3,label="161"]
    162 [penwidth=3,label="162"]
    163 [penwidth=3,label="163"]
    164 [penwidth=3,label="164"]
    165 [penwidth=3,label="165"]
    166 [penwidth=3,label="166"]
    167 [penwidth=3,label="167"]
    168 [penwidth=3,label="168"]
    169 [penwidth=3,label="169"]
    170 [penwidth=3,label="170"]
    171 [penwidth=3,label="171"]
    172 [penwidth=3,label="172"]
    173 [penwidth=3,label="173"]
    174 [penwidth=3,label="174"]
    175 [penwidth=3,label="175"]
    176 [penwidth=3,label="176"]
    177 [penwidth=3,label="177"]
    178 [penwidth=3,label="178"]
    179 [penwidth=3,label="179"]
    180 [penwidth=3,label="180"]
    181 [penwidth=3,label="181"]
    182 [penwidth=3,label="182"]
    183 [penwidth=3,label="183"]
    184 [penwidth=3,label="184"]
    185 [penwidth=3,label="185"]
    186 [penwidth=3,label="186"]
    187 [penwidth=3,label="187"]
    188 [penwidth=3,label="188"]
    189 [penwidth=3,label="189"]
    190 [penwidth=3,label="190"]
    191 [penwidth=3,label="191"]
    192 [penwidth=3,label="192"]
    193 [penwidth=3,label="193"]
    194 [penwidth=3,label="194"]
    195 [penwidth=3,label="195"]
    196 [penwidth=3,label="196"]
    197 [penwidth=3,label="197"]
    198 [penwidth=3,label="198"]
    199 [penwidth=3,label="199"]
    200 [penwidth=3,label="200"]
    201 [penwidth=3,label="201"]
    202 [penwidth=3,label="202"]
    203 [penwidth=3,label="203"]
    204 [penwidth=3,label="204"]
    205 [penwidth=3,label="205"]
    206 [penwidth=3,label="206"]
    207 [penwidth=3,label="207"]
    208 [penwidth=3,label="208"]
    209 [penwidth=3,label="209"]
    210 [penwidth=3,label="210"]
    211 [penwidth=3,label="211"]
    212 [penwidth=3,label="212"]
    213 [penwidth=3,label="213"]
    214 [penwidth=3,label="214"]
    215 [penwidth=3,label="215"]
    216 [penwidth=3,label="216"]
    217 [penwidth=3,label="217"]
    218 [penwidth=3,label="218"]
    219 [penwidth=3,label="219"]
    220 [penwidth=3,label="220"]
    221 [penwidth=3,label="221"]
    222 [penwidth=3,label="222"]
    223 [penwidth=3,label="223"]
    224 [penwidth=3,label="224"]
    225 [penwidth=3,label="225"]
    226 [penwidth=3,label="226"]
    227 [penwidth=3,label="227"]
    228 [penwidth=3,label="228"]
    229 [penwidth=3,label="229"]
    230 [penwidth=3,label="230"]
    231 [penwidth=3,label="231"]
    232 [penwidth=3,label="232"]
    233 [penwidth=3,label="233"]
    234 [penwidth=3,label="234"]
    235 [penwidth=3,label="235"]
    236 [penwidth=3,label="236"]
    237 [penwidth=3,label="237"]
    238 [penwidth=3,label="238"]
    239 [penwidth=3,label="239"]
    240 [penwidth=3,label="240"]
    241 [penwidth=3,label="241"]
    242 [penwidth=3,label="242"]
    243 [penwidth=3,label="243"]
    244 [penwidth=3,label="244"]
    245 [penwidth=3,label="245"]
    246 [penwidth=3,label="246"]
    247 [penwidth=3,label="247"]
    248 [penwidth=3,label="248"]
    249 [penwidth=3,label="249"]
    250 [penwidth=3,label="250"]
    251 [penwidth=3,label="251"]
    252 [penwidth=3,label="252"]
    253 [penwidth=3,label="253"]
    254 [penwidth=3,label="254"]
    255 [penwidth=3,label="255"]
    256 [penwidth=3,label="256"]
    257 [penwidth=3,label="257"]
    258 [penwidth=3,label="258"]
    259 [penwidth=3,label="259"]
    260 [penwidth=3,label="260"]
    261 [penwidth=3,label="261"]
    262 [penwidth=3,label="262"]
    263 [penwidth=3,label="263"]
    264 [penwidth=3,label="264"]
    265 [penwidth=3,label="265"]
    266 [penwidth=3,label="266"]
    267 [penwidth=3,label="267"]
    268 [penwidth=3,label="268"]
    269 [penwidth=3,label="269"]
    270 [penwidth=3,label="270"]
    271 [penwidth=3,label="271"]
    272 [penwidth=3,label="272"]
    273 [penwidth=3,label="273"]
    274 [penwidth=3,label="274"]
    275 [penwidth=3,label="275"]
    276 [penwidth=3,label="276"]
    277 [penwidth=3,label="277"]
    278 [penwidth=3,label="278"]
    279 [penwidth=3,label="279"]
    280 [penwidth=3,label="280"]
    281 [penwidth=3,label="281"]
    282 [penwidth=3,label="282"]
    283 [penwidth=3,label="283"]
    284 [penwidth=3,label="284"]
    285 [penwidth=3,label="285"]
    286 [penwidth=3,label="286"]
    287 [penwidth=3,label="287"]
    288 [penwidth=3,label="288"]
    289 [penwidth=3,label="289"]
    290 [penwidth=3,label="290"]
    291 [penwidth=3,label="291"]
    292 [penwidth=3,label="292"]
    293 [penwidth=3,label="293"]
    294 [penwidth=3,label="294"]
    295 [penwidth=3,label="295"]
    296 [penwidth=3,label="296"]
    297 [penwidth=3,label="297"]
    298 [penwidth=3,label="298"]
    299 [penwidth=3,label="299"]
    300 [penwidth=3,label="300"]
    301 [penwidth=3,label="301"]
    302 [penwidth=3,label="302"]
    303 [penwidth=3,label="303"]
    304 [penwidth=3,label="304"]
    305 [penwidth=3,label="305"]
    306 [penwidth=3,label="306"]
    307 [penwidth=3,label="307"]
    308 [penwidth=3,label="308"]
    309 [penwidth=3,label="309"]
    310 [penwidth=3,label="310"]
    311 [penwidth=3,label="311"]
    312 [penwidth=3,label="312"]
    313 [penwidth=3,label="313"]
    314 [penwidth=3,label="314"]
    315 [penwidth=3,label="315"]
    316 [penwidth=3,label="316"]
    317 [penwidth=3,label="317"]
    318 [penwidth=3,label="318"]
    319 [penwidth=3,label="319"]
    320 [penwidth=3,label="320"]
    321 [penwidth=3,label="321"]
    322 [penwidth=3,label="322"]
    323 [penwidth=3,label="323"]
    324 [penwidth=3,label="324"]
    325 [penwidth=3,label="325"]
    326 [penwidth=3,label="326"]
    327 [penwidth=3,label="327"]
    328 [penwidth=3,label="328"]
    329 [penwidth=3,label="329"]
    330 [penwidth=3,label="330"]
    331 [penwidth=3,label="331"]
    332 [penwidth=3,label="332"]
    333 [penwidth=3,label="333"]
    334 [penwidth=3,label="334"]
    335 [penwidth=3,label="335"]
    336 [penwidth=3,label="336"]
    337 [penwidth=3,label="337"]
    338 [penwidth=3,label="338"]
    339 [penwidth=3,label="339"]
    340 [penwidth=3,label="340"]
    341 [penwidth=3,label="341"]
    342 [penwidth=3,label="342"]
    343 [penwidth=3,label="343"]
    344 [penwidth=3,label="344"]
    345 [penwidth=3,label="345"]
    346 [penwidth=3,label="346"]
    347 [penwidth=3,label="347"]
    348 [penwidth=3,label="348"]
    349 [penwidth=3,label="349"]
    350 [penwidth=3,label="350"]
    351 [penwidth=3,label="351"]
    352 [penwidth=3,label="352"]
    353 [penwidth=3,label="353"]
    354 [penwidth=3,label="354"]
    355 [penwidth=3,label="355"]
    356 [penwidth=3,label="356"]
    357 [penwidth=3,label="357"]
    358 [penwidth=3,label="358"]
    359 [penwidth=3,label="359"]
    360 [penwidth=3,label="360"]
    361 [penwidth=3,label="361"]
    362 [penwidth=3,label="362"]
    363 [penwidth=3,label="363"]
    364 [penwidth=3,label="364"]
    365 [penwidth=3,label="365"]
    366 [penwidth=3,label="366"]
    367 [penwidth=3,label="367"]
    368 [penwidth=3,label="368"]
    369 [penwidth=3,label="369"]
    370 [penwidth=3,label="370"]
    371 [penwidth=3,label="371"]
    372 [penwidth=3,label="372"]
    373 [penwidth=3,label="373"]
    374 [penwidth=3,label="374"]
    375 [penwidth=3,label="375"]
    376 [penwidth=3,label="376"]
    377 [penwidth=3,label="377"]
    378 [penwidth=3,label="378"]
    379 [penwidth=3,label="379"]
    380 [penwidth=3,label="380"]
    381 [penwidth=3,label="381"]
    382 [penwidth=3,label="382"]
    383 [penwidth=3,label="383"]
    384 [penwidth=3,label="384"]
    385 [penwidth=3,label="385"]
    386 [penwidth=3,label="386"]
    387 [penwidth=3,label="387"]
    388 [penwidth=3,label="388"]
    389 [penwidth=3,label="389"]
    390 [penwidth=3,label="390"]
    391 [penwidth=3,label="391"]
    392 [penwidth=3,label="392"]
    393 [penwidth=3,label="393"]
    394 [penwidth=3,label="394"]
    395 [penwidth=3,label="395"]
    396 [penwidth=3,label="396"]
    397 [penwidth=3,label="397"]
    398 [penwidth=3,label="398"]
    399 [penwidth=3,label="399"]

    172 -> 0 [penwidth=2]
    256 -> 0 [penwidth=2]
    173 -> 172 [penwidth=2]
    257 -> 172 [penwidth=2]
    174 -> 172 [penwidth=2]
    258 -> 172 [penwidth=2]
    175 -> 172 [penwidth=2]
    259 -> 172 [penwidth=2]
    176 -> 172 [penwidth=2]
    260 -> 172 [penwidth=2]
    177 -> 172 [penwidth=2]
    261 -> 172 [penwidth=2]
    178 -> 172 [penwidth=2]
    262 -> 172 [penwidth=2]
    179 -> 172 [penwidth=2]
    263 -> 172 [penwidth=2]
    180 -> 172 [penwidth=2]
    264 -> 172 [penwidth=2]
    181 -> 172 [penwidth=2]
    265 -> 172 [penwidth=2]
    182 -> 172 [penwidth=2]
    266 -> 172 [penwidth=2]
    183 -> 172 [penwidth=2]
    267 -> 256 [penwidth=2]
    184 -> 256 [penwidth=2]
    268 -> 256 [penwidth=2]
    185 -> 256 [penwidth=2]
    269 -> 256 [penwidth=2]
    186 -> 256 [penwidth=2]
    270 -> 256 [penwidth=2]
    187 -> 256 [penwidth=2]
    271 -> 256 [penwidth=2]
    188 -> 256 [penwidth=2]
    272 -> 256 [penwidth=2]
    189 -> 256 [penwidth=2]
    273 -> 256 [penwidth=2]
    190 -> 256 [penwidth=2]
    274 -> 256 [penwidth=2]
    191 -> 256 [penwidth=2]
    275 -> 256 [penwidth=2]
    192 -> 256 [penwidth=2]
    276 -> 256 [penwidth=2]
    193 -> 256 [penwidth=2]
    277 -> 256 [penwidth=2]
    194 -> 256 [penwidth=2]
    278 -> 256 [penwidth=2]
    195 -> 256 [penwidth=2]
    279 -> 173 [penwidth=2]
    196 -> 257 [penwidth=2]
    280 -> 257 [penwidth=2]
    197 -> 257 [penwidth=2]
    281 -> 257 [penwidth=2]
    198 -> 257 [penwidth=2]
    282 -> 257 [penwidth=2]
    199 -> 257 [penwidth=2]
    283 -> 257 [penwidth=2]
    200 -> 257 [penwidth=2]
    284 -> 257 [penwidth=2]
    201 -> 257 [penwidth=2]
    285 -> 257 [penwidth=2]
    202 -> 257 [penwidth=2]
    286 -> 257 [penwidth=2]
    203 -> 257 [penwidth=2]
    287 -> 174 [penwidth=2]
    204 -> 174 [penwidth=2]
    288 -> 174 [penwidth=2]
    205 -> 174 [penwidth=2]
    289 -> 174 [penwidth=2]
    206 -> 174 [penwidth=2]
    290 -> 174 [penwidth=2]
    207 -> 174 [penwidth=2]
    291 -> 174 [penwidth=2]
    208 -> 258 [penwidth=2]
    292 -> 258 [penwidth=2]
    209 -> 258 [penwidth=2]
    293 -> 258 [penwidth=2]
    210 -> 258 [penwidth=2]
    294 -> 258 [penwidth=2]
    211 -> 258 [penwidth=2]
    295 -> 258 [penwidth=2]
    212 -> 258 [penwidth=2]
    296 -> 258 [penwidth=2]
    213 -> 258 [penwidth=2]
    297 -> 258 [penwidth=2]
    298 -> 258 [penwidth=2]
    299 -> 258 [penwidth=2]
    300 -> 258 [penwidth=2]
    301 -> 258 [penwidth=2]
    302 -> 258 [penwidth=2]
    303 -> 258 [penwidth=2]
    304 -> 258 [penwidth=2]
    305 -> 258 [penwidth=2]
    306 -> 175 [penwidth=2]
    307 -> 175 [penwidth=2]
    308 -> 175 [penwidth=2]
    309 -> 175 [penwidth=2]
    310 -> 175 [penwidth=2]
    311 -> 175 [penwidth=2]
    312 -> 175 [penwidth=2]
    313 -> 175 [penwidth=2]
    314 -> 175 [penwidth=2]
    315 -> 175 [penwidth=2]
    316 -> 175 [penwidth=2]
    317 -> 175 [penwidth=2]
    318 -> 175 [penwidth=2]
    319 -> 175 [penwidth=2]
    320 -> 175 [penwidth=2]
    321 -> 175 [penwidth=2]
    322 -> 175 [penwidth=2]
    323 -> 175 [penwidth=2]
    324 -> 175 [penwidth=2]
    325 -> 175 [penwidth=2]
    326 -> 175 [penwidth=2]
    327 -> 175 [penwidth=2]
    328 -> 175 [penwidth=2]
    329 -> 259 [penwidth=2]
    330 -> 259 [penwidth=2]
    331 -> 259 [penwidth=2]
    332 -> 259 [penwidth=2]
    333 -> 259 [penwidth=2]
    334 -> 259 [penwidth=2]
    335 -> 259 [penwidth=2]
    336 -> 259 [penwidth=2]
    1 -> 176 [penwidth=2]
    337 -> 176 [penwidth=2]
    2 -> 176 [penwidth=2]
    338 -> 176 [penwidth=2]
    3 -> 176 [penwidth=2]
    339 -> 176 [penwidth=2]
    88 -> 176 [penwidth=2]
    214 -> 176 [penwidth=2]
    340 -> 176 [penwidth=2]
    382 -> 176 [penwidth=2]
    89 -> 176 [penwidth=2]
    215 -> 176 [penwidth=2]
    341 -> 176 [penwidth=2]
    383 -> 176 [penwidth=2]
    90 -> 176 [penwidth=2]
    216 -> 176 [penwidth=2]
    342 -> 176 [penwidth=2]
    384 -> 176 [penwidth=2]
    91 -> 260 [penwidth=2]
    217 -> 260 [penwidth=2]
    343 -> 260 [penwidth=2]
    385 -> 260 [penwidth=2]
    92 -> 177 [penwidth=2]
    218 -> 177 [penwidth=2]
    344 -> 177 [penwidth=2]
    386 -> 177 [penwidth=2]
    93 -> 177 [penwidth=2]
    219 -> 177 [penwidth=2]
    345 -> 177 [penwidth=2]
    387 -> 177 [penwidth=2]
    94 -> 177 [penwidth=2]
    220 -> 177 [penwidth=2]
    346 -> 177 [penwidth=2]
    388 -> 177 [penwidth=2]
    95 -> 177 [penwidth=2]
    221 -> 177 [penwidth=2]
    347 -> 177 [penwidth=2]
    389 -> 177 [penwidth=2]
    96 -> 261 [penwidth=2]
    222 -> 261 [penwidth=2]
    348 -> 261 [penwidth=2]
    390 -> 261 [penwidth=2]
    97 -> 261 [penwidth=2]
    223 -> 261 [penwidth=2]
    349 -> 261 [penwidth=2]
    391 -> 261 [penwidth=2]
    98 -> 261 [penwidth=2]
    224 -> 178 [penwidth=2]
    350 -> 178 [penwidth=2]
    392 -> 178 [penwidth=2]
    99 -> 178 [penwidth=2]
    225 -> 178 [penwidth=2]
    351 -> 178 [penwidth=2]
    393 -> 178 [penwidth=2]
    100 -> 178 [penwidth=2]
    226 -> 178 [penwidth=2]
    352 -> 178 [penwidth=2]
    394 -> 178 [penwidth=2]
    101 -> 178 [penwidth=2]
    227 -> 178 [penwidth=2]
    353 -> 178 [penwidth=2]
    395 -> 178 [penwidth=2]
    102 -> 178 [penwidth=2]
    228 -> 178 [penwidth=2]
    354 -> 178 [penwidth=2]
    396 -> 178 [penwidth=2]
    103 -> 178 [penwidth=2]
    229 -> 178 [penwidth=2]
    355 -> 262 [penwidth=2]
    397 -> 262 [penwidth=2]
    104 -> 262 [penwidth=2]
    230 -> 262 [penwidth=2]
    356 -> 262 [penwidth=2]
    398 -> 262 [penwidth=2]
    105 -> 262 [penwidth=2]
    231 -> 262 [penwidth=2]
    357 -> 262 [penwidth=2]
    399 -> 262 [penwidth=2]
    106 -> 262 [penwidth=2]
    232 -> 262 [penwidth=2]
    358 -> 262 [penwidth=2]
    107 -> 262 [penwidth=2]
    233 -> 262 [penwidth=2]
    359 -> 262 [penwidth=2]
    108 -> 262 [penwidth=2]
    234 -> 179 [penwidth=2]
    360 -> 179 [penwidth=2]
    109 -> 179 [penwidth=2]
    235 -> 179 [penwidth=2]
    361 -> 179 [penwidth=2]
    110 -> 179 [penwidth=2]
    236 -> 179 [penwidth=2]
    362 -> 179 [penwidth=2]
    111 -> 263 [penwidth=2]
    237 -> 263 [penwidth=2]
    363 -> 180 [penwidth=2]
    112 -> 180 [penwidth=2]
    238 -> 180 [penwidth=2]
    364 -> 180 [penwidth=2]
    113 -> 180 [penwidth=2]
    239 -> 180 [penwidth=2]
    365 -> 180 [penwidth=2]
    114 -> 180 [penwidth=2]
    240 -> 180 [penwidth=2]
    366 -> 180 [penwidth=2]
    115 -> 180 [penwidth=2]
    241 -> 180 [penwidth=2]
    367 -> 180 [penwidth=2]
    116 -> 180 [penwidth=2]
    242 -> 180 [penwidth=2]
    368 -> 180 [penwidth=2]
    117 -> 180 [penwidth=2]
    243 -> 180 [penwidth=2]
    369 -> 264 [penwidth=2]
    118 -> 264 [penwidth=2]
    244 -> 264 [penwidth=2]
    370 -> 264 [penwidth=2]
    119 -> 264 [penwidth=2]
    245 -> 264 [penwidth=2]
    371 -> 264 [penwidth=2]
    120 -> 264 [penwidth=2]
    246 -> 264 [penwidth=2]
    372 -> 264 [penwidth=2]
    121 -> 264 [penwidth=2]
    247 -> 264 [penwidth=2]
    373 -> 181 [penwidth=2]
    122 -> 265 [penwidth=2]
    248 -> 265 [penwidth=2]
    374 -> 265 [penwidth=2]
    123 -> 265 [penwidth=2]
    249 -> 265 [penwidth=2]
    375 -> 265 [penwidth=2]
    124 -> 265 [penwidth=2]
    250 -> 265 [penwidth=2]
    376 -> 265 [penwidth=2]
    125 -> 265 [penwidth=2]
    251 -> 265 [penwidth=2]
    377 -> 265 [penwidth=2]
    126 -> 265 [penwidth=2]
    252 -> 265 [penwidth=2]
    378 -> 265 [penwidth=2]
    127 -> 265 [penwidth=2]
    253 -> 265 [penwidth=2]
    379 -> 182 [penwidth=2]
    128 -> 182 [penwidth=2]
    254 -> 182 [penwidth=2]
    380 -> 182 [penwidth=2]
    129 -> 182 [penwidth=2]
    255 -> 182 [penwidth=2]
    381 -> 182 [penwidth=2]
    46 -> 182 [penwidth=2]
    47 -> 182 [penwidth=2]
    48 -> 182 [penwidth=2]
    49 -> 182 [penwidth=2]
    50 -> 182 [penwidth=2]
    51 -> 182 [penwidth=2]
    52 -> 182 [penwidth=2]
    53 -> 182 [penwidth=2]
    54 -> 182 [penwidth=2]
    55 -> 182 [penwidth=2]
    56 -> 182 [penwidth=2]
    57 -> 182 [penwidth=2]
    58 -> 182 [penwidth=2]
    59 -> 182 [penwidth=2]
    60 -> 182 [penwidth=2]
    61 -> 266 [penwidth=2]
    62 -> 266 [penwidth=2]
    63 -> 266 [penwidth=2]
    64 -> 266 [penwidth=2]
    65 -> 266 [penwidth=2]
    66 -> 266 [penwidth=2]
    67 -> 266 [penwidth=2]
    68 -> 183 [penwidth=2]
    69 -> 183 [penwidth=2]
    70 -> 183 [penwidth=2]
    71 -> 183 [penwidth=2]
    72 -> 183 [penwidth=2]
    73 -> 183 [penwidth=2]
    74 -> 183 [penwidth=2]
    75 -> 183 [penwidth=2]
    76 -> 183 [penwidth=2]
    77 -> 183 [penwidth=2]
    78 -> 183 [penwidth=2]
    79 -> 183 [penwidth=2]
    80 -> 183 [penwidth=2]
    81 -> 183 [penwidth=2]
    82 -> 183 [penwidth=2]
    83 -> 267 [penwidth=2]
    84 -> 267 [penwidth=2]
    85 -> 267 [penwidth=2]
    86 -> 267 [penwidth=2]
    87 -> 267 [penwidth=2]
    4 -> 267 [penwidth=2]
    5 -> 267 [penwidth=2]
    6 -> 267 [penwidth=2]
    7 -> 267 [penwidth=2]
    8 -> 267 [penwidth=2]
    9 -> 267 [penwidth=2]
    10 -> 267 [penwidth=2]
    11 -> 267 [penwidth=2]
    12 -> 267 [penwidth=2]
    13 -> 267 [penwidth=2]
    14 -> 267 [penwidth=2]
    15 -> 267 [penwidth=2]
    16 -> 267 [penwidth=2]
    17 -> 267 [penwidth=2]
    18 -> 267 [penwidth=2]
    19 -> 184 [penwidth=2]
    20 -> 184 [penwidth=2]
    21 -> 184 [penwidth=2]
    22 -> 184 [penwidth=2]
    23 -> 184 [penwidth=2]
    24 -> 268 [penwidth=2]
    25 -> 268 [penwidth=2]
    26 -> 268 [penwidth=2]
    27 -> 268 [penwidth=2]
    28 -> 268 [penwidth=2]
    29 -> 268 [penwidth=2]
    30 -> 268 [penwidth=2]
    31 -> 268 [penwidth=2]
    32 -> 268 [penwidth=2]
    33 -> 268 [penwidth=2]
    34 -> 268 [penwidth=2]
    35 -> 268 [penwidth=2]
    36 -> 268 [penwidth=2]
    37 -> 268 [penwidth=2]
    38 -> 268 [penwidth=2]
    39 -> 268 [penwidth=2]
    40 -> 268 [penwidth=2]
    41 -> 268 [penwidth=2]
    42 -> 268 [penwidth=2]
    43 -> 268 [penwidth=2]
    44 -> 268 [penwidth=2]
    45 -> 268 [penwidth=2]
    130 -> 268 [penwidth=2]
    131 -> 268 [penwidth=2]
    132 -> 268 [penwidth=2]
    133 -> 268 [penwidth=2]
    134 -> 185 [penwidth=2]
    135 -> 185 [penwidth=2]
    136 -> 185 [penwidth=2]
    137 -> 185 [penwidth=2]
    138 -> 185 [penwidth=2]
    139 -> 185 [penwidth=2]
    140 -> 185 [penwidth=2]
    141 -> 185 [penwidth=2]
    142 -> 185 [penwidth=2]
    143 -> 185 [penwidth=2]
    144 -> 185 [penwidth=2]
    145 -> 185 [penwidth=2]
    146 -> 185 [penwidth=2]
    147 -> 185 [penwidth=2]
    148 -> 185 [penwidth=2]
    149 -> 185 [penwidth=2]
    150 -> 185 [penwidth=2]
    151 -> 185 [penwidth=2]
    152 -> 185 [penwidth=2]
    153 -> 185 [penwidth=2]
    154 -> 269 [penwidth=2]
    155 -> 186 [penwidth=2]
    156 -> 186 [penwidth=2]
    157 -> 186 [penwidth=2]
    158 -> 186 [penwidth=2]
    159 -> 186 [penwidth=2]
    160 -> 270 [penwidth=2]
    161 -> 187 [penwidth=2]
    162 -> 187 [penwidth=2]
    163 -> 187 [penwidth=2]
    164 -> 187 [penwidth=2]
    165 -> 187 [penwidth=2]
    166 -> 187 [penwidth=2]
    167 -> 187 [penwidth=2]
    168 -> 187 [penwidth=2]
    169 -> 187 [penwidth=2]
    170 -> 187 [penwidth=2]
    171 -> 187 [penwidth=2]
    180 -> 256 [penwidth=2]
    264 -> 256 [penwidth=2]
    192 -> 172 [penwidth=2]
    198 -> 274 [penwidth=2]
    198 -> 185 [penwidth=2]
    198 -> 273 [penwidth=2]
    198 -> 178 [penwidth=2]
    198 -> 181 [penwidth=2]
    198 -> 189 [penwidth=2]
    198 -> 275 [penwidth=2]
    198 -> 192 [penwidth=2]
    198 -> 195 [penwidth=2]
    198 -> 265 [penwidth=2]
    198 -> 266 [penwidth=2]
    198 -> 263 [penwidth=2]
    198 -> 188 [penwidth=2]
    198 -> 194 [penwidth=2]
    198 -> 272 [penwidth=2]
    198 -> 176 [penwidth=2]
    198 -> 268 [penwidth=2]
    198 -> 182 [penwidth=2]
    198 -> 175 [penwidth=2]
    198 -> 180 [penwidth=2]
    198 -> 174 [penwidth=2]
    198 -> 179 [penwidth=2]
    198 -> 276 [penwidth=2]
    198 -> 267 [penwidth=2]
    198 -> 173 [penwidth=2]
    198 -> 260 [penwidth=2]
    198 -> 262 [penwidth=2]
    198 -> 270 [penwidth=2]
    198 -> 191 [penwidth=2]
    198 -> 261 [penwidth=2]
    198 -> 186 [penwidth=2]
    198 -> 177 [penwidth=2]
    198 -> 187 [penwidth=2]
    198 -> 258 [penwidth=2]
    198 -> 277 [penwidth=2]
    198 -> 271 [penwidth=2]
    198 -> 184 [penwidth=2]
    198 -> 278 [penwidth=2]
    198 -> 259 [penwidth=2]
    198 -> 183 [penwidth=2]
    198 -> 264 [penwidth=2]
    198 -> 193 [penwidth=2]
    290 -> 273 [penwidth=2]
    290 -> 257 [penwidth=2]
    290 -> 195 [penwidth=2]
    290 -> 277 [penwidth=2]
    290 -> 186 [penwidth=2]
    290 -> 190 [penwidth=2]
    290 -> 261 [penwidth=2]
    290 -> 278 [penwidth=2]
    290 -> 266 [penwidth=2]
    290 -> 268 [penwidth=2]
    290 -> 258 [penwidth=2]
    290 -> 275 [penwidth=2]
    290 -> 176 [penwidth=2]
    290 -> 264 [penwidth=2]
    290 -> 184 [penwidth=2]
    290 -> 177 [penwidth=2]
    290 -> 178 [penwidth=2]
    290 -> 182 [penwidth=2]
    290 -> 267 [penwidth=2]
    290 -> 260 [penwidth=2]
    290 -> 272 [penwidth=2]
    290 -> 181 [penwidth=2]
    290 -> 189 [penwidth=2]
    207 -> 175 [penwidth=2]
    207 -> 273 [penwidth=2]
    207 -> 187 [penwidth=2]
    207 -> 191 [penwidth=2]
    207 -> 257 [penwidth=2]
    207 -> 258 [penwidth=2]
    207 -> 178 [penwidth=2]
    207 -> 177 [penwidth=2]
    207 -> 190 [penwidth=2]
    207 -> 263 [penwidth=2]
    207 -> 182 [penwidth=2]
    207 -> 260 [penwidth=2]
    207 -> 277 [penwidth=2]
    207 -> 272 [penwidth=2]
    207 -> 274 [penwidth=2]
    207 -> 270 [penwidth=2]
    207 -> 275 [penwidth=2]
    207 -> 186 [penwidth=2]
    207 -> 265 [penwidth=2]
    207 -> 180 [penwidth=2]
    207 -> 189 [penwidth=2]
    207 -> 173 [penwidth=2]
    207 -> 269 [penwidth=2]
    207 -> 179 [penwidth=2]
    207 -> 271 [penwidth=2]
    207 -> 184 [penwidth=2]
    207 -> 183 [penwidth=2]
    207 -> 181 [penwidth=2]
    207 -> 194 [penwidth=2]
    207 -> 261 [penwidth=2]
    207 -> 193 [penwidth=2]
    207 -> 259 [penwidth=2]
    207 -> 268 [penwidth=2]
    207 -> 266 [penwidth=2]
    207 -> 185 [penwidth=2]
    207 -> 192 [penwidth=2]
    207 -> 195 [penwidth=2]
    207 -> 267 [penwidth=2]
    207 -> 278 [penwidth=2]
    207 -> 264 [penwidth=2]
    207 -> 262 [penwidth=2]
    207 -> 176 [penwidth=2]
    311 -> 183 [penwidth=2]
    311 -> 186 [penwidth=2]
    311 -> 264 [penwidth=2]
    311 -> 276 [penwidth=2]
    311 -> 180 [penwidth=2]
    311 -> 189 [penwidth=2]
    311 -> 257 [penwidth=2]
    311 -> 271 [penwidth=2]
    311 -> 191 [penwidth=2]
    311 -> 182 [penwidth=2]
    311 -> 272 [penwidth=2]
    311 -> 278 [penwidth=2]
    311 -> 273 [penwidth=2]
    311 -> 265 [penwidth=2]
    311 -> 185 [penwidth=2]
    311 -> 184 [penwidth=2]
    311 -> 177 [penwidth=2]
    311 -> 262 [penwidth=2]
    311 -> 275 [penwidth=2]
    311 -> 181 [penwidth=2]
    318 -> 264 [penwidth=2]
    318 -> 278 [penwidth=2]
    318 -> 188 [penwidth=2]
    318 -> 274 [penwidth=2]
    318 -> 263 [penwidth=2]
    318 -> 176 [penwidth=2]
    318 -> 272 [penwidth=2]
    318 -> 262 [penwidth=2]
    318 -> 258 [penwidth=2]
    318 -> 187 [penwidth=2]
    318 -> 271 [penwidth=2]
    318 -> 181 [penwidth=2]
    318 -> 185 [penwidth=2]
    318 -> 261 [penwidth=2]
    318 -> 180 [penwidth=2]
    318 -> 182 [penwidth=2]
    318 -> 269 [penwidth=2]
    318 -> 179 [penwidth=2]
    318 -> 173 [penwidth=2]
    318 -> 267 [penwidth=2]
    318 -> 183 [penwidth=2]
    318 -> 270 [penwidth=2]
    318 -> 190 [penwidth=2]
    318 -> 189 [penwidth=2]
    318 -> 273 [penwidth=2]
    318 -> 266 [penwidth=2]
    318 -> 193 [penwidth=2]
    318 -> 259 [penwidth=2]
    318 -> 265 [penwidth=2]
    318 -> 178 [penwidth=2]
    318 -> 276 [penwidth=2]
    318 -> 177 [penwidth=2]
    318 -> 184 [penwidth=2]
    318 -> 194 [penwidth=2]
    328 -> 176 [penwidth=2]
    328 -> 192 [penwidth=2]
    328 -> 268 [penwidth=2]
    328 -> 193 [penwidth=2]
    328 -> 183 [penwidth=2]
    328 -> 182 [penwidth=2]
    328 -> 173 [penwidth=2]
    328 -> 184 [penwidth=2]
    328 -> 181 [penwidth=2]
    328 -> 259 [penwidth=2]
    328 -> 188 [penwidth=2]
    328 -> 261 [penwidth=2]
    328 -> 180 [penwidth=2]
    328 -> 177 [penwidth=2]
    328 -> 178 [penwidth=2]
    328 -> 263 [penwidth=2]
    328 -> 260 [penwidth=2]
    328 -> 276 [penwidth=2]
    328 -> 270 [penwidth=2]
    92 -> 263 [penwidth=2]
    92 -> 264 [penwidth=2]
    92 -> 190 [penwidth=2]
    92 -> 267 [penwidth=2]
    92 -> 174 [penwidth=2]
    92 -> 259 [penwidth=2]
    92 -> 278 [penwidth=2]
    92 -> 262 [penwidth=2]
    92 -> 178 [penwidth=2]
    92 -> 276 [penwidth=2]
    92 -> 194 [penwidth=2]
    92 -> 191 [penwidth=2]
    92 -> 179 [penwidth=2]
    92 -> 271 [penwidth=2]
    92 -> 266 [penwidth=2]
    92 -> 176 [penwidth=2]
    92 -> 273 [penwidth=2]
    92 -> 189 [penwidth=2]
    218 -> 191 [penwidth=2]
    218 -> 266 [penwidth=2]
    218 -> 262 [penwidth=2]
    218 -> 263 [penwidth=2]
    218 -> 176 [penwidth=2]
    218 -> 260 [penwidth=2]
    218 -> 180 [penwidth=2]
    218 -> 271 [penwidth=2]
    218 -> 187 [penwidth=2]
    218 -> 185 [penwidth=2]
    218 -> 181 [penwidth=2]
    218 -> 173 [penwidth=2]
    218 -> 190 [penwidth=2]
    218 -> 276 [penwidth=2]
    218 -> 272 [penwidth=2]
    218 -> 258 [penwidth=2]
    218 -> 193 [penwidth=2]
    218 -> 278 [penwidth=2]
    390 -> 265 [penwidth=2]
    390 -> 189 [penwidth=2]
    390 -> 178 [penwidth=2]
    390 -> 186 [penwidth=2]
    390 -> 262 [penwidth=2]
    390 -> 277 [penwidth=2]
    390 -> 276 [penwidth=2]
    390 -> 191 [penwidth=2]
    390 -> 278 [penwidth=2]
    390 -> 269 [penwidth=2]
    390 -> 179 [penwidth=2]
    390 -> 270 [penwidth=2]
    390 -> 173 [penwidth=2]
    223 -> 193 [penwidth=2]
    223 -> 266 [penwidth=2]
    223 -> 177 [penwidth=2]
    223 -> 175 [penwidth=2]
    223 -> 270 [penwidth=2]
    223 -> 273 [penwidth=2]
    223 -> 195 [penwidth=2]
    223 -> 182 [penwidth=2]
    223 -> 188 [penwidth=2]
    223 -> 186 [penwidth=2]
    223 -> 174 [penwidth=2]
    223 -> 274 [penwidth=2]
    223 -> 173 [penwidth=2]
    223 -> 260 [penwidth=2]
    223 -> 272 [penwidth=2]
    223 -> 194 [penwidth=2]
    223 -> 191 [penwidth=2]
    223 -> 269 [penwidth=2]
    223 -> 176 [penwidth=2]
    223 -> 189 [penwidth=2]
    223 -> 179 [penwidth=2]
    223 -> 190 [penwidth=2]
    223 -> 184 [penwidth=2]
    223 -> 180 [penwidth=2]
    223 -> 185 [penwidth=2]
    223 -> 264 [penwidth=2]
    223 -> 268 [penwidth=2]
    230 -> 173 [penwidth=2]
    230 -> 271 [penwidth=2]
    230 -> 278 [penwidth=2]
    230 -> 263 [penwidth=2]
    230 -> 277 [penwidth=2]
    359 -> 180 [penwidth=2]
    359 -> 267 [penwidth=2]
    359 -> 274 [penwidth=2]
    359 -> 194 [penwidth=2]
    359 -> 265 [penwidth=2]
    359 -> 195 [penwidth=2]
    359 -> 193 [penwidth=2]
    359 -> 175 [penwidth=2]
    359 -> 275 [penwidth=2]
    237 -> 262 [penwidth=2]
    237 -> 261 [penwidth=2]
    237 -> 273 [penwidth=2]
    237 -> 260 [penwidth=2]
    237 -> 278 [penwidth=2]
    237 -> 192 [penwidth=2]
    237 -> 269 [penwidth=2]
    237 -> 271 [penwidth=2]
    237 -> 272 [penwidth=2]
    237 -> 173 [penwidth=2]
    237 -> 177 [penwidth=2]
    237 -> 190 [penwidth=2]
    237 -> 194 [penwidth=2]
    237 -> 175 [penwidth=2]
    237 -> 181 [penwidth=2]
    237 -> 259 [penwidth=2]
    237 -> 188 [penwidth=2]
    237 -> 276 [penwidth=2]
    237 -> 180 [penwidth=2]
    237 -> 178 [penwidth=2]
    241 -> 188 [penwidth=2]
    241 -> 272 [penwidth=2]
    241 -> 173 [penwidth=2]
    241 -> 264 [penwidth=2]
    241 -> 177 [penwidth=2]
    241 -> 181 [penwidth=2]
    241 -> 277 [penwidth=2]
    241 -> 194 [penwidth=2]
    241 -> 186 [penwidth=2]
    241 -> 187 [penwidth=2]
    241 -> 179 [penwidth=2]
    376 -> 185 [penwidth=2]
    376 -> 264 [penwidth=2]
    376 -> 277 [penwidth=2]
    376 -> 259 [penwidth=2]
    376 -> 278 [penwidth=2]
    376 -> 195 [penwidth=2]
    376 -> 266 [penwidth=2]
    376 -> 258 [penwidth=2]
    376 -> 177 [penwidth=2]
    376 -> 192 [penwidth=2]
    376 -> 257 [penwidth=2]
    376 -> 188 [penwidth=2]
    376 -> 190 [penwidth=2]
    376 -> 187 [penwidth=2]
    376 -> 194 [penwidth=2]
    376 -> 184 [penwidth=2]
    376 -> 274 [penwidth=2]
    376 -> 272 [penwidth=2]
    376 -> 275 [penwidth=2]
    376 -> 273 [penwidth=2]
    376 -> 276 [penwidth=2]
    376 -> 271 [penwidth=2]
    376 -> 267 [penwidth=2]
    376 -> 182 [penwidth=2]
    376 -> 191 [penwidth=2]
    376 -> 176 [penwidth=2]
    376 -> 173 [penwidth=2]
    376 -> 260 [penwidth=2]
    376 -> 174 [penwidth=2]
    376 -> 193 [penwidth=2]
    376 -> 269 [penwidth=2]
    376 -> 186 [penwidth=2]
    376 -> 175 [penwidth=2]
    376 -> 181 [penwidth=2]
    376 -> 263 [penwidth=2]
    376 -> 270 [penwidth=2]
    376 -> 179 [penwidth=2]
    376 -> 268 [penwidth=2]
    376 -> 262 [penwidth=2]
    376 -> 180 [penwidth=2]
    376 -> 178 [penwidth=2]
    376 -> 261 [penwidth=2]
    379 -> 177 [penwidth=2]
    379 -> 181 [penwidth=2]
    379 -> 187 [penwidth=2]
    379 -> 266 [penwidth=2]
    379 -> 259 [penwidth=2]
    379 -> 275 [penwidth=2]
    379 -> 265 [penwidth=2]
    379 -> 270 [penwidth=2]
    379 -> 190 [penwidth=2]
    379 -> 258 [penwidth=2]
    379 -> 269 [penwidth=2]
    379 -> 276 [penwidth=2]
    379 -> 261 [penwidth=2]
    379 -> 195 [penwidth=2]
    379 -> 192 [penwidth=2]
    379 -> 189 [penwidth=2]
    379 -> 179 [penwidth=2]
    379 -> 257 [penwidth=2]
    379 -> 175 [penwidth=2]
    379 -> 277 [penwidth=2]
    379 -> 178 [penwidth=2]
    379 -> 267 [penwidth=2]
    379 -> 188 [penwidth=2]
    379 -> 264 [penwidth=2]
    47 -> 186 [penwidth=2]
    47 -> 264 [penwidth=2]
    47 -> 259 [penwidth=2]
    47 -> 176 [penwidth=2]
    47 -> 173 [penwidth=2]
    47 -> 267 [penwidth=2]
    47 -> 278 [penwidth=2]
    47 -> 262 [penwidth=2]
    47 -> 192 [penwidth=2]
    47 -> 261 [penwidth=2]
    47 -> 195 [penwidth=2]
    47 -> 277 [penwidth=2]
    47 -> 272 [penwidth=2]
    47 -> 263 [penwidth=2]
    47 -> 187 [penwidth=2]
    47 -> 276 [penwidth=2]
    47 -> 274 [penwidth=2]
    47 -> 183 [penwidth=2]
    53 -> 188 [penwidth=2]
    53 -> 264 [penwidth=2]
    53 -> 263 [penwidth=2]
    53 -> 261 [penwidth=2]
    53 -> 277 [penwidth=2]
    53 -> 258 [penwidth=2]
    53 -> 257 [penwidth=2]
    53 -> 187 [penwidth=2]
    53 -> 276 [penwidth=2]
    53 -> 178 [penwidth=2]
    53 -> 174 [penwidth=2]
    53 -> 274 [penwidth=2]
    53 -> 186 [penwidth=2]
    53 -> 272 [penwidth=2]
    53 -> 269 [penwidth=2]
    53 -> 195 [penwidth=2]
    53 -> 189 [penwidth=2]
    53 -> 176 [penwidth=2]
    53 -> 259 [penwidth=2]
    53 -> 262 [penwidth=2]
    53 -> 273 [penwidth=2]
    53 -> 265 [penwidth=2]
    53 -> 194 [penwidth=2]
    53 -> 175 [penwidth=2]
    53 -> 192 [penwidth=2]
    53 -> 268 [penwidth=2]
    53 -> 266 [penwidth=2]
    53 -> 180 [penwidth=2]
    53 -> 267 [penwidth=2]
    53 -> 270 [penwidth=2]
    54 -> 274 [penwidth=2]
    54 -> 178 [penwidth=2]
    54 -> 270 [penwidth=2]
    54 -> 263 [penwidth=2]
    54 -> 186 [penwidth=2]
    54 -> 194 [penwidth=2]
    54 -> 185 [penwidth=2]
    54 -> 264 [penwidth=2]
    54 -> 188 [penwidth=2]
    54 -> 272 [penwidth=2]
    54 -> 261 [penwidth=2]
    54 -> 183 [penwidth=2]
    54 -> 179 [penwidth=2]
    54 -> 259 [penwidth=2]
    54 -> 267 [penwidth=2]
    54 -> 266 [penwidth=2]
    54 -> 173 [penwidth=2]
    54 -> 262 [penwidth=2]
    54 -> 189 [penwidth=2]
    54 -> 190 [penwidth=2]
    54 -> 275 [penwidth=2]
    54 -> 180 [penwidth=2]
    54 -> 277 [penwidth=2]
    54 -> 193 [penwidth=2]
    54 -> 278 [penwidth=2]
    54 -> 187 [penwidth=2]
    54 -> 195 [penwidth=2]
    54 -> 273 [penwidth=2]
    54 -> 175 [penwidth=2]
    54 -> 257 [penwidth=2]
    54 -> 271 [penwidth=2]
    54 -> 265 [penwidth=2]
    54 -> 181 [penwidth=2]
    54 -> 191 [penwidth=2]
    54 -> 268 [penwidth=2]
    54 -> 269 [penwidth=2]
    54 -> 276 [penwidth=2]
    54 -> 260 [penwidth=2]
    54 -> 192 [penwidth=2]
    54 -> 176 [penwidth=2]
    54 -> 174 [penwidth=2]
    54 -> 184 [penwidth=2]
    58 -> 270 [penwidth=2]
    58 -> 266 [penwidth=2]
    87 -> 264 [penwidth=2]
    87 -> 186 [penwidth=2]
    87 -> 260 [penwidth=2]
    87 -> 274 [penwidth=2]
    87 -> 276 [penwidth=2]
    87 -> 181 [penwidth=2]
    87 -> 176 [penwidth=2]
    87 -> 273 [penwidth=2]
    87 -> 259 [penwidth=2]
    87 -> 266 [penwidth=2]
    87 -> 270 [penwidth=2]
    87 -> 192 [penwidth=2]
    87 -> 269 [penwidth=2]
    87 -> 258 [penwidth=2]
    87 -> 265 [penwidth=2]
    87 -> 183 [penwidth=2]
    87 -> 195 [penwidth=2]
    87 -> 275 [penwidth=2]
    87 -> 191 [penwidth=2]
    87 -> 193 [penwidth=2]
    87 -> 272 [penwidth=2]
    87 -> 268 [penwidth=2]
    87 -> 262 [penwidth=2]
    87 -> 179 [penwidth=2]
    87 -> 185 [penwidth=2]
    87 -> 278 [penwidth=2]
    87 -> 182 [penwidth=2]
    87 -> 180 [penwidth=2]
    8 -> 277 [penwidth=2]
    8 -> 269 [penwidth=2]
    8 -> 184 [penwidth=2]
    8 -> 257 [penwidth=2]
    8 -> 193 [penwidth=2]
    8 -> 188 [penwidth=2]
    8 -> 276 [penwidth=2]
    8 -> 180 [penwidth=2]
    8 -> 189 [penwidth=2]
    8 -> 194 [penwidth=2]
    8 -> 181 [penwidth=2]
    8 -> 262 [penwidth=2]
    8 -> 178 [penwidth=2]
    8 -> 182 [penwidth=2]
    8 -> 195 [penwidth=2]
    16 -> 173 [penwidth=2]
    16 -> 257 [penwidth=2]
    16 -> 269 [penwidth=2]
    16 -> 192 [penwidth=2]
    16 -> 176 [penwidth=2]
    16 -> 266 [penwidth=2]
    16 -> 263 [penwidth=2]
    16 -> 187 [penwidth=2]
    16 -> 261 [penwidth=2]
    16 -> 177 [penwidth=2]
    16 -> 174 [penwidth=2]
    16 -> 273 [penwidth=2]
    16 -> 184 [penwidth=2]
    16 -> 271 [penwidth=2]
    16 -> 189 [penwidth=2]
    16 -> 175 [penwidth=2]
    16 -> 180 [penwidth=2]
    16 -> 264 [penwidth=2]
    16 -> 191 [penwidth=2]
    16 -> 276 [penwidth=2]
    16 -> 182 [penwidth=2]
    16 -> 259 [penwidth=2]
    16 -> 272 [penwidth=2]
    16 -> 193 [penwidth=2]
    16 -> 186 [penwidth=2]
    16 -> 275 [penwidth=2]
    16 -> 188 [penwidth=2]
    16 -> 274 [penwidth=2]
    45 -> 260 [penwidth=2]
    45 -> 174 [penwidth=2]
    45 -> 274 [penwidth=2]
    45 -> 189 [penwidth=2]
    45 -> 277 [penwidth=2]
    45 -> 266 [penwidth=2]
    45 -> 177 [penwidth=2]
    45 -> 262 [penwidth=2]
    136 -> 278 [penwidth=2]
    136 -> 259 [penwidth=2]
    136 -> 264 [penwidth=2]
    136 -> 193 [penwidth=2]
    136 -> 180 [penwidth=2]
    136 -> 267 [penwidth=2]
    136 -> 260 [penwidth=2]
    136 -> 174 [penwidth=2]
    136 -> 191 [penwidth=2]
    139 -> 179 [penwidth=2]
    139 -> 184 [penwidth=2]
    139 -> 278 [penwidth=2]
    139 -> 268 [penwidth=2]
    139 -> 173 [penwidth=2]
    139 -> 258 [penwidth=2]
    139 -> 266 [penwidth=2]
    139 -> 190 [penwidth=2]
    139 -> 275 [penwidth=2]
    139 -> 175 [penwidth=2]
    139 -> 178 [penwidth=2]
    139 -> 193 [penwidth=2]
    139 -> 272 [penwidth=2]
    139 -> 276 [penwidth=2]
    139 -> 274 [penwidth=2]
    139 -> 263 [penwidth=2]
    139 -> 267 [penwidth=2]
    139 -> 183 [penwidth=2]
    139 -> 176 [penwidth=2]
    139 -> 182 [penwidth=2]
    139 -> 188 [penwidth=2]
    139 -> 264 [penwidth=2]
    139 -> 194 [penwidth=2]
    139 -> 177 [penwidth=2]
    139 -> 186 [penwidth=2]
    139 -> 259 [penwidth=2]
    139 -> 260 [penwidth=2]
    139 -> 277 [penwidth=2]
    139 -> 261 [penwidth=2]
    139 -> 271 [penwidth=2]
    139 -> 265 [penwidth=2]
    139 -> 262 [penwidth=2]
    139 -> 195 [penwidth=2]
    139 -> 257 [penwidth=2]
    154 -> 267 [penwidth=2]
    154 -> 177 [penwidth=2]
    154 -> 180 [penwidth=2]
    154 -> 175 [penwidth=2]
    154 -> 257 [penwidth=2]
    154 -> 275 [penwidth=2]
    154 -> 194 [penwidth=2]
    154 -> 268 [penwidth=2]
    154 -> 183 [penwidth=2]
    154 -> 191 [penwidth=2]
    154 -> 261 [penwidth=2]
    154 -> 278 [penwidth=2]
    154 -> 192 [penwidth=2]
    154 -> 259 [penwidth=2]
    154 -> 271 [penwidth=2]
    154 -> 263 [penwidth=2]
    154 -> 272 [penwidth=2]
    154 -> 274 [penwidth=2]
    154 -> 173 [penwidth=2]
    154 -> 265 [penwidth=2]
    154 -> 189 [penwidth=2]
    154 -> 270 [penwidth=2]
    154 -> 260 [penwidth=2]
    154 -> 195 [penwidth=2]
    154 -> 179 [penwidth=2]
    154 -> 186 [penwidth=2]
    154 -> 185 [penwidth=2]
    154 -> 190 [penwidth=2]
    154 -> 181 [penwidth=2]
    154 -> 182 [penwidth=2]
    154 -> 184 [penwidth=2]
    154 -> 262 [penwidth=2]
    154 -> 174 [penwidth=2]
    154 -> 178 [penwidth=2]
    154 -> 176 [penwidth=2]
    154 -> 188 [penwidth=2]
    154 -> 193 [penwidth=2]
    154 -> 258 [penwidth=2]
    154 -> 273 [penwidth=2]
    154 -> 277 [penwidth=2]
    158 -> 272 [penwidth=2]
    158 -> 257 [penwidth=2]
    158 -> 278 [penwidth=2]
    158 -> 265 [penwidth=2]
    158 -> 262 [penwidth=2]
    158 -> 260 [penwidth=2]
    158 -> 176 [penwidth=2]
    158 -> 185 [penwidth=2]
    158 -> 190 [penwidth=2]
    158 -> 175 [penwidth=2]
    158 -> 273 [penwidth=2]
    158 -> 267 [penwidth=2]
    158 -> 181 [penwidth=2]
    158 -> 177 [penwidth=2]
    158 -> 179 [penwidth=2]
    158 -> 194 [penwidth=2]
    158 -> 184 [penwidth=2]
    158 -> 174 [penwidth=2]
    158 -> 193 [penwidth=2]
    158 -> 269 [penwidth=2]
    158 -> 191 [penwidth=2]
    158 -> 261 [penwidth=2]
    158 -> 263 [penwidth=2]
}