digraph G {
    0 [penwidth=3,label="0"]
    1 [penwidth=3,label="1"]
    2 [penwidth=3,label="2"]
    3 [penwidth=3,label="3"]
    4 [penwidth=3,label="4"]
    5 [penwidth=3,label="5"]
    6 [penwidth=3,label="6"]
    7 [penwidth=3,label="7"]
    8 [penwidth=3,label="8"]
    9 [penwidth=3,label="9"]
    10 [penwidth=3,label="10"]
    11 [penwidth=3,label="11"]
    12 [penwidth=3,label="12"]
    13 [penwidth=3,label="13"]
    14 [penwidth=3,label="14"]
    15 [penwidth=3,label="15"]
    16 [penwidth=3,label="16"]
    17 [penwidth=3,label="17"]
    18 [penwidth=3,label="18"]
    19 [penwidth=3,label="19"]
    20 [penwidth=3,label="20"]
    21 [penwidth=3,label="21"]
    22 [penwidth=3,label="22"]
    23 [penwidth=3,label="23"]
    24 [penwidth=3,label="24"]
    25 [penwidth=3,label="25"]
    26 [penwidth=3,label="26"]
    27 [penwidth=3,label="27"]
    28 [penwidth=3,label="28"]
    29 [penwidth=3,label="29"]
    30 [penwidth=3,label="30"]
    31 [penwidth=3,label="31"]
    32 [penwidth=3,label="32"]
    33 [penwidth=3,label="33"]
    34 [penwidth=3,label="34"]
    35 [penwidth=3,label="35"]
    36 [penwidth=3,label="36"]
    37 [penwidth=3,label="37"]
    38 [penwidth=3,label="38"]
    39 [penwidth=3,label="39"]
    40 [penwidth=3,label="40"]
    41 [penwidth=3,label="41"]
    42 [penwidth=3,label="42"]
    43 [penwidth=3,label="43"]
    44 [penwidth=3,label="44"]
    45 [penwidth=3,label="45"]
    46 [penwidth=3,label="46"]
    47 [penwidth=3,label="47"]
    48 [penwidth=3,label="48"]
    49 [penwidth=3,label="49"]
    50 [penwidth=3,label="50"]
    51 [penwidth=3,label="51"]
    52 [penwidth=3,label="52"]
    53 [penwidth=3,label="53"]
    54 [penwidth=3,label="54"]
    55 [penwidth=3,label="55"]
    56 [penwidth=3,label="56"]
    57 [penwidth=3,label="57"]
    58 [penwidth=3,label="58"]
    59 [penwidth=3,label="59"]
    60 [penwidth=3,label="60"]
    61 [penwidth=3,label="61"]
    62 [penwidth=3,label="62"]
    63 [penwidth=3,label="63"]
    64 [penwidth=3,label="64"]
    65 [penwidth=3,label="65"]
    66 [penwidth=3,label="66"]
    67 [penwidth=3,label="67"]
    68 [penwidth=3,label="68"]
    69 [penwidth=3,label="69"]
    70 [penwidth=3,label="70"]
    71 [penwidth=3,label="71"]
    72 [penwidth=3,label="72"]
    73 [penwidth=3,label="73"]
    74 [penwidth=3,label="74"]
    75 [penwidth=3,label="75"]
    76 [penwidth=3,label="76"]
    77 [penwidth=3,label="77"]
    78 [penwidth=3,label="78"]
    79 [penwidth=3,label="79"]
    80 [penwidth=3,label="80"]
    81 [penwidth=3,label="81"]
    82 [penwidth=3,label="82"]
    83 [penwidth=3,label="83"]
    84 [penwidth=3,label="84"]
    85 [penwidth=3,label="85"]
    86 [penwidth=3,label="86"]
    87 [penwidth=3,label="87"]
    88 [penwidth=3,label="88"]
    89 [penwidth=3,label="89"]
    90 [penwidth=3,label="90"]
    91 [penwidth=3,label="91"]
    92 [penwidth=3,label="92"]
    93 [penwidth=3,label="93"]
    94 [penwidth=3,label="94"]
    95 [penwidth=3,label="95"]
    96 [penwidth=3,label="96"]
    97 [penwidth=3,label="97"]
    98 [penwidth=3,label="98"]
    99 [penwidth=3,label="99"]
    100 [penwidth=3,label="100"]
    101 [penwidth=3,label="101"]
    102 [penwidth=3,label="102"]
    103 [penwidth=3,label="103"]
    104 [penwidth=3,label="104"]
    105 [penwidth=3,label="105"]
    106 [penwidth=3,label="106"]
    107 [penwidth=3,label="107"]
    108 [penwidth=3,label="108"]
    109 [penwidth=3,label="109"]
    110 [penwidth=3,label="110"]
    111 [penwidth=3,label="111"]
    112 [penwidth=3,label="112"]
    113 [penwidth=3,label="113"]
    114 [penwidth=3,label="114"]
    115 [penwidth=3,label="115"]
    116 [penwidth=3,label="116"]
    117 [penwidth=3,label="117"]
    118 [penwidth=3,label="118"]
    119 [penwidth=3,label="119"]
    120 [penwidth=3,label="120"]
    121 [penwidth=3,label="121"]
    122 [penwidth=3,label="122"]
    123 [penwidth=3,label="123"]
    124 [penwidth=3,label="124"]
    125 [penwidth=3,label="125"]
    126 [penwidth=3,label="126"]
    127 [penwidth=3,label="127"]
    128 [penwidth=3,label="128"]
    129 [penwidth=3,label="129"]
    130 [penwidth=3,label="130"]
    131 [penwidth=3,label="131"]
    132 [penwidth=3,label="132"]
    133 [penwidth=3,label="133"]
    134 [penwidth=3,label="134"]
    135 [penwidth=3,label="135"]
    136 [penwidth=3,label="136"]
    137 [penwidth=3,label="137"]
    138 [penwidth=3,label="138"]
    139 [penwidth=3,label="139"]
    140 [penwidth=3,label="140"]
    141 [penwidth=3,label="141"]
    142 [penwidth=3,label="142"]
    143 [penwidth=3,label="143"]
    144 [penwidth=3,label="144"]
    145 [penwidth=3,label="145"]
    146 [penwidth=3,label="146"]
    147 [penwidth=3,label="147"]
    148 [penwidth=3,label="148"]
    149 [penwidth=3,label="149"]
    150 [penwidth=3,label="150"]
    151 [penwidth=3,label="151"]
    152 [penwidth=3,label="152"]
    153 [penwidth=3,label="153"]
    154 [penwidth=3,label="154"]
    155 [penwidth=3,label="155"]
    156 [penwidth=3,label="156"]
    157 [penwidth=3,label="157"]
    158 [penwidth=3,label="158"]
    159 [penwidth=3,label="159"]
    160 [penwidth=3,label="160"]
    161 [penwidth=3,label="161"]
    162 [penwidth=3,label="162"]
    163 [penwidth=3,label="163"]
    164 [penwidth=3,label="164"]
    165 [penwidth=3,label="165"]
    166 [penwidth=3,label="166"]
    167 [penwidth=3,label="167"]
    168 [penwidth=3,label="168"]
    169 [penwidth=3,label="169"]
    170 [penwidth=3,label="170"]
    171 [penwidth=3,label="171"]
    172 [penwidth=3,label="172"]
    173 [penwidth=3,label="173"]
    174 [penwidth=3,label="174"]
    175 [penwidth=3,label="175"]
    176 [penwidth=3,label="176"]
    177 [penwidth=3,label="177"]
    178 [penwidth=3,label="178"]
    179 [penwidth=3,label="179"]
    180 [penwidth=3,label="180"]
    181 [penwidth=3,label="181"]
    182 [penwidth=3,label="182"]
    183 [penwidth=3,label="183"]
    184 [penwidth=3,label="184"]
    185 [penwidth=3,label="185"]
    186 [penwidth=3,label="186"]
    187 [penwidth=3,label="187"]
    188 [penwidth=3,label="188"]
    189 [penwidth=3,label="189"]
    190 [penwidth=3,label="190"]
    191 [penwidth=3,label="191"]
    192 [penwidth=3,label="192"]
    193 [penwidth=3,label="193"]
    194 [penwidth=3,label="194"]
    195 [penwidth=3,label="195"]
    196 [penwidth=3,label="196"]
    197 [penwidth=3,label="197"]
    198 [penwidth=3,label="198"]
    199 [penwidth=3,label="199"]
    200 [penwidth=3,label="200"]
    201 [penwidth=3,label="201"]
    202 [penwidth=3,label="202"]
    203 [penwidth=3,label="203"]
    204 [penwidth=3,label="204"]
    205 [penwidth=3,label="205"]
    206 [penwidth=3,label="206"]
    207 [penwidth=3,label="207"]
    208 [penwidth=3,label="208"]
    209 [penwidth=3,label="209"]
    210 [penwidth=3,label="210"]
    211 [penwidth=3,label="211"]
    212 [penwidth=3,label="212"]
    213 [penwidth=3,label="213"]
    214 [penwidth=3,label="214"]
    215 [penwidth=3,label="215"]
    216 [penwidth=3,label="216"]
    217 [penwidth=3,label="217"]
    218 [penwidth=3,label="218"]
    219 [penwidth=3,label="219"]
    220 [penwidth=3,label="220"]
    221 [penwidth=3,label="221"]
    222 [penwidth=3,label="222"]
    223 [penwidth=3,label="223"]
    224 [penwidth=3,label="224"]
    225 [penwidth=3,label="225"]
    226 [penwidth=3,label="226"]
    227 [penwidth=3,label="227"]
    228 [penwidth=3,label="228"]
    229 [penwidth=3,label="229"]
    230 [penwidth=3,label="230"]
    231 [penwidth=3,label="231"]
    232 [penwidth=3,label="232"]
    233 [penwidth=3,label="233"]
    234 [penwidth=3,label="234"]
    235 [penwidth=3,label="235"]
    236 [penwidth=3,label="236"]
    237 [penwidth=3,label="237"]
    238 [penwidth=3,label="238"]
    239 [penwidth=3,label="239"]
    240 [penwidth=3,label="240"]
    241 [penwidth=3,label="241"]
    242 [penwidth=3,label="242"]
    243 [penwidth=3,label="243"]
    244 [penwidth=3,label="244"]
    245 [penwidth=3,label="245"]
    246 [penwidth=3,label="246"]
    247 [penwidth=3,label="247"]
    248 [penwidth=3,label="248"]
    249 [penwidth=3,label="249"]
    250 [penwidth=3,label="250"]
    251 [penwidth=3,label="251"]
    252 [penwidth=3,label="252"]
    253 [penwidth=3,label="253"]
    254 [penwidth=3,label="254"]
    255 [penwidth=3,label="255"]
    256 [penwidth=3,label="256"]
    257 [penwidth=3,label="257"]
    258 [penwidth=3,label="258"]
    259 [penwidth=3,label="259"]
    260 [penwidth=3,label="260"]
    261 [penwidth=3,label="261"]
    262 [penwidth=3,label="262"]
    263 [penwidth=3,label="263"]
    264 [penwidth=3,label="264"]
    265 [penwidth=3,label="265"]
    266 [penwidth=3,label="266"]
    267 [penwidth=3,label="267"]
    268 [penwidth=3,label="268"]
    269 [penwidth=3,label="269"]
    270 [penwidth=3,label="270"]
    271 [penwidth=3,label="271"]
    272 [penwidth=3,label="272"]
    273 [penwidth=3,label="273"]
    274 [penwidth=3,label="274"]
    275 [penwidth=3,label="275"]
    276 [penwidth=3,label="276"]
    277 [penwidth=3,label="277"]
    278 [penwidth=3,label="278"]
    279 [penwidth=3,label="279"]
    280 [penwidth=3,label="280"]
    281 [penwidth=3,label="281"]
    282 [penwidth=3,label="282"]
    283 [penwidth=3,label="283"]
    284 [penwidth=3,label="284"]
    285 [penwidth=3,label="285"]
    286 [penwidth=3,label="286"]
    287 [penwidth=3,label="287"]
    288 [penwidth=3,label="288"]
    289 [penwidth=3,label="289"]
    290 [penwidth=3,label="290"]
    291 [penwidth=3,label="291"]
    292 [penwidth=3,label="292"]
    293 [penwidth=3,label="293"]
    294 [penwidth=3,label="294"]
    295 [penwidth=3,label="295"]
    296 [penwidth=3,label="296"]
    297 [penwidth=3,label="297"]
    298 [penwidth=3,label="298"]
    299 [penwidth=3,label="299"]
    300 [penwidth=3,label="300"]
    301 [penwidth=3,label="301"]
    302 [penwidth=3,label="302"]
    303 [penwidth=3,label="303"]
    304 [penwidth=3,label="304"]
    305 [penwidth=3,label="305"]
    306 [penwidth=3,label="306"]
    307 [penwidth=3,label="307"]
    308 [penwidth=3,label="308"]
    309 [penwidth=3,label="309"]
    310 [penwidth=3,label="310"]
    311 [penwidth=3,label="311"]
    312 [penwidth=3,label="312"]
    313 [penwidth=3,label="313"]
    314 [penwidth=3,label="314"]
    315 [penwidth=3,label="315"]
    316 [penwidth=3,label="316"]
    317 [penwidth=3,label="317"]
    318 [penwidth=3,label="318"]
    319 [penwidth=3,label="319"]
    320 [penwidth=3,label="320"]
    321 [penwidth=3,label="321"]
    322 [penwidth=3,label="322"]
    323 [penwidth=3,label="323"]
    324 [penwidth=3,label="324"]
    325 [penwidth=3,label="325"]
    326 [penwidth=3,label="326"]
    327 [penwidth=3,label="327"]
    328 [penwidth=3,label="328"]
    329 [penwidth=3,label="329"]
    330 [penwidth=3,label="330"]
    331 [penwidth=3,label="331"]
    332 [penwidth=3,label="332"]
    333 [penwidth=3,label="333"]
    334 [penwidth=3,label="334"]
    335 [penwidth=3,label="335"]
    336 [penwidth=3,label="336"]
    337 [penwidth=3,label="337"]
    338 [penwidth=3,label="338"]
    339 [penwidth=3,label="339"]
    340 [penwidth=3,label="340"]
    341 [penwidth=3,label="341"]
    342 [penwidth=3,label="342"]
    343 [penwidth=3,label="343"]
    344 [penwidth=3,label="344"]
    345 [penwidth=3,label="345"]
    346 [penwidth=3,label="346"]
    347 [penwidth=3,label="347"]
    348 [penwidth=3,label="348"]
    349 [penwidth=3,label="349"]
    350 [penwidth=3,label="350"]
    351 [penwidth=3,label="351"]
    352 [penwidth=3,label="352"]
    353 [penwidth=3,label="353"]
    354 [penwidth=3,label="354"]
    355 [penwidth=3,label="355"]
    356 [penwidth=3,label="356"]
    357 [penwidth=3,label="357"]
    358 [penwidth=3,label="358"]
    359 [penwidth=3,label="359"]
    360 [penwidth=3,label="360"]
    361 [penwidth=3,label="361"]
    362 [penwidth=3,label="362"]
    363 [penwidth=3,label="363"]
    364 [penwidth=3,label="364"]
    365 [penwidth=3,label="365"]
    366 [penwidth=3,label="366"]
    367 [penwidth=3,label="367"]
    368 [penwidth=3,label="368"]
    369 [penwidth=3,label="369"]
    370 [penwidth=3,label="370"]
    371 [penwidth=3,label="371"]
    372 [penwidth=3,label="372"]
    373 [penwidth=3,label="373"]
    374 [penwidth=3,label="374"]
    375 [penwidth=3,label="375"]
    376 [penwidth=3,label="376"]
    377 [penwidth=3,label="377"]
    378 [penwidth=3,label="378"]
    379 [penwidth=3,label="379"]
    380 [penwidth=3,label="380"]
    381 [penwidth=3,label="381"]
    382 [penwidth=3,label="382"]
    383 [penwidth=3,label="383"]
    384 [penwidth=3,label="384"]
    385 [penwidth=3,label="385"]
    386 [penwidth=3,label="386"]
    387 [penwidth=3,label="387"]
    388 [penwidth=3,label="388"]
    389 [penwidth=3,label="389"]
    390 [penwidth=3,label="390"]
    391 [penwidth=3,label="391"]
    392 [penwidth=3,label="392"]
    393 [penwidth=3,label="393"]
    394 [penwidth=3,label="394"]
    395 [penwidth=3,label="395"]
    396 [penwidth=3,label="396"]
    397 [penwidth=3,label="397"]
    398 [penwidth=3,label="398"]
    399 [penwidth=3,label="399"]

    289 -> 0 [penwidth=2]
    290 -> 0 [penwidth=2]
    291 -> 0 [penwidth=2]
    292 -> 0 [penwidth=2]
    293 -> 0 [penwidth=2]
    294 -> 289 [penwidth=2]
    295 -> 289 [penwidth=2]
    296 -> 289 [penwidth=2]
    297 -> 289 [penwidth=2]
    298 -> 289 [penwidth=2]
    299 -> 289 [penwidth=2]
    300 -> 289 [penwidth=2]
    301 -> 289 [penwidth=2]
    302 -> 289 [penwidth=2]
    303 -> 289 [penwidth=2]
    304 -> 289 [penwidth=2]
    305 -> 289 [penwidth=2]
    306 -> 289 [penwidth=2]
    307 -> 289 [penwidth=2]
    308 -> 289 [penwidth=2]
    309 -> 289 [penwidth=2]
    310 -> 289 [penwidth=2]
    311 -> 289 [penwidth=2]
    312 -> 289 [penwidth=2]
    313 -> 289 [penwidth=2]
    314 -> 289 [penwidth=2]
    315 -> 289 [penwidth=2]
    316 -> 289 [penwidth=2]
    317 -> 290 [penwidth=2]
    318 -> 290 [penwidth=2]
    319 -> 290 [penwidth=2]
    320 -> 290 [penwidth=2]
    321 -> 290 [penwidth=2]
    322 -> 290 [penwidth=2]
    323 -> 290 [penwidth=2]
    324 -> 290 [penwidth=2]
    325 -> 291 [penwidth=2]
    326 -> 291 [penwidth=2]
    327 -> 291 [penwidth=2]
    328 -> 291 [penwidth=2]
    329 -> 291 [penwidth=2]
    330 -> 291 [penwidth=2]
    247 -> 291 [penwidth=2]
    248 -> 291 [penwidth=2]
    249 -> 291 [penwidth=2]
    250 -> 291 [penwidth=2]
    251 -> 291 [penwidth=2]
    252 -> 292 [penwidth=2]
    253 -> 292 [penwidth=2]
    254 -> 292 [penwidth=2]
    255 -> 292 [penwidth=2]
    256 -> 292 [penwidth=2]
    257 -> 292 [penwidth=2]
    258 -> 292 [penwidth=2]
    259 -> 292 [penwidth=2]
    260 -> 292 [penwidth=2]
    261 -> 292 [penwidth=2]
    262 -> 292 [penwidth=2]
    263 -> 292 [penwidth=2]
    264 -> 292 [penwidth=2]
    265 -> 292 [penwidth=2]
    266 -> 292 [penwidth=2]
    267 -> 292 [penwidth=2]
    268 -> 292 [penwidth=2]
    269 -> 293 [penwidth=2]
    270 -> 293 [penwidth=2]
    271 -> 293 [penwidth=2]
    272 -> 293 [penwidth=2]
    273 -> 293 [penwidth=2]
    274 -> 293 [penwidth=2]
    275 -> 293 [penwidth=2]
    276 -> 293 [penwidth=2]
    277 -> 293 [penwidth=2]
    278 -> 293 [penwidth=2]
    279 -> 293 [penwidth=2]
    280 -> 293 [penwidth=2]
    281 -> 293 [penwidth=2]
    282 -> 293 [penwidth=2]
    283 -> 293 [penwidth=2]
    284 -> 293 [penwidth=2]
    285 -> 293 [penwidth=2]
    286 -> 293 [penwidth=2]
    287 -> 293 [penwidth=2]
    288 -> 293 [penwidth=2]
    79 -> 293 [penwidth=2]
    163 -> 293 [penwidth=2]
    80 -> 293 [penwidth=2]
    164 -> 293 [penwidth=2]
    81 -> 293 [penwidth=2]
    165 -> 293 [penwidth=2]
    82 -> 294 [penwidth=2]
    166 -> 294 [penwidth=2]
    83 -> 294 [penwidth=2]
    167 -> 294 [penwidth=2]
    84 -> 294 [penwidth=2]
    168 -> 294 [penwidth=2]
    85 -> 294 [penwidth=2]
    169 -> 294 [penwidth=2]
    86 -> 294 [penwidth=2]
    170 -> 295 [penwidth=2]
    87 -> 295 [penwidth=2]
    171 -> 295 [penwidth=2]
    88 -> 295 [penwidth=2]
    172 -> 295 [penwidth=2]
    89 -> 295 [penwidth=2]
    173 -> 295 [penwidth=2]
    90 -> 295 [penwidth=2]
    174 -> 295 [penwidth=2]
    91 -> 296 [penwidth=2]
    175 -> 296 [penwidth=2]
    92 -> 296 [penwidth=2]
    176 -> 296 [penwidth=2]
    93 -> 296 [penwidth=2]
    177 -> 296 [penwidth=2]
    94 -> 296 [penwidth=2]
    178 -> 296 [penwidth=2]
    95 -> 296 [penwidth=2]
    179 -> 296 [penwidth=2]
    96 -> 296 [penwidth=2]
    180 -> 296 [penwidth=2]
    97 -> 296 [penwidth=2]
    181 -> 296 [penwidth=2]
    98 -> 296 [penwidth=2]
    182 -> 296 [penwidth=2]
    99 -> 296 [penwidth=2]
    183 -> 297 [penwidth=2]
    100 -> 297 [penwidth=2]
    184 -> 297 [penwidth=2]
    101 -> 297 [penwidth=2]
    185 -> 297 [penwidth=2]
    102 -> 297 [penwidth=2]
    186 -> 297 [penwidth=2]
    103 -> 297 [penwidth=2]
    187 -> 297 [penwidth=2]
    104 -> 297 [penwidth=2]
    188 -> 297 [penwidth=2]
    105 -> 297 [penwidth=2]
    189 -> 297 [penwidth=2]
    106 -> 297 [penwidth=2]
    190 -> 298 [penwidth=2]
    107 -> 298 [penwidth=2]
    191 -> 298 [penwidth=2]
    108 -> 298 [penwidth=2]
    192 -> 298 [penwidth=2]
    109 -> 298 [penwidth=2]
    193 -> 298 [penwidth=2]
    110 -> 298 [penwidth=2]
    194 -> 298 [penwidth=2]
    111 -> 298 [penwidth=2]
    195 -> 298 [penwidth=2]
    112 -> 298 [penwidth=2]
    196 -> 298 [penwidth=2]
    113 -> 298 [penwidth=2]
    197 -> 298 [penwidth=2]
    114 -> 298 [penwidth=2]
    198 -> 298 [penwidth=2]
    115 -> 298 [penwidth=2]
    199 -> 298 [penwidth=2]
    116 -> 298 [penwidth=2]
    200 -> 299 [penwidth=2]
    117 -> 299 [penwidth=2]
    201 -> 299 [penwidth=2]
    118 -> 299 [penwidth=2]
    202 -> 299 [penwidth=2]
    119 -> 299 [penwidth=2]
    203 -> 299 [penwidth=2]
    120 -> 299 [penwidth=2]
    204 -> 299 [penwidth=2]
    36 -> 299 [penwidth=2]
    121 -> 299 [penwidth=2]
    373 -> 299 [penwidth=2]
    15 -> 299 [penwidth=2]
    122 -> 299 [penwidth=2]
    374 -> 299 [penwidth=2]
    35 -> 299 [penwidth=2]
    123 -> 299 [penwidth=2]
    375 -> 299 [penwidth=2]
    14 -> 299 [penwidth=2]
    124 -> 299 [penwidth=2]
    376 -> 300 [penwidth=2]
    4 -> 300 [penwidth=2]
    125 -> 300 [penwidth=2]
    377 -> 300 [penwidth=2]
    13 -> 300 [penwidth=2]
    126 -> 300 [penwidth=2]
    378 -> 300 [penwidth=2]
    33 -> 300 [penwidth=2]
    127 -> 300 [penwidth=2]
    379 -> 300 [penwidth=2]
    12 -> 300 [penwidth=2]
    128 -> 300 [penwidth=2]
    380 -> 300 [penwidth=2]
    32 -> 300 [penwidth=2]
    129 -> 300 [penwidth=2]
    381 -> 300 [penwidth=2]
    11 -> 300 [penwidth=2]
    130 -> 300 [penwidth=2]
    382 -> 300 [penwidth=2]
    31 -> 300 [penwidth=2]
    131 -> 300 [penwidth=2]
    383 -> 300 [penwidth=2]
    10 -> 300 [penwidth=2]
    132 -> 300 [penwidth=2]
    384 -> 300 [penwidth=2]
    30 -> 300 [penwidth=2]
    133 -> 301 [penwidth=2]
    385 -> 301 [penwidth=2]
    9 -> 301 [penwidth=2]
    134 -> 301 [penwidth=2]
    386 -> 301 [penwidth=2]
    29 -> 301 [penwidth=2]
    135 -> 301 [penwidth=2]
    387 -> 302 [penwidth=2]
    8 -> 302 [penwidth=2]
    136 -> 302 [penwidth=2]
    388 -> 302 [penwidth=2]
    28 -> 302 [penwidth=2]
    137 -> 302 [penwidth=2]
    389 -> 302 [penwidth=2]
    7 -> 302 [penwidth=2]
    138 -> 302 [penwidth=2]
    390 -> 302 [penwidth=2]
    139 -> 302 [penwidth=2]
    391 -> 302 [penwidth=2]
    27 -> 302 [penwidth=2]
    6 -> 302 [penwidth=2]
    140 -> 302 [penwidth=2]
    392 -> 303 [penwidth=2]
    141 -> 303 [penwidth=2]
    393 -> 303 [penwidth=2]
    26 -> 303 [penwidth=2]
    5 -> 303 [penwidth=2]
    142 -> 303 [penwidth=2]
    394 -> 303 [penwidth=2]
    34 -> 303 [penwidth=2]
    143 -> 303 [penwidth=2]
    395 -> 304 [penwidth=2]
    144 -> 304 [penwidth=2]
    396 -> 304 [penwidth=2]
    145 -> 304 [penwidth=2]
    397 -> 304 [penwidth=2]
    25 -> 304 [penwidth=2]
    3 -> 304 [penwidth=2]
    146 -> 304 [penwidth=2]
    398 -> 304 [penwidth=2]
    147 -> 304 [penwidth=2]
    399 -> 304 [penwidth=2]
    24 -> 304 [penwidth=2]
    2 -> 304 [penwidth=2]
    148 -> 304 [penwidth=2]
    149 -> 304 [penwidth=2]
    23 -> 304 [penwidth=2]
    150 -> 304 [penwidth=2]
    151 -> 305 [penwidth=2]
    22 -> 305 [penwidth=2]
    152 -> 305 [penwidth=2]
    1 -> 305 [penwidth=2]
    153 -> 305 [penwidth=2]
    21 -> 305 [penwidth=2]
    154 -> 305 [penwidth=2]
    155 -> 305 [penwidth=2]
    20 -> 305 [penwidth=2]
    156 -> 305 [penwidth=2]
    157 -> 305 [penwidth=2]
    19 -> 305 [penwidth=2]
    158 -> 305 [penwidth=2]
    159 -> 305 [penwidth=2]
    18 -> 305 [penwidth=2]
    160 -> 305 [penwidth=2]
    161 -> 305 [penwidth=2]
    17 -> 305 [penwidth=2]
    162 -> 305 [penwidth=2]
    16 -> 305 [penwidth=2]
    37 -> 305 [penwidth=2]
    205 -> 305 [penwidth=2]
    331 -> 305 [penwidth=2]
    38 -> 305 [penwidth=2]
    206 -> 305 [penwidth=2]
    332 -> 305 [penwidth=2]
    39 -> 305 [penwidth=2]
    207 -> 305 [penwidth=2]
    333 -> 306 [penwidth=2]
    40 -> 306 [penwidth=2]
    208 -> 306 [penwidth=2]
    334 -> 306 [penwidth=2]
    41 -> 307 [penwidth=2]
    209 -> 307 [penwidth=2]
    335 -> 307 [penwidth=2]
    42 -> 307 [penwidth=2]
    210 -> 307 [penwidth=2]
    336 -> 307 [penwidth=2]
    43 -> 307 [penwidth=2]
    211 -> 307 [penwidth=2]
    337 -> 307 [penwidth=2]
    44 -> 307 [penwidth=2]
    212 -> 307 [penwidth=2]
    338 -> 307 [penwidth=2]
    45 -> 307 [penwidth=2]
    213 -> 307 [penwidth=2]
    339 -> 307 [penwidth=2]
    46 -> 307 [penwidth=2]
    214 -> 307 [penwidth=2]
    340 -> 307 [penwidth=2]
    47 -> 307 [penwidth=2]
    215 -> 309 [penwidth=2]
    341 -> 309 [penwidth=2]
    48 -> 309 [penwidth=2]
    216 -> 309 [penwidth=2]
    342 -> 309 [penwidth=2]
    49 -> 309 [penwidth=2]
    217 -> 309 [penwidth=2]
    343 -> 309 [penwidth=2]
    50 -> 309 [penwidth=2]
    218 -> 309 [penwidth=2]
    344 -> 309 [penwidth=2]
    51 -> 309 [penwidth=2]
    219 -> 309 [penwidth=2]
    345 -> 309 [penwidth=2]
    52 -> 310 [penwidth=2]
    220 -> 310 [penwidth=2]
    346 -> 310 [penwidth=2]
    53 -> 310 [penwidth=2]
    221 -> 310 [penwidth=2]
    347 -> 310 [penwidth=2]
    54 -> 310 [penwidth=2]
    222 -> 310 [penwidth=2]
    348 -> 310 [penwidth=2]
    55 -> 310 [penwidth=2]
    223 -> 310 [penwidth=2]
    349 -> 311 [penwidth=2]
    56 -> 311 [penwidth=2]
    224 -> 311 [penwidth=2]
    350 -> 311 [penwidth=2]
    57 -> 311 [penwidth=2]
    225 -> 311 [penwidth=2]
    351 -> 311 [penwidth=2]
    58 -> 311 [penwidth=2]
    226 -> 311 [penwidth=2]
    352 -> 312 [penwidth=2]
    59 -> 312 [penwidth=2]
    227 -> 312 [penwidth=2]
    353 -> 312 [penwidth=2]
    60 -> 312 [penwidth=2]
    228 -> 312 [penwidth=2]
    354 -> 312 [penwidth=2]
    61 -> 312 [penwidth=2]
    229 -> 312 [penwidth=2]
    355 -> 312 [penwidth=2]
    62 -> 312 [penwidth=2]
    230 -> 312 [penwidth=2]
    356 -> 312 [penwidth=2]
    63 -> 312 [penwidth=2]
    231 -> 312 [penwidth=2]
    357 -> 312 [penwidth=2]
    64 -> 312 [penwidth=2]
    232 -> 312 [penwidth=2]
    358 -> 313 [penwidth=2]
    65 -> 313 [penwidth=2]
    233 -> 313 [penwidth=2]
    359 -> 313 [penwidth=2]
    66 -> 313 [penwidth=2]
    234 -> 313 [penwidth=2]
    360 -> 313 [penwidth=2]
    67 -> 313 [penwidth=2]
    235 -> 313 [penwidth=2]
    361 -> 313 [penwidth=2]
    68 -> 313 [penwidth=2]
    236 -> 313 [penwidth=2]
    362 -> 313 [penwidth=2]
    69 -> 313 [penwidth=2]
    237 -> 313 [penwidth=2]
    363 -> 313 [penwidth=2]
    70 -> 313 [penwidth=2]
    238 -> 313 [penwidth=2]
    364 -> 313 [penwidth=2]
    71 -> 313 [penwidth=2]
    239 -> 313 [penwidth=2]
    365 -> 313 [penwidth=2]
    72 -> 313 [penwidth=2]
    240 -> 313 [penwidth=2]
    366 -> 313 [penwidth=2]
    73 -> 313 [penwidth=2]
    241 -> 313 [penwidth=2]
    367 -> 314 [penwidth=2]
    74 -> 314 [penwidth=2]
    242 -> 314 [penwidth=2]
    368 -> 314 [penwidth=2]
    75 -> 314 [penwidth=2]
    243 -> 314 [penwidth=2]
    369 -> 314 [penwidth=2]
    76 -> 314 [penwidth=2]
    244 -> 314 [penwidth=2]
    370 -> 314 [penwidth=2]
    77 -> 314 [penwidth=2]
    245 -> 314 [penwidth=2]
    371 -> 314 [penwidth=2]
    78 -> 314 [penwidth=2]
    246 -> 314 [penwidth=2]
    372 -> 314 [penwidth=2]
    295 -> 293 [penwidth=2]
    295 -> 290 [penwidth=2]
    309 -> 292 [penwidth=2]
    312 -> 292 [penwidth=2]
    329 -> 292 [penwidth=2]
    329 -> 293 [penwidth=2]
    266 -> 289 [penwidth=2]
    266 -> 290 [penwidth=2]
    271 -> 290 [penwidth=2]
    271 -> 289 [penwidth=2]
    284 -> 289 [penwidth=2]
    284 -> 292 [penwidth=2]
    284 -> 291 [penwidth=2]
    287 -> 292 [penwidth=2]
    287 -> 289 [penwidth=2]
    163 -> 290 [penwidth=2]
    163 -> 289 [penwidth=2]
    163 -> 291 [penwidth=2]
    166 -> 80 [penwidth=2]
    166 -> 252 [penwidth=2]
    166 -> 79 [penwidth=2]
    166 -> 295 [penwidth=2]
    166 -> 305 [penwidth=2]
    166 -> 288 [penwidth=2]
    166 -> 259 [penwidth=2]
    166 -> 248 [penwidth=2]
    166 -> 320 [penwidth=2]
    166 -> 281 [penwidth=2]
    166 -> 322 [penwidth=2]
    166 -> 325 [penwidth=2]
    166 -> 274 [penwidth=2]
    166 -> 249 [penwidth=2]
    166 -> 267 [penwidth=2]
    166 -> 311 [penwidth=2]
    166 -> 307 [penwidth=2]
    166 -> 314 [penwidth=2]
    166 -> 309 [penwidth=2]
    166 -> 308 [penwidth=2]
    83 -> 280 [penwidth=2]
    83 -> 253 [penwidth=2]
    83 -> 251 [penwidth=2]
    83 -> 276 [penwidth=2]
    83 -> 308 [penwidth=2]
    83 -> 79 [penwidth=2]
    83 -> 301 [penwidth=2]
    83 -> 256 [penwidth=2]
    83 -> 277 [penwidth=2]
    83 -> 268 [penwidth=2]
    83 -> 306 [penwidth=2]
    83 -> 314 [penwidth=2]
    83 -> 261 [penwidth=2]
    83 -> 318 [penwidth=2]
    83 -> 325 [penwidth=2]
    83 -> 258 [penwidth=2]
    83 -> 315 [penwidth=2]
    83 -> 262 [penwidth=2]
    83 -> 283 [penwidth=2]
    83 -> 267 [penwidth=2]
    83 -> 313 [penwidth=2]
    83 -> 298 [penwidth=2]
    83 -> 286 [penwidth=2]
    83 -> 297 [penwidth=2]
    83 -> 322 [penwidth=2]
    83 -> 249 [penwidth=2]
    83 -> 305 [penwidth=2]
    83 -> 317 [penwidth=2]
    83 -> 312 [penwidth=2]
    83 -> 304 [penwidth=2]
    83 -> 260 [penwidth=2]
    83 -> 163 [penwidth=2]
    83 -> 264 [penwidth=2]
    83 -> 255 [penwidth=2]
    83 -> 319 [penwidth=2]
    83 -> 329 [penwidth=2]
    83 -> 272 [penwidth=2]
    83 -> 275 [penwidth=2]
    83 -> 250 [penwidth=2]
    83 -> 273 [penwidth=2]
    83 -> 274 [penwidth=2]
    84 -> 319 [penwidth=2]
    84 -> 305 [penwidth=2]
    84 -> 328 [penwidth=2]
    84 -> 81 [penwidth=2]
    84 -> 323 [penwidth=2]
    84 -> 303 [penwidth=2]
    84 -> 309 [penwidth=2]
    84 -> 321 [penwidth=2]
    84 -> 262 [penwidth=2]
    84 -> 316 [penwidth=2]
    84 -> 249 [penwidth=2]
    84 -> 318 [penwidth=2]
    84 -> 325 [penwidth=2]
    84 -> 288 [penwidth=2]
    84 -> 271 [penwidth=2]
    84 -> 281 [penwidth=2]
    84 -> 311 [penwidth=2]
    84 -> 313 [penwidth=2]
    84 -> 255 [penwidth=2]
    84 -> 286 [penwidth=2]
    84 -> 254 [penwidth=2]
    84 -> 250 [penwidth=2]
    84 -> 295 [penwidth=2]
    84 -> 251 [penwidth=2]
    84 -> 252 [penwidth=2]
    84 -> 312 [penwidth=2]
    84 -> 314 [penwidth=2]
    84 -> 324 [penwidth=2]
    84 -> 258 [penwidth=2]
    84 -> 301 [penwidth=2]
    84 -> 259 [penwidth=2]
    84 -> 275 [penwidth=2]
    84 -> 269 [penwidth=2]
    84 -> 256 [penwidth=2]
    84 -> 261 [penwidth=2]
    84 -> 248 [penwidth=2]
    84 -> 317 [penwidth=2]
    87 -> 330 [penwidth=2]
    87 -> 312 [penwidth=2]
    87 -> 263 [penwidth=2]
    87 -> 304 [penwidth=2]
    87 -> 283 [penwidth=2]
    87 -> 251 [penwidth=2]
    87 -> 271 [penwidth=2]
    87 -> 323 [penwidth=2]
    105 -> 259 [penwidth=2]
    105 -> 282 [penwidth=2]
    105 -> 287 [penwidth=2]
    105 -> 272 [penwidth=2]
    105 -> 307 [penwidth=2]
    105 -> 319 [penwidth=2]
    105 -> 286 [penwidth=2]
    105 -> 296 [penwidth=2]
    105 -> 258 [penwidth=2]
    105 -> 248 [penwidth=2]
    105 -> 252 [penwidth=2]
    105 -> 260 [penwidth=2]
    105 -> 273 [penwidth=2]
    105 -> 250 [penwidth=2]
    105 -> 268 [penwidth=2]
    105 -> 314 [penwidth=2]
    105 -> 325 [penwidth=2]
    105 -> 300 [penwidth=2]
    105 -> 80 [penwidth=2]
    105 -> 264 [penwidth=2]
    105 -> 79 [penwidth=2]
    105 -> 269 [penwidth=2]
    105 -> 330 [penwidth=2]
    105 -> 267 [penwidth=2]
    105 -> 329 [penwidth=2]
    105 -> 275 [penwidth=2]
    105 -> 261 [penwidth=2]
    105 -> 254 [penwidth=2]
    105 -> 299 [penwidth=2]
    105 -> 262 [penwidth=2]
    105 -> 304 [penwidth=2]
    105 -> 288 [penwidth=2]
    105 -> 271 [penwidth=2]
    105 -> 320 [penwidth=2]
    105 -> 279 [penwidth=2]
    105 -> 278 [penwidth=2]
    105 -> 315 [penwidth=2]
    105 -> 276 [penwidth=2]
    105 -> 309 [penwidth=2]
    105 -> 285 [penwidth=2]
    114 -> 165 [penwidth=2]
    114 -> 310 [penwidth=2]
    114 -> 284 [penwidth=2]
    114 -> 277 [penwidth=2]
    114 -> 164 [penwidth=2]
    114 -> 282 [penwidth=2]
    114 -> 270 [penwidth=2]
    114 -> 248 [penwidth=2]
    114 -> 308 [penwidth=2]
    114 -> 262 [penwidth=2]
    114 -> 250 [penwidth=2]
    114 -> 280 [penwidth=2]
    114 -> 256 [penwidth=2]
    114 -> 297 [penwidth=2]
    114 -> 327 [penwidth=2]
    114 -> 269 [penwidth=2]
    114 -> 267 [penwidth=2]
    114 -> 306 [penwidth=2]
    114 -> 258 [penwidth=2]
    114 -> 325 [penwidth=2]
    114 -> 249 [penwidth=2]
    114 -> 303 [penwidth=2]
    114 -> 265 [penwidth=2]
    114 -> 319 [penwidth=2]
    114 -> 296 [penwidth=2]
    114 -> 278 [penwidth=2]
    114 -> 294 [penwidth=2]
    114 -> 264 [penwidth=2]
    114 -> 79 [penwidth=2]
    114 -> 329 [penwidth=2]
    114 -> 330 [penwidth=2]
    114 -> 276 [penwidth=2]
    114 -> 300 [penwidth=2]
    114 -> 275 [penwidth=2]
    114 -> 328 [penwidth=2]
    114 -> 305 [penwidth=2]
    114 -> 261 [penwidth=2]
    114 -> 281 [penwidth=2]
    114 -> 273 [penwidth=2]
    114 -> 80 [penwidth=2]
    114 -> 309 [penwidth=2]
    114 -> 295 [penwidth=2]
    114 -> 304 [penwidth=2]
    114 -> 251 [penwidth=2]
    114 -> 247 [penwidth=2]
    114 -> 285 [penwidth=2]
    114 -> 257 [penwidth=2]
    114 -> 288 [penwidth=2]
    114 -> 254 [penwidth=2]
    114 -> 323 [penwidth=2]
    114 -> 316 [penwidth=2]
    114 -> 271 [penwidth=2]
    114 -> 279 [penwidth=2]
    117 -> 285 [penwidth=2]
    117 -> 257 [penwidth=2]
    117 -> 283 [penwidth=2]
    117 -> 277 [penwidth=2]
    117 -> 300 [penwidth=2]
    117 -> 324 [penwidth=2]
    117 -> 282 [penwidth=2]
    117 -> 269 [penwidth=2]
    117 -> 321 [penwidth=2]
    117 -> 268 [penwidth=2]
    117 -> 275 [penwidth=2]
    117 -> 314 [penwidth=2]
    117 -> 294 [penwidth=2]
    117 -> 255 [penwidth=2]
    117 -> 284 [penwidth=2]
    117 -> 267 [penwidth=2]
    117 -> 266 [penwidth=2]
    117 -> 295 [penwidth=2]
    117 -> 313 [penwidth=2]
    117 -> 312 [penwidth=2]
    117 -> 278 [penwidth=2]
    117 -> 276 [penwidth=2]
    117 -> 274 [penwidth=2]
    117 -> 250 [penwidth=2]
    117 -> 272 [penwidth=2]
    117 -> 286 [penwidth=2]
    117 -> 253 [penwidth=2]
    117 -> 259 [penwidth=2]
    117 -> 328 [penwidth=2]
    117 -> 258 [penwidth=2]
    117 -> 330 [penwidth=2]
    117 -> 307 [penwidth=2]
    117 -> 287 [penwidth=2]
    117 -> 320 [penwidth=2]
    117 -> 260 [penwidth=2]
    117 -> 329 [penwidth=2]
    117 -> 251 [penwidth=2]
    117 -> 165 [penwidth=2]
    117 -> 262 [penwidth=2]
    117 -> 310 [penwidth=2]
    117 -> 316 [penwidth=2]
    117 -> 297 [penwidth=2]
    117 -> 296 [penwidth=2]
    117 -> 270 [penwidth=2]
    117 -> 315 [penwidth=2]
    117 -> 326 [penwidth=2]
    117 -> 311 [penwidth=2]
    117 -> 265 [penwidth=2]
    117 -> 256 [penwidth=2]
    117 -> 318 [penwidth=2]
    117 -> 279 [penwidth=2]
    117 -> 81 [penwidth=2]
    117 -> 319 [penwidth=2]
    117 -> 302 [penwidth=2]
    117 -> 254 [penwidth=2]
    13 -> 259 [penwidth=2]
    13 -> 311 [penwidth=2]
    13 -> 261 [penwidth=2]
    13 -> 286 [penwidth=2]
    392 -> 262 [penwidth=2]
    392 -> 252 [penwidth=2]
    392 -> 296 [penwidth=2]
    392 -> 253 [penwidth=2]
    392 -> 305 [penwidth=2]
    392 -> 261 [penwidth=2]
    392 -> 165 [penwidth=2]
    392 -> 322 [penwidth=2]
    392 -> 276 [penwidth=2]
    392 -> 330 [penwidth=2]
    392 -> 251 [penwidth=2]
    392 -> 258 [penwidth=2]
    392 -> 273 [penwidth=2]
    392 -> 277 [penwidth=2]
    392 -> 249 [penwidth=2]
    392 -> 324 [penwidth=2]
    392 -> 282 [penwidth=2]
    392 -> 271 [penwidth=2]
    392 -> 309 [penwidth=2]
    392 -> 294 [penwidth=2]
    392 -> 164 [penwidth=2]
    392 -> 288 [penwidth=2]
    392 -> 80 [penwidth=2]
    392 -> 328 [penwidth=2]
    392 -> 329 [penwidth=2]
    392 -> 260 [penwidth=2]
    392 -> 264 [penwidth=2]
    392 -> 308 [penwidth=2]
    392 -> 297 [penwidth=2]
    392 -> 310 [penwidth=2]
    392 -> 248 [penwidth=2]
    392 -> 307 [penwidth=2]
    392 -> 326 [penwidth=2]
    392 -> 285 [penwidth=2]
    392 -> 318 [penwidth=2]
    392 -> 317 [penwidth=2]
    392 -> 257 [penwidth=2]
    392 -> 327 [penwidth=2]
    392 -> 302 [penwidth=2]
    392 -> 270 [penwidth=2]
    392 -> 269 [penwidth=2]
    392 -> 278 [penwidth=2]
    392 -> 300 [penwidth=2]
    392 -> 163 [penwidth=2]
    392 -> 287 [penwidth=2]
    392 -> 313 [penwidth=2]
    392 -> 250 [penwidth=2]
    392 -> 256 [penwidth=2]
    392 -> 299 [penwidth=2]
    392 -> 263 [penwidth=2]
    392 -> 81 [penwidth=2]
    392 -> 306 [penwidth=2]
    392 -> 266 [penwidth=2]
    392 -> 274 [penwidth=2]
    392 -> 79 [penwidth=2]
    392 -> 311 [penwidth=2]
    392 -> 284 [penwidth=2]
    392 -> 268 [penwidth=2]
    392 -> 295 [penwidth=2]
    392 -> 281 [penwidth=2]
    392 -> 298 [penwidth=2]
    392 -> 275 [penwidth=2]
    392 -> 286 [penwidth=2]
    392 -> 301 [penwidth=2]
    392 -> 320 [penwidth=2]
    392 -> 325 [penwidth=2]
    392 -> 254 [penwidth=2]
    392 -> 259 [penwidth=2]
    392 -> 247 [penwidth=2]
    150 -> 315 [penwidth=2]
    150 -> 248 [penwidth=2]
    150 -> 261 [penwidth=2]
    150 -> 307 [penwidth=2]
    150 -> 323 [penwidth=2]
    150 -> 330 [penwidth=2]
    150 -> 308 [penwidth=2]
    150 -> 287 [penwidth=2]
    1 -> 285 [penwidth=2]
    1 -> 283 [penwidth=2]
    1 -> 301 [penwidth=2]
    1 -> 294 [penwidth=2]
    1 -> 165 [penwidth=2]
    1 -> 298 [penwidth=2]
    1 -> 317 [penwidth=2]
    1 -> 254 [penwidth=2]
    1 -> 252 [penwidth=2]
    1 -> 310 [penwidth=2]
    1 -> 312 [penwidth=2]
    1 -> 247 [penwidth=2]
    1 -> 280 [penwidth=2]
    1 -> 267 [penwidth=2]
    1 -> 309 [penwidth=2]
    1 -> 271 [penwidth=2]
    1 -> 306 [penwidth=2]
    1 -> 164 [penwidth=2]
    1 -> 249 [penwidth=2]
    1 -> 322 [penwidth=2]
    1 -> 264 [penwidth=2]
    1 -> 260 [penwidth=2]
    1 -> 274 [penwidth=2]
    1 -> 262 [penwidth=2]
    1 -> 282 [penwidth=2]
    1 -> 324 [penwidth=2]
    1 -> 278 [penwidth=2]
    1 -> 330 [penwidth=2]
    1 -> 325 [penwidth=2]
    1 -> 259 [penwidth=2]
    1 -> 304 [penwidth=2]
    1 -> 295 [penwidth=2]
    1 -> 323 [penwidth=2]
    1 -> 284 [penwidth=2]
    1 -> 275 [penwidth=2]
    1 -> 251 [penwidth=2]
    1 -> 321 [penwidth=2]
    1 -> 257 [penwidth=2]
    1 -> 297 [penwidth=2]
    1 -> 250 [penwidth=2]
    1 -> 265 [penwidth=2]
    1 -> 318 [penwidth=2]
    1 -> 281 [penwidth=2]
    1 -> 316 [penwidth=2]
    1 -> 311 [penwidth=2]
    1 -> 307 [penwidth=2]
    1 -> 266 [penwidth=2]
    1 -> 313 [penwidth=2]
    1 -> 314 [penwidth=2]
    1 -> 328 [penwidth=2]
    1 -> 296 [penwidth=2]
    1 -> 80 [penwidth=2]
    1 -> 277 [penwidth=2]
    1 -> 315 [penwidth=2]
    1 -> 263 [penwidth=2]
    1 -> 270 [penwidth=2]
    1 -> 261 [penwidth=2]
    1 -> 269 [penwidth=2]
    1 -> 288 [penwidth=2]
    1 -> 253 [penwidth=2]
    1 -> 268 [penwidth=2]
    1 -> 308 [penwidth=2]
    1 -> 279 [penwidth=2]
    1 -> 327 [penwidth=2]
    1 -> 248 [penwidth=2]
    1 -> 303 [penwidth=2]
    1 -> 300 [penwidth=2]
    1 -> 258 [penwidth=2]
    1 -> 79 [penwidth=2]
    1 -> 273 [penwidth=2]
    1 -> 287 [penwidth=2]
    1 -> 272 [penwidth=2]
    1 -> 319 [penwidth=2]
    1 -> 326 [penwidth=2]
    1 -> 256 [penwidth=2]
    1 -> 163 [penwidth=2]
    1 -> 286 [penwidth=2]
    1 -> 276 [penwidth=2]
    1 -> 81 [penwidth=2]
    1 -> 329 [penwidth=2]
    1 -> 299 [penwidth=2]
    42 -> 255 [penwidth=2]
    42 -> 263 [penwidth=2]
    42 -> 163 [penwidth=2]
    42 -> 326 [penwidth=2]
    42 -> 296 [penwidth=2]
    42 -> 306 [penwidth=2]
    42 -> 274 [penwidth=2]
    42 -> 281 [penwidth=2]
    42 -> 251 [penwidth=2]
    42 -> 247 [penwidth=2]
    42 -> 280 [penwidth=2]
    42 -> 311 [penwidth=2]
    42 -> 301 [penwidth=2]
    42 -> 165 [penwidth=2]
    42 -> 269 [penwidth=2]
    42 -> 298 [penwidth=2]
    42 -> 275 [penwidth=2]
    42 -> 265 [penwidth=2]
    42 -> 284 [penwidth=2]
    42 -> 297 [penwidth=2]
    42 -> 270 [penwidth=2]
    42 -> 329 [penwidth=2]
    42 -> 310 [penwidth=2]
    42 -> 330 [penwidth=2]
    42 -> 294 [penwidth=2]
    42 -> 323 [penwidth=2]
    42 -> 324 [penwidth=2]
    42 -> 287 [penwidth=2]
    42 -> 302 [penwidth=2]
    42 -> 304 [penwidth=2]
    42 -> 303 [penwidth=2]
    42 -> 315 [penwidth=2]
    42 -> 254 [penwidth=2]
    42 -> 320 [penwidth=2]
    42 -> 308 [penwidth=2]
    42 -> 261 [penwidth=2]
    42 -> 80 [penwidth=2]
    42 -> 309 [penwidth=2]
    42 -> 285 [penwidth=2]
    42 -> 314 [penwidth=2]
    42 -> 299 [penwidth=2]
    42 -> 272 [penwidth=2]
    42 -> 325 [penwidth=2]
    42 -> 256 [penwidth=2]
    42 -> 259 [penwidth=2]
    49 -> 315 [penwidth=2]
    49 -> 330 [penwidth=2]
    49 -> 286 [penwidth=2]
    49 -> 304 [penwidth=2]
    49 -> 163 [penwidth=2]
    49 -> 328 [penwidth=2]
    49 -> 316 [penwidth=2]
    49 -> 263 [penwidth=2]
    49 -> 329 [penwidth=2]
    49 -> 254 [penwidth=2]
    49 -> 287 [penwidth=2]
    49 -> 294 [penwidth=2]
    49 -> 260 [penwidth=2]
    49 -> 258 [penwidth=2]
    49 -> 273 [penwidth=2]
    49 -> 274 [penwidth=2]
    49 -> 257 [penwidth=2]
    49 -> 165 [penwidth=2]
    49 -> 248 [penwidth=2]
    49 -> 327 [penwidth=2]
    49 -> 281 [penwidth=2]
    220 -> 287 [penwidth=2]
    220 -> 269 [penwidth=2]
    220 -> 259 [penwidth=2]
    220 -> 309 [penwidth=2]
    220 -> 312 [penwidth=2]
    220 -> 260 [penwidth=2]
    220 -> 300 [penwidth=2]
    220 -> 326 [penwidth=2]
    220 -> 256 [penwidth=2]
    220 -> 164 [penwidth=2]
    220 -> 276 [penwidth=2]
    220 -> 268 [penwidth=2]
    220 -> 325 [penwidth=2]
    220 -> 165 [penwidth=2]
    220 -> 274 [penwidth=2]
    220 -> 271 [penwidth=2]
    220 -> 258 [penwidth=2]
    220 -> 306 [penwidth=2]
    220 -> 263 [penwidth=2]
    220 -> 304 [penwidth=2]
    220 -> 284 [penwidth=2]
    220 -> 80 [penwidth=2]
    220 -> 247 [penwidth=2]
    220 -> 295 [penwidth=2]
    220 -> 264 [penwidth=2]
    220 -> 265 [penwidth=2]
    220 -> 250 [penwidth=2]
    220 -> 278 [penwidth=2]
    220 -> 249 [penwidth=2]
    220 -> 327 [penwidth=2]
    220 -> 257 [penwidth=2]
    220 -> 279 [penwidth=2]
    220 -> 322 [penwidth=2]
    220 -> 301 [penwidth=2]
    220 -> 283 [penwidth=2]
    220 -> 330 [penwidth=2]
    220 -> 254 [penwidth=2]
    220 -> 316 [penwidth=2]
    220 -> 281 [penwidth=2]
    220 -> 255 [penwidth=2]
    220 -> 251 [penwidth=2]
    220 -> 285 [penwidth=2]
    220 -> 320 [penwidth=2]
    220 -> 308 [penwidth=2]
    220 -> 303 [penwidth=2]
    220 -> 270 [penwidth=2]
    220 -> 252 [penwidth=2]
    220 -> 323 [penwidth=2]
    220 -> 253 [penwidth=2]
    220 -> 314 [penwidth=2]
    220 -> 79 [penwidth=2]
    220 -> 302 [penwidth=2]
    220 -> 307 [penwidth=2]
    220 -> 297 [penwidth=2]
    220 -> 267 [penwidth=2]
    220 -> 163 [penwidth=2]
    220 -> 317 [penwidth=2]
    220 -> 275 [penwidth=2]
    220 -> 272 [penwidth=2]
    220 -> 296 [penwidth=2]
    220 -> 299 [penwidth=2]
    220 -> 311 [penwidth=2]
    220 -> 329 [penwidth=2]
    220 -> 321 [penwidth=2]
    220 -> 280 [penwidth=2]
    220 -> 288 [penwidth=2]
    220 -> 305 [penwidth=2]
    220 -> 313 [penwidth=2]
    220 -> 319 [penwidth=2]
    220 -> 262 [penwidth=2]
    220 -> 266 [penwidth=2]
    220 -> 294 [penwidth=2]
    220 -> 328 [penwidth=2]
    220 -> 273 [penwidth=2]
    220 -> 248 [penwidth=2]
    346 -> 323 [penwidth=2]
    346 -> 309 [penwidth=2]
    346 -> 284 [penwidth=2]
    346 -> 81 [penwidth=2]
    346 -> 273 [penwidth=2]
    346 -> 252 [penwidth=2]
    346 -> 283 [penwidth=2]
    346 -> 249 [penwidth=2]
    346 -> 326 [penwidth=2]
    346 -> 274 [penwidth=2]
    346 -> 256 [penwidth=2]
    346 -> 163 [penwidth=2]
    346 -> 316 [penwidth=2]
    346 -> 300 [penwidth=2]
    346 -> 307 [penwidth=2]
    346 -> 311 [penwidth=2]
    346 -> 297 [penwidth=2]
    346 -> 328 [penwidth=2]
    346 -> 325 [penwidth=2]
    346 -> 314 [penwidth=2]
    346 -> 315 [penwidth=2]
    346 -> 298 [penwidth=2]
    346 -> 278 [penwidth=2]
    346 -> 317 [penwidth=2]
    346 -> 251 [penwidth=2]
    346 -> 322 [penwidth=2]
    346 -> 247 [penwidth=2]
    346 -> 165 [penwidth=2]
    346 -> 267 [penwidth=2]
    346 -> 262 [penwidth=2]
    346 -> 259 [penwidth=2]
    346 -> 321 [penwidth=2]
    346 -> 270 [penwidth=2]
    346 -> 265 [penwidth=2]
    346 -> 269 [penwidth=2]
    346 -> 277 [penwidth=2]
    346 -> 263 [penwidth=2]
    346 -> 254 [penwidth=2]
    346 -> 79 [penwidth=2]
    346 -> 248 [penwidth=2]
    346 -> 301 [penwidth=2]
    346 -> 276 [penwidth=2]
    346 -> 330 [penwidth=2]
    346 -> 275 [penwidth=2]
    346 -> 281 [penwidth=2]
    346 -> 279 [penwidth=2]
    346 -> 296 [penwidth=2]
    346 -> 266 [penwidth=2]
    346 -> 264 [penwidth=2]
    346 -> 305 [penwidth=2]
    346 -> 320 [penwidth=2]
    346 -> 285 [penwidth=2]
    346 -> 255 [penwidth=2]
    346 -> 287 [penwidth=2]
    346 -> 304 [penwidth=2]
    346 -> 271 [penwidth=2]
    346 -> 324 [penwidth=2]
    346 -> 80 [penwidth=2]
    346 -> 294 [penwidth=2]
    346 -> 295 [penwidth=2]
    346 -> 302 [penwidth=2]
    346 -> 327 [penwidth=2]
    346 -> 250 [penwidth=2]
    346 -> 282 [penwidth=2]
    346 -> 299 [penwidth=2]
    346 -> 280 [penwidth=2]
    346 -> 329 [penwidth=2]
    346 -> 312 [penwidth=2]
    346 -> 260 [penwidth=2]
    346 -> 164 [penwidth=2]
    346 -> 272 [penwidth=2]
    346 -> 303 [penwidth=2]
    346 -> 308 [penwidth=2]
    346 -> 319 [penwidth=2]
    346 -> 306 [penwidth=2]
    346 -> 313 [penwidth=2]
    54 -> 307 [penwidth=2]
    54 -> 294 [penwidth=2]
    54 -> 274 [penwidth=2]
    54 -> 306 [penwidth=2]
    54 -> 251 [penwidth=2]
    54 -> 265 [penwidth=2]
    54 -> 285 [penwidth=2]
    54 -> 258 [penwidth=2]
    54 -> 257 [penwidth=2]
    54 -> 322 [penwidth=2]
    54 -> 80 [penwidth=2]
    54 -> 266 [penwidth=2]
    54 -> 164 [penwidth=2]
    54 -> 312 [penwidth=2]
    54 -> 319 [penwidth=2]
    54 -> 252 [penwidth=2]
    54 -> 296 [penwidth=2]
    54 -> 259 [penwidth=2]
    54 -> 323 [penwidth=2]
    54 -> 247 [penwidth=2]
    54 -> 303 [penwidth=2]
    54 -> 280 [penwidth=2]
    54 -> 163 [penwidth=2]
    54 -> 249 [penwidth=2]
    54 -> 297 [penwidth=2]
    54 -> 327 [penwidth=2]
    54 -> 284 [penwidth=2]
    54 -> 272 [penwidth=2]
    54 -> 299 [penwidth=2]
    54 -> 300 [penwidth=2]
    54 -> 278 [penwidth=2]
    54 -> 262 [penwidth=2]
    54 -> 275 [penwidth=2]
    54 -> 309 [penwidth=2]
    54 -> 81 [penwidth=2]
    54 -> 256 [penwidth=2]
    54 -> 325 [penwidth=2]
    54 -> 324 [penwidth=2]
    54 -> 314 [penwidth=2]
    54 -> 253 [penwidth=2]
    54 -> 248 [penwidth=2]
    54 -> 330 [penwidth=2]
    54 -> 270 [penwidth=2]
    54 -> 308 [penwidth=2]
    54 -> 250 [penwidth=2]
    54 -> 298 [penwidth=2]
    54 -> 316 [penwidth=2]
    54 -> 288 [penwidth=2]
    54 -> 255 [penwidth=2]
    54 -> 260 [penwidth=2]
    54 -> 305 [penwidth=2]
    54 -> 279 [penwidth=2]
    54 -> 315 [penwidth=2]
    54 -> 301 [penwidth=2]
    54 -> 254 [penwidth=2]
    54 -> 267 [penwidth=2]
    54 -> 313 [penwidth=2]
    54 -> 302 [penwidth=2]
    54 -> 326 [penwidth=2]
    54 -> 311 [penwidth=2]
    54 -> 281 [penwidth=2]
    54 -> 283 [penwidth=2]
    54 -> 304 [penwidth=2]
    54 -> 321 [penwidth=2]
    54 -> 282 [penwidth=2]
    54 -> 271 [penwidth=2]
    54 -> 320 [penwidth=2]
    54 -> 277 [penwidth=2]
    54 -> 79 [penwidth=2]
    54 -> 261 [penwidth=2]
    54 -> 263 [penwidth=2]
    54 -> 328 [penwidth=2]
    54 -> 273 [penwidth=2]
    54 -> 286 [penwidth=2]
    54 -> 317 [penwidth=2]
    54 -> 165 [penwidth=2]
    54 -> 264 [penwidth=2]
    223 -> 300 [penwidth=2]
    223 -> 282 [penwidth=2]
    223 -> 284 [penwidth=2]
    223 -> 327 [penwidth=2]
    223 -> 268 [penwidth=2]
    223 -> 253 [penwidth=2]
    223 -> 329 [penwidth=2]
    223 -> 316 [penwidth=2]
    223 -> 279 [penwidth=2]
    223 -> 304 [penwidth=2]
    223 -> 285 [penwidth=2]
    223 -> 80 [penwidth=2]
    223 -> 302 [penwidth=2]
    223 -> 320 [penwidth=2]
    223 -> 81 [penwidth=2]
    223 -> 281 [penwidth=2]
    223 -> 262 [penwidth=2]
    223 -> 317 [penwidth=2]
    223 -> 330 [penwidth=2]
    223 -> 318 [penwidth=2]
    223 -> 252 [penwidth=2]
    223 -> 254 [penwidth=2]
    223 -> 307 [penwidth=2]
    223 -> 299 [penwidth=2]
    223 -> 164 [penwidth=2]
    223 -> 274 [penwidth=2]
    223 -> 325 [penwidth=2]
    223 -> 295 [penwidth=2]
    223 -> 260 [penwidth=2]
    223 -> 309 [penwidth=2]
    223 -> 247 [penwidth=2]
    223 -> 296 [penwidth=2]
    223 -> 303 [penwidth=2]
    223 -> 326 [penwidth=2]
    223 -> 315 [penwidth=2]
    223 -> 270 [penwidth=2]
    223 -> 288 [penwidth=2]
    223 -> 306 [penwidth=2]
    223 -> 277 [penwidth=2]
    223 -> 250 [penwidth=2]
    223 -> 294 [penwidth=2]
    223 -> 308 [penwidth=2]
    223 -> 313 [penwidth=2]
    223 -> 248 [penwidth=2]
    223 -> 259 [penwidth=2]
    223 -> 324 [penwidth=2]
    223 -> 298 [penwidth=2]
    223 -> 278 [penwidth=2]
    223 -> 273 [penwidth=2]
    223 -> 286 [penwidth=2]
    223 -> 276 [penwidth=2]
    223 -> 251 [penwidth=2]
    223 -> 266 [penwidth=2]
    223 -> 249 [penwidth=2]
    223 -> 269 [penwidth=2]
    223 -> 275 [penwidth=2]
    223 -> 319 [penwidth=2]
    223 -> 263 [penwidth=2]
    223 -> 163 [penwidth=2]
    223 -> 264 [penwidth=2]
    223 -> 256 [penwidth=2]
    223 -> 271 [penwidth=2]
    349 -> 269 [penwidth=2]
    349 -> 327 [penwidth=2]
    349 -> 248 [penwidth=2]
    349 -> 314 [penwidth=2]
    349 -> 315 [penwidth=2]
    349 -> 285 [penwidth=2]
    349 -> 247 [penwidth=2]
    349 -> 254 [penwidth=2]
    349 -> 274 [penwidth=2]
    349 -> 282 [penwidth=2]
    349 -> 295 [penwidth=2]
    349 -> 275 [penwidth=2]
    349 -> 278 [penwidth=2]
    349 -> 300 [penwidth=2]
    349 -> 297 [penwidth=2]
    349 -> 260 [penwidth=2]
    349 -> 264 [penwidth=2]
    349 -> 299 [penwidth=2]
    349 -> 253 [penwidth=2]
    349 -> 267 [penwidth=2]
    349 -> 298 [penwidth=2]
    349 -> 262 [penwidth=2]
    349 -> 165 [penwidth=2]
    349 -> 307 [penwidth=2]
    349 -> 258 [penwidth=2]
    349 -> 272 [penwidth=2]
    349 -> 79 [penwidth=2]
    349 -> 280 [penwidth=2]
    349 -> 252 [penwidth=2]
    349 -> 318 [penwidth=2]
    349 -> 303 [penwidth=2]
    349 -> 255 [penwidth=2]
    349 -> 249 [penwidth=2]
    349 -> 276 [penwidth=2]
    349 -> 259 [penwidth=2]
    349 -> 308 [penwidth=2]
    349 -> 163 [penwidth=2]
    349 -> 322 [penwidth=2]
    349 -> 328 [penwidth=2]
    349 -> 271 [penwidth=2]
    349 -> 320 [penwidth=2]
    349 -> 81 [penwidth=2]
    349 -> 319 [penwidth=2]
    349 -> 305 [penwidth=2]
    349 -> 294 [penwidth=2]
    349 -> 321 [penwidth=2]
    349 -> 309 [penwidth=2]
    349 -> 164 [penwidth=2]
    349 -> 296 [penwidth=2]
    349 -> 283 [penwidth=2]
    349 -> 261 [penwidth=2]
    349 -> 304 [penwidth=2]
    349 -> 312 [penwidth=2]
    349 -> 302 [penwidth=2]
    349 -> 301 [penwidth=2]
    351 -> 300 [penwidth=2]
    351 -> 251 [penwidth=2]
    351 -> 320 [penwidth=2]
    351 -> 309 [penwidth=2]
    351 -> 314 [penwidth=2]
    351 -> 329 [penwidth=2]
    351 -> 330 [penwidth=2]
    351 -> 280 [penwidth=2]
    351 -> 281 [penwidth=2]
    351 -> 283 [penwidth=2]
    351 -> 286 [penwidth=2]
    351 -> 258 [penwidth=2]
    351 -> 324 [penwidth=2]
    351 -> 302 [penwidth=2]
    351 -> 304 [penwidth=2]
    351 -> 263 [penwidth=2]
    351 -> 165 [penwidth=2]
    351 -> 299 [penwidth=2]
    351 -> 285 [penwidth=2]
    351 -> 295 [penwidth=2]
    351 -> 257 [penwidth=2]
    351 -> 327 [penwidth=2]
    351 -> 319 [penwidth=2]
    351 -> 297 [penwidth=2]
    351 -> 296 [penwidth=2]
    351 -> 310 [penwidth=2]
    351 -> 328 [penwidth=2]
    351 -> 282 [penwidth=2]
    351 -> 303 [penwidth=2]
    351 -> 256 [penwidth=2]
    351 -> 306 [penwidth=2]
    351 -> 316 [penwidth=2]
    351 -> 260 [penwidth=2]
    351 -> 305 [penwidth=2]
    351 -> 261 [penwidth=2]
    351 -> 255 [penwidth=2]
    351 -> 80 [penwidth=2]
    351 -> 279 [penwidth=2]
    351 -> 326 [penwidth=2]
    351 -> 308 [penwidth=2]
    351 -> 267 [penwidth=2]
    351 -> 321 [penwidth=2]
    351 -> 287 [penwidth=2]
    351 -> 250 [penwidth=2]
    351 -> 271 [penwidth=2]
    351 -> 249 [penwidth=2]
    351 -> 294 [penwidth=2]
    351 -> 268 [penwidth=2]
    351 -> 325 [penwidth=2]
    351 -> 317 [penwidth=2]
    351 -> 269 [penwidth=2]
    351 -> 275 [penwidth=2]
    351 -> 259 [penwidth=2]
    351 -> 270 [penwidth=2]
    351 -> 323 [penwidth=2]
    351 -> 247 [penwidth=2]
    351 -> 298 [penwidth=2]
    351 -> 278 [penwidth=2]
    351 -> 315 [penwidth=2]
    351 -> 248 [penwidth=2]
    351 -> 81 [penwidth=2]
    351 -> 272 [penwidth=2]
    351 -> 262 [penwidth=2]
    233 -> 79 [penwidth=2]
    233 -> 286 [penwidth=2]
    233 -> 295 [penwidth=2]
    233 -> 323 [penwidth=2]
    233 -> 272 [penwidth=2]
    233 -> 164 [penwidth=2]
    233 -> 302 [penwidth=2]
    233 -> 320 [penwidth=2]
    233 -> 308 [penwidth=2]
    233 -> 247 [penwidth=2]
    233 -> 256 [penwidth=2]
    233 -> 318 [penwidth=2]
    233 -> 248 [penwidth=2]
    233 -> 80 [penwidth=2]
    233 -> 249 [penwidth=2]
    233 -> 165 [penwidth=2]
    233 -> 316 [penwidth=2]
    233 -> 261 [penwidth=2]
    233 -> 328 [penwidth=2]
    233 -> 285 [penwidth=2]
    233 -> 294 [penwidth=2]
    233 -> 310 [penwidth=2]
    233 -> 305 [penwidth=2]
    233 -> 259 [penwidth=2]
    233 -> 299 [penwidth=2]
    233 -> 297 [penwidth=2]
    233 -> 253 [penwidth=2]
    233 -> 283 [penwidth=2]
    233 -> 311 [penwidth=2]
    233 -> 280 [penwidth=2]
    233 -> 307 [penwidth=2]
    233 -> 282 [penwidth=2]
    363 -> 259 [penwidth=2]
    363 -> 320 [penwidth=2]
    363 -> 262 [penwidth=2]
    363 -> 282 [penwidth=2]
    363 -> 254 [penwidth=2]
    363 -> 255 [penwidth=2]
    363 -> 252 [penwidth=2]
    363 -> 286 [penwidth=2]
    363 -> 283 [penwidth=2]
    363 -> 264 [penwidth=2]
    363 -> 81 [penwidth=2]
    363 -> 163 [penwidth=2]
    363 -> 268 [penwidth=2]
    363 -> 249 [penwidth=2]
    363 -> 298 [penwidth=2]
    363 -> 315 [penwidth=2]
    363 -> 323 [penwidth=2]
    363 -> 302 [penwidth=2]
    363 -> 317 [penwidth=2]
    363 -> 296 [penwidth=2]
    363 -> 327 [penwidth=2]
    363 -> 306 [penwidth=2]
    363 -> 328 [penwidth=2]
    363 -> 251 [penwidth=2]
    363 -> 278 [penwidth=2]
    363 -> 267 [penwidth=2]
    363 -> 250 [penwidth=2]
    363 -> 330 [penwidth=2]
    239 -> 328 [penwidth=2]
    239 -> 265 [penwidth=2]
    239 -> 324 [penwidth=2]
    239 -> 258 [penwidth=2]
    239 -> 256 [penwidth=2]
    239 -> 288 [penwidth=2]
    239 -> 301 [penwidth=2]
    239 -> 259 [penwidth=2]
    239 -> 252 [penwidth=2]
    239 -> 266 [penwidth=2]
    239 -> 276 [penwidth=2]
    239 -> 281 [penwidth=2]
    239 -> 275 [penwidth=2]
    239 -> 311 [penwidth=2]
    239 -> 297 [penwidth=2]
    239 -> 273 [penwidth=2]
    239 -> 298 [penwidth=2]
    239 -> 314 [penwidth=2]
    239 -> 284 [penwidth=2]
    239 -> 330 [penwidth=2]
    239 -> 278 [penwidth=2]
    239 -> 164 [penwidth=2]
    239 -> 320 [penwidth=2]
    239 -> 296 [penwidth=2]
    239 -> 308 [penwidth=2]
    239 -> 277 [penwidth=2]
    239 -> 302 [penwidth=2]
    239 -> 255 [penwidth=2]
    239 -> 316 [penwidth=2]
    239 -> 253 [penwidth=2]
    239 -> 325 [penwidth=2]
    239 -> 279 [penwidth=2]
    239 -> 248 [penwidth=2]
    239 -> 257 [penwidth=2]
    239 -> 280 [penwidth=2]
    239 -> 80 [penwidth=2]
    239 -> 287 [penwidth=2]
    239 -> 283 [penwidth=2]
    239 -> 295 [penwidth=2]
    239 -> 312 [penwidth=2]
    239 -> 304 [penwidth=2]
    239 -> 307 [penwidth=2]
    239 -> 294 [penwidth=2]
    239 -> 322 [penwidth=2]
    239 -> 254 [penwidth=2]
    239 -> 251 [penwidth=2]
    239 -> 327 [penwidth=2]
    239 -> 261 [penwidth=2]
    239 -> 247 [penwidth=2]
    239 -> 79 [penwidth=2]
    239 -> 317 [penwidth=2]
    239 -> 282 [penwidth=2]
    239 -> 264 [penwidth=2]
    239 -> 300 [penwidth=2]
    239 -> 309 [penwidth=2]
    239 -> 310 [penwidth=2]
    239 -> 303 [penwidth=2]
    239 -> 270 [penwidth=2]
    239 -> 268 [penwidth=2]
    239 -> 306 [penwidth=2]
    239 -> 269 [penwidth=2]
    239 -> 286 [penwidth=2]
    239 -> 260 [penwidth=2]
    239 -> 299 [penwidth=2]
    239 -> 285 [penwidth=2]
    239 -> 274 [penwidth=2]
    239 -> 315 [penwidth=2]
    239 -> 262 [penwidth=2]
    239 -> 250 [penwidth=2]
    239 -> 329 [penwidth=2]
    239 -> 249 [penwidth=2]
    239 -> 272 [penwidth=2]
    239 -> 326 [penwidth=2]
    239 -> 305 [penwidth=2]
    239 -> 81 [penwidth=2]
    239 -> 271 [penwidth=2]
    239 -> 318 [penwidth=2]
    239 -> 319 [penwidth=2]
    239 -> 267 [penwidth=2]
    72 -> 264 [penwidth=2]
    72 -> 80 [penwidth=2]
    72 -> 315 [penwidth=2]
    72 -> 259 [penwidth=2]
    72 -> 330 [penwidth=2]
    72 -> 329 [penwidth=2]
    72 -> 305 [penwidth=2]
    72 -> 322 [penwidth=2]
    72 -> 256 [penwidth=2]
    72 -> 79 [penwidth=2]
    72 -> 311 [penwidth=2]
    72 -> 302 [penwidth=2]
    72 -> 281 [penwidth=2]
    72 -> 298 [penwidth=2]
    72 -> 310 [penwidth=2]
    72 -> 270 [penwidth=2]
    72 -> 267 [penwidth=2]
    72 -> 280 [penwidth=2]
    72 -> 257 [penwidth=2]
    72 -> 265 [penwidth=2]
    72 -> 260 [penwidth=2]
    72 -> 247 [penwidth=2]
    72 -> 269 [penwidth=2]
    72 -> 248 [penwidth=2]
    72 -> 326 [penwidth=2]
    72 -> 262 [penwidth=2]
    72 -> 303 [penwidth=2]
    72 -> 266 [penwidth=2]
    72 -> 319 [penwidth=2]
    72 -> 318 [penwidth=2]
    72 -> 324 [penwidth=2]
    72 -> 314 [penwidth=2]
    72 -> 294 [penwidth=2]
    72 -> 261 [penwidth=2]
    72 -> 81 [penwidth=2]
    72 -> 253 [penwidth=2]
    72 -> 283 [penwidth=2]
    72 -> 312 [penwidth=2]
    72 -> 299 [penwidth=2]
    72 -> 307 [penwidth=2]
    72 -> 285 [penwidth=2]
    72 -> 304 [penwidth=2]
    72 -> 295 [penwidth=2]
    72 -> 316 [penwidth=2]
    72 -> 255 [penwidth=2]
    72 -> 263 [penwidth=2]
    72 -> 163 [penwidth=2]
    72 -> 320 [penwidth=2]
    72 -> 282 [penwidth=2]
    72 -> 252 [penwidth=2]
}