digraph G {
    0 [penwidth=3,label="0"]
    1 [penwidth=3,label="1"]
    2 [penwidth=3,label="2"]
    3 [penwidth=3,label="3"]
    4 [penwidth=3,label="4"]
    5 [penwidth=3,label="5"]
    6 [penwidth=3,label="6"]
    7 [penwidth=3,label="7"]
    8 [penwidth=3,label="8"]
    9 [penwidth=3,label="9"]
    10 [penwidth=3,label="10"]
    11 [penwidth=3,label="11"]
    12 [penwidth=3,label="12"]
    13 [penwidth=3,label="13"]
    14 [penwidth=3,label="14"]
    15 [penwidth=3,label="15"]
    16 [penwidth=3,label="16"]
    17 [penwidth=3,label="17"]
    18 [penwidth=3,label="18"]
    19 [penwidth=3,label="19"]
    20 [penwidth=3,label="20"]
    21 [penwidth=3,label="21"]
    22 [penwidth=3,label="22"]
    23 [penwidth=3,label="23"]
    24 [penwidth=3,label="24"]
    25 [penwidth=3,label="25"]
    26 [penwidth=3,label="26"]
    27 [penwidth=3,label="27"]
    28 [penwidth=3,label="28"]
    29 [penwidth=3,label="29"]
    30 [penwidth=3,label="30"]
    31 [penwidth=3,label="31"]
    32 [penwidth=3,label="32"]
    33 [penwidth=3,label="33"]
    34 [penwidth=3,label="34"]
    35 [penwidth=3,label="35"]
    36 [penwidth=3,label="36"]
    37 [penwidth=3,label="37"]
    38 [penwidth=3,label="38"]
    39 [penwidth=3,label="39"]
    40 [penwidth=3,label="40"]
    41 [penwidth=3,label="41"]
    42 [penwidth=3,label="42"]
    43 [penwidth=3,label="43"]
    44 [penwidth=3,label="44"]
    45 [penwidth=3,label="45"]
    46 [penwidth=3,label="46"]
    47 [penwidth=3,label="47"]
    48 [penwidth=3,label="48"]
    49 [penwidth=3,label="49"]
    50 [penwidth=3,label="50"]
    51 [penwidth=3,label="51"]
    52 [penwidth=3,label="52"]
    53 [penwidth=3,label="53"]
    54 [penwidth=3,label="54"]
    55 [penwidth=3,label="55"]
    56 [penwidth=3,label="56"]
    57 [penwidth=3,label="57"]
    58 [penwidth=3,label="58"]
    59 [penwidth=3,label="59"]
    60 [penwidth=3,label="60"]
    61 [penwidth=3,label="61"]
    62 [penwidth=3,label="62"]
    63 [penwidth=3,label="63"]
    64 [penwidth=3,label="64"]
    65 [penwidth=3,label="65"]
    66 [penwidth=3,label="66"]
    67 [penwidth=3,label="67"]
    68 [penwidth=3,label="68"]
    69 [penwidth=3,label="69"]
    70 [penwidth=3,label="70"]
    71 [penwidth=3,label="71"]
    72 [penwidth=3,label="72"]
    73 [penwidth=3,label="73"]
    74 [penwidth=3,label="74"]
    75 [penwidth=3,label="75"]
    76 [penwidth=3,label="76"]
    77 [penwidth=3,label="77"]
    78 [penwidth=3,label="78"]
    79 [penwidth=3,label="79"]
    80 [penwidth=3,label="80"]
    81 [penwidth=3,label="81"]
    82 [penwidth=3,label="82"]
    83 [penwidth=3,label="83"]
    84 [penwidth=3,label="84"]
    85 [penwidth=3,label="85"]
    86 [penwidth=3,label="86"]
    87 [penwidth=3,label="87"]
    88 [penwidth=3,label="88"]
    89 [penwidth=3,label="89"]
    90 [penwidth=3,label="90"]
    91 [penwidth=3,label="91"]
    92 [penwidth=3,label="92"]
    93 [penwidth=3,label="93"]
    94 [penwidth=3,label="94"]
    95 [penwidth=3,label="95"]
    96 [penwidth=3,label="96"]
    97 [penwidth=3,label="97"]
    98 [penwidth=3,label="98"]
    99 [penwidth=3,label="99"]
    100 [penwidth=3,label="100"]
    101 [penwidth=3,label="101"]
    102 [penwidth=3,label="102"]
    103 [penwidth=3,label="103"]
    104 [penwidth=3,label="104"]
    105 [penwidth=3,label="105"]
    106 [penwidth=3,label="106"]
    107 [penwidth=3,label="107"]
    108 [penwidth=3,label="108"]
    109 [penwidth=3,label="109"]
    110 [penwidth=3,label="110"]
    111 [penwidth=3,label="111"]
    112 [penwidth=3,label="112"]
    113 [penwidth=3,label="113"]
    114 [penwidth=3,label="114"]
    115 [penwidth=3,label="115"]
    116 [penwidth=3,label="116"]
    117 [penwidth=3,label="117"]
    118 [penwidth=3,label="118"]
    119 [penwidth=3,label="119"]
    120 [penwidth=3,label="120"]
    121 [penwidth=3,label="121"]
    122 [penwidth=3,label="122"]
    123 [penwidth=3,label="123"]
    124 [penwidth=3,label="124"]
    125 [penwidth=3,label="125"]
    126 [penwidth=3,label="126"]
    127 [penwidth=3,label="127"]
    128 [penwidth=3,label="128"]
    129 [penwidth=3,label="129"]
    130 [penwidth=3,label="130"]
    131 [penwidth=3,label="131"]
    132 [penwidth=3,label="132"]
    133 [penwidth=3,label="133"]
    134 [penwidth=3,label="134"]
    135 [penwidth=3,label="135"]
    136 [penwidth=3,label="136"]
    137 [penwidth=3,label="137"]
    138 [penwidth=3,label="138"]
    139 [penwidth=3,label="139"]
    140 [penwidth=3,label="140"]
    141 [penwidth=3,label="141"]
    142 [penwidth=3,label="142"]
    143 [penwidth=3,label="143"]
    144 [penwidth=3,label="144"]
    145 [penwidth=3,label="145"]
    146 [penwidth=3,label="146"]
    147 [penwidth=3,label="147"]
    148 [penwidth=3,label="148"]
    149 [penwidth=3,label="149"]
    150 [penwidth=3,label="150"]
    151 [penwidth=3,label="151"]
    152 [penwidth=3,label="152"]
    153 [penwidth=3,label="153"]
    154 [penwidth=3,label="154"]
    155 [penwidth=3,label="155"]
    156 [penwidth=3,label="156"]
    157 [penwidth=3,label="157"]
    158 [penwidth=3,label="158"]
    159 [penwidth=3,label="159"]
    160 [penwidth=3,label="160"]
    161 [penwidth=3,label="161"]
    162 [penwidth=3,label="162"]
    163 [penwidth=3,label="163"]
    164 [penwidth=3,label="164"]
    165 [penwidth=3,label="165"]
    166 [penwidth=3,label="166"]
    167 [penwidth=3,label="167"]
    168 [penwidth=3,label="168"]
    169 [penwidth=3,label="169"]
    170 [penwidth=3,label="170"]
    171 [penwidth=3,label="171"]
    172 [penwidth=3,label="172"]
    173 [penwidth=3,label="173"]
    174 [penwidth=3,label="174"]
    175 [penwidth=3,label="175"]
    176 [penwidth=3,label="176"]
    177 [penwidth=3,label="177"]
    178 [penwidth=3,label="178"]
    179 [penwidth=3,label="179"]
    180 [penwidth=3,label="180"]
    181 [penwidth=3,label="181"]
    182 [penwidth=3,label="182"]
    183 [penwidth=3,label="183"]
    184 [penwidth=3,label="184"]
    185 [penwidth=3,label="185"]
    186 [penwidth=3,label="186"]
    187 [penwidth=3,label="187"]
    188 [penwidth=3,label="188"]
    189 [penwidth=3,label="189"]
    190 [penwidth=3,label="190"]
    191 [penwidth=3,label="191"]
    192 [penwidth=3,label="192"]
    193 [penwidth=3,label="193"]
    194 [penwidth=3,label="194"]
    195 [penwidth=3,label="195"]
    196 [penwidth=3,label="196"]
    197 [penwidth=3,label="197"]
    198 [penwidth=3,label="198"]
    199 [penwidth=3,label="199"]
    200 [penwidth=3,label="200"]
    201 [penwidth=3,label="201"]
    202 [penwidth=3,label="202"]
    203 [penwidth=3,label="203"]
    204 [penwidth=3,label="204"]
    205 [penwidth=3,label="205"]
    206 [penwidth=3,label="206"]
    207 [penwidth=3,label="207"]
    208 [penwidth=3,label="208"]
    209 [penwidth=3,label="209"]
    210 [penwidth=3,label="210"]
    211 [penwidth=3,label="211"]
    212 [penwidth=3,label="212"]
    213 [penwidth=3,label="213"]
    214 [penwidth=3,label="214"]
    215 [penwidth=3,label="215"]
    216 [penwidth=3,label="216"]
    217 [penwidth=3,label="217"]
    218 [penwidth=3,label="218"]
    219 [penwidth=3,label="219"]
    220 [penwidth=3,label="220"]
    221 [penwidth=3,label="221"]
    222 [penwidth=3,label="222"]
    223 [penwidth=3,label="223"]
    224 [penwidth=3,label="224"]
    225 [penwidth=3,label="225"]
    226 [penwidth=3,label="226"]
    227 [penwidth=3,label="227"]
    228 [penwidth=3,label="228"]
    229 [penwidth=3,label="229"]
    230 [penwidth=3,label="230"]
    231 [penwidth=3,label="231"]
    232 [penwidth=3,label="232"]
    233 [penwidth=3,label="233"]
    234 [penwidth=3,label="234"]
    235 [penwidth=3,label="235"]
    236 [penwidth=3,label="236"]
    237 [penwidth=3,label="237"]
    238 [penwidth=3,label="238"]
    239 [penwidth=3,label="239"]
    240 [penwidth=3,label="240"]
    241 [penwidth=3,label="241"]
    242 [penwidth=3,label="242"]
    243 [penwidth=3,label="243"]
    244 [penwidth=3,label="244"]
    245 [penwidth=3,label="245"]
    246 [penwidth=3,label="246"]
    247 [penwidth=3,label="247"]
    248 [penwidth=3,label="248"]
    249 [penwidth=3,label="249"]
    250 [penwidth=3,label="250"]
    251 [penwidth=3,label="251"]
    252 [penwidth=3,label="252"]
    253 [penwidth=3,label="253"]
    254 [penwidth=3,label="254"]
    255 [penwidth=3,label="255"]
    256 [penwidth=3,label="256"]
    257 [penwidth=3,label="257"]
    258 [penwidth=3,label="258"]
    259 [penwidth=3,label="259"]
    260 [penwidth=3,label="260"]
    261 [penwidth=3,label="261"]
    262 [penwidth=3,label="262"]
    263 [penwidth=3,label="263"]
    264 [penwidth=3,label="264"]
    265 [penwidth=3,label="265"]
    266 [penwidth=3,label="266"]
    267 [penwidth=3,label="267"]
    268 [penwidth=3,label="268"]
    269 [penwidth=3,label="269"]
    270 [penwidth=3,label="270"]
    271 [penwidth=3,label="271"]
    272 [penwidth=3,label="272"]
    273 [penwidth=3,label="273"]
    274 [penwidth=3,label="274"]
    275 [penwidth=3,label="275"]
    276 [penwidth=3,label="276"]
    277 [penwidth=3,label="277"]
    278 [penwidth=3,label="278"]
    279 [penwidth=3,label="279"]
    280 [penwidth=3,label="280"]
    281 [penwidth=3,label="281"]
    282 [penwidth=3,label="282"]
    283 [penwidth=3,label="283"]
    284 [penwidth=3,label="284"]
    285 [penwidth=3,label="285"]
    286 [penwidth=3,label="286"]
    287 [penwidth=3,label="287"]
    288 [penwidth=3,label="288"]
    289 [penwidth=3,label="289"]
    290 [penwidth=3,label="290"]
    291 [penwidth=3,label="291"]
    292 [penwidth=3,label="292"]
    293 [penwidth=3,label="293"]
    294 [penwidth=3,label="294"]
    295 [penwidth=3,label="295"]
    296 [penwidth=3,label="296"]
    297 [penwidth=3,label="297"]
    298 [penwidth=3,label="298"]
    299 [penwidth=3,label="299"]
    300 [penwidth=3,label="300"]
    301 [penwidth=3,label="301"]
    302 [penwidth=3,label="302"]
    303 [penwidth=3,label="303"]
    304 [penwidth=3,label="304"]
    305 [penwidth=3,label="305"]
    306 [penwidth=3,label="306"]
    307 [penwidth=3,label="307"]
    308 [penwidth=3,label="308"]
    309 [penwidth=3,label="309"]
    310 [penwidth=3,label="310"]
    311 [penwidth=3,label="311"]
    312 [penwidth=3,label="312"]
    313 [penwidth=3,label="313"]
    314 [penwidth=3,label="314"]
    315 [penwidth=3,label="315"]
    316 [penwidth=3,label="316"]
    317 [penwidth=3,label="317"]
    318 [penwidth=3,label="318"]
    319 [penwidth=3,label="319"]
    320 [penwidth=3,label="320"]
    321 [penwidth=3,label="321"]
    322 [penwidth=3,label="322"]
    323 [penwidth=3,label="323"]
    324 [penwidth=3,label="324"]
    325 [penwidth=3,label="325"]
    326 [penwidth=3,label="326"]
    327 [penwidth=3,label="327"]
    328 [penwidth=3,label="328"]
    329 [penwidth=3,label="329"]
    330 [penwidth=3,label="330"]
    331 [penwidth=3,label="331"]
    332 [penwidth=3,label="332"]
    333 [penwidth=3,label="333"]
    334 [penwidth=3,label="334"]
    335 [penwidth=3,label="335"]
    336 [penwidth=3,label="336"]
    337 [penwidth=3,label="337"]
    338 [penwidth=3,label="338"]
    339 [penwidth=3,label="339"]
    340 [penwidth=3,label="340"]
    341 [penwidth=3,label="341"]
    342 [penwidth=3,label="342"]
    343 [penwidth=3,label="343"]
    344 [penwidth=3,label="344"]
    345 [penwidth=3,label="345"]
    346 [penwidth=3,label="346"]
    347 [penwidth=3,label="347"]
    348 [penwidth=3,label="348"]
    349 [penwidth=3,label="349"]
    350 [penwidth=3,label="350"]
    351 [penwidth=3,label="351"]
    352 [penwidth=3,label="352"]
    353 [penwidth=3,label="353"]
    354 [penwidth=3,label="354"]
    355 [penwidth=3,label="355"]
    356 [penwidth=3,label="356"]
    357 [penwidth=3,label="357"]
    358 [penwidth=3,label="358"]
    359 [penwidth=3,label="359"]
    360 [penwidth=3,label="360"]
    361 [penwidth=3,label="361"]
    362 [penwidth=3,label="362"]
    363 [penwidth=3,label="363"]
    364 [penwidth=3,label="364"]
    365 [penwidth=3,label="365"]
    366 [penwidth=3,label="366"]
    367 [penwidth=3,label="367"]
    368 [penwidth=3,label="368"]
    369 [penwidth=3,label="369"]
    370 [penwidth=3,label="370"]
    371 [penwidth=3,label="371"]
    372 [penwidth=3,label="372"]
    373 [penwidth=3,label="373"]
    374 [penwidth=3,label="374"]
    375 [penwidth=3,label="375"]
    376 [penwidth=3,label="376"]
    377 [penwidth=3,label="377"]
    378 [penwidth=3,label="378"]
    379 [penwidth=3,label="379"]
    380 [penwidth=3,label="380"]
    381 [penwidth=3,label="381"]
    382 [penwidth=3,label="382"]
    383 [penwidth=3,label="383"]
    384 [penwidth=3,label="384"]
    385 [penwidth=3,label="385"]
    386 [penwidth=3,label="386"]
    387 [penwidth=3,label="387"]
    388 [penwidth=3,label="388"]
    389 [penwidth=3,label="389"]
    390 [penwidth=3,label="390"]
    391 [penwidth=3,label="391"]
    392 [penwidth=3,label="392"]
    393 [penwidth=3,label="393"]
    394 [penwidth=3,label="394"]
    395 [penwidth=3,label="395"]
    396 [penwidth=3,label="396"]
    397 [penwidth=3,label="397"]
    398 [penwidth=3,label="398"]
    399 [penwidth=3,label="399"]

    199 -> 0 [penwidth=2]
    200 -> 0 [penwidth=2]
    201 -> 0 [penwidth=2]
    202 -> 200 [penwidth=2]
    203 -> 200 [penwidth=2]
    204 -> 200 [penwidth=2]
    205 -> 200 [penwidth=2]
    206 -> 200 [penwidth=2]
    207 -> 200 [penwidth=2]
    208 -> 200 [penwidth=2]
    209 -> 200 [penwidth=2]
    210 -> 200 [penwidth=2]
    211 -> 200 [penwidth=2]
    212 -> 200 [penwidth=2]
    213 -> 200 [penwidth=2]
    214 -> 200 [penwidth=2]
    215 -> 201 [penwidth=2]
    216 -> 201 [penwidth=2]
    217 -> 201 [penwidth=2]
    218 -> 201 [penwidth=2]
    219 -> 201 [penwidth=2]
    220 -> 202 [penwidth=2]
    221 -> 202 [penwidth=2]
    222 -> 202 [penwidth=2]
    223 -> 203 [penwidth=2]
    224 -> 203 [penwidth=2]
    225 -> 203 [penwidth=2]
    226 -> 203 [penwidth=2]
    227 -> 203 [penwidth=2]
    228 -> 203 [penwidth=2]
    229 -> 203 [penwidth=2]
    230 -> 203 [penwidth=2]
    231 -> 203 [penwidth=2]
    232 -> 203 [penwidth=2]
    233 -> 203 [penwidth=2]
    234 -> 203 [penwidth=2]
    235 -> 203 [penwidth=2]
    236 -> 203 [penwidth=2]
    237 -> 203 [penwidth=2]
    238 -> 203 [penwidth=2]
    239 -> 203 [penwidth=2]
    240 -> 203 [penwidth=2]
    157 -> 203 [penwidth=2]
    158 -> 203 [penwidth=2]
    159 -> 203 [penwidth=2]
    160 -> 203 [penwidth=2]
    161 -> 203 [penwidth=2]
    162 -> 203 [penwidth=2]
    163 -> 203 [penwidth=2]
    164 -> 203 [penwidth=2]
    165 -> 203 [penwidth=2]
    166 -> 204 [penwidth=2]
    167 -> 204 [penwidth=2]
    168 -> 204 [penwidth=2]
    169 -> 204 [penwidth=2]
    170 -> 204 [penwidth=2]
    171 -> 204 [penwidth=2]
    172 -> 204 [penwidth=2]
    173 -> 204 [penwidth=2]
    174 -> 204 [penwidth=2]
    175 -> 204 [penwidth=2]
    176 -> 204 [penwidth=2]
    177 -> 204 [penwidth=2]
    178 -> 204 [penwidth=2]
    179 -> 204 [penwidth=2]
    180 -> 204 [penwidth=2]
    181 -> 204 [penwidth=2]
    182 -> 204 [penwidth=2]
    183 -> 205 [penwidth=2]
    184 -> 205 [penwidth=2]
    185 -> 205 [penwidth=2]
    186 -> 205 [penwidth=2]
    187 -> 205 [penwidth=2]
    188 -> 206 [penwidth=2]
    189 -> 206 [penwidth=2]
    190 -> 206 [penwidth=2]
    191 -> 206 [penwidth=2]
    192 -> 206 [penwidth=2]
    193 -> 206 [penwidth=2]
    194 -> 206 [penwidth=2]
    195 -> 206 [penwidth=2]
    196 -> 206 [penwidth=2]
    197 -> 206 [penwidth=2]
    198 -> 206 [penwidth=2]
    73 -> 206 [penwidth=2]
    115 -> 206 [penwidth=2]
    74 -> 206 [penwidth=2]
    116 -> 206 [penwidth=2]
    75 -> 206 [penwidth=2]
    117 -> 206 [penwidth=2]
    76 -> 206 [penwidth=2]
    118 -> 206 [penwidth=2]
    77 -> 206 [penwidth=2]
    119 -> 206 [penwidth=2]
    78 -> 206 [penwidth=2]
    120 -> 206 [penwidth=2]
    79 -> 206 [penwidth=2]
    121 -> 207 [penwidth=2]
    80 -> 207 [penwidth=2]
    122 -> 207 [penwidth=2]
    81 -> 207 [penwidth=2]
    123 -> 207 [penwidth=2]
    82 -> 207 [penwidth=2]
    124 -> 207 [penwidth=2]
    83 -> 207 [penwidth=2]
    125 -> 207 [penwidth=2]
    84 -> 207 [penwidth=2]
    126 -> 207 [penwidth=2]
    85 -> 207 [penwidth=2]
    127 -> 207 [penwidth=2]
    86 -> 207 [penwidth=2]
    128 -> 207 [penwidth=2]
    87 -> 207 [penwidth=2]
    129 -> 207 [penwidth=2]
    88 -> 207 [penwidth=2]
    130 -> 207 [penwidth=2]
    89 -> 207 [penwidth=2]
    131 -> 207 [penwidth=2]
    90 -> 207 [penwidth=2]
    132 -> 207 [penwidth=2]
    91 -> 207 [penwidth=2]
    133 -> 207 [penwidth=2]
    92 -> 208 [penwidth=2]
    134 -> 208 [penwidth=2]
    93 -> 208 [penwidth=2]
    135 -> 208 [penwidth=2]
    94 -> 208 [penwidth=2]
    136 -> 208 [penwidth=2]
    95 -> 208 [penwidth=2]
    137 -> 208 [penwidth=2]
    96 -> 208 [penwidth=2]
    138 -> 208 [penwidth=2]
    97 -> 208 [penwidth=2]
    139 -> 208 [penwidth=2]
    98 -> 208 [penwidth=2]
    140 -> 208 [penwidth=2]
    99 -> 208 [penwidth=2]
    141 -> 208 [penwidth=2]
    100 -> 208 [penwidth=2]
    142 -> 208 [penwidth=2]
    101 -> 208 [penwidth=2]
    143 -> 208 [penwidth=2]
    102 -> 208 [penwidth=2]
    144 -> 208 [penwidth=2]
    103 -> 208 [penwidth=2]
    145 -> 208 [penwidth=2]
    104 -> 209 [penwidth=2]
    146 -> 209 [penwidth=2]
    105 -> 209 [penwidth=2]
    147 -> 209 [penwidth=2]
    106 -> 209 [penwidth=2]
    148 -> 209 [penwidth=2]
    107 -> 209 [penwidth=2]
    149 -> 209 [penwidth=2]
    108 -> 209 [penwidth=2]
    150 -> 209 [penwidth=2]
    109 -> 209 [penwidth=2]
    151 -> 209 [penwidth=2]
    110 -> 209 [penwidth=2]
    152 -> 209 [penwidth=2]
    111 -> 209 [penwidth=2]
    153 -> 209 [penwidth=2]
    112 -> 209 [penwidth=2]
    154 -> 209 [penwidth=2]
    113 -> 209 [penwidth=2]
    155 -> 209 [penwidth=2]
    114 -> 209 [penwidth=2]
    156 -> 209 [penwidth=2]
    31 -> 209 [penwidth=2]
    32 -> 209 [penwidth=2]
    33 -> 209 [penwidth=2]
    34 -> 209 [penwidth=2]
    35 -> 209 [penwidth=2]
    36 -> 209 [penwidth=2]
    37 -> 209 [penwidth=2]
    38 -> 209 [penwidth=2]
    39 -> 210 [penwidth=2]
    40 -> 210 [penwidth=2]
    41 -> 210 [penwidth=2]
    42 -> 210 [penwidth=2]
    43 -> 210 [penwidth=2]
    44 -> 210 [penwidth=2]
    45 -> 210 [penwidth=2]
    46 -> 211 [penwidth=2]
    47 -> 211 [penwidth=2]
    48 -> 211 [penwidth=2]
    49 -> 211 [penwidth=2]
    50 -> 211 [penwidth=2]
    51 -> 211 [penwidth=2]
    52 -> 211 [penwidth=2]
    53 -> 212 [penwidth=2]
    54 -> 212 [penwidth=2]
    55 -> 212 [penwidth=2]
    56 -> 212 [penwidth=2]
    57 -> 212 [penwidth=2]
    58 -> 212 [penwidth=2]
    59 -> 212 [penwidth=2]
    60 -> 212 [penwidth=2]
    61 -> 212 [penwidth=2]
    62 -> 212 [penwidth=2]
    63 -> 212 [penwidth=2]
    64 -> 212 [penwidth=2]
    65 -> 212 [penwidth=2]
    66 -> 212 [penwidth=2]
    67 -> 212 [penwidth=2]
    68 -> 212 [penwidth=2]
    69 -> 212 [penwidth=2]
    70 -> 212 [penwidth=2]
    71 -> 212 [penwidth=2]
    72 -> 212 [penwidth=2]
    367 -> 212 [penwidth=2]
    368 -> 212 [penwidth=2]
    369 -> 212 [penwidth=2]
    370 -> 212 [penwidth=2]
    371 -> 212 [penwidth=2]
    372 -> 212 [penwidth=2]
    373 -> 213 [penwidth=2]
    374 -> 213 [penwidth=2]
    375 -> 213 [penwidth=2]
    376 -> 213 [penwidth=2]
    377 -> 213 [penwidth=2]
    378 -> 213 [penwidth=2]
    1 -> 213 [penwidth=2]
    379 -> 213 [penwidth=2]
    2 -> 213 [penwidth=2]
    380 -> 213 [penwidth=2]
    3 -> 213 [penwidth=2]
    381 -> 213 [penwidth=2]
    4 -> 213 [penwidth=2]
    382 -> 213 [penwidth=2]
    5 -> 213 [penwidth=2]
    383 -> 213 [penwidth=2]
    6 -> 213 [penwidth=2]
    384 -> 213 [penwidth=2]
    7 -> 213 [penwidth=2]
    385 -> 213 [penwidth=2]
    8 -> 214 [penwidth=2]
    386 -> 214 [penwidth=2]
    9 -> 214 [penwidth=2]
    387 -> 214 [penwidth=2]
    10 -> 214 [penwidth=2]
    388 -> 214 [penwidth=2]
    11 -> 214 [penwidth=2]
    389 -> 214 [penwidth=2]
    12 -> 214 [penwidth=2]
    390 -> 214 [penwidth=2]
    13 -> 214 [penwidth=2]
    391 -> 214 [penwidth=2]
    14 -> 214 [penwidth=2]
    392 -> 214 [penwidth=2]
    15 -> 214 [penwidth=2]
    393 -> 214 [penwidth=2]
    16 -> 214 [penwidth=2]
    394 -> 214 [penwidth=2]
    17 -> 214 [penwidth=2]
    395 -> 214 [penwidth=2]
    18 -> 214 [penwidth=2]
    396 -> 214 [penwidth=2]
    19 -> 215 [penwidth=2]
    397 -> 215 [penwidth=2]
    20 -> 215 [penwidth=2]
    398 -> 215 [penwidth=2]
    21 -> 215 [penwidth=2]
    399 -> 215 [penwidth=2]
    22 -> 215 [penwidth=2]
    23 -> 215 [penwidth=2]
    24 -> 215 [penwidth=2]
    25 -> 215 [penwidth=2]
    26 -> 215 [penwidth=2]
    27 -> 215 [penwidth=2]
    28 -> 216 [penwidth=2]
    29 -> 216 [penwidth=2]
    30 -> 216 [penwidth=2]
    325 -> 217 [penwidth=2]
    326 -> 217 [penwidth=2]
    327 -> 217 [penwidth=2]
    328 -> 217 [penwidth=2]
    329 -> 217 [penwidth=2]
    330 -> 217 [penwidth=2]
    331 -> 217 [penwidth=2]
    332 -> 217 [penwidth=2]
    333 -> 217 [penwidth=2]
    334 -> 217 [penwidth=2]
    335 -> 217 [penwidth=2]
    336 -> 217 [penwidth=2]
    337 -> 217 [penwidth=2]
    338 -> 217 [penwidth=2]
    339 -> 217 [penwidth=2]
    340 -> 218 [penwidth=2]
    341 -> 218 [penwidth=2]
    342 -> 218 [penwidth=2]
    343 -> 218 [penwidth=2]
    344 -> 218 [penwidth=2]
    345 -> 218 [penwidth=2]
    346 -> 218 [penwidth=2]
    347 -> 218 [penwidth=2]
    348 -> 218 [penwidth=2]
    349 -> 218 [penwidth=2]
    350 -> 218 [penwidth=2]
    351 -> 218 [penwidth=2]
    352 -> 218 [penwidth=2]
    353 -> 219 [penwidth=2]
    354 -> 219 [penwidth=2]
    355 -> 220 [penwidth=2]
    356 -> 220 [penwidth=2]
    357 -> 220 [penwidth=2]
    358 -> 220 [penwidth=2]
    359 -> 220 [penwidth=2]
    360 -> 220 [penwidth=2]
    361 -> 220 [penwidth=2]
    362 -> 220 [penwidth=2]
    363 -> 220 [penwidth=2]
    364 -> 220 [penwidth=2]
    365 -> 220 [penwidth=2]
    366 -> 220 [penwidth=2]
    283 -> 220 [penwidth=2]
    284 -> 220 [penwidth=2]
    285 -> 220 [penwidth=2]
    286 -> 220 [penwidth=2]
    287 -> 220 [penwidth=2]
    288 -> 220 [penwidth=2]
    289 -> 220 [penwidth=2]
    290 -> 220 [penwidth=2]
    291 -> 220 [penwidth=2]
    292 -> 220 [penwidth=2]
    293 -> 220 [penwidth=2]
    294 -> 221 [penwidth=2]
    295 -> 221 [penwidth=2]
    296 -> 221 [penwidth=2]
    297 -> 221 [penwidth=2]
    298 -> 221 [penwidth=2]
    299 -> 221 [penwidth=2]
    300 -> 221 [penwidth=2]
    301 -> 221 [penwidth=2]
    302 -> 221 [penwidth=2]
    303 -> 221 [penwidth=2]
    304 -> 221 [penwidth=2]
    305 -> 221 [penwidth=2]
    306 -> 221 [penwidth=2]
    307 -> 221 [penwidth=2]
    308 -> 221 [penwidth=2]
    309 -> 221 [penwidth=2]
    310 -> 222 [penwidth=2]
    311 -> 222 [penwidth=2]
    312 -> 222 [penwidth=2]
    313 -> 222 [penwidth=2]
    314 -> 222 [penwidth=2]
    315 -> 222 [penwidth=2]
    316 -> 222 [penwidth=2]
    317 -> 222 [penwidth=2]
    318 -> 222 [penwidth=2]
    319 -> 222 [penwidth=2]
    320 -> 222 [penwidth=2]
    321 -> 222 [penwidth=2]
    322 -> 222 [penwidth=2]
    323 -> 222 [penwidth=2]
    324 -> 222 [penwidth=2]
    241 -> 222 [penwidth=2]
    242 -> 222 [penwidth=2]
    243 -> 222 [penwidth=2]
    244 -> 222 [penwidth=2]
    245 -> 222 [penwidth=2]
    246 -> 222 [penwidth=2]
    247 -> 222 [penwidth=2]
    248 -> 222 [penwidth=2]
    249 -> 222 [penwidth=2]
    250 -> 222 [penwidth=2]
    251 -> 222 [penwidth=2]
    252 -> 223 [penwidth=2]
    253 -> 223 [penwidth=2]
    254 -> 223 [penwidth=2]
    255 -> 223 [penwidth=2]
    256 -> 223 [penwidth=2]
    257 -> 223 [penwidth=2]
    258 -> 223 [penwidth=2]
    259 -> 223 [penwidth=2]
    260 -> 223 [penwidth=2]
    261 -> 223 [penwidth=2]
    262 -> 223 [penwidth=2]
    263 -> 223 [penwidth=2]
    264 -> 224 [penwidth=2]
    265 -> 224 [penwidth=2]
    266 -> 224 [penwidth=2]
    267 -> 224 [penwidth=2]
    268 -> 224 [penwidth=2]
    269 -> 224 [penwidth=2]
    270 -> 224 [penwidth=2]
    271 -> 224 [penwidth=2]
    272 -> 224 [penwidth=2]
    273 -> 224 [penwidth=2]
    274 -> 224 [penwidth=2]
    275 -> 224 [penwidth=2]
    276 -> 224 [penwidth=2]
    277 -> 224 [penwidth=2]
    278 -> 224 [penwidth=2]
    279 -> 224 [penwidth=2]
    280 -> 224 [penwidth=2]
    281 -> 224 [penwidth=2]
    282 -> 224 [penwidth=2]
    203 -> 199 [penwidth=2]
    222 -> 207 [penwidth=2]
    222 -> 214 [penwidth=2]
    222 -> 219 [penwidth=2]
    222 -> 204 [penwidth=2]
    222 -> 203 [penwidth=2]
    222 -> 213 [penwidth=2]
    222 -> 211 [penwidth=2]
    222 -> 209 [penwidth=2]
    222 -> 215 [penwidth=2]
    222 -> 217 [penwidth=2]
    222 -> 206 [penwidth=2]
    222 -> 208 [penwidth=2]
    222 -> 212 [penwidth=2]
    222 -> 216 [penwidth=2]
    222 -> 218 [penwidth=2]
    222 -> 210 [penwidth=2]
    227 -> 205 [penwidth=2]
    168 -> 202 [penwidth=2]
    168 -> 208 [penwidth=2]
    168 -> 217 [penwidth=2]
    168 -> 213 [penwidth=2]
    168 -> 214 [penwidth=2]
    168 -> 218 [penwidth=2]
    180 -> 211 [penwidth=2]
    180 -> 218 [penwidth=2]
    180 -> 205 [penwidth=2]
    180 -> 219 [penwidth=2]
    187 -> 218 [penwidth=2]
    187 -> 219 [penwidth=2]
    76 -> 219 [penwidth=2]
    76 -> 213 [penwidth=2]
    76 -> 210 [penwidth=2]
    76 -> 211 [penwidth=2]
    76 -> 215 [penwidth=2]
    76 -> 214 [penwidth=2]
    76 -> 202 [penwidth=2]
    76 -> 218 [penwidth=2]
    76 -> 207 [penwidth=2]
    76 -> 203 [penwidth=2]
    76 -> 205 [penwidth=2]
    76 -> 208 [penwidth=2]
    76 -> 216 [penwidth=2]
    76 -> 212 [penwidth=2]
    76 -> 204 [penwidth=2]
    76 -> 209 [penwidth=2]
    126 -> 206 [penwidth=2]
    126 -> 215 [penwidth=2]
    126 -> 205 [penwidth=2]
    126 -> 213 [penwidth=2]
    126 -> 217 [penwidth=2]
    91 -> 219 [penwidth=2]
    91 -> 209 [penwidth=2]
    91 -> 205 [penwidth=2]
    91 -> 203 [penwidth=2]
    91 -> 213 [penwidth=2]
    91 -> 210 [penwidth=2]
    91 -> 215 [penwidth=2]
    91 -> 217 [penwidth=2]
    91 -> 211 [penwidth=2]
    136 -> 212 [penwidth=2]
    136 -> 215 [penwidth=2]
    136 -> 213 [penwidth=2]
    136 -> 207 [penwidth=2]
    136 -> 219 [penwidth=2]
    136 -> 210 [penwidth=2]
    136 -> 218 [penwidth=2]
    136 -> 209 [penwidth=2]
    95 -> 204 [penwidth=2]
    95 -> 202 [penwidth=2]
    95 -> 215 [penwidth=2]
    95 -> 214 [penwidth=2]
    95 -> 217 [penwidth=2]
    95 -> 207 [penwidth=2]
    95 -> 211 [penwidth=2]
    95 -> 212 [penwidth=2]
    95 -> 203 [penwidth=2]
    95 -> 206 [penwidth=2]
    95 -> 209 [penwidth=2]
    95 -> 218 [penwidth=2]
    95 -> 205 [penwidth=2]
    97 -> 219 [penwidth=2]
    97 -> 213 [penwidth=2]
    97 -> 211 [penwidth=2]
    97 -> 218 [penwidth=2]
    97 -> 202 [penwidth=2]
    97 -> 216 [penwidth=2]
    97 -> 210 [penwidth=2]
    144 -> 216 [penwidth=2]
    144 -> 218 [penwidth=2]
    144 -> 210 [penwidth=2]
    144 -> 203 [penwidth=2]
    144 -> 204 [penwidth=2]
    144 -> 213 [penwidth=2]
    144 -> 219 [penwidth=2]
    144 -> 206 [penwidth=2]
    144 -> 214 [penwidth=2]
    144 -> 211 [penwidth=2]
    150 -> 208 [penwidth=2]
    150 -> 216 [penwidth=2]
    150 -> 213 [penwidth=2]
    150 -> 203 [penwidth=2]
    150 -> 212 [penwidth=2]
    112 -> 210 [penwidth=2]
    112 -> 206 [penwidth=2]
    112 -> 205 [penwidth=2]
    112 -> 217 [penwidth=2]
    112 -> 207 [penwidth=2]
    112 -> 218 [penwidth=2]
    31 -> 202 [penwidth=2]
    31 -> 215 [penwidth=2]
    31 -> 211 [penwidth=2]
    31 -> 206 [penwidth=2]
    31 -> 218 [penwidth=2]
    31 -> 208 [penwidth=2]
    35 -> 218 [penwidth=2]
    35 -> 212 [penwidth=2]
    35 -> 214 [penwidth=2]
    38 -> 204 [penwidth=2]
    38 -> 202 [penwidth=2]
    38 -> 217 [penwidth=2]
    38 -> 216 [penwidth=2]
    38 -> 206 [penwidth=2]
    38 -> 212 [penwidth=2]
    38 -> 214 [penwidth=2]
    41 -> 207 [penwidth=2]
    41 -> 213 [penwidth=2]
    41 -> 204 [penwidth=2]
    41 -> 212 [penwidth=2]
    41 -> 218 [penwidth=2]
    41 -> 205 [penwidth=2]
    41 -> 206 [penwidth=2]
    41 -> 219 [penwidth=2]
    41 -> 208 [penwidth=2]
    41 -> 216 [penwidth=2]
    41 -> 211 [penwidth=2]
    41 -> 203 [penwidth=2]
    41 -> 209 [penwidth=2]
    41 -> 217 [penwidth=2]
    41 -> 202 [penwidth=2]
    45 -> 206 [penwidth=2]
    45 -> 219 [penwidth=2]
    45 -> 211 [penwidth=2]
    45 -> 214 [penwidth=2]
    45 -> 205 [penwidth=2]
    45 -> 209 [penwidth=2]
    45 -> 207 [penwidth=2]
    45 -> 208 [penwidth=2]
    45 -> 215 [penwidth=2]
    45 -> 202 [penwidth=2]
    62 -> 204 [penwidth=2]
    62 -> 210 [penwidth=2]
    62 -> 203 [penwidth=2]
    62 -> 209 [penwidth=2]
    62 -> 213 [penwidth=2]
    62 -> 206 [penwidth=2]
    62 -> 207 [penwidth=2]
    62 -> 217 [penwidth=2]
    62 -> 216 [penwidth=2]
    62 -> 208 [penwidth=2]
    62 -> 202 [penwidth=2]
    62 -> 219 [penwidth=2]
    63 -> 215 [penwidth=2]
    63 -> 211 [penwidth=2]
    63 -> 204 [penwidth=2]
    63 -> 206 [penwidth=2]
    63 -> 214 [penwidth=2]
    63 -> 213 [penwidth=2]
    63 -> 205 [penwidth=2]
    67 -> 203 [penwidth=2]
    68 -> 207 [penwidth=2]
    68 -> 206 [penwidth=2]
    68 -> 203 [penwidth=2]
    68 -> 215 [penwidth=2]
    68 -> 205 [penwidth=2]
    68 -> 217 [penwidth=2]
    68 -> 202 [penwidth=2]
    68 -> 211 [penwidth=2]
    68 -> 204 [penwidth=2]
    68 -> 208 [penwidth=2]
    68 -> 214 [penwidth=2]
    68 -> 218 [penwidth=2]
    68 -> 209 [penwidth=2]
    68 -> 219 [penwidth=2]
    68 -> 213 [penwidth=2]
    368 -> 207 [penwidth=2]
    8 -> 218 [penwidth=2]
    8 -> 215 [penwidth=2]
    8 -> 210 [penwidth=2]
    8 -> 209 [penwidth=2]
    8 -> 219 [penwidth=2]
    8 -> 207 [penwidth=2]
    8 -> 217 [penwidth=2]
    8 -> 206 [penwidth=2]
    8 -> 203 [penwidth=2]
    8 -> 208 [penwidth=2]
    386 -> 219 [penwidth=2]
    386 -> 204 [penwidth=2]
    386 -> 215 [penwidth=2]
    386 -> 206 [penwidth=2]
    386 -> 210 [penwidth=2]
    386 -> 217 [penwidth=2]
    386 -> 218 [penwidth=2]
    386 -> 216 [penwidth=2]
    386 -> 205 [penwidth=2]
    386 -> 207 [penwidth=2]
    386 -> 211 [penwidth=2]
    386 -> 208 [penwidth=2]
    386 -> 212 [penwidth=2]
    10 -> 202 [penwidth=2]
    10 -> 218 [penwidth=2]
    10 -> 210 [penwidth=2]
    10 -> 213 [penwidth=2]
    10 -> 215 [penwidth=2]
    10 -> 216 [penwidth=2]
    10 -> 205 [penwidth=2]
    10 -> 211 [penwidth=2]
    10 -> 204 [penwidth=2]
    10 -> 208 [penwidth=2]
    10 -> 209 [penwidth=2]
    21 -> 207 [penwidth=2]
    30 -> 207 [penwidth=2]
    30 -> 211 [penwidth=2]
    30 -> 202 [penwidth=2]
    30 -> 210 [penwidth=2]
    30 -> 215 [penwidth=2]
    30 -> 208 [penwidth=2]
    30 -> 206 [penwidth=2]
    335 -> 206 [penwidth=2]
    335 -> 210 [penwidth=2]
    335 -> 219 [penwidth=2]
    335 -> 204 [penwidth=2]
    335 -> 215 [penwidth=2]
    335 -> 211 [penwidth=2]
    335 -> 203 [penwidth=2]
    335 -> 216 [penwidth=2]
    335 -> 212 [penwidth=2]
    335 -> 218 [penwidth=2]
    335 -> 214 [penwidth=2]
    335 -> 213 [penwidth=2]
    335 -> 207 [penwidth=2]
    338 -> 210 [penwidth=2]
    338 -> 211 [penwidth=2]
    338 -> 219 [penwidth=2]
    338 -> 203 [penwidth=2]
    338 -> 214 [penwidth=2]
    338 -> 216 [penwidth=2]
    349 -> 211 [penwidth=2]
    362 -> 193 [penwidth=2]
    362 -> 13 [penwidth=2]
    362 -> 76 [penwidth=2]
    362 -> 80 [penwidth=2]
    362 -> 336 [penwidth=2]
    362 -> 330 [penwidth=2]
    362 -> 96 [penwidth=2]
    362 -> 79 [penwidth=2]
    362 -> 67 [penwidth=2]
    362 -> 108 [penwidth=2]
    362 -> 177 [penwidth=2]
    362 -> 331 [penwidth=2]
    362 -> 173 [penwidth=2]
    362 -> 223 [penwidth=2]
    362 -> 139 [penwidth=2]
    362 -> 112 [penwidth=2]
    362 -> 147 [penwidth=2]
    362 -> 131 [penwidth=2]
    362 -> 196 [penwidth=2]
    362 -> 224 [penwidth=2]
    362 -> 181 [penwidth=2]
    362 -> 391 [penwidth=2]
    362 -> 57 [penwidth=2]
    362 -> 60 [penwidth=2]
    362 -> 138 [penwidth=2]
    362 -> 82 [penwidth=2]
    362 -> 161 [penwidth=2]
    362 -> 34 [penwidth=2]
    362 -> 25 [penwidth=2]
    362 -> 6 [penwidth=2]
    362 -> 373 [penwidth=2]
    362 -> 374 [penwidth=2]
    362 -> 235 [penwidth=2]
    362 -> 89 [penwidth=2]
    362 -> 98 [penwidth=2]
    362 -> 64 [penwidth=2]
    362 -> 33 [penwidth=2]
    362 -> 93 [penwidth=2]
    362 -> 29 [penwidth=2]
    362 -> 114 [penwidth=2]
    362 -> 12 [penwidth=2]
    362 -> 32 [penwidth=2]
    362 -> 185 [penwidth=2]
    362 -> 127 [penwidth=2]
    362 -> 153 [penwidth=2]
    362 -> 233 [penwidth=2]
    362 -> 338 [penwidth=2]
    362 -> 327 [penwidth=2]
    362 -> 92 [penwidth=2]
    362 -> 389 [penwidth=2]
    362 -> 186 [penwidth=2]
    362 -> 367 [penwidth=2]
    362 -> 54 [penwidth=2]
    362 -> 10 [penwidth=2]
    362 -> 195 [penwidth=2]
    362 -> 154 [penwidth=2]
    362 -> 390 [penwidth=2]
    362 -> 28 [penwidth=2]
    362 -> 21 [penwidth=2]
    362 -> 27 [penwidth=2]
    362 -> 149 [penwidth=2]
    362 -> 344 [penwidth=2]
    362 -> 137 [penwidth=2]
    362 -> 59 [penwidth=2]
    362 -> 337 [penwidth=2]
    362 -> 2 [penwidth=2]
    362 -> 124 [penwidth=2]
    362 -> 377 [penwidth=2]
    362 -> 378 [penwidth=2]
    362 -> 53 [penwidth=2]
    362 -> 15 [penwidth=2]
    362 -> 229 [penwidth=2]
    362 -> 105 [penwidth=2]
    362 -> 11 [penwidth=2]
    362 -> 126 [penwidth=2]
    362 -> 61 [penwidth=2]
    362 -> 73 [penwidth=2]
    362 -> 346 [penwidth=2]
    362 -> 188 [penwidth=2]
    362 -> 176 [penwidth=2]
    362 -> 52 [penwidth=2]
    362 -> 168 [penwidth=2]
    362 -> 23 [penwidth=2]
    362 -> 198 [penwidth=2]
    362 -> 334 [penwidth=2]
    362 -> 368 [penwidth=2]
    362 -> 39 [penwidth=2]
    362 -> 24 [penwidth=2]
    362 -> 180 [penwidth=2]
    362 -> 370 [penwidth=2]
    362 -> 189 [penwidth=2]
    362 -> 81 [penwidth=2]
    362 -> 350 [penwidth=2]
    362 -> 115 [penwidth=2]
    362 -> 36 [penwidth=2]
    362 -> 396 [penwidth=2]
    362 -> 353 [penwidth=2]
    362 -> 94 [penwidth=2]
    362 -> 41 [penwidth=2]
    362 -> 50 [penwidth=2]
    362 -> 326 [penwidth=2]
    362 -> 333 [penwidth=2]
    362 -> 37 [penwidth=2]
    362 -> 125 [penwidth=2]
    362 -> 349 [penwidth=2]
    362 -> 354 [penwidth=2]
    362 -> 8 [penwidth=2]
    362 -> 162 [penwidth=2]
    362 -> 103 [penwidth=2]
    362 -> 163 [penwidth=2]
    362 -> 136 [penwidth=2]
    362 -> 62 [penwidth=2]
    362 -> 237 [penwidth=2]
    362 -> 197 [penwidth=2]
    362 -> 4 [penwidth=2]
    362 -> 340 [penwidth=2]
    362 -> 332 [penwidth=2]
    362 -> 381 [penwidth=2]
    362 -> 74 [penwidth=2]
    362 -> 91 [penwidth=2]
    362 -> 231 [penwidth=2]
    362 -> 116 [penwidth=2]
    362 -> 146 [penwidth=2]
    362 -> 158 [penwidth=2]
    362 -> 152 [penwidth=2]
    362 -> 77 [penwidth=2]
    362 -> 109 [penwidth=2]
    362 -> 194 [penwidth=2]
    362 -> 234 [penwidth=2]
    362 -> 66 [penwidth=2]
    362 -> 170 [penwidth=2]
    362 -> 172 [penwidth=2]
    362 -> 175 [penwidth=2]
    362 -> 179 [penwidth=2]
    362 -> 128 [penwidth=2]
    362 -> 178 [penwidth=2]
    362 -> 42 [penwidth=2]
    362 -> 90 [penwidth=2]
    362 -> 328 [penwidth=2]
    362 -> 348 [penwidth=2]
    362 -> 102 [penwidth=2]
    362 -> 399 [penwidth=2]
    362 -> 171 [penwidth=2]
    362 -> 225 [penwidth=2]
    362 -> 84 [penwidth=2]
    362 -> 221 [penwidth=2]
    362 -> 379 [penwidth=2]
    362 -> 166 [penwidth=2]
    362 -> 387 [penwidth=2]
    362 -> 20 [penwidth=2]
    362 -> 329 [penwidth=2]
    362 -> 30 [penwidth=2]
    362 -> 35 [penwidth=2]
    362 -> 151 [penwidth=2]
    362 -> 100 [penwidth=2]
    362 -> 51 [penwidth=2]
    362 -> 113 [penwidth=2]
    362 -> 342 [penwidth=2]
    362 -> 351 [penwidth=2]
    362 -> 133 [penwidth=2]
    362 -> 227 [penwidth=2]
    362 -> 3 [penwidth=2]
    362 -> 341 [penwidth=2]
    362 -> 156 [penwidth=2]
    362 -> 159 [penwidth=2]
    362 -> 110 [penwidth=2]
    362 -> 121 [penwidth=2]
    362 -> 157 [penwidth=2]
    362 -> 31 [penwidth=2]
    362 -> 347 [penwidth=2]
    362 -> 228 [penwidth=2]
    362 -> 187 [penwidth=2]
    362 -> 393 [penwidth=2]
    362 -> 104 [penwidth=2]
    362 -> 164 [penwidth=2]
    362 -> 9 [penwidth=2]
    362 -> 376 [penwidth=2]
    362 -> 40 [penwidth=2]
    362 -> 165 [penwidth=2]
    362 -> 392 [penwidth=2]
    362 -> 99 [penwidth=2]
    362 -> 192 [penwidth=2]
    362 -> 71 [penwidth=2]
    362 -> 232 [penwidth=2]
    362 -> 26 [penwidth=2]
    362 -> 75 [penwidth=2]
    362 -> 132 [penwidth=2]
    362 -> 85 [penwidth=2]
    362 -> 371 [penwidth=2]
    362 -> 226 [penwidth=2]
    362 -> 69 [penwidth=2]
    362 -> 142 [penwidth=2]
    362 -> 184 [penwidth=2]
    362 -> 395 [penwidth=2]
    362 -> 56 [penwidth=2]
    362 -> 43 [penwidth=2]
    362 -> 183 [penwidth=2]
    362 -> 78 [penwidth=2]
    362 -> 380 [penwidth=2]
    362 -> 325 [penwidth=2]
    362 -> 118 [penwidth=2]
    362 -> 190 [penwidth=2]
    362 -> 97 [penwidth=2]
    362 -> 238 [penwidth=2]
    362 -> 155 [penwidth=2]
    362 -> 17 [penwidth=2]
    362 -> 143 [penwidth=2]
    362 -> 87 [penwidth=2]
    362 -> 240 [penwidth=2]
    362 -> 19 [penwidth=2]
    362 -> 383 [penwidth=2]
    362 -> 382 [penwidth=2]
    362 -> 144 [penwidth=2]
    362 -> 63 [penwidth=2]
    362 -> 88 [penwidth=2]
    362 -> 140 [penwidth=2]
    362 -> 135 [penwidth=2]
    362 -> 130 [penwidth=2]
    362 -> 182 [penwidth=2]
    362 -> 122 [penwidth=2]
    362 -> 22 [penwidth=2]
    362 -> 70 [penwidth=2]
    362 -> 14 [penwidth=2]
    362 -> 1 [penwidth=2]
    362 -> 18 [penwidth=2]
    362 -> 72 [penwidth=2]
    362 -> 141 [penwidth=2]
    362 -> 134 [penwidth=2]
    362 -> 397 [penwidth=2]
    362 -> 46 [penwidth=2]
    362 -> 45 [penwidth=2]
    362 -> 38 [penwidth=2]
    362 -> 86 [penwidth=2]
    362 -> 352 [penwidth=2]
    293 -> 113 [penwidth=2]
    293 -> 347 [penwidth=2]
    293 -> 228 [penwidth=2]
    293 -> 227 [penwidth=2]
    293 -> 387 [penwidth=2]
    293 -> 114 [penwidth=2]
    293 -> 35 [penwidth=2]
    293 -> 101 [penwidth=2]
    293 -> 15 [penwidth=2]
    293 -> 109 [penwidth=2]
    293 -> 87 [penwidth=2]
    293 -> 183 [penwidth=2]
    293 -> 332 [penwidth=2]
    293 -> 159 [penwidth=2]
    293 -> 79 [penwidth=2]
    293 -> 154 [penwidth=2]
    293 -> 91 [penwidth=2]
    293 -> 125 [penwidth=2]
    293 -> 151 [penwidth=2]
    293 -> 191 [penwidth=2]
    293 -> 88 [penwidth=2]
    293 -> 353 [penwidth=2]
    293 -> 375 [penwidth=2]
    293 -> 328 [penwidth=2]
    293 -> 47 [penwidth=2]
    293 -> 62 [penwidth=2]
    293 -> 85 [penwidth=2]
    293 -> 115 [penwidth=2]
    293 -> 373 [penwidth=2]
    293 -> 336 [penwidth=2]
    293 -> 167 [penwidth=2]
    293 -> 330 [penwidth=2]
    293 -> 185 [penwidth=2]
    293 -> 105 [penwidth=2]
    293 -> 68 [penwidth=2]
    293 -> 346 [penwidth=2]
    293 -> 234 [penwidth=2]
    293 -> 116 [penwidth=2]
    293 -> 378 [penwidth=2]
    293 -> 180 [penwidth=2]
    293 -> 198 [penwidth=2]
    293 -> 399 [penwidth=2]
    293 -> 193 [penwidth=2]
    293 -> 170 [penwidth=2]
    293 -> 163 [penwidth=2]
    293 -> 388 [penwidth=2]
    293 -> 376 [penwidth=2]
    293 -> 63 [penwidth=2]
    293 -> 11 [penwidth=2]
    293 -> 110 [penwidth=2]
    293 -> 120 [penwidth=2]
    293 -> 222 [penwidth=2]
    293 -> 142 [penwidth=2]
    293 -> 50 [penwidth=2]
    293 -> 24 [penwidth=2]
    293 -> 397 [penwidth=2]
    293 -> 94 [penwidth=2]
    293 -> 86 [penwidth=2]
    293 -> 107 [penwidth=2]
    293 -> 178 [penwidth=2]
    293 -> 343 [penwidth=2]
    293 -> 13 [penwidth=2]
    293 -> 19 [penwidth=2]
    293 -> 37 [penwidth=2]
    293 -> 104 [penwidth=2]
    293 -> 31 [penwidth=2]
    293 -> 393 [penwidth=2]
    293 -> 106 [penwidth=2]
    293 -> 224 [penwidth=2]
    293 -> 230 [penwidth=2]
    293 -> 25 [penwidth=2]
    293 -> 173 [penwidth=2]
    293 -> 348 [penwidth=2]
    293 -> 383 [penwidth=2]
    293 -> 153 [penwidth=2]
    293 -> 197 [penwidth=2]
    293 -> 195 [penwidth=2]
    293 -> 337 [penwidth=2]
    293 -> 44 [penwidth=2]
    293 -> 100 [penwidth=2]
    293 -> 165 [penwidth=2]
    293 -> 81 [penwidth=2]
    293 -> 20 [penwidth=2]
    293 -> 226 [penwidth=2]
    293 -> 128 [penwidth=2]
    293 -> 14 [penwidth=2]
    293 -> 1 [penwidth=2]
    293 -> 96 [penwidth=2]
    293 -> 82 [penwidth=2]
    293 -> 370 [penwidth=2]
    293 -> 54 [penwidth=2]
    293 -> 175 [penwidth=2]
    293 -> 380 [penwidth=2]
    293 -> 93 [penwidth=2]
    293 -> 66 [penwidth=2]
    293 -> 8 [penwidth=2]
    293 -> 367 [penwidth=2]
    293 -> 77 [penwidth=2]
    293 -> 119 [penwidth=2]
    293 -> 325 [penwidth=2]
    293 -> 89 [penwidth=2]
    293 -> 158 [penwidth=2]
    293 -> 152 [penwidth=2]
    293 -> 384 [penwidth=2]
    293 -> 48 [penwidth=2]
    293 -> 16 [penwidth=2]
    293 -> 131 [penwidth=2]
    293 -> 98 [penwidth=2]
    293 -> 118 [penwidth=2]
    293 -> 99 [penwidth=2]
    293 -> 144 [penwidth=2]
    293 -> 3 [penwidth=2]
    293 -> 72 [penwidth=2]
    293 -> 179 [penwidth=2]
    293 -> 379 [penwidth=2]
    293 -> 122 [penwidth=2]
    293 -> 51 [penwidth=2]
    293 -> 338 [penwidth=2]
    293 -> 160 [penwidth=2]
    293 -> 394 [penwidth=2]
    293 -> 57 [penwidth=2]
    293 -> 172 [penwidth=2]
    293 -> 374 [penwidth=2]
    293 -> 161 [penwidth=2]
    293 -> 392 [penwidth=2]
    293 -> 146 [penwidth=2]
    293 -> 335 [penwidth=2]
    293 -> 386 [penwidth=2]
    293 -> 61 [penwidth=2]
    293 -> 177 [penwidth=2]
    293 -> 333 [penwidth=2]
    293 -> 97 [penwidth=2]
    293 -> 76 [penwidth=2]
    293 -> 162 [penwidth=2]
    293 -> 46 [penwidth=2]
    293 -> 64 [penwidth=2]
    293 -> 194 [penwidth=2]
    293 -> 52 [penwidth=2]
    293 -> 139 [penwidth=2]
    293 -> 127 [penwidth=2]
    293 -> 187 [penwidth=2]
    293 -> 7 [penwidth=2]
    293 -> 368 [penwidth=2]
    293 -> 135 [penwidth=2]
    293 -> 108 [penwidth=2]
    293 -> 349 [penwidth=2]
    293 -> 111 [penwidth=2]
    293 -> 56 [penwidth=2]
    293 -> 137 [penwidth=2]
    293 -> 184 [penwidth=2]
    293 -> 69 [penwidth=2]
    293 -> 391 [penwidth=2]
    293 -> 398 [penwidth=2]
    293 -> 29 [penwidth=2]
    293 -> 389 [penwidth=2]
    293 -> 34 [penwidth=2]
    293 -> 192 [penwidth=2]
    293 -> 134 [penwidth=2]
    293 -> 334 [penwidth=2]
    293 -> 340 [penwidth=2]
    293 -> 123 [penwidth=2]
    293 -> 240 [penwidth=2]
    293 -> 369 [penwidth=2]
    293 -> 75 [penwidth=2]
    293 -> 10 [penwidth=2]
    293 -> 190 [penwidth=2]
    293 -> 396 [penwidth=2]
    293 -> 12 [penwidth=2]
    293 -> 382 [penwidth=2]
    293 -> 235 [penwidth=2]
    293 -> 352 [penwidth=2]
    293 -> 237 [penwidth=2]
    293 -> 83 [penwidth=2]
    293 -> 229 [penwidth=2]
    293 -> 155 [penwidth=2]
    293 -> 67 [penwidth=2]
    293 -> 126 [penwidth=2]
    293 -> 171 [penwidth=2]
    293 -> 23 [penwidth=2]
    293 -> 39 [penwidth=2]
    293 -> 164 [penwidth=2]
    293 -> 60 [penwidth=2]
    293 -> 133 [penwidth=2]
    293 -> 33 [penwidth=2]
    293 -> 145 [penwidth=2]
    293 -> 231 [penwidth=2]
    293 -> 345 [penwidth=2]
    293 -> 36 [penwidth=2]
    293 -> 112 [penwidth=2]
    293 -> 189 [penwidth=2]
    293 -> 53 [penwidth=2]
    293 -> 9 [penwidth=2]
    293 -> 136 [penwidth=2]
    293 -> 221 [penwidth=2]
    293 -> 377 [penwidth=2]
    293 -> 149 [penwidth=2]
    293 -> 42 [penwidth=2]
    293 -> 22 [penwidth=2]
    293 -> 80 [penwidth=2]
    293 -> 381 [penwidth=2]
    293 -> 124 [penwidth=2]
    293 -> 70 [penwidth=2]
    293 -> 84 [penwidth=2]
    293 -> 385 [penwidth=2]
    293 -> 147 [penwidth=2]
    293 -> 326 [penwidth=2]
    293 -> 71 [penwidth=2]
    293 -> 233 [penwidth=2]
    293 -> 169 [penwidth=2]
    293 -> 92 [penwidth=2]
    293 -> 239 [penwidth=2]
    293 -> 143 [penwidth=2]
    293 -> 59 [penwidth=2]
    293 -> 32 [penwidth=2]
    293 -> 371 [penwidth=2]
    293 -> 130 [penwidth=2]
    293 -> 141 [penwidth=2]
    293 -> 196 [penwidth=2]
    293 -> 186 [penwidth=2]
    293 -> 95 [penwidth=2]
    293 -> 90 [penwidth=2]
    293 -> 18 [penwidth=2]
    293 -> 157 [penwidth=2]
    293 -> 78 [penwidth=2]
    293 -> 188 [penwidth=2]
    293 -> 168 [penwidth=2]
    293 -> 103 [penwidth=2]
    293 -> 45 [penwidth=2]
    293 -> 43 [penwidth=2]
    293 -> 21 [penwidth=2]
    293 -> 74 [penwidth=2]
    302 -> 163 [penwidth=2]
    302 -> 52 [penwidth=2]
    302 -> 330 [penwidth=2]
    302 -> 67 [penwidth=2]
    302 -> 121 [penwidth=2]
    302 -> 397 [penwidth=2]
    302 -> 60 [penwidth=2]
    302 -> 350 [penwidth=2]
    302 -> 15 [penwidth=2]
    302 -> 127 [penwidth=2]
    302 -> 57 [penwidth=2]
    302 -> 226 [penwidth=2]
    302 -> 374 [penwidth=2]
    302 -> 181 [penwidth=2]
    302 -> 348 [penwidth=2]
    302 -> 3 [penwidth=2]
    302 -> 341 [penwidth=2]
    302 -> 165 [penwidth=2]
    302 -> 172 [penwidth=2]
    302 -> 327 [penwidth=2]
    302 -> 47 [penwidth=2]
    302 -> 329 [penwidth=2]
    302 -> 90 [penwidth=2]
    302 -> 34 [penwidth=2]
    302 -> 117 [penwidth=2]
    302 -> 8 [penwidth=2]
    302 -> 21 [penwidth=2]
    302 -> 194 [penwidth=2]
    302 -> 38 [penwidth=2]
    302 -> 23 [penwidth=2]
    302 -> 383 [penwidth=2]
    302 -> 197 [penwidth=2]
    302 -> 367 [penwidth=2]
    302 -> 190 [penwidth=2]
    302 -> 111 [penwidth=2]
    302 -> 110 [penwidth=2]
    302 -> 129 [penwidth=2]
    302 -> 61 [penwidth=2]
    302 -> 375 [penwidth=2]
    302 -> 140 [penwidth=2]
    302 -> 120 [penwidth=2]
    302 -> 150 [penwidth=2]
    302 -> 130 [penwidth=2]
    302 -> 16 [penwidth=2]
    302 -> 336 [penwidth=2]
    302 -> 122 [penwidth=2]
    302 -> 50 [penwidth=2]
    302 -> 332 [penwidth=2]
    302 -> 93 [penwidth=2]
    302 -> 162 [penwidth=2]
    302 -> 80 [penwidth=2]
    302 -> 343 [penwidth=2]
    302 -> 30 [penwidth=2]
    302 -> 46 [penwidth=2]
    302 -> 104 [penwidth=2]
    302 -> 144 [penwidth=2]
    302 -> 131 [penwidth=2]
    302 -> 136 [penwidth=2]
    302 -> 73 [penwidth=2]
    302 -> 92 [penwidth=2]
    302 -> 229 [penwidth=2]
    302 -> 326 [penwidth=2]
    302 -> 65 [penwidth=2]
    302 -> 237 [penwidth=2]
    302 -> 31 [penwidth=2]
    302 -> 171 [penwidth=2]
    302 -> 386 [penwidth=2]
    302 -> 186 [penwidth=2]
    302 -> 392 [penwidth=2]
    302 -> 385 [penwidth=2]
    302 -> 389 [penwidth=2]
    302 -> 128 [penwidth=2]
    302 -> 345 [penwidth=2]
    302 -> 179 [penwidth=2]
    302 -> 240 [penwidth=2]
    302 -> 334 [penwidth=2]
    302 -> 340 [penwidth=2]
    302 -> 94 [penwidth=2]
    302 -> 353 [penwidth=2]
    302 -> 158 [penwidth=2]
    302 -> 381 [penwidth=2]
    302 -> 331 [penwidth=2]
    302 -> 112 [penwidth=2]
    302 -> 391 [penwidth=2]
    302 -> 32 [penwidth=2]
    302 -> 344 [penwidth=2]
    302 -> 235 [penwidth=2]
    302 -> 155 [penwidth=2]
    302 -> 11 [penwidth=2]
    302 -> 75 [penwidth=2]
    302 -> 395 [penwidth=2]
    302 -> 342 [penwidth=2]
    302 -> 27 [penwidth=2]
    302 -> 177 [penwidth=2]
    302 -> 14 [penwidth=2]
    302 -> 100 [penwidth=2]
    302 -> 141 [penwidth=2]
    302 -> 222 [penwidth=2]
    302 -> 54 [penwidth=2]
    302 -> 174 [penwidth=2]
    302 -> 384 [penwidth=2]
    302 -> 166 [penwidth=2]
    302 -> 398 [penwidth=2]
    302 -> 232 [penwidth=2]
    302 -> 6 [penwidth=2]
    302 -> 125 [penwidth=2]
    302 -> 151 [penwidth=2]
    302 -> 20 [penwidth=2]
    302 -> 39 [penwidth=2]
    302 -> 42 [penwidth=2]
    302 -> 153 [penwidth=2]
    302 -> 4 [penwidth=2]
    302 -> 138 [penwidth=2]
    302 -> 126 [penwidth=2]
    302 -> 2 [penwidth=2]
    302 -> 393 [penwidth=2]
    302 -> 379 [penwidth=2]
    302 -> 12 [penwidth=2]
    302 -> 196 [penwidth=2]
    302 -> 234 [penwidth=2]
    302 -> 354 [penwidth=2]
    302 -> 18 [penwidth=2]
    302 -> 137 [penwidth=2]
    302 -> 178 [penwidth=2]
    302 -> 49 [penwidth=2]
    302 -> 231 [penwidth=2]
    302 -> 29 [penwidth=2]
    302 -> 64 [penwidth=2]
    302 -> 394 [penwidth=2]
    302 -> 97 [penwidth=2]
    302 -> 146 [penwidth=2]
    302 -> 5 [penwidth=2]
    302 -> 233 [penwidth=2]
    302 -> 83 [penwidth=2]
    302 -> 176 [penwidth=2]
    302 -> 225 [penwidth=2]
    302 -> 1 [penwidth=2]
    302 -> 351 [penwidth=2]
    302 -> 157 [penwidth=2]
    302 -> 106 [penwidth=2]
    302 -> 135 [penwidth=2]
    302 -> 373 [penwidth=2]
    302 -> 188 [penwidth=2]
    302 -> 119 [penwidth=2]
    302 -> 390 [penwidth=2]
    302 -> 239 [penwidth=2]
    302 -> 72 [penwidth=2]
    302 -> 71 [penwidth=2]
    302 -> 66 [penwidth=2]
    302 -> 41 [penwidth=2]
    302 -> 335 [penwidth=2]
    302 -> 51 [penwidth=2]
    302 -> 107 [penwidth=2]
    302 -> 161 [penwidth=2]
    302 -> 74 [penwidth=2]
    302 -> 149 [penwidth=2]
    302 -> 115 [penwidth=2]
    302 -> 44 [penwidth=2]
    302 -> 87 [penwidth=2]
    302 -> 143 [penwidth=2]
    302 -> 105 [penwidth=2]
    302 -> 168 [penwidth=2]
    302 -> 7 [penwidth=2]
    302 -> 62 [penwidth=2]
    302 -> 13 [penwidth=2]
    302 -> 124 [penwidth=2]
    302 -> 133 [penwidth=2]
    302 -> 85 [penwidth=2]
    302 -> 396 [penwidth=2]
    302 -> 17 [penwidth=2]
    302 -> 89 [penwidth=2]
    302 -> 58 [penwidth=2]
    302 -> 69 [penwidth=2]
    302 -> 10 [penwidth=2]
    302 -> 9 [penwidth=2]
    302 -> 347 [penwidth=2]
    302 -> 328 [penwidth=2]
    302 -> 103 [penwidth=2]
    302 -> 76 [penwidth=2]
    302 -> 43 [penwidth=2]
    302 -> 352 [penwidth=2]
    302 -> 118 [penwidth=2]
    302 -> 376 [penwidth=2]
    302 -> 152 [penwidth=2]
    302 -> 142 [penwidth=2]
    302 -> 195 [penwidth=2]
    302 -> 48 [penwidth=2]
    302 -> 114 [penwidth=2]
    302 -> 78 [penwidth=2]
    302 -> 109 [penwidth=2]
    302 -> 370 [penwidth=2]
    302 -> 63 [penwidth=2]
    302 -> 33 [penwidth=2]
    302 -> 325 [penwidth=2]
    302 -> 339 [penwidth=2]
    302 -> 123 [penwidth=2]
    302 -> 382 [penwidth=2]
    302 -> 372 [penwidth=2]
    302 -> 24 [penwidth=2]
    302 -> 113 [penwidth=2]
    302 -> 228 [penwidth=2]
    302 -> 236 [penwidth=2]
    302 -> 53 [penwidth=2]
    302 -> 139 [penwidth=2]
    302 -> 333 [penwidth=2]
    302 -> 388 [penwidth=2]
    302 -> 170 [penwidth=2]
    302 -> 37 [penwidth=2]
    302 -> 368 [penwidth=2]
    302 -> 28 [penwidth=2]
    302 -> 59 [penwidth=2]
    302 -> 227 [penwidth=2]
    302 -> 380 [penwidth=2]
    302 -> 175 [penwidth=2]
    302 -> 371 [penwidth=2]
    302 -> 220 [penwidth=2]
    302 -> 180 [penwidth=2]
    302 -> 22 [penwidth=2]
    302 -> 81 [penwidth=2]
    302 -> 108 [penwidth=2]
    302 -> 145 [penwidth=2]
    302 -> 198 [penwidth=2]
    302 -> 346 [penwidth=2]
    302 -> 134 [penwidth=2]
    302 -> 70 [penwidth=2]
    302 -> 369 [penwidth=2]
    302 -> 156 [penwidth=2]
    302 -> 238 [penwidth=2]
    302 -> 338 [penwidth=2]
    302 -> 159 [penwidth=2]
    302 -> 148 [penwidth=2]
    304 -> 84 [penwidth=2]
    304 -> 115 [penwidth=2]
    304 -> 371 [penwidth=2]
    304 -> 157 [penwidth=2]
    304 -> 394 [penwidth=2]
    304 -> 27 [penwidth=2]
    304 -> 377 [penwidth=2]
    304 -> 34 [penwidth=2]
    304 -> 339 [penwidth=2]
    304 -> 379 [penwidth=2]
    304 -> 378 [penwidth=2]
    304 -> 25 [penwidth=2]
    304 -> 197 [penwidth=2]
    304 -> 2 [penwidth=2]
    304 -> 1 [penwidth=2]
    304 -> 182 [penwidth=2]
    304 -> 181 [penwidth=2]
    304 -> 240 [penwidth=2]
    304 -> 142 [penwidth=2]
    304 -> 140 [penwidth=2]
    304 -> 151 [penwidth=2]
    304 -> 168 [penwidth=2]
    304 -> 61 [penwidth=2]
    304 -> 343 [penwidth=2]
    304 -> 227 [penwidth=2]
    304 -> 101 [penwidth=2]
    304 -> 192 [penwidth=2]
    304 -> 374 [penwidth=2]
    304 -> 88 [penwidth=2]
    304 -> 69 [penwidth=2]
    304 -> 102 [penwidth=2]
    304 -> 87 [penwidth=2]
    304 -> 63 [penwidth=2]
    304 -> 352 [penwidth=2]
    304 -> 28 [penwidth=2]
    304 -> 174 [penwidth=2]
    304 -> 23 [penwidth=2]
    304 -> 332 [penwidth=2]
    304 -> 116 [penwidth=2]
    304 -> 96 [penwidth=2]
    304 -> 164 [penwidth=2]
    304 -> 65 [penwidth=2]
    304 -> 134 [penwidth=2]
    304 -> 143 [penwidth=2]
    304 -> 382 [penwidth=2]
    304 -> 86 [penwidth=2]
    304 -> 33 [penwidth=2]
    304 -> 383 [penwidth=2]
    304 -> 53 [penwidth=2]
    304 -> 351 [penwidth=2]
    304 -> 127 [penwidth=2]
    304 -> 26 [penwidth=2]
    304 -> 237 [penwidth=2]
    304 -> 62 [penwidth=2]
    304 -> 83 [penwidth=2]
    304 -> 177 [penwidth=2]
    304 -> 57 [penwidth=2]
    304 -> 103 [penwidth=2]
    304 -> 90 [penwidth=2]
    304 -> 156 [penwidth=2]
    304 -> 389 [penwidth=2]
    304 -> 153 [penwidth=2]
    304 -> 141 [penwidth=2]
    304 -> 346 [penwidth=2]
    304 -> 180 [penwidth=2]
    304 -> 387 [penwidth=2]
    304 -> 150 [penwidth=2]
    304 -> 350 [penwidth=2]
    304 -> 336 [penwidth=2]
    304 -> 149 [penwidth=2]
    304 -> 72 [penwidth=2]
    304 -> 44 [penwidth=2]
    304 -> 139 [penwidth=2]
    304 -> 73 [penwidth=2]
    304 -> 349 [penwidth=2]
    304 -> 118 [penwidth=2]
    304 -> 89 [penwidth=2]
    304 -> 399 [penwidth=2]
    304 -> 163 [penwidth=2]
    304 -> 327 [penwidth=2]
    304 -> 386 [penwidth=2]
    304 -> 67 [penwidth=2]
    304 -> 191 [penwidth=2]
    304 -> 95 [penwidth=2]
    304 -> 325 [penwidth=2]
    304 -> 106 [penwidth=2]
    304 -> 193 [penwidth=2]
    304 -> 354 [penwidth=2]
    304 -> 124 [penwidth=2]
    304 -> 367 [penwidth=2]
    304 -> 172 [penwidth=2]
    304 -> 76 [penwidth=2]
    304 -> 170 [penwidth=2]
    304 -> 145 [penwidth=2]
    304 -> 347 [penwidth=2]
    304 -> 13 [penwidth=2]
    304 -> 228 [penwidth=2]
    304 -> 38 [penwidth=2]
    304 -> 138 [penwidth=2]
    304 -> 380 [penwidth=2]
    304 -> 74 [penwidth=2]
    304 -> 120 [penwidth=2]
    304 -> 54 [penwidth=2]
    304 -> 97 [penwidth=2]
    304 -> 49 [penwidth=2]
    304 -> 159 [penwidth=2]
    304 -> 222 [penwidth=2]
    304 -> 223 [penwidth=2]
    304 -> 331 [penwidth=2]
    304 -> 224 [penwidth=2]
    304 -> 173 [penwidth=2]
    304 -> 369 [penwidth=2]
    304 -> 166 [penwidth=2]
    304 -> 195 [penwidth=2]
    304 -> 59 [penwidth=2]
    304 -> 109 [penwidth=2]
    304 -> 24 [penwidth=2]
    312 -> 230 [penwidth=2]
    312 -> 110 [penwidth=2]
    312 -> 15 [penwidth=2]
    312 -> 237 [penwidth=2]
    312 -> 44 [penwidth=2]
    312 -> 14 [penwidth=2]
    312 -> 225 [penwidth=2]
    312 -> 127 [penwidth=2]
    312 -> 121 [penwidth=2]
    312 -> 182 [penwidth=2]
    312 -> 369 [penwidth=2]
    312 -> 376 [penwidth=2]
    312 -> 392 [penwidth=2]
    312 -> 23 [penwidth=2]
    312 -> 88 [penwidth=2]
    312 -> 166 [penwidth=2]
    312 -> 336 [penwidth=2]
    312 -> 188 [penwidth=2]
    312 -> 351 [penwidth=2]
    312 -> 398 [penwidth=2]
    312 -> 124 [penwidth=2]
    312 -> 196 [penwidth=2]
    312 -> 54 [penwidth=2]
    312 -> 337 [penwidth=2]
    312 -> 16 [penwidth=2]
    312 -> 350 [penwidth=2]
    312 -> 94 [penwidth=2]
    312 -> 349 [penwidth=2]
    312 -> 147 [penwidth=2]
    312 -> 59 [penwidth=2]
    312 -> 39 [penwidth=2]
    312 -> 61 [penwidth=2]
    312 -> 177 [penwidth=2]
    312 -> 20 [penwidth=2]
    312 -> 25 [penwidth=2]
    312 -> 143 [penwidth=2]
    312 -> 58 [penwidth=2]
    312 -> 335 [penwidth=2]
    318 -> 350 [penwidth=2]
    318 -> 119 [penwidth=2]
    318 -> 8 [penwidth=2]
    318 -> 368 [penwidth=2]
    318 -> 36 [penwidth=2]
    318 -> 337 [penwidth=2]
    318 -> 375 [penwidth=2]
    318 -> 23 [penwidth=2]
    318 -> 51 [penwidth=2]
    318 -> 232 [penwidth=2]
    318 -> 42 [penwidth=2]
    318 -> 183 [penwidth=2]
    318 -> 31 [penwidth=2]
    318 -> 117 [penwidth=2]
    318 -> 125 [penwidth=2]
    318 -> 16 [penwidth=2]
    318 -> 22 [penwidth=2]
    318 -> 76 [penwidth=2]
    318 -> 61 [penwidth=2]
    318 -> 156 [penwidth=2]
    318 -> 334 [penwidth=2]
    318 -> 174 [penwidth=2]
    318 -> 122 [penwidth=2]
    318 -> 369 [penwidth=2]
    318 -> 112 [penwidth=2]
    318 -> 193 [penwidth=2]
    318 -> 21 [penwidth=2]
    318 -> 393 [penwidth=2]
    318 -> 332 [penwidth=2]
    318 -> 234 [penwidth=2]
    318 -> 60 [penwidth=2]
    318 -> 353 [penwidth=2]
    318 -> 41 [penwidth=2]
    318 -> 147 [penwidth=2]
    318 -> 354 [penwidth=2]
    318 -> 81 [penwidth=2]
    318 -> 12 [penwidth=2]
    318 -> 173 [penwidth=2]
    318 -> 195 [penwidth=2]
    318 -> 128 [penwidth=2]
    318 -> 144 [penwidth=2]
    318 -> 237 [penwidth=2]
    318 -> 48 [penwidth=2]
    318 -> 65 [penwidth=2]
    318 -> 71 [penwidth=2]
    318 -> 166 [penwidth=2]
    318 -> 347 [penwidth=2]
    318 -> 346 [penwidth=2]
    318 -> 338 [penwidth=2]
    318 -> 13 [penwidth=2]
    318 -> 150 [penwidth=2]
    318 -> 389 [penwidth=2]
    318 -> 47 [penwidth=2]
    318 -> 170 [penwidth=2]
    318 -> 121 [penwidth=2]
    318 -> 152 [penwidth=2]
    318 -> 58 [penwidth=2]
    318 -> 113 [penwidth=2]
    318 -> 143 [penwidth=2]
    318 -> 110 [penwidth=2]
    318 -> 132 [penwidth=2]
    318 -> 325 [penwidth=2]
    318 -> 102 [penwidth=2]
    318 -> 44 [penwidth=2]
    318 -> 194 [penwidth=2]
    318 -> 52 [penwidth=2]
    318 -> 336 [penwidth=2]
    318 -> 177 [penwidth=2]
    318 -> 108 [penwidth=2]
    318 -> 15 [penwidth=2]
    318 -> 169 [penwidth=2]
    318 -> 233 [penwidth=2]
    318 -> 73 [penwidth=2]
    318 -> 151 [penwidth=2]
    318 -> 89 [penwidth=2]
    318 -> 105 [penwidth=2]
    318 -> 115 [penwidth=2]
    318 -> 86 [penwidth=2]
    318 -> 380 [penwidth=2]
    318 -> 220 [penwidth=2]
    318 -> 395 [penwidth=2]
    318 -> 137 [penwidth=2]
    318 -> 57 [penwidth=2]
    318 -> 157 [penwidth=2]
    318 -> 79 [penwidth=2]
    318 -> 19 [penwidth=2]
    318 -> 162 [penwidth=2]
    318 -> 39 [penwidth=2]
    318 -> 399 [penwidth=2]
    318 -> 106 [penwidth=2]
    318 -> 7 [penwidth=2]
    318 -> 45 [penwidth=2]
    318 -> 97 [penwidth=2]
    318 -> 343 [penwidth=2]
    318 -> 85 [penwidth=2]
    318 -> 381 [penwidth=2]
    318 -> 131 [penwidth=2]
    318 -> 371 [penwidth=2]
    318 -> 32 [penwidth=2]
    318 -> 55 [penwidth=2]
    318 -> 235 [penwidth=2]
    318 -> 384 [penwidth=2]
    318 -> 154 [penwidth=2]
    318 -> 385 [penwidth=2]
    318 -> 29 [penwidth=2]
    318 -> 178 [penwidth=2]
    318 -> 187 [penwidth=2]
    318 -> 175 [penwidth=2]
    244 -> 380 [penwidth=2]
    244 -> 240 [penwidth=2]
    244 -> 332 [penwidth=2]
    244 -> 192 [penwidth=2]
    244 -> 36 [penwidth=2]
    244 -> 81 [penwidth=2]
    244 -> 155 [penwidth=2]
    244 -> 79 [penwidth=2]
    244 -> 329 [penwidth=2]
    244 -> 175 [penwidth=2]
    244 -> 235 [penwidth=2]
    244 -> 130 [penwidth=2]
    247 -> 97 [penwidth=2]
    247 -> 148 [penwidth=2]
    247 -> 326 [penwidth=2]
    247 -> 192 [penwidth=2]
    247 -> 220 [penwidth=2]
    247 -> 2 [penwidth=2]
    247 -> 102 [penwidth=2]
    247 -> 171 [penwidth=2]
    247 -> 3 [penwidth=2]
    247 -> 377 [penwidth=2]
    247 -> 331 [penwidth=2]
    247 -> 125 [penwidth=2]
    247 -> 388 [penwidth=2]
    247 -> 92 [penwidth=2]
    247 -> 395 [penwidth=2]
    247 -> 70 [penwidth=2]
    247 -> 235 [penwidth=2]
    247 -> 155 [penwidth=2]
    247 -> 347 [penwidth=2]
    247 -> 57 [penwidth=2]
    247 -> 19 [penwidth=2]
    247 -> 191 [penwidth=2]
    247 -> 238 [penwidth=2]
    247 -> 8 [penwidth=2]
    247 -> 181 [penwidth=2]
    247 -> 385 [penwidth=2]
    247 -> 328 [penwidth=2]
    247 -> 76 [penwidth=2]
    247 -> 353 [penwidth=2]
    247 -> 169 [penwidth=2]
    247 -> 224 [penwidth=2]
    247 -> 153 [penwidth=2]
    247 -> 132 [penwidth=2]
    247 -> 67 [penwidth=2]
    247 -> 186 [penwidth=2]
    247 -> 40 [penwidth=2]
    247 -> 161 [penwidth=2]
    247 -> 114 [penwidth=2]
    247 -> 225 [penwidth=2]
    247 -> 122 [penwidth=2]
    247 -> 234 [penwidth=2]
    247 -> 240 [penwidth=2]
    247 -> 150 [penwidth=2]
    247 -> 131 [penwidth=2]
    247 -> 349 [penwidth=2]
    247 -> 59 [penwidth=2]
    247 -> 66 [penwidth=2]
    247 -> 107 [penwidth=2]
    247 -> 31 [penwidth=2]
    247 -> 152 [penwidth=2]
    247 -> 337 [penwidth=2]
    247 -> 329 [penwidth=2]
    247 -> 394 [penwidth=2]
    247 -> 99 [penwidth=2]
    247 -> 342 [penwidth=2]
    247 -> 164 [penwidth=2]
    247 -> 158 [penwidth=2]
    247 -> 135 [penwidth=2]
    247 -> 345 [penwidth=2]
    247 -> 104 [penwidth=2]
    247 -> 6 [penwidth=2]
    247 -> 159 [penwidth=2]
    247 -> 143 [penwidth=2]
    247 -> 74 [penwidth=2]
    247 -> 325 [penwidth=2]
    247 -> 175 [penwidth=2]
    247 -> 376 [penwidth=2]
    247 -> 78 [penwidth=2]
    247 -> 17 [penwidth=2]
    247 -> 389 [penwidth=2]
    247 -> 190 [penwidth=2]
    247 -> 77 [penwidth=2]
    247 -> 176 [penwidth=2]
    247 -> 392 [penwidth=2]
    247 -> 194 [penwidth=2]
    247 -> 46 [penwidth=2]
    247 -> 197 [penwidth=2]
    247 -> 185 [penwidth=2]
    247 -> 81 [penwidth=2]
    247 -> 157 [penwidth=2]
    247 -> 98 [penwidth=2]
    247 -> 96 [penwidth=2]
    247 -> 368 [penwidth=2]
    247 -> 398 [penwidth=2]
    247 -> 151 [penwidth=2]
    247 -> 44 [penwidth=2]
    247 -> 387 [penwidth=2]
    247 -> 367 [penwidth=2]
    247 -> 5 [penwidth=2]
    247 -> 53 [penwidth=2]
    247 -> 60 [penwidth=2]
    247 -> 373 [penwidth=2]
    247 -> 61 [penwidth=2]
    247 -> 379 [penwidth=2]
    247 -> 21 [penwidth=2]
    247 -> 111 [penwidth=2]
    247 -> 156 [penwidth=2]
    247 -> 86 [penwidth=2]
    247 -> 189 [penwidth=2]
    247 -> 20 [penwidth=2]
    247 -> 41 [penwidth=2]
    247 -> 87 [penwidth=2]
    247 -> 72 [penwidth=2]
    247 -> 64 [penwidth=2]
    247 -> 330 [penwidth=2]
    247 -> 182 [penwidth=2]
    247 -> 13 [penwidth=2]
    247 -> 117 [penwidth=2]
    247 -> 223 [penwidth=2]
    247 -> 126 [penwidth=2]
    247 -> 32 [penwidth=2]
    247 -> 382 [penwidth=2]
    247 -> 55 [penwidth=2]
    247 -> 18 [penwidth=2]
    247 -> 84 [penwidth=2]
    247 -> 391 [penwidth=2]
    247 -> 120 [penwidth=2]
    247 -> 109 [penwidth=2]
    247 -> 129 [penwidth=2]
    247 -> 9 [penwidth=2]
    247 -> 397 [penwidth=2]
    247 -> 79 [penwidth=2]
    247 -> 160 [penwidth=2]
    247 -> 142 [penwidth=2]
    247 -> 12 [penwidth=2]
    247 -> 38 [penwidth=2]
    247 -> 25 [penwidth=2]
    247 -> 34 [penwidth=2]
    247 -> 163 [penwidth=2]
    247 -> 26 [penwidth=2]
    247 -> 115 [penwidth=2]
    247 -> 162 [penwidth=2]
    247 -> 136 [penwidth=2]
    247 -> 174 [penwidth=2]
    247 -> 236 [penwidth=2]
    247 -> 354 [penwidth=2]
    247 -> 396 [penwidth=2]
    247 -> 37 [penwidth=2]
    247 -> 145 [penwidth=2]
    247 -> 123 [penwidth=2]
    247 -> 196 [penwidth=2]
    251 -> 117 [penwidth=2]
    251 -> 225 [penwidth=2]
    251 -> 70 [penwidth=2]
    251 -> 57 [penwidth=2]
    251 -> 342 [penwidth=2]
    251 -> 232 [penwidth=2]
    251 -> 87 [penwidth=2]
    251 -> 378 [penwidth=2]
    251 -> 384 [penwidth=2]
    251 -> 84 [penwidth=2]
    251 -> 390 [penwidth=2]
    251 -> 180 [penwidth=2]
    251 -> 177 [penwidth=2]
    251 -> 186 [penwidth=2]
    251 -> 44 [penwidth=2]
    259 -> 93 [penwidth=2]
    259 -> 367 [penwidth=2]
    259 -> 44 [penwidth=2]
    259 -> 221 [penwidth=2]
    259 -> 22 [penwidth=2]
    259 -> 37 [penwidth=2]
    259 -> 198 [penwidth=2]
    259 -> 98 [penwidth=2]
    259 -> 45 [penwidth=2]
    259 -> 117 [penwidth=2]
    259 -> 50 [penwidth=2]
    259 -> 70 [penwidth=2]
    259 -> 134 [penwidth=2]
    259 -> 110 [penwidth=2]
    259 -> 226 [penwidth=2]
    259 -> 137 [penwidth=2]
    259 -> 38 [penwidth=2]
    259 -> 81 [penwidth=2]
    259 -> 387 [penwidth=2]
    259 -> 236 [penwidth=2]
    259 -> 153 [penwidth=2]
    259 -> 104 [penwidth=2]
    259 -> 333 [penwidth=2]
    259 -> 176 [penwidth=2]
    259 -> 34 [penwidth=2]
    259 -> 334 [penwidth=2]
    259 -> 39 [penwidth=2]
    259 -> 193 [penwidth=2]
    259 -> 331 [penwidth=2]
    259 -> 184 [penwidth=2]
    259 -> 30 [penwidth=2]
    259 -> 49 [penwidth=2]
    259 -> 74 [penwidth=2]
    259 -> 26 [penwidth=2]
    259 -> 393 [penwidth=2]
    259 -> 158 [penwidth=2]
    259 -> 5 [penwidth=2]
    259 -> 352 [penwidth=2]
    259 -> 114 [penwidth=2]
    259 -> 71 [penwidth=2]
    259 -> 374 [penwidth=2]
    259 -> 180 [penwidth=2]
    259 -> 381 [penwidth=2]
    259 -> 372 [penwidth=2]
    259 -> 24 [penwidth=2]
    259 -> 94 [penwidth=2]
    259 -> 89 [penwidth=2]
    259 -> 151 [penwidth=2]
    259 -> 234 [penwidth=2]
    259 -> 59 [penwidth=2]
    259 -> 336 [penwidth=2]
    259 -> 57 [penwidth=2]
    259 -> 354 [penwidth=2]
    259 -> 378 [penwidth=2]
    259 -> 82 [penwidth=2]
    259 -> 172 [penwidth=2]
    259 -> 15 [penwidth=2]
    259 -> 173 [penwidth=2]
    259 -> 192 [penwidth=2]
    259 -> 116 [penwidth=2]
    259 -> 194 [penwidth=2]
    259 -> 186 [penwidth=2]
    259 -> 35 [penwidth=2]
    259 -> 4 [penwidth=2]
    259 -> 69 [penwidth=2]
    259 -> 123 [penwidth=2]
    259 -> 83 [penwidth=2]
    259 -> 80 [penwidth=2]
    259 -> 20 [penwidth=2]
    259 -> 177 [penwidth=2]
    259 -> 174 [penwidth=2]
    259 -> 332 [penwidth=2]
    259 -> 175 [penwidth=2]
    259 -> 350 [penwidth=2]
    259 -> 91 [penwidth=2]
    259 -> 155 [penwidth=2]
    259 -> 159 [penwidth=2]
    259 -> 391 [penwidth=2]
    259 -> 167 [penwidth=2]
    259 -> 79 [penwidth=2]
    259 -> 353 [penwidth=2]
    259 -> 344 [penwidth=2]
    259 -> 145 [penwidth=2]
    259 -> 196 [penwidth=2]
    259 -> 147 [penwidth=2]
    259 -> 108 [penwidth=2]
    259 -> 343 [penwidth=2]
    259 -> 67 [penwidth=2]
    259 -> 389 [penwidth=2]
    259 -> 132 [penwidth=2]
    259 -> 339 [penwidth=2]
    259 -> 397 [penwidth=2]
    259 -> 43 [penwidth=2]
    259 -> 326 [penwidth=2]
    259 -> 128 [penwidth=2]
    259 -> 385 [penwidth=2]
    259 -> 188 [penwidth=2]
    259 -> 342 [penwidth=2]
    259 -> 161 [penwidth=2]
    259 -> 136 [penwidth=2]
    259 -> 48 [penwidth=2]
    259 -> 42 [penwidth=2]
    259 -> 54 [penwidth=2]
    259 -> 394 [penwidth=2]
    259 -> 118 [penwidth=2]
    259 -> 225 [penwidth=2]
    259 -> 399 [penwidth=2]
    259 -> 141 [penwidth=2]
    259 -> 157 [penwidth=2]
    259 -> 170 [penwidth=2]
    259 -> 191 [penwidth=2]
    259 -> 3 [penwidth=2]
    259 -> 6 [penwidth=2]
    259 -> 183 [penwidth=2]
    259 -> 125 [penwidth=2]
    259 -> 85 [penwidth=2]
    259 -> 150 [penwidth=2]
    259 -> 238 [penwidth=2]
    259 -> 7 [penwidth=2]
    259 -> 99 [penwidth=2]
    259 -> 40 [penwidth=2]
    259 -> 335 [penwidth=2]
    259 -> 240 [penwidth=2]
    259 -> 232 [penwidth=2]
    259 -> 12 [penwidth=2]
    259 -> 32 [penwidth=2]
    259 -> 195 [penwidth=2]
    259 -> 17 [penwidth=2]
    259 -> 383 [penwidth=2]
    259 -> 228 [penwidth=2]
    259 -> 130 [penwidth=2]
    259 -> 10 [penwidth=2]
    259 -> 384 [penwidth=2]
    259 -> 162 [penwidth=2]
    259 -> 144 [penwidth=2]
    259 -> 368 [penwidth=2]
    259 -> 92 [penwidth=2]
    259 -> 56 [penwidth=2]
    259 -> 131 [penwidth=2]
    259 -> 369 [penwidth=2]
    259 -> 146 [penwidth=2]
    259 -> 168 [penwidth=2]
    259 -> 122 [penwidth=2]
    259 -> 396 [penwidth=2]
    259 -> 133 [penwidth=2]
    259 -> 97 [penwidth=2]
    259 -> 13 [penwidth=2]
    259 -> 392 [penwidth=2]
    259 -> 185 [penwidth=2]
    259 -> 370 [penwidth=2]
    259 -> 23 [penwidth=2]
    259 -> 345 [penwidth=2]
    259 -> 154 [penwidth=2]
    259 -> 165 [penwidth=2]
    259 -> 27 [penwidth=2]
    259 -> 235 [penwidth=2]
    259 -> 33 [penwidth=2]
    259 -> 327 [penwidth=2]
    259 -> 230 [penwidth=2]
    259 -> 61 [penwidth=2]
    259 -> 101 [penwidth=2]
    259 -> 90 [penwidth=2]
    259 -> 139 [penwidth=2]
    259 -> 351 [penwidth=2]
    259 -> 330 [penwidth=2]
    259 -> 189 [penwidth=2]
    259 -> 129 [penwidth=2]
    259 -> 51 [penwidth=2]
    259 -> 375 [penwidth=2]
    259 -> 2 [penwidth=2]
    259 -> 73 [penwidth=2]
    259 -> 88 [penwidth=2]
    259 -> 29 [penwidth=2]
    259 -> 237 [penwidth=2]
    259 -> 377 [penwidth=2]
    259 -> 152 [penwidth=2]
    259 -> 115 [penwidth=2]
    259 -> 60 [penwidth=2]
    259 -> 14 [penwidth=2]
    259 -> 8 [penwidth=2]
    259 -> 87 [penwidth=2]
    259 -> 371 [penwidth=2]
    259 -> 109 [penwidth=2]
    259 -> 9 [penwidth=2]
    259 -> 76 [penwidth=2]
    259 -> 143 [penwidth=2]
    259 -> 63 [penwidth=2]
    259 -> 140 [penwidth=2]
    259 -> 107 [penwidth=2]
    259 -> 124 [penwidth=2]
    259 -> 28 [penwidth=2]
    259 -> 78 [penwidth=2]
    259 -> 46 [penwidth=2]
    259 -> 65 [penwidth=2]
    259 -> 164 [penwidth=2]
    259 -> 84 [penwidth=2]
    259 -> 163 [penwidth=2]
    259 -> 1 [penwidth=2]
    259 -> 142 [penwidth=2]
    259 -> 127 [penwidth=2]
    259 -> 36 [penwidth=2]
    259 -> 103 [penwidth=2]
    259 -> 376 [penwidth=2]
    259 -> 25 [penwidth=2]
    259 -> 121 [penwidth=2]
    259 -> 229 [penwidth=2]
    259 -> 95 [penwidth=2]
    259 -> 86 [penwidth=2]
    259 -> 171 [penwidth=2]
    259 -> 160 [penwidth=2]
    259 -> 227 [penwidth=2]
    259 -> 190 [penwidth=2]
    259 -> 138 [penwidth=2]
    259 -> 325 [penwidth=2]
    259 -> 106 [penwidth=2]
    259 -> 77 [penwidth=2]
    259 -> 55 [penwidth=2]
    259 -> 187 [penwidth=2]
    259 -> 398 [penwidth=2]
    259 -> 102 [penwidth=2]
    259 -> 135 [penwidth=2]
    259 -> 373 [penwidth=2]
    259 -> 111 [penwidth=2]
    259 -> 233 [penwidth=2]
    259 -> 340 [penwidth=2]
    259 -> 179 [penwidth=2]
    259 -> 347 [penwidth=2]
    259 -> 386 [penwidth=2]
    259 -> 100 [penwidth=2]
    259 -> 19 [penwidth=2]
    259 -> 75 [penwidth=2]
    259 -> 346 [penwidth=2]
    259 -> 156 [penwidth=2]
    259 -> 11 [penwidth=2]
    259 -> 64 [penwidth=2]
    259 -> 239 [penwidth=2]
    259 -> 222 [penwidth=2]
    259 -> 341 [penwidth=2]
    259 -> 231 [penwidth=2]
    259 -> 181 [penwidth=2]
    259 -> 390 [penwidth=2]
    259 -> 348 [penwidth=2]
    259 -> 52 [penwidth=2]
    259 -> 53 [penwidth=2]
    259 -> 197 [penwidth=2]
    259 -> 382 [penwidth=2]
    259 -> 47 [penwidth=2]
    259 -> 120 [penwidth=2]
    259 -> 31 [penwidth=2]
    259 -> 338 [penwidth=2]
    259 -> 178 [penwidth=2]
    259 -> 58 [penwidth=2]
    259 -> 72 [penwidth=2]
    259 -> 166 [penwidth=2]
    259 -> 126 [penwidth=2]
    259 -> 149 [penwidth=2]
    259 -> 329 [penwidth=2]
    259 -> 105 [penwidth=2]
    259 -> 349 [penwidth=2]
    259 -> 148 [penwidth=2]
    259 -> 66 [penwidth=2]
    259 -> 18 [penwidth=2]
    259 -> 337 [penwidth=2]
    259 -> 380 [penwidth=2]
    259 -> 328 [penwidth=2]
    259 -> 62 [penwidth=2]
    259 -> 16 [penwidth=2]
    259 -> 395 [penwidth=2]
    259 -> 68 [penwidth=2]
    259 -> 96 [penwidth=2]
    259 -> 379 [penwidth=2]
    259 -> 113 [penwidth=2]
    259 -> 41 [penwidth=2]
    259 -> 21 [penwidth=2]
    259 -> 169 [penwidth=2]
    266 -> 155 [penwidth=2]
    266 -> 98 [penwidth=2]
    266 -> 102 [penwidth=2]
    266 -> 153 [penwidth=2]
    266 -> 34 [penwidth=2]
    266 -> 79 [penwidth=2]
    266 -> 395 [penwidth=2]
    266 -> 341 [penwidth=2]
    266 -> 44 [penwidth=2]
    266 -> 228 [penwidth=2]
    266 -> 171 [penwidth=2]
    266 -> 123 [penwidth=2]
    266 -> 96 [penwidth=2]
    266 -> 192 [penwidth=2]
    266 -> 18 [penwidth=2]
    266 -> 135 [penwidth=2]
    266 -> 146 [penwidth=2]
    266 -> 370 [penwidth=2]
    266 -> 65 [penwidth=2]
    266 -> 190 [penwidth=2]
    266 -> 397 [penwidth=2]
    266 -> 62 [penwidth=2]
    266 -> 76 [penwidth=2]
    266 -> 196 [penwidth=2]
    266 -> 231 [penwidth=2]
    266 -> 173 [penwidth=2]
    266 -> 28 [penwidth=2]
    266 -> 193 [penwidth=2]
    266 -> 58 [penwidth=2]
    266 -> 54 [penwidth=2]
    266 -> 133 [penwidth=2]
    266 -> 106 [penwidth=2]
    266 -> 147 [penwidth=2]
    266 -> 234 [penwidth=2]
    266 -> 7 [penwidth=2]
    266 -> 61 [penwidth=2]
    266 -> 48 [penwidth=2]
    266 -> 195 [penwidth=2]
    266 -> 29 [penwidth=2]
    266 -> 232 [penwidth=2]
    266 -> 238 [penwidth=2]
    266 -> 350 [penwidth=2]
    266 -> 380 [penwidth=2]
    266 -> 94 [penwidth=2]
    266 -> 183 [penwidth=2]
    266 -> 50 [penwidth=2]
    266 -> 399 [penwidth=2]
    266 -> 331 [penwidth=2]
    266 -> 369 [penwidth=2]
    266 -> 49 [penwidth=2]
    266 -> 74 [penwidth=2]
    266 -> 101 [penwidth=2]
    266 -> 152 [penwidth=2]
    266 -> 8 [penwidth=2]
    266 -> 57 [penwidth=2]
    266 -> 393 [penwidth=2]
    266 -> 386 [penwidth=2]
    266 -> 328 [penwidth=2]
    266 -> 89 [penwidth=2]
    266 -> 387 [penwidth=2]
    266 -> 111 [penwidth=2]
    266 -> 237 [penwidth=2]
    266 -> 185 [penwidth=2]
    266 -> 45 [penwidth=2]
    266 -> 349 [penwidth=2]
    266 -> 375 [penwidth=2]
    266 -> 379 [penwidth=2]
    266 -> 391 [penwidth=2]
    266 -> 374 [penwidth=2]
    266 -> 187 [penwidth=2]
    266 -> 179 [penwidth=2]
    266 -> 345 [penwidth=2]
    266 -> 229 [penwidth=2]
    266 -> 69 [penwidth=2]
    266 -> 38 [penwidth=2]
    266 -> 83 [penwidth=2]
    266 -> 97 [penwidth=2]
    266 -> 17 [penwidth=2]
    266 -> 151 [penwidth=2]
    266 -> 41 [penwidth=2]
    266 -> 85 [penwidth=2]
    266 -> 163 [penwidth=2]
    266 -> 140 [penwidth=2]
    266 -> 107 [penwidth=2]
    266 -> 95 [penwidth=2]
    266 -> 168 [penwidth=2]
    266 -> 372 [penwidth=2]
    266 -> 332 [penwidth=2]
    266 -> 53 [penwidth=2]
    266 -> 340 [penwidth=2]
    266 -> 194 [penwidth=2]
    266 -> 175 [penwidth=2]
    266 -> 136 [penwidth=2]
    266 -> 239 [penwidth=2]
    266 -> 188 [penwidth=2]
    266 -> 184 [penwidth=2]
    266 -> 52 [penwidth=2]
    266 -> 130 [penwidth=2]
    266 -> 221 [penwidth=2]
    266 -> 14 [penwidth=2]
    280 -> 7 [penwidth=2]
    280 -> 325 [penwidth=2]
    280 -> 150 [penwidth=2]
    280 -> 338 [penwidth=2]
    280 -> 193 [penwidth=2]
    280 -> 104 [penwidth=2]
    280 -> 345 [penwidth=2]
    280 -> 377 [penwidth=2]
    280 -> 397 [penwidth=2]
    280 -> 168 [penwidth=2]
    280 -> 391 [penwidth=2]
    280 -> 189 [penwidth=2]
    280 -> 384 [penwidth=2]
    280 -> 2 [penwidth=2]
    280 -> 166 [penwidth=2]
    280 -> 1 [penwidth=2]
    280 -> 31 [penwidth=2]
    280 -> 95 [penwidth=2]
    280 -> 160 [penwidth=2]
    280 -> 190 [penwidth=2]
    280 -> 101 [penwidth=2]
    280 -> 392 [penwidth=2]
    280 -> 238 [penwidth=2]
    280 -> 235 [penwidth=2]
    280 -> 344 [penwidth=2]
    280 -> 127 [penwidth=2]
    280 -> 66 [penwidth=2]
    280 -> 98 [penwidth=2]
    280 -> 15 [penwidth=2]
    280 -> 133 [penwidth=2]
    280 -> 352 [penwidth=2]
    280 -> 25 [penwidth=2]
    280 -> 80 [penwidth=2]
    280 -> 62 [penwidth=2]
    280 -> 20 [penwidth=2]
    280 -> 346 [penwidth=2]
    280 -> 184 [penwidth=2]
    280 -> 30 [penwidth=2]
    280 -> 11 [penwidth=2]
    280 -> 380 [penwidth=2]
    280 -> 341 [penwidth=2]
    280 -> 52 [penwidth=2]
    280 -> 96 [penwidth=2]
    280 -> 53 [penwidth=2]
    280 -> 223 [penwidth=2]
    280 -> 195 [penwidth=2]
    280 -> 134 [penwidth=2]
    280 -> 128 [penwidth=2]
    280 -> 340 [penwidth=2]
    280 -> 326 [penwidth=2]
    280 -> 337 [penwidth=2]
    280 -> 367 [penwidth=2]
    280 -> 17 [penwidth=2]
    280 -> 84 [penwidth=2]
    280 -> 82 [penwidth=2]
    280 -> 123 [penwidth=2]
    280 -> 335 [penwidth=2]
    280 -> 148 [penwidth=2]
    280 -> 240 [penwidth=2]
    280 -> 399 [penwidth=2]
    280 -> 183 [penwidth=2]
    280 -> 387 [penwidth=2]
    280 -> 26 [penwidth=2]
    282 -> 79 [penwidth=2]
    282 -> 97 [penwidth=2]
    282 -> 94 [penwidth=2]
    282 -> 234 [penwidth=2]
    282 -> 225 [penwidth=2]
    282 -> 54 [penwidth=2]
    282 -> 6 [penwidth=2]
    282 -> 142 [penwidth=2]
    282 -> 350 [penwidth=2]
    282 -> 77 [penwidth=2]
    282 -> 116 [penwidth=2]
    282 -> 29 [penwidth=2]
    282 -> 146 [penwidth=2]
    282 -> 196 [penwidth=2]
    282 -> 341 [penwidth=2]
    282 -> 152 [penwidth=2]
    282 -> 91 [penwidth=2]
    282 -> 100 [penwidth=2]
    282 -> 191 [penwidth=2]
    282 -> 35 [penwidth=2]
    282 -> 16 [penwidth=2]
    282 -> 354 [penwidth=2]
    282 -> 121 [penwidth=2]
    282 -> 25 [penwidth=2]
    282 -> 113 [penwidth=2]
    282 -> 131 [penwidth=2]
    282 -> 43 [penwidth=2]
    282 -> 342 [penwidth=2]
    282 -> 53 [penwidth=2]
    282 -> 388 [penwidth=2]
    282 -> 98 [penwidth=2]
    282 -> 105 [penwidth=2]
    282 -> 399 [penwidth=2]
    282 -> 57 [penwidth=2]
    282 -> 3 [penwidth=2]
    282 -> 19 [penwidth=2]
    282 -> 153 [penwidth=2]
    282 -> 188 [penwidth=2]
    282 -> 23 [penwidth=2]
    282 -> 232 [penwidth=2]
    282 -> 333 [penwidth=2]
    282 -> 52 [penwidth=2]
    282 -> 50 [penwidth=2]
    282 -> 47 [penwidth=2]
    282 -> 155 [penwidth=2]
    282 -> 96 [penwidth=2]
    282 -> 119 [penwidth=2]
    282 -> 138 [penwidth=2]
    282 -> 123 [penwidth=2]
    282 -> 68 [penwidth=2]
    282 -> 28 [penwidth=2]
    282 -> 111 [penwidth=2]
    282 -> 104 [penwidth=2]
    282 -> 117 [penwidth=2]
    282 -> 78 [penwidth=2]
    282 -> 380 [penwidth=2]
    282 -> 9 [penwidth=2]
    282 -> 55 [penwidth=2]
    282 -> 63 [penwidth=2]
    282 -> 64 [penwidth=2]
    282 -> 126 [penwidth=2]
    282 -> 40 [penwidth=2]
    282 -> 137 [penwidth=2]
    282 -> 69 [penwidth=2]
    282 -> 228 [penwidth=2]
    282 -> 393 [penwidth=2]
    282 -> 66 [penwidth=2]
    282 -> 125 [penwidth=2]
    282 -> 330 [penwidth=2]
    282 -> 389 [penwidth=2]
    282 -> 109 [penwidth=2]
    282 -> 30 [penwidth=2]
    282 -> 231 [penwidth=2]
    282 -> 2 [penwidth=2]
    282 -> 128 [penwidth=2]
    282 -> 327 [penwidth=2]
    282 -> 84 [penwidth=2]
    282 -> 24 [penwidth=2]
    282 -> 127 [penwidth=2]
    282 -> 74 [penwidth=2]
    282 -> 171 [penwidth=2]
    282 -> 46 [penwidth=2]
    282 -> 80 [penwidth=2]
    282 -> 396 [penwidth=2]
    282 -> 139 [penwidth=2]
    282 -> 114 [penwidth=2]
    282 -> 173 [penwidth=2]
    282 -> 384 [penwidth=2]
    282 -> 26 [penwidth=2]
    282 -> 193 [penwidth=2]
    282 -> 157 [penwidth=2]
    282 -> 58 [penwidth=2]
    282 -> 110 [penwidth=2]
    282 -> 220 [penwidth=2]
    282 -> 377 [penwidth=2]
    282 -> 5 [penwidth=2]
    282 -> 351 [penwidth=2]
    282 -> 367 [penwidth=2]
    282 -> 376 [penwidth=2]
    282 -> 352 [penwidth=2]
    282 -> 184 [penwidth=2]
    282 -> 165 [penwidth=2]
    282 -> 185 [penwidth=2]
    282 -> 7 [penwidth=2]
    282 -> 161 [penwidth=2]
    282 -> 95 [penwidth=2]
    282 -> 89 [penwidth=2]
    282 -> 344 [penwidth=2]
    282 -> 101 [penwidth=2]
    282 -> 99 [penwidth=2]
    282 -> 56 [penwidth=2]
    282 -> 175 [penwidth=2]
    282 -> 339 [penwidth=2]
    282 -> 343 [penwidth=2]
    282 -> 48 [penwidth=2]
    282 -> 141 [penwidth=2]
    282 -> 1 [penwidth=2]
    282 -> 65 [penwidth=2]
    282 -> 159 [penwidth=2]
    282 -> 233 [penwidth=2]
    282 -> 112 [penwidth=2]
    282 -> 168 [penwidth=2]
    282 -> 189 [penwidth=2]
    282 -> 51 [penwidth=2]
    282 -> 383 [penwidth=2]
    282 -> 237 [penwidth=2]
    282 -> 18 [penwidth=2]
    282 -> 103 [penwidth=2]
    282 -> 371 [penwidth=2]
    282 -> 176 [penwidth=2]
    282 -> 172 [penwidth=2]
    282 -> 194 [penwidth=2]
    282 -> 93 [penwidth=2]
    282 -> 41 [penwidth=2]
    282 -> 373 [penwidth=2]
    282 -> 328 [penwidth=2]
    282 -> 183 [penwidth=2]
    282 -> 230 [penwidth=2]
    282 -> 62 [penwidth=2]
    282 -> 392 [penwidth=2]
    282 -> 149 [penwidth=2]
    282 -> 221 [penwidth=2]
    282 -> 122 [penwidth=2]
    282 -> 158 [penwidth=2]
    282 -> 174 [penwidth=2]
    282 -> 132 [penwidth=2]
    282 -> 325 [penwidth=2]
    282 -> 349 [penwidth=2]
    282 -> 83 [penwidth=2]
    282 -> 59 [penwidth=2]
    282 -> 92 [penwidth=2]
    282 -> 82 [penwidth=2]
    282 -> 14 [penwidth=2]
    282 -> 21 [penwidth=2]
    282 -> 31 [penwidth=2]
    282 -> 81 [penwidth=2]
    282 -> 36 [penwidth=2]
    282 -> 227 [penwidth=2]
    282 -> 385 [penwidth=2]
    282 -> 236 [penwidth=2]
    282 -> 378 [penwidth=2]
    282 -> 340 [penwidth=2]
    282 -> 33 [penwidth=2]
    282 -> 140 [penwidth=2]
    282 -> 136 [penwidth=2]
    282 -> 162 [penwidth=2]
    282 -> 398 [penwidth=2]
    282 -> 67 [penwidth=2]
    282 -> 34 [penwidth=2]
    282 -> 374 [penwidth=2]
    282 -> 338 [penwidth=2]
    282 -> 20 [penwidth=2]
    282 -> 49 [penwidth=2]
    282 -> 190 [penwidth=2]
    282 -> 382 [penwidth=2]
    282 -> 32 [penwidth=2]
    282 -> 86 [penwidth=2]
    282 -> 102 [penwidth=2]
    282 -> 15 [penwidth=2]
    282 -> 60 [penwidth=2]
    282 -> 17 [penwidth=2]
    282 -> 197 [penwidth=2]
    282 -> 76 [penwidth=2]
    282 -> 395 [penwidth=2]
    282 -> 147 [penwidth=2]
    282 -> 71 [penwidth=2]
    282 -> 39 [penwidth=2]
    282 -> 133 [penwidth=2]
    282 -> 222 [penwidth=2]
    282 -> 106 [penwidth=2]
    282 -> 163 [penwidth=2]
    282 -> 336 [penwidth=2]
    282 -> 70 [penwidth=2]
    282 -> 348 [penwidth=2]
    282 -> 379 [penwidth=2]
    282 -> 143 [penwidth=2]
    282 -> 167 [penwidth=2]
    282 -> 8 [penwidth=2]
    282 -> 387 [penwidth=2]
    282 -> 334 [penwidth=2]
    282 -> 346 [penwidth=2]
    282 -> 87 [penwidth=2]
    282 -> 240 [penwidth=2]
    282 -> 145 [penwidth=2]
    282 -> 118 [penwidth=2]
    282 -> 179 [penwidth=2]
    282 -> 187 [penwidth=2]
    282 -> 135 [penwidth=2]
    282 -> 238 [penwidth=2]
    282 -> 326 [penwidth=2]
    282 -> 45 [penwidth=2]
    282 -> 73 [penwidth=2]
    282 -> 370 [penwidth=2]
    282 -> 345 [penwidth=2]
    282 -> 181 [penwidth=2]
    282 -> 150 [penwidth=2]
    282 -> 347 [penwidth=2]
    282 -> 134 [penwidth=2]
    282 -> 239 [penwidth=2]
    282 -> 391 [penwidth=2]
    282 -> 37 [penwidth=2]
    282 -> 353 [penwidth=2]
    282 -> 85 [penwidth=2]
    282 -> 154 [penwidth=2]
    282 -> 397 [penwidth=2]
    282 -> 166 [penwidth=2]
    282 -> 107 [penwidth=2]
    282 -> 178 [penwidth=2]
    282 -> 124 [penwidth=2]
    282 -> 223 [penwidth=2]
    282 -> 129 [penwidth=2]
    282 -> 90 [penwidth=2]
    282 -> 38 [penwidth=2]
    282 -> 170 [penwidth=2]
    282 -> 120 [penwidth=2]
    282 -> 180 [penwidth=2]
    282 -> 11 [penwidth=2]
    282 -> 12 [penwidth=2]
    282 -> 61 [penwidth=2]
}