digraph G {
    0 [penwidth=3,label="0"]
    1 [penwidth=3,label="1"]
    2 [penwidth=3,label="2"]
    3 [penwidth=3,label="3"]
    4 [penwidth=3,label="4"]
    5 [penwidth=3,label="5"]
    6 [penwidth=3,label="6"]
    7 [penwidth=3,label="7"]
    8 [penwidth=3,label="8"]
    9 [penwidth=3,label="9"]
    10 [penwidth=3,label="10"]
    11 [penwidth=3,label="11"]
    12 [penwidth=3,label="12"]
    13 [penwidth=3,label="13"]
    14 [penwidth=3,label="14"]
    15 [penwidth=3,label="15"]
    16 [penwidth=3,label="16"]
    17 [penwidth=3,label="17"]
    18 [penwidth=3,label="18"]
    19 [penwidth=3,label="19"]
    20 [penwidth=3,label="20"]
    21 [penwidth=3,label="21"]
    22 [penwidth=3,label="22"]
    23 [penwidth=3,label="23"]
    24 [penwidth=3,label="24"]
    25 [penwidth=3,label="25"]
    26 [penwidth=3,label="26"]
    27 [penwidth=3,label="27"]
    28 [penwidth=3,label="28"]
    29 [penwidth=3,label="29"]
    30 [penwidth=3,label="30"]
    31 [penwidth=3,label="31"]
    32 [penwidth=3,label="32"]
    33 [penwidth=3,label="33"]
    34 [penwidth=3,label="34"]
    35 [penwidth=3,label="35"]
    36 [penwidth=3,label="36"]
    37 [penwidth=3,label="37"]
    38 [penwidth=3,label="38"]
    39 [penwidth=3,label="39"]
    40 [penwidth=3,label="40"]
    41 [penwidth=3,label="41"]
    42 [penwidth=3,label="42"]
    43 [penwidth=3,label="43"]
    44 [penwidth=3,label="44"]
    45 [penwidth=3,label="45"]
    46 [penwidth=3,label="46"]
    47 [penwidth=3,label="47"]
    48 [penwidth=3,label="48"]
    49 [penwidth=3,label="49"]
    50 [penwidth=3,label="50"]
    51 [penwidth=3,label="51"]
    52 [penwidth=3,label="52"]
    53 [penwidth=3,label="53"]
    54 [penwidth=3,label="54"]
    55 [penwidth=3,label="55"]
    56 [penwidth=3,label="56"]
    57 [penwidth=3,label="57"]
    58 [penwidth=3,label="58"]
    59 [penwidth=3,label="59"]
    60 [penwidth=3,label="60"]
    61 [penwidth=3,label="61"]
    62 [penwidth=3,label="62"]
    63 [penwidth=3,label="63"]
    64 [penwidth=3,label="64"]
    65 [penwidth=3,label="65"]
    66 [penwidth=3,label="66"]
    67 [penwidth=3,label="67"]
    68 [penwidth=3,label="68"]
    69 [penwidth=3,label="69"]
    70 [penwidth=3,label="70"]
    71 [penwidth=3,label="71"]
    72 [penwidth=3,label="72"]
    73 [penwidth=3,label="73"]
    74 [penwidth=3,label="74"]
    75 [penwidth=3,label="75"]
    76 [penwidth=3,label="76"]
    77 [penwidth=3,label="77"]
    78 [penwidth=3,label="78"]
    79 [penwidth=3,label="79"]
    80 [penwidth=3,label="80"]
    81 [penwidth=3,label="81"]
    82 [penwidth=3,label="82"]
    83 [penwidth=3,label="83"]
    84 [penwidth=3,label="84"]
    85 [penwidth=3,label="85"]
    86 [penwidth=3,label="86"]
    87 [penwidth=3,label="87"]
    88 [penwidth=3,label="88"]
    89 [penwidth=3,label="89"]
    90 [penwidth=3,label="90"]
    91 [penwidth=3,label="91"]
    92 [penwidth=3,label="92"]
    93 [penwidth=3,label="93"]
    94 [penwidth=3,label="94"]
    95 [penwidth=3,label="95"]
    96 [penwidth=3,label="96"]
    97 [penwidth=3,label="97"]
    98 [penwidth=3,label="98"]
    99 [penwidth=3,label="99"]
    100 [penwidth=3,label="100"]
    101 [penwidth=3,label="101"]
    102 [penwidth=3,label="102"]
    103 [penwidth=3,label="103"]
    104 [penwidth=3,label="104"]
    105 [penwidth=3,label="105"]
    106 [penwidth=3,label="106"]
    107 [penwidth=3,label="107"]
    108 [penwidth=3,label="108"]
    109 [penwidth=3,label="109"]
    110 [penwidth=3,label="110"]
    111 [penwidth=3,label="111"]
    112 [penwidth=3,label="112"]
    113 [penwidth=3,label="113"]
    114 [penwidth=3,label="114"]
    115 [penwidth=3,label="115"]
    116 [penwidth=3,label="116"]
    117 [penwidth=3,label="117"]
    118 [penwidth=3,label="118"]
    119 [penwidth=3,label="119"]
    120 [penwidth=3,label="120"]
    121 [penwidth=3,label="121"]
    122 [penwidth=3,label="122"]
    123 [penwidth=3,label="123"]
    124 [penwidth=3,label="124"]
    125 [penwidth=3,label="125"]
    126 [penwidth=3,label="126"]
    127 [penwidth=3,label="127"]
    128 [penwidth=3,label="128"]
    129 [penwidth=3,label="129"]
    130 [penwidth=3,label="130"]
    131 [penwidth=3,label="131"]
    132 [penwidth=3,label="132"]
    133 [penwidth=3,label="133"]
    134 [penwidth=3,label="134"]
    135 [penwidth=3,label="135"]
    136 [penwidth=3,label="136"]
    137 [penwidth=3,label="137"]
    138 [penwidth=3,label="138"]
    139 [penwidth=3,label="139"]
    140 [penwidth=3,label="140"]
    141 [penwidth=3,label="141"]
    142 [penwidth=3,label="142"]
    143 [penwidth=3,label="143"]
    144 [penwidth=3,label="144"]
    145 [penwidth=3,label="145"]
    146 [penwidth=3,label="146"]
    147 [penwidth=3,label="147"]
    148 [penwidth=3,label="148"]
    149 [penwidth=3,label="149"]
    150 [penwidth=3,label="150"]
    151 [penwidth=3,label="151"]
    152 [penwidth=3,label="152"]
    153 [penwidth=3,label="153"]
    154 [penwidth=3,label="154"]
    155 [penwidth=3,label="155"]
    156 [penwidth=3,label="156"]
    157 [penwidth=3,label="157"]
    158 [penwidth=3,label="158"]
    159 [penwidth=3,label="159"]
    160 [penwidth=3,label="160"]
    161 [penwidth=3,label="161"]
    162 [penwidth=3,label="162"]
    163 [penwidth=3,label="163"]
    164 [penwidth=3,label="164"]
    165 [penwidth=3,label="165"]
    166 [penwidth=3,label="166"]
    167 [penwidth=3,label="167"]
    168 [penwidth=3,label="168"]
    169 [penwidth=3,label="169"]
    170 [penwidth=3,label="170"]
    171 [penwidth=3,label="171"]
    172 [penwidth=3,label="172"]
    173 [penwidth=3,label="173"]
    174 [penwidth=3,label="174"]
    175 [penwidth=3,label="175"]
    176 [penwidth=3,label="176"]
    177 [penwidth=3,label="177"]
    178 [penwidth=3,label="178"]
    179 [penwidth=3,label="179"]
    180 [penwidth=3,label="180"]
    181 [penwidth=3,label="181"]
    182 [penwidth=3,label="182"]
    183 [penwidth=3,label="183"]
    184 [penwidth=3,label="184"]
    185 [penwidth=3,label="185"]
    186 [penwidth=3,label="186"]
    187 [penwidth=3,label="187"]
    188 [penwidth=3,label="188"]
    189 [penwidth=3,label="189"]
    190 [penwidth=3,label="190"]
    191 [penwidth=3,label="191"]
    192 [penwidth=3,label="192"]
    193 [penwidth=3,label="193"]
    194 [penwidth=3,label="194"]
    195 [penwidth=3,label="195"]
    196 [penwidth=3,label="196"]
    197 [penwidth=3,label="197"]
    198 [penwidth=3,label="198"]
    199 [penwidth=3,label="199"]
    200 [penwidth=3,label="200"]
    201 [penwidth=3,label="201"]
    202 [penwidth=3,label="202"]
    203 [penwidth=3,label="203"]
    204 [penwidth=3,label="204"]
    205 [penwidth=3,label="205"]
    206 [penwidth=3,label="206"]
    207 [penwidth=3,label="207"]
    208 [penwidth=3,label="208"]
    209 [penwidth=3,label="209"]
    210 [penwidth=3,label="210"]
    211 [penwidth=3,label="211"]
    212 [penwidth=3,label="212"]
    213 [penwidth=3,label="213"]
    214 [penwidth=3,label="214"]
    215 [penwidth=3,label="215"]
    216 [penwidth=3,label="216"]
    217 [penwidth=3,label="217"]
    218 [penwidth=3,label="218"]
    219 [penwidth=3,label="219"]
    220 [penwidth=3,label="220"]
    221 [penwidth=3,label="221"]
    222 [penwidth=3,label="222"]
    223 [penwidth=3,label="223"]
    224 [penwidth=3,label="224"]
    225 [penwidth=3,label="225"]
    226 [penwidth=3,label="226"]
    227 [penwidth=3,label="227"]
    228 [penwidth=3,label="228"]
    229 [penwidth=3,label="229"]
    230 [penwidth=3,label="230"]
    231 [penwidth=3,label="231"]
    232 [penwidth=3,label="232"]
    233 [penwidth=3,label="233"]
    234 [penwidth=3,label="234"]
    235 [penwidth=3,label="235"]
    236 [penwidth=3,label="236"]
    237 [penwidth=3,label="237"]
    238 [penwidth=3,label="238"]
    239 [penwidth=3,label="239"]
    240 [penwidth=3,label="240"]
    241 [penwidth=3,label="241"]
    242 [penwidth=3,label="242"]
    243 [penwidth=3,label="243"]
    244 [penwidth=3,label="244"]
    245 [penwidth=3,label="245"]
    246 [penwidth=3,label="246"]
    247 [penwidth=3,label="247"]
    248 [penwidth=3,label="248"]
    249 [penwidth=3,label="249"]
    250 [penwidth=3,label="250"]
    251 [penwidth=3,label="251"]
    252 [penwidth=3,label="252"]
    253 [penwidth=3,label="253"]
    254 [penwidth=3,label="254"]
    255 [penwidth=3,label="255"]
    256 [penwidth=3,label="256"]
    257 [penwidth=3,label="257"]
    258 [penwidth=3,label="258"]
    259 [penwidth=3,label="259"]
    260 [penwidth=3,label="260"]
    261 [penwidth=3,label="261"]
    262 [penwidth=3,label="262"]
    263 [penwidth=3,label="263"]
    264 [penwidth=3,label="264"]
    265 [penwidth=3,label="265"]
    266 [penwidth=3,label="266"]
    267 [penwidth=3,label="267"]
    268 [penwidth=3,label="268"]
    269 [penwidth=3,label="269"]
    270 [penwidth=3,label="270"]
    271 [penwidth=3,label="271"]
    272 [penwidth=3,label="272"]
    273 [penwidth=3,label="273"]
    274 [penwidth=3,label="274"]
    275 [penwidth=3,label="275"]
    276 [penwidth=3,label="276"]
    277 [penwidth=3,label="277"]
    278 [penwidth=3,label="278"]
    279 [penwidth=3,label="279"]
    280 [penwidth=3,label="280"]
    281 [penwidth=3,label="281"]
    282 [penwidth=3,label="282"]
    283 [penwidth=3,label="283"]
    284 [penwidth=3,label="284"]
    285 [penwidth=3,label="285"]
    286 [penwidth=3,label="286"]
    287 [penwidth=3,label="287"]
    288 [penwidth=3,label="288"]
    289 [penwidth=3,label="289"]
    290 [penwidth=3,label="290"]
    291 [penwidth=3,label="291"]
    292 [penwidth=3,label="292"]
    293 [penwidth=3,label="293"]
    294 [penwidth=3,label="294"]
    295 [penwidth=3,label="295"]
    296 [penwidth=3,label="296"]
    297 [penwidth=3,label="297"]
    298 [penwidth=3,label="298"]
    299 [penwidth=3,label="299"]
    300 [penwidth=3,label="300"]
    301 [penwidth=3,label="301"]
    302 [penwidth=3,label="302"]
    303 [penwidth=3,label="303"]
    304 [penwidth=3,label="304"]
    305 [penwidth=3,label="305"]
    306 [penwidth=3,label="306"]
    307 [penwidth=3,label="307"]
    308 [penwidth=3,label="308"]
    309 [penwidth=3,label="309"]
    310 [penwidth=3,label="310"]
    311 [penwidth=3,label="311"]
    312 [penwidth=3,label="312"]
    313 [penwidth=3,label="313"]
    314 [penwidth=3,label="314"]
    315 [penwidth=3,label="315"]
    316 [penwidth=3,label="316"]
    317 [penwidth=3,label="317"]
    318 [penwidth=3,label="318"]
    319 [penwidth=3,label="319"]
    320 [penwidth=3,label="320"]
    321 [penwidth=3,label="321"]
    322 [penwidth=3,label="322"]
    323 [penwidth=3,label="323"]
    324 [penwidth=3,label="324"]
    325 [penwidth=3,label="325"]
    326 [penwidth=3,label="326"]
    327 [penwidth=3,label="327"]
    328 [penwidth=3,label="328"]
    329 [penwidth=3,label="329"]
    330 [penwidth=3,label="330"]
    331 [penwidth=3,label="331"]
    332 [penwidth=3,label="332"]
    333 [penwidth=3,label="333"]
    334 [penwidth=3,label="334"]
    335 [penwidth=3,label="335"]
    336 [penwidth=3,label="336"]
    337 [penwidth=3,label="337"]
    338 [penwidth=3,label="338"]
    339 [penwidth=3,label="339"]
    340 [penwidth=3,label="340"]
    341 [penwidth=3,label="341"]
    342 [penwidth=3,label="342"]
    343 [penwidth=3,label="343"]
    344 [penwidth=3,label="344"]
    345 [penwidth=3,label="345"]
    346 [penwidth=3,label="346"]
    347 [penwidth=3,label="347"]
    348 [penwidth=3,label="348"]
    349 [penwidth=3,label="349"]
    350 [penwidth=3,label="350"]
    351 [penwidth=3,label="351"]
    352 [penwidth=3,label="352"]
    353 [penwidth=3,label="353"]
    354 [penwidth=3,label="354"]
    355 [penwidth=3,label="355"]
    356 [penwidth=3,label="356"]
    357 [penwidth=3,label="357"]
    358 [penwidth=3,label="358"]
    359 [penwidth=3,label="359"]
    360 [penwidth=3,label="360"]
    361 [penwidth=3,label="361"]
    362 [penwidth=3,label="362"]
    363 [penwidth=3,label="363"]
    364 [penwidth=3,label="364"]
    365 [penwidth=3,label="365"]
    366 [penwidth=3,label="366"]
    367 [penwidth=3,label="367"]
    368 [penwidth=3,label="368"]
    369 [penwidth=3,label="369"]
    370 [penwidth=3,label="370"]
    371 [penwidth=3,label="371"]
    372 [penwidth=3,label="372"]
    373 [penwidth=3,label="373"]
    374 [penwidth=3,label="374"]
    375 [penwidth=3,label="375"]
    376 [penwidth=3,label="376"]
    377 [penwidth=3,label="377"]
    378 [penwidth=3,label="378"]
    379 [penwidth=3,label="379"]
    380 [penwidth=3,label="380"]
    381 [penwidth=3,label="381"]
    382 [penwidth=3,label="382"]
    383 [penwidth=3,label="383"]
    384 [penwidth=3,label="384"]
    385 [penwidth=3,label="385"]
    386 [penwidth=3,label="386"]
    387 [penwidth=3,label="387"]
    388 [penwidth=3,label="388"]
    389 [penwidth=3,label="389"]
    390 [penwidth=3,label="390"]
    391 [penwidth=3,label="391"]
    392 [penwidth=3,label="392"]
    393 [penwidth=3,label="393"]
    394 [penwidth=3,label="394"]
    395 [penwidth=3,label="395"]
    396 [penwidth=3,label="396"]
    397 [penwidth=3,label="397"]
    398 [penwidth=3,label="398"]
    399 [penwidth=3,label="399"]

    17 -> 0 [penwidth=2]
    59 -> 0 [penwidth=2]
    143 -> 0 [penwidth=2]
    18 -> 0 [penwidth=2]
    60 -> 0 [penwidth=2]
    144 -> 0 [penwidth=2]
    19 -> 0 [penwidth=2]
    61 -> 0 [penwidth=2]
    145 -> 0 [penwidth=2]
    20 -> 17 [penwidth=2]
    62 -> 17 [penwidth=2]
    146 -> 17 [penwidth=2]
    21 -> 17 [penwidth=2]
    63 -> 17 [penwidth=2]
    147 -> 17 [penwidth=2]
    22 -> 17 [penwidth=2]
    64 -> 17 [penwidth=2]
    148 -> 17 [penwidth=2]
    23 -> 17 [penwidth=2]
    65 -> 17 [penwidth=2]
    149 -> 17 [penwidth=2]
    24 -> 17 [penwidth=2]
    66 -> 17 [penwidth=2]
    150 -> 17 [penwidth=2]
    25 -> 17 [penwidth=2]
    67 -> 17 [penwidth=2]
    151 -> 17 [penwidth=2]
    26 -> 17 [penwidth=2]
    68 -> 17 [penwidth=2]
    152 -> 17 [penwidth=2]
    27 -> 17 [penwidth=2]
    69 -> 17 [penwidth=2]
    153 -> 17 [penwidth=2]
    28 -> 17 [penwidth=2]
    70 -> 59 [penwidth=2]
    154 -> 59 [penwidth=2]
    29 -> 59 [penwidth=2]
    71 -> 59 [penwidth=2]
    155 -> 59 [penwidth=2]
    30 -> 59 [penwidth=2]
    72 -> 59 [penwidth=2]
    156 -> 59 [penwidth=2]
    31 -> 143 [penwidth=2]
    73 -> 143 [penwidth=2]
    157 -> 143 [penwidth=2]
    32 -> 143 [penwidth=2]
    74 -> 143 [penwidth=2]
    158 -> 143 [penwidth=2]
    33 -> 143 [penwidth=2]
    75 -> 143 [penwidth=2]
    159 -> 143 [penwidth=2]
    34 -> 18 [penwidth=2]
    76 -> 18 [penwidth=2]
    160 -> 18 [penwidth=2]
    35 -> 18 [penwidth=2]
    77 -> 18 [penwidth=2]
    161 -> 18 [penwidth=2]
    36 -> 18 [penwidth=2]
    78 -> 18 [penwidth=2]
    162 -> 18 [penwidth=2]
    37 -> 18 [penwidth=2]
    79 -> 18 [penwidth=2]
    163 -> 18 [penwidth=2]
    38 -> 18 [penwidth=2]
    80 -> 18 [penwidth=2]
    164 -> 18 [penwidth=2]
    39 -> 18 [penwidth=2]
    81 -> 18 [penwidth=2]
    165 -> 18 [penwidth=2]
    40 -> 18 [penwidth=2]
    82 -> 18 [penwidth=2]
    166 -> 18 [penwidth=2]
    41 -> 18 [penwidth=2]
    83 -> 18 [penwidth=2]
    167 -> 18 [penwidth=2]
    42 -> 60 [penwidth=2]
    84 -> 60 [penwidth=2]
    168 -> 60 [penwidth=2]
    43 -> 60 [penwidth=2]
    85 -> 60 [penwidth=2]
    169 -> 60 [penwidth=2]
    44 -> 60 [penwidth=2]
    86 -> 60 [penwidth=2]
    170 -> 60 [penwidth=2]
    45 -> 60 [penwidth=2]
    87 -> 60 [penwidth=2]
    171 -> 60 [penwidth=2]
    46 -> 60 [penwidth=2]
    88 -> 60 [penwidth=2]
    172 -> 60 [penwidth=2]
    47 -> 60 [penwidth=2]
    89 -> 144 [penwidth=2]
    173 -> 144 [penwidth=2]
    48 -> 144 [penwidth=2]
    90 -> 144 [penwidth=2]
    174 -> 144 [penwidth=2]
    49 -> 144 [penwidth=2]
    91 -> 144 [penwidth=2]
    175 -> 144 [penwidth=2]
    50 -> 144 [penwidth=2]
    92 -> 144 [penwidth=2]
    176 -> 144 [penwidth=2]
    51 -> 144 [penwidth=2]
    93 -> 144 [penwidth=2]
    177 -> 144 [penwidth=2]
    52 -> 144 [penwidth=2]
    94 -> 144 [penwidth=2]
    178 -> 144 [penwidth=2]
    53 -> 144 [penwidth=2]
    95 -> 144 [penwidth=2]
    179 -> 144 [penwidth=2]
    54 -> 144 [penwidth=2]
    96 -> 144 [penwidth=2]
    180 -> 19 [penwidth=2]
    55 -> 19 [penwidth=2]
    97 -> 19 [penwidth=2]
    181 -> 19 [penwidth=2]
    56 -> 19 [penwidth=2]
    98 -> 19 [penwidth=2]
    182 -> 19 [penwidth=2]
    57 -> 19 [penwidth=2]
    99 -> 19 [penwidth=2]
    183 -> 19 [penwidth=2]
    58 -> 19 [penwidth=2]
    100 -> 19 [penwidth=2]
    184 -> 19 [penwidth=2]
    311 -> 61 [penwidth=2]
    353 -> 61 [penwidth=2]
    395 -> 61 [penwidth=2]
    312 -> 61 [penwidth=2]
    354 -> 61 [penwidth=2]
    396 -> 61 [penwidth=2]
    313 -> 61 [penwidth=2]
    355 -> 61 [penwidth=2]
    397 -> 61 [penwidth=2]
    314 -> 61 [penwidth=2]
    356 -> 61 [penwidth=2]
    398 -> 61 [penwidth=2]
    315 -> 61 [penwidth=2]
    357 -> 61 [penwidth=2]
    399 -> 61 [penwidth=2]
    316 -> 61 [penwidth=2]
    358 -> 61 [penwidth=2]
    317 -> 61 [penwidth=2]
    359 -> 61 [penwidth=2]
    318 -> 61 [penwidth=2]
    360 -> 145 [penwidth=2]
    319 -> 145 [penwidth=2]
    361 -> 145 [penwidth=2]
    320 -> 145 [penwidth=2]
    362 -> 145 [penwidth=2]
    321 -> 145 [penwidth=2]
    363 -> 145 [penwidth=2]
    322 -> 145 [penwidth=2]
    364 -> 145 [penwidth=2]
    323 -> 145 [penwidth=2]
    365 -> 145 [penwidth=2]
    324 -> 20 [penwidth=2]
    366 -> 20 [penwidth=2]
    325 -> 20 [penwidth=2]
    367 -> 20 [penwidth=2]
    326 -> 20 [penwidth=2]
    368 -> 20 [penwidth=2]
    327 -> 20 [penwidth=2]
    369 -> 20 [penwidth=2]
    328 -> 20 [penwidth=2]
    370 -> 20 [penwidth=2]
    329 -> 20 [penwidth=2]
    371 -> 20 [penwidth=2]
    330 -> 20 [penwidth=2]
    372 -> 20 [penwidth=2]
    331 -> 20 [penwidth=2]
    373 -> 20 [penwidth=2]
    332 -> 20 [penwidth=2]
    374 -> 20 [penwidth=2]
    333 -> 20 [penwidth=2]
    375 -> 20 [penwidth=2]
    334 -> 20 [penwidth=2]
    376 -> 20 [penwidth=2]
    335 -> 20 [penwidth=2]
    377 -> 20 [penwidth=2]
    336 -> 20 [penwidth=2]
    378 -> 62 [penwidth=2]
    337 -> 62 [penwidth=2]
    379 -> 62 [penwidth=2]
    338 -> 62 [penwidth=2]
    380 -> 62 [penwidth=2]
    339 -> 62 [penwidth=2]
    381 -> 62 [penwidth=2]
    340 -> 62 [penwidth=2]
    382 -> 62 [penwidth=2]
    341 -> 62 [penwidth=2]
    383 -> 62 [penwidth=2]
    342 -> 62 [penwidth=2]
    384 -> 62 [penwidth=2]
    343 -> 146 [penwidth=2]
    385 -> 146 [penwidth=2]
    344 -> 146 [penwidth=2]
    386 -> 146 [penwidth=2]
    345 -> 146 [penwidth=2]
    387 -> 146 [penwidth=2]
    346 -> 21 [penwidth=2]
    388 -> 21 [penwidth=2]
    347 -> 21 [penwidth=2]
    389 -> 21 [penwidth=2]
    348 -> 21 [penwidth=2]
    390 -> 21 [penwidth=2]
    349 -> 21 [penwidth=2]
    391 -> 21 [penwidth=2]
    350 -> 21 [penwidth=2]
    392 -> 21 [penwidth=2]
    351 -> 21 [penwidth=2]
    393 -> 21 [penwidth=2]
    352 -> 21 [penwidth=2]
    394 -> 63 [penwidth=2]
    1 -> 63 [penwidth=2]
    2 -> 63 [penwidth=2]
    3 -> 63 [penwidth=2]
    4 -> 147 [penwidth=2]
    5 -> 147 [penwidth=2]
    6 -> 147 [penwidth=2]
    7 -> 147 [penwidth=2]
    8 -> 147 [penwidth=2]
    9 -> 147 [penwidth=2]
    10 -> 147 [penwidth=2]
    11 -> 147 [penwidth=2]
    12 -> 147 [penwidth=2]
    13 -> 147 [penwidth=2]
    14 -> 147 [penwidth=2]
    15 -> 147 [penwidth=2]
    16 -> 147 [penwidth=2]
    227 -> 147 [penwidth=2]
    269 -> 147 [penwidth=2]
    228 -> 147 [penwidth=2]
    270 -> 147 [penwidth=2]
    229 -> 147 [penwidth=2]
    271 -> 147 [penwidth=2]
    230 -> 147 [penwidth=2]
    272 -> 147 [penwidth=2]
    231 -> 22 [penwidth=2]
    273 -> 22 [penwidth=2]
    232 -> 22 [penwidth=2]
    274 -> 22 [penwidth=2]
    233 -> 22 [penwidth=2]
    275 -> 22 [penwidth=2]
    234 -> 22 [penwidth=2]
    276 -> 22 [penwidth=2]
    235 -> 22 [penwidth=2]
    277 -> 22 [penwidth=2]
    236 -> 22 [penwidth=2]
    278 -> 22 [penwidth=2]
    237 -> 22 [penwidth=2]
    279 -> 22 [penwidth=2]
    238 -> 22 [penwidth=2]
    280 -> 22 [penwidth=2]
    239 -> 22 [penwidth=2]
    281 -> 22 [penwidth=2]
    240 -> 22 [penwidth=2]
    282 -> 22 [penwidth=2]
    241 -> 22 [penwidth=2]
    283 -> 22 [penwidth=2]
    242 -> 22 [penwidth=2]
    284 -> 22 [penwidth=2]
    243 -> 22 [penwidth=2]
    285 -> 64 [penwidth=2]
    244 -> 64 [penwidth=2]
    286 -> 64 [penwidth=2]
    245 -> 64 [penwidth=2]
    287 -> 64 [penwidth=2]
    246 -> 64 [penwidth=2]
    288 -> 64 [penwidth=2]
    247 -> 64 [penwidth=2]
    289 -> 64 [penwidth=2]
    248 -> 64 [penwidth=2]
    290 -> 148 [penwidth=2]
    249 -> 148 [penwidth=2]
    291 -> 148 [penwidth=2]
    250 -> 148 [penwidth=2]
    292 -> 148 [penwidth=2]
    251 -> 148 [penwidth=2]
    293 -> 148 [penwidth=2]
    252 -> 148 [penwidth=2]
    294 -> 148 [penwidth=2]
    253 -> 148 [penwidth=2]
    295 -> 148 [penwidth=2]
    254 -> 148 [penwidth=2]
    296 -> 148 [penwidth=2]
    255 -> 148 [penwidth=2]
    297 -> 148 [penwidth=2]
    256 -> 148 [penwidth=2]
    298 -> 148 [penwidth=2]
    257 -> 148 [penwidth=2]
    299 -> 23 [penwidth=2]
    258 -> 23 [penwidth=2]
    300 -> 23 [penwidth=2]
    259 -> 23 [penwidth=2]
    301 -> 23 [penwidth=2]
    260 -> 65 [penwidth=2]
    302 -> 65 [penwidth=2]
    261 -> 65 [penwidth=2]
    303 -> 65 [penwidth=2]
    262 -> 65 [penwidth=2]
    304 -> 65 [penwidth=2]
    263 -> 65 [penwidth=2]
    305 -> 65 [penwidth=2]
    264 -> 65 [penwidth=2]
    306 -> 65 [penwidth=2]
    265 -> 65 [penwidth=2]
    307 -> 65 [penwidth=2]
    266 -> 65 [penwidth=2]
    308 -> 65 [penwidth=2]
    267 -> 65 [penwidth=2]
    309 -> 65 [penwidth=2]
    268 -> 65 [penwidth=2]
    310 -> 65 [penwidth=2]
    185 -> 65 [penwidth=2]
    186 -> 65 [penwidth=2]
    187 -> 65 [penwidth=2]
    188 -> 65 [penwidth=2]
    189 -> 65 [penwidth=2]
    190 -> 65 [penwidth=2]
    191 -> 65 [penwidth=2]
    192 -> 65 [penwidth=2]
    193 -> 149 [penwidth=2]
    194 -> 149 [penwidth=2]
    195 -> 149 [penwidth=2]
    196 -> 149 [penwidth=2]
    197 -> 149 [penwidth=2]
    198 -> 149 [penwidth=2]
    199 -> 149 [penwidth=2]
    200 -> 149 [penwidth=2]
    201 -> 149 [penwidth=2]
    202 -> 149 [penwidth=2]
    203 -> 149 [penwidth=2]
    204 -> 149 [penwidth=2]
    205 -> 24 [penwidth=2]
    206 -> 24 [penwidth=2]
    207 -> 24 [penwidth=2]
    208 -> 24 [penwidth=2]
    209 -> 24 [penwidth=2]
    210 -> 24 [penwidth=2]
    211 -> 24 [penwidth=2]
    212 -> 24 [penwidth=2]
    213 -> 24 [penwidth=2]
    214 -> 24 [penwidth=2]
    215 -> 24 [penwidth=2]
    216 -> 24 [penwidth=2]
    217 -> 24 [penwidth=2]
    218 -> 24 [penwidth=2]
    219 -> 24 [penwidth=2]
    220 -> 24 [penwidth=2]
    221 -> 24 [penwidth=2]
    222 -> 24 [penwidth=2]
    223 -> 24 [penwidth=2]
    224 -> 24 [penwidth=2]
    225 -> 24 [penwidth=2]
    226 -> 24 [penwidth=2]
    101 -> 24 [penwidth=2]
    102 -> 24 [penwidth=2]
    103 -> 66 [penwidth=2]
    104 -> 66 [penwidth=2]
    105 -> 66 [penwidth=2]
    106 -> 66 [penwidth=2]
    107 -> 66 [penwidth=2]
    108 -> 66 [penwidth=2]
    109 -> 66 [penwidth=2]
    110 -> 66 [penwidth=2]
    111 -> 66 [penwidth=2]
    112 -> 150 [penwidth=2]
    113 -> 150 [penwidth=2]
    114 -> 150 [penwidth=2]
    115 -> 150 [penwidth=2]
    116 -> 150 [penwidth=2]
    117 -> 150 [penwidth=2]
    118 -> 150 [penwidth=2]
    119 -> 150 [penwidth=2]
    120 -> 150 [penwidth=2]
    121 -> 150 [penwidth=2]
    122 -> 150 [penwidth=2]
    123 -> 150 [penwidth=2]
    124 -> 150 [penwidth=2]
    125 -> 150 [penwidth=2]
    126 -> 150 [penwidth=2]
    127 -> 150 [penwidth=2]
    128 -> 150 [penwidth=2]
    129 -> 150 [penwidth=2]
    130 -> 150 [penwidth=2]
    131 -> 150 [penwidth=2]
    132 -> 150 [penwidth=2]
    133 -> 150 [penwidth=2]
    134 -> 150 [penwidth=2]
    135 -> 150 [penwidth=2]
    136 -> 150 [penwidth=2]
    137 -> 25 [penwidth=2]
    138 -> 25 [penwidth=2]
    139 -> 25 [penwidth=2]
    140 -> 25 [penwidth=2]
    141 -> 25 [penwidth=2]
    142 -> 25 [penwidth=2]
    21 -> 59 [penwidth=2]
    25 -> 60 [penwidth=2]
    25 -> 143 [penwidth=2]
    25 -> 145 [penwidth=2]
    25 -> 144 [penwidth=2]
    25 -> 59 [penwidth=2]
    25 -> 18 [penwidth=2]
    25 -> 19 [penwidth=2]
    31 -> 144 [penwidth=2]
    31 -> 145 [penwidth=2]
    31 -> 19 [penwidth=2]
    31 -> 59 [penwidth=2]
    82 -> 145 [penwidth=2]
    82 -> 59 [penwidth=2]
    82 -> 143 [penwidth=2]
    82 -> 61 [penwidth=2]
    82 -> 144 [penwidth=2]
    45 -> 59 [penwidth=2]
    45 -> 17 [penwidth=2]
    45 -> 61 [penwidth=2]
    45 -> 143 [penwidth=2]
    45 -> 18 [penwidth=2]
    171 -> 145 [penwidth=2]
    51 -> 143 [penwidth=2]
    51 -> 17 [penwidth=2]
    51 -> 61 [penwidth=2]
    51 -> 60 [penwidth=2]
    51 -> 19 [penwidth=2]
    57 -> 143 [penwidth=2]
    57 -> 145 [penwidth=2]
    57 -> 59 [penwidth=2]
    57 -> 144 [penwidth=2]
    57 -> 17 [penwidth=2]
    366 -> 23 [penwidth=2]
    366 -> 161 [penwidth=2]
    366 -> 157 [penwidth=2]
    366 -> 32 [penwidth=2]
    366 -> 69 [penwidth=2]
    366 -> 158 [penwidth=2]
    366 -> 398 [penwidth=2]
    366 -> 399 [penwidth=2]
    366 -> 37 [penwidth=2]
    366 -> 49 [penwidth=2]
    366 -> 168 [penwidth=2]
    366 -> 42 [penwidth=2]
    366 -> 173 [penwidth=2]
    366 -> 63 [penwidth=2]
    366 -> 76 [penwidth=2]
    366 -> 70 [penwidth=2]
    366 -> 96 [penwidth=2]
    366 -> 171 [penwidth=2]
    366 -> 176 [penwidth=2]
    366 -> 28 [penwidth=2]
    366 -> 362 [penwidth=2]
    366 -> 361 [penwidth=2]
    366 -> 55 [penwidth=2]
    366 -> 24 [penwidth=2]
    366 -> 41 [penwidth=2]
    366 -> 184 [penwidth=2]
    366 -> 360 [penwidth=2]
    366 -> 30 [penwidth=2]
    366 -> 46 [penwidth=2]
    366 -> 358 [penwidth=2]
    366 -> 31 [penwidth=2]
    366 -> 85 [penwidth=2]
    366 -> 80 [penwidth=2]
    366 -> 312 [penwidth=2]
    366 -> 82 [penwidth=2]
    366 -> 148 [penwidth=2]
    366 -> 44 [penwidth=2]
    366 -> 71 [penwidth=2]
    366 -> 181 [penwidth=2]
    366 -> 319 [penwidth=2]
    366 -> 56 [penwidth=2]
    366 -> 36 [penwidth=2]
    366 -> 35 [penwidth=2]
    366 -> 66 [penwidth=2]
    366 -> 317 [penwidth=2]
    366 -> 311 [penwidth=2]
    366 -> 315 [penwidth=2]
    366 -> 156 [penwidth=2]
    366 -> 57 [penwidth=2]
    366 -> 94 [penwidth=2]
    366 -> 39 [penwidth=2]
    366 -> 316 [penwidth=2]
    366 -> 365 [penwidth=2]
    366 -> 160 [penwidth=2]
    366 -> 38 [penwidth=2]
    366 -> 172 [penwidth=2]
    366 -> 155 [penwidth=2]
    366 -> 363 [penwidth=2]
    366 -> 98 [penwidth=2]
    366 -> 154 [penwidth=2]
    366 -> 83 [penwidth=2]
    366 -> 353 [penwidth=2]
    366 -> 178 [penwidth=2]
    366 -> 175 [penwidth=2]
    366 -> 99 [penwidth=2]
    366 -> 165 [penwidth=2]
    366 -> 79 [penwidth=2]
    366 -> 396 [penwidth=2]
    366 -> 97 [penwidth=2]
    366 -> 321 [penwidth=2]
    366 -> 357 [penwidth=2]
    366 -> 62 [penwidth=2]
    366 -> 179 [penwidth=2]
    366 -> 153 [penwidth=2]
    366 -> 75 [penwidth=2]
    366 -> 45 [penwidth=2]
    366 -> 88 [penwidth=2]
    366 -> 359 [penwidth=2]
    366 -> 87 [penwidth=2]
    366 -> 149 [penwidth=2]
    366 -> 318 [penwidth=2]
    366 -> 84 [penwidth=2]
    366 -> 47 [penwidth=2]
    366 -> 177 [penwidth=2]
    366 -> 320 [penwidth=2]
    366 -> 25 [penwidth=2]
    373 -> 154 [penwidth=2]
    373 -> 64 [penwidth=2]
    373 -> 94 [penwidth=2]
    373 -> 364 [penwidth=2]
    373 -> 314 [penwidth=2]
    373 -> 70 [penwidth=2]
    373 -> 25 [penwidth=2]
    373 -> 92 [penwidth=2]
    373 -> 57 [penwidth=2]
    373 -> 170 [penwidth=2]
    373 -> 44 [penwidth=2]
    373 -> 24 [penwidth=2]
    373 -> 42 [penwidth=2]
    373 -> 395 [penwidth=2]
    373 -> 353 [penwidth=2]
    373 -> 167 [penwidth=2]
    373 -> 86 [penwidth=2]
    373 -> 88 [penwidth=2]
    373 -> 35 [penwidth=2]
    373 -> 77 [penwidth=2]
    373 -> 313 [penwidth=2]
    373 -> 90 [penwidth=2]
    373 -> 29 [penwidth=2]
    373 -> 21 [penwidth=2]
    373 -> 40 [penwidth=2]
    373 -> 355 [penwidth=2]
    373 -> 27 [penwidth=2]
    373 -> 65 [penwidth=2]
    373 -> 45 [penwidth=2]
    373 -> 150 [penwidth=2]
    373 -> 83 [penwidth=2]
    373 -> 357 [penwidth=2]
    373 -> 311 [penwidth=2]
    373 -> 166 [penwidth=2]
    373 -> 53 [penwidth=2]
    373 -> 33 [penwidth=2]
    373 -> 399 [penwidth=2]
    373 -> 22 [penwidth=2]
    373 -> 179 [penwidth=2]
    373 -> 315 [penwidth=2]
    373 -> 323 [penwidth=2]
    373 -> 184 [penwidth=2]
    373 -> 361 [penwidth=2]
    373 -> 183 [penwidth=2]
    373 -> 398 [penwidth=2]
    373 -> 316 [penwidth=2]
    373 -> 84 [penwidth=2]
    373 -> 37 [penwidth=2]
    373 -> 71 [penwidth=2]
    373 -> 153 [penwidth=2]
    373 -> 48 [penwidth=2]
    373 -> 74 [penwidth=2]
    373 -> 156 [penwidth=2]
    373 -> 66 [penwidth=2]
    373 -> 158 [penwidth=2]
    373 -> 365 [penwidth=2]
    373 -> 68 [penwidth=2]
    373 -> 82 [penwidth=2]
    373 -> 319 [penwidth=2]
    373 -> 146 [penwidth=2]
    373 -> 72 [penwidth=2]
    373 -> 169 [penwidth=2]
    373 -> 93 [penwidth=2]
    373 -> 159 [penwidth=2]
    373 -> 85 [penwidth=2]
    373 -> 147 [penwidth=2]
    373 -> 75 [penwidth=2]
    373 -> 96 [penwidth=2]
    373 -> 354 [penwidth=2]
    373 -> 95 [penwidth=2]
    373 -> 160 [penwidth=2]
    373 -> 312 [penwidth=2]
    373 -> 173 [penwidth=2]
    373 -> 397 [penwidth=2]
    373 -> 182 [penwidth=2]
    373 -> 321 [penwidth=2]
    373 -> 99 [penwidth=2]
    373 -> 81 [penwidth=2]
    373 -> 36 [penwidth=2]
    373 -> 98 [penwidth=2]
    373 -> 174 [penwidth=2]
    373 -> 168 [penwidth=2]
    373 -> 152 [penwidth=2]
    373 -> 28 [penwidth=2]
    373 -> 67 [penwidth=2]
    373 -> 178 [penwidth=2]
    373 -> 31 [penwidth=2]
    373 -> 165 [penwidth=2]
    373 -> 79 [penwidth=2]
    373 -> 41 [penwidth=2]
    373 -> 69 [penwidth=2]
    373 -> 396 [penwidth=2]
    373 -> 89 [penwidth=2]
    373 -> 62 [penwidth=2]
    373 -> 50 [penwidth=2]
    373 -> 56 [penwidth=2]
    378 -> 183 [penwidth=2]
    378 -> 397 [penwidth=2]
    378 -> 21 [penwidth=2]
    378 -> 315 [penwidth=2]
    378 -> 365 [penwidth=2]
    378 -> 319 [penwidth=2]
    378 -> 363 [penwidth=2]
    378 -> 34 [penwidth=2]
    378 -> 175 [penwidth=2]
    378 -> 82 [penwidth=2]
    378 -> 153 [penwidth=2]
    378 -> 66 [penwidth=2]
    378 -> 163 [penwidth=2]
    378 -> 29 [penwidth=2]
    378 -> 44 [penwidth=2]
    378 -> 159 [penwidth=2]
    378 -> 166 [penwidth=2]
    378 -> 79 [penwidth=2]
    378 -> 45 [penwidth=2]
    378 -> 182 [penwidth=2]
    378 -> 181 [penwidth=2]
    378 -> 152 [penwidth=2]
    378 -> 157 [penwidth=2]
    378 -> 28 [penwidth=2]
    378 -> 313 [penwidth=2]
    378 -> 180 [penwidth=2]
    378 -> 156 [penwidth=2]
    378 -> 58 [penwidth=2]
    378 -> 154 [penwidth=2]
    378 -> 150 [penwidth=2]
    378 -> 51 [penwidth=2]
    378 -> 76 [penwidth=2]
    378 -> 94 [penwidth=2]
    378 -> 38 [penwidth=2]
    378 -> 361 [penwidth=2]
    378 -> 52 [penwidth=2]
    378 -> 148 [penwidth=2]
    378 -> 160 [penwidth=2]
    378 -> 98 [penwidth=2]
    378 -> 47 [penwidth=2]
    378 -> 146 [penwidth=2]
    378 -> 396 [penwidth=2]
    378 -> 87 [penwidth=2]
    378 -> 83 [penwidth=2]
    378 -> 89 [penwidth=2]
    378 -> 316 [penwidth=2]
    378 -> 40 [penwidth=2]
    378 -> 359 [penwidth=2]
    378 -> 65 [penwidth=2]
    378 -> 355 [penwidth=2]
    378 -> 91 [penwidth=2]
    378 -> 358 [penwidth=2]
    378 -> 64 [penwidth=2]
    378 -> 26 [penwidth=2]
    378 -> 33 [penwidth=2]
    378 -> 95 [penwidth=2]
    378 -> 323 [penwidth=2]
    378 -> 147 [penwidth=2]
    378 -> 42 [penwidth=2]
    378 -> 164 [penwidth=2]
    378 -> 169 [penwidth=2]
    378 -> 30 [penwidth=2]
    378 -> 50 [penwidth=2]
    378 -> 56 [penwidth=2]
    378 -> 398 [penwidth=2]
    378 -> 53 [penwidth=2]
    378 -> 31 [penwidth=2]
    378 -> 57 [penwidth=2]
    378 -> 320 [penwidth=2]
    378 -> 78 [penwidth=2]
    378 -> 25 [penwidth=2]
    378 -> 22 [penwidth=2]
    378 -> 158 [penwidth=2]
    378 -> 72 [penwidth=2]
    378 -> 100 [penwidth=2]
    378 -> 67 [penwidth=2]
    378 -> 167 [penwidth=2]
    378 -> 70 [penwidth=2]
    378 -> 86 [penwidth=2]
    378 -> 92 [penwidth=2]
    378 -> 24 [penwidth=2]
    378 -> 184 [penwidth=2]
    378 -> 311 [penwidth=2]
    378 -> 353 [penwidth=2]
    378 -> 170 [penwidth=2]
    378 -> 99 [penwidth=2]
    378 -> 84 [penwidth=2]
    378 -> 63 [penwidth=2]
    378 -> 39 [penwidth=2]
    378 -> 317 [penwidth=2]
    378 -> 27 [penwidth=2]
    378 -> 364 [penwidth=2]
    378 -> 178 [penwidth=2]
    378 -> 23 [penwidth=2]
    378 -> 399 [penwidth=2]
    378 -> 49 [penwidth=2]
    378 -> 96 [penwidth=2]
    378 -> 356 [penwidth=2]
    378 -> 151 [penwidth=2]
    378 -> 172 [penwidth=2]
    378 -> 32 [penwidth=2]
    378 -> 48 [penwidth=2]
    378 -> 165 [penwidth=2]
    378 -> 314 [penwidth=2]
    378 -> 81 [penwidth=2]
    378 -> 174 [penwidth=2]
    378 -> 71 [penwidth=2]
    378 -> 321 [penwidth=2]
    378 -> 155 [penwidth=2]
    378 -> 357 [penwidth=2]
    378 -> 74 [penwidth=2]
    378 -> 37 [penwidth=2]
    378 -> 177 [penwidth=2]
    378 -> 68 [penwidth=2]
    378 -> 168 [penwidth=2]
    378 -> 43 [penwidth=2]
    378 -> 97 [penwidth=2]
    378 -> 69 [penwidth=2]
    378 -> 171 [penwidth=2]
    378 -> 162 [penwidth=2]
    378 -> 90 [penwidth=2]
    378 -> 35 [penwidth=2]
    378 -> 312 [penwidth=2]
    378 -> 93 [penwidth=2]
    378 -> 36 [penwidth=2]
    378 -> 85 [penwidth=2]
    378 -> 179 [penwidth=2]
    378 -> 360 [penwidth=2]
    378 -> 75 [penwidth=2]
    378 -> 55 [penwidth=2]
    347 -> 100 [penwidth=2]
    347 -> 319 [penwidth=2]
    347 -> 179 [penwidth=2]
    347 -> 399 [penwidth=2]
    347 -> 90 [penwidth=2]
    347 -> 42 [penwidth=2]
    347 -> 34 [penwidth=2]
    347 -> 23 [penwidth=2]
    347 -> 175 [penwidth=2]
    347 -> 63 [penwidth=2]
    347 -> 170 [penwidth=2]
    347 -> 150 [penwidth=2]
    347 -> 55 [penwidth=2]
    347 -> 20 [penwidth=2]
    347 -> 184 [penwidth=2]
    347 -> 182 [penwidth=2]
    347 -> 51 [penwidth=2]
    347 -> 56 [penwidth=2]
    347 -> 163 [penwidth=2]
    347 -> 356 [penwidth=2]
    347 -> 315 [penwidth=2]
    347 -> 32 [penwidth=2]
    347 -> 50 [penwidth=2]
    347 -> 151 [penwidth=2]
    347 -> 360 [penwidth=2]
    347 -> 53 [penwidth=2]
    347 -> 72 [penwidth=2]
    347 -> 58 [penwidth=2]
    347 -> 158 [penwidth=2]
    347 -> 91 [penwidth=2]
    347 -> 164 [penwidth=2]
    347 -> 363 [penwidth=2]
    347 -> 37 [penwidth=2]
    347 -> 45 [penwidth=2]
    347 -> 355 [penwidth=2]
    347 -> 94 [penwidth=2]
    347 -> 147 [penwidth=2]
    347 -> 89 [penwidth=2]
    347 -> 177 [penwidth=2]
    347 -> 172 [penwidth=2]
    347 -> 154 [penwidth=2]
    347 -> 62 [penwidth=2]
    347 -> 162 [penwidth=2]
    347 -> 82 [penwidth=2]
    347 -> 353 [penwidth=2]
    347 -> 174 [penwidth=2]
    347 -> 316 [penwidth=2]
    347 -> 65 [penwidth=2]
    347 -> 68 [penwidth=2]
    347 -> 398 [penwidth=2]
    347 -> 25 [penwidth=2]
    347 -> 362 [penwidth=2]
    347 -> 397 [penwidth=2]
    347 -> 49 [penwidth=2]
    347 -> 84 [penwidth=2]
    347 -> 47 [penwidth=2]
    347 -> 73 [penwidth=2]
    347 -> 87 [penwidth=2]
    347 -> 52 [penwidth=2]
    347 -> 169 [penwidth=2]
    347 -> 322 [penwidth=2]
    347 -> 57 [penwidth=2]
    347 -> 70 [penwidth=2]
    347 -> 78 [penwidth=2]
    347 -> 167 [penwidth=2]
    347 -> 396 [penwidth=2]
    347 -> 320 [penwidth=2]
    347 -> 168 [penwidth=2]
    347 -> 321 [penwidth=2]
    347 -> 46 [penwidth=2]
    347 -> 311 [penwidth=2]
    347 -> 365 [penwidth=2]
    347 -> 152 [penwidth=2]
    347 -> 96 [penwidth=2]
    347 -> 86 [penwidth=2]
    347 -> 75 [penwidth=2]
    347 -> 83 [penwidth=2]
    347 -> 157 [penwidth=2]
    347 -> 97 [penwidth=2]
    347 -> 69 [penwidth=2]
    347 -> 323 [penwidth=2]
    347 -> 176 [penwidth=2]
    347 -> 43 [penwidth=2]
    347 -> 28 [penwidth=2]
    347 -> 48 [penwidth=2]
    347 -> 81 [penwidth=2]
    347 -> 153 [penwidth=2]
    347 -> 357 [penwidth=2]
    347 -> 354 [penwidth=2]
    347 -> 318 [penwidth=2]
    347 -> 183 [penwidth=2]
    347 -> 33 [penwidth=2]
    347 -> 155 [penwidth=2]
    347 -> 165 [penwidth=2]
    347 -> 358 [penwidth=2]
    347 -> 178 [penwidth=2]
    347 -> 159 [penwidth=2]
    347 -> 40 [penwidth=2]
    347 -> 95 [penwidth=2]
    347 -> 39 [penwidth=2]
    347 -> 161 [penwidth=2]
    347 -> 77 [penwidth=2]
    347 -> 149 [penwidth=2]
    347 -> 181 [penwidth=2]
    347 -> 93 [penwidth=2]
    347 -> 361 [penwidth=2]
    347 -> 64 [penwidth=2]
    347 -> 26 [penwidth=2]
    347 -> 80 [penwidth=2]
    347 -> 35 [penwidth=2]
    347 -> 66 [penwidth=2]
    347 -> 22 [penwidth=2]
    347 -> 30 [penwidth=2]
    347 -> 313 [penwidth=2]
    347 -> 166 [penwidth=2]
    347 -> 31 [penwidth=2]
    347 -> 74 [penwidth=2]
    347 -> 44 [penwidth=2]
    347 -> 314 [penwidth=2]
    347 -> 88 [penwidth=2]
    347 -> 173 [penwidth=2]
    347 -> 27 [penwidth=2]
    393 -> 362 [penwidth=2]
    393 -> 182 [penwidth=2]
    393 -> 179 [penwidth=2]
    393 -> 36 [penwidth=2]
    393 -> 76 [penwidth=2]
    393 -> 38 [penwidth=2]
    393 -> 22 [penwidth=2]
    393 -> 184 [penwidth=2]
    393 -> 395 [penwidth=2]
    393 -> 163 [penwidth=2]
    393 -> 95 [penwidth=2]
    393 -> 34 [penwidth=2]
    393 -> 170 [penwidth=2]
    393 -> 171 [penwidth=2]
    393 -> 86 [penwidth=2]
    393 -> 77 [penwidth=2]
    393 -> 148 [penwidth=2]
    393 -> 168 [penwidth=2]
    393 -> 68 [penwidth=2]
    393 -> 356 [penwidth=2]
    393 -> 42 [penwidth=2]
    393 -> 43 [penwidth=2]
    393 -> 152 [penwidth=2]
    393 -> 50 [penwidth=2]
    393 -> 355 [penwidth=2]
    393 -> 47 [penwidth=2]
    393 -> 146 [penwidth=2]
    393 -> 177 [penwidth=2]
    393 -> 174 [penwidth=2]
    393 -> 71 [penwidth=2]
    393 -> 365 [penwidth=2]
    393 -> 164 [penwidth=2]
    393 -> 320 [penwidth=2]
    393 -> 93 [penwidth=2]
    393 -> 31 [penwidth=2]
    393 -> 149 [penwidth=2]
    393 -> 358 [penwidth=2]
    393 -> 100 [penwidth=2]
    393 -> 40 [penwidth=2]
    393 -> 318 [penwidth=2]
    393 -> 316 [penwidth=2]
    393 -> 79 [penwidth=2]
    393 -> 322 [penwidth=2]
    393 -> 165 [penwidth=2]
    393 -> 155 [penwidth=2]
    9 -> 74 [penwidth=2]
    9 -> 360 [penwidth=2]
    9 -> 67 [penwidth=2]
    9 -> 157 [penwidth=2]
    9 -> 317 [penwidth=2]
    9 -> 98 [penwidth=2]
    9 -> 49 [penwidth=2]
    9 -> 169 [penwidth=2]
    9 -> 37 [penwidth=2]
    9 -> 54 [penwidth=2]
    9 -> 173 [penwidth=2]
    9 -> 36 [penwidth=2]
    9 -> 363 [penwidth=2]
    9 -> 43 [penwidth=2]
    9 -> 81 [penwidth=2]
    9 -> 156 [penwidth=2]
    9 -> 22 [penwidth=2]
    9 -> 25 [penwidth=2]
    9 -> 323 [penwidth=2]
    9 -> 91 [penwidth=2]
    9 -> 395 [penwidth=2]
    9 -> 164 [penwidth=2]
    9 -> 83 [penwidth=2]
    9 -> 152 [penwidth=2]
    9 -> 315 [penwidth=2]
    9 -> 320 [penwidth=2]
    9 -> 183 [penwidth=2]
    9 -> 174 [penwidth=2]
    9 -> 153 [penwidth=2]
    9 -> 322 [penwidth=2]
    9 -> 159 [penwidth=2]
    9 -> 90 [penwidth=2]
    9 -> 87 [penwidth=2]
    9 -> 96 [penwidth=2]
    9 -> 356 [penwidth=2]
    9 -> 45 [penwidth=2]
    9 -> 70 [penwidth=2]
    9 -> 175 [penwidth=2]
    9 -> 99 [penwidth=2]
    227 -> 158 [penwidth=2]
    227 -> 397 [penwidth=2]
    227 -> 87 [penwidth=2]
    227 -> 359 [penwidth=2]
    227 -> 52 [penwidth=2]
    227 -> 21 [penwidth=2]
    227 -> 45 [penwidth=2]
    227 -> 91 [penwidth=2]
    227 -> 311 [penwidth=2]
    227 -> 361 [penwidth=2]
    227 -> 68 [penwidth=2]
    227 -> 171 [penwidth=2]
    227 -> 320 [penwidth=2]
    227 -> 398 [penwidth=2]
    227 -> 99 [penwidth=2]
    227 -> 43 [penwidth=2]
    227 -> 27 [penwidth=2]
    227 -> 159 [penwidth=2]
    227 -> 96 [penwidth=2]
    227 -> 58 [penwidth=2]
    227 -> 48 [penwidth=2]
    227 -> 174 [penwidth=2]
    227 -> 42 [penwidth=2]
    227 -> 72 [penwidth=2]
    227 -> 95 [penwidth=2]
    227 -> 51 [penwidth=2]
    227 -> 182 [penwidth=2]
    227 -> 84 [penwidth=2]
    227 -> 163 [penwidth=2]
    227 -> 34 [penwidth=2]
    227 -> 172 [penwidth=2]
    227 -> 323 [penwidth=2]
    227 -> 358 [penwidth=2]
    227 -> 100 [penwidth=2]
    227 -> 74 [penwidth=2]
    227 -> 177 [penwidth=2]
    227 -> 69 [penwidth=2]
    227 -> 178 [penwidth=2]
    227 -> 47 [penwidth=2]
    227 -> 78 [penwidth=2]
    227 -> 23 [penwidth=2]
    227 -> 364 [penwidth=2]
    227 -> 82 [penwidth=2]
    227 -> 173 [penwidth=2]
    227 -> 32 [penwidth=2]
    227 -> 315 [penwidth=2]
    227 -> 57 [penwidth=2]
    227 -> 162 [penwidth=2]
    227 -> 98 [penwidth=2]
    227 -> 155 [penwidth=2]
    227 -> 66 [penwidth=2]
    227 -> 170 [penwidth=2]
    227 -> 362 [penwidth=2]
    227 -> 36 [penwidth=2]
    227 -> 90 [penwidth=2]
    227 -> 161 [penwidth=2]
    227 -> 67 [penwidth=2]
    227 -> 92 [penwidth=2]
    227 -> 355 [penwidth=2]
    227 -> 73 [penwidth=2]
    276 -> 20 [penwidth=2]
    276 -> 91 [penwidth=2]
    276 -> 360 [penwidth=2]
    276 -> 73 [penwidth=2]
    276 -> 26 [penwidth=2]
    276 -> 69 [penwidth=2]
    276 -> 51 [penwidth=2]
    276 -> 180 [penwidth=2]
    276 -> 152 [penwidth=2]
    276 -> 322 [penwidth=2]
    276 -> 358 [penwidth=2]
    276 -> 175 [penwidth=2]
    276 -> 149 [penwidth=2]
    276 -> 395 [penwidth=2]
    276 -> 85 [penwidth=2]
    276 -> 70 [penwidth=2]
    276 -> 98 [penwidth=2]
    276 -> 311 [penwidth=2]
    276 -> 79 [penwidth=2]
    276 -> 100 [penwidth=2]
    276 -> 71 [penwidth=2]
    276 -> 87 [penwidth=2]
    276 -> 42 [penwidth=2]
    276 -> 160 [penwidth=2]
    276 -> 154 [penwidth=2]
    276 -> 43 [penwidth=2]
    276 -> 170 [penwidth=2]
    276 -> 169 [penwidth=2]
    276 -> 181 [penwidth=2]
    276 -> 41 [penwidth=2]
    276 -> 318 [penwidth=2]
    276 -> 80 [penwidth=2]
    276 -> 48 [penwidth=2]
    276 -> 88 [penwidth=2]
    276 -> 45 [penwidth=2]
    276 -> 99 [penwidth=2]
    276 -> 58 [penwidth=2]
    276 -> 362 [penwidth=2]
    276 -> 315 [penwidth=2]
    276 -> 397 [penwidth=2]
    276 -> 159 [penwidth=2]
    276 -> 29 [penwidth=2]
    276 -> 184 [penwidth=2]
    276 -> 52 [penwidth=2]
    276 -> 30 [penwidth=2]
    276 -> 165 [penwidth=2]
    276 -> 314 [penwidth=2]
    276 -> 81 [penwidth=2]
    276 -> 74 [penwidth=2]
    276 -> 54 [penwidth=2]
    276 -> 354 [penwidth=2]
    276 -> 37 [penwidth=2]
    276 -> 312 [penwidth=2]
    276 -> 75 [penwidth=2]
    276 -> 177 [penwidth=2]
    276 -> 53 [penwidth=2]
    276 -> 86 [penwidth=2]
    276 -> 164 [penwidth=2]
    276 -> 396 [penwidth=2]
    276 -> 96 [penwidth=2]
    283 -> 68 [penwidth=2]
    283 -> 31 [penwidth=2]
    283 -> 72 [penwidth=2]
    283 -> 26 [penwidth=2]
    283 -> 66 [penwidth=2]
    283 -> 170 [penwidth=2]
    283 -> 395 [penwidth=2]
    283 -> 93 [penwidth=2]
    283 -> 317 [penwidth=2]
    283 -> 38 [penwidth=2]
    283 -> 46 [penwidth=2]
    283 -> 84 [penwidth=2]
    283 -> 24 [penwidth=2]
    283 -> 92 [penwidth=2]
    283 -> 21 [penwidth=2]
    283 -> 74 [penwidth=2]
    283 -> 51 [penwidth=2]
    283 -> 178 [penwidth=2]
    283 -> 30 [penwidth=2]
    283 -> 87 [penwidth=2]
    283 -> 67 [penwidth=2]
    283 -> 362 [penwidth=2]
    283 -> 78 [penwidth=2]
    283 -> 88 [penwidth=2]
    283 -> 162 [penwidth=2]
    283 -> 399 [penwidth=2]
    283 -> 90 [penwidth=2]
    283 -> 94 [penwidth=2]
    283 -> 91 [penwidth=2]
    283 -> 36 [penwidth=2]
    283 -> 71 [penwidth=2]
    283 -> 150 [penwidth=2]
    283 -> 161 [penwidth=2]
    283 -> 163 [penwidth=2]
    283 -> 77 [penwidth=2]
    283 -> 69 [penwidth=2]
    283 -> 76 [penwidth=2]
    283 -> 97 [penwidth=2]
    283 -> 151 [penwidth=2]
    283 -> 177 [penwidth=2]
    283 -> 39 [penwidth=2]
    283 -> 35 [penwidth=2]
    283 -> 315 [penwidth=2]
    283 -> 359 [penwidth=2]
    283 -> 311 [penwidth=2]
    283 -> 312 [penwidth=2]
    283 -> 43 [penwidth=2]
    283 -> 159 [penwidth=2]
    283 -> 20 [penwidth=2]
    283 -> 360 [penwidth=2]
    283 -> 65 [penwidth=2]
    287 -> 151 [penwidth=2]
    287 -> 173 [penwidth=2]
    287 -> 70 [penwidth=2]
    287 -> 181 [penwidth=2]
    287 -> 48 [penwidth=2]
    287 -> 39 [penwidth=2]
    287 -> 163 [penwidth=2]
    287 -> 83 [penwidth=2]
    287 -> 398 [penwidth=2]
    287 -> 171 [penwidth=2]
    287 -> 178 [penwidth=2]
    287 -> 63 [penwidth=2]
    287 -> 358 [penwidth=2]
    287 -> 319 [penwidth=2]
    287 -> 56 [penwidth=2]
    287 -> 364 [penwidth=2]
    287 -> 78 [penwidth=2]
    287 -> 312 [penwidth=2]
    287 -> 315 [penwidth=2]
    287 -> 100 [penwidth=2]
    287 -> 94 [penwidth=2]
    287 -> 98 [penwidth=2]
    287 -> 77 [penwidth=2]
    287 -> 81 [penwidth=2]
    287 -> 40 [penwidth=2]
    287 -> 361 [penwidth=2]
    287 -> 360 [penwidth=2]
    287 -> 62 [penwidth=2]
    287 -> 96 [penwidth=2]
    287 -> 49 [penwidth=2]
    287 -> 162 [penwidth=2]
    287 -> 354 [penwidth=2]
    287 -> 87 [penwidth=2]
    287 -> 47 [penwidth=2]
    287 -> 149 [penwidth=2]
    287 -> 97 [penwidth=2]
    287 -> 399 [penwidth=2]
    287 -> 160 [penwidth=2]
    287 -> 38 [penwidth=2]
    287 -> 54 [penwidth=2]
    287 -> 41 [penwidth=2]
    287 -> 184 [penwidth=2]
    287 -> 323 [penwidth=2]
    287 -> 76 [penwidth=2]
    287 -> 31 [penwidth=2]
    287 -> 66 [penwidth=2]
    287 -> 25 [penwidth=2]
    287 -> 22 [penwidth=2]
    287 -> 395 [penwidth=2]
    287 -> 74 [penwidth=2]
    287 -> 35 [penwidth=2]
    287 -> 396 [penwidth=2]
    287 -> 321 [penwidth=2]
    287 -> 32 [penwidth=2]
    287 -> 169 [penwidth=2]
    287 -> 37 [penwidth=2]
    287 -> 320 [penwidth=2]
    287 -> 174 [penwidth=2]
    287 -> 316 [penwidth=2]
    287 -> 50 [penwidth=2]
    287 -> 33 [penwidth=2]
    287 -> 397 [penwidth=2]
    287 -> 95 [penwidth=2]
    287 -> 79 [penwidth=2]
    287 -> 363 [penwidth=2]
    287 -> 73 [penwidth=2]
    287 -> 55 [penwidth=2]
    287 -> 146 [penwidth=2]
    287 -> 36 [penwidth=2]
    287 -> 164 [penwidth=2]
    287 -> 84 [penwidth=2]
    287 -> 90 [penwidth=2]
    287 -> 180 [penwidth=2]
    287 -> 182 [penwidth=2]
    287 -> 88 [penwidth=2]
    287 -> 93 [penwidth=2]
    287 -> 313 [penwidth=2]
    287 -> 318 [penwidth=2]
    287 -> 150 [penwidth=2]
    287 -> 322 [penwidth=2]
    287 -> 75 [penwidth=2]
    287 -> 65 [penwidth=2]
    287 -> 82 [penwidth=2]
    287 -> 91 [penwidth=2]
    246 -> 87 [penwidth=2]
    246 -> 159 [penwidth=2]
    246 -> 100 [penwidth=2]
    246 -> 172 [penwidth=2]
    246 -> 20 [penwidth=2]
    246 -> 182 [penwidth=2]
    246 -> 311 [penwidth=2]
    246 -> 183 [penwidth=2]
    246 -> 358 [penwidth=2]
    246 -> 40 [penwidth=2]
    246 -> 66 [penwidth=2]
    246 -> 362 [penwidth=2]
    246 -> 56 [penwidth=2]
    246 -> 72 [penwidth=2]
    246 -> 316 [penwidth=2]
    246 -> 162 [penwidth=2]
    246 -> 97 [penwidth=2]
    246 -> 26 [penwidth=2]
    246 -> 359 [penwidth=2]
    246 -> 173 [penwidth=2]
    246 -> 70 [penwidth=2]
    246 -> 77 [penwidth=2]
    246 -> 147 [penwidth=2]
    246 -> 21 [penwidth=2]
    246 -> 157 [penwidth=2]
    246 -> 53 [penwidth=2]
    246 -> 55 [penwidth=2]
    246 -> 95 [penwidth=2]
    246 -> 314 [penwidth=2]
    246 -> 22 [penwidth=2]
    250 -> 67 [penwidth=2]
    250 -> 354 [penwidth=2]
    250 -> 398 [penwidth=2]
    250 -> 77 [penwidth=2]
    250 -> 92 [penwidth=2]
    250 -> 68 [penwidth=2]
    250 -> 80 [penwidth=2]
    250 -> 90 [penwidth=2]
    250 -> 170 [penwidth=2]
    250 -> 88 [penwidth=2]
    250 -> 44 [penwidth=2]
    250 -> 37 [penwidth=2]
    250 -> 147 [penwidth=2]
    250 -> 321 [penwidth=2]
    250 -> 358 [penwidth=2]
    250 -> 353 [penwidth=2]
    250 -> 168 [penwidth=2]
    250 -> 397 [penwidth=2]
    250 -> 395 [penwidth=2]
    250 -> 399 [penwidth=2]
    250 -> 314 [penwidth=2]
    250 -> 154 [penwidth=2]
    250 -> 69 [penwidth=2]
    250 -> 70 [penwidth=2]
    250 -> 322 [penwidth=2]
    250 -> 316 [penwidth=2]
    250 -> 174 [penwidth=2]
    250 -> 82 [penwidth=2]
    250 -> 160 [penwidth=2]
    250 -> 365 [penwidth=2]
    250 -> 64 [penwidth=2]
    250 -> 178 [penwidth=2]
    250 -> 323 [penwidth=2]
    250 -> 48 [penwidth=2]
    250 -> 159 [penwidth=2]
    250 -> 53 [penwidth=2]
    250 -> 319 [penwidth=2]
    250 -> 146 [penwidth=2]
    250 -> 74 [penwidth=2]
    250 -> 83 [penwidth=2]
    250 -> 72 [penwidth=2]
    250 -> 182 [penwidth=2]
    250 -> 20 [penwidth=2]
    250 -> 54 [penwidth=2]
    250 -> 162 [penwidth=2]
    250 -> 78 [penwidth=2]
    250 -> 313 [penwidth=2]
    250 -> 56 [penwidth=2]
    250 -> 29 [penwidth=2]
    250 -> 57 [penwidth=2]
    250 -> 45 [penwidth=2]
    250 -> 396 [penwidth=2]
    250 -> 41 [penwidth=2]
    250 -> 156 [penwidth=2]
    250 -> 93 [penwidth=2]
    250 -> 152 [penwidth=2]
    250 -> 32 [penwidth=2]
    250 -> 172 [penwidth=2]
    250 -> 50 [penwidth=2]
    250 -> 95 [penwidth=2]
    250 -> 87 [penwidth=2]
    250 -> 166 [penwidth=2]
    250 -> 21 [penwidth=2]
    250 -> 91 [penwidth=2]
    250 -> 171 [penwidth=2]
    250 -> 66 [penwidth=2]
    250 -> 312 [penwidth=2]
    250 -> 99 [penwidth=2]
    250 -> 364 [penwidth=2]
    250 -> 51 [penwidth=2]
    250 -> 33 [penwidth=2]
    250 -> 81 [penwidth=2]
    250 -> 96 [penwidth=2]
    250 -> 24 [penwidth=2]
    250 -> 47 [penwidth=2]
    250 -> 149 [penwidth=2]
    250 -> 25 [penwidth=2]
    250 -> 157 [penwidth=2]
    250 -> 94 [penwidth=2]
    250 -> 86 [penwidth=2]
    250 -> 85 [penwidth=2]
    250 -> 161 [penwidth=2]
    250 -> 42 [penwidth=2]
    250 -> 62 [penwidth=2]
    250 -> 177 [penwidth=2]
    250 -> 97 [penwidth=2]
    250 -> 30 [penwidth=2]
    250 -> 75 [penwidth=2]
    250 -> 180 [penwidth=2]
    250 -> 46 [penwidth=2]
    250 -> 35 [penwidth=2]
    250 -> 63 [penwidth=2]
    250 -> 31 [penwidth=2]
    250 -> 49 [penwidth=2]
    250 -> 100 [penwidth=2]
    252 -> 21 [penwidth=2]
    252 -> 30 [penwidth=2]
    252 -> 160 [penwidth=2]
    252 -> 49 [penwidth=2]
    252 -> 46 [penwidth=2]
    252 -> 182 [penwidth=2]
    252 -> 365 [penwidth=2]
    252 -> 58 [penwidth=2]
    252 -> 92 [penwidth=2]
    252 -> 178 [penwidth=2]
    252 -> 69 [penwidth=2]
    252 -> 36 [penwidth=2]
    252 -> 170 [penwidth=2]
    252 -> 146 [penwidth=2]
    252 -> 397 [penwidth=2]
    252 -> 47 [penwidth=2]
    252 -> 65 [penwidth=2]
    252 -> 99 [penwidth=2]
    252 -> 25 [penwidth=2]
    252 -> 43 [penwidth=2]
    252 -> 155 [penwidth=2]
    252 -> 54 [penwidth=2]
    252 -> 89 [penwidth=2]
    252 -> 156 [penwidth=2]
    252 -> 316 [penwidth=2]
    252 -> 81 [penwidth=2]
    252 -> 322 [penwidth=2]
    252 -> 57 [penwidth=2]
    252 -> 313 [penwidth=2]
    252 -> 71 [penwidth=2]
    252 -> 93 [penwidth=2]
    252 -> 27 [penwidth=2]
    252 -> 398 [penwidth=2]
    252 -> 169 [penwidth=2]
    252 -> 319 [penwidth=2]
    252 -> 158 [penwidth=2]
    252 -> 52 [penwidth=2]
    252 -> 83 [penwidth=2]
    252 -> 88 [penwidth=2]
    252 -> 40 [penwidth=2]
    252 -> 151 [penwidth=2]
    252 -> 180 [penwidth=2]
    252 -> 154 [penwidth=2]
    252 -> 97 [penwidth=2]
    252 -> 399 [penwidth=2]
    252 -> 355 [penwidth=2]
    252 -> 167 [penwidth=2]
    252 -> 157 [penwidth=2]
    252 -> 181 [penwidth=2]
    252 -> 28 [penwidth=2]
    252 -> 163 [penwidth=2]
    252 -> 67 [penwidth=2]
    252 -> 63 [penwidth=2]
    252 -> 70 [penwidth=2]
    252 -> 164 [penwidth=2]
    252 -> 72 [penwidth=2]
    252 -> 91 [penwidth=2]
    252 -> 174 [penwidth=2]
    252 -> 311 [penwidth=2]
    252 -> 357 [penwidth=2]
    252 -> 359 [penwidth=2]
    252 -> 31 [penwidth=2]
    252 -> 82 [penwidth=2]
    252 -> 177 [penwidth=2]
    252 -> 153 [penwidth=2]
    252 -> 50 [penwidth=2]
    252 -> 87 [penwidth=2]
    252 -> 353 [penwidth=2]
    252 -> 315 [penwidth=2]
    252 -> 26 [penwidth=2]
    252 -> 168 [penwidth=2]
    252 -> 152 [penwidth=2]
    252 -> 171 [penwidth=2]
    252 -> 317 [penwidth=2]
    252 -> 75 [penwidth=2]
    252 -> 42 [penwidth=2]
    252 -> 85 [penwidth=2]
    252 -> 362 [penwidth=2]
    252 -> 162 [penwidth=2]
    252 -> 183 [penwidth=2]
    252 -> 84 [penwidth=2]
    252 -> 360 [penwidth=2]
    252 -> 94 [penwidth=2]
    252 -> 165 [penwidth=2]
    252 -> 41 [penwidth=2]
    252 -> 20 [penwidth=2]
    252 -> 173 [penwidth=2]
    252 -> 314 [penwidth=2]
    252 -> 90 [penwidth=2]
    252 -> 74 [penwidth=2]
    252 -> 73 [penwidth=2]
    252 -> 321 [penwidth=2]
    252 -> 172 [penwidth=2]
    252 -> 33 [penwidth=2]
    252 -> 323 [penwidth=2]
    252 -> 149 [penwidth=2]
    252 -> 98 [penwidth=2]
    252 -> 175 [penwidth=2]
    252 -> 166 [penwidth=2]
    252 -> 22 [penwidth=2]
    252 -> 395 [penwidth=2]
    252 -> 55 [penwidth=2]
    252 -> 312 [penwidth=2]
    252 -> 34 [penwidth=2]
    252 -> 68 [penwidth=2]
    252 -> 363 [penwidth=2]
    252 -> 39 [penwidth=2]
    252 -> 320 [penwidth=2]
    252 -> 318 [penwidth=2]
    252 -> 100 [penwidth=2]
    252 -> 354 [penwidth=2]
    252 -> 86 [penwidth=2]
    252 -> 78 [penwidth=2]
    252 -> 29 [penwidth=2]
    252 -> 396 [penwidth=2]
    252 -> 62 [penwidth=2]
    252 -> 76 [penwidth=2]
    252 -> 176 [penwidth=2]
    252 -> 32 [penwidth=2]
    252 -> 24 [penwidth=2]
    252 -> 51 [penwidth=2]
    252 -> 37 [penwidth=2]
    252 -> 358 [penwidth=2]
    252 -> 184 [penwidth=2]
    252 -> 147 [penwidth=2]
    252 -> 53 [penwidth=2]
    252 -> 95 [penwidth=2]
    252 -> 35 [penwidth=2]
    252 -> 356 [penwidth=2]
    252 -> 56 [penwidth=2]
    252 -> 48 [penwidth=2]
    252 -> 179 [penwidth=2]
    252 -> 79 [penwidth=2]
    252 -> 80 [penwidth=2]
    252 -> 38 [penwidth=2]
    252 -> 361 [penwidth=2]
    252 -> 45 [penwidth=2]
    302 -> 317 [penwidth=2]
    302 -> 353 [penwidth=2]
    302 -> 396 [penwidth=2]
    302 -> 48 [penwidth=2]
    302 -> 40 [penwidth=2]
    302 -> 166 [penwidth=2]
    302 -> 28 [penwidth=2]
    302 -> 95 [penwidth=2]
    302 -> 52 [penwidth=2]
    302 -> 314 [penwidth=2]
    302 -> 154 [penwidth=2]
    302 -> 177 [penwidth=2]
    302 -> 313 [penwidth=2]
    302 -> 155 [penwidth=2]
    302 -> 395 [penwidth=2]
    302 -> 179 [penwidth=2]
    302 -> 399 [penwidth=2]
    302 -> 163 [penwidth=2]
    302 -> 80 [penwidth=2]
    302 -> 51 [penwidth=2]
    302 -> 23 [penwidth=2]
    302 -> 44 [penwidth=2]
    302 -> 88 [penwidth=2]
    302 -> 173 [penwidth=2]
    302 -> 35 [penwidth=2]
    302 -> 168 [penwidth=2]
    302 -> 43 [penwidth=2]
    302 -> 146 [penwidth=2]
    302 -> 170 [penwidth=2]
    302 -> 32 [penwidth=2]
    302 -> 147 [penwidth=2]
    302 -> 316 [penwidth=2]
    302 -> 176 [penwidth=2]
    302 -> 98 [penwidth=2]
    302 -> 153 [penwidth=2]
    302 -> 149 [penwidth=2]
    302 -> 148 [penwidth=2]
    302 -> 36 [penwidth=2]
    302 -> 57 [penwidth=2]
    310 -> 180 [penwidth=2]
    310 -> 37 [penwidth=2]
    310 -> 34 [penwidth=2]
    310 -> 78 [penwidth=2]
    310 -> 317 [penwidth=2]
    310 -> 89 [penwidth=2]
    310 -> 150 [penwidth=2]
    310 -> 41 [penwidth=2]
    310 -> 36 [penwidth=2]
    310 -> 98 [penwidth=2]
    310 -> 38 [penwidth=2]
    310 -> 314 [penwidth=2]
    310 -> 153 [penwidth=2]
    310 -> 30 [penwidth=2]
    310 -> 168 [penwidth=2]
    310 -> 32 [penwidth=2]
    310 -> 181 [penwidth=2]
    310 -> 57 [penwidth=2]
    310 -> 76 [penwidth=2]
    310 -> 315 [penwidth=2]
    310 -> 163 [penwidth=2]
    310 -> 399 [penwidth=2]
    310 -> 64 [penwidth=2]
    310 -> 320 [penwidth=2]
    310 -> 160 [penwidth=2]
    310 -> 323 [penwidth=2]
    310 -> 361 [penwidth=2]
    310 -> 175 [penwidth=2]
    310 -> 90 [penwidth=2]
    310 -> 316 [penwidth=2]
    310 -> 179 [penwidth=2]
    310 -> 313 [penwidth=2]
    310 -> 166 [penwidth=2]
    310 -> 174 [penwidth=2]
    310 -> 86 [penwidth=2]
    310 -> 51 [penwidth=2]
    310 -> 25 [penwidth=2]
    310 -> 73 [penwidth=2]
    310 -> 72 [penwidth=2]
    310 -> 169 [penwidth=2]
    310 -> 50 [penwidth=2]
    310 -> 92 [penwidth=2]
    310 -> 319 [penwidth=2]
    310 -> 162 [penwidth=2]
    310 -> 49 [penwidth=2]
    310 -> 22 [penwidth=2]
    310 -> 359 [penwidth=2]
    310 -> 31 [penwidth=2]
    310 -> 353 [penwidth=2]
    310 -> 151 [penwidth=2]
    310 -> 362 [penwidth=2]
    310 -> 99 [penwidth=2]
    310 -> 158 [penwidth=2]
    310 -> 182 [penwidth=2]
    310 -> 69 [penwidth=2]
    310 -> 95 [penwidth=2]
    310 -> 46 [penwidth=2]
    310 -> 48 [penwidth=2]
    310 -> 365 [penwidth=2]
    185 -> 77 [penwidth=2]
    185 -> 179 [penwidth=2]
    185 -> 21 [penwidth=2]
    185 -> 156 [penwidth=2]
    185 -> 55 [penwidth=2]
    185 -> 158 [penwidth=2]
    185 -> 41 [penwidth=2]
    185 -> 94 [penwidth=2]
    185 -> 51 [penwidth=2]
    185 -> 398 [penwidth=2]
    185 -> 149 [penwidth=2]
    185 -> 91 [penwidth=2]
    185 -> 89 [penwidth=2]
    185 -> 27 [penwidth=2]
    185 -> 66 [penwidth=2]
    185 -> 356 [penwidth=2]
    185 -> 22 [penwidth=2]
    185 -> 71 [penwidth=2]
    185 -> 25 [penwidth=2]
    185 -> 43 [penwidth=2]
    185 -> 100 [penwidth=2]
    185 -> 68 [penwidth=2]
    185 -> 57 [penwidth=2]
    185 -> 75 [penwidth=2]
    185 -> 355 [penwidth=2]
    185 -> 162 [penwidth=2]
    185 -> 321 [penwidth=2]
    185 -> 63 [penwidth=2]
    185 -> 155 [penwidth=2]
    185 -> 323 [penwidth=2]
    185 -> 48 [penwidth=2]
    185 -> 184 [penwidth=2]
    185 -> 93 [penwidth=2]
    185 -> 150 [penwidth=2]
    185 -> 170 [penwidth=2]
    185 -> 362 [penwidth=2]
    185 -> 79 [penwidth=2]
    185 -> 88 [penwidth=2]
    185 -> 30 [penwidth=2]
    185 -> 23 [penwidth=2]
    185 -> 183 [penwidth=2]
    185 -> 98 [penwidth=2]
    185 -> 395 [penwidth=2]
    185 -> 76 [penwidth=2]
    185 -> 311 [penwidth=2]
    185 -> 148 [penwidth=2]
    185 -> 28 [penwidth=2]
    185 -> 73 [penwidth=2]
    185 -> 322 [penwidth=2]
    185 -> 353 [penwidth=2]
    185 -> 358 [penwidth=2]
    185 -> 152 [penwidth=2]
    185 -> 56 [penwidth=2]
    185 -> 175 [penwidth=2]
    185 -> 317 [penwidth=2]
    185 -> 397 [penwidth=2]
    185 -> 62 [penwidth=2]
    185 -> 153 [penwidth=2]
    185 -> 46 [penwidth=2]
    185 -> 360 [penwidth=2]
    198 -> 21 [penwidth=2]
    198 -> 85 [penwidth=2]
    198 -> 166 [penwidth=2]
    198 -> 89 [penwidth=2]
    198 -> 70 [penwidth=2]
    212 -> 358 [penwidth=2]
    212 -> 179 [penwidth=2]
    212 -> 320 [penwidth=2]
    212 -> 364 [penwidth=2]
    212 -> 363 [penwidth=2]
    212 -> 156 [penwidth=2]
    212 -> 154 [penwidth=2]
    212 -> 175 [penwidth=2]
    212 -> 47 [penwidth=2]
    212 -> 360 [penwidth=2]
    212 -> 33 [penwidth=2]
    212 -> 151 [penwidth=2]
    212 -> 397 [penwidth=2]
    212 -> 159 [penwidth=2]
    212 -> 361 [penwidth=2]
    212 -> 91 [penwidth=2]
    212 -> 322 [penwidth=2]
    212 -> 173 [penwidth=2]
    212 -> 74 [penwidth=2]
    212 -> 41 [penwidth=2]
    212 -> 181 [penwidth=2]
    212 -> 354 [penwidth=2]
    212 -> 63 [penwidth=2]
    212 -> 23 [penwidth=2]
    212 -> 25 [penwidth=2]
    212 -> 57 [penwidth=2]
    212 -> 58 [penwidth=2]
    212 -> 166 [penwidth=2]
    212 -> 96 [penwidth=2]
    212 -> 171 [penwidth=2]
    212 -> 395 [penwidth=2]
    212 -> 88 [penwidth=2]
    212 -> 64 [penwidth=2]
    212 -> 182 [penwidth=2]
    212 -> 317 [penwidth=2]
    212 -> 67 [penwidth=2]
    212 -> 53 [penwidth=2]
    212 -> 153 [penwidth=2]
    212 -> 90 [penwidth=2]
    212 -> 49 [penwidth=2]
    212 -> 45 [penwidth=2]
    212 -> 399 [penwidth=2]
    212 -> 27 [penwidth=2]
    212 -> 167 [penwidth=2]
    212 -> 160 [penwidth=2]
    212 -> 355 [penwidth=2]
    212 -> 83 [penwidth=2]
    212 -> 40 [penwidth=2]
    212 -> 44 [penwidth=2]
    212 -> 76 [penwidth=2]
    212 -> 172 [penwidth=2]
    212 -> 99 [penwidth=2]
    212 -> 163 [penwidth=2]
    212 -> 162 [penwidth=2]
    212 -> 314 [penwidth=2]
    212 -> 80 [penwidth=2]
    212 -> 168 [penwidth=2]
    212 -> 71 [penwidth=2]
    212 -> 93 [penwidth=2]
    212 -> 155 [penwidth=2]
    212 -> 81 [penwidth=2]
    212 -> 51 [penwidth=2]
    212 -> 31 [penwidth=2]
    212 -> 84 [penwidth=2]
    212 -> 353 [penwidth=2]
    212 -> 396 [penwidth=2]
    212 -> 85 [penwidth=2]
    212 -> 37 [penwidth=2]
    212 -> 170 [penwidth=2]
    212 -> 20 [penwidth=2]
    212 -> 43 [penwidth=2]
    212 -> 68 [penwidth=2]
    212 -> 70 [penwidth=2]
    212 -> 146 [penwidth=2]
    212 -> 35 [penwidth=2]
    212 -> 315 [penwidth=2]
    212 -> 87 [penwidth=2]
    212 -> 36 [penwidth=2]
    212 -> 26 [penwidth=2]
    212 -> 89 [penwidth=2]
    212 -> 50 [penwidth=2]
    212 -> 22 [penwidth=2]
    212 -> 161 [penwidth=2]
    212 -> 28 [penwidth=2]
    212 -> 42 [penwidth=2]
    212 -> 98 [penwidth=2]
    212 -> 95 [penwidth=2]
    212 -> 398 [penwidth=2]
    212 -> 92 [penwidth=2]
    212 -> 184 [penwidth=2]
    212 -> 39 [penwidth=2]
    212 -> 78 [penwidth=2]
    212 -> 34 [penwidth=2]
    212 -> 149 [penwidth=2]
    212 -> 69 [penwidth=2]
    212 -> 178 [penwidth=2]
    212 -> 73 [penwidth=2]
    212 -> 356 [penwidth=2]
    212 -> 174 [penwidth=2]
    212 -> 56 [penwidth=2]
    212 -> 62 [penwidth=2]
    212 -> 65 [penwidth=2]
    212 -> 158 [penwidth=2]
    212 -> 365 [penwidth=2]
    212 -> 152 [penwidth=2]
    212 -> 321 [penwidth=2]
    212 -> 82 [penwidth=2]
    212 -> 77 [penwidth=2]
    212 -> 72 [penwidth=2]
    212 -> 312 [penwidth=2]
    212 -> 157 [penwidth=2]
    212 -> 48 [penwidth=2]
    212 -> 21 [penwidth=2]
    212 -> 316 [penwidth=2]
    212 -> 66 [penwidth=2]
    212 -> 176 [penwidth=2]
    212 -> 177 [penwidth=2]
    212 -> 38 [penwidth=2]
    212 -> 52 [penwidth=2]
    212 -> 147 [penwidth=2]
    212 -> 32 [penwidth=2]
    212 -> 164 [penwidth=2]
    212 -> 79 [penwidth=2]
    212 -> 311 [penwidth=2]
    212 -> 46 [penwidth=2]
    212 -> 359 [penwidth=2]
    212 -> 29 [penwidth=2]
    212 -> 357 [penwidth=2]
    212 -> 313 [penwidth=2]
    217 -> 153 [penwidth=2]
    217 -> 318 [penwidth=2]
    217 -> 358 [penwidth=2]
    217 -> 147 [penwidth=2]
    217 -> 22 [penwidth=2]
    217 -> 89 [penwidth=2]
    217 -> 78 [penwidth=2]
    217 -> 91 [penwidth=2]
    217 -> 33 [penwidth=2]
    217 -> 319 [penwidth=2]
    217 -> 58 [penwidth=2]
    217 -> 179 [penwidth=2]
    217 -> 161 [penwidth=2]
    217 -> 83 [penwidth=2]
    217 -> 323 [penwidth=2]
    217 -> 398 [penwidth=2]
    217 -> 94 [penwidth=2]
    217 -> 41 [penwidth=2]
    217 -> 86 [penwidth=2]
    217 -> 73 [penwidth=2]
    217 -> 98 [penwidth=2]
    217 -> 57 [penwidth=2]
    217 -> 31 [penwidth=2]
    217 -> 67 [penwidth=2]
    217 -> 66 [penwidth=2]
    217 -> 90 [penwidth=2]
    217 -> 180 [penwidth=2]
    217 -> 362 [penwidth=2]
    217 -> 360 [penwidth=2]
    225 -> 166 [penwidth=2]
    225 -> 48 [penwidth=2]
    225 -> 36 [penwidth=2]
    225 -> 97 [penwidth=2]
    225 -> 42 [penwidth=2]
    225 -> 170 [penwidth=2]
    225 -> 152 [penwidth=2]
    225 -> 65 [penwidth=2]
    225 -> 317 [penwidth=2]
    225 -> 361 [penwidth=2]
    225 -> 150 [penwidth=2]
    225 -> 67 [penwidth=2]
    225 -> 35 [penwidth=2]
    225 -> 44 [penwidth=2]
    225 -> 360 [penwidth=2]
    225 -> 38 [penwidth=2]
    225 -> 165 [penwidth=2]
    225 -> 31 [penwidth=2]
    225 -> 160 [penwidth=2]
    225 -> 82 [penwidth=2]
    225 -> 20 [penwidth=2]
    225 -> 323 [penwidth=2]
    225 -> 155 [penwidth=2]
    225 -> 172 [penwidth=2]
    225 -> 84 [penwidth=2]
    225 -> 363 [penwidth=2]
    225 -> 83 [penwidth=2]
    225 -> 157 [penwidth=2]
    225 -> 320 [penwidth=2]
    225 -> 147 [penwidth=2]
    225 -> 311 [penwidth=2]
    225 -> 29 [penwidth=2]
    225 -> 179 [penwidth=2]
    225 -> 89 [penwidth=2]
    225 -> 69 [penwidth=2]
    225 -> 43 [penwidth=2]
    225 -> 32 [penwidth=2]
    225 -> 158 [penwidth=2]
    225 -> 66 [penwidth=2]
    225 -> 51 [penwidth=2]
    225 -> 88 [penwidth=2]
    225 -> 50 [penwidth=2]
    225 -> 156 [penwidth=2]
    225 -> 86 [penwidth=2]
    225 -> 153 [penwidth=2]
    225 -> 397 [penwidth=2]
    225 -> 173 [penwidth=2]
    225 -> 70 [penwidth=2]
    225 -> 177 [penwidth=2]
    225 -> 76 [penwidth=2]
    225 -> 30 [penwidth=2]
    225 -> 39 [penwidth=2]
    105 -> 54 [penwidth=2]
    105 -> 53 [penwidth=2]
    105 -> 35 [penwidth=2]
    105 -> 319 [penwidth=2]
    105 -> 364 [penwidth=2]
    105 -> 152 [penwidth=2]
    105 -> 71 [penwidth=2]
    105 -> 29 [penwidth=2]
    105 -> 149 [penwidth=2]
    105 -> 96 [penwidth=2]
    105 -> 316 [penwidth=2]
    105 -> 177 [penwidth=2]
    105 -> 67 [penwidth=2]
    105 -> 76 [penwidth=2]
    105 -> 183 [penwidth=2]
    105 -> 48 [penwidth=2]
    105 -> 360 [penwidth=2]
    105 -> 77 [penwidth=2]
    105 -> 57 [penwidth=2]
    105 -> 63 [penwidth=2]
    105 -> 312 [penwidth=2]
    105 -> 22 [penwidth=2]
    105 -> 320 [penwidth=2]
    105 -> 51 [penwidth=2]
    105 -> 65 [penwidth=2]
    105 -> 56 [penwidth=2]
    105 -> 92 [penwidth=2]
    105 -> 33 [penwidth=2]
    105 -> 79 [penwidth=2]
    105 -> 155 [penwidth=2]
    105 -> 169 [penwidth=2]
    105 -> 151 [penwidth=2]
    105 -> 75 [penwidth=2]
    105 -> 165 [penwidth=2]
    105 -> 175 [penwidth=2]
    105 -> 70 [penwidth=2]
    105 -> 323 [penwidth=2]
    105 -> 358 [penwidth=2]
    105 -> 74 [penwidth=2]
    105 -> 174 [penwidth=2]
    105 -> 87 [penwidth=2]
    105 -> 158 [penwidth=2]
    105 -> 164 [penwidth=2]
    105 -> 356 [penwidth=2]
    105 -> 147 [penwidth=2]
    105 -> 180 [penwidth=2]
    105 -> 159 [penwidth=2]
    105 -> 398 [penwidth=2]
    105 -> 357 [penwidth=2]
    105 -> 46 [penwidth=2]
    105 -> 84 [penwidth=2]
    105 -> 161 [penwidth=2]
    105 -> 30 [penwidth=2]
    105 -> 82 [penwidth=2]
    105 -> 90 [penwidth=2]
    105 -> 78 [penwidth=2]
    105 -> 69 [penwidth=2]
    105 -> 26 [penwidth=2]
    105 -> 81 [penwidth=2]
    105 -> 62 [penwidth=2]
    105 -> 95 [penwidth=2]
    105 -> 355 [penwidth=2]
    105 -> 396 [penwidth=2]
    105 -> 68 [penwidth=2]
    105 -> 52 [penwidth=2]
    105 -> 157 [penwidth=2]
    105 -> 313 [penwidth=2]
    105 -> 88 [penwidth=2]
    105 -> 72 [penwidth=2]
    105 -> 173 [penwidth=2]
    105 -> 317 [penwidth=2]
    105 -> 395 [penwidth=2]
    105 -> 397 [penwidth=2]
    105 -> 93 [penwidth=2]
    105 -> 399 [penwidth=2]
    105 -> 359 [penwidth=2]
    105 -> 365 [penwidth=2]
    105 -> 23 [penwidth=2]
    105 -> 153 [penwidth=2]
    105 -> 64 [penwidth=2]
    105 -> 20 [penwidth=2]
    105 -> 184 [penwidth=2]
    105 -> 154 [penwidth=2]
    105 -> 179 [penwidth=2]
    105 -> 167 [penwidth=2]
    105 -> 32 [penwidth=2]
    105 -> 172 [penwidth=2]
    105 -> 38 [penwidth=2]
    105 -> 163 [penwidth=2]
    105 -> 181 [penwidth=2]
    105 -> 37 [penwidth=2]
    105 -> 44 [penwidth=2]
    105 -> 50 [penwidth=2]
    105 -> 362 [penwidth=2]
    105 -> 156 [penwidth=2]
    105 -> 24 [penwidth=2]
    105 -> 363 [penwidth=2]
    105 -> 322 [penwidth=2]
    105 -> 354 [penwidth=2]
    105 -> 34 [penwidth=2]
    105 -> 314 [penwidth=2]
    105 -> 28 [penwidth=2]
    105 -> 182 [penwidth=2]
    105 -> 36 [penwidth=2]
    105 -> 58 [penwidth=2]
    105 -> 89 [penwidth=2]
    114 -> 45 [penwidth=2]
    114 -> 20 [penwidth=2]
    114 -> 312 [penwidth=2]
    114 -> 168 [penwidth=2]
    114 -> 178 [penwidth=2]
    114 -> 355 [penwidth=2]
    114 -> 180 [penwidth=2]
    114 -> 36 [penwidth=2]
    114 -> 43 [penwidth=2]
    114 -> 395 [penwidth=2]
    114 -> 89 [penwidth=2]
    114 -> 321 [penwidth=2]
    114 -> 84 [penwidth=2]
    114 -> 28 [penwidth=2]
    114 -> 44 [penwidth=2]
    114 -> 58 [penwidth=2]
    114 -> 26 [penwidth=2]
    114 -> 170 [penwidth=2]
    115 -> 28 [penwidth=2]
    115 -> 312 [penwidth=2]
    115 -> 62 [penwidth=2]
    115 -> 360 [penwidth=2]
    115 -> 358 [penwidth=2]
    115 -> 166 [penwidth=2]
    115 -> 182 [penwidth=2]
    115 -> 363 [penwidth=2]
    115 -> 151 [penwidth=2]
    115 -> 48 [penwidth=2]
    115 -> 64 [penwidth=2]
    115 -> 81 [penwidth=2]
    115 -> 317 [penwidth=2]
    115 -> 80 [penwidth=2]
    115 -> 396 [penwidth=2]
    115 -> 47 [penwidth=2]
    115 -> 66 [penwidth=2]
    115 -> 22 [penwidth=2]
    115 -> 45 [penwidth=2]
    115 -> 153 [penwidth=2]
    115 -> 171 [penwidth=2]
    115 -> 320 [penwidth=2]
    115 -> 184 [penwidth=2]
    115 -> 180 [penwidth=2]
    115 -> 316 [penwidth=2]
    115 -> 311 [penwidth=2]
    115 -> 24 [penwidth=2]
    115 -> 50 [penwidth=2]
    115 -> 148 [penwidth=2]
    115 -> 54 [penwidth=2]
    115 -> 41 [penwidth=2]
    115 -> 46 [penwidth=2]
    115 -> 93 [penwidth=2]
    115 -> 175 [penwidth=2]
    115 -> 97 [penwidth=2]
    115 -> 96 [penwidth=2]
    115 -> 168 [penwidth=2]
    115 -> 163 [penwidth=2]
    115 -> 159 [penwidth=2]
    115 -> 147 [penwidth=2]
    115 -> 359 [penwidth=2]
    115 -> 49 [penwidth=2]
    115 -> 52 [penwidth=2]
    115 -> 40 [penwidth=2]
    115 -> 98 [penwidth=2]
    115 -> 160 [penwidth=2]
    115 -> 355 [penwidth=2]
    115 -> 32 [penwidth=2]
    115 -> 364 [penwidth=2]
    115 -> 87 [penwidth=2]
    115 -> 313 [penwidth=2]
    115 -> 29 [penwidth=2]
    115 -> 42 [penwidth=2]
    115 -> 154 [penwidth=2]
    115 -> 397 [penwidth=2]
    115 -> 31 [penwidth=2]
    115 -> 25 [penwidth=2]
    115 -> 74 [penwidth=2]
    115 -> 179 [penwidth=2]
    115 -> 319 [penwidth=2]
    115 -> 362 [penwidth=2]
    115 -> 89 [penwidth=2]
    115 -> 70 [penwidth=2]
    115 -> 178 [penwidth=2]
    115 -> 34 [penwidth=2]
    115 -> 21 [penwidth=2]
    115 -> 356 [penwidth=2]
    115 -> 39 [penwidth=2]
    115 -> 90 [penwidth=2]
    115 -> 58 [penwidth=2]
    115 -> 76 [penwidth=2]
    115 -> 92 [penwidth=2]
    115 -> 173 [penwidth=2]
    115 -> 38 [penwidth=2]
    115 -> 164 [penwidth=2]
    115 -> 36 [penwidth=2]
    115 -> 315 [penwidth=2]
    115 -> 314 [penwidth=2]
    115 -> 44 [penwidth=2]
    115 -> 353 [penwidth=2]
    115 -> 27 [penwidth=2]
    115 -> 57 [penwidth=2]
    115 -> 176 [penwidth=2]
    115 -> 35 [penwidth=2]
    115 -> 65 [penwidth=2]
    115 -> 43 [penwidth=2]
    115 -> 398 [penwidth=2]
    115 -> 69 [penwidth=2]
    115 -> 169 [penwidth=2]
    115 -> 67 [penwidth=2]
    115 -> 71 [penwidth=2]
    115 -> 146 [penwidth=2]
    115 -> 177 [penwidth=2]
    115 -> 354 [penwidth=2]
    115 -> 77 [penwidth=2]
    115 -> 395 [penwidth=2]
    115 -> 37 [penwidth=2]
    117 -> 74 [penwidth=2]
    117 -> 175 [penwidth=2]
    117 -> 365 [penwidth=2]
    117 -> 25 [penwidth=2]
    117 -> 323 [penwidth=2]
    117 -> 168 [penwidth=2]
    117 -> 395 [penwidth=2]
    117 -> 182 [penwidth=2]
    117 -> 165 [penwidth=2]
    117 -> 170 [penwidth=2]
    117 -> 24 [penwidth=2]
    117 -> 169 [penwidth=2]
    117 -> 54 [penwidth=2]
    117 -> 21 [penwidth=2]
    117 -> 88 [penwidth=2]
    117 -> 363 [penwidth=2]
    117 -> 55 [penwidth=2]
    117 -> 37 [penwidth=2]
    117 -> 49 [penwidth=2]
    117 -> 318 [penwidth=2]
    117 -> 398 [penwidth=2]
    117 -> 156 [penwidth=2]
    117 -> 172 [penwidth=2]
    117 -> 313 [penwidth=2]
    117 -> 183 [penwidth=2]
    117 -> 92 [penwidth=2]
    117 -> 160 [penwidth=2]
    117 -> 184 [penwidth=2]
    117 -> 151 [penwidth=2]
    117 -> 355 [penwidth=2]
    117 -> 153 [penwidth=2]
    117 -> 73 [penwidth=2]
    117 -> 42 [penwidth=2]
    117 -> 174 [penwidth=2]
    117 -> 48 [penwidth=2]
    117 -> 41 [penwidth=2]
    117 -> 166 [penwidth=2]
    117 -> 64 [penwidth=2]
    117 -> 63 [penwidth=2]
    117 -> 57 [penwidth=2]
    117 -> 353 [penwidth=2]
    117 -> 399 [penwidth=2]
    117 -> 89 [penwidth=2]
    117 -> 154 [penwidth=2]
    117 -> 157 [penwidth=2]
    117 -> 396 [penwidth=2]
    117 -> 95 [penwidth=2]
    117 -> 80 [penwidth=2]
    117 -> 178 [penwidth=2]
    117 -> 100 [penwidth=2]
    117 -> 181 [penwidth=2]
    117 -> 35 [penwidth=2]
    117 -> 312 [penwidth=2]
    117 -> 76 [penwidth=2]
    117 -> 29 [penwidth=2]
    117 -> 164 [penwidth=2]
    117 -> 91 [penwidth=2]
    117 -> 311 [penwidth=2]
    117 -> 31 [penwidth=2]
    117 -> 94 [penwidth=2]
    117 -> 356 [penwidth=2]
    117 -> 78 [penwidth=2]
    117 -> 46 [penwidth=2]
    117 -> 171 [penwidth=2]
    117 -> 38 [penwidth=2]
    117 -> 79 [penwidth=2]
    117 -> 152 [penwidth=2]
    117 -> 33 [penwidth=2]
    117 -> 26 [penwidth=2]
    117 -> 67 [penwidth=2]
    117 -> 27 [penwidth=2]
    117 -> 316 [penwidth=2]
    117 -> 314 [penwidth=2]
    117 -> 99 [penwidth=2]
    117 -> 52 [penwidth=2]
    117 -> 98 [penwidth=2]
    117 -> 148 [penwidth=2]
    117 -> 43 [penwidth=2]
    117 -> 68 [penwidth=2]
    117 -> 317 [penwidth=2]
    117 -> 319 [penwidth=2]
    117 -> 146 [penwidth=2]
    117 -> 149 [penwidth=2]
    117 -> 364 [penwidth=2]
    117 -> 51 [penwidth=2]
    117 -> 20 [penwidth=2]
    117 -> 362 [penwidth=2]
    117 -> 81 [penwidth=2]
    117 -> 23 [penwidth=2]
    117 -> 71 [penwidth=2]
    117 -> 83 [penwidth=2]
    117 -> 163 [penwidth=2]
    117 -> 158 [penwidth=2]
    117 -> 177 [penwidth=2]
    117 -> 397 [penwidth=2]
    117 -> 66 [penwidth=2]
    117 -> 44 [penwidth=2]
    117 -> 85 [penwidth=2]
    117 -> 84 [penwidth=2]
    117 -> 40 [penwidth=2]
    117 -> 155 [penwidth=2]
    117 -> 315 [penwidth=2]
    117 -> 82 [penwidth=2]
    117 -> 357 [penwidth=2]
    117 -> 45 [penwidth=2]
    117 -> 97 [penwidth=2]
    117 -> 360 [penwidth=2]
    117 -> 359 [penwidth=2]
    117 -> 354 [penwidth=2]
    117 -> 90 [penwidth=2]
    117 -> 62 [penwidth=2]
    117 -> 72 [penwidth=2]
    117 -> 321 [penwidth=2]
    117 -> 36 [penwidth=2]
    117 -> 93 [penwidth=2]
    117 -> 173 [penwidth=2]
    117 -> 50 [penwidth=2]
    117 -> 87 [penwidth=2]
    117 -> 32 [penwidth=2]
    117 -> 65 [penwidth=2]
    117 -> 47 [penwidth=2]
    117 -> 86 [penwidth=2]
    117 -> 161 [penwidth=2]
    117 -> 159 [penwidth=2]
    117 -> 56 [penwidth=2]
    117 -> 162 [penwidth=2]
    117 -> 167 [penwidth=2]
    117 -> 75 [penwidth=2]
    117 -> 58 [penwidth=2]
    117 -> 77 [penwidth=2]
    117 -> 180 [penwidth=2]
    117 -> 176 [penwidth=2]
    117 -> 70 [penwidth=2]
    117 -> 39 [penwidth=2]
    117 -> 358 [penwidth=2]
    117 -> 30 [penwidth=2]
    117 -> 147 [penwidth=2]
    117 -> 53 [penwidth=2]
    117 -> 22 [penwidth=2]
    117 -> 322 [penwidth=2]
    117 -> 28 [penwidth=2]
    117 -> 320 [penwidth=2]
    117 -> 34 [penwidth=2]
    117 -> 69 [penwidth=2]
    120 -> 365 [penwidth=2]
    120 -> 92 [penwidth=2]
    120 -> 149 [penwidth=2]
    120 -> 313 [penwidth=2]
    120 -> 20 [penwidth=2]
    120 -> 151 [penwidth=2]
    120 -> 361 [penwidth=2]
    120 -> 153 [penwidth=2]
    120 -> 359 [penwidth=2]
    120 -> 52 [penwidth=2]
    120 -> 178 [penwidth=2]
    120 -> 354 [penwidth=2]
    120 -> 362 [penwidth=2]
    120 -> 397 [penwidth=2]
    120 -> 311 [penwidth=2]
    120 -> 174 [penwidth=2]
    120 -> 38 [penwidth=2]
    120 -> 353 [penwidth=2]
    120 -> 51 [penwidth=2]
    120 -> 98 [penwidth=2]
    120 -> 43 [penwidth=2]
    120 -> 182 [penwidth=2]
    120 -> 358 [penwidth=2]
    120 -> 82 [penwidth=2]
    120 -> 25 [penwidth=2]
    120 -> 157 [penwidth=2]
    120 -> 37 [penwidth=2]
    120 -> 363 [penwidth=2]
    120 -> 312 [penwidth=2]
    120 -> 184 [penwidth=2]
    120 -> 100 [penwidth=2]
    120 -> 147 [penwidth=2]
    120 -> 69 [penwidth=2]
    120 -> 87 [penwidth=2]
    120 -> 317 [penwidth=2]
    120 -> 44 [penwidth=2]
    120 -> 49 [penwidth=2]
    120 -> 146 [penwidth=2]
    120 -> 156 [penwidth=2]
    120 -> 177 [penwidth=2]
    120 -> 29 [penwidth=2]
    120 -> 62 [penwidth=2]
    120 -> 356 [penwidth=2]
    120 -> 89 [penwidth=2]
    122 -> 172 [penwidth=2]
    122 -> 354 [penwidth=2]
    122 -> 38 [penwidth=2]
    122 -> 152 [penwidth=2]
    122 -> 146 [penwidth=2]
    122 -> 170 [penwidth=2]
    122 -> 45 [penwidth=2]
    122 -> 85 [penwidth=2]
    122 -> 80 [penwidth=2]
    122 -> 318 [penwidth=2]
    122 -> 36 [penwidth=2]
    122 -> 353 [penwidth=2]
    122 -> 182 [penwidth=2]
    122 -> 311 [penwidth=2]
    122 -> 44 [penwidth=2]
    122 -> 174 [penwidth=2]
    122 -> 179 [penwidth=2]
    122 -> 148 [penwidth=2]
    122 -> 48 [penwidth=2]
    122 -> 313 [penwidth=2]
    122 -> 161 [penwidth=2]
    122 -> 180 [penwidth=2]
    122 -> 362 [penwidth=2]
    122 -> 160 [penwidth=2]
    122 -> 33 [penwidth=2]
    122 -> 74 [penwidth=2]
    122 -> 147 [penwidth=2]
    122 -> 39 [penwidth=2]
    122 -> 78 [penwidth=2]
    122 -> 92 [penwidth=2]
    122 -> 35 [penwidth=2]
    122 -> 30 [penwidth=2]
    122 -> 62 [penwidth=2]
    122 -> 66 [penwidth=2]
    122 -> 361 [penwidth=2]
    122 -> 43 [penwidth=2]
    122 -> 26 [penwidth=2]
    122 -> 357 [penwidth=2]
    122 -> 24 [penwidth=2]
    122 -> 37 [penwidth=2]
    122 -> 317 [penwidth=2]
    122 -> 316 [penwidth=2]
    122 -> 40 [penwidth=2]
    122 -> 50 [penwidth=2]
    122 -> 314 [penwidth=2]
    122 -> 91 [penwidth=2]
    122 -> 365 [penwidth=2]
    122 -> 22 [penwidth=2]
    122 -> 320 [penwidth=2]
    122 -> 322 [penwidth=2]
    122 -> 58 [penwidth=2]
    122 -> 363 [penwidth=2]
    122 -> 84 [penwidth=2]
    122 -> 175 [penwidth=2]
    122 -> 184 [penwidth=2]
    122 -> 88 [penwidth=2]
    122 -> 173 [penwidth=2]
    122 -> 100 [penwidth=2]
    122 -> 99 [penwidth=2]
    122 -> 73 [penwidth=2]
    122 -> 75 [penwidth=2]
    122 -> 90 [penwidth=2]
    122 -> 25 [penwidth=2]
    122 -> 98 [penwidth=2]
    122 -> 86 [penwidth=2]
    122 -> 23 [penwidth=2]
    122 -> 312 [penwidth=2]
    122 -> 360 [penwidth=2]
    122 -> 56 [penwidth=2]
    122 -> 315 [penwidth=2]
    122 -> 20 [penwidth=2]
    122 -> 171 [penwidth=2]
    122 -> 49 [penwidth=2]
    122 -> 395 [penwidth=2]
    122 -> 155 [penwidth=2]
    122 -> 79 [penwidth=2]
    122 -> 176 [penwidth=2]
    122 -> 168 [penwidth=2]
    122 -> 82 [penwidth=2]
    122 -> 70 [penwidth=2]
    122 -> 27 [penwidth=2]
    122 -> 183 [penwidth=2]
    122 -> 83 [penwidth=2]
    122 -> 165 [penwidth=2]
    122 -> 96 [penwidth=2]
    122 -> 153 [penwidth=2]
    122 -> 359 [penwidth=2]
    122 -> 57 [penwidth=2]
    122 -> 46 [penwidth=2]
    122 -> 72 [penwidth=2]
    122 -> 399 [penwidth=2]
    122 -> 156 [penwidth=2]
    122 -> 149 [penwidth=2]
    122 -> 319 [penwidth=2]
    122 -> 76 [penwidth=2]
    122 -> 53 [penwidth=2]
    122 -> 32 [penwidth=2]
    122 -> 164 [penwidth=2]
    122 -> 167 [penwidth=2]
    122 -> 29 [penwidth=2]
    122 -> 69 [penwidth=2]
    122 -> 154 [penwidth=2]
    122 -> 77 [penwidth=2]
    122 -> 358 [penwidth=2]
    122 -> 89 [penwidth=2]
    122 -> 67 [penwidth=2]
    122 -> 396 [penwidth=2]
    122 -> 63 [penwidth=2]
    122 -> 162 [penwidth=2]
    122 -> 181 [penwidth=2]
    122 -> 68 [penwidth=2]
    122 -> 398 [penwidth=2]
    122 -> 21 [penwidth=2]
    122 -> 31 [penwidth=2]
    122 -> 397 [penwidth=2]
    122 -> 54 [penwidth=2]
    122 -> 41 [penwidth=2]
    122 -> 64 [penwidth=2]
    122 -> 94 [penwidth=2]
    122 -> 157 [penwidth=2]
    122 -> 42 [penwidth=2]
    122 -> 34 [penwidth=2]
    122 -> 97 [penwidth=2]
    122 -> 93 [penwidth=2]
    122 -> 87 [penwidth=2]
    122 -> 151 [penwidth=2]
    122 -> 166 [penwidth=2]
    122 -> 321 [penwidth=2]
    122 -> 65 [penwidth=2]
    122 -> 364 [penwidth=2]
    122 -> 158 [penwidth=2]
    122 -> 28 [penwidth=2]
    122 -> 178 [penwidth=2]
    122 -> 71 [penwidth=2]
    122 -> 323 [penwidth=2]
    122 -> 51 [penwidth=2]
    122 -> 356 [penwidth=2]
    122 -> 159 [penwidth=2]
    122 -> 355 [penwidth=2]
    122 -> 55 [penwidth=2]
    122 -> 169 [penwidth=2]
    122 -> 47 [penwidth=2]
    122 -> 177 [penwidth=2]
    131 -> 69 [penwidth=2]
    131 -> 97 [penwidth=2]
    131 -> 315 [penwidth=2]
    131 -> 34 [penwidth=2]
    131 -> 54 [penwidth=2]
    131 -> 57 [penwidth=2]
    131 -> 163 [penwidth=2]
    131 -> 397 [penwidth=2]
    131 -> 52 [penwidth=2]
    131 -> 152 [penwidth=2]
    131 -> 88 [penwidth=2]
    131 -> 91 [penwidth=2]
    131 -> 171 [penwidth=2]
    131 -> 355 [penwidth=2]
    131 -> 358 [penwidth=2]
    131 -> 398 [penwidth=2]
    131 -> 83 [penwidth=2]
    131 -> 44 [penwidth=2]
    131 -> 100 [penwidth=2]
    131 -> 312 [penwidth=2]
    131 -> 99 [penwidth=2]
    131 -> 79 [penwidth=2]
    131 -> 313 [penwidth=2]
    131 -> 49 [penwidth=2]
    131 -> 356 [penwidth=2]
    131 -> 364 [penwidth=2]
    131 -> 314 [penwidth=2]
    131 -> 361 [penwidth=2]
    131 -> 321 [penwidth=2]
    131 -> 25 [penwidth=2]
    131 -> 180 [penwidth=2]
    131 -> 56 [penwidth=2]
    131 -> 45 [penwidth=2]
    131 -> 72 [penwidth=2]
    131 -> 354 [penwidth=2]
    131 -> 169 [penwidth=2]
    131 -> 146 [penwidth=2]
    131 -> 155 [penwidth=2]
    131 -> 23 [penwidth=2]
    131 -> 172 [penwidth=2]
    131 -> 33 [penwidth=2]
    131 -> 360 [penwidth=2]
    131 -> 170 [penwidth=2]
    131 -> 399 [penwidth=2]
    131 -> 357 [penwidth=2]
    131 -> 85 [penwidth=2]
    131 -> 182 [penwidth=2]
    131 -> 184 [penwidth=2]
    131 -> 82 [penwidth=2]
    131 -> 76 [penwidth=2]
    131 -> 363 [penwidth=2]
    131 -> 29 [penwidth=2]
    131 -> 94 [penwidth=2]
    131 -> 318 [penwidth=2]
    134 -> 53 [penwidth=2]
    134 -> 78 [penwidth=2]
    134 -> 183 [penwidth=2]
    134 -> 35 [penwidth=2]
    134 -> 172 [penwidth=2]
    134 -> 177 [penwidth=2]
    134 -> 29 [penwidth=2]
    134 -> 166 [penwidth=2]
    134 -> 71 [penwidth=2]
    134 -> 37 [penwidth=2]
    134 -> 180 [penwidth=2]
    134 -> 58 [penwidth=2]
    134 -> 163 [penwidth=2]
    134 -> 399 [penwidth=2]
    134 -> 357 [penwidth=2]
    135 -> 53 [penwidth=2]
    135 -> 77 [penwidth=2]
    135 -> 40 [penwidth=2]
    135 -> 167 [penwidth=2]
    135 -> 157 [penwidth=2]
    135 -> 92 [penwidth=2]
    135 -> 96 [penwidth=2]
    135 -> 358 [penwidth=2]
    135 -> 177 [penwidth=2]
    135 -> 74 [penwidth=2]
    135 -> 176 [penwidth=2]
    135 -> 56 [penwidth=2]
    135 -> 363 [penwidth=2]
    135 -> 182 [penwidth=2]
    135 -> 24 [penwidth=2]
    135 -> 67 [penwidth=2]
    135 -> 168 [penwidth=2]
}