digraph G {
    0 [penwidth=3,label="0"]
    1 [penwidth=3,label="1"]
    2 [penwidth=3,label="2"]
    3 [penwidth=3,label="3"]
    4 [penwidth=3,label="4"]
    5 [penwidth=3,label="5"]
    6 [penwidth=3,label="6"]
    7 [penwidth=3,label="7"]
    8 [penwidth=3,label="8"]
    9 [penwidth=3,label="9"]
    10 [penwidth=3,label="10"]
    11 [penwidth=3,label="11"]
    12 [penwidth=3,label="12"]
    13 [penwidth=3,label="13"]
    14 [penwidth=3,label="14"]
    15 [penwidth=3,label="15"]
    16 [penwidth=3,label="16"]
    17 [penwidth=3,label="17"]
    18 [penwidth=3,label="18"]
    19 [penwidth=3,label="19"]
    20 [penwidth=3,label="20"]
    21 [penwidth=3,label="21"]
    22 [penwidth=3,label="22"]
    23 [penwidth=3,label="23"]
    24 [penwidth=3,label="24"]
    25 [penwidth=3,label="25"]
    26 [penwidth=3,label="26"]
    27 [penwidth=3,label="27"]
    28 [penwidth=3,label="28"]
    29 [penwidth=3,label="29"]
    30 [penwidth=3,label="30"]
    31 [penwidth=3,label="31"]
    32 [penwidth=3,label="32"]
    33 [penwidth=3,label="33"]
    34 [penwidth=3,label="34"]
    35 [penwidth=3,label="35"]
    36 [penwidth=3,label="36"]
    37 [penwidth=3,label="37"]
    38 [penwidth=3,label="38"]
    39 [penwidth=3,label="39"]
    40 [penwidth=3,label="40"]
    41 [penwidth=3,label="41"]
    42 [penwidth=3,label="42"]
    43 [penwidth=3,label="43"]
    44 [penwidth=3,label="44"]
    45 [penwidth=3,label="45"]
    46 [penwidth=3,label="46"]
    47 [penwidth=3,label="47"]
    48 [penwidth=3,label="48"]
    49 [penwidth=3,label="49"]
    50 [penwidth=3,label="50"]
    51 [penwidth=3,label="51"]
    52 [penwidth=3,label="52"]
    53 [penwidth=3,label="53"]
    54 [penwidth=3,label="54"]
    55 [penwidth=3,label="55"]
    56 [penwidth=3,label="56"]
    57 [penwidth=3,label="57"]
    58 [penwidth=3,label="58"]
    59 [penwidth=3,label="59"]
    60 [penwidth=3,label="60"]
    61 [penwidth=3,label="61"]
    62 [penwidth=3,label="62"]
    63 [penwidth=3,label="63"]
    64 [penwidth=3,label="64"]
    65 [penwidth=3,label="65"]
    66 [penwidth=3,label="66"]
    67 [penwidth=3,label="67"]
    68 [penwidth=3,label="68"]
    69 [penwidth=3,label="69"]
    70 [penwidth=3,label="70"]
    71 [penwidth=3,label="71"]
    72 [penwidth=3,label="72"]
    73 [penwidth=3,label="73"]
    74 [penwidth=3,label="74"]
    75 [penwidth=3,label="75"]
    76 [penwidth=3,label="76"]
    77 [penwidth=3,label="77"]
    78 [penwidth=3,label="78"]
    79 [penwidth=3,label="79"]
    80 [penwidth=3,label="80"]
    81 [penwidth=3,label="81"]
    82 [penwidth=3,label="82"]
    83 [penwidth=3,label="83"]
    84 [penwidth=3,label="84"]
    85 [penwidth=3,label="85"]
    86 [penwidth=3,label="86"]
    87 [penwidth=3,label="87"]
    88 [penwidth=3,label="88"]
    89 [penwidth=3,label="89"]
    90 [penwidth=3,label="90"]
    91 [penwidth=3,label="91"]
    92 [penwidth=3,label="92"]
    93 [penwidth=3,label="93"]
    94 [penwidth=3,label="94"]
    95 [penwidth=3,label="95"]
    96 [penwidth=3,label="96"]
    97 [penwidth=3,label="97"]
    98 [penwidth=3,label="98"]
    99 [penwidth=3,label="99"]
    100 [penwidth=3,label="100"]
    101 [penwidth=3,label="101"]
    102 [penwidth=3,label="102"]
    103 [penwidth=3,label="103"]
    104 [penwidth=3,label="104"]
    105 [penwidth=3,label="105"]
    106 [penwidth=3,label="106"]
    107 [penwidth=3,label="107"]
    108 [penwidth=3,label="108"]
    109 [penwidth=3,label="109"]
    110 [penwidth=3,label="110"]
    111 [penwidth=3,label="111"]
    112 [penwidth=3,label="112"]
    113 [penwidth=3,label="113"]
    114 [penwidth=3,label="114"]
    115 [penwidth=3,label="115"]
    116 [penwidth=3,label="116"]
    117 [penwidth=3,label="117"]
    118 [penwidth=3,label="118"]
    119 [penwidth=3,label="119"]
    120 [penwidth=3,label="120"]
    121 [penwidth=3,label="121"]
    122 [penwidth=3,label="122"]
    123 [penwidth=3,label="123"]
    124 [penwidth=3,label="124"]
    125 [penwidth=3,label="125"]
    126 [penwidth=3,label="126"]
    127 [penwidth=3,label="127"]
    128 [penwidth=3,label="128"]
    129 [penwidth=3,label="129"]
    130 [penwidth=3,label="130"]
    131 [penwidth=3,label="131"]
    132 [penwidth=3,label="132"]
    133 [penwidth=3,label="133"]
    134 [penwidth=3,label="134"]
    135 [penwidth=3,label="135"]
    136 [penwidth=3,label="136"]
    137 [penwidth=3,label="137"]
    138 [penwidth=3,label="138"]
    139 [penwidth=3,label="139"]
    140 [penwidth=3,label="140"]
    141 [penwidth=3,label="141"]
    142 [penwidth=3,label="142"]
    143 [penwidth=3,label="143"]
    144 [penwidth=3,label="144"]
    145 [penwidth=3,label="145"]
    146 [penwidth=3,label="146"]
    147 [penwidth=3,label="147"]
    148 [penwidth=3,label="148"]
    149 [penwidth=3,label="149"]
    150 [penwidth=3,label="150"]
    151 [penwidth=3,label="151"]
    152 [penwidth=3,label="152"]
    153 [penwidth=3,label="153"]
    154 [penwidth=3,label="154"]
    155 [penwidth=3,label="155"]
    156 [penwidth=3,label="156"]
    157 [penwidth=3,label="157"]
    158 [penwidth=3,label="158"]
    159 [penwidth=3,label="159"]
    160 [penwidth=3,label="160"]
    161 [penwidth=3,label="161"]
    162 [penwidth=3,label="162"]
    163 [penwidth=3,label="163"]
    164 [penwidth=3,label="164"]
    165 [penwidth=3,label="165"]
    166 [penwidth=3,label="166"]
    167 [penwidth=3,label="167"]
    168 [penwidth=3,label="168"]
    169 [penwidth=3,label="169"]
    170 [penwidth=3,label="170"]
    171 [penwidth=3,label="171"]
    172 [penwidth=3,label="172"]
    173 [penwidth=3,label="173"]
    174 [penwidth=3,label="174"]
    175 [penwidth=3,label="175"]
    176 [penwidth=3,label="176"]
    177 [penwidth=3,label="177"]
    178 [penwidth=3,label="178"]
    179 [penwidth=3,label="179"]
    180 [penwidth=3,label="180"]
    181 [penwidth=3,label="181"]
    182 [penwidth=3,label="182"]
    183 [penwidth=3,label="183"]
    184 [penwidth=3,label="184"]
    185 [penwidth=3,label="185"]
    186 [penwidth=3,label="186"]
    187 [penwidth=3,label="187"]
    188 [penwidth=3,label="188"]
    189 [penwidth=3,label="189"]
    190 [penwidth=3,label="190"]
    191 [penwidth=3,label="191"]
    192 [penwidth=3,label="192"]
    193 [penwidth=3,label="193"]
    194 [penwidth=3,label="194"]
    195 [penwidth=3,label="195"]
    196 [penwidth=3,label="196"]
    197 [penwidth=3,label="197"]
    198 [penwidth=3,label="198"]
    199 [penwidth=3,label="199"]
    200 [penwidth=3,label="200"]
    201 [penwidth=3,label="201"]
    202 [penwidth=3,label="202"]
    203 [penwidth=3,label="203"]
    204 [penwidth=3,label="204"]
    205 [penwidth=3,label="205"]
    206 [penwidth=3,label="206"]
    207 [penwidth=3,label="207"]
    208 [penwidth=3,label="208"]
    209 [penwidth=3,label="209"]
    210 [penwidth=3,label="210"]
    211 [penwidth=3,label="211"]
    212 [penwidth=3,label="212"]
    213 [penwidth=3,label="213"]
    214 [penwidth=3,label="214"]
    215 [penwidth=3,label="215"]
    216 [penwidth=3,label="216"]
    217 [penwidth=3,label="217"]
    218 [penwidth=3,label="218"]
    219 [penwidth=3,label="219"]
    220 [penwidth=3,label="220"]
    221 [penwidth=3,label="221"]
    222 [penwidth=3,label="222"]
    223 [penwidth=3,label="223"]
    224 [penwidth=3,label="224"]
    225 [penwidth=3,label="225"]
    226 [penwidth=3,label="226"]
    227 [penwidth=3,label="227"]
    228 [penwidth=3,label="228"]
    229 [penwidth=3,label="229"]
    230 [penwidth=3,label="230"]
    231 [penwidth=3,label="231"]
    232 [penwidth=3,label="232"]
    233 [penwidth=3,label="233"]
    234 [penwidth=3,label="234"]
    235 [penwidth=3,label="235"]
    236 [penwidth=3,label="236"]
    237 [penwidth=3,label="237"]
    238 [penwidth=3,label="238"]
    239 [penwidth=3,label="239"]
    240 [penwidth=3,label="240"]
    241 [penwidth=3,label="241"]
    242 [penwidth=3,label="242"]
    243 [penwidth=3,label="243"]
    244 [penwidth=3,label="244"]
    245 [penwidth=3,label="245"]
    246 [penwidth=3,label="246"]
    247 [penwidth=3,label="247"]
    248 [penwidth=3,label="248"]
    249 [penwidth=3,label="249"]
    250 [penwidth=3,label="250"]
    251 [penwidth=3,label="251"]
    252 [penwidth=3,label="252"]
    253 [penwidth=3,label="253"]
    254 [penwidth=3,label="254"]
    255 [penwidth=3,label="255"]
    256 [penwidth=3,label="256"]
    257 [penwidth=3,label="257"]
    258 [penwidth=3,label="258"]
    259 [penwidth=3,label="259"]
    260 [penwidth=3,label="260"]
    261 [penwidth=3,label="261"]
    262 [penwidth=3,label="262"]
    263 [penwidth=3,label="263"]
    264 [penwidth=3,label="264"]
    265 [penwidth=3,label="265"]
    266 [penwidth=3,label="266"]
    267 [penwidth=3,label="267"]
    268 [penwidth=3,label="268"]
    269 [penwidth=3,label="269"]
    270 [penwidth=3,label="270"]
    271 [penwidth=3,label="271"]
    272 [penwidth=3,label="272"]
    273 [penwidth=3,label="273"]
    274 [penwidth=3,label="274"]
    275 [penwidth=3,label="275"]
    276 [penwidth=3,label="276"]
    277 [penwidth=3,label="277"]
    278 [penwidth=3,label="278"]
    279 [penwidth=3,label="279"]
    280 [penwidth=3,label="280"]
    281 [penwidth=3,label="281"]
    282 [penwidth=3,label="282"]
    283 [penwidth=3,label="283"]
    284 [penwidth=3,label="284"]
    285 [penwidth=3,label="285"]
    286 [penwidth=3,label="286"]
    287 [penwidth=3,label="287"]
    288 [penwidth=3,label="288"]
    289 [penwidth=3,label="289"]
    290 [penwidth=3,label="290"]
    291 [penwidth=3,label="291"]
    292 [penwidth=3,label="292"]
    293 [penwidth=3,label="293"]
    294 [penwidth=3,label="294"]
    295 [penwidth=3,label="295"]
    296 [penwidth=3,label="296"]
    297 [penwidth=3,label="297"]
    298 [penwidth=3,label="298"]
    299 [penwidth=3,label="299"]
    300 [penwidth=3,label="300"]
    301 [penwidth=3,label="301"]
    302 [penwidth=3,label="302"]
    303 [penwidth=3,label="303"]
    304 [penwidth=3,label="304"]
    305 [penwidth=3,label="305"]
    306 [penwidth=3,label="306"]
    307 [penwidth=3,label="307"]
    308 [penwidth=3,label="308"]
    309 [penwidth=3,label="309"]
    310 [penwidth=3,label="310"]
    311 [penwidth=3,label="311"]
    312 [penwidth=3,label="312"]
    313 [penwidth=3,label="313"]
    314 [penwidth=3,label="314"]
    315 [penwidth=3,label="315"]
    316 [penwidth=3,label="316"]
    317 [penwidth=3,label="317"]
    318 [penwidth=3,label="318"]
    319 [penwidth=3,label="319"]
    320 [penwidth=3,label="320"]
    321 [penwidth=3,label="321"]
    322 [penwidth=3,label="322"]
    323 [penwidth=3,label="323"]
    324 [penwidth=3,label="324"]
    325 [penwidth=3,label="325"]
    326 [penwidth=3,label="326"]
    327 [penwidth=3,label="327"]
    328 [penwidth=3,label="328"]
    329 [penwidth=3,label="329"]
    330 [penwidth=3,label="330"]
    331 [penwidth=3,label="331"]
    332 [penwidth=3,label="332"]
    333 [penwidth=3,label="333"]
    334 [penwidth=3,label="334"]
    335 [penwidth=3,label="335"]
    336 [penwidth=3,label="336"]
    337 [penwidth=3,label="337"]
    338 [penwidth=3,label="338"]
    339 [penwidth=3,label="339"]
    340 [penwidth=3,label="340"]
    341 [penwidth=3,label="341"]
    342 [penwidth=3,label="342"]
    343 [penwidth=3,label="343"]
    344 [penwidth=3,label="344"]
    345 [penwidth=3,label="345"]
    346 [penwidth=3,label="346"]
    347 [penwidth=3,label="347"]
    348 [penwidth=3,label="348"]
    349 [penwidth=3,label="349"]
    350 [penwidth=3,label="350"]
    351 [penwidth=3,label="351"]
    352 [penwidth=3,label="352"]
    353 [penwidth=3,label="353"]
    354 [penwidth=3,label="354"]
    355 [penwidth=3,label="355"]
    356 [penwidth=3,label="356"]
    357 [penwidth=3,label="357"]
    358 [penwidth=3,label="358"]
    359 [penwidth=3,label="359"]
    360 [penwidth=3,label="360"]
    361 [penwidth=3,label="361"]
    362 [penwidth=3,label="362"]
    363 [penwidth=3,label="363"]
    364 [penwidth=3,label="364"]
    365 [penwidth=3,label="365"]
    366 [penwidth=3,label="366"]
    367 [penwidth=3,label="367"]
    368 [penwidth=3,label="368"]
    369 [penwidth=3,label="369"]
    370 [penwidth=3,label="370"]
    371 [penwidth=3,label="371"]
    372 [penwidth=3,label="372"]
    373 [penwidth=3,label="373"]
    374 [penwidth=3,label="374"]
    375 [penwidth=3,label="375"]
    376 [penwidth=3,label="376"]
    377 [penwidth=3,label="377"]
    378 [penwidth=3,label="378"]
    379 [penwidth=3,label="379"]
    380 [penwidth=3,label="380"]
    381 [penwidth=3,label="381"]
    382 [penwidth=3,label="382"]
    383 [penwidth=3,label="383"]
    384 [penwidth=3,label="384"]
    385 [penwidth=3,label="385"]
    386 [penwidth=3,label="386"]
    387 [penwidth=3,label="387"]
    388 [penwidth=3,label="388"]
    389 [penwidth=3,label="389"]
    390 [penwidth=3,label="390"]
    391 [penwidth=3,label="391"]
    392 [penwidth=3,label="392"]
    393 [penwidth=3,label="393"]
    394 [penwidth=3,label="394"]
    395 [penwidth=3,label="395"]
    396 [penwidth=3,label="396"]
    397 [penwidth=3,label="397"]
    398 [penwidth=3,label="398"]
    399 [penwidth=3,label="399"]

    373 -> 0 [penwidth=2]
    374 -> 0 [penwidth=2]
    375 -> 0 [penwidth=2]
    376 -> 0 [penwidth=2]
    377 -> 0 [penwidth=2]
    378 -> 0 [penwidth=2]
    1 -> 373 [penwidth=2]
    379 -> 373 [penwidth=2]
    2 -> 373 [penwidth=2]
    380 -> 373 [penwidth=2]
    3 -> 373 [penwidth=2]
    381 -> 373 [penwidth=2]
    4 -> 373 [penwidth=2]
    382 -> 373 [penwidth=2]
    5 -> 373 [penwidth=2]
    383 -> 373 [penwidth=2]
    6 -> 373 [penwidth=2]
    384 -> 373 [penwidth=2]
    7 -> 373 [penwidth=2]
    385 -> 373 [penwidth=2]
    8 -> 374 [penwidth=2]
    386 -> 374 [penwidth=2]
    9 -> 374 [penwidth=2]
    387 -> 374 [penwidth=2]
    10 -> 374 [penwidth=2]
    388 -> 374 [penwidth=2]
    11 -> 374 [penwidth=2]
    389 -> 374 [penwidth=2]
    12 -> 374 [penwidth=2]
    390 -> 374 [penwidth=2]
    13 -> 374 [penwidth=2]
    391 -> 374 [penwidth=2]
    14 -> 374 [penwidth=2]
    392 -> 374 [penwidth=2]
    15 -> 374 [penwidth=2]
    393 -> 374 [penwidth=2]
    16 -> 375 [penwidth=2]
    394 -> 375 [penwidth=2]
    17 -> 375 [penwidth=2]
    395 -> 375 [penwidth=2]
    18 -> 375 [penwidth=2]
    396 -> 375 [penwidth=2]
    19 -> 375 [penwidth=2]
    397 -> 375 [penwidth=2]
    20 -> 375 [penwidth=2]
    398 -> 375 [penwidth=2]
    21 -> 375 [penwidth=2]
    399 -> 375 [penwidth=2]
    22 -> 375 [penwidth=2]
    23 -> 375 [penwidth=2]
    24 -> 375 [penwidth=2]
    25 -> 375 [penwidth=2]
    26 -> 375 [penwidth=2]
    27 -> 375 [penwidth=2]
    28 -> 375 [penwidth=2]
    29 -> 375 [penwidth=2]
    30 -> 375 [penwidth=2]
    31 -> 375 [penwidth=2]
    32 -> 375 [penwidth=2]
    33 -> 375 [penwidth=2]
    34 -> 375 [penwidth=2]
    35 -> 375 [penwidth=2]
    36 -> 375 [penwidth=2]
    37 -> 376 [penwidth=2]
    331 -> 376 [penwidth=2]
    38 -> 376 [penwidth=2]
    332 -> 376 [penwidth=2]
    39 -> 376 [penwidth=2]
    333 -> 376 [penwidth=2]
    40 -> 376 [penwidth=2]
    334 -> 376 [penwidth=2]
    41 -> 376 [penwidth=2]
    335 -> 376 [penwidth=2]
    42 -> 376 [penwidth=2]
    336 -> 376 [penwidth=2]
    43 -> 376 [penwidth=2]
    337 -> 376 [penwidth=2]
    44 -> 377 [penwidth=2]
    338 -> 377 [penwidth=2]
    45 -> 377 [penwidth=2]
    339 -> 377 [penwidth=2]
    46 -> 377 [penwidth=2]
    340 -> 377 [penwidth=2]
    47 -> 377 [penwidth=2]
    341 -> 377 [penwidth=2]
    48 -> 377 [penwidth=2]
    342 -> 377 [penwidth=2]
    49 -> 377 [penwidth=2]
    343 -> 377 [penwidth=2]
    50 -> 377 [penwidth=2]
    344 -> 377 [penwidth=2]
    51 -> 377 [penwidth=2]
    345 -> 377 [penwidth=2]
    52 -> 377 [penwidth=2]
    346 -> 377 [penwidth=2]
    53 -> 377 [penwidth=2]
    347 -> 377 [penwidth=2]
    54 -> 377 [penwidth=2]
    348 -> 378 [penwidth=2]
    55 -> 1 [penwidth=2]
    349 -> 1 [penwidth=2]
    56 -> 1 [penwidth=2]
    350 -> 1 [penwidth=2]
    57 -> 1 [penwidth=2]
    351 -> 1 [penwidth=2]
    58 -> 1 [penwidth=2]
    352 -> 1 [penwidth=2]
    59 -> 1 [penwidth=2]
    353 -> 1 [penwidth=2]
    60 -> 1 [penwidth=2]
    354 -> 1 [penwidth=2]
    61 -> 1 [penwidth=2]
    355 -> 1 [penwidth=2]
    62 -> 1 [penwidth=2]
    356 -> 1 [penwidth=2]
    63 -> 1 [penwidth=2]
    357 -> 1 [penwidth=2]
    64 -> 1 [penwidth=2]
    358 -> 1 [penwidth=2]
    65 -> 1 [penwidth=2]
    359 -> 1 [penwidth=2]
    66 -> 1 [penwidth=2]
    360 -> 1 [penwidth=2]
    67 -> 379 [penwidth=2]
    361 -> 379 [penwidth=2]
    68 -> 379 [penwidth=2]
    362 -> 379 [penwidth=2]
    69 -> 379 [penwidth=2]
    363 -> 379 [penwidth=2]
    70 -> 379 [penwidth=2]
    364 -> 379 [penwidth=2]
    71 -> 379 [penwidth=2]
    365 -> 379 [penwidth=2]
    72 -> 379 [penwidth=2]
    366 -> 379 [penwidth=2]
    73 -> 379 [penwidth=2]
    367 -> 379 [penwidth=2]
    74 -> 2 [penwidth=2]
    368 -> 2 [penwidth=2]
    75 -> 2 [penwidth=2]
    369 -> 2 [penwidth=2]
    76 -> 2 [penwidth=2]
    370 -> 2 [penwidth=2]
    77 -> 2 [penwidth=2]
    371 -> 2 [penwidth=2]
    78 -> 2 [penwidth=2]
    372 -> 2 [penwidth=2]
    247 -> 2 [penwidth=2]
    289 -> 2 [penwidth=2]
    248 -> 2 [penwidth=2]
    290 -> 2 [penwidth=2]
    249 -> 2 [penwidth=2]
    291 -> 380 [penwidth=2]
    250 -> 380 [penwidth=2]
    292 -> 380 [penwidth=2]
    251 -> 380 [penwidth=2]
    293 -> 380 [penwidth=2]
    252 -> 380 [penwidth=2]
    294 -> 380 [penwidth=2]
    253 -> 380 [penwidth=2]
    295 -> 380 [penwidth=2]
    254 -> 380 [penwidth=2]
    296 -> 380 [penwidth=2]
    255 -> 380 [penwidth=2]
    297 -> 380 [penwidth=2]
    256 -> 380 [penwidth=2]
    298 -> 380 [penwidth=2]
    257 -> 380 [penwidth=2]
    299 -> 380 [penwidth=2]
    258 -> 380 [penwidth=2]
    300 -> 380 [penwidth=2]
    259 -> 380 [penwidth=2]
    301 -> 380 [penwidth=2]
    260 -> 3 [penwidth=2]
    302 -> 3 [penwidth=2]
    261 -> 3 [penwidth=2]
    303 -> 3 [penwidth=2]
    262 -> 3 [penwidth=2]
    304 -> 3 [penwidth=2]
    263 -> 3 [penwidth=2]
    305 -> 3 [penwidth=2]
    264 -> 3 [penwidth=2]
    306 -> 3 [penwidth=2]
    265 -> 3 [penwidth=2]
    307 -> 3 [penwidth=2]
    266 -> 3 [penwidth=2]
    308 -> 3 [penwidth=2]
    267 -> 3 [penwidth=2]
    309 -> 3 [penwidth=2]
    268 -> 3 [penwidth=2]
    310 -> 3 [penwidth=2]
    269 -> 3 [penwidth=2]
    311 -> 3 [penwidth=2]
    270 -> 3 [penwidth=2]
    312 -> 3 [penwidth=2]
    271 -> 3 [penwidth=2]
    313 -> 4 [penwidth=2]
    272 -> 4 [penwidth=2]
    314 -> 4 [penwidth=2]
    273 -> 4 [penwidth=2]
    315 -> 4 [penwidth=2]
    274 -> 4 [penwidth=2]
    316 -> 4 [penwidth=2]
    275 -> 4 [penwidth=2]
    317 -> 4 [penwidth=2]
    276 -> 4 [penwidth=2]
    318 -> 4 [penwidth=2]
    277 -> 4 [penwidth=2]
    319 -> 4 [penwidth=2]
    278 -> 4 [penwidth=2]
    320 -> 4 [penwidth=2]
    279 -> 4 [penwidth=2]
    321 -> 4 [penwidth=2]
    280 -> 4 [penwidth=2]
    322 -> 4 [penwidth=2]
    281 -> 4 [penwidth=2]
    323 -> 4 [penwidth=2]
    282 -> 4 [penwidth=2]
    324 -> 4 [penwidth=2]
    283 -> 4 [penwidth=2]
    325 -> 382 [penwidth=2]
    284 -> 382 [penwidth=2]
    326 -> 382 [penwidth=2]
    285 -> 382 [penwidth=2]
    327 -> 382 [penwidth=2]
    286 -> 382 [penwidth=2]
    328 -> 382 [penwidth=2]
    287 -> 5 [penwidth=2]
    329 -> 5 [penwidth=2]
    288 -> 5 [penwidth=2]
    330 -> 5 [penwidth=2]
    205 -> 5 [penwidth=2]
    206 -> 5 [penwidth=2]
    207 -> 5 [penwidth=2]
    208 -> 383 [penwidth=2]
    209 -> 383 [penwidth=2]
    210 -> 6 [penwidth=2]
    211 -> 6 [penwidth=2]
    212 -> 6 [penwidth=2]
    213 -> 6 [penwidth=2]
    214 -> 6 [penwidth=2]
    215 -> 6 [penwidth=2]
    216 -> 6 [penwidth=2]
    217 -> 6 [penwidth=2]
    218 -> 6 [penwidth=2]
    219 -> 6 [penwidth=2]
    220 -> 6 [penwidth=2]
    221 -> 7 [penwidth=2]
    222 -> 7 [penwidth=2]
    223 -> 7 [penwidth=2]
    224 -> 7 [penwidth=2]
    225 -> 7 [penwidth=2]
    226 -> 7 [penwidth=2]
    227 -> 7 [penwidth=2]
    228 -> 7 [penwidth=2]
    229 -> 385 [penwidth=2]
    230 -> 385 [penwidth=2]
    231 -> 385 [penwidth=2]
    232 -> 385 [penwidth=2]
    233 -> 385 [penwidth=2]
    234 -> 385 [penwidth=2]
    235 -> 385 [penwidth=2]
    236 -> 385 [penwidth=2]
    237 -> 385 [penwidth=2]
    238 -> 385 [penwidth=2]
    239 -> 385 [penwidth=2]
    240 -> 385 [penwidth=2]
    241 -> 385 [penwidth=2]
    242 -> 385 [penwidth=2]
    243 -> 385 [penwidth=2]
    244 -> 385 [penwidth=2]
    245 -> 385 [penwidth=2]
    246 -> 385 [penwidth=2]
    121 -> 8 [penwidth=2]
    163 -> 8 [penwidth=2]
    122 -> 8 [penwidth=2]
    164 -> 8 [penwidth=2]
    123 -> 8 [penwidth=2]
    165 -> 8 [penwidth=2]
    124 -> 8 [penwidth=2]
    166 -> 8 [penwidth=2]
    125 -> 8 [penwidth=2]
    167 -> 8 [penwidth=2]
    126 -> 8 [penwidth=2]
    168 -> 8 [penwidth=2]
    127 -> 8 [penwidth=2]
    169 -> 8 [penwidth=2]
    128 -> 8 [penwidth=2]
    170 -> 8 [penwidth=2]
    129 -> 8 [penwidth=2]
    171 -> 8 [penwidth=2]
    130 -> 8 [penwidth=2]
    172 -> 8 [penwidth=2]
    131 -> 8 [penwidth=2]
    173 -> 8 [penwidth=2]
    132 -> 8 [penwidth=2]
    174 -> 8 [penwidth=2]
    133 -> 8 [penwidth=2]
    175 -> 386 [penwidth=2]
    134 -> 386 [penwidth=2]
    176 -> 386 [penwidth=2]
    135 -> 386 [penwidth=2]
    177 -> 386 [penwidth=2]
    136 -> 386 [penwidth=2]
    178 -> 386 [penwidth=2]
    137 -> 386 [penwidth=2]
    179 -> 386 [penwidth=2]
    138 -> 386 [penwidth=2]
    180 -> 386 [penwidth=2]
    139 -> 386 [penwidth=2]
    181 -> 386 [penwidth=2]
    140 -> 386 [penwidth=2]
    182 -> 386 [penwidth=2]
    141 -> 386 [penwidth=2]
    183 -> 386 [penwidth=2]
    142 -> 386 [penwidth=2]
    184 -> 386 [penwidth=2]
    143 -> 386 [penwidth=2]
    185 -> 386 [penwidth=2]
    144 -> 386 [penwidth=2]
    186 -> 386 [penwidth=2]
    145 -> 386 [penwidth=2]
    187 -> 386 [penwidth=2]
    146 -> 386 [penwidth=2]
    188 -> 9 [penwidth=2]
    147 -> 9 [penwidth=2]
    189 -> 9 [penwidth=2]
    148 -> 9 [penwidth=2]
    190 -> 9 [penwidth=2]
    149 -> 9 [penwidth=2]
    191 -> 9 [penwidth=2]
    150 -> 9 [penwidth=2]
    192 -> 9 [penwidth=2]
    151 -> 9 [penwidth=2]
    193 -> 9 [penwidth=2]
    152 -> 9 [penwidth=2]
    194 -> 9 [penwidth=2]
    153 -> 9 [penwidth=2]
    195 -> 9 [penwidth=2]
    154 -> 9 [penwidth=2]
    196 -> 387 [penwidth=2]
    155 -> 387 [penwidth=2]
    197 -> 387 [penwidth=2]
    156 -> 387 [penwidth=2]
    198 -> 387 [penwidth=2]
    157 -> 387 [penwidth=2]
    199 -> 387 [penwidth=2]
    158 -> 387 [penwidth=2]
    200 -> 10 [penwidth=2]
    159 -> 10 [penwidth=2]
    201 -> 388 [penwidth=2]
    160 -> 388 [penwidth=2]
    202 -> 388 [penwidth=2]
    161 -> 388 [penwidth=2]
    203 -> 388 [penwidth=2]
    162 -> 388 [penwidth=2]
    204 -> 388 [penwidth=2]
    79 -> 388 [penwidth=2]
    80 -> 388 [penwidth=2]
    81 -> 388 [penwidth=2]
    82 -> 388 [penwidth=2]
    83 -> 388 [penwidth=2]
    84 -> 388 [penwidth=2]
    85 -> 388 [penwidth=2]
    86 -> 388 [penwidth=2]
    87 -> 388 [penwidth=2]
    88 -> 388 [penwidth=2]
    89 -> 388 [penwidth=2]
    90 -> 388 [penwidth=2]
    91 -> 388 [penwidth=2]
    92 -> 388 [penwidth=2]
    93 -> 11 [penwidth=2]
    94 -> 11 [penwidth=2]
    95 -> 11 [penwidth=2]
    96 -> 11 [penwidth=2]
    97 -> 11 [penwidth=2]
    98 -> 11 [penwidth=2]
    99 -> 11 [penwidth=2]
    100 -> 11 [penwidth=2]
    101 -> 11 [penwidth=2]
    102 -> 11 [penwidth=2]
    103 -> 11 [penwidth=2]
    104 -> 11 [penwidth=2]
    105 -> 11 [penwidth=2]
    106 -> 11 [penwidth=2]
    107 -> 11 [penwidth=2]
    108 -> 11 [penwidth=2]
    109 -> 11 [penwidth=2]
    110 -> 11 [penwidth=2]
    111 -> 11 [penwidth=2]
    112 -> 11 [penwidth=2]
    113 -> 11 [penwidth=2]
    114 -> 11 [penwidth=2]
    115 -> 11 [penwidth=2]
    116 -> 11 [penwidth=2]
    117 -> 11 [penwidth=2]
    118 -> 389 [penwidth=2]
    119 -> 389 [penwidth=2]
    120 -> 389 [penwidth=2]
    6 -> 374 [penwidth=2]
    6 -> 375 [penwidth=2]
    6 -> 376 [penwidth=2]
    18 -> 378 [penwidth=2]
    18 -> 373 [penwidth=2]
    18 -> 377 [penwidth=2]
    18 -> 376 [penwidth=2]
    339 -> 373 [penwidth=2]
    47 -> 373 [penwidth=2]
    47 -> 375 [penwidth=2]
    342 -> 376 [penwidth=2]
    57 -> 345 [penwidth=2]
    57 -> 10 [penwidth=2]
    57 -> 54 [penwidth=2]
    57 -> 336 [penwidth=2]
    57 -> 331 [penwidth=2]
    57 -> 16 [penwidth=2]
    57 -> 348 [penwidth=2]
    57 -> 43 [penwidth=2]
    57 -> 344 [penwidth=2]
    57 -> 389 [penwidth=2]
    57 -> 30 [penwidth=2]
    57 -> 24 [penwidth=2]
    57 -> 41 [penwidth=2]
    57 -> 2 [penwidth=2]
    57 -> 12 [penwidth=2]
    57 -> 337 [penwidth=2]
    57 -> 343 [penwidth=2]
    57 -> 339 [penwidth=2]
    57 -> 3 [penwidth=2]
    57 -> 383 [penwidth=2]
    57 -> 387 [penwidth=2]
    57 -> 19 [penwidth=2]
    57 -> 46 [penwidth=2]
    57 -> 380 [penwidth=2]
    57 -> 26 [penwidth=2]
    57 -> 333 [penwidth=2]
    57 -> 32 [penwidth=2]
    57 -> 396 [penwidth=2]
    57 -> 384 [penwidth=2]
    57 -> 398 [penwidth=2]
    57 -> 40 [penwidth=2]
    57 -> 37 [penwidth=2]
    57 -> 52 [penwidth=2]
    57 -> 17 [penwidth=2]
    57 -> 394 [penwidth=2]
    57 -> 381 [penwidth=2]
    57 -> 9 [penwidth=2]
    57 -> 28 [penwidth=2]
    57 -> 49 [penwidth=2]
    57 -> 392 [penwidth=2]
    57 -> 29 [penwidth=2]
    57 -> 346 [penwidth=2]
    57 -> 340 [penwidth=2]
    57 -> 11 [penwidth=2]
    57 -> 334 [penwidth=2]
    57 -> 335 [penwidth=2]
    57 -> 34 [penwidth=2]
    57 -> 342 [penwidth=2]
    57 -> 18 [penwidth=2]
    57 -> 386 [penwidth=2]
    57 -> 25 [penwidth=2]
    57 -> 332 [penwidth=2]
    57 -> 51 [penwidth=2]
    57 -> 391 [penwidth=2]
    57 -> 45 [penwidth=2]
    57 -> 15 [penwidth=2]
    57 -> 338 [penwidth=2]
    57 -> 388 [penwidth=2]
    57 -> 20 [penwidth=2]
    57 -> 6 [penwidth=2]
    57 -> 38 [penwidth=2]
    57 -> 8 [penwidth=2]
    57 -> 7 [penwidth=2]
    57 -> 14 [penwidth=2]
    57 -> 36 [penwidth=2]
    57 -> 341 [penwidth=2]
    57 -> 393 [penwidth=2]
    57 -> 379 [penwidth=2]
    57 -> 31 [penwidth=2]
    57 -> 44 [penwidth=2]
    57 -> 22 [penwidth=2]
    57 -> 399 [penwidth=2]
    57 -> 382 [penwidth=2]
    57 -> 21 [penwidth=2]
    57 -> 13 [penwidth=2]
    57 -> 53 [penwidth=2]
    57 -> 23 [penwidth=2]
    57 -> 33 [penwidth=2]
    57 -> 395 [penwidth=2]
    57 -> 390 [penwidth=2]
    57 -> 5 [penwidth=2]
    60 -> 51 [penwidth=2]
    60 -> 383 [penwidth=2]
    60 -> 53 [penwidth=2]
    60 -> 22 [penwidth=2]
    60 -> 33 [penwidth=2]
    60 -> 26 [penwidth=2]
    60 -> 23 [penwidth=2]
    60 -> 19 [penwidth=2]
    60 -> 347 [penwidth=2]
    60 -> 337 [penwidth=2]
    60 -> 15 [penwidth=2]
    60 -> 18 [penwidth=2]
    60 -> 388 [penwidth=2]
    60 -> 332 [penwidth=2]
    60 -> 344 [penwidth=2]
    60 -> 12 [penwidth=2]
    60 -> 379 [penwidth=2]
    60 -> 37 [penwidth=2]
    60 -> 10 [penwidth=2]
    60 -> 398 [penwidth=2]
    60 -> 333 [penwidth=2]
    60 -> 399 [penwidth=2]
    60 -> 14 [penwidth=2]
    60 -> 338 [penwidth=2]
    60 -> 30 [penwidth=2]
    60 -> 32 [penwidth=2]
    60 -> 382 [penwidth=2]
    60 -> 34 [penwidth=2]
    60 -> 339 [penwidth=2]
    60 -> 27 [penwidth=2]
    60 -> 335 [penwidth=2]
    60 -> 393 [penwidth=2]
    60 -> 342 [penwidth=2]
    60 -> 392 [penwidth=2]
    60 -> 3 [penwidth=2]
    60 -> 25 [penwidth=2]
    60 -> 396 [penwidth=2]
    60 -> 36 [penwidth=2]
    60 -> 28 [penwidth=2]
    60 -> 343 [penwidth=2]
    60 -> 42 [penwidth=2]
    60 -> 340 [penwidth=2]
    60 -> 35 [penwidth=2]
    60 -> 29 [penwidth=2]
    60 -> 43 [penwidth=2]
    60 -> 49 [penwidth=2]
    60 -> 381 [penwidth=2]
    60 -> 20 [penwidth=2]
    60 -> 384 [penwidth=2]
    60 -> 8 [penwidth=2]
    60 -> 2 [penwidth=2]
    60 -> 5 [penwidth=2]
    60 -> 7 [penwidth=2]
    60 -> 38 [penwidth=2]
    60 -> 4 [penwidth=2]
    60 -> 17 [penwidth=2]
    60 -> 46 [penwidth=2]
    60 -> 47 [penwidth=2]
    60 -> 31 [penwidth=2]
    60 -> 334 [penwidth=2]
    60 -> 385 [penwidth=2]
    60 -> 386 [penwidth=2]
    60 -> 391 [penwidth=2]
    60 -> 345 [penwidth=2]
    60 -> 6 [penwidth=2]
    60 -> 394 [penwidth=2]
    60 -> 336 [penwidth=2]
    60 -> 397 [penwidth=2]
    60 -> 45 [penwidth=2]
    60 -> 331 [penwidth=2]
    60 -> 52 [penwidth=2]
    60 -> 13 [penwidth=2]
    60 -> 44 [penwidth=2]
    60 -> 16 [penwidth=2]
    60 -> 40 [penwidth=2]
    60 -> 48 [penwidth=2]
    60 -> 54 [penwidth=2]
    60 -> 395 [penwidth=2]
    60 -> 390 [penwidth=2]
    60 -> 348 [penwidth=2]
    60 -> 389 [penwidth=2]
    60 -> 9 [penwidth=2]
    60 -> 39 [penwidth=2]
    60 -> 50 [penwidth=2]
    355 -> 345 [penwidth=2]
    355 -> 393 [penwidth=2]
    355 -> 386 [penwidth=2]
    355 -> 383 [penwidth=2]
    355 -> 6 [penwidth=2]
    355 -> 384 [penwidth=2]
    355 -> 347 [penwidth=2]
    355 -> 5 [penwidth=2]
    355 -> 338 [penwidth=2]
    355 -> 33 [penwidth=2]
    355 -> 16 [penwidth=2]
    355 -> 332 [penwidth=2]
    355 -> 31 [penwidth=2]
    355 -> 23 [penwidth=2]
    355 -> 344 [penwidth=2]
    355 -> 342 [penwidth=2]
    355 -> 340 [penwidth=2]
    355 -> 388 [penwidth=2]
    355 -> 38 [penwidth=2]
    355 -> 381 [penwidth=2]
    355 -> 336 [penwidth=2]
    355 -> 335 [penwidth=2]
    355 -> 39 [penwidth=2]
    355 -> 10 [penwidth=2]
    355 -> 2 [penwidth=2]
    355 -> 337 [penwidth=2]
    355 -> 8 [penwidth=2]
    355 -> 49 [penwidth=2]
    355 -> 396 [penwidth=2]
    355 -> 346 [penwidth=2]
    355 -> 20 [penwidth=2]
    355 -> 53 [penwidth=2]
    355 -> 382 [penwidth=2]
    355 -> 47 [penwidth=2]
    355 -> 385 [penwidth=2]
    355 -> 37 [penwidth=2]
    355 -> 34 [penwidth=2]
    355 -> 389 [penwidth=2]
    355 -> 24 [penwidth=2]
    355 -> 50 [penwidth=2]
    355 -> 9 [penwidth=2]
    355 -> 387 [penwidth=2]
    355 -> 26 [penwidth=2]
    355 -> 12 [penwidth=2]
    355 -> 35 [penwidth=2]
    355 -> 42 [penwidth=2]
    355 -> 13 [penwidth=2]
    355 -> 45 [penwidth=2]
    355 -> 380 [penwidth=2]
    355 -> 48 [penwidth=2]
    355 -> 36 [penwidth=2]
    355 -> 18 [penwidth=2]
    355 -> 391 [penwidth=2]
    355 -> 343 [penwidth=2]
    355 -> 15 [penwidth=2]
    355 -> 27 [penwidth=2]
    355 -> 398 [penwidth=2]
    355 -> 40 [penwidth=2]
    355 -> 51 [penwidth=2]
    355 -> 43 [penwidth=2]
    355 -> 331 [penwidth=2]
    355 -> 333 [penwidth=2]
    355 -> 17 [penwidth=2]
    355 -> 19 [penwidth=2]
    355 -> 390 [penwidth=2]
    66 -> 43 [penwidth=2]
    66 -> 11 [penwidth=2]
    66 -> 41 [penwidth=2]
    66 -> 9 [penwidth=2]
    66 -> 51 [penwidth=2]
    66 -> 45 [penwidth=2]
    66 -> 24 [penwidth=2]
    66 -> 394 [penwidth=2]
    66 -> 335 [penwidth=2]
    66 -> 379 [penwidth=2]
    66 -> 392 [penwidth=2]
    66 -> 10 [penwidth=2]
    66 -> 19 [penwidth=2]
    66 -> 35 [penwidth=2]
    66 -> 4 [penwidth=2]
    66 -> 382 [penwidth=2]
    66 -> 6 [penwidth=2]
    66 -> 39 [penwidth=2]
    66 -> 341 [penwidth=2]
    66 -> 14 [penwidth=2]
    72 -> 13 [penwidth=2]
    72 -> 46 [penwidth=2]
    72 -> 54 [penwidth=2]
    72 -> 7 [penwidth=2]
    72 -> 393 [penwidth=2]
    72 -> 30 [penwidth=2]
    72 -> 340 [penwidth=2]
    72 -> 10 [penwidth=2]
    72 -> 38 [penwidth=2]
    72 -> 381 [penwidth=2]
    72 -> 18 [penwidth=2]
    72 -> 344 [penwidth=2]
    72 -> 386 [penwidth=2]
    72 -> 396 [penwidth=2]
    72 -> 19 [penwidth=2]
    72 -> 385 [penwidth=2]
    72 -> 4 [penwidth=2]
    72 -> 21 [penwidth=2]
    72 -> 25 [penwidth=2]
    72 -> 397 [penwidth=2]
    72 -> 31 [penwidth=2]
    72 -> 37 [penwidth=2]
    72 -> 382 [penwidth=2]
    72 -> 3 [penwidth=2]
    72 -> 392 [penwidth=2]
    72 -> 34 [penwidth=2]
    72 -> 338 [penwidth=2]
    72 -> 6 [penwidth=2]
    72 -> 331 [penwidth=2]
    72 -> 40 [penwidth=2]
    72 -> 343 [penwidth=2]
    72 -> 335 [penwidth=2]
    72 -> 29 [penwidth=2]
    72 -> 394 [penwidth=2]
    72 -> 35 [penwidth=2]
    72 -> 52 [penwidth=2]
    72 -> 24 [penwidth=2]
    72 -> 336 [penwidth=2]
    72 -> 395 [penwidth=2]
    72 -> 388 [penwidth=2]
    72 -> 342 [penwidth=2]
    72 -> 347 [penwidth=2]
    72 -> 36 [penwidth=2]
    72 -> 42 [penwidth=2]
    72 -> 398 [penwidth=2]
    72 -> 44 [penwidth=2]
    72 -> 48 [penwidth=2]
    72 -> 2 [penwidth=2]
    72 -> 20 [penwidth=2]
    72 -> 391 [penwidth=2]
    72 -> 26 [penwidth=2]
    72 -> 16 [penwidth=2]
    72 -> 332 [penwidth=2]
    72 -> 389 [penwidth=2]
    72 -> 5 [penwidth=2]
    72 -> 8 [penwidth=2]
    72 -> 27 [penwidth=2]
    372 -> 390 [penwidth=2]
    372 -> 343 [penwidth=2]
    372 -> 40 [penwidth=2]
    372 -> 12 [penwidth=2]
    372 -> 51 [penwidth=2]
    372 -> 340 [penwidth=2]
    372 -> 47 [penwidth=2]
    372 -> 394 [penwidth=2]
    372 -> 54 [penwidth=2]
    372 -> 10 [penwidth=2]
    372 -> 7 [penwidth=2]
    372 -> 348 [penwidth=2]
    372 -> 344 [penwidth=2]
    372 -> 36 [penwidth=2]
    372 -> 30 [penwidth=2]
    372 -> 386 [penwidth=2]
    372 -> 17 [penwidth=2]
    372 -> 4 [penwidth=2]
    372 -> 382 [penwidth=2]
    372 -> 331 [penwidth=2]
    372 -> 27 [penwidth=2]
    372 -> 6 [penwidth=2]
    372 -> 16 [penwidth=2]
    372 -> 14 [penwidth=2]
    372 -> 53 [penwidth=2]
    372 -> 43 [penwidth=2]
    372 -> 380 [penwidth=2]
    372 -> 41 [penwidth=2]
    372 -> 34 [penwidth=2]
    372 -> 28 [penwidth=2]
    372 -> 18 [penwidth=2]
    372 -> 337 [penwidth=2]
    372 -> 336 [penwidth=2]
    372 -> 35 [penwidth=2]
    372 -> 384 [penwidth=2]
    372 -> 334 [penwidth=2]
    372 -> 49 [penwidth=2]
    372 -> 44 [penwidth=2]
    372 -> 39 [penwidth=2]
    372 -> 8 [penwidth=2]
    372 -> 50 [penwidth=2]
    372 -> 23 [penwidth=2]
    289 -> 30 [penwidth=2]
    289 -> 381 [penwidth=2]
    289 -> 22 [penwidth=2]
    289 -> 39 [penwidth=2]
    289 -> 52 [penwidth=2]
    289 -> 336 [penwidth=2]
    289 -> 4 [penwidth=2]
    289 -> 40 [penwidth=2]
    289 -> 15 [penwidth=2]
    289 -> 10 [penwidth=2]
    289 -> 32 [penwidth=2]
    289 -> 18 [penwidth=2]
    289 -> 341 [penwidth=2]
    289 -> 26 [penwidth=2]
    289 -> 23 [penwidth=2]
    289 -> 333 [penwidth=2]
    289 -> 385 [penwidth=2]
    289 -> 383 [penwidth=2]
    253 -> 381 [penwidth=2]
    253 -> 390 [penwidth=2]
    253 -> 343 [penwidth=2]
    253 -> 388 [penwidth=2]
    253 -> 342 [penwidth=2]
    253 -> 394 [penwidth=2]
    253 -> 48 [penwidth=2]
    253 -> 47 [penwidth=2]
    253 -> 346 [penwidth=2]
    253 -> 393 [penwidth=2]
    253 -> 391 [penwidth=2]
    253 -> 396 [penwidth=2]
    253 -> 21 [penwidth=2]
    253 -> 37 [penwidth=2]
    253 -> 382 [penwidth=2]
    253 -> 347 [penwidth=2]
    253 -> 334 [penwidth=2]
    253 -> 7 [penwidth=2]
    253 -> 14 [penwidth=2]
    253 -> 386 [penwidth=2]
    253 -> 345 [penwidth=2]
    253 -> 34 [penwidth=2]
    253 -> 20 [penwidth=2]
    253 -> 24 [penwidth=2]
    253 -> 50 [penwidth=2]
    253 -> 41 [penwidth=2]
    253 -> 45 [penwidth=2]
    253 -> 399 [penwidth=2]
    253 -> 40 [penwidth=2]
    253 -> 17 [penwidth=2]
    253 -> 8 [penwidth=2]
    253 -> 39 [penwidth=2]
    253 -> 43 [penwidth=2]
    253 -> 15 [penwidth=2]
    253 -> 19 [penwidth=2]
    253 -> 348 [penwidth=2]
    253 -> 35 [penwidth=2]
    253 -> 22 [penwidth=2]
    253 -> 36 [penwidth=2]
    253 -> 16 [penwidth=2]
    253 -> 13 [penwidth=2]
    253 -> 341 [penwidth=2]
    253 -> 398 [penwidth=2]
    253 -> 384 [penwidth=2]
    253 -> 387 [penwidth=2]
    253 -> 53 [penwidth=2]
    253 -> 336 [penwidth=2]
    253 -> 33 [penwidth=2]
    253 -> 379 [penwidth=2]
    253 -> 340 [penwidth=2]
    295 -> 18 [penwidth=2]
    295 -> 383 [penwidth=2]
    295 -> 44 [penwidth=2]
    295 -> 344 [penwidth=2]
    295 -> 385 [penwidth=2]
    295 -> 28 [penwidth=2]
    295 -> 42 [penwidth=2]
    295 -> 393 [penwidth=2]
    295 -> 22 [penwidth=2]
    295 -> 16 [penwidth=2]
    295 -> 31 [penwidth=2]
    295 -> 336 [penwidth=2]
    295 -> 342 [penwidth=2]
    295 -> 53 [penwidth=2]
    295 -> 345 [penwidth=2]
    295 -> 49 [penwidth=2]
    295 -> 21 [penwidth=2]
    295 -> 334 [penwidth=2]
    295 -> 392 [penwidth=2]
    273 -> 51 [penwidth=2]
    273 -> 6 [penwidth=2]
    273 -> 7 [penwidth=2]
    273 -> 10 [penwidth=2]
    273 -> 14 [penwidth=2]
    273 -> 32 [penwidth=2]
    273 -> 346 [penwidth=2]
    273 -> 30 [penwidth=2]
    273 -> 392 [penwidth=2]
    273 -> 28 [penwidth=2]
    273 -> 31 [penwidth=2]
    273 -> 380 [penwidth=2]
    273 -> 389 [penwidth=2]
    273 -> 29 [penwidth=2]
    273 -> 52 [penwidth=2]
    273 -> 393 [penwidth=2]
    273 -> 333 [penwidth=2]
    273 -> 49 [penwidth=2]
    273 -> 12 [penwidth=2]
    273 -> 385 [penwidth=2]
    273 -> 50 [penwidth=2]
    273 -> 331 [penwidth=2]
    273 -> 36 [penwidth=2]
    273 -> 24 [penwidth=2]
    273 -> 41 [penwidth=2]
    273 -> 343 [penwidth=2]
    273 -> 345 [penwidth=2]
    273 -> 15 [penwidth=2]
    273 -> 37 [penwidth=2]
    273 -> 341 [penwidth=2]
    273 -> 336 [penwidth=2]
    273 -> 382 [penwidth=2]
    273 -> 335 [penwidth=2]
    273 -> 383 [penwidth=2]
    273 -> 13 [penwidth=2]
    273 -> 390 [penwidth=2]
    287 -> 6 [penwidth=2]
    287 -> 4 [penwidth=2]
    287 -> 389 [penwidth=2]
    287 -> 45 [penwidth=2]
    287 -> 344 [penwidth=2]
    287 -> 25 [penwidth=2]
    287 -> 387 [penwidth=2]
    287 -> 36 [penwidth=2]
    287 -> 27 [penwidth=2]
    287 -> 33 [penwidth=2]
    287 -> 15 [penwidth=2]
    287 -> 397 [penwidth=2]
    287 -> 392 [penwidth=2]
    287 -> 340 [penwidth=2]
    287 -> 381 [penwidth=2]
    287 -> 9 [penwidth=2]
    287 -> 391 [penwidth=2]
    287 -> 331 [penwidth=2]
    287 -> 19 [penwidth=2]
    287 -> 8 [penwidth=2]
    287 -> 41 [penwidth=2]
    287 -> 386 [penwidth=2]
    287 -> 1 [penwidth=2]
    287 -> 342 [penwidth=2]
    211 -> 54 [penwidth=2]
    211 -> 12 [penwidth=2]
    211 -> 30 [penwidth=2]
    211 -> 338 [penwidth=2]
    211 -> 32 [penwidth=2]
    211 -> 389 [penwidth=2]
    211 -> 53 [penwidth=2]
    211 -> 49 [penwidth=2]
    211 -> 17 [penwidth=2]
    211 -> 40 [penwidth=2]
    211 -> 4 [penwidth=2]
    211 -> 35 [penwidth=2]
    211 -> 388 [penwidth=2]
    211 -> 335 [penwidth=2]
    211 -> 381 [penwidth=2]
    211 -> 386 [penwidth=2]
    211 -> 3 [penwidth=2]
    211 -> 8 [penwidth=2]
    211 -> 43 [penwidth=2]
    211 -> 14 [penwidth=2]
    211 -> 24 [penwidth=2]
    211 -> 393 [penwidth=2]
    211 -> 392 [penwidth=2]
    211 -> 22 [penwidth=2]
    211 -> 342 [penwidth=2]
    211 -> 45 [penwidth=2]
    211 -> 23 [penwidth=2]
    211 -> 42 [penwidth=2]
    211 -> 19 [penwidth=2]
    211 -> 13 [penwidth=2]
    211 -> 333 [penwidth=2]
    211 -> 346 [penwidth=2]
    211 -> 48 [penwidth=2]
    211 -> 341 [penwidth=2]
    211 -> 382 [penwidth=2]
    211 -> 387 [penwidth=2]
    211 -> 2 [penwidth=2]
    211 -> 336 [penwidth=2]
    211 -> 340 [penwidth=2]
    211 -> 9 [penwidth=2]
    221 -> 21 [penwidth=2]
    221 -> 3 [penwidth=2]
    221 -> 384 [penwidth=2]
    221 -> 14 [penwidth=2]
    221 -> 30 [penwidth=2]
    221 -> 395 [penwidth=2]
    221 -> 36 [penwidth=2]
    221 -> 39 [penwidth=2]
    221 -> 28 [penwidth=2]
    221 -> 387 [penwidth=2]
    221 -> 43 [penwidth=2]
    221 -> 44 [penwidth=2]
    221 -> 9 [penwidth=2]
    221 -> 399 [penwidth=2]
    221 -> 380 [penwidth=2]
    221 -> 29 [penwidth=2]
    221 -> 332 [penwidth=2]
    221 -> 392 [penwidth=2]
    221 -> 31 [penwidth=2]
    221 -> 49 [penwidth=2]
    221 -> 388 [penwidth=2]
    221 -> 16 [penwidth=2]
    221 -> 381 [penwidth=2]
    221 -> 336 [penwidth=2]
    221 -> 50 [penwidth=2]
    221 -> 42 [penwidth=2]
    221 -> 385 [penwidth=2]
    221 -> 32 [penwidth=2]
    221 -> 391 [penwidth=2]
    221 -> 382 [penwidth=2]
    221 -> 52 [penwidth=2]
    221 -> 35 [penwidth=2]
    221 -> 12 [penwidth=2]
    221 -> 54 [penwidth=2]
    221 -> 379 [penwidth=2]
    221 -> 398 [penwidth=2]
    221 -> 37 [penwidth=2]
    221 -> 45 [penwidth=2]
    221 -> 48 [penwidth=2]
    221 -> 343 [penwidth=2]
    221 -> 393 [penwidth=2]
    221 -> 15 [penwidth=2]
    221 -> 331 [penwidth=2]
    221 -> 334 [penwidth=2]
    221 -> 396 [penwidth=2]
    221 -> 23 [penwidth=2]
    221 -> 10 [penwidth=2]
    221 -> 333 [penwidth=2]
    221 -> 339 [penwidth=2]
    221 -> 390 [penwidth=2]
    221 -> 338 [penwidth=2]
    221 -> 26 [penwidth=2]
    221 -> 40 [penwidth=2]
    221 -> 345 [penwidth=2]
    221 -> 346 [penwidth=2]
    221 -> 53 [penwidth=2]
    221 -> 46 [penwidth=2]
    221 -> 22 [penwidth=2]
    221 -> 6 [penwidth=2]
    221 -> 11 [penwidth=2]
    221 -> 335 [penwidth=2]
    221 -> 51 [penwidth=2]
    221 -> 383 [penwidth=2]
    221 -> 33 [penwidth=2]
    221 -> 4 [penwidth=2]
    221 -> 344 [penwidth=2]
    221 -> 2 [penwidth=2]
    221 -> 389 [penwidth=2]
    221 -> 17 [penwidth=2]
    221 -> 38 [penwidth=2]
    221 -> 27 [penwidth=2]
    221 -> 18 [penwidth=2]
    221 -> 386 [penwidth=2]
    221 -> 5 [penwidth=2]
    221 -> 34 [penwidth=2]
    221 -> 397 [penwidth=2]
    221 -> 348 [penwidth=2]
    221 -> 340 [penwidth=2]
    221 -> 394 [penwidth=2]
    221 -> 337 [penwidth=2]
    221 -> 41 [penwidth=2]
    221 -> 8 [penwidth=2]
    221 -> 20 [penwidth=2]
    221 -> 13 [penwidth=2]
    221 -> 24 [penwidth=2]
    221 -> 25 [penwidth=2]
    126 -> 41 [penwidth=2]
    126 -> 43 [penwidth=2]
    126 -> 344 [penwidth=2]
    126 -> 53 [penwidth=2]
    126 -> 12 [penwidth=2]
    126 -> 49 [penwidth=2]
    126 -> 33 [penwidth=2]
    126 -> 340 [penwidth=2]
    126 -> 15 [penwidth=2]
    126 -> 11 [penwidth=2]
    126 -> 52 [penwidth=2]
    126 -> 22 [penwidth=2]
    126 -> 37 [penwidth=2]
    126 -> 342 [penwidth=2]
    126 -> 333 [penwidth=2]
    126 -> 390 [penwidth=2]
    126 -> 335 [penwidth=2]
    128 -> 4 [penwidth=2]
    128 -> 348 [penwidth=2]
    128 -> 7 [penwidth=2]
    128 -> 39 [penwidth=2]
    128 -> 332 [penwidth=2]
    128 -> 386 [penwidth=2]
    128 -> 394 [penwidth=2]
    128 -> 337 [penwidth=2]
    128 -> 393 [penwidth=2]
    128 -> 398 [penwidth=2]
    128 -> 5 [penwidth=2]
    128 -> 388 [penwidth=2]
    128 -> 345 [penwidth=2]
    128 -> 21 [penwidth=2]
    128 -> 12 [penwidth=2]
    128 -> 49 [penwidth=2]
    128 -> 399 [penwidth=2]
    128 -> 14 [penwidth=2]
    128 -> 45 [penwidth=2]
    128 -> 387 [penwidth=2]
    128 -> 17 [penwidth=2]
    128 -> 43 [penwidth=2]
    128 -> 33 [penwidth=2]
    128 -> 396 [penwidth=2]
    128 -> 391 [penwidth=2]
    128 -> 40 [penwidth=2]
    128 -> 16 [penwidth=2]
    128 -> 379 [penwidth=2]
    128 -> 397 [penwidth=2]
    128 -> 339 [penwidth=2]
    128 -> 342 [penwidth=2]
    128 -> 30 [penwidth=2]
    128 -> 347 [penwidth=2]
    128 -> 389 [penwidth=2]
    128 -> 390 [penwidth=2]
    128 -> 42 [penwidth=2]
    128 -> 34 [penwidth=2]
    128 -> 32 [penwidth=2]
    128 -> 382 [penwidth=2]
    128 -> 13 [penwidth=2]
    128 -> 343 [penwidth=2]
    128 -> 9 [penwidth=2]
    128 -> 338 [penwidth=2]
    128 -> 27 [penwidth=2]
    128 -> 47 [penwidth=2]
    128 -> 37 [penwidth=2]
    128 -> 346 [penwidth=2]
    128 -> 10 [penwidth=2]
    128 -> 392 [penwidth=2]
    128 -> 31 [penwidth=2]
    128 -> 19 [penwidth=2]
    128 -> 35 [penwidth=2]
    128 -> 333 [penwidth=2]
    128 -> 380 [penwidth=2]
    128 -> 22 [penwidth=2]
    128 -> 53 [penwidth=2]
    128 -> 1 [penwidth=2]
    128 -> 52 [penwidth=2]
    128 -> 15 [penwidth=2]
    128 -> 25 [penwidth=2]
    128 -> 395 [penwidth=2]
    128 -> 334 [penwidth=2]
    128 -> 24 [penwidth=2]
    128 -> 54 [penwidth=2]
    128 -> 50 [penwidth=2]
    128 -> 48 [penwidth=2]
    128 -> 20 [penwidth=2]
    128 -> 383 [penwidth=2]
    128 -> 28 [penwidth=2]
    128 -> 41 [penwidth=2]
    128 -> 384 [penwidth=2]
    128 -> 23 [penwidth=2]
    128 -> 340 [penwidth=2]
    128 -> 385 [penwidth=2]
    128 -> 26 [penwidth=2]
    128 -> 51 [penwidth=2]
    128 -> 335 [penwidth=2]
    128 -> 336 [penwidth=2]
    128 -> 344 [penwidth=2]
    170 -> 390 [penwidth=2]
    170 -> 31 [penwidth=2]
    170 -> 341 [penwidth=2]
    170 -> 19 [penwidth=2]
    170 -> 51 [penwidth=2]
    170 -> 20 [penwidth=2]
    170 -> 344 [penwidth=2]
    170 -> 36 [penwidth=2]
    170 -> 386 [penwidth=2]
    170 -> 385 [penwidth=2]
    170 -> 14 [penwidth=2]
    170 -> 16 [penwidth=2]
    170 -> 388 [penwidth=2]
    170 -> 45 [penwidth=2]
    170 -> 39 [penwidth=2]
    170 -> 35 [penwidth=2]
    170 -> 7 [penwidth=2]
    170 -> 379 [penwidth=2]
    170 -> 34 [penwidth=2]
    170 -> 4 [penwidth=2]
    170 -> 18 [penwidth=2]
    170 -> 343 [penwidth=2]
    170 -> 389 [penwidth=2]
    170 -> 380 [penwidth=2]
    170 -> 381 [penwidth=2]
    170 -> 347 [penwidth=2]
    170 -> 2 [penwidth=2]
    170 -> 398 [penwidth=2]
    170 -> 3 [penwidth=2]
    170 -> 387 [penwidth=2]
    170 -> 384 [penwidth=2]
    170 -> 337 [penwidth=2]
    170 -> 30 [penwidth=2]
    170 -> 334 [penwidth=2]
    170 -> 23 [penwidth=2]
    170 -> 331 [penwidth=2]
    170 -> 26 [penwidth=2]
    170 -> 41 [penwidth=2]
    170 -> 392 [penwidth=2]
    170 -> 27 [penwidth=2]
    170 -> 11 [penwidth=2]
    170 -> 15 [penwidth=2]
    170 -> 43 [penwidth=2]
    170 -> 24 [penwidth=2]
    170 -> 335 [penwidth=2]
    170 -> 29 [penwidth=2]
    170 -> 49 [penwidth=2]
    170 -> 21 [penwidth=2]
    170 -> 38 [penwidth=2]
    170 -> 394 [penwidth=2]
    170 -> 340 [penwidth=2]
    135 -> 345 [penwidth=2]
    135 -> 34 [penwidth=2]
    135 -> 6 [penwidth=2]
    135 -> 24 [penwidth=2]
    135 -> 30 [penwidth=2]
    135 -> 398 [penwidth=2]
    135 -> 385 [penwidth=2]
    135 -> 379 [penwidth=2]
    135 -> 335 [penwidth=2]
    135 -> 53 [penwidth=2]
    135 -> 389 [penwidth=2]
    135 -> 35 [penwidth=2]
    135 -> 37 [penwidth=2]
    135 -> 396 [penwidth=2]
    135 -> 22 [penwidth=2]
    135 -> 15 [penwidth=2]
    135 -> 338 [penwidth=2]
    135 -> 390 [penwidth=2]
    135 -> 43 [penwidth=2]
    135 -> 399 [penwidth=2]
    135 -> 2 [penwidth=2]
    135 -> 45 [penwidth=2]
    135 -> 23 [penwidth=2]
    135 -> 19 [penwidth=2]
    135 -> 49 [penwidth=2]
    135 -> 340 [penwidth=2]
    135 -> 17 [penwidth=2]
    135 -> 48 [penwidth=2]
    135 -> 337 [penwidth=2]
    135 -> 14 [penwidth=2]
    139 -> 22 [penwidth=2]
    139 -> 36 [penwidth=2]
    139 -> 50 [penwidth=2]
    139 -> 383 [penwidth=2]
    139 -> 31 [penwidth=2]
    139 -> 53 [penwidth=2]
    139 -> 40 [penwidth=2]
    139 -> 6 [penwidth=2]
    139 -> 46 [penwidth=2]
    139 -> 399 [penwidth=2]
    139 -> 332 [penwidth=2]
    139 -> 10 [penwidth=2]
    139 -> 19 [penwidth=2]
    139 -> 337 [penwidth=2]
    139 -> 384 [penwidth=2]
    139 -> 8 [penwidth=2]
    139 -> 26 [penwidth=2]
    139 -> 29 [penwidth=2]
    139 -> 331 [penwidth=2]
    139 -> 385 [penwidth=2]
    139 -> 4 [penwidth=2]
    139 -> 35 [penwidth=2]
    139 -> 398 [penwidth=2]
    139 -> 391 [penwidth=2]
    139 -> 345 [penwidth=2]
    139 -> 342 [penwidth=2]
    139 -> 5 [penwidth=2]
    139 -> 47 [penwidth=2]
    139 -> 38 [penwidth=2]
    139 -> 393 [penwidth=2]
    139 -> 336 [penwidth=2]
    139 -> 382 [penwidth=2]
    139 -> 15 [penwidth=2]
    139 -> 381 [penwidth=2]
    139 -> 43 [penwidth=2]
    139 -> 347 [penwidth=2]
    183 -> 31 [penwidth=2]
    183 -> 25 [penwidth=2]
    183 -> 389 [penwidth=2]
    183 -> 4 [penwidth=2]
    183 -> 397 [penwidth=2]
    183 -> 22 [penwidth=2]
    183 -> 345 [penwidth=2]
    183 -> 385 [penwidth=2]
    183 -> 8 [penwidth=2]
    183 -> 336 [penwidth=2]
    183 -> 24 [penwidth=2]
    183 -> 332 [penwidth=2]
    183 -> 28 [penwidth=2]
    183 -> 27 [penwidth=2]
    183 -> 335 [penwidth=2]
    183 -> 52 [penwidth=2]
    183 -> 6 [penwidth=2]
    183 -> 383 [penwidth=2]
    183 -> 3 [penwidth=2]
    183 -> 337 [penwidth=2]
    183 -> 347 [penwidth=2]
    183 -> 331 [penwidth=2]
    183 -> 346 [penwidth=2]
    183 -> 14 [penwidth=2]
    183 -> 38 [penwidth=2]
    183 -> 48 [penwidth=2]
    183 -> 2 [penwidth=2]
    183 -> 41 [penwidth=2]
    183 -> 381 [penwidth=2]
    183 -> 384 [penwidth=2]
    183 -> 339 [penwidth=2]
    183 -> 45 [penwidth=2]
    183 -> 341 [penwidth=2]
    183 -> 33 [penwidth=2]
    183 -> 47 [penwidth=2]
    183 -> 333 [penwidth=2]
    183 -> 10 [penwidth=2]
    183 -> 12 [penwidth=2]
    183 -> 334 [penwidth=2]
    183 -> 49 [penwidth=2]
    183 -> 32 [penwidth=2]
    183 -> 21 [penwidth=2]
    183 -> 26 [penwidth=2]
    183 -> 9 [penwidth=2]
    183 -> 19 [penwidth=2]
    183 -> 16 [penwidth=2]
    183 -> 13 [penwidth=2]
    183 -> 40 [penwidth=2]
    183 -> 398 [penwidth=2]
    183 -> 343 [penwidth=2]
    183 -> 396 [penwidth=2]
    183 -> 36 [penwidth=2]
    183 -> 20 [penwidth=2]
    183 -> 382 [penwidth=2]
    183 -> 399 [penwidth=2]
    188 -> 52 [penwidth=2]
    188 -> 30 [penwidth=2]
    188 -> 382 [penwidth=2]
    188 -> 35 [penwidth=2]
    188 -> 332 [penwidth=2]
    188 -> 383 [penwidth=2]
    188 -> 45 [penwidth=2]
    188 -> 344 [penwidth=2]
    188 -> 44 [penwidth=2]
    188 -> 348 [penwidth=2]
    188 -> 387 [penwidth=2]
    188 -> 29 [penwidth=2]
    188 -> 53 [penwidth=2]
    188 -> 7 [penwidth=2]
    188 -> 333 [penwidth=2]
    188 -> 395 [penwidth=2]
    188 -> 391 [penwidth=2]
    188 -> 37 [penwidth=2]
    188 -> 392 [penwidth=2]
    188 -> 381 [penwidth=2]
    188 -> 342 [penwidth=2]
    188 -> 19 [penwidth=2]
    188 -> 6 [penwidth=2]
    188 -> 3 [penwidth=2]
    188 -> 336 [penwidth=2]
    188 -> 47 [penwidth=2]
    188 -> 397 [penwidth=2]
    188 -> 337 [penwidth=2]
    188 -> 43 [penwidth=2]
    188 -> 18 [penwidth=2]
    188 -> 4 [penwidth=2]
    188 -> 28 [penwidth=2]
    188 -> 335 [penwidth=2]
    188 -> 40 [penwidth=2]
    188 -> 21 [penwidth=2]
    188 -> 10 [penwidth=2]
    188 -> 14 [penwidth=2]
    188 -> 54 [penwidth=2]
    188 -> 41 [penwidth=2]
    188 -> 379 [penwidth=2]
    188 -> 1 [penwidth=2]
    188 -> 25 [penwidth=2]
    188 -> 23 [penwidth=2]
    188 -> 22 [penwidth=2]
    188 -> 5 [penwidth=2]
    188 -> 386 [penwidth=2]
    188 -> 34 [penwidth=2]
    188 -> 385 [penwidth=2]
    188 -> 390 [penwidth=2]
    188 -> 17 [penwidth=2]
    188 -> 16 [penwidth=2]
    188 -> 11 [penwidth=2]
    188 -> 384 [penwidth=2]
    188 -> 46 [penwidth=2]
    188 -> 33 [penwidth=2]
    188 -> 15 [penwidth=2]
    191 -> 3 [penwidth=2]
    191 -> 54 [penwidth=2]
    191 -> 39 [penwidth=2]
    191 -> 52 [penwidth=2]
    191 -> 6 [penwidth=2]
    191 -> 336 [penwidth=2]
    191 -> 45 [penwidth=2]
    191 -> 29 [penwidth=2]
    191 -> 48 [penwidth=2]
    191 -> 35 [penwidth=2]
    191 -> 393 [penwidth=2]
    191 -> 346 [penwidth=2]
    191 -> 21 [penwidth=2]
    191 -> 381 [penwidth=2]
    191 -> 14 [penwidth=2]
    191 -> 44 [penwidth=2]
    191 -> 379 [penwidth=2]
    191 -> 16 [penwidth=2]
    191 -> 10 [penwidth=2]
    191 -> 337 [penwidth=2]
    191 -> 37 [penwidth=2]
    195 -> 32 [penwidth=2]
    195 -> 348 [penwidth=2]
    195 -> 30 [penwidth=2]
    195 -> 335 [penwidth=2]
    195 -> 397 [penwidth=2]
    195 -> 4 [penwidth=2]
    195 -> 347 [penwidth=2]
    195 -> 380 [penwidth=2]
    195 -> 49 [penwidth=2]
    195 -> 381 [penwidth=2]
    195 -> 342 [penwidth=2]
    195 -> 48 [penwidth=2]
    195 -> 53 [penwidth=2]
    195 -> 384 [penwidth=2]
    195 -> 16 [penwidth=2]
    195 -> 345 [penwidth=2]
    195 -> 29 [penwidth=2]
    195 -> 18 [penwidth=2]
    157 -> 4 [penwidth=2]
    157 -> 14 [penwidth=2]
    157 -> 37 [penwidth=2]
    157 -> 398 [penwidth=2]
    157 -> 29 [penwidth=2]
    157 -> 384 [penwidth=2]
    157 -> 45 [penwidth=2]
    157 -> 6 [penwidth=2]
    157 -> 28 [penwidth=2]
    157 -> 333 [penwidth=2]
    157 -> 348 [penwidth=2]
    157 -> 331 [penwidth=2]
    157 -> 10 [penwidth=2]
    157 -> 386 [penwidth=2]
    157 -> 339 [penwidth=2]
    157 -> 34 [penwidth=2]
    157 -> 394 [penwidth=2]
    157 -> 42 [penwidth=2]
    157 -> 395 [penwidth=2]
    157 -> 24 [penwidth=2]
    157 -> 332 [penwidth=2]
    157 -> 337 [penwidth=2]
    157 -> 51 [penwidth=2]
    157 -> 3 [penwidth=2]
    157 -> 35 [penwidth=2]
    157 -> 9 [penwidth=2]
    157 -> 30 [penwidth=2]
    157 -> 389 [penwidth=2]
    157 -> 346 [penwidth=2]
    157 -> 388 [penwidth=2]
    157 -> 380 [penwidth=2]
    157 -> 47 [penwidth=2]
    157 -> 393 [penwidth=2]
    157 -> 53 [penwidth=2]
    157 -> 390 [penwidth=2]
    157 -> 43 [penwidth=2]
    157 -> 36 [penwidth=2]
    157 -> 7 [penwidth=2]
    157 -> 20 [penwidth=2]
    157 -> 39 [penwidth=2]
    157 -> 385 [penwidth=2]
    157 -> 341 [penwidth=2]
    100 -> 392 [penwidth=2]
    100 -> 22 [penwidth=2]
    100 -> 33 [penwidth=2]
    100 -> 7 [penwidth=2]
    100 -> 337 [penwidth=2]
    100 -> 28 [penwidth=2]
    100 -> 12 [penwidth=2]
    100 -> 397 [penwidth=2]
    100 -> 49 [penwidth=2]
    100 -> 333 [penwidth=2]
    100 -> 37 [penwidth=2]
    100 -> 15 [penwidth=2]
    100 -> 29 [penwidth=2]
    100 -> 386 [penwidth=2]
    100 -> 10 [penwidth=2]
    100 -> 44 [penwidth=2]
    100 -> 334 [penwidth=2]
    100 -> 4 [penwidth=2]
    100 -> 9 [penwidth=2]
    100 -> 32 [penwidth=2]
    100 -> 52 [penwidth=2]
    100 -> 344 [penwidth=2]
    100 -> 20 [penwidth=2]
    100 -> 391 [penwidth=2]
    100 -> 338 [penwidth=2]
    100 -> 343 [penwidth=2]
    100 -> 341 [penwidth=2]
    100 -> 396 [penwidth=2]
    100 -> 332 [penwidth=2]
    100 -> 5 [penwidth=2]
    100 -> 17 [penwidth=2]
    100 -> 31 [penwidth=2]
    100 -> 390 [penwidth=2]
    100 -> 385 [penwidth=2]
    100 -> 335 [penwidth=2]
    100 -> 340 [penwidth=2]
    100 -> 19 [penwidth=2]
    100 -> 39 [penwidth=2]
    100 -> 381 [penwidth=2]
    100 -> 342 [penwidth=2]
    100 -> 51 [penwidth=2]
    100 -> 399 [penwidth=2]
    100 -> 21 [penwidth=2]
    100 -> 41 [penwidth=2]
    100 -> 47 [penwidth=2]
    100 -> 393 [penwidth=2]
    100 -> 34 [penwidth=2]
    100 -> 53 [penwidth=2]
    100 -> 27 [penwidth=2]
    100 -> 45 [penwidth=2]
    100 -> 383 [penwidth=2]
    100 -> 336 [penwidth=2]
    100 -> 398 [penwidth=2]
    100 -> 348 [penwidth=2]
    100 -> 24 [penwidth=2]
    100 -> 389 [penwidth=2]
    100 -> 347 [penwidth=2]
    100 -> 46 [penwidth=2]
    100 -> 380 [penwidth=2]
    100 -> 2 [penwidth=2]
    100 -> 18 [penwidth=2]
    100 -> 6 [penwidth=2]
    100 -> 346 [penwidth=2]
    100 -> 26 [penwidth=2]
    100 -> 1 [penwidth=2]
    100 -> 43 [penwidth=2]
    100 -> 42 [penwidth=2]
    100 -> 388 [penwidth=2]
    100 -> 3 [penwidth=2]
    100 -> 394 [penwidth=2]
    100 -> 395 [penwidth=2]
    100 -> 16 [penwidth=2]
    100 -> 339 [penwidth=2]
    100 -> 8 [penwidth=2]
    100 -> 38 [penwidth=2]
    100 -> 25 [penwidth=2]
    100 -> 13 [penwidth=2]
    110 -> 50 [penwidth=2]
    110 -> 16 [penwidth=2]
    110 -> 15 [penwidth=2]
    110 -> 385 [penwidth=2]
    110 -> 395 [penwidth=2]
    110 -> 12 [penwidth=2]
    110 -> 389 [penwidth=2]
    110 -> 344 [penwidth=2]
    110 -> 32 [penwidth=2]
    110 -> 22 [penwidth=2]
    110 -> 42 [penwidth=2]
    110 -> 41 [penwidth=2]
    110 -> 399 [penwidth=2]
    110 -> 29 [penwidth=2]
    118 -> 398 [penwidth=2]
    118 -> 11 [penwidth=2]
    118 -> 396 [penwidth=2]
    118 -> 339 [penwidth=2]
    118 -> 29 [penwidth=2]
    118 -> 342 [penwidth=2]
    118 -> 54 [penwidth=2]
    118 -> 338 [penwidth=2]
    118 -> 38 [penwidth=2]
    118 -> 49 [penwidth=2]
    118 -> 334 [penwidth=2]
    118 -> 51 [penwidth=2]
    118 -> 21 [penwidth=2]
    118 -> 53 [penwidth=2]
    118 -> 333 [penwidth=2]
    118 -> 37 [penwidth=2]
    118 -> 3 [penwidth=2]
    118 -> 2 [penwidth=2]
    118 -> 387 [penwidth=2]
    118 -> 346 [penwidth=2]
    118 -> 336 [penwidth=2]
    118 -> 399 [penwidth=2]
    118 -> 337 [penwidth=2]
    118 -> 48 [penwidth=2]
    118 -> 50 [penwidth=2]
    118 -> 42 [penwidth=2]
    118 -> 8 [penwidth=2]
    118 -> 384 [penwidth=2]
    118 -> 331 [penwidth=2]
    118 -> 35 [penwidth=2]
    118 -> 28 [penwidth=2]
    118 -> 36 [penwidth=2]
    118 -> 6 [penwidth=2]
    118 -> 4 [penwidth=2]
    118 -> 24 [penwidth=2]
    118 -> 394 [penwidth=2]
    118 -> 343 [penwidth=2]
    118 -> 390 [penwidth=2]
    118 -> 10 [penwidth=2]
    118 -> 379 [penwidth=2]
    118 -> 27 [penwidth=2]
    118 -> 395 [penwidth=2]
    118 -> 392 [penwidth=2]
    118 -> 341 [penwidth=2]
    118 -> 5 [penwidth=2]
    118 -> 45 [penwidth=2]
    118 -> 25 [penwidth=2]
    118 -> 391 [penwidth=2]
    118 -> 382 [penwidth=2]
    118 -> 26 [penwidth=2]
    118 -> 7 [penwidth=2]
    118 -> 348 [penwidth=2]
    118 -> 20 [penwidth=2]
    118 -> 23 [penwidth=2]
    118 -> 17 [penwidth=2]
    118 -> 345 [penwidth=2]
    118 -> 332 [penwidth=2]
    118 -> 386 [penwidth=2]
    118 -> 397 [penwidth=2]
    118 -> 14 [penwidth=2]
    118 -> 340 [penwidth=2]
    118 -> 52 [penwidth=2]
    118 -> 383 [penwidth=2]
    118 -> 385 [penwidth=2]
    118 -> 13 [penwidth=2]
    118 -> 32 [penwidth=2]
    118 -> 335 [penwidth=2]
    118 -> 43 [penwidth=2]
    118 -> 380 [penwidth=2]
    118 -> 33 [penwidth=2]
    118 -> 344 [penwidth=2]
    118 -> 31 [penwidth=2]
    118 -> 9 [penwidth=2]
}