digraph G {
    0 [penwidth=3,label="0"]
    1 [penwidth=3,label="1"]
    2 [penwidth=3,label="2"]
    3 [penwidth=3,label="3"]
    4 [penwidth=3,label="4"]
    5 [penwidth=3,label="5"]
    6 [penwidth=3,label="6"]
    7 [penwidth=3,label="7"]
    8 [penwidth=3,label="8"]
    9 [penwidth=3,label="9"]
    10 [penwidth=3,label="10"]
    11 [penwidth=3,label="11"]
    12 [penwidth=3,label="12"]
    13 [penwidth=3,label="13"]
    14 [penwidth=3,label="14"]
    15 [penwidth=3,label="15"]
    16 [penwidth=3,label="16"]
    17 [penwidth=3,label="17"]
    18 [penwidth=3,label="18"]
    19 [penwidth=3,label="19"]
    20 [penwidth=3,label="20"]
    21 [penwidth=3,label="21"]
    22 [penwidth=3,label="22"]
    23 [penwidth=3,label="23"]
    24 [penwidth=3,label="24"]
    25 [penwidth=3,label="25"]
    26 [penwidth=3,label="26"]
    27 [penwidth=3,label="27"]
    28 [penwidth=3,label="28"]
    29 [penwidth=3,label="29"]
    30 [penwidth=3,label="30"]
    31 [penwidth=3,label="31"]
    32 [penwidth=3,label="32"]
    33 [penwidth=3,label="33"]
    34 [penwidth=3,label="34"]
    35 [penwidth=3,label="35"]
    36 [penwidth=3,label="36"]
    37 [penwidth=3,label="37"]
    38 [penwidth=3,label="38"]
    39 [penwidth=3,label="39"]
    40 [penwidth=3,label="40"]
    41 [penwidth=3,label="41"]
    42 [penwidth=3,label="42"]
    43 [penwidth=3,label="43"]
    44 [penwidth=3,label="44"]
    45 [penwidth=3,label="45"]
    46 [penwidth=3,label="46"]
    47 [penwidth=3,label="47"]
    48 [penwidth=3,label="48"]
    49 [penwidth=3,label="49"]
    50 [penwidth=3,label="50"]
    51 [penwidth=3,label="51"]
    52 [penwidth=3,label="52"]
    53 [penwidth=3,label="53"]
    54 [penwidth=3,label="54"]
    55 [penwidth=3,label="55"]
    56 [penwidth=3,label="56"]
    57 [penwidth=3,label="57"]
    58 [penwidth=3,label="58"]
    59 [penwidth=3,label="59"]
    60 [penwidth=3,label="60"]
    61 [penwidth=3,label="61"]
    62 [penwidth=3,label="62"]
    63 [penwidth=3,label="63"]
    64 [penwidth=3,label="64"]
    65 [penwidth=3,label="65"]
    66 [penwidth=3,label="66"]
    67 [penwidth=3,label="67"]
    68 [penwidth=3,label="68"]
    69 [penwidth=3,label="69"]
    70 [penwidth=3,label="70"]
    71 [penwidth=3,label="71"]
    72 [penwidth=3,label="72"]
    73 [penwidth=3,label="73"]
    74 [penwidth=3,label="74"]
    75 [penwidth=3,label="75"]
    76 [penwidth=3,label="76"]
    77 [penwidth=3,label="77"]
    78 [penwidth=3,label="78"]
    79 [penwidth=3,label="79"]
    80 [penwidth=3,label="80"]
    81 [penwidth=3,label="81"]
    82 [penwidth=3,label="82"]
    83 [penwidth=3,label="83"]
    84 [penwidth=3,label="84"]
    85 [penwidth=3,label="85"]
    86 [penwidth=3,label="86"]
    87 [penwidth=3,label="87"]
    88 [penwidth=3,label="88"]
    89 [penwidth=3,label="89"]
    90 [penwidth=3,label="90"]
    91 [penwidth=3,label="91"]
    92 [penwidth=3,label="92"]
    93 [penwidth=3,label="93"]
    94 [penwidth=3,label="94"]
    95 [penwidth=3,label="95"]
    96 [penwidth=3,label="96"]
    97 [penwidth=3,label="97"]
    98 [penwidth=3,label="98"]
    99 [penwidth=3,label="99"]
    100 [penwidth=3,label="100"]
    101 [penwidth=3,label="101"]
    102 [penwidth=3,label="102"]
    103 [penwidth=3,label="103"]
    104 [penwidth=3,label="104"]
    105 [penwidth=3,label="105"]
    106 [penwidth=3,label="106"]
    107 [penwidth=3,label="107"]
    108 [penwidth=3,label="108"]
    109 [penwidth=3,label="109"]
    110 [penwidth=3,label="110"]
    111 [penwidth=3,label="111"]
    112 [penwidth=3,label="112"]
    113 [penwidth=3,label="113"]
    114 [penwidth=3,label="114"]
    115 [penwidth=3,label="115"]
    116 [penwidth=3,label="116"]
    117 [penwidth=3,label="117"]
    118 [penwidth=3,label="118"]
    119 [penwidth=3,label="119"]
    120 [penwidth=3,label="120"]
    121 [penwidth=3,label="121"]
    122 [penwidth=3,label="122"]
    123 [penwidth=3,label="123"]
    124 [penwidth=3,label="124"]
    125 [penwidth=3,label="125"]
    126 [penwidth=3,label="126"]
    127 [penwidth=3,label="127"]
    128 [penwidth=3,label="128"]
    129 [penwidth=3,label="129"]
    130 [penwidth=3,label="130"]
    131 [penwidth=3,label="131"]
    132 [penwidth=3,label="132"]
    133 [penwidth=3,label="133"]
    134 [penwidth=3,label="134"]
    135 [penwidth=3,label="135"]
    136 [penwidth=3,label="136"]
    137 [penwidth=3,label="137"]
    138 [penwidth=3,label="138"]
    139 [penwidth=3,label="139"]
    140 [penwidth=3,label="140"]
    141 [penwidth=3,label="141"]
    142 [penwidth=3,label="142"]
    143 [penwidth=3,label="143"]
    144 [penwidth=3,label="144"]
    145 [penwidth=3,label="145"]
    146 [penwidth=3,label="146"]
    147 [penwidth=3,label="147"]
    148 [penwidth=3,label="148"]
    149 [penwidth=3,label="149"]
    150 [penwidth=3,label="150"]
    151 [penwidth=3,label="151"]
    152 [penwidth=3,label="152"]
    153 [penwidth=3,label="153"]
    154 [penwidth=3,label="154"]
    155 [penwidth=3,label="155"]
    156 [penwidth=3,label="156"]
    157 [penwidth=3,label="157"]
    158 [penwidth=3,label="158"]
    159 [penwidth=3,label="159"]
    160 [penwidth=3,label="160"]
    161 [penwidth=3,label="161"]
    162 [penwidth=3,label="162"]
    163 [penwidth=3,label="163"]
    164 [penwidth=3,label="164"]
    165 [penwidth=3,label="165"]
    166 [penwidth=3,label="166"]
    167 [penwidth=3,label="167"]
    168 [penwidth=3,label="168"]
    169 [penwidth=3,label="169"]
    170 [penwidth=3,label="170"]
    171 [penwidth=3,label="171"]
    172 [penwidth=3,label="172"]
    173 [penwidth=3,label="173"]
    174 [penwidth=3,label="174"]
    175 [penwidth=3,label="175"]
    176 [penwidth=3,label="176"]
    177 [penwidth=3,label="177"]
    178 [penwidth=3,label="178"]
    179 [penwidth=3,label="179"]
    180 [penwidth=3,label="180"]
    181 [penwidth=3,label="181"]
    182 [penwidth=3,label="182"]
    183 [penwidth=3,label="183"]
    184 [penwidth=3,label="184"]
    185 [penwidth=3,label="185"]
    186 [penwidth=3,label="186"]
    187 [penwidth=3,label="187"]
    188 [penwidth=3,label="188"]
    189 [penwidth=3,label="189"]
    190 [penwidth=3,label="190"]
    191 [penwidth=3,label="191"]
    192 [penwidth=3,label="192"]
    193 [penwidth=3,label="193"]
    194 [penwidth=3,label="194"]
    195 [penwidth=3,label="195"]
    196 [penwidth=3,label="196"]
    197 [penwidth=3,label="197"]
    198 [penwidth=3,label="198"]
    199 [penwidth=3,label="199"]
    200 [penwidth=3,label="200"]
    201 [penwidth=3,label="201"]
    202 [penwidth=3,label="202"]
    203 [penwidth=3,label="203"]
    204 [penwidth=3,label="204"]
    205 [penwidth=3,label="205"]
    206 [penwidth=3,label="206"]
    207 [penwidth=3,label="207"]
    208 [penwidth=3,label="208"]
    209 [penwidth=3,label="209"]
    210 [penwidth=3,label="210"]
    211 [penwidth=3,label="211"]
    212 [penwidth=3,label="212"]
    213 [penwidth=3,label="213"]
    214 [penwidth=3,label="214"]
    215 [penwidth=3,label="215"]
    216 [penwidth=3,label="216"]
    217 [penwidth=3,label="217"]
    218 [penwidth=3,label="218"]
    219 [penwidth=3,label="219"]
    220 [penwidth=3,label="220"]
    221 [penwidth=3,label="221"]
    222 [penwidth=3,label="222"]
    223 [penwidth=3,label="223"]
    224 [penwidth=3,label="224"]
    225 [penwidth=3,label="225"]
    226 [penwidth=3,label="226"]
    227 [penwidth=3,label="227"]
    228 [penwidth=3,label="228"]
    229 [penwidth=3,label="229"]
    230 [penwidth=3,label="230"]
    231 [penwidth=3,label="231"]
    232 [penwidth=3,label="232"]
    233 [penwidth=3,label="233"]
    234 [penwidth=3,label="234"]
    235 [penwidth=3,label="235"]
    236 [penwidth=3,label="236"]
    237 [penwidth=3,label="237"]
    238 [penwidth=3,label="238"]
    239 [penwidth=3,label="239"]
    240 [penwidth=3,label="240"]
    241 [penwidth=3,label="241"]
    242 [penwidth=3,label="242"]
    243 [penwidth=3,label="243"]
    244 [penwidth=3,label="244"]
    245 [penwidth=3,label="245"]
    246 [penwidth=3,label="246"]
    247 [penwidth=3,label="247"]
    248 [penwidth=3,label="248"]
    249 [penwidth=3,label="249"]
    250 [penwidth=3,label="250"]
    251 [penwidth=3,label="251"]
    252 [penwidth=3,label="252"]
    253 [penwidth=3,label="253"]
    254 [penwidth=3,label="254"]
    255 [penwidth=3,label="255"]
    256 [penwidth=3,label="256"]
    257 [penwidth=3,label="257"]
    258 [penwidth=3,label="258"]
    259 [penwidth=3,label="259"]
    260 [penwidth=3,label="260"]
    261 [penwidth=3,label="261"]
    262 [penwidth=3,label="262"]
    263 [penwidth=3,label="263"]
    264 [penwidth=3,label="264"]
    265 [penwidth=3,label="265"]
    266 [penwidth=3,label="266"]
    267 [penwidth=3,label="267"]
    268 [penwidth=3,label="268"]
    269 [penwidth=3,label="269"]
    270 [penwidth=3,label="270"]
    271 [penwidth=3,label="271"]
    272 [penwidth=3,label="272"]
    273 [penwidth=3,label="273"]
    274 [penwidth=3,label="274"]
    275 [penwidth=3,label="275"]
    276 [penwidth=3,label="276"]
    277 [penwidth=3,label="277"]
    278 [penwidth=3,label="278"]
    279 [penwidth=3,label="279"]
    280 [penwidth=3,label="280"]
    281 [penwidth=3,label="281"]
    282 [penwidth=3,label="282"]
    283 [penwidth=3,label="283"]
    284 [penwidth=3,label="284"]
    285 [penwidth=3,label="285"]
    286 [penwidth=3,label="286"]
    287 [penwidth=3,label="287"]
    288 [penwidth=3,label="288"]
    289 [penwidth=3,label="289"]
    290 [penwidth=3,label="290"]
    291 [penwidth=3,label="291"]
    292 [penwidth=3,label="292"]
    293 [penwidth=3,label="293"]
    294 [penwidth=3,label="294"]
    295 [penwidth=3,label="295"]
    296 [penwidth=3,label="296"]
    297 [penwidth=3,label="297"]
    298 [penwidth=3,label="298"]
    299 [penwidth=3,label="299"]
    300 [penwidth=3,label="300"]
    301 [penwidth=3,label="301"]
    302 [penwidth=3,label="302"]
    303 [penwidth=3,label="303"]
    304 [penwidth=3,label="304"]
    305 [penwidth=3,label="305"]
    306 [penwidth=3,label="306"]
    307 [penwidth=3,label="307"]
    308 [penwidth=3,label="308"]
    309 [penwidth=3,label="309"]
    310 [penwidth=3,label="310"]
    311 [penwidth=3,label="311"]
    312 [penwidth=3,label="312"]
    313 [penwidth=3,label="313"]
    314 [penwidth=3,label="314"]
    315 [penwidth=3,label="315"]
    316 [penwidth=3,label="316"]
    317 [penwidth=3,label="317"]
    318 [penwidth=3,label="318"]
    319 [penwidth=3,label="319"]
    320 [penwidth=3,label="320"]
    321 [penwidth=3,label="321"]
    322 [penwidth=3,label="322"]
    323 [penwidth=3,label="323"]
    324 [penwidth=3,label="324"]
    325 [penwidth=3,label="325"]
    326 [penwidth=3,label="326"]
    327 [penwidth=3,label="327"]
    328 [penwidth=3,label="328"]
    329 [penwidth=3,label="329"]
    330 [penwidth=3,label="330"]
    331 [penwidth=3,label="331"]
    332 [penwidth=3,label="332"]
    333 [penwidth=3,label="333"]
    334 [penwidth=3,label="334"]
    335 [penwidth=3,label="335"]
    336 [penwidth=3,label="336"]
    337 [penwidth=3,label="337"]
    338 [penwidth=3,label="338"]
    339 [penwidth=3,label="339"]
    340 [penwidth=3,label="340"]
    341 [penwidth=3,label="341"]
    342 [penwidth=3,label="342"]
    343 [penwidth=3,label="343"]
    344 [penwidth=3,label="344"]
    345 [penwidth=3,label="345"]
    346 [penwidth=3,label="346"]
    347 [penwidth=3,label="347"]
    348 [penwidth=3,label="348"]
    349 [penwidth=3,label="349"]
    350 [penwidth=3,label="350"]
    351 [penwidth=3,label="351"]
    352 [penwidth=3,label="352"]
    353 [penwidth=3,label="353"]
    354 [penwidth=3,label="354"]
    355 [penwidth=3,label="355"]
    356 [penwidth=3,label="356"]
    357 [penwidth=3,label="357"]
    358 [penwidth=3,label="358"]
    359 [penwidth=3,label="359"]
    360 [penwidth=3,label="360"]
    361 [penwidth=3,label="361"]
    362 [penwidth=3,label="362"]
    363 [penwidth=3,label="363"]
    364 [penwidth=3,label="364"]
    365 [penwidth=3,label="365"]
    366 [penwidth=3,label="366"]
    367 [penwidth=3,label="367"]
    368 [penwidth=3,label="368"]
    369 [penwidth=3,label="369"]
    370 [penwidth=3,label="370"]
    371 [penwidth=3,label="371"]
    372 [penwidth=3,label="372"]
    373 [penwidth=3,label="373"]
    374 [penwidth=3,label="374"]
    375 [penwidth=3,label="375"]
    376 [penwidth=3,label="376"]
    377 [penwidth=3,label="377"]
    378 [penwidth=3,label="378"]
    379 [penwidth=3,label="379"]
    380 [penwidth=3,label="380"]
    381 [penwidth=3,label="381"]
    382 [penwidth=3,label="382"]
    383 [penwidth=3,label="383"]
    384 [penwidth=3,label="384"]
    385 [penwidth=3,label="385"]
    386 [penwidth=3,label="386"]
    387 [penwidth=3,label="387"]
    388 [penwidth=3,label="388"]
    389 [penwidth=3,label="389"]
    390 [penwidth=3,label="390"]
    391 [penwidth=3,label="391"]
    392 [penwidth=3,label="392"]
    393 [penwidth=3,label="393"]
    394 [penwidth=3,label="394"]
    395 [penwidth=3,label="395"]
    396 [penwidth=3,label="396"]
    397 [penwidth=3,label="397"]
    398 [penwidth=3,label="398"]
    399 [penwidth=3,label="399"]

    365 -> 0 [penwidth=2]
    366 -> 0 [penwidth=2]
    367 -> 0 [penwidth=2]
    368 -> 0 [penwidth=2]
    369 -> 0 [penwidth=2]
    370 -> 0 [penwidth=2]
    371 -> 0 [penwidth=2]
    372 -> 365 [penwidth=2]
    373 -> 365 [penwidth=2]
    374 -> 365 [penwidth=2]
    375 -> 365 [penwidth=2]
    376 -> 365 [penwidth=2]
    377 -> 365 [penwidth=2]
    378 -> 365 [penwidth=2]
    1 -> 365 [penwidth=2]
    379 -> 365 [penwidth=2]
    2 -> 365 [penwidth=2]
    380 -> 365 [penwidth=2]
    3 -> 365 [penwidth=2]
    381 -> 365 [penwidth=2]
    4 -> 365 [penwidth=2]
    382 -> 365 [penwidth=2]
    5 -> 365 [penwidth=2]
    383 -> 365 [penwidth=2]
    6 -> 365 [penwidth=2]
    384 -> 365 [penwidth=2]
    7 -> 365 [penwidth=2]
    385 -> 366 [penwidth=2]
    8 -> 366 [penwidth=2]
    386 -> 366 [penwidth=2]
    9 -> 366 [penwidth=2]
    387 -> 366 [penwidth=2]
    10 -> 366 [penwidth=2]
    388 -> 366 [penwidth=2]
    11 -> 366 [penwidth=2]
    389 -> 366 [penwidth=2]
    12 -> 366 [penwidth=2]
    390 -> 366 [penwidth=2]
    13 -> 366 [penwidth=2]
    391 -> 366 [penwidth=2]
    14 -> 366 [penwidth=2]
    392 -> 366 [penwidth=2]
    15 -> 366 [penwidth=2]
    393 -> 366 [penwidth=2]
    16 -> 366 [penwidth=2]
    394 -> 366 [penwidth=2]
    17 -> 366 [penwidth=2]
    395 -> 366 [penwidth=2]
    18 -> 366 [penwidth=2]
    396 -> 366 [penwidth=2]
    19 -> 367 [penwidth=2]
    397 -> 367 [penwidth=2]
    20 -> 367 [penwidth=2]
    398 -> 367 [penwidth=2]
    21 -> 367 [penwidth=2]
    399 -> 367 [penwidth=2]
    22 -> 367 [penwidth=2]
    23 -> 367 [penwidth=2]
    24 -> 367 [penwidth=2]
    25 -> 367 [penwidth=2]
    26 -> 367 [penwidth=2]
    27 -> 367 [penwidth=2]
    28 -> 367 [penwidth=2]
    239 -> 367 [penwidth=2]
    281 -> 367 [penwidth=2]
    323 -> 367 [penwidth=2]
    240 -> 367 [penwidth=2]
    282 -> 367 [penwidth=2]
    324 -> 367 [penwidth=2]
    241 -> 367 [penwidth=2]
    283 -> 367 [penwidth=2]
    325 -> 367 [penwidth=2]
    242 -> 367 [penwidth=2]
    284 -> 367 [penwidth=2]
    326 -> 367 [penwidth=2]
    243 -> 367 [penwidth=2]
    285 -> 369 [penwidth=2]
    327 -> 370 [penwidth=2]
    244 -> 370 [penwidth=2]
    286 -> 370 [penwidth=2]
    328 -> 370 [penwidth=2]
    245 -> 370 [penwidth=2]
    287 -> 370 [penwidth=2]
    329 -> 370 [penwidth=2]
    246 -> 370 [penwidth=2]
    288 -> 370 [penwidth=2]
    330 -> 370 [penwidth=2]
    247 -> 370 [penwidth=2]
    289 -> 370 [penwidth=2]
    331 -> 370 [penwidth=2]
    248 -> 371 [penwidth=2]
    290 -> 371 [penwidth=2]
    332 -> 371 [penwidth=2]
    249 -> 371 [penwidth=2]
    291 -> 371 [penwidth=2]
    333 -> 371 [penwidth=2]
    250 -> 371 [penwidth=2]
    292 -> 371 [penwidth=2]
    334 -> 371 [penwidth=2]
    251 -> 371 [penwidth=2]
    293 -> 371 [penwidth=2]
    335 -> 371 [penwidth=2]
    294 -> 371 [penwidth=2]
    252 -> 371 [penwidth=2]
    336 -> 371 [penwidth=2]
    253 -> 371 [penwidth=2]
    295 -> 371 [penwidth=2]
    337 -> 371 [penwidth=2]
    254 -> 371 [penwidth=2]
    296 -> 371 [penwidth=2]
    338 -> 371 [penwidth=2]
    297 -> 372 [penwidth=2]
    255 -> 372 [penwidth=2]
    339 -> 372 [penwidth=2]
    298 -> 372 [penwidth=2]
    256 -> 372 [penwidth=2]
    340 -> 372 [penwidth=2]
    257 -> 372 [penwidth=2]
    299 -> 372 [penwidth=2]
    341 -> 372 [penwidth=2]
    258 -> 372 [penwidth=2]
    300 -> 372 [penwidth=2]
    342 -> 372 [penwidth=2]
    259 -> 372 [penwidth=2]
    301 -> 372 [penwidth=2]
    343 -> 372 [penwidth=2]
    260 -> 372 [penwidth=2]
    302 -> 372 [penwidth=2]
    344 -> 372 [penwidth=2]
    261 -> 372 [penwidth=2]
    303 -> 372 [penwidth=2]
    345 -> 372 [penwidth=2]
    262 -> 372 [penwidth=2]
    304 -> 372 [penwidth=2]
    346 -> 372 [penwidth=2]
    263 -> 372 [penwidth=2]
    305 -> 372 [penwidth=2]
    347 -> 372 [penwidth=2]
    306 -> 372 [penwidth=2]
    264 -> 372 [penwidth=2]
    348 -> 373 [penwidth=2]
    307 -> 373 [penwidth=2]
    265 -> 373 [penwidth=2]
    349 -> 373 [penwidth=2]
    266 -> 373 [penwidth=2]
    308 -> 373 [penwidth=2]
    350 -> 373 [penwidth=2]
    267 -> 373 [penwidth=2]
    309 -> 373 [penwidth=2]
    351 -> 373 [penwidth=2]
    268 -> 373 [penwidth=2]
    310 -> 373 [penwidth=2]
    352 -> 374 [penwidth=2]
    269 -> 374 [penwidth=2]
    311 -> 374 [penwidth=2]
    353 -> 374 [penwidth=2]
    270 -> 374 [penwidth=2]
    312 -> 374 [penwidth=2]
    354 -> 374 [penwidth=2]
    271 -> 374 [penwidth=2]
    313 -> 374 [penwidth=2]
    355 -> 374 [penwidth=2]
    272 -> 374 [penwidth=2]
    314 -> 374 [penwidth=2]
    356 -> 374 [penwidth=2]
    273 -> 374 [penwidth=2]
    315 -> 374 [penwidth=2]
    357 -> 374 [penwidth=2]
    274 -> 374 [penwidth=2]
    316 -> 374 [penwidth=2]
    358 -> 374 [penwidth=2]
    275 -> 374 [penwidth=2]
    317 -> 374 [penwidth=2]
    359 -> 375 [penwidth=2]
    276 -> 375 [penwidth=2]
    318 -> 375 [penwidth=2]
    360 -> 375 [penwidth=2]
    277 -> 375 [penwidth=2]
    319 -> 375 [penwidth=2]
    361 -> 375 [penwidth=2]
    278 -> 376 [penwidth=2]
    320 -> 377 [penwidth=2]
    362 -> 377 [penwidth=2]
    279 -> 377 [penwidth=2]
    321 -> 377 [penwidth=2]
    363 -> 377 [penwidth=2]
    280 -> 377 [penwidth=2]
    322 -> 377 [penwidth=2]
    364 -> 377 [penwidth=2]
    113 -> 377 [penwidth=2]
    155 -> 377 [penwidth=2]
    197 -> 377 [penwidth=2]
    114 -> 377 [penwidth=2]
    156 -> 377 [penwidth=2]
    198 -> 378 [penwidth=2]
    115 -> 378 [penwidth=2]
    157 -> 1 [penwidth=2]
    199 -> 1 [penwidth=2]
    116 -> 1 [penwidth=2]
    158 -> 1 [penwidth=2]
    200 -> 1 [penwidth=2]
    117 -> 1 [penwidth=2]
    159 -> 1 [penwidth=2]
    201 -> 1 [penwidth=2]
    118 -> 1 [penwidth=2]
    160 -> 1 [penwidth=2]
    202 -> 1 [penwidth=2]
    119 -> 1 [penwidth=2]
    161 -> 379 [penwidth=2]
    203 -> 379 [penwidth=2]
    120 -> 379 [penwidth=2]
    162 -> 379 [penwidth=2]
    204 -> 379 [penwidth=2]
    121 -> 379 [penwidth=2]
    163 -> 379 [penwidth=2]
    205 -> 379 [penwidth=2]
    122 -> 379 [penwidth=2]
    164 -> 379 [penwidth=2]
    206 -> 379 [penwidth=2]
    123 -> 379 [penwidth=2]
    165 -> 379 [penwidth=2]
    207 -> 379 [penwidth=2]
    124 -> 379 [penwidth=2]
    166 -> 379 [penwidth=2]
    208 -> 379 [penwidth=2]
    125 -> 379 [penwidth=2]
    167 -> 379 [penwidth=2]
    209 -> 379 [penwidth=2]
    126 -> 379 [penwidth=2]
    168 -> 379 [penwidth=2]
    210 -> 379 [penwidth=2]
    127 -> 2 [penwidth=2]
    169 -> 2 [penwidth=2]
    211 -> 2 [penwidth=2]
    128 -> 2 [penwidth=2]
    170 -> 2 [penwidth=2]
    212 -> 2 [penwidth=2]
    129 -> 2 [penwidth=2]
    171 -> 2 [penwidth=2]
    213 -> 2 [penwidth=2]
    130 -> 2 [penwidth=2]
    172 -> 2 [penwidth=2]
    214 -> 2 [penwidth=2]
    131 -> 380 [penwidth=2]
    173 -> 380 [penwidth=2]
    215 -> 380 [penwidth=2]
    132 -> 380 [penwidth=2]
    174 -> 380 [penwidth=2]
    216 -> 380 [penwidth=2]
    133 -> 380 [penwidth=2]
    175 -> 380 [penwidth=2]
    217 -> 3 [penwidth=2]
    134 -> 3 [penwidth=2]
    176 -> 3 [penwidth=2]
    218 -> 3 [penwidth=2]
    135 -> 3 [penwidth=2]
    177 -> 3 [penwidth=2]
    219 -> 3 [penwidth=2]
    136 -> 3 [penwidth=2]
    178 -> 3 [penwidth=2]
    220 -> 3 [penwidth=2]
    137 -> 3 [penwidth=2]
    179 -> 3 [penwidth=2]
    221 -> 3 [penwidth=2]
    138 -> 3 [penwidth=2]
    180 -> 381 [penwidth=2]
    222 -> 381 [penwidth=2]
    139 -> 381 [penwidth=2]
    181 -> 381 [penwidth=2]
    223 -> 381 [penwidth=2]
    140 -> 381 [penwidth=2]
    182 -> 381 [penwidth=2]
    224 -> 381 [penwidth=2]
    141 -> 381 [penwidth=2]
    183 -> 381 [penwidth=2]
    225 -> 381 [penwidth=2]
    142 -> 381 [penwidth=2]
    184 -> 381 [penwidth=2]
    226 -> 381 [penwidth=2]
    143 -> 381 [penwidth=2]
    185 -> 381 [penwidth=2]
    227 -> 381 [penwidth=2]
    144 -> 381 [penwidth=2]
    186 -> 381 [penwidth=2]
    228 -> 381 [penwidth=2]
    145 -> 381 [penwidth=2]
    187 -> 381 [penwidth=2]
    229 -> 381 [penwidth=2]
    146 -> 381 [penwidth=2]
    188 -> 381 [penwidth=2]
    230 -> 381 [penwidth=2]
    147 -> 381 [penwidth=2]
    189 -> 381 [penwidth=2]
    231 -> 381 [penwidth=2]
    148 -> 4 [penwidth=2]
    190 -> 4 [penwidth=2]
    232 -> 4 [penwidth=2]
    149 -> 4 [penwidth=2]
    191 -> 4 [penwidth=2]
    233 -> 4 [penwidth=2]
    150 -> 382 [penwidth=2]
    192 -> 382 [penwidth=2]
    234 -> 382 [penwidth=2]
    151 -> 382 [penwidth=2]
    193 -> 382 [penwidth=2]
    235 -> 382 [penwidth=2]
    152 -> 382 [penwidth=2]
    194 -> 382 [penwidth=2]
    236 -> 382 [penwidth=2]
    153 -> 382 [penwidth=2]
    195 -> 382 [penwidth=2]
    237 -> 382 [penwidth=2]
    154 -> 382 [penwidth=2]
    196 -> 5 [penwidth=2]
    238 -> 5 [penwidth=2]
    29 -> 5 [penwidth=2]
    71 -> 5 [penwidth=2]
    30 -> 5 [penwidth=2]
    72 -> 5 [penwidth=2]
    31 -> 5 [penwidth=2]
    73 -> 5 [penwidth=2]
    32 -> 5 [penwidth=2]
    74 -> 5 [penwidth=2]
    33 -> 5 [penwidth=2]
    75 -> 5 [penwidth=2]
    34 -> 5 [penwidth=2]
    76 -> 5 [penwidth=2]
    35 -> 5 [penwidth=2]
    77 -> 5 [penwidth=2]
    36 -> 5 [penwidth=2]
    78 -> 5 [penwidth=2]
    37 -> 5 [penwidth=2]
    79 -> 5 [penwidth=2]
    38 -> 5 [penwidth=2]
    80 -> 5 [penwidth=2]
    39 -> 5 [penwidth=2]
    81 -> 383 [penwidth=2]
    40 -> 383 [penwidth=2]
    82 -> 383 [penwidth=2]
    41 -> 383 [penwidth=2]
    83 -> 383 [penwidth=2]
    42 -> 383 [penwidth=2]
    84 -> 383 [penwidth=2]
    43 -> 383 [penwidth=2]
    85 -> 383 [penwidth=2]
    44 -> 383 [penwidth=2]
    86 -> 383 [penwidth=2]
    45 -> 383 [penwidth=2]
    87 -> 383 [penwidth=2]
    46 -> 383 [penwidth=2]
    88 -> 383 [penwidth=2]
    47 -> 383 [penwidth=2]
    89 -> 383 [penwidth=2]
    48 -> 383 [penwidth=2]
    90 -> 383 [penwidth=2]
    49 -> 383 [penwidth=2]
    91 -> 383 [penwidth=2]
    50 -> 383 [penwidth=2]
    92 -> 383 [penwidth=2]
    51 -> 383 [penwidth=2]
    93 -> 6 [penwidth=2]
    52 -> 6 [penwidth=2]
    94 -> 6 [penwidth=2]
    53 -> 6 [penwidth=2]
    95 -> 6 [penwidth=2]
    54 -> 6 [penwidth=2]
    96 -> 6 [penwidth=2]
    55 -> 6 [penwidth=2]
    97 -> 6 [penwidth=2]
    56 -> 6 [penwidth=2]
    98 -> 6 [penwidth=2]
    57 -> 6 [penwidth=2]
    99 -> 6 [penwidth=2]
    58 -> 6 [penwidth=2]
    100 -> 6 [penwidth=2]
    59 -> 6 [penwidth=2]
    101 -> 6 [penwidth=2]
    60 -> 6 [penwidth=2]
    102 -> 6 [penwidth=2]
    61 -> 6 [penwidth=2]
    103 -> 6 [penwidth=2]
    62 -> 6 [penwidth=2]
    104 -> 6 [penwidth=2]
    63 -> 6 [penwidth=2]
    105 -> 6 [penwidth=2]
    64 -> 6 [penwidth=2]
    106 -> 384 [penwidth=2]
    65 -> 384 [penwidth=2]
    107 -> 384 [penwidth=2]
    66 -> 384 [penwidth=2]
    108 -> 384 [penwidth=2]
    67 -> 384 [penwidth=2]
    109 -> 384 [penwidth=2]
    68 -> 384 [penwidth=2]
    110 -> 384 [penwidth=2]
    69 -> 384 [penwidth=2]
    111 -> 384 [penwidth=2]
    70 -> 384 [penwidth=2]
    112 -> 384 [penwidth=2]
    381 -> 369 [penwidth=2]
    381 -> 370 [penwidth=2]
    381 -> 368 [penwidth=2]
    4 -> 368 [penwidth=2]
    6 -> 371 [penwidth=2]
    6 -> 366 [penwidth=2]
    6 -> 369 [penwidth=2]
    6 -> 370 [penwidth=2]
    25 -> 371 [penwidth=2]
    25 -> 369 [penwidth=2]
    25 -> 370 [penwidth=2]
    25 -> 365 [penwidth=2]
    244 -> 368 [penwidth=2]
    244 -> 366 [penwidth=2]
    330 -> 369 [penwidth=2]
    330 -> 368 [penwidth=2]
    330 -> 365 [penwidth=2]
    330 -> 366 [penwidth=2]
    289 -> 365 [penwidth=2]
    290 -> 365 [penwidth=2]
    290 -> 369 [penwidth=2]
    344 -> 22 [penwidth=2]
    344 -> 376 [penwidth=2]
    344 -> 13 [penwidth=2]
    344 -> 27 [penwidth=2]
    344 -> 253 [penwidth=2]
    344 -> 244 [penwidth=2]
    344 -> 332 [penwidth=2]
    344 -> 399 [penwidth=2]
    344 -> 296 [penwidth=2]
    344 -> 28 [penwidth=2]
    344 -> 281 [penwidth=2]
    344 -> 395 [penwidth=2]
    344 -> 328 [penwidth=2]
    344 -> 390 [penwidth=2]
    344 -> 337 [penwidth=2]
    344 -> 288 [penwidth=2]
    344 -> 292 [penwidth=2]
    344 -> 323 [penwidth=2]
    344 -> 295 [penwidth=2]
    344 -> 394 [penwidth=2]
    344 -> 398 [penwidth=2]
    344 -> 252 [penwidth=2]
    344 -> 239 [penwidth=2]
    344 -> 249 [penwidth=2]
    344 -> 291 [penwidth=2]
    344 -> 17 [penwidth=2]
    344 -> 289 [penwidth=2]
    344 -> 241 [penwidth=2]
    344 -> 242 [penwidth=2]
    344 -> 290 [penwidth=2]
    344 -> 243 [penwidth=2]
    344 -> 386 [penwidth=2]
    344 -> 294 [penwidth=2]
    344 -> 336 [penwidth=2]
    344 -> 8 [penwidth=2]
    344 -> 19 [penwidth=2]
    344 -> 240 [penwidth=2]
    344 -> 393 [penwidth=2]
    344 -> 338 [penwidth=2]
    344 -> 3 [penwidth=2]
    344 -> 12 [penwidth=2]
    344 -> 247 [penwidth=2]
    344 -> 2 [penwidth=2]
    344 -> 335 [penwidth=2]
    344 -> 248 [penwidth=2]
    344 -> 375 [penwidth=2]
    344 -> 1 [penwidth=2]
    344 -> 20 [penwidth=2]
    344 -> 325 [penwidth=2]
    344 -> 284 [penwidth=2]
    344 -> 378 [penwidth=2]
    344 -> 331 [penwidth=2]
    344 -> 254 [penwidth=2]
    344 -> 7 [penwidth=2]
    344 -> 10 [penwidth=2]
    344 -> 287 [penwidth=2]
    305 -> 388 [penwidth=2]
    305 -> 336 [penwidth=2]
    305 -> 338 [penwidth=2]
    305 -> 337 [penwidth=2]
    305 -> 291 [penwidth=2]
    305 -> 15 [penwidth=2]
    305 -> 296 [penwidth=2]
    305 -> 26 [penwidth=2]
    305 -> 2 [penwidth=2]
    305 -> 324 [penwidth=2]
    305 -> 382 [penwidth=2]
    305 -> 331 [penwidth=2]
    305 -> 329 [penwidth=2]
    305 -> 3 [penwidth=2]
    305 -> 252 [penwidth=2]
    305 -> 243 [penwidth=2]
    305 -> 6 [penwidth=2]
    305 -> 245 [penwidth=2]
    305 -> 281 [penwidth=2]
    305 -> 393 [penwidth=2]
    305 -> 290 [penwidth=2]
    305 -> 13 [penwidth=2]
    305 -> 325 [penwidth=2]
    305 -> 373 [penwidth=2]
    305 -> 242 [penwidth=2]
    305 -> 391 [penwidth=2]
    305 -> 398 [penwidth=2]
    305 -> 378 [penwidth=2]
    305 -> 253 [penwidth=2]
    305 -> 293 [penwidth=2]
    305 -> 12 [penwidth=2]
    305 -> 380 [penwidth=2]
    305 -> 383 [penwidth=2]
    305 -> 381 [penwidth=2]
    305 -> 385 [penwidth=2]
    305 -> 386 [penwidth=2]
    305 -> 10 [penwidth=2]
    305 -> 287 [penwidth=2]
    305 -> 14 [penwidth=2]
    305 -> 22 [penwidth=2]
    305 -> 396 [penwidth=2]
    305 -> 392 [penwidth=2]
    305 -> 8 [penwidth=2]
    305 -> 376 [penwidth=2]
    305 -> 295 [penwidth=2]
    305 -> 283 [penwidth=2]
    305 -> 23 [penwidth=2]
    305 -> 1 [penwidth=2]
    305 -> 395 [penwidth=2]
    305 -> 285 [penwidth=2]
    305 -> 289 [penwidth=2]
    305 -> 5 [penwidth=2]
    305 -> 9 [penwidth=2]
    305 -> 248 [penwidth=2]
    305 -> 377 [penwidth=2]
    305 -> 327 [penwidth=2]
    305 -> 25 [penwidth=2]
    305 -> 334 [penwidth=2]
    305 -> 379 [penwidth=2]
    305 -> 240 [penwidth=2]
    305 -> 294 [penwidth=2]
    305 -> 21 [penwidth=2]
    305 -> 19 [penwidth=2]
    305 -> 333 [penwidth=2]
    305 -> 332 [penwidth=2]
    305 -> 374 [penwidth=2]
    305 -> 387 [penwidth=2]
    305 -> 397 [penwidth=2]
    305 -> 390 [penwidth=2]
    305 -> 18 [penwidth=2]
    305 -> 375 [penwidth=2]
    305 -> 20 [penwidth=2]
    305 -> 27 [penwidth=2]
    305 -> 284 [penwidth=2]
    305 -> 16 [penwidth=2]
    305 -> 244 [penwidth=2]
    305 -> 399 [penwidth=2]
    305 -> 24 [penwidth=2]
    305 -> 330 [penwidth=2]
    305 -> 250 [penwidth=2]
    305 -> 288 [penwidth=2]
    305 -> 254 [penwidth=2]
    305 -> 246 [penwidth=2]
    305 -> 394 [penwidth=2]
    305 -> 326 [penwidth=2]
    305 -> 17 [penwidth=2]
    305 -> 239 [penwidth=2]
    305 -> 328 [penwidth=2]
    305 -> 7 [penwidth=2]
    305 -> 241 [penwidth=2]
    305 -> 249 [penwidth=2]
    305 -> 292 [penwidth=2]
    305 -> 335 [penwidth=2]
    305 -> 247 [penwidth=2]
    305 -> 323 [penwidth=2]
    305 -> 4 [penwidth=2]
    305 -> 251 [penwidth=2]
    305 -> 384 [penwidth=2]
    305 -> 389 [penwidth=2]
    305 -> 286 [penwidth=2]
    305 -> 11 [penwidth=2]
    265 -> 287 [penwidth=2]
    265 -> 334 [penwidth=2]
    265 -> 248 [penwidth=2]
    265 -> 5 [penwidth=2]
    265 -> 326 [penwidth=2]
    265 -> 250 [penwidth=2]
    265 -> 384 [penwidth=2]
    265 -> 251 [penwidth=2]
    265 -> 285 [penwidth=2]
    265 -> 335 [penwidth=2]
    265 -> 387 [penwidth=2]
    265 -> 26 [penwidth=2]
    265 -> 13 [penwidth=2]
    265 -> 338 [penwidth=2]
    265 -> 253 [penwidth=2]
    265 -> 332 [penwidth=2]
    265 -> 378 [penwidth=2]
    265 -> 327 [penwidth=2]
    265 -> 24 [penwidth=2]
    265 -> 294 [penwidth=2]
    265 -> 240 [penwidth=2]
    265 -> 12 [penwidth=2]
    265 -> 243 [penwidth=2]
    265 -> 27 [penwidth=2]
    265 -> 10 [penwidth=2]
    265 -> 14 [penwidth=2]
    265 -> 377 [penwidth=2]
    265 -> 392 [penwidth=2]
    265 -> 1 [penwidth=2]
    265 -> 244 [penwidth=2]
    265 -> 246 [penwidth=2]
    265 -> 9 [penwidth=2]
    265 -> 3 [penwidth=2]
    265 -> 19 [penwidth=2]
    265 -> 288 [penwidth=2]
    265 -> 15 [penwidth=2]
    265 -> 20 [penwidth=2]
    265 -> 395 [penwidth=2]
    265 -> 323 [penwidth=2]
    265 -> 324 [penwidth=2]
    265 -> 379 [penwidth=2]
    265 -> 21 [penwidth=2]
    265 -> 382 [penwidth=2]
    265 -> 7 [penwidth=2]
    265 -> 252 [penwidth=2]
    265 -> 242 [penwidth=2]
    265 -> 381 [penwidth=2]
    265 -> 328 [penwidth=2]
    265 -> 376 [penwidth=2]
    265 -> 390 [penwidth=2]
    265 -> 22 [penwidth=2]
    265 -> 282 [penwidth=2]
    265 -> 375 [penwidth=2]
    265 -> 290 [penwidth=2]
    265 -> 383 [penwidth=2]
    265 -> 6 [penwidth=2]
    265 -> 336 [penwidth=2]
    265 -> 391 [penwidth=2]
    265 -> 396 [penwidth=2]
    265 -> 292 [penwidth=2]
    265 -> 4 [penwidth=2]
    265 -> 399 [penwidth=2]
    265 -> 398 [penwidth=2]
    265 -> 247 [penwidth=2]
    265 -> 241 [penwidth=2]
    265 -> 249 [penwidth=2]
    265 -> 11 [penwidth=2]
    265 -> 325 [penwidth=2]
    265 -> 385 [penwidth=2]
    265 -> 17 [penwidth=2]
    265 -> 388 [penwidth=2]
    265 -> 8 [penwidth=2]
    265 -> 296 [penwidth=2]
    265 -> 286 [penwidth=2]
    265 -> 380 [penwidth=2]
    265 -> 239 [penwidth=2]
    265 -> 329 [penwidth=2]
    353 -> 326 [penwidth=2]
    353 -> 286 [penwidth=2]
    353 -> 247 [penwidth=2]
    353 -> 378 [penwidth=2]
    353 -> 334 [penwidth=2]
    353 -> 328 [penwidth=2]
    353 -> 292 [penwidth=2]
    353 -> 248 [penwidth=2]
    353 -> 246 [penwidth=2]
    353 -> 373 [penwidth=2]
    353 -> 16 [penwidth=2]
    353 -> 23 [penwidth=2]
    353 -> 296 [penwidth=2]
    353 -> 10 [penwidth=2]
    353 -> 21 [penwidth=2]
    353 -> 293 [penwidth=2]
    353 -> 242 [penwidth=2]
    353 -> 390 [penwidth=2]
    353 -> 376 [penwidth=2]
    353 -> 25 [penwidth=2]
    353 -> 6 [penwidth=2]
    353 -> 244 [penwidth=2]
    353 -> 7 [penwidth=2]
    353 -> 379 [penwidth=2]
    353 -> 241 [penwidth=2]
    353 -> 330 [penwidth=2]
    353 -> 337 [penwidth=2]
    353 -> 325 [penwidth=2]
    353 -> 249 [penwidth=2]
    353 -> 14 [penwidth=2]
    353 -> 13 [penwidth=2]
    353 -> 2 [penwidth=2]
    353 -> 397 [penwidth=2]
    353 -> 8 [penwidth=2]
    353 -> 396 [penwidth=2]
    353 -> 380 [penwidth=2]
    353 -> 27 [penwidth=2]
    353 -> 287 [penwidth=2]
    353 -> 283 [penwidth=2]
    353 -> 243 [penwidth=2]
    353 -> 19 [penwidth=2]
    353 -> 395 [penwidth=2]
    353 -> 12 [penwidth=2]
    353 -> 288 [penwidth=2]
    353 -> 372 [penwidth=2]
    353 -> 22 [penwidth=2]
    353 -> 289 [penwidth=2]
    353 -> 387 [penwidth=2]
    353 -> 391 [penwidth=2]
    353 -> 398 [penwidth=2]
    353 -> 381 [penwidth=2]
    353 -> 284 [penwidth=2]
    353 -> 388 [penwidth=2]
    353 -> 9 [penwidth=2]
    353 -> 327 [penwidth=2]
    353 -> 338 [penwidth=2]
    353 -> 394 [penwidth=2]
    353 -> 254 [penwidth=2]
    353 -> 17 [penwidth=2]
    353 -> 393 [penwidth=2]
    353 -> 291 [penwidth=2]
    353 -> 389 [penwidth=2]
    353 -> 332 [penwidth=2]
    353 -> 290 [penwidth=2]
    353 -> 5 [penwidth=2]
    359 -> 333 [penwidth=2]
    359 -> 27 [penwidth=2]
    359 -> 23 [penwidth=2]
    359 -> 245 [penwidth=2]
    359 -> 385 [penwidth=2]
    359 -> 327 [penwidth=2]
    359 -> 3 [penwidth=2]
    359 -> 330 [penwidth=2]
    359 -> 336 [penwidth=2]
    359 -> 25 [penwidth=2]
    359 -> 9 [penwidth=2]
    359 -> 242 [penwidth=2]
    359 -> 6 [penwidth=2]
    359 -> 373 [penwidth=2]
    359 -> 281 [penwidth=2]
    359 -> 399 [penwidth=2]
    359 -> 335 [penwidth=2]
    359 -> 390 [penwidth=2]
    359 -> 393 [penwidth=2]
    359 -> 254 [penwidth=2]
    359 -> 290 [penwidth=2]
    359 -> 243 [penwidth=2]
    359 -> 2 [penwidth=2]
    359 -> 329 [penwidth=2]
    359 -> 289 [penwidth=2]
    359 -> 293 [penwidth=2]
    359 -> 13 [penwidth=2]
    359 -> 376 [penwidth=2]
    359 -> 248 [penwidth=2]
    359 -> 377 [penwidth=2]
    359 -> 332 [penwidth=2]
    359 -> 283 [penwidth=2]
    359 -> 398 [penwidth=2]
    359 -> 17 [penwidth=2]
    359 -> 250 [penwidth=2]
    359 -> 19 [penwidth=2]
    359 -> 20 [penwidth=2]
    359 -> 239 [penwidth=2]
    359 -> 1 [penwidth=2]
    359 -> 15 [penwidth=2]
    359 -> 7 [penwidth=2]
    359 -> 11 [penwidth=2]
    359 -> 288 [penwidth=2]
    359 -> 323 [penwidth=2]
    359 -> 383 [penwidth=2]
    359 -> 12 [penwidth=2]
    359 -> 22 [penwidth=2]
    359 -> 380 [penwidth=2]
    359 -> 294 [penwidth=2]
    359 -> 8 [penwidth=2]
    359 -> 284 [penwidth=2]
    359 -> 387 [penwidth=2]
    359 -> 249 [penwidth=2]
    359 -> 384 [penwidth=2]
    359 -> 247 [penwidth=2]
    359 -> 378 [penwidth=2]
    359 -> 395 [penwidth=2]
    359 -> 337 [penwidth=2]
    359 -> 244 [penwidth=2]
    359 -> 251 [penwidth=2]
    359 -> 26 [penwidth=2]
    359 -> 16 [penwidth=2]
    359 -> 381 [penwidth=2]
    359 -> 21 [penwidth=2]
    359 -> 253 [penwidth=2]
    359 -> 296 [penwidth=2]
    359 -> 252 [penwidth=2]
    359 -> 18 [penwidth=2]
    359 -> 372 [penwidth=2]
    359 -> 286 [penwidth=2]
    359 -> 386 [penwidth=2]
    359 -> 28 [penwidth=2]
    359 -> 24 [penwidth=2]
    359 -> 14 [penwidth=2]
    359 -> 5 [penwidth=2]
    359 -> 379 [penwidth=2]
    277 -> 245 [penwidth=2]
    277 -> 329 [penwidth=2]
    277 -> 251 [penwidth=2]
    277 -> 8 [penwidth=2]
    277 -> 396 [penwidth=2]
    277 -> 374 [penwidth=2]
    277 -> 2 [penwidth=2]
    277 -> 387 [penwidth=2]
    277 -> 294 [penwidth=2]
    277 -> 327 [penwidth=2]
    277 -> 397 [penwidth=2]
    277 -> 281 [penwidth=2]
    277 -> 3 [penwidth=2]
    277 -> 24 [penwidth=2]
    277 -> 389 [penwidth=2]
    277 -> 11 [penwidth=2]
    277 -> 283 [penwidth=2]
    277 -> 248 [penwidth=2]
    277 -> 335 [penwidth=2]
    277 -> 244 [penwidth=2]
    277 -> 330 [penwidth=2]
    277 -> 296 [penwidth=2]
    277 -> 399 [penwidth=2]
    277 -> 332 [penwidth=2]
    277 -> 15 [penwidth=2]
    277 -> 243 [penwidth=2]
    277 -> 16 [penwidth=2]
    277 -> 250 [penwidth=2]
    277 -> 282 [penwidth=2]
    277 -> 325 [penwidth=2]
    277 -> 21 [penwidth=2]
    277 -> 376 [penwidth=2]
    277 -> 287 [penwidth=2]
    277 -> 394 [penwidth=2]
    277 -> 295 [penwidth=2]
    277 -> 12 [penwidth=2]
    277 -> 398 [penwidth=2]
    277 -> 290 [penwidth=2]
    277 -> 292 [penwidth=2]
    277 -> 239 [penwidth=2]
    277 -> 324 [penwidth=2]
    277 -> 393 [penwidth=2]
    277 -> 4 [penwidth=2]
    277 -> 388 [penwidth=2]
    277 -> 289 [penwidth=2]
    277 -> 323 [penwidth=2]
    277 -> 385 [penwidth=2]
    277 -> 241 [penwidth=2]
    277 -> 372 [penwidth=2]
    277 -> 379 [penwidth=2]
    277 -> 390 [penwidth=2]
    277 -> 284 [penwidth=2]
    277 -> 252 [penwidth=2]
    277 -> 240 [penwidth=2]
    277 -> 20 [penwidth=2]
    277 -> 26 [penwidth=2]
    277 -> 25 [penwidth=2]
    277 -> 383 [penwidth=2]
    277 -> 17 [penwidth=2]
    277 -> 6 [penwidth=2]
    277 -> 328 [penwidth=2]
    277 -> 381 [penwidth=2]
    277 -> 392 [penwidth=2]
    277 -> 22 [penwidth=2]
    277 -> 291 [penwidth=2]
    277 -> 14 [penwidth=2]
    277 -> 333 [penwidth=2]
    277 -> 19 [penwidth=2]
    277 -> 247 [penwidth=2]
    277 -> 336 [penwidth=2]
    277 -> 378 [penwidth=2]
    277 -> 380 [penwidth=2]
    277 -> 7 [penwidth=2]
    277 -> 293 [penwidth=2]
    277 -> 9 [penwidth=2]
    277 -> 384 [penwidth=2]
    277 -> 253 [penwidth=2]
    277 -> 288 [penwidth=2]
    277 -> 395 [penwidth=2]
    277 -> 391 [penwidth=2]
    277 -> 338 [penwidth=2]
    277 -> 28 [penwidth=2]
    277 -> 285 [penwidth=2]
    277 -> 386 [penwidth=2]
    277 -> 286 [penwidth=2]
    201 -> 17 [penwidth=2]
    201 -> 325 [penwidth=2]
    201 -> 251 [penwidth=2]
    201 -> 254 [penwidth=2]
    201 -> 253 [penwidth=2]
    201 -> 381 [penwidth=2]
    201 -> 335 [penwidth=2]
    201 -> 290 [penwidth=2]
    201 -> 284 [penwidth=2]
    201 -> 324 [penwidth=2]
    201 -> 333 [penwidth=2]
    201 -> 326 [penwidth=2]
    201 -> 242 [penwidth=2]
    201 -> 285 [penwidth=2]
    201 -> 4 [penwidth=2]
    201 -> 250 [penwidth=2]
    201 -> 382 [penwidth=2]
    201 -> 14 [penwidth=2]
    201 -> 385 [penwidth=2]
    201 -> 377 [penwidth=2]
    201 -> 388 [penwidth=2]
    201 -> 241 [penwidth=2]
    201 -> 286 [penwidth=2]
    201 -> 239 [penwidth=2]
    201 -> 24 [penwidth=2]
    201 -> 292 [penwidth=2]
    201 -> 12 [penwidth=2]
    201 -> 386 [penwidth=2]
    201 -> 2 [penwidth=2]
    201 -> 11 [penwidth=2]
    201 -> 389 [penwidth=2]
    201 -> 294 [penwidth=2]
    201 -> 323 [penwidth=2]
    201 -> 23 [penwidth=2]
    201 -> 373 [penwidth=2]
    201 -> 19 [penwidth=2]
    201 -> 13 [penwidth=2]
    201 -> 329 [penwidth=2]
    201 -> 390 [penwidth=2]
    201 -> 328 [penwidth=2]
    201 -> 338 [penwidth=2]
    201 -> 376 [penwidth=2]
    201 -> 395 [penwidth=2]
    201 -> 245 [penwidth=2]
    201 -> 396 [penwidth=2]
    201 -> 330 [penwidth=2]
    201 -> 22 [penwidth=2]
    201 -> 384 [penwidth=2]
    201 -> 378 [penwidth=2]
    201 -> 3 [penwidth=2]
    201 -> 18 [penwidth=2]
    201 -> 383 [penwidth=2]
    201 -> 392 [penwidth=2]
    201 -> 5 [penwidth=2]
    201 -> 387 [penwidth=2]
    201 -> 16 [penwidth=2]
    201 -> 246 [penwidth=2]
    201 -> 28 [penwidth=2]
    201 -> 20 [penwidth=2]
    201 -> 247 [penwidth=2]
    201 -> 398 [penwidth=2]
    201 -> 374 [penwidth=2]
    201 -> 25 [penwidth=2]
    201 -> 334 [penwidth=2]
    201 -> 249 [penwidth=2]
    201 -> 240 [penwidth=2]
    201 -> 331 [penwidth=2]
    202 -> 288 [penwidth=2]
    202 -> 4 [penwidth=2]
    202 -> 292 [penwidth=2]
    202 -> 246 [penwidth=2]
    202 -> 22 [penwidth=2]
    202 -> 242 [penwidth=2]
    202 -> 28 [penwidth=2]
    202 -> 21 [penwidth=2]
    202 -> 245 [penwidth=2]
    202 -> 394 [penwidth=2]
    202 -> 330 [penwidth=2]
    202 -> 3 [penwidth=2]
    202 -> 282 [penwidth=2]
    202 -> 253 [penwidth=2]
    202 -> 243 [penwidth=2]
    202 -> 334 [penwidth=2]
    202 -> 291 [penwidth=2]
    202 -> 241 [penwidth=2]
    202 -> 247 [penwidth=2]
    202 -> 2 [penwidth=2]
    202 -> 336 [penwidth=2]
    202 -> 284 [penwidth=2]
    202 -> 293 [penwidth=2]
    202 -> 323 [penwidth=2]
    202 -> 12 [penwidth=2]
    202 -> 380 [penwidth=2]
    202 -> 395 [penwidth=2]
    202 -> 338 [penwidth=2]
    202 -> 381 [penwidth=2]
    202 -> 328 [penwidth=2]
    202 -> 250 [penwidth=2]
    202 -> 396 [penwidth=2]
    202 -> 249 [penwidth=2]
    202 -> 393 [penwidth=2]
    202 -> 378 [penwidth=2]
    202 -> 386 [penwidth=2]
    202 -> 376 [penwidth=2]
    202 -> 244 [penwidth=2]
    202 -> 251 [penwidth=2]
    202 -> 285 [penwidth=2]
    202 -> 382 [penwidth=2]
    202 -> 384 [penwidth=2]
    202 -> 294 [penwidth=2]
    202 -> 290 [penwidth=2]
    202 -> 10 [penwidth=2]
    202 -> 390 [penwidth=2]
    202 -> 333 [penwidth=2]
    202 -> 388 [penwidth=2]
    202 -> 7 [penwidth=2]
    202 -> 326 [penwidth=2]
    202 -> 18 [penwidth=2]
    202 -> 15 [penwidth=2]
    202 -> 389 [penwidth=2]
    202 -> 397 [penwidth=2]
    202 -> 374 [penwidth=2]
    202 -> 335 [penwidth=2]
    202 -> 16 [penwidth=2]
    202 -> 286 [penwidth=2]
    202 -> 379 [penwidth=2]
    202 -> 8 [penwidth=2]
    202 -> 14 [penwidth=2]
    202 -> 20 [penwidth=2]
    202 -> 283 [penwidth=2]
    202 -> 5 [penwidth=2]
    202 -> 11 [penwidth=2]
    202 -> 391 [penwidth=2]
    202 -> 373 [penwidth=2]
    202 -> 337 [penwidth=2]
    202 -> 287 [penwidth=2]
    202 -> 329 [penwidth=2]
    202 -> 325 [penwidth=2]
    202 -> 13 [penwidth=2]
    202 -> 332 [penwidth=2]
    202 -> 26 [penwidth=2]
    202 -> 387 [penwidth=2]
    202 -> 372 [penwidth=2]
    202 -> 296 [penwidth=2]
    202 -> 295 [penwidth=2]
    202 -> 385 [penwidth=2]
    202 -> 19 [penwidth=2]
    202 -> 25 [penwidth=2]
    202 -> 289 [penwidth=2]
    202 -> 252 [penwidth=2]
    202 -> 27 [penwidth=2]
    202 -> 240 [penwidth=2]
    202 -> 248 [penwidth=2]
    202 -> 281 [penwidth=2]
    202 -> 331 [penwidth=2]
    202 -> 375 [penwidth=2]
    202 -> 9 [penwidth=2]
    202 -> 377 [penwidth=2]
    202 -> 254 [penwidth=2]
    162 -> 376 [penwidth=2]
    162 -> 3 [penwidth=2]
    162 -> 384 [penwidth=2]
    162 -> 338 [penwidth=2]
    162 -> 23 [penwidth=2]
    162 -> 395 [penwidth=2]
    162 -> 388 [penwidth=2]
    162 -> 249 [penwidth=2]
    162 -> 290 [penwidth=2]
    162 -> 289 [penwidth=2]
    162 -> 239 [penwidth=2]
    162 -> 377 [penwidth=2]
    162 -> 284 [penwidth=2]
    162 -> 393 [penwidth=2]
    162 -> 287 [penwidth=2]
    162 -> 6 [penwidth=2]
    162 -> 253 [penwidth=2]
    162 -> 2 [penwidth=2]
    162 -> 374 [penwidth=2]
    162 -> 27 [penwidth=2]
    162 -> 399 [penwidth=2]
    162 -> 381 [penwidth=2]
    162 -> 15 [penwidth=2]
    162 -> 382 [penwidth=2]
    162 -> 396 [penwidth=2]
    162 -> 252 [penwidth=2]
    162 -> 337 [penwidth=2]
    162 -> 331 [penwidth=2]
    162 -> 282 [penwidth=2]
    162 -> 323 [penwidth=2]
    162 -> 398 [penwidth=2]
    162 -> 251 [penwidth=2]
    162 -> 391 [penwidth=2]
    162 -> 288 [penwidth=2]
    162 -> 375 [penwidth=2]
    162 -> 325 [penwidth=2]
    162 -> 240 [penwidth=2]
    162 -> 378 [penwidth=2]
    162 -> 296 [penwidth=2]
    162 -> 336 [penwidth=2]
    162 -> 335 [penwidth=2]
    162 -> 21 [penwidth=2]
    162 -> 394 [penwidth=2]
    162 -> 294 [penwidth=2]
    162 -> 386 [penwidth=2]
    162 -> 241 [penwidth=2]
    162 -> 242 [penwidth=2]
    162 -> 281 [penwidth=2]
    162 -> 250 [penwidth=2]
    162 -> 389 [penwidth=2]
    162 -> 293 [penwidth=2]
    162 -> 292 [penwidth=2]
    162 -> 248 [penwidth=2]
    162 -> 22 [penwidth=2]
    127 -> 251 [penwidth=2]
    127 -> 287 [penwidth=2]
    127 -> 12 [penwidth=2]
    127 -> 395 [penwidth=2]
    127 -> 248 [penwidth=2]
    127 -> 9 [penwidth=2]
    127 -> 392 [penwidth=2]
    127 -> 327 [penwidth=2]
    127 -> 281 [penwidth=2]
    127 -> 337 [penwidth=2]
    127 -> 334 [penwidth=2]
    127 -> 289 [penwidth=2]
    127 -> 283 [penwidth=2]
    127 -> 291 [penwidth=2]
    127 -> 372 [penwidth=2]
    127 -> 242 [penwidth=2]
    127 -> 332 [penwidth=2]
    127 -> 15 [penwidth=2]
    127 -> 3 [penwidth=2]
    127 -> 390 [penwidth=2]
    127 -> 246 [penwidth=2]
    127 -> 373 [penwidth=2]
    127 -> 282 [penwidth=2]
    127 -> 254 [penwidth=2]
    127 -> 389 [penwidth=2]
    127 -> 377 [penwidth=2]
    127 -> 28 [penwidth=2]
    127 -> 249 [penwidth=2]
    127 -> 328 [penwidth=2]
    127 -> 284 [penwidth=2]
    127 -> 384 [penwidth=2]
    127 -> 243 [penwidth=2]
    127 -> 7 [penwidth=2]
    127 -> 1 [penwidth=2]
    127 -> 296 [penwidth=2]
    127 -> 326 [penwidth=2]
    127 -> 288 [penwidth=2]
    127 -> 6 [penwidth=2]
    127 -> 14 [penwidth=2]
    127 -> 383 [penwidth=2]
    127 -> 398 [penwidth=2]
    127 -> 290 [penwidth=2]
    127 -> 20 [penwidth=2]
    127 -> 24 [penwidth=2]
    127 -> 324 [penwidth=2]
    127 -> 331 [penwidth=2]
    127 -> 252 [penwidth=2]
    127 -> 325 [penwidth=2]
    127 -> 329 [penwidth=2]
    127 -> 244 [penwidth=2]
    127 -> 387 [penwidth=2]
    127 -> 336 [penwidth=2]
    127 -> 23 [penwidth=2]
    127 -> 17 [penwidth=2]
    127 -> 335 [penwidth=2]
    127 -> 285 [penwidth=2]
    127 -> 18 [penwidth=2]
    127 -> 378 [penwidth=2]
    127 -> 333 [penwidth=2]
    127 -> 253 [penwidth=2]
    127 -> 386 [penwidth=2]
    127 -> 250 [penwidth=2]
    127 -> 240 [penwidth=2]
    127 -> 245 [penwidth=2]
    127 -> 388 [penwidth=2]
    127 -> 292 [penwidth=2]
    127 -> 13 [penwidth=2]
    127 -> 22 [penwidth=2]
    127 -> 399 [penwidth=2]
    127 -> 8 [penwidth=2]
    127 -> 391 [penwidth=2]
    127 -> 5 [penwidth=2]
    127 -> 247 [penwidth=2]
    127 -> 330 [penwidth=2]
    127 -> 393 [penwidth=2]
    127 -> 323 [penwidth=2]
    127 -> 294 [penwidth=2]
    127 -> 338 [penwidth=2]
    127 -> 374 [penwidth=2]
    127 -> 379 [penwidth=2]
    127 -> 11 [penwidth=2]
    127 -> 397 [penwidth=2]
    127 -> 381 [penwidth=2]
    127 -> 394 [penwidth=2]
    127 -> 293 [penwidth=2]
    127 -> 21 [penwidth=2]
    127 -> 25 [penwidth=2]
    127 -> 16 [penwidth=2]
    127 -> 380 [penwidth=2]
    127 -> 10 [penwidth=2]
    175 -> 293 [penwidth=2]
    135 -> 396 [penwidth=2]
    135 -> 243 [penwidth=2]
    135 -> 296 [penwidth=2]
    135 -> 13 [penwidth=2]
    137 -> 26 [penwidth=2]
    137 -> 393 [penwidth=2]
    137 -> 394 [penwidth=2]
    137 -> 326 [penwidth=2]
    137 -> 22 [penwidth=2]
    137 -> 285 [penwidth=2]
    137 -> 240 [penwidth=2]
    137 -> 396 [penwidth=2]
    137 -> 2 [penwidth=2]
    137 -> 381 [penwidth=2]
    137 -> 10 [penwidth=2]
    137 -> 23 [penwidth=2]
    137 -> 333 [penwidth=2]
    137 -> 328 [penwidth=2]
    137 -> 20 [penwidth=2]
    137 -> 289 [penwidth=2]
    137 -> 16 [penwidth=2]
    137 -> 380 [penwidth=2]
    137 -> 372 [penwidth=2]
    137 -> 11 [penwidth=2]
    137 -> 295 [penwidth=2]
    137 -> 383 [penwidth=2]
    137 -> 21 [penwidth=2]
    137 -> 384 [penwidth=2]
    137 -> 17 [penwidth=2]
    137 -> 337 [penwidth=2]
    137 -> 397 [penwidth=2]
    137 -> 389 [penwidth=2]
    137 -> 6 [penwidth=2]
    137 -> 247 [penwidth=2]
    137 -> 327 [penwidth=2]
    137 -> 290 [penwidth=2]
    137 -> 248 [penwidth=2]
    137 -> 334 [penwidth=2]
    137 -> 15 [penwidth=2]
    137 -> 332 [penwidth=2]
    137 -> 9 [penwidth=2]
    137 -> 18 [penwidth=2]
    137 -> 245 [penwidth=2]
    137 -> 392 [penwidth=2]
    137 -> 391 [penwidth=2]
    137 -> 382 [penwidth=2]
    137 -> 330 [penwidth=2]
    137 -> 282 [penwidth=2]
    137 -> 284 [penwidth=2]
    137 -> 246 [penwidth=2]
    137 -> 249 [penwidth=2]
    137 -> 288 [penwidth=2]
    137 -> 244 [penwidth=2]
    137 -> 283 [penwidth=2]
    137 -> 398 [penwidth=2]
    137 -> 385 [penwidth=2]
    137 -> 390 [penwidth=2]
    137 -> 19 [penwidth=2]
    137 -> 378 [penwidth=2]
    137 -> 292 [penwidth=2]
    137 -> 291 [penwidth=2]
    137 -> 325 [penwidth=2]
    137 -> 25 [penwidth=2]
    137 -> 286 [penwidth=2]
    137 -> 281 [penwidth=2]
    137 -> 336 [penwidth=2]
    137 -> 243 [penwidth=2]
    137 -> 7 [penwidth=2]
    137 -> 28 [penwidth=2]
    137 -> 329 [penwidth=2]
    137 -> 296 [penwidth=2]
    137 -> 388 [penwidth=2]
    137 -> 324 [penwidth=2]
    137 -> 293 [penwidth=2]
    137 -> 252 [penwidth=2]
    137 -> 241 [penwidth=2]
    137 -> 287 [penwidth=2]
    137 -> 13 [penwidth=2]
    137 -> 251 [penwidth=2]
    137 -> 386 [penwidth=2]
    137 -> 376 [penwidth=2]
    137 -> 395 [penwidth=2]
    137 -> 375 [penwidth=2]
    137 -> 12 [penwidth=2]
    137 -> 338 [penwidth=2]
    137 -> 14 [penwidth=2]
    137 -> 373 [penwidth=2]
    137 -> 294 [penwidth=2]
    137 -> 250 [penwidth=2]
    137 -> 239 [penwidth=2]
    137 -> 379 [penwidth=2]
    137 -> 24 [penwidth=2]
    137 -> 253 [penwidth=2]
    137 -> 387 [penwidth=2]
    137 -> 377 [penwidth=2]
    137 -> 399 [penwidth=2]
    138 -> 325 [penwidth=2]
    138 -> 390 [penwidth=2]
    138 -> 385 [penwidth=2]
    138 -> 395 [penwidth=2]
    138 -> 394 [penwidth=2]
    138 -> 7 [penwidth=2]
    138 -> 383 [penwidth=2]
    138 -> 328 [penwidth=2]
    138 -> 332 [penwidth=2]
    138 -> 331 [penwidth=2]
    138 -> 26 [penwidth=2]
    138 -> 252 [penwidth=2]
    186 -> 6 [penwidth=2]
    186 -> 244 [penwidth=2]
    186 -> 2 [penwidth=2]
    186 -> 333 [penwidth=2]
    186 -> 332 [penwidth=2]
    186 -> 281 [penwidth=2]
    186 -> 372 [penwidth=2]
    186 -> 243 [penwidth=2]
    186 -> 287 [penwidth=2]
    186 -> 285 [penwidth=2]
    186 -> 331 [penwidth=2]
    186 -> 383 [penwidth=2]
    186 -> 378 [penwidth=2]
    186 -> 335 [penwidth=2]
    186 -> 1 [penwidth=2]
    186 -> 240 [penwidth=2]
    186 -> 282 [penwidth=2]
    186 -> 334 [penwidth=2]
    186 -> 250 [penwidth=2]
    186 -> 330 [penwidth=2]
    186 -> 327 [penwidth=2]
    186 -> 384 [penwidth=2]
    186 -> 338 [penwidth=2]
    186 -> 328 [penwidth=2]
    186 -> 283 [penwidth=2]
    186 -> 246 [penwidth=2]
    186 -> 245 [penwidth=2]
    186 -> 329 [penwidth=2]
    186 -> 249 [penwidth=2]
    186 -> 22 [penwidth=2]
    186 -> 388 [penwidth=2]
    186 -> 387 [penwidth=2]
    186 -> 4 [penwidth=2]
    186 -> 254 [penwidth=2]
    186 -> 376 [penwidth=2]
    186 -> 325 [penwidth=2]
    186 -> 394 [penwidth=2]
    186 -> 12 [penwidth=2]
    186 -> 19 [penwidth=2]
    186 -> 323 [penwidth=2]
    189 -> 288 [penwidth=2]
    189 -> 399 [penwidth=2]
    189 -> 392 [penwidth=2]
    189 -> 331 [penwidth=2]
    189 -> 243 [penwidth=2]
    189 -> 24 [penwidth=2]
    189 -> 28 [penwidth=2]
    189 -> 383 [penwidth=2]
    189 -> 294 [penwidth=2]
    189 -> 3 [penwidth=2]
    189 -> 379 [penwidth=2]
    189 -> 386 [penwidth=2]
    189 -> 395 [penwidth=2]
    189 -> 13 [penwidth=2]
    189 -> 296 [penwidth=2]
    189 -> 248 [penwidth=2]
    189 -> 390 [penwidth=2]
    189 -> 282 [penwidth=2]
    189 -> 337 [penwidth=2]
    189 -> 380 [penwidth=2]
    189 -> 26 [penwidth=2]
    189 -> 338 [penwidth=2]
    189 -> 293 [penwidth=2]
    189 -> 10 [penwidth=2]
    189 -> 397 [penwidth=2]
    189 -> 27 [penwidth=2]
    189 -> 252 [penwidth=2]
    189 -> 246 [penwidth=2]
    189 -> 291 [penwidth=2]
    189 -> 323 [penwidth=2]
    189 -> 283 [penwidth=2]
    189 -> 378 [penwidth=2]
    189 -> 17 [penwidth=2]
    189 -> 11 [penwidth=2]
    189 -> 15 [penwidth=2]
    189 -> 334 [penwidth=2]
    189 -> 324 [penwidth=2]
    189 -> 290 [penwidth=2]
    189 -> 12 [penwidth=2]
    189 -> 22 [penwidth=2]
    189 -> 249 [penwidth=2]
    189 -> 254 [penwidth=2]
    189 -> 336 [penwidth=2]
    189 -> 328 [penwidth=2]
    189 -> 18 [penwidth=2]
    232 -> 288 [penwidth=2]
    232 -> 247 [penwidth=2]
    232 -> 1 [penwidth=2]
    232 -> 290 [penwidth=2]
    232 -> 331 [penwidth=2]
    232 -> 21 [penwidth=2]
    232 -> 372 [penwidth=2]
    232 -> 281 [penwidth=2]
    232 -> 286 [penwidth=2]
    232 -> 22 [penwidth=2]
    232 -> 16 [penwidth=2]
    232 -> 248 [penwidth=2]
    232 -> 253 [penwidth=2]
    232 -> 245 [penwidth=2]
    232 -> 9 [penwidth=2]
    232 -> 252 [penwidth=2]
    232 -> 336 [penwidth=2]
    232 -> 332 [penwidth=2]
    232 -> 397 [penwidth=2]
    232 -> 396 [penwidth=2]
    232 -> 283 [penwidth=2]
    232 -> 25 [penwidth=2]
    232 -> 19 [penwidth=2]
    232 -> 373 [penwidth=2]
    232 -> 388 [penwidth=2]
    232 -> 14 [penwidth=2]
    232 -> 292 [penwidth=2]
    232 -> 239 [penwidth=2]
    232 -> 377 [penwidth=2]
    232 -> 285 [penwidth=2]
    232 -> 6 [penwidth=2]
    232 -> 384 [penwidth=2]
    232 -> 323 [penwidth=2]
    232 -> 12 [penwidth=2]
    232 -> 289 [penwidth=2]
    232 -> 251 [penwidth=2]
    232 -> 382 [penwidth=2]
    232 -> 326 [penwidth=2]
    232 -> 13 [penwidth=2]
    232 -> 337 [penwidth=2]
    232 -> 296 [penwidth=2]
    232 -> 2 [penwidth=2]
    232 -> 291 [penwidth=2]
    232 -> 242 [penwidth=2]
    191 -> 393 [penwidth=2]
    191 -> 375 [penwidth=2]
    191 -> 242 [penwidth=2]
    191 -> 14 [penwidth=2]
    191 -> 327 [penwidth=2]
    191 -> 383 [penwidth=2]
    191 -> 397 [penwidth=2]
    191 -> 324 [penwidth=2]
    191 -> 288 [penwidth=2]
    191 -> 385 [penwidth=2]
    191 -> 15 [penwidth=2]
    191 -> 8 [penwidth=2]
    191 -> 243 [penwidth=2]
    191 -> 1 [penwidth=2]
    191 -> 334 [penwidth=2]
    191 -> 253 [penwidth=2]
    191 -> 374 [penwidth=2]
    191 -> 398 [penwidth=2]
    191 -> 286 [penwidth=2]
    191 -> 24 [penwidth=2]
    191 -> 386 [penwidth=2]
    191 -> 244 [penwidth=2]
    191 -> 396 [penwidth=2]
    191 -> 333 [penwidth=2]
    191 -> 337 [penwidth=2]
    191 -> 332 [penwidth=2]
    191 -> 245 [penwidth=2]
    191 -> 19 [penwidth=2]
    191 -> 18 [penwidth=2]
    191 -> 338 [penwidth=2]
    191 -> 251 [penwidth=2]
    191 -> 394 [penwidth=2]
    191 -> 248 [penwidth=2]
    191 -> 241 [penwidth=2]
    191 -> 246 [penwidth=2]
    191 -> 399 [penwidth=2]
    191 -> 326 [penwidth=2]
    191 -> 294 [penwidth=2]
    191 -> 11 [penwidth=2]
    191 -> 12 [penwidth=2]
    191 -> 22 [penwidth=2]
    191 -> 290 [penwidth=2]
    191 -> 2 [penwidth=2]
    191 -> 284 [penwidth=2]
    191 -> 389 [penwidth=2]
    191 -> 281 [penwidth=2]
    191 -> 331 [penwidth=2]
    191 -> 7 [penwidth=2]
    191 -> 247 [penwidth=2]
    191 -> 390 [penwidth=2]
    191 -> 381 [penwidth=2]
    191 -> 323 [penwidth=2]
    191 -> 20 [penwidth=2]
    191 -> 239 [penwidth=2]
    191 -> 380 [penwidth=2]
    191 -> 287 [penwidth=2]
    191 -> 296 [penwidth=2]
    191 -> 373 [penwidth=2]
    191 -> 378 [penwidth=2]
    191 -> 26 [penwidth=2]
    191 -> 335 [penwidth=2]
    191 -> 387 [penwidth=2]
    191 -> 17 [penwidth=2]
    152 -> 295 [penwidth=2]
    152 -> 25 [penwidth=2]
    152 -> 287 [penwidth=2]
    152 -> 288 [penwidth=2]
    152 -> 328 [penwidth=2]
    152 -> 12 [penwidth=2]
    152 -> 330 [penwidth=2]
    152 -> 286 [penwidth=2]
    152 -> 254 [penwidth=2]
    152 -> 391 [penwidth=2]
    152 -> 248 [penwidth=2]
    152 -> 392 [penwidth=2]
    152 -> 4 [penwidth=2]
    152 -> 324 [penwidth=2]
    152 -> 389 [penwidth=2]
    152 -> 380 [penwidth=2]
    152 -> 390 [penwidth=2]
    152 -> 244 [penwidth=2]
    152 -> 24 [penwidth=2]
    152 -> 28 [penwidth=2]
    152 -> 239 [penwidth=2]
    152 -> 23 [penwidth=2]
    152 -> 16 [penwidth=2]
    152 -> 240 [penwidth=2]
    152 -> 10 [penwidth=2]
    152 -> 21 [penwidth=2]
    152 -> 246 [penwidth=2]
    152 -> 326 [penwidth=2]
    152 -> 15 [penwidth=2]
    152 -> 296 [penwidth=2]
    152 -> 383 [penwidth=2]
    152 -> 251 [penwidth=2]
    152 -> 242 [penwidth=2]
    152 -> 283 [penwidth=2]
    152 -> 378 [penwidth=2]
    152 -> 22 [penwidth=2]
    152 -> 249 [penwidth=2]
    152 -> 386 [penwidth=2]
    152 -> 14 [penwidth=2]
    152 -> 294 [penwidth=2]
    152 -> 387 [penwidth=2]
    152 -> 243 [penwidth=2]
    152 -> 250 [penwidth=2]
    152 -> 393 [penwidth=2]
    152 -> 11 [penwidth=2]
    152 -> 332 [penwidth=2]
    152 -> 285 [penwidth=2]
    152 -> 292 [penwidth=2]
    152 -> 6 [penwidth=2]
    152 -> 282 [penwidth=2]
    152 -> 323 [penwidth=2]
    152 -> 327 [penwidth=2]
    152 -> 5 [penwidth=2]
    152 -> 396 [penwidth=2]
    152 -> 388 [penwidth=2]
    152 -> 376 [penwidth=2]
    152 -> 27 [penwidth=2]
    152 -> 3 [penwidth=2]
    152 -> 1 [penwidth=2]
    152 -> 397 [penwidth=2]
    152 -> 395 [penwidth=2]
    152 -> 394 [penwidth=2]
    152 -> 2 [penwidth=2]
    152 -> 253 [penwidth=2]
    152 -> 245 [penwidth=2]
    152 -> 375 [penwidth=2]
    152 -> 385 [penwidth=2]
    152 -> 337 [penwidth=2]
    152 -> 293 [penwidth=2]
    152 -> 331 [penwidth=2]
    152 -> 334 [penwidth=2]
    152 -> 325 [penwidth=2]
    152 -> 372 [penwidth=2]
    152 -> 290 [penwidth=2]
    152 -> 7 [penwidth=2]
    152 -> 377 [penwidth=2]
    152 -> 17 [penwidth=2]
    152 -> 289 [penwidth=2]
    152 -> 398 [penwidth=2]
    152 -> 13 [penwidth=2]
    152 -> 329 [penwidth=2]
    152 -> 373 [penwidth=2]
    152 -> 333 [penwidth=2]
    152 -> 281 [penwidth=2]
    152 -> 399 [penwidth=2]
    152 -> 384 [penwidth=2]
    152 -> 8 [penwidth=2]
    152 -> 284 [penwidth=2]
    152 -> 20 [penwidth=2]
    152 -> 291 [penwidth=2]
    152 -> 241 [penwidth=2]
    152 -> 9 [penwidth=2]
    152 -> 338 [penwidth=2]
    152 -> 26 [penwidth=2]
    152 -> 374 [penwidth=2]
    152 -> 336 [penwidth=2]
    152 -> 247 [penwidth=2]
    152 -> 381 [penwidth=2]
    152 -> 379 [penwidth=2]
    194 -> 4 [penwidth=2]
    194 -> 386 [penwidth=2]
    194 -> 379 [penwidth=2]
    194 -> 333 [penwidth=2]
    194 -> 253 [penwidth=2]
    194 -> 375 [penwidth=2]
    194 -> 242 [penwidth=2]
    194 -> 1 [penwidth=2]
    194 -> 6 [penwidth=2]
    194 -> 396 [penwidth=2]
    194 -> 17 [penwidth=2]
    194 -> 329 [penwidth=2]
    194 -> 335 [penwidth=2]
    194 -> 290 [penwidth=2]
    194 -> 381 [penwidth=2]
    194 -> 295 [penwidth=2]
    194 -> 248 [penwidth=2]
    194 -> 334 [penwidth=2]
    194 -> 8 [penwidth=2]
    194 -> 328 [penwidth=2]
    194 -> 384 [penwidth=2]
    194 -> 331 [penwidth=2]
    194 -> 20 [penwidth=2]
    194 -> 377 [penwidth=2]
    194 -> 324 [penwidth=2]
    194 -> 378 [penwidth=2]
    194 -> 326 [penwidth=2]
    194 -> 245 [penwidth=2]
    194 -> 3 [penwidth=2]
    194 -> 294 [penwidth=2]
    194 -> 286 [penwidth=2]
    194 -> 241 [penwidth=2]
    194 -> 18 [penwidth=2]
    194 -> 296 [penwidth=2]
    194 -> 289 [penwidth=2]
    194 -> 283 [penwidth=2]
    194 -> 250 [penwidth=2]
    194 -> 372 [penwidth=2]
    194 -> 284 [penwidth=2]
    194 -> 287 [penwidth=2]
    194 -> 5 [penwidth=2]
    194 -> 9 [penwidth=2]
    194 -> 391 [penwidth=2]
    194 -> 16 [penwidth=2]
    194 -> 244 [penwidth=2]
    194 -> 254 [penwidth=2]
    194 -> 240 [penwidth=2]
    194 -> 10 [penwidth=2]
    194 -> 389 [penwidth=2]
    194 -> 249 [penwidth=2]
    194 -> 281 [penwidth=2]
    194 -> 395 [penwidth=2]
    194 -> 13 [penwidth=2]
    194 -> 397 [penwidth=2]
    194 -> 7 [penwidth=2]
    194 -> 21 [penwidth=2]
    194 -> 26 [penwidth=2]
    194 -> 246 [penwidth=2]
    194 -> 336 [penwidth=2]
    194 -> 338 [penwidth=2]
    194 -> 23 [penwidth=2]
    194 -> 390 [penwidth=2]
    194 -> 380 [penwidth=2]
    194 -> 252 [penwidth=2]
    194 -> 394 [penwidth=2]
    194 -> 291 [penwidth=2]
    194 -> 24 [penwidth=2]
    194 -> 323 [penwidth=2]
    194 -> 332 [penwidth=2]
    194 -> 285 [penwidth=2]
    194 -> 373 [penwidth=2]
    194 -> 25 [penwidth=2]
    194 -> 337 [penwidth=2]
    194 -> 15 [penwidth=2]
    194 -> 2 [penwidth=2]
    194 -> 392 [penwidth=2]
    194 -> 27 [penwidth=2]
    194 -> 293 [penwidth=2]
    194 -> 19 [penwidth=2]
    194 -> 398 [penwidth=2]
    194 -> 14 [penwidth=2]
    194 -> 327 [penwidth=2]
    237 -> 243 [penwidth=2]
    237 -> 390 [penwidth=2]
    237 -> 379 [penwidth=2]
    237 -> 23 [penwidth=2]
    237 -> 381 [penwidth=2]
    237 -> 391 [penwidth=2]
    237 -> 25 [penwidth=2]
    237 -> 326 [penwidth=2]
    237 -> 389 [penwidth=2]
    237 -> 281 [penwidth=2]
    237 -> 374 [penwidth=2]
    237 -> 331 [penwidth=2]
    237 -> 378 [penwidth=2]
    237 -> 19 [penwidth=2]
    237 -> 13 [penwidth=2]
    237 -> 4 [penwidth=2]
    237 -> 247 [penwidth=2]
    237 -> 283 [penwidth=2]
    237 -> 242 [penwidth=2]
    237 -> 385 [penwidth=2]
    237 -> 9 [penwidth=2]
    237 -> 239 [penwidth=2]
    237 -> 393 [penwidth=2]
    237 -> 1 [penwidth=2]
    237 -> 244 [penwidth=2]
    237 -> 333 [penwidth=2]
    237 -> 248 [penwidth=2]
    237 -> 284 [penwidth=2]
    237 -> 290 [penwidth=2]
    237 -> 292 [penwidth=2]
    237 -> 20 [penwidth=2]
    237 -> 383 [penwidth=2]
    237 -> 286 [penwidth=2]
    237 -> 338 [penwidth=2]
    237 -> 285 [penwidth=2]
    237 -> 335 [penwidth=2]
    237 -> 388 [penwidth=2]
    237 -> 386 [penwidth=2]
    237 -> 289 [penwidth=2]
    237 -> 384 [penwidth=2]
    237 -> 332 [penwidth=2]
    237 -> 291 [penwidth=2]
    237 -> 337 [penwidth=2]
    237 -> 399 [penwidth=2]
    237 -> 373 [penwidth=2]
    237 -> 327 [penwidth=2]
    237 -> 2 [penwidth=2]
    237 -> 28 [penwidth=2]
    237 -> 325 [penwidth=2]
    237 -> 8 [penwidth=2]
    237 -> 396 [penwidth=2]
    237 -> 10 [penwidth=2]
    237 -> 26 [penwidth=2]
    237 -> 324 [penwidth=2]
    237 -> 11 [penwidth=2]
    237 -> 387 [penwidth=2]
    237 -> 14 [penwidth=2]
    237 -> 12 [penwidth=2]
    237 -> 372 [penwidth=2]
    237 -> 392 [penwidth=2]
    237 -> 241 [penwidth=2]
    237 -> 395 [penwidth=2]
    237 -> 288 [penwidth=2]
    30 -> 381 [penwidth=2]
    30 -> 247 [penwidth=2]
    30 -> 17 [penwidth=2]
    30 -> 376 [penwidth=2]
    30 -> 6 [penwidth=2]
    30 -> 378 [penwidth=2]
    30 -> 294 [penwidth=2]
    30 -> 251 [penwidth=2]
    30 -> 250 [penwidth=2]
    30 -> 3 [penwidth=2]
    30 -> 391 [penwidth=2]
    30 -> 24 [penwidth=2]
    30 -> 380 [penwidth=2]
    30 -> 396 [penwidth=2]
    30 -> 4 [penwidth=2]
    30 -> 390 [penwidth=2]
    30 -> 19 [penwidth=2]
    30 -> 385 [penwidth=2]
    30 -> 25 [penwidth=2]
    30 -> 26 [penwidth=2]
    30 -> 395 [penwidth=2]
    30 -> 241 [penwidth=2]
    30 -> 242 [penwidth=2]
    30 -> 22 [penwidth=2]
    30 -> 282 [penwidth=2]
    30 -> 372 [penwidth=2]
    30 -> 7 [penwidth=2]
    30 -> 397 [penwidth=2]
    30 -> 254 [penwidth=2]
    30 -> 286 [penwidth=2]
    30 -> 12 [penwidth=2]
    30 -> 323 [penwidth=2]
    30 -> 296 [penwidth=2]
    30 -> 382 [penwidth=2]
    30 -> 16 [penwidth=2]
    30 -> 377 [penwidth=2]
    30 -> 20 [penwidth=2]
    30 -> 284 [penwidth=2]
    30 -> 249 [penwidth=2]
    30 -> 336 [penwidth=2]
    30 -> 15 [penwidth=2]
    30 -> 283 [penwidth=2]
    30 -> 386 [penwidth=2]
    72 -> 27 [penwidth=2]
    72 -> 295 [penwidth=2]
    72 -> 332 [penwidth=2]
    72 -> 287 [penwidth=2]
    72 -> 329 [penwidth=2]
    72 -> 249 [penwidth=2]
    72 -> 26 [penwidth=2]
    72 -> 22 [penwidth=2]
    72 -> 398 [penwidth=2]
    72 -> 239 [penwidth=2]
    72 -> 375 [penwidth=2]
    72 -> 290 [penwidth=2]
    72 -> 324 [penwidth=2]
    72 -> 395 [penwidth=2]
    72 -> 254 [penwidth=2]
    72 -> 388 [penwidth=2]
    72 -> 374 [penwidth=2]
    72 -> 292 [penwidth=2]
    72 -> 252 [penwidth=2]
    72 -> 296 [penwidth=2]
    72 -> 382 [penwidth=2]
    72 -> 397 [penwidth=2]
    72 -> 18 [penwidth=2]
    72 -> 380 [penwidth=2]
    72 -> 335 [penwidth=2]
    72 -> 391 [penwidth=2]
    72 -> 4 [penwidth=2]
    72 -> 12 [penwidth=2]
    72 -> 327 [penwidth=2]
    72 -> 17 [penwidth=2]
    72 -> 3 [penwidth=2]
    72 -> 334 [penwidth=2]
    72 -> 376 [penwidth=2]
    72 -> 19 [penwidth=2]
    72 -> 251 [penwidth=2]
    72 -> 389 [penwidth=2]
    72 -> 386 [penwidth=2]
    72 -> 2 [penwidth=2]
    72 -> 323 [penwidth=2]
    72 -> 372 [penwidth=2]
    72 -> 243 [penwidth=2]
    72 -> 336 [penwidth=2]
    72 -> 333 [penwidth=2]
    72 -> 384 [penwidth=2]
    72 -> 377 [penwidth=2]
    72 -> 21 [penwidth=2]
    72 -> 6 [penwidth=2]
    72 -> 291 [penwidth=2]
    72 -> 24 [penwidth=2]
    72 -> 10 [penwidth=2]
    72 -> 25 [penwidth=2]
    72 -> 325 [penwidth=2]
    72 -> 390 [penwidth=2]
    72 -> 241 [penwidth=2]
    72 -> 14 [penwidth=2]
    72 -> 383 [penwidth=2]
    76 -> 296 [penwidth=2]
    76 -> 287 [penwidth=2]
    76 -> 397 [penwidth=2]
    76 -> 337 [penwidth=2]
    76 -> 288 [penwidth=2]
    76 -> 387 [penwidth=2]
    76 -> 16 [penwidth=2]
    76 -> 14 [penwidth=2]
    76 -> 245 [penwidth=2]
    76 -> 6 [penwidth=2]
    76 -> 27 [penwidth=2]
    76 -> 333 [penwidth=2]
    76 -> 252 [penwidth=2]
    76 -> 284 [penwidth=2]
    76 -> 326 [penwidth=2]
    76 -> 380 [penwidth=2]
    76 -> 335 [penwidth=2]
    76 -> 11 [penwidth=2]
    76 -> 283 [penwidth=2]
    76 -> 382 [penwidth=2]
    76 -> 1 [penwidth=2]
    76 -> 25 [penwidth=2]
    76 -> 386 [penwidth=2]
    76 -> 391 [penwidth=2]
    76 -> 242 [penwidth=2]
    76 -> 23 [penwidth=2]
    76 -> 9 [penwidth=2]
    76 -> 295 [penwidth=2]
    76 -> 376 [penwidth=2]
    76 -> 4 [penwidth=2]
    76 -> 3 [penwidth=2]
    76 -> 246 [penwidth=2]
    76 -> 389 [penwidth=2]
    76 -> 254 [penwidth=2]
    76 -> 10 [penwidth=2]
    76 -> 399 [penwidth=2]
    76 -> 327 [penwidth=2]
    76 -> 247 [penwidth=2]
    76 -> 324 [penwidth=2]
    76 -> 15 [penwidth=2]
    76 -> 18 [penwidth=2]
    76 -> 241 [penwidth=2]
    76 -> 329 [penwidth=2]
    76 -> 384 [penwidth=2]
    76 -> 381 [penwidth=2]
    76 -> 13 [penwidth=2]
    76 -> 17 [penwidth=2]
    76 -> 325 [penwidth=2]
    76 -> 239 [penwidth=2]
    76 -> 294 [penwidth=2]
    76 -> 21 [penwidth=2]
    76 -> 292 [penwidth=2]
    76 -> 293 [penwidth=2]
    76 -> 291 [penwidth=2]
    76 -> 377 [penwidth=2]
    76 -> 253 [penwidth=2]
    76 -> 334 [penwidth=2]
    76 -> 378 [penwidth=2]
    76 -> 395 [penwidth=2]
    76 -> 289 [penwidth=2]
    76 -> 240 [penwidth=2]
    76 -> 24 [penwidth=2]
    76 -> 250 [penwidth=2]
    76 -> 379 [penwidth=2]
    76 -> 398 [penwidth=2]
    76 -> 285 [penwidth=2]
    76 -> 7 [penwidth=2]
    76 -> 396 [penwidth=2]
    76 -> 12 [penwidth=2]
    76 -> 392 [penwidth=2]
    76 -> 390 [penwidth=2]
    76 -> 286 [penwidth=2]
    76 -> 374 [penwidth=2]
    76 -> 336 [penwidth=2]
    76 -> 243 [penwidth=2]
    76 -> 393 [penwidth=2]
    76 -> 251 [penwidth=2]
    76 -> 8 [penwidth=2]
    79 -> 396 [penwidth=2]
    79 -> 246 [penwidth=2]
    79 -> 27 [penwidth=2]
    79 -> 6 [penwidth=2]
    79 -> 294 [penwidth=2]
    79 -> 324 [penwidth=2]
    79 -> 337 [penwidth=2]
    79 -> 1 [penwidth=2]
    79 -> 379 [penwidth=2]
    79 -> 28 [penwidth=2]
    79 -> 15 [penwidth=2]
    79 -> 285 [penwidth=2]
    79 -> 335 [penwidth=2]
    79 -> 289 [penwidth=2]
    79 -> 25 [penwidth=2]
    79 -> 295 [penwidth=2]
    79 -> 247 [penwidth=2]
    79 -> 394 [penwidth=2]
    79 -> 327 [penwidth=2]
    79 -> 334 [penwidth=2]
    79 -> 4 [penwidth=2]
    79 -> 288 [penwidth=2]
    79 -> 239 [penwidth=2]
    79 -> 375 [penwidth=2]
    79 -> 326 [penwidth=2]
    79 -> 286 [penwidth=2]
    79 -> 374 [penwidth=2]
    79 -> 252 [penwidth=2]
    79 -> 18 [penwidth=2]
    79 -> 13 [penwidth=2]
    79 -> 241 [penwidth=2]
    79 -> 21 [penwidth=2]
    79 -> 385 [penwidth=2]
    79 -> 332 [penwidth=2]
    79 -> 2 [penwidth=2]
    79 -> 284 [penwidth=2]
    79 -> 330 [penwidth=2]
    79 -> 16 [penwidth=2]
    79 -> 382 [penwidth=2]
    79 -> 336 [penwidth=2]
    79 -> 287 [penwidth=2]
    79 -> 243 [penwidth=2]
    79 -> 391 [penwidth=2]
    79 -> 293 [penwidth=2]
    79 -> 388 [penwidth=2]
    79 -> 390 [penwidth=2]
    79 -> 393 [penwidth=2]
    79 -> 253 [penwidth=2]
    79 -> 325 [penwidth=2]
    79 -> 397 [penwidth=2]
    79 -> 372 [penwidth=2]
    79 -> 24 [penwidth=2]
    79 -> 281 [penwidth=2]
    79 -> 14 [penwidth=2]
    79 -> 17 [penwidth=2]
    79 -> 333 [penwidth=2]
    79 -> 329 [penwidth=2]
    79 -> 23 [penwidth=2]
    79 -> 377 [penwidth=2]
    79 -> 249 [penwidth=2]
    79 -> 389 [penwidth=2]
    79 -> 244 [penwidth=2]
    79 -> 378 [penwidth=2]
    79 -> 3 [penwidth=2]
    79 -> 282 [penwidth=2]
    79 -> 10 [penwidth=2]
    79 -> 381 [penwidth=2]
    79 -> 283 [penwidth=2]
    79 -> 292 [penwidth=2]
    79 -> 392 [penwidth=2]
    79 -> 296 [penwidth=2]
    79 -> 250 [penwidth=2]
    79 -> 328 [penwidth=2]
    79 -> 387 [penwidth=2]
    79 -> 386 [penwidth=2]
    79 -> 19 [penwidth=2]
    79 -> 291 [penwidth=2]
    79 -> 398 [penwidth=2]
    79 -> 26 [penwidth=2]
    79 -> 20 [penwidth=2]
    79 -> 240 [penwidth=2]
    79 -> 395 [penwidth=2]
    79 -> 290 [penwidth=2]
    79 -> 323 [penwidth=2]
    79 -> 384 [penwidth=2]
    79 -> 399 [penwidth=2]
    79 -> 376 [penwidth=2]
    79 -> 380 [penwidth=2]
    79 -> 7 [penwidth=2]
    41 -> 392 [penwidth=2]
    41 -> 283 [penwidth=2]
    41 -> 20 [penwidth=2]
    41 -> 286 [penwidth=2]
    41 -> 14 [penwidth=2]
    41 -> 239 [penwidth=2]
    41 -> 295 [penwidth=2]
    41 -> 243 [penwidth=2]
    41 -> 288 [penwidth=2]
    41 -> 330 [penwidth=2]
    41 -> 292 [penwidth=2]
    41 -> 331 [penwidth=2]
    41 -> 327 [penwidth=2]
    41 -> 24 [penwidth=2]
    41 -> 253 [penwidth=2]
    41 -> 398 [penwidth=2]
    41 -> 11 [penwidth=2]
    41 -> 374 [penwidth=2]
    41 -> 284 [penwidth=2]
    41 -> 289 [penwidth=2]
    41 -> 373 [penwidth=2]
    41 -> 376 [penwidth=2]
    41 -> 23 [penwidth=2]
    41 -> 6 [penwidth=2]
    41 -> 13 [penwidth=2]
    41 -> 9 [penwidth=2]
    41 -> 3 [penwidth=2]
    41 -> 395 [penwidth=2]
    41 -> 27 [penwidth=2]
    41 -> 336 [penwidth=2]
    41 -> 287 [penwidth=2]
    41 -> 5 [penwidth=2]
    41 -> 249 [penwidth=2]
    41 -> 338 [penwidth=2]
    41 -> 391 [penwidth=2]
    41 -> 4 [penwidth=2]
    41 -> 380 [penwidth=2]
    41 -> 387 [penwidth=2]
    41 -> 378 [penwidth=2]
    41 -> 379 [penwidth=2]
    41 -> 399 [penwidth=2]
    41 -> 335 [penwidth=2]
    41 -> 25 [penwidth=2]
    41 -> 241 [penwidth=2]
    41 -> 397 [penwidth=2]
    41 -> 328 [penwidth=2]
    41 -> 10 [penwidth=2]
    41 -> 332 [penwidth=2]
    41 -> 2 [penwidth=2]
    41 -> 18 [penwidth=2]
    41 -> 394 [penwidth=2]
    41 -> 384 [penwidth=2]
    41 -> 375 [penwidth=2]
    41 -> 8 [penwidth=2]
    41 -> 21 [penwidth=2]
    41 -> 385 [penwidth=2]
    41 -> 240 [penwidth=2]
    41 -> 393 [penwidth=2]
    41 -> 296 [penwidth=2]
    41 -> 247 [penwidth=2]
    41 -> 396 [penwidth=2]
    41 -> 19 [penwidth=2]
    41 -> 7 [penwidth=2]
    41 -> 254 [penwidth=2]
    41 -> 381 [penwidth=2]
    41 -> 282 [penwidth=2]
    41 -> 337 [penwidth=2]
    41 -> 251 [penwidth=2]
    41 -> 333 [penwidth=2]
    42 -> 27 [penwidth=2]
    42 -> 18 [penwidth=2]
    42 -> 294 [penwidth=2]
    42 -> 19 [penwidth=2]
    42 -> 289 [penwidth=2]
    42 -> 295 [penwidth=2]
    42 -> 399 [penwidth=2]
    42 -> 20 [penwidth=2]
    42 -> 22 [penwidth=2]
    42 -> 15 [penwidth=2]
    42 -> 251 [penwidth=2]
    42 -> 292 [penwidth=2]
    42 -> 375 [penwidth=2]
    42 -> 323 [penwidth=2]
    42 -> 11 [penwidth=2]
    42 -> 290 [penwidth=2]
    42 -> 387 [penwidth=2]
    92 -> 337 [penwidth=2]
    92 -> 15 [penwidth=2]
    92 -> 380 [penwidth=2]
    92 -> 252 [penwidth=2]
    92 -> 396 [penwidth=2]
    92 -> 399 [penwidth=2]
    92 -> 28 [penwidth=2]
    92 -> 336 [penwidth=2]
    92 -> 372 [penwidth=2]
    92 -> 285 [penwidth=2]
    92 -> 251 [penwidth=2]
    92 -> 284 [penwidth=2]
    92 -> 12 [penwidth=2]
    92 -> 20 [penwidth=2]
    92 -> 282 [penwidth=2]
    92 -> 394 [penwidth=2]
    92 -> 390 [penwidth=2]
    92 -> 17 [penwidth=2]
    92 -> 293 [penwidth=2]
    92 -> 22 [penwidth=2]
    92 -> 14 [penwidth=2]
    92 -> 324 [penwidth=2]
    92 -> 384 [penwidth=2]
    92 -> 25 [penwidth=2]
    92 -> 4 [penwidth=2]
    92 -> 244 [penwidth=2]
    92 -> 11 [penwidth=2]
    92 -> 16 [penwidth=2]
    92 -> 287 [penwidth=2]
    92 -> 290 [penwidth=2]
    92 -> 327 [penwidth=2]
    92 -> 398 [penwidth=2]
    92 -> 333 [penwidth=2]
    92 -> 294 [penwidth=2]
    92 -> 7 [penwidth=2]
    92 -> 326 [penwidth=2]
    92 -> 325 [penwidth=2]
    92 -> 335 [penwidth=2]
    92 -> 381 [penwidth=2]
    92 -> 376 [penwidth=2]
    92 -> 18 [penwidth=2]
    95 -> 336 [penwidth=2]
    95 -> 14 [penwidth=2]
    95 -> 5 [penwidth=2]
    95 -> 388 [penwidth=2]
    95 -> 287 [penwidth=2]
    95 -> 13 [penwidth=2]
    95 -> 396 [penwidth=2]
    95 -> 384 [penwidth=2]
    95 -> 21 [penwidth=2]
    95 -> 282 [penwidth=2]
    95 -> 9 [penwidth=2]
    95 -> 383 [penwidth=2]
    95 -> 239 [penwidth=2]
    95 -> 28 [penwidth=2]
    95 -> 397 [penwidth=2]
    95 -> 329 [penwidth=2]
    95 -> 375 [penwidth=2]
    95 -> 245 [penwidth=2]
    95 -> 332 [penwidth=2]
    95 -> 399 [penwidth=2]
    95 -> 25 [penwidth=2]
    95 -> 382 [penwidth=2]
    95 -> 333 [penwidth=2]
    95 -> 386 [penwidth=2]
    95 -> 247 [penwidth=2]
    95 -> 337 [penwidth=2]
    95 -> 248 [penwidth=2]
    95 -> 12 [penwidth=2]
    95 -> 372 [penwidth=2]
    95 -> 23 [penwidth=2]
    95 -> 240 [penwidth=2]
    95 -> 19 [penwidth=2]
    95 -> 288 [penwidth=2]
    95 -> 390 [penwidth=2]
    95 -> 392 [penwidth=2]
    95 -> 381 [penwidth=2]
    95 -> 328 [penwidth=2]
    95 -> 24 [penwidth=2]
    95 -> 374 [penwidth=2]
    95 -> 254 [penwidth=2]
    95 -> 18 [penwidth=2]
    95 -> 244 [penwidth=2]
    95 -> 289 [penwidth=2]
    95 -> 8 [penwidth=2]
    95 -> 246 [penwidth=2]
    95 -> 393 [penwidth=2]
    55 -> 12 [penwidth=2]
    97 -> 398 [penwidth=2]
    97 -> 323 [penwidth=2]
    97 -> 23 [penwidth=2]
    97 -> 281 [penwidth=2]
    97 -> 335 [penwidth=2]
    97 -> 286 [penwidth=2]
    97 -> 285 [penwidth=2]
    97 -> 396 [penwidth=2]
    97 -> 245 [penwidth=2]
    97 -> 13 [penwidth=2]
    97 -> 15 [penwidth=2]
    97 -> 20 [penwidth=2]
    97 -> 382 [penwidth=2]
    97 -> 325 [penwidth=2]
    101 -> 285 [penwidth=2]
    101 -> 324 [penwidth=2]
    101 -> 26 [penwidth=2]
    101 -> 328 [penwidth=2]
    101 -> 239 [penwidth=2]
    101 -> 388 [penwidth=2]
    101 -> 387 [penwidth=2]
    101 -> 335 [penwidth=2]
    101 -> 327 [penwidth=2]
    101 -> 391 [penwidth=2]
    101 -> 4 [penwidth=2]
    101 -> 337 [penwidth=2]
    101 -> 389 [penwidth=2]
    101 -> 380 [penwidth=2]
    101 -> 248 [penwidth=2]
    101 -> 19 [penwidth=2]
    101 -> 252 [penwidth=2]
    101 -> 338 [penwidth=2]
    101 -> 1 [penwidth=2]
    101 -> 245 [penwidth=2]
    101 -> 243 [penwidth=2]
    101 -> 385 [penwidth=2]
    101 -> 334 [penwidth=2]
    101 -> 384 [penwidth=2]
    101 -> 295 [penwidth=2]
    101 -> 281 [penwidth=2]
    101 -> 329 [penwidth=2]
    101 -> 378 [penwidth=2]
    101 -> 24 [penwidth=2]
    101 -> 244 [penwidth=2]
    101 -> 386 [penwidth=2]
    101 -> 241 [penwidth=2]
    101 -> 2 [penwidth=2]
    101 -> 383 [penwidth=2]
    101 -> 379 [penwidth=2]
    101 -> 377 [penwidth=2]
    101 -> 373 [penwidth=2]
    101 -> 394 [penwidth=2]
    101 -> 14 [penwidth=2]
    101 -> 292 [penwidth=2]
    101 -> 7 [penwidth=2]
    101 -> 247 [penwidth=2]
    101 -> 253 [penwidth=2]
    101 -> 21 [penwidth=2]
    101 -> 395 [penwidth=2]
    101 -> 249 [penwidth=2]
    101 -> 286 [penwidth=2]
    101 -> 18 [penwidth=2]
    101 -> 22 [penwidth=2]
    101 -> 376 [penwidth=2]
    101 -> 25 [penwidth=2]
    101 -> 332 [penwidth=2]
    101 -> 250 [penwidth=2]
    101 -> 296 [penwidth=2]
    101 -> 381 [penwidth=2]
    101 -> 323 [penwidth=2]
    101 -> 325 [penwidth=2]
    101 -> 374 [penwidth=2]
    101 -> 331 [penwidth=2]
    101 -> 8 [penwidth=2]
    101 -> 399 [penwidth=2]
    101 -> 13 [penwidth=2]
    101 -> 10 [penwidth=2]
    101 -> 27 [penwidth=2]
    101 -> 398 [penwidth=2]
    101 -> 20 [penwidth=2]
    101 -> 382 [penwidth=2]
    101 -> 288 [penwidth=2]
    101 -> 15 [penwidth=2]
    101 -> 242 [penwidth=2]
    101 -> 326 [penwidth=2]
    101 -> 12 [penwidth=2]
    101 -> 16 [penwidth=2]
    101 -> 9 [penwidth=2]
    101 -> 284 [penwidth=2]
    101 -> 5 [penwidth=2]
    101 -> 289 [penwidth=2]
    101 -> 246 [penwidth=2]
    101 -> 293 [penwidth=2]
    101 -> 396 [penwidth=2]
    106 -> 282 [penwidth=2]
    106 -> 325 [penwidth=2]
    106 -> 7 [penwidth=2]
    106 -> 22 [penwidth=2]
    106 -> 296 [penwidth=2]
    106 -> 389 [penwidth=2]
    106 -> 284 [penwidth=2]
    106 -> 291 [penwidth=2]
    106 -> 20 [penwidth=2]
    106 -> 396 [penwidth=2]
    106 -> 387 [penwidth=2]
    106 -> 392 [penwidth=2]
    106 -> 399 [penwidth=2]
    106 -> 323 [penwidth=2]
    106 -> 292 [penwidth=2]
    106 -> 13 [penwidth=2]
    106 -> 283 [penwidth=2]
    106 -> 388 [penwidth=2]
    106 -> 248 [penwidth=2]
    106 -> 249 [penwidth=2]
    106 -> 254 [penwidth=2]
    106 -> 372 [penwidth=2]
    106 -> 18 [penwidth=2]
    106 -> 294 [penwidth=2]
    106 -> 330 [penwidth=2]
    106 -> 374 [penwidth=2]
    106 -> 251 [penwidth=2]
    106 -> 11 [penwidth=2]
    106 -> 246 [penwidth=2]
    106 -> 27 [penwidth=2]
    106 -> 287 [penwidth=2]
    106 -> 3 [penwidth=2]
    106 -> 324 [penwidth=2]
    106 -> 10 [penwidth=2]
    106 -> 382 [penwidth=2]
    106 -> 335 [penwidth=2]
    106 -> 397 [penwidth=2]
    106 -> 5 [penwidth=2]
    106 -> 250 [penwidth=2]
    106 -> 19 [penwidth=2]
    106 -> 332 [penwidth=2]
    106 -> 15 [penwidth=2]
    106 -> 4 [penwidth=2]
    106 -> 253 [penwidth=2]
    106 -> 338 [penwidth=2]
    106 -> 1 [penwidth=2]
    106 -> 285 [penwidth=2]
    106 -> 245 [penwidth=2]
    106 -> 293 [penwidth=2]
    106 -> 377 [penwidth=2]
    106 -> 252 [penwidth=2]
    106 -> 243 [penwidth=2]
    106 -> 286 [penwidth=2]
    106 -> 290 [penwidth=2]
    106 -> 336 [penwidth=2]
    106 -> 288 [penwidth=2]
    106 -> 326 [penwidth=2]
    106 -> 242 [penwidth=2]
    106 -> 21 [penwidth=2]
    106 -> 295 [penwidth=2]
    106 -> 327 [penwidth=2]
    106 -> 385 [penwidth=2]
    106 -> 378 [penwidth=2]
    106 -> 24 [penwidth=2]
    106 -> 247 [penwidth=2]
    106 -> 9 [penwidth=2]
    106 -> 394 [penwidth=2]
    106 -> 25 [penwidth=2]
    106 -> 26 [penwidth=2]
    106 -> 337 [penwidth=2]
    106 -> 334 [penwidth=2]
    106 -> 333 [penwidth=2]
    106 -> 281 [penwidth=2]
    106 -> 376 [penwidth=2]
    106 -> 16 [penwidth=2]
    106 -> 373 [penwidth=2]
    106 -> 12 [penwidth=2]
    106 -> 380 [penwidth=2]
    106 -> 381 [penwidth=2]
    106 -> 375 [penwidth=2]
    106 -> 239 [penwidth=2]
    106 -> 8 [penwidth=2]
    106 -> 23 [penwidth=2]
    106 -> 398 [penwidth=2]
    106 -> 289 [penwidth=2]
    106 -> 329 [penwidth=2]
    106 -> 17 [penwidth=2]
}