digraph G {
    0 [penwidth=3,label="0"]
    1 [penwidth=3,label="1"]
    2 [penwidth=3,label="2"]
    3 [penwidth=3,label="3"]
    4 [penwidth=3,label="4"]
    5 [penwidth=3,label="5"]
    6 [penwidth=3,label="6"]
    7 [penwidth=3,label="7"]
    8 [penwidth=3,label="8"]
    9 [penwidth=3,label="9"]
    10 [penwidth=3,label="10"]
    11 [penwidth=3,label="11"]
    12 [penwidth=3,label="12"]
    13 [penwidth=3,label="13"]
    14 [penwidth=3,label="14"]
    15 [penwidth=3,label="15"]
    16 [penwidth=3,label="16"]
    17 [penwidth=3,label="17"]
    18 [penwidth=3,label="18"]
    19 [penwidth=3,label="19"]
    20 [penwidth=3,label="20"]
    21 [penwidth=3,label="21"]
    22 [penwidth=3,label="22"]
    23 [penwidth=3,label="23"]
    24 [penwidth=3,label="24"]
    25 [penwidth=3,label="25"]
    26 [penwidth=3,label="26"]
    27 [penwidth=3,label="27"]
    28 [penwidth=3,label="28"]
    29 [penwidth=3,label="29"]
    30 [penwidth=3,label="30"]
    31 [penwidth=3,label="31"]
    32 [penwidth=3,label="32"]
    33 [penwidth=3,label="33"]
    34 [penwidth=3,label="34"]
    35 [penwidth=3,label="35"]
    36 [penwidth=3,label="36"]
    37 [penwidth=3,label="37"]
    38 [penwidth=3,label="38"]
    39 [penwidth=3,label="39"]
    40 [penwidth=3,label="40"]
    41 [penwidth=3,label="41"]
    42 [penwidth=3,label="42"]
    43 [penwidth=3,label="43"]
    44 [penwidth=3,label="44"]
    45 [penwidth=3,label="45"]
    46 [penwidth=3,label="46"]
    47 [penwidth=3,label="47"]
    48 [penwidth=3,label="48"]
    49 [penwidth=3,label="49"]
    50 [penwidth=3,label="50"]
    51 [penwidth=3,label="51"]
    52 [penwidth=3,label="52"]
    53 [penwidth=3,label="53"]
    54 [penwidth=3,label="54"]
    55 [penwidth=3,label="55"]
    56 [penwidth=3,label="56"]
    57 [penwidth=3,label="57"]
    58 [penwidth=3,label="58"]
    59 [penwidth=3,label="59"]
    60 [penwidth=3,label="60"]
    61 [penwidth=3,label="61"]
    62 [penwidth=3,label="62"]
    63 [penwidth=3,label="63"]
    64 [penwidth=3,label="64"]
    65 [penwidth=3,label="65"]
    66 [penwidth=3,label="66"]
    67 [penwidth=3,label="67"]
    68 [penwidth=3,label="68"]
    69 [penwidth=3,label="69"]
    70 [penwidth=3,label="70"]
    71 [penwidth=3,label="71"]
    72 [penwidth=3,label="72"]
    73 [penwidth=3,label="73"]
    74 [penwidth=3,label="74"]
    75 [penwidth=3,label="75"]
    76 [penwidth=3,label="76"]
    77 [penwidth=3,label="77"]
    78 [penwidth=3,label="78"]
    79 [penwidth=3,label="79"]
    80 [penwidth=3,label="80"]
    81 [penwidth=3,label="81"]
    82 [penwidth=3,label="82"]
    83 [penwidth=3,label="83"]
    84 [penwidth=3,label="84"]
    85 [penwidth=3,label="85"]
    86 [penwidth=3,label="86"]
    87 [penwidth=3,label="87"]
    88 [penwidth=3,label="88"]
    89 [penwidth=3,label="89"]
    90 [penwidth=3,label="90"]
    91 [penwidth=3,label="91"]
    92 [penwidth=3,label="92"]
    93 [penwidth=3,label="93"]
    94 [penwidth=3,label="94"]
    95 [penwidth=3,label="95"]
    96 [penwidth=3,label="96"]
    97 [penwidth=3,label="97"]
    98 [penwidth=3,label="98"]
    99 [penwidth=3,label="99"]
    100 [penwidth=3,label="100"]
    101 [penwidth=3,label="101"]
    102 [penwidth=3,label="102"]
    103 [penwidth=3,label="103"]
    104 [penwidth=3,label="104"]
    105 [penwidth=3,label="105"]
    106 [penwidth=3,label="106"]
    107 [penwidth=3,label="107"]
    108 [penwidth=3,label="108"]
    109 [penwidth=3,label="109"]
    110 [penwidth=3,label="110"]
    111 [penwidth=3,label="111"]
    112 [penwidth=3,label="112"]
    113 [penwidth=3,label="113"]
    114 [penwidth=3,label="114"]
    115 [penwidth=3,label="115"]
    116 [penwidth=3,label="116"]
    117 [penwidth=3,label="117"]
    118 [penwidth=3,label="118"]
    119 [penwidth=3,label="119"]
    120 [penwidth=3,label="120"]
    121 [penwidth=3,label="121"]
    122 [penwidth=3,label="122"]
    123 [penwidth=3,label="123"]
    124 [penwidth=3,label="124"]
    125 [penwidth=3,label="125"]
    126 [penwidth=3,label="126"]
    127 [penwidth=3,label="127"]
    128 [penwidth=3,label="128"]
    129 [penwidth=3,label="129"]
    130 [penwidth=3,label="130"]
    131 [penwidth=3,label="131"]
    132 [penwidth=3,label="132"]
    133 [penwidth=3,label="133"]
    134 [penwidth=3,label="134"]
    135 [penwidth=3,label="135"]
    136 [penwidth=3,label="136"]
    137 [penwidth=3,label="137"]
    138 [penwidth=3,label="138"]
    139 [penwidth=3,label="139"]
    140 [penwidth=3,label="140"]
    141 [penwidth=3,label="141"]
    142 [penwidth=3,label="142"]
    143 [penwidth=3,label="143"]
    144 [penwidth=3,label="144"]
    145 [penwidth=3,label="145"]
    146 [penwidth=3,label="146"]
    147 [penwidth=3,label="147"]
    148 [penwidth=3,label="148"]
    149 [penwidth=3,label="149"]
    150 [penwidth=3,label="150"]
    151 [penwidth=3,label="151"]
    152 [penwidth=3,label="152"]
    153 [penwidth=3,label="153"]
    154 [penwidth=3,label="154"]
    155 [penwidth=3,label="155"]
    156 [penwidth=3,label="156"]
    157 [penwidth=3,label="157"]
    158 [penwidth=3,label="158"]
    159 [penwidth=3,label="159"]
    160 [penwidth=3,label="160"]
    161 [penwidth=3,label="161"]
    162 [penwidth=3,label="162"]
    163 [penwidth=3,label="163"]
    164 [penwidth=3,label="164"]
    165 [penwidth=3,label="165"]
    166 [penwidth=3,label="166"]
    167 [penwidth=3,label="167"]
    168 [penwidth=3,label="168"]
    169 [penwidth=3,label="169"]
    170 [penwidth=3,label="170"]
    171 [penwidth=3,label="171"]
    172 [penwidth=3,label="172"]
    173 [penwidth=3,label="173"]
    174 [penwidth=3,label="174"]
    175 [penwidth=3,label="175"]
    176 [penwidth=3,label="176"]
    177 [penwidth=3,label="177"]
    178 [penwidth=3,label="178"]
    179 [penwidth=3,label="179"]
    180 [penwidth=3,label="180"]
    181 [penwidth=3,label="181"]
    182 [penwidth=3,label="182"]
    183 [penwidth=3,label="183"]
    184 [penwidth=3,label="184"]
    185 [penwidth=3,label="185"]
    186 [penwidth=3,label="186"]
    187 [penwidth=3,label="187"]
    188 [penwidth=3,label="188"]
    189 [penwidth=3,label="189"]
    190 [penwidth=3,label="190"]
    191 [penwidth=3,label="191"]
    192 [penwidth=3,label="192"]
    193 [penwidth=3,label="193"]
    194 [penwidth=3,label="194"]
    195 [penwidth=3,label="195"]
    196 [penwidth=3,label="196"]
    197 [penwidth=3,label="197"]
    198 [penwidth=3,label="198"]
    199 [penwidth=3,label="199"]
    200 [penwidth=3,label="200"]
    201 [penwidth=3,label="201"]
    202 [penwidth=3,label="202"]
    203 [penwidth=3,label="203"]
    204 [penwidth=3,label="204"]
    205 [penwidth=3,label="205"]
    206 [penwidth=3,label="206"]
    207 [penwidth=3,label="207"]
    208 [penwidth=3,label="208"]
    209 [penwidth=3,label="209"]
    210 [penwidth=3,label="210"]
    211 [penwidth=3,label="211"]
    212 [penwidth=3,label="212"]
    213 [penwidth=3,label="213"]
    214 [penwidth=3,label="214"]
    215 [penwidth=3,label="215"]
    216 [penwidth=3,label="216"]
    217 [penwidth=3,label="217"]
    218 [penwidth=3,label="218"]
    219 [penwidth=3,label="219"]
    220 [penwidth=3,label="220"]
    221 [penwidth=3,label="221"]
    222 [penwidth=3,label="222"]
    223 [penwidth=3,label="223"]
    224 [penwidth=3,label="224"]
    225 [penwidth=3,label="225"]
    226 [penwidth=3,label="226"]
    227 [penwidth=3,label="227"]
    228 [penwidth=3,label="228"]
    229 [penwidth=3,label="229"]
    230 [penwidth=3,label="230"]
    231 [penwidth=3,label="231"]
    232 [penwidth=3,label="232"]
    233 [penwidth=3,label="233"]
    234 [penwidth=3,label="234"]
    235 [penwidth=3,label="235"]
    236 [penwidth=3,label="236"]
    237 [penwidth=3,label="237"]
    238 [penwidth=3,label="238"]
    239 [penwidth=3,label="239"]
    240 [penwidth=3,label="240"]
    241 [penwidth=3,label="241"]
    242 [penwidth=3,label="242"]
    243 [penwidth=3,label="243"]
    244 [penwidth=3,label="244"]
    245 [penwidth=3,label="245"]
    246 [penwidth=3,label="246"]
    247 [penwidth=3,label="247"]
    248 [penwidth=3,label="248"]
    249 [penwidth=3,label="249"]
    250 [penwidth=3,label="250"]
    251 [penwidth=3,label="251"]
    252 [penwidth=3,label="252"]
    253 [penwidth=3,label="253"]
    254 [penwidth=3,label="254"]
    255 [penwidth=3,label="255"]
    256 [penwidth=3,label="256"]
    257 [penwidth=3,label="257"]
    258 [penwidth=3,label="258"]
    259 [penwidth=3,label="259"]
    260 [penwidth=3,label="260"]
    261 [penwidth=3,label="261"]
    262 [penwidth=3,label="262"]
    263 [penwidth=3,label="263"]
    264 [penwidth=3,label="264"]
    265 [penwidth=3,label="265"]
    266 [penwidth=3,label="266"]
    267 [penwidth=3,label="267"]
    268 [penwidth=3,label="268"]
    269 [penwidth=3,label="269"]
    270 [penwidth=3,label="270"]
    271 [penwidth=3,label="271"]
    272 [penwidth=3,label="272"]
    273 [penwidth=3,label="273"]
    274 [penwidth=3,label="274"]
    275 [penwidth=3,label="275"]
    276 [penwidth=3,label="276"]
    277 [penwidth=3,label="277"]
    278 [penwidth=3,label="278"]
    279 [penwidth=3,label="279"]
    280 [penwidth=3,label="280"]
    281 [penwidth=3,label="281"]
    282 [penwidth=3,label="282"]
    283 [penwidth=3,label="283"]
    284 [penwidth=3,label="284"]
    285 [penwidth=3,label="285"]
    286 [penwidth=3,label="286"]
    287 [penwidth=3,label="287"]
    288 [penwidth=3,label="288"]
    289 [penwidth=3,label="289"]
    290 [penwidth=3,label="290"]
    291 [penwidth=3,label="291"]
    292 [penwidth=3,label="292"]
    293 [penwidth=3,label="293"]
    294 [penwidth=3,label="294"]
    295 [penwidth=3,label="295"]
    296 [penwidth=3,label="296"]
    297 [penwidth=3,label="297"]
    298 [penwidth=3,label="298"]
    299 [penwidth=3,label="299"]
    300 [penwidth=3,label="300"]
    301 [penwidth=3,label="301"]
    302 [penwidth=3,label="302"]
    303 [penwidth=3,label="303"]
    304 [penwidth=3,label="304"]
    305 [penwidth=3,label="305"]
    306 [penwidth=3,label="306"]
    307 [penwidth=3,label="307"]
    308 [penwidth=3,label="308"]
    309 [penwidth=3,label="309"]
    310 [penwidth=3,label="310"]
    311 [penwidth=3,label="311"]
    312 [penwidth=3,label="312"]
    313 [penwidth=3,label="313"]
    314 [penwidth=3,label="314"]
    315 [penwidth=3,label="315"]
    316 [penwidth=3,label="316"]
    317 [penwidth=3,label="317"]
    318 [penwidth=3,label="318"]
    319 [penwidth=3,label="319"]
    320 [penwidth=3,label="320"]
    321 [penwidth=3,label="321"]
    322 [penwidth=3,label="322"]
    323 [penwidth=3,label="323"]
    324 [penwidth=3,label="324"]
    325 [penwidth=3,label="325"]
    326 [penwidth=3,label="326"]
    327 [penwidth=3,label="327"]
    328 [penwidth=3,label="328"]
    329 [penwidth=3,label="329"]
    330 [penwidth=3,label="330"]
    331 [penwidth=3,label="331"]
    332 [penwidth=3,label="332"]
    333 [penwidth=3,label="333"]
    334 [penwidth=3,label="334"]
    335 [penwidth=3,label="335"]
    336 [penwidth=3,label="336"]
    337 [penwidth=3,label="337"]
    338 [penwidth=3,label="338"]
    339 [penwidth=3,label="339"]
    340 [penwidth=3,label="340"]
    341 [penwidth=3,label="341"]
    342 [penwidth=3,label="342"]
    343 [penwidth=3,label="343"]
    344 [penwidth=3,label="344"]
    345 [penwidth=3,label="345"]
    346 [penwidth=3,label="346"]
    347 [penwidth=3,label="347"]
    348 [penwidth=3,label="348"]
    349 [penwidth=3,label="349"]
    350 [penwidth=3,label="350"]
    351 [penwidth=3,label="351"]
    352 [penwidth=3,label="352"]
    353 [penwidth=3,label="353"]
    354 [penwidth=3,label="354"]
    355 [penwidth=3,label="355"]
    356 [penwidth=3,label="356"]
    357 [penwidth=3,label="357"]
    358 [penwidth=3,label="358"]
    359 [penwidth=3,label="359"]
    360 [penwidth=3,label="360"]
    361 [penwidth=3,label="361"]
    362 [penwidth=3,label="362"]
    363 [penwidth=3,label="363"]
    364 [penwidth=3,label="364"]
    365 [penwidth=3,label="365"]
    366 [penwidth=3,label="366"]
    367 [penwidth=3,label="367"]
    368 [penwidth=3,label="368"]
    369 [penwidth=3,label="369"]
    370 [penwidth=3,label="370"]
    371 [penwidth=3,label="371"]
    372 [penwidth=3,label="372"]
    373 [penwidth=3,label="373"]
    374 [penwidth=3,label="374"]
    375 [penwidth=3,label="375"]
    376 [penwidth=3,label="376"]
    377 [penwidth=3,label="377"]
    378 [penwidth=3,label="378"]
    379 [penwidth=3,label="379"]
    380 [penwidth=3,label="380"]
    381 [penwidth=3,label="381"]
    382 [penwidth=3,label="382"]
    383 [penwidth=3,label="383"]
    384 [penwidth=3,label="384"]
    385 [penwidth=3,label="385"]
    386 [penwidth=3,label="386"]
    387 [penwidth=3,label="387"]
    388 [penwidth=3,label="388"]
    389 [penwidth=3,label="389"]
    390 [penwidth=3,label="390"]
    391 [penwidth=3,label="391"]
    392 [penwidth=3,label="392"]
    393 [penwidth=3,label="393"]
    394 [penwidth=3,label="394"]
    395 [penwidth=3,label="395"]
    396 [penwidth=3,label="396"]
    397 [penwidth=3,label="397"]
    398 [penwidth=3,label="398"]
    399 [penwidth=3,label="399"]

    183 -> 0 [penwidth=2]
    184 -> 0 [penwidth=2]
    185 -> 0 [penwidth=2]
    186 -> 0 [penwidth=2]
    187 -> 0 [penwidth=2]
    188 -> 0 [penwidth=2]
    189 -> 0 [penwidth=2]
    190 -> 183 [penwidth=2]
    191 -> 183 [penwidth=2]
    192 -> 183 [penwidth=2]
    193 -> 183 [penwidth=2]
    194 -> 183 [penwidth=2]
    195 -> 183 [penwidth=2]
    196 -> 183 [penwidth=2]
    197 -> 183 [penwidth=2]
    198 -> 183 [penwidth=2]
    199 -> 183 [penwidth=2]
    200 -> 183 [penwidth=2]
    201 -> 183 [penwidth=2]
    202 -> 183 [penwidth=2]
    203 -> 183 [penwidth=2]
    204 -> 183 [penwidth=2]
    205 -> 183 [penwidth=2]
    206 -> 183 [penwidth=2]
    207 -> 183 [penwidth=2]
    208 -> 183 [penwidth=2]
    209 -> 183 [penwidth=2]
    210 -> 183 [penwidth=2]
    211 -> 183 [penwidth=2]
    212 -> 183 [penwidth=2]
    213 -> 184 [penwidth=2]
    214 -> 184 [penwidth=2]
    215 -> 184 [penwidth=2]
    216 -> 184 [penwidth=2]
    217 -> 184 [penwidth=2]
    218 -> 184 [penwidth=2]
    219 -> 184 [penwidth=2]
    220 -> 184 [penwidth=2]
    221 -> 184 [penwidth=2]
    222 -> 184 [penwidth=2]
    223 -> 184 [penwidth=2]
    224 -> 184 [penwidth=2]
    57 -> 184 [penwidth=2]
    99 -> 184 [penwidth=2]
    225 -> 184 [penwidth=2]
    58 -> 184 [penwidth=2]
    100 -> 184 [penwidth=2]
    226 -> 184 [penwidth=2]
    59 -> 184 [penwidth=2]
    101 -> 184 [penwidth=2]
    227 -> 184 [penwidth=2]
    60 -> 184 [penwidth=2]
    102 -> 184 [penwidth=2]
    228 -> 184 [penwidth=2]
    61 -> 184 [penwidth=2]
    103 -> 184 [penwidth=2]
    229 -> 185 [penwidth=2]
    62 -> 185 [penwidth=2]
    104 -> 185 [penwidth=2]
    230 -> 185 [penwidth=2]
    63 -> 185 [penwidth=2]
    105 -> 185 [penwidth=2]
    231 -> 185 [penwidth=2]
    64 -> 185 [penwidth=2]
    106 -> 185 [penwidth=2]
    232 -> 185 [penwidth=2]
    65 -> 185 [penwidth=2]
    107 -> 185 [penwidth=2]
    233 -> 185 [penwidth=2]
    66 -> 185 [penwidth=2]
    108 -> 185 [penwidth=2]
    234 -> 185 [penwidth=2]
    67 -> 185 [penwidth=2]
    109 -> 185 [penwidth=2]
    235 -> 185 [penwidth=2]
    68 -> 185 [penwidth=2]
    110 -> 185 [penwidth=2]
    236 -> 185 [penwidth=2]
    69 -> 185 [penwidth=2]
    111 -> 185 [penwidth=2]
    237 -> 185 [penwidth=2]
    70 -> 185 [penwidth=2]
    112 -> 185 [penwidth=2]
    238 -> 185 [penwidth=2]
    71 -> 185 [penwidth=2]
    113 -> 185 [penwidth=2]
    239 -> 186 [penwidth=2]
    72 -> 186 [penwidth=2]
    114 -> 186 [penwidth=2]
    240 -> 186 [penwidth=2]
    73 -> 186 [penwidth=2]
    115 -> 186 [penwidth=2]
    241 -> 186 [penwidth=2]
    74 -> 187 [penwidth=2]
    116 -> 187 [penwidth=2]
    242 -> 187 [penwidth=2]
    75 -> 187 [penwidth=2]
    117 -> 188 [penwidth=2]
    243 -> 188 [penwidth=2]
    76 -> 188 [penwidth=2]
    118 -> 188 [penwidth=2]
    244 -> 188 [penwidth=2]
    77 -> 188 [penwidth=2]
    119 -> 188 [penwidth=2]
    245 -> 188 [penwidth=2]
    78 -> 188 [penwidth=2]
    120 -> 188 [penwidth=2]
    246 -> 188 [penwidth=2]
    79 -> 188 [penwidth=2]
    121 -> 188 [penwidth=2]
    247 -> 188 [penwidth=2]
    80 -> 188 [penwidth=2]
    122 -> 188 [penwidth=2]
    248 -> 188 [penwidth=2]
    81 -> 188 [penwidth=2]
    123 -> 189 [penwidth=2]
    249 -> 189 [penwidth=2]
    82 -> 189 [penwidth=2]
    124 -> 189 [penwidth=2]
    250 -> 189 [penwidth=2]
    83 -> 189 [penwidth=2]
    125 -> 190 [penwidth=2]
    251 -> 190 [penwidth=2]
    84 -> 191 [penwidth=2]
    126 -> 191 [penwidth=2]
    252 -> 191 [penwidth=2]
    85 -> 191 [penwidth=2]
    127 -> 191 [penwidth=2]
    253 -> 191 [penwidth=2]
    86 -> 191 [penwidth=2]
    128 -> 191 [penwidth=2]
    254 -> 191 [penwidth=2]
    87 -> 191 [penwidth=2]
    129 -> 191 [penwidth=2]
    255 -> 191 [penwidth=2]
    88 -> 191 [penwidth=2]
    130 -> 191 [penwidth=2]
    256 -> 191 [penwidth=2]
    89 -> 191 [penwidth=2]
    131 -> 191 [penwidth=2]
    257 -> 191 [penwidth=2]
    90 -> 191 [penwidth=2]
    132 -> 191 [penwidth=2]
    258 -> 191 [penwidth=2]
    91 -> 191 [penwidth=2]
    133 -> 191 [penwidth=2]
    259 -> 191 [penwidth=2]
    92 -> 192 [penwidth=2]
    134 -> 192 [penwidth=2]
    260 -> 192 [penwidth=2]
    93 -> 192 [penwidth=2]
    135 -> 192 [penwidth=2]
    261 -> 192 [penwidth=2]
    94 -> 192 [penwidth=2]
    136 -> 192 [penwidth=2]
    262 -> 192 [penwidth=2]
    95 -> 192 [penwidth=2]
    137 -> 192 [penwidth=2]
    263 -> 193 [penwidth=2]
    96 -> 193 [penwidth=2]
    138 -> 193 [penwidth=2]
    264 -> 193 [penwidth=2]
    265 -> 193 [penwidth=2]
    97 -> 193 [penwidth=2]
    139 -> 193 [penwidth=2]
    140 -> 194 [penwidth=2]
    266 -> 194 [penwidth=2]
    98 -> 194 [penwidth=2]
    141 -> 194 [penwidth=2]
    393 -> 194 [penwidth=2]
    142 -> 194 [penwidth=2]
    394 -> 194 [penwidth=2]
    143 -> 194 [penwidth=2]
    395 -> 194 [penwidth=2]
    144 -> 194 [penwidth=2]
    396 -> 194 [penwidth=2]
    145 -> 194 [penwidth=2]
    397 -> 194 [penwidth=2]
    146 -> 194 [penwidth=2]
    398 -> 194 [penwidth=2]
    147 -> 194 [penwidth=2]
    399 -> 194 [penwidth=2]
    148 -> 194 [penwidth=2]
    149 -> 194 [penwidth=2]
    150 -> 194 [penwidth=2]
    151 -> 194 [penwidth=2]
    152 -> 194 [penwidth=2]
    153 -> 194 [penwidth=2]
    154 -> 194 [penwidth=2]
    155 -> 194 [penwidth=2]
    156 -> 194 [penwidth=2]
    157 -> 194 [penwidth=2]
    158 -> 194 [penwidth=2]
    159 -> 194 [penwidth=2]
    160 -> 194 [penwidth=2]
    161 -> 195 [penwidth=2]
    162 -> 195 [penwidth=2]
    163 -> 195 [penwidth=2]
    164 -> 195 [penwidth=2]
    165 -> 195 [penwidth=2]
    166 -> 195 [penwidth=2]
    167 -> 195 [penwidth=2]
    168 -> 195 [penwidth=2]
    169 -> 195 [penwidth=2]
    170 -> 195 [penwidth=2]
    171 -> 195 [penwidth=2]
    172 -> 195 [penwidth=2]
    173 -> 195 [penwidth=2]
    174 -> 195 [penwidth=2]
    175 -> 195 [penwidth=2]
    176 -> 195 [penwidth=2]
    177 -> 195 [penwidth=2]
    178 -> 195 [penwidth=2]
    179 -> 195 [penwidth=2]
    180 -> 195 [penwidth=2]
    181 -> 196 [penwidth=2]
    182 -> 196 [penwidth=2]
    267 -> 196 [penwidth=2]
    309 -> 196 [penwidth=2]
    268 -> 196 [penwidth=2]
    310 -> 196 [penwidth=2]
    269 -> 196 [penwidth=2]
    311 -> 196 [penwidth=2]
    270 -> 196 [penwidth=2]
    312 -> 196 [penwidth=2]
    271 -> 196 [penwidth=2]
    313 -> 196 [penwidth=2]
    272 -> 196 [penwidth=2]
    314 -> 196 [penwidth=2]
    273 -> 196 [penwidth=2]
    315 -> 196 [penwidth=2]
    274 -> 196 [penwidth=2]
    316 -> 196 [penwidth=2]
    275 -> 196 [penwidth=2]
    317 -> 196 [penwidth=2]
    276 -> 196 [penwidth=2]
    318 -> 196 [penwidth=2]
    277 -> 196 [penwidth=2]
    319 -> 196 [penwidth=2]
    278 -> 196 [penwidth=2]
    320 -> 196 [penwidth=2]
    279 -> 196 [penwidth=2]
    321 -> 196 [penwidth=2]
    280 -> 196 [penwidth=2]
    322 -> 196 [penwidth=2]
    281 -> 197 [penwidth=2]
    323 -> 197 [penwidth=2]
    282 -> 197 [penwidth=2]
    324 -> 197 [penwidth=2]
    283 -> 197 [penwidth=2]
    325 -> 197 [penwidth=2]
    284 -> 197 [penwidth=2]
    326 -> 197 [penwidth=2]
    285 -> 197 [penwidth=2]
    327 -> 197 [penwidth=2]
    286 -> 197 [penwidth=2]
    328 -> 197 [penwidth=2]
    287 -> 197 [penwidth=2]
    329 -> 197 [penwidth=2]
    288 -> 197 [penwidth=2]
    330 -> 197 [penwidth=2]
    289 -> 197 [penwidth=2]
    331 -> 197 [penwidth=2]
    290 -> 197 [penwidth=2]
    332 -> 197 [penwidth=2]
    291 -> 198 [penwidth=2]
    333 -> 198 [penwidth=2]
    292 -> 198 [penwidth=2]
    334 -> 198 [penwidth=2]
    293 -> 198 [penwidth=2]
    335 -> 198 [penwidth=2]
    294 -> 198 [penwidth=2]
    336 -> 198 [penwidth=2]
    1 -> 198 [penwidth=2]
    295 -> 198 [penwidth=2]
    337 -> 199 [penwidth=2]
    2 -> 199 [penwidth=2]
    296 -> 199 [penwidth=2]
    338 -> 199 [penwidth=2]
    3 -> 199 [penwidth=2]
    297 -> 199 [penwidth=2]
    339 -> 199 [penwidth=2]
    4 -> 199 [penwidth=2]
    298 -> 199 [penwidth=2]
    340 -> 199 [penwidth=2]
    5 -> 199 [penwidth=2]
    299 -> 199 [penwidth=2]
    341 -> 199 [penwidth=2]
    6 -> 200 [penwidth=2]
    300 -> 200 [penwidth=2]
    342 -> 200 [penwidth=2]
    7 -> 200 [penwidth=2]
    301 -> 200 [penwidth=2]
    343 -> 200 [penwidth=2]
    8 -> 200 [penwidth=2]
    302 -> 200 [penwidth=2]
    344 -> 200 [penwidth=2]
    9 -> 200 [penwidth=2]
    303 -> 200 [penwidth=2]
    345 -> 200 [penwidth=2]
    10 -> 200 [penwidth=2]
    304 -> 200 [penwidth=2]
    346 -> 200 [penwidth=2]
    11 -> 200 [penwidth=2]
    305 -> 201 [penwidth=2]
    347 -> 201 [penwidth=2]
    12 -> 201 [penwidth=2]
    306 -> 201 [penwidth=2]
    348 -> 201 [penwidth=2]
    13 -> 201 [penwidth=2]
    307 -> 201 [penwidth=2]
    349 -> 201 [penwidth=2]
    14 -> 201 [penwidth=2]
    308 -> 201 [penwidth=2]
    350 -> 201 [penwidth=2]
    388 -> 201 [penwidth=2]
    15 -> 201 [penwidth=2]
    392 -> 201 [penwidth=2]
    16 -> 201 [penwidth=2]
    360 -> 201 [penwidth=2]
    17 -> 201 [penwidth=2]
    355 -> 202 [penwidth=2]
    18 -> 202 [penwidth=2]
    384 -> 203 [penwidth=2]
    19 -> 203 [penwidth=2]
    361 -> 203 [penwidth=2]
    20 -> 203 [penwidth=2]
    359 -> 203 [penwidth=2]
    21 -> 203 [penwidth=2]
    383 -> 203 [penwidth=2]
    22 -> 203 [penwidth=2]
    354 -> 203 [penwidth=2]
    23 -> 203 [penwidth=2]
    391 -> 203 [penwidth=2]
    24 -> 203 [penwidth=2]
    385 -> 203 [penwidth=2]
    25 -> 203 [penwidth=2]
    387 -> 203 [penwidth=2]
    26 -> 203 [penwidth=2]
    357 -> 203 [penwidth=2]
    27 -> 203 [penwidth=2]
    386 -> 203 [penwidth=2]
    28 -> 203 [penwidth=2]
    390 -> 203 [penwidth=2]
    29 -> 203 [penwidth=2]
    389 -> 203 [penwidth=2]
    30 -> 203 [penwidth=2]
    367 -> 203 [penwidth=2]
    31 -> 204 [penwidth=2]
    382 -> 204 [penwidth=2]
    32 -> 204 [penwidth=2]
    381 -> 204 [penwidth=2]
    33 -> 204 [penwidth=2]
    380 -> 204 [penwidth=2]
    34 -> 204 [penwidth=2]
    379 -> 205 [penwidth=2]
    35 -> 205 [penwidth=2]
    358 -> 205 [penwidth=2]
    36 -> 205 [penwidth=2]
    351 -> 205 [penwidth=2]
    37 -> 205 [penwidth=2]
    378 -> 205 [penwidth=2]
    38 -> 205 [penwidth=2]
    377 -> 205 [penwidth=2]
    39 -> 205 [penwidth=2]
    362 -> 205 [penwidth=2]
    40 -> 205 [penwidth=2]
    376 -> 205 [penwidth=2]
    41 -> 205 [penwidth=2]
    356 -> 205 [penwidth=2]
    42 -> 205 [penwidth=2]
    375 -> 205 [penwidth=2]
    43 -> 205 [penwidth=2]
    374 -> 205 [penwidth=2]
    44 -> 206 [penwidth=2]
    364 -> 206 [penwidth=2]
    45 -> 206 [penwidth=2]
    363 -> 206 [penwidth=2]
    46 -> 206 [penwidth=2]
    373 -> 206 [penwidth=2]
    47 -> 207 [penwidth=2]
    372 -> 207 [penwidth=2]
    48 -> 207 [penwidth=2]
    352 -> 207 [penwidth=2]
    49 -> 207 [penwidth=2]
    366 -> 207 [penwidth=2]
    371 -> 207 [penwidth=2]
    50 -> 208 [penwidth=2]
    368 -> 208 [penwidth=2]
    51 -> 208 [penwidth=2]
    365 -> 208 [penwidth=2]
    52 -> 208 [penwidth=2]
    353 -> 208 [penwidth=2]
    53 -> 208 [penwidth=2]
    370 -> 208 [penwidth=2]
    54 -> 209 [penwidth=2]
    369 -> 209 [penwidth=2]
    55 -> 209 [penwidth=2]
    56 -> 209 [penwidth=2]
    221 -> 187 [penwidth=2]
    57 -> 183 [penwidth=2]
    57 -> 189 [penwidth=2]
    57 -> 188 [penwidth=2]
    227 -> 188 [penwidth=2]
    227 -> 186 [penwidth=2]
    106 -> 189 [penwidth=2]
    81 -> 183 [penwidth=2]
    251 -> 99 [penwidth=2]
    251 -> 242 [penwidth=2]
    251 -> 212 [penwidth=2]
    251 -> 197 [penwidth=2]
    251 -> 194 [penwidth=2]
    251 -> 66 [penwidth=2]
    251 -> 248 [penwidth=2]
    251 -> 73 [penwidth=2]
    251 -> 245 [penwidth=2]
    251 -> 199 [penwidth=2]
    251 -> 57 [penwidth=2]
    251 -> 81 [penwidth=2]
    251 -> 60 [penwidth=2]
    251 -> 239 [penwidth=2]
    251 -> 69 [penwidth=2]
    251 -> 209 [penwidth=2]
    251 -> 243 [penwidth=2]
    251 -> 123 [penwidth=2]
    251 -> 113 [penwidth=2]
    251 -> 78 [penwidth=2]
    251 -> 244 [penwidth=2]
    251 -> 202 [penwidth=2]
    251 -> 231 [penwidth=2]
    251 -> 67 [penwidth=2]
    251 -> 214 [penwidth=2]
    251 -> 112 [penwidth=2]
    251 -> 118 [penwidth=2]
    251 -> 217 [penwidth=2]
    251 -> 122 [penwidth=2]
    251 -> 240 [penwidth=2]
    251 -> 238 [penwidth=2]
    251 -> 101 [penwidth=2]
    251 -> 233 [penwidth=2]
    251 -> 102 [penwidth=2]
    251 -> 192 [penwidth=2]
    251 -> 107 [penwidth=2]
    251 -> 103 [penwidth=2]
    251 -> 250 [penwidth=2]
    251 -> 193 [penwidth=2]
    251 -> 114 [penwidth=2]
    251 -> 62 [penwidth=2]
    251 -> 116 [penwidth=2]
    251 -> 205 [penwidth=2]
    251 -> 82 [penwidth=2]
    251 -> 109 [penwidth=2]
    251 -> 200 [penwidth=2]
    251 -> 220 [penwidth=2]
    251 -> 83 [penwidth=2]
    251 -> 106 [penwidth=2]
    251 -> 218 [penwidth=2]
    251 -> 235 [penwidth=2]
    251 -> 64 [penwidth=2]
    251 -> 75 [penwidth=2]
    251 -> 80 [penwidth=2]
    251 -> 236 [penwidth=2]
    251 -> 206 [penwidth=2]
    251 -> 219 [penwidth=2]
    251 -> 59 [penwidth=2]
    251 -> 224 [penwidth=2]
    251 -> 232 [penwidth=2]
    251 -> 249 [penwidth=2]
    127 -> 119 [penwidth=2]
    127 -> 62 [penwidth=2]
    127 -> 109 [penwidth=2]
    127 -> 82 [penwidth=2]
    127 -> 83 [penwidth=2]
    127 -> 238 [penwidth=2]
    127 -> 60 [penwidth=2]
    127 -> 196 [penwidth=2]
    127 -> 202 [penwidth=2]
    127 -> 205 [penwidth=2]
    127 -> 107 [penwidth=2]
    127 -> 246 [penwidth=2]
    127 -> 232 [penwidth=2]
    127 -> 193 [penwidth=2]
    127 -> 197 [penwidth=2]
    127 -> 123 [penwidth=2]
    127 -> 110 [penwidth=2]
    127 -> 114 [penwidth=2]
    127 -> 230 [penwidth=2]
    127 -> 80 [penwidth=2]
    127 -> 192 [penwidth=2]
    127 -> 220 [penwidth=2]
    127 -> 199 [penwidth=2]
    127 -> 211 [penwidth=2]
    127 -> 121 [penwidth=2]
    127 -> 225 [penwidth=2]
    127 -> 213 [penwidth=2]
    127 -> 219 [penwidth=2]
    127 -> 194 [penwidth=2]
    127 -> 239 [penwidth=2]
    127 -> 68 [penwidth=2]
    127 -> 118 [penwidth=2]
    127 -> 63 [penwidth=2]
    127 -> 120 [penwidth=2]
    127 -> 203 [penwidth=2]
    127 -> 228 [penwidth=2]
    127 -> 59 [penwidth=2]
    127 -> 108 [penwidth=2]
    127 -> 64 [penwidth=2]
    127 -> 245 [penwidth=2]
    127 -> 206 [penwidth=2]
    127 -> 77 [penwidth=2]
    127 -> 231 [penwidth=2]
    127 -> 212 [penwidth=2]
    127 -> 240 [penwidth=2]
    127 -> 74 [penwidth=2]
    127 -> 198 [penwidth=2]
    127 -> 106 [penwidth=2]
    127 -> 112 [penwidth=2]
    127 -> 58 [penwidth=2]
    127 -> 73 [penwidth=2]
    127 -> 99 [penwidth=2]
    127 -> 223 [penwidth=2]
    127 -> 71 [penwidth=2]
    127 -> 111 [penwidth=2]
    127 -> 105 [penwidth=2]
    127 -> 115 [penwidth=2]
    127 -> 67 [penwidth=2]
    127 -> 226 [penwidth=2]
    127 -> 209 [penwidth=2]
    127 -> 242 [penwidth=2]
    127 -> 214 [penwidth=2]
    127 -> 221 [penwidth=2]
    127 -> 235 [penwidth=2]
    127 -> 122 [penwidth=2]
    127 -> 101 [penwidth=2]
    127 -> 78 [penwidth=2]
    127 -> 215 [penwidth=2]
    127 -> 244 [penwidth=2]
    127 -> 70 [penwidth=2]
    127 -> 216 [penwidth=2]
    127 -> 210 [penwidth=2]
    127 -> 81 [penwidth=2]
    127 -> 102 [penwidth=2]
    127 -> 76 [penwidth=2]
    127 -> 204 [penwidth=2]
    127 -> 195 [penwidth=2]
    127 -> 217 [penwidth=2]
    127 -> 241 [penwidth=2]
    127 -> 237 [penwidth=2]
    127 -> 218 [penwidth=2]
    127 -> 100 [penwidth=2]
    127 -> 79 [penwidth=2]
    253 -> 224 [penwidth=2]
    253 -> 223 [penwidth=2]
    253 -> 73 [penwidth=2]
    253 -> 241 [penwidth=2]
    253 -> 63 [penwidth=2]
    253 -> 248 [penwidth=2]
    253 -> 228 [penwidth=2]
    253 -> 68 [penwidth=2]
    253 -> 209 [penwidth=2]
    253 -> 236 [penwidth=2]
    253 -> 194 [penwidth=2]
    253 -> 60 [penwidth=2]
    253 -> 215 [penwidth=2]
    253 -> 225 [penwidth=2]
    253 -> 229 [penwidth=2]
    253 -> 71 [penwidth=2]
    253 -> 201 [penwidth=2]
    253 -> 235 [penwidth=2]
    253 -> 67 [penwidth=2]
    253 -> 120 [penwidth=2]
    253 -> 80 [penwidth=2]
    253 -> 244 [penwidth=2]
    253 -> 208 [penwidth=2]
    253 -> 210 [penwidth=2]
    253 -> 238 [penwidth=2]
    253 -> 207 [penwidth=2]
    253 -> 121 [penwidth=2]
    253 -> 116 [penwidth=2]
    253 -> 198 [penwidth=2]
    253 -> 230 [penwidth=2]
    253 -> 249 [penwidth=2]
    253 -> 72 [penwidth=2]
    253 -> 216 [penwidth=2]
    253 -> 101 [penwidth=2]
    253 -> 112 [penwidth=2]
    253 -> 104 [penwidth=2]
    253 -> 100 [penwidth=2]
    253 -> 111 [penwidth=2]
    253 -> 190 [penwidth=2]
    253 -> 117 [penwidth=2]
    253 -> 247 [penwidth=2]
    253 -> 69 [penwidth=2]
    253 -> 123 [penwidth=2]
    253 -> 82 [penwidth=2]
    253 -> 237 [penwidth=2]
    253 -> 103 [penwidth=2]
    253 -> 118 [penwidth=2]
    253 -> 231 [penwidth=2]
    253 -> 214 [penwidth=2]
    253 -> 102 [penwidth=2]
    253 -> 227 [penwidth=2]
    253 -> 196 [penwidth=2]
    253 -> 61 [penwidth=2]
    253 -> 242 [penwidth=2]
    253 -> 239 [penwidth=2]
    253 -> 74 [penwidth=2]
    253 -> 232 [penwidth=2]
    253 -> 122 [penwidth=2]
    253 -> 202 [penwidth=2]
    253 -> 83 [penwidth=2]
    253 -> 110 [penwidth=2]
    253 -> 197 [penwidth=2]
    253 -> 70 [penwidth=2]
    253 -> 66 [penwidth=2]
    253 -> 124 [penwidth=2]
    253 -> 218 [penwidth=2]
    253 -> 222 [penwidth=2]
    253 -> 220 [penwidth=2]
    253 -> 199 [penwidth=2]
    253 -> 193 [penwidth=2]
    253 -> 213 [penwidth=2]
    253 -> 109 [penwidth=2]
    253 -> 64 [penwidth=2]
    253 -> 99 [penwidth=2]
    253 -> 65 [penwidth=2]
    253 -> 226 [penwidth=2]
    253 -> 211 [penwidth=2]
    253 -> 62 [penwidth=2]
    253 -> 200 [penwidth=2]
    253 -> 76 [penwidth=2]
    253 -> 205 [penwidth=2]
    253 -> 203 [penwidth=2]
    253 -> 113 [penwidth=2]
    253 -> 206 [penwidth=2]
    253 -> 212 [penwidth=2]
    253 -> 250 [penwidth=2]
    253 -> 58 [penwidth=2]
    253 -> 234 [penwidth=2]
    253 -> 108 [penwidth=2]
    253 -> 221 [penwidth=2]
    253 -> 204 [penwidth=2]
    253 -> 105 [penwidth=2]
    253 -> 195 [penwidth=2]
    253 -> 75 [penwidth=2]
    253 -> 59 [penwidth=2]
    253 -> 240 [penwidth=2]
    253 -> 78 [penwidth=2]
    253 -> 217 [penwidth=2]
    253 -> 219 [penwidth=2]
    254 -> 201 [penwidth=2]
    254 -> 238 [penwidth=2]
    254 -> 105 [penwidth=2]
    254 -> 219 [penwidth=2]
    254 -> 107 [penwidth=2]
    254 -> 57 [penwidth=2]
    254 -> 75 [penwidth=2]
    254 -> 236 [penwidth=2]
    254 -> 120 [penwidth=2]
    254 -> 108 [penwidth=2]
    254 -> 245 [penwidth=2]
    254 -> 66 [penwidth=2]
    254 -> 216 [penwidth=2]
    254 -> 124 [penwidth=2]
    254 -> 213 [penwidth=2]
    254 -> 210 [penwidth=2]
    254 -> 109 [penwidth=2]
    254 -> 112 [penwidth=2]
    254 -> 72 [penwidth=2]
    254 -> 58 [penwidth=2]
    254 -> 195 [penwidth=2]
    254 -> 207 [penwidth=2]
    254 -> 67 [penwidth=2]
    254 -> 240 [penwidth=2]
    254 -> 123 [penwidth=2]
    254 -> 77 [penwidth=2]
    254 -> 217 [penwidth=2]
    254 -> 235 [penwidth=2]
    254 -> 224 [penwidth=2]
    254 -> 60 [penwidth=2]
    254 -> 200 [penwidth=2]
    254 -> 73 [penwidth=2]
    254 -> 215 [penwidth=2]
    254 -> 220 [penwidth=2]
    254 -> 203 [penwidth=2]
    254 -> 206 [penwidth=2]
    254 -> 76 [penwidth=2]
    254 -> 202 [penwidth=2]
    254 -> 80 [penwidth=2]
    254 -> 116 [penwidth=2]
    254 -> 205 [penwidth=2]
    254 -> 221 [penwidth=2]
    254 -> 212 [penwidth=2]
    254 -> 209 [penwidth=2]
    254 -> 223 [penwidth=2]
    254 -> 68 [penwidth=2]
    254 -> 71 [penwidth=2]
    254 -> 249 [penwidth=2]
    254 -> 193 [penwidth=2]
    254 -> 61 [penwidth=2]
    254 -> 78 [penwidth=2]
    254 -> 228 [penwidth=2]
    254 -> 69 [penwidth=2]
    254 -> 229 [penwidth=2]
    254 -> 226 [penwidth=2]
    254 -> 248 [penwidth=2]
    254 -> 70 [penwidth=2]
    254 -> 63 [penwidth=2]
    254 -> 244 [penwidth=2]
    254 -> 101 [penwidth=2]
    254 -> 227 [penwidth=2]
    254 -> 208 [penwidth=2]
    254 -> 100 [penwidth=2]
    254 -> 222 [penwidth=2]
    254 -> 241 [penwidth=2]
    254 -> 65 [penwidth=2]
    254 -> 83 [penwidth=2]
    254 -> 62 [penwidth=2]
    254 -> 121 [penwidth=2]
    254 -> 233 [penwidth=2]
    254 -> 239 [penwidth=2]
    254 -> 234 [penwidth=2]
    254 -> 82 [penwidth=2]
    254 -> 111 [penwidth=2]
    254 -> 117 [penwidth=2]
    254 -> 230 [penwidth=2]
    254 -> 242 [penwidth=2]
    254 -> 243 [penwidth=2]
    254 -> 197 [penwidth=2]
    254 -> 247 [penwidth=2]
    254 -> 74 [penwidth=2]
    254 -> 104 [penwidth=2]
    254 -> 110 [penwidth=2]
    254 -> 115 [penwidth=2]
    254 -> 237 [penwidth=2]
    93 -> 110 [penwidth=2]
    93 -> 248 [penwidth=2]
    93 -> 208 [penwidth=2]
    93 -> 190 [penwidth=2]
    93 -> 231 [penwidth=2]
    93 -> 105 [penwidth=2]
    93 -> 216 [penwidth=2]
    93 -> 77 [penwidth=2]
    93 -> 199 [penwidth=2]
    93 -> 203 [penwidth=2]
    93 -> 109 [penwidth=2]
    93 -> 72 [penwidth=2]
    93 -> 214 [penwidth=2]
    93 -> 108 [penwidth=2]
    93 -> 204 [penwidth=2]
    93 -> 101 [penwidth=2]
    93 -> 67 [penwidth=2]
    93 -> 80 [penwidth=2]
    93 -> 81 [penwidth=2]
    93 -> 100 [penwidth=2]
    93 -> 59 [penwidth=2]
    93 -> 218 [penwidth=2]
    93 -> 245 [penwidth=2]
    93 -> 217 [penwidth=2]
    93 -> 206 [penwidth=2]
    93 -> 211 [penwidth=2]
    93 -> 65 [penwidth=2]
    264 -> 106 [penwidth=2]
    264 -> 68 [penwidth=2]
    264 -> 206 [penwidth=2]
    264 -> 120 [penwidth=2]
    264 -> 124 [penwidth=2]
    264 -> 116 [penwidth=2]
    264 -> 78 [penwidth=2]
    264 -> 63 [penwidth=2]
    264 -> 231 [penwidth=2]
    264 -> 209 [penwidth=2]
    264 -> 113 [penwidth=2]
    264 -> 230 [penwidth=2]
    264 -> 194 [penwidth=2]
    264 -> 108 [penwidth=2]
    264 -> 199 [penwidth=2]
    264 -> 240 [penwidth=2]
    264 -> 218 [penwidth=2]
    264 -> 228 [penwidth=2]
    264 -> 242 [penwidth=2]
    264 -> 117 [penwidth=2]
    264 -> 69 [penwidth=2]
    264 -> 111 [penwidth=2]
    264 -> 62 [penwidth=2]
    264 -> 221 [penwidth=2]
    264 -> 64 [penwidth=2]
    264 -> 82 [penwidth=2]
    264 -> 238 [penwidth=2]
    264 -> 212 [penwidth=2]
    264 -> 210 [penwidth=2]
    264 -> 70 [penwidth=2]
    264 -> 101 [penwidth=2]
    264 -> 122 [penwidth=2]
    264 -> 81 [penwidth=2]
    264 -> 61 [penwidth=2]
    264 -> 207 [penwidth=2]
    264 -> 66 [penwidth=2]
    264 -> 236 [penwidth=2]
    264 -> 211 [penwidth=2]
    264 -> 229 [penwidth=2]
    264 -> 243 [penwidth=2]
    264 -> 232 [penwidth=2]
    264 -> 234 [penwidth=2]
    264 -> 223 [penwidth=2]
    264 -> 79 [penwidth=2]
    264 -> 67 [penwidth=2]
    264 -> 200 [penwidth=2]
    264 -> 233 [penwidth=2]
    264 -> 123 [penwidth=2]
    264 -> 83 [penwidth=2]
    264 -> 114 [penwidth=2]
    264 -> 226 [penwidth=2]
    264 -> 107 [penwidth=2]
    264 -> 75 [penwidth=2]
    264 -> 222 [penwidth=2]
    264 -> 72 [penwidth=2]
    264 -> 216 [penwidth=2]
    264 -> 57 [penwidth=2]
    264 -> 247 [penwidth=2]
    264 -> 197 [penwidth=2]
    264 -> 190 [penwidth=2]
    264 -> 110 [penwidth=2]
    264 -> 202 [penwidth=2]
    264 -> 112 [penwidth=2]
    264 -> 99 [penwidth=2]
    264 -> 227 [penwidth=2]
    264 -> 205 [penwidth=2]
    264 -> 65 [penwidth=2]
    264 -> 239 [penwidth=2]
    264 -> 237 [penwidth=2]
    264 -> 198 [penwidth=2]
    264 -> 213 [penwidth=2]
    264 -> 217 [penwidth=2]
    264 -> 100 [penwidth=2]
    264 -> 73 [penwidth=2]
    264 -> 115 [penwidth=2]
    264 -> 195 [penwidth=2]
    264 -> 246 [penwidth=2]
    264 -> 244 [penwidth=2]
    264 -> 58 [penwidth=2]
    264 -> 191 [penwidth=2]
    264 -> 225 [penwidth=2]
    264 -> 104 [penwidth=2]
    264 -> 77 [penwidth=2]
    264 -> 59 [penwidth=2]
    264 -> 204 [penwidth=2]
    264 -> 208 [penwidth=2]
    264 -> 250 [penwidth=2]
    264 -> 235 [penwidth=2]
    264 -> 105 [penwidth=2]
    264 -> 196 [penwidth=2]
    264 -> 215 [penwidth=2]
    264 -> 121 [penwidth=2]
    159 -> 64 [penwidth=2]
    159 -> 233 [penwidth=2]
    159 -> 116 [penwidth=2]
    159 -> 66 [penwidth=2]
    159 -> 115 [penwidth=2]
    159 -> 62 [penwidth=2]
    159 -> 232 [penwidth=2]
    159 -> 242 [penwidth=2]
    159 -> 113 [penwidth=2]
    172 -> 124 [penwidth=2]
    279 -> 114 [penwidth=2]
    279 -> 191 [penwidth=2]
    279 -> 112 [penwidth=2]
    279 -> 116 [penwidth=2]
    279 -> 243 [penwidth=2]
    279 -> 248 [penwidth=2]
    279 -> 195 [penwidth=2]
    279 -> 105 [penwidth=2]
    279 -> 118 [penwidth=2]
    279 -> 208 [penwidth=2]
    279 -> 223 [penwidth=2]
    279 -> 190 [penwidth=2]
    279 -> 198 [penwidth=2]
    279 -> 113 [penwidth=2]
    279 -> 211 [penwidth=2]
    279 -> 249 [penwidth=2]
    279 -> 207 [penwidth=2]
    279 -> 72 [penwidth=2]
    279 -> 209 [penwidth=2]
    279 -> 104 [penwidth=2]
    279 -> 230 [penwidth=2]
    279 -> 217 [penwidth=2]
    279 -> 117 [penwidth=2]
    279 -> 73 [penwidth=2]
    279 -> 244 [penwidth=2]
    279 -> 233 [penwidth=2]
    279 -> 228 [penwidth=2]
    279 -> 111 [penwidth=2]
    279 -> 75 [penwidth=2]
    279 -> 106 [penwidth=2]
    279 -> 201 [penwidth=2]
    279 -> 57 [penwidth=2]
    279 -> 79 [penwidth=2]
    279 -> 240 [penwidth=2]
    279 -> 199 [penwidth=2]
    279 -> 238 [penwidth=2]
    279 -> 239 [penwidth=2]
    279 -> 83 [penwidth=2]
    279 -> 99 [penwidth=2]
    279 -> 214 [penwidth=2]
    279 -> 192 [penwidth=2]
    279 -> 246 [penwidth=2]
    279 -> 69 [penwidth=2]
    279 -> 123 [penwidth=2]
    279 -> 107 [penwidth=2]
    279 -> 219 [penwidth=2]
    279 -> 77 [penwidth=2]
    279 -> 103 [penwidth=2]
    279 -> 229 [penwidth=2]
    279 -> 202 [penwidth=2]
    279 -> 119 [penwidth=2]
    279 -> 234 [penwidth=2]
    279 -> 102 [penwidth=2]
    279 -> 62 [penwidth=2]
    279 -> 67 [penwidth=2]
    279 -> 65 [penwidth=2]
    279 -> 221 [penwidth=2]
    279 -> 197 [penwidth=2]
    279 -> 60 [penwidth=2]
    279 -> 206 [penwidth=2]
    279 -> 213 [penwidth=2]
    279 -> 59 [penwidth=2]
    279 -> 216 [penwidth=2]
    279 -> 68 [penwidth=2]
    279 -> 237 [penwidth=2]
    279 -> 121 [penwidth=2]
    279 -> 71 [penwidth=2]
    279 -> 220 [penwidth=2]
    279 -> 245 [penwidth=2]
    279 -> 80 [penwidth=2]
    279 -> 235 [penwidth=2]
    279 -> 109 [penwidth=2]
    279 -> 203 [penwidth=2]
    279 -> 76 [penwidth=2]
    279 -> 231 [penwidth=2]
    279 -> 218 [penwidth=2]
    324 -> 248 [penwidth=2]
    324 -> 201 [penwidth=2]
    324 -> 195 [penwidth=2]
    324 -> 73 [penwidth=2]
    324 -> 212 [penwidth=2]
    324 -> 110 [penwidth=2]
    324 -> 123 [penwidth=2]
    324 -> 103 [penwidth=2]
    324 -> 245 [penwidth=2]
    324 -> 199 [penwidth=2]
    324 -> 107 [penwidth=2]
    324 -> 118 [penwidth=2]
    324 -> 234 [penwidth=2]
    324 -> 192 [penwidth=2]
    324 -> 108 [penwidth=2]
    324 -> 232 [penwidth=2]
    324 -> 227 [penwidth=2]
    324 -> 59 [penwidth=2]
    324 -> 246 [penwidth=2]
    324 -> 65 [penwidth=2]
    324 -> 71 [penwidth=2]
    324 -> 63 [penwidth=2]
    324 -> 206 [penwidth=2]
    324 -> 101 [penwidth=2]
    324 -> 224 [penwidth=2]
    324 -> 105 [penwidth=2]
    324 -> 113 [penwidth=2]
    324 -> 124 [penwidth=2]
    324 -> 217 [penwidth=2]
    324 -> 222 [penwidth=2]
    324 -> 230 [penwidth=2]
    324 -> 83 [penwidth=2]
    324 -> 250 [penwidth=2]
    324 -> 194 [penwidth=2]
    324 -> 219 [penwidth=2]
    324 -> 68 [penwidth=2]
    324 -> 228 [penwidth=2]
    324 -> 240 [penwidth=2]
    324 -> 116 [penwidth=2]
    324 -> 75 [penwidth=2]
    324 -> 72 [penwidth=2]
    324 -> 242 [penwidth=2]
    324 -> 66 [penwidth=2]
    324 -> 211 [penwidth=2]
    324 -> 80 [penwidth=2]
    324 -> 213 [penwidth=2]
    324 -> 225 [penwidth=2]
    324 -> 106 [penwidth=2]
    324 -> 115 [penwidth=2]
    324 -> 104 [penwidth=2]
    324 -> 76 [penwidth=2]
    324 -> 102 [penwidth=2]
    324 -> 238 [penwidth=2]
    324 -> 247 [penwidth=2]
    324 -> 112 [penwidth=2]
    324 -> 216 [penwidth=2]
    324 -> 207 [penwidth=2]
    324 -> 241 [penwidth=2]
    324 -> 120 [penwidth=2]
    324 -> 223 [penwidth=2]
    324 -> 100 [penwidth=2]
    324 -> 202 [penwidth=2]
    324 -> 114 [penwidth=2]
    324 -> 57 [penwidth=2]
    324 -> 210 [penwidth=2]
    324 -> 69 [penwidth=2]
    324 -> 220 [penwidth=2]
    324 -> 243 [penwidth=2]
    324 -> 78 [penwidth=2]
    324 -> 214 [penwidth=2]
    324 -> 111 [penwidth=2]
    324 -> 82 [penwidth=2]
    324 -> 239 [penwidth=2]
    324 -> 190 [penwidth=2]
    324 -> 221 [penwidth=2]
    324 -> 236 [penwidth=2]
    324 -> 81 [penwidth=2]
    324 -> 60 [penwidth=2]
    324 -> 249 [penwidth=2]
    284 -> 83 [penwidth=2]
    284 -> 103 [penwidth=2]
    284 -> 201 [penwidth=2]
    284 -> 115 [penwidth=2]
    284 -> 109 [penwidth=2]
    284 -> 124 [penwidth=2]
    284 -> 57 [penwidth=2]
    284 -> 235 [penwidth=2]
    284 -> 209 [penwidth=2]
    284 -> 239 [penwidth=2]
    284 -> 233 [penwidth=2]
    284 -> 80 [penwidth=2]
    284 -> 225 [penwidth=2]
    284 -> 104 [penwidth=2]
    284 -> 117 [penwidth=2]
    284 -> 215 [penwidth=2]
    284 -> 210 [penwidth=2]
    284 -> 198 [penwidth=2]
    284 -> 217 [penwidth=2]
    284 -> 230 [penwidth=2]
    284 -> 63 [penwidth=2]
    284 -> 194 [penwidth=2]
    284 -> 77 [penwidth=2]
    284 -> 123 [penwidth=2]
    284 -> 76 [penwidth=2]
    284 -> 116 [penwidth=2]
    284 -> 247 [penwidth=2]
    284 -> 204 [penwidth=2]
    284 -> 234 [penwidth=2]
    284 -> 66 [penwidth=2]
    284 -> 203 [penwidth=2]
    284 -> 74 [penwidth=2]
    284 -> 229 [penwidth=2]
    284 -> 223 [penwidth=2]
    285 -> 75 [penwidth=2]
    285 -> 124 [penwidth=2]
    285 -> 78 [penwidth=2]
    285 -> 107 [penwidth=2]
    285 -> 247 [penwidth=2]
    285 -> 195 [penwidth=2]
    285 -> 205 [penwidth=2]
    285 -> 66 [penwidth=2]
    285 -> 250 [penwidth=2]
    285 -> 191 [penwidth=2]
    285 -> 77 [penwidth=2]
    285 -> 104 [penwidth=2]
    285 -> 220 [penwidth=2]
    285 -> 82 [penwidth=2]
    285 -> 111 [penwidth=2]
    285 -> 114 [penwidth=2]
    285 -> 222 [penwidth=2]
    285 -> 236 [penwidth=2]
    285 -> 204 [penwidth=2]
    285 -> 209 [penwidth=2]
    285 -> 71 [penwidth=2]
    285 -> 64 [penwidth=2]
    285 -> 235 [penwidth=2]
    285 -> 99 [penwidth=2]
    285 -> 237 [penwidth=2]
    285 -> 230 [penwidth=2]
    285 -> 248 [penwidth=2]
    285 -> 101 [penwidth=2]
    285 -> 241 [penwidth=2]
    285 -> 70 [penwidth=2]
    285 -> 200 [penwidth=2]
    285 -> 224 [penwidth=2]
    285 -> 121 [penwidth=2]
    285 -> 214 [penwidth=2]
    285 -> 120 [penwidth=2]
    285 -> 193 [penwidth=2]
    285 -> 72 [penwidth=2]
    285 -> 211 [penwidth=2]
    285 -> 215 [penwidth=2]
    285 -> 238 [penwidth=2]
    285 -> 207 [penwidth=2]
    285 -> 60 [penwidth=2]
    285 -> 242 [penwidth=2]
    285 -> 102 [penwidth=2]
    285 -> 228 [penwidth=2]
    285 -> 219 [penwidth=2]
    285 -> 206 [penwidth=2]
    285 -> 73 [penwidth=2]
    285 -> 65 [penwidth=2]
    285 -> 123 [penwidth=2]
    285 -> 118 [penwidth=2]
    285 -> 196 [penwidth=2]
    285 -> 113 [penwidth=2]
    285 -> 232 [penwidth=2]
    285 -> 225 [penwidth=2]
    285 -> 194 [penwidth=2]
    285 -> 100 [penwidth=2]
    285 -> 227 [penwidth=2]
    285 -> 105 [penwidth=2]
    285 -> 201 [penwidth=2]
    285 -> 216 [penwidth=2]
    285 -> 190 [penwidth=2]
    285 -> 74 [penwidth=2]
    285 -> 240 [penwidth=2]
    285 -> 122 [penwidth=2]
    285 -> 80 [penwidth=2]
    285 -> 217 [penwidth=2]
    285 -> 213 [penwidth=2]
    285 -> 106 [penwidth=2]
    285 -> 57 [penwidth=2]
    285 -> 199 [penwidth=2]
    285 -> 79 [penwidth=2]
    285 -> 223 [penwidth=2]
    285 -> 203 [penwidth=2]
    285 -> 234 [penwidth=2]
    285 -> 110 [penwidth=2]
    285 -> 62 [penwidth=2]
    285 -> 69 [penwidth=2]
    285 -> 198 [penwidth=2]
    285 -> 117 [penwidth=2]
    285 -> 108 [penwidth=2]
    285 -> 61 [penwidth=2]
    285 -> 67 [penwidth=2]
    285 -> 210 [penwidth=2]
    285 -> 109 [penwidth=2]
    285 -> 231 [penwidth=2]
    285 -> 233 [penwidth=2]
    285 -> 58 [penwidth=2]
    285 -> 229 [penwidth=2]
    285 -> 212 [penwidth=2]
    285 -> 202 [penwidth=2]
    285 -> 208 [penwidth=2]
    285 -> 192 [penwidth=2]
    285 -> 63 [penwidth=2]
    285 -> 83 [penwidth=2]
    285 -> 76 [penwidth=2]
    285 -> 119 [penwidth=2]
    285 -> 239 [penwidth=2]
    286 -> 249 [penwidth=2]
    286 -> 231 [penwidth=2]
    286 -> 112 [penwidth=2]
    286 -> 216 [penwidth=2]
    286 -> 102 [penwidth=2]
    286 -> 58 [penwidth=2]
    286 -> 209 [penwidth=2]
    286 -> 107 [penwidth=2]
    286 -> 245 [penwidth=2]
    286 -> 222 [penwidth=2]
    286 -> 212 [penwidth=2]
    286 -> 220 [penwidth=2]
    286 -> 99 [penwidth=2]
    286 -> 232 [penwidth=2]
    286 -> 120 [penwidth=2]
    286 -> 192 [penwidth=2]
    286 -> 100 [penwidth=2]
    286 -> 237 [penwidth=2]
    286 -> 110 [penwidth=2]
    286 -> 242 [penwidth=2]
    286 -> 78 [penwidth=2]
    286 -> 79 [penwidth=2]
    286 -> 224 [penwidth=2]
    286 -> 221 [penwidth=2]
    286 -> 236 [penwidth=2]
    286 -> 199 [penwidth=2]
    286 -> 59 [penwidth=2]
    286 -> 190 [penwidth=2]
    286 -> 61 [penwidth=2]
    286 -> 246 [penwidth=2]
    286 -> 244 [penwidth=2]
    286 -> 74 [penwidth=2]
    286 -> 201 [penwidth=2]
    286 -> 66 [penwidth=2]
    286 -> 193 [penwidth=2]
    286 -> 109 [penwidth=2]
    286 -> 191 [penwidth=2]
    286 -> 81 [penwidth=2]
    286 -> 124 [penwidth=2]
    286 -> 214 [penwidth=2]
    286 -> 215 [penwidth=2]
    286 -> 103 [penwidth=2]
    286 -> 204 [penwidth=2]
    286 -> 202 [penwidth=2]
    286 -> 122 [penwidth=2]
    286 -> 68 [penwidth=2]
    286 -> 194 [penwidth=2]
    286 -> 226 [penwidth=2]
    286 -> 65 [penwidth=2]
    286 -> 62 [penwidth=2]
    286 -> 195 [penwidth=2]
    286 -> 218 [penwidth=2]
    286 -> 64 [penwidth=2]
    286 -> 82 [penwidth=2]
    286 -> 119 [penwidth=2]
    286 -> 233 [penwidth=2]
    286 -> 247 [penwidth=2]
    286 -> 106 [penwidth=2]
    286 -> 241 [penwidth=2]
    286 -> 207 [penwidth=2]
    286 -> 67 [penwidth=2]
    286 -> 111 [penwidth=2]
    286 -> 116 [penwidth=2]
    286 -> 198 [penwidth=2]
    286 -> 230 [penwidth=2]
    286 -> 250 [penwidth=2]
    286 -> 229 [penwidth=2]
    286 -> 228 [penwidth=2]
    286 -> 72 [penwidth=2]
    286 -> 105 [penwidth=2]
    286 -> 117 [penwidth=2]
    286 -> 73 [penwidth=2]
    286 -> 77 [penwidth=2]
    286 -> 234 [penwidth=2]
    289 -> 71 [penwidth=2]
    289 -> 190 [penwidth=2]
    289 -> 245 [penwidth=2]
    289 -> 121 [penwidth=2]
    289 -> 236 [penwidth=2]
    289 -> 214 [penwidth=2]
    289 -> 234 [penwidth=2]
    289 -> 218 [penwidth=2]
    289 -> 247 [penwidth=2]
    289 -> 83 [penwidth=2]
    289 -> 200 [penwidth=2]
    289 -> 100 [penwidth=2]
    289 -> 68 [penwidth=2]
    289 -> 112 [penwidth=2]
    289 -> 210 [penwidth=2]
    289 -> 119 [penwidth=2]
    289 -> 80 [penwidth=2]
    289 -> 62 [penwidth=2]
    289 -> 196 [penwidth=2]
    289 -> 205 [penwidth=2]
    289 -> 99 [penwidth=2]
    289 -> 241 [penwidth=2]
    289 -> 204 [penwidth=2]
    289 -> 106 [penwidth=2]
    289 -> 227 [penwidth=2]
    289 -> 195 [penwidth=2]
    289 -> 107 [penwidth=2]
    289 -> 213 [penwidth=2]
    289 -> 239 [penwidth=2]
    289 -> 225 [penwidth=2]
    289 -> 59 [penwidth=2]
    289 -> 240 [penwidth=2]
    289 -> 206 [penwidth=2]
    289 -> 201 [penwidth=2]
    289 -> 79 [penwidth=2]
    289 -> 243 [penwidth=2]
    289 -> 118 [penwidth=2]
    289 -> 108 [penwidth=2]
    289 -> 224 [penwidth=2]
    289 -> 74 [penwidth=2]
    289 -> 226 [penwidth=2]
    289 -> 114 [penwidth=2]
    289 -> 115 [penwidth=2]
    289 -> 248 [penwidth=2]
    289 -> 221 [penwidth=2]
    289 -> 81 [penwidth=2]
    289 -> 61 [penwidth=2]
    289 -> 238 [penwidth=2]
    289 -> 192 [penwidth=2]
    289 -> 65 [penwidth=2]
    289 -> 237 [penwidth=2]
    289 -> 249 [penwidth=2]
    335 -> 247 [penwidth=2]
    335 -> 82 [penwidth=2]
    335 -> 224 [penwidth=2]
    335 -> 196 [penwidth=2]
    335 -> 60 [penwidth=2]
    335 -> 209 [penwidth=2]
    335 -> 83 [penwidth=2]
    335 -> 240 [penwidth=2]
    335 -> 73 [penwidth=2]
    335 -> 204 [penwidth=2]
    335 -> 246 [penwidth=2]
    335 -> 212 [penwidth=2]
    335 -> 225 [penwidth=2]
    335 -> 200 [penwidth=2]
    335 -> 232 [penwidth=2]
    335 -> 110 [penwidth=2]
    335 -> 192 [penwidth=2]
    335 -> 68 [penwidth=2]
    335 -> 243 [penwidth=2]
    335 -> 107 [penwidth=2]
    335 -> 75 [penwidth=2]
    335 -> 199 [penwidth=2]
    335 -> 76 [penwidth=2]
    335 -> 218 [penwidth=2]
    335 -> 72 [penwidth=2]
    335 -> 59 [penwidth=2]
    335 -> 211 [penwidth=2]
    335 -> 112 [penwidth=2]
    335 -> 223 [penwidth=2]
    335 -> 248 [penwidth=2]
    335 -> 231 [penwidth=2]
    335 -> 194 [penwidth=2]
    335 -> 215 [penwidth=2]
    335 -> 62 [penwidth=2]
    335 -> 242 [penwidth=2]
    335 -> 99 [penwidth=2]
    335 -> 57 [penwidth=2]
    335 -> 119 [penwidth=2]
    335 -> 250 [penwidth=2]
    335 -> 77 [penwidth=2]
    335 -> 220 [penwidth=2]
    335 -> 113 [penwidth=2]
    335 -> 104 [penwidth=2]
    335 -> 249 [penwidth=2]
    335 -> 207 [penwidth=2]
    335 -> 120 [penwidth=2]
    335 -> 123 [penwidth=2]
    335 -> 118 [penwidth=2]
    335 -> 208 [penwidth=2]
    335 -> 103 [penwidth=2]
    335 -> 221 [penwidth=2]
    335 -> 236 [penwidth=2]
    335 -> 115 [penwidth=2]
    335 -> 222 [penwidth=2]
    335 -> 217 [penwidth=2]
    335 -> 108 [penwidth=2]
    335 -> 227 [penwidth=2]
    335 -> 111 [penwidth=2]
    335 -> 102 [penwidth=2]
    335 -> 61 [penwidth=2]
    335 -> 81 [penwidth=2]
    335 -> 244 [penwidth=2]
    335 -> 124 [penwidth=2]
    335 -> 80 [penwidth=2]
    335 -> 106 [penwidth=2]
    335 -> 195 [penwidth=2]
    335 -> 216 [penwidth=2]
    335 -> 228 [penwidth=2]
    335 -> 229 [penwidth=2]
    335 -> 197 [penwidth=2]
    335 -> 63 [penwidth=2]
    335 -> 202 [penwidth=2]
    335 -> 114 [penwidth=2]
    335 -> 210 [penwidth=2]
    335 -> 230 [penwidth=2]
    335 -> 121 [penwidth=2]
    335 -> 191 [penwidth=2]
    335 -> 214 [penwidth=2]
    335 -> 234 [penwidth=2]
    335 -> 109 [penwidth=2]
    335 -> 122 [penwidth=2]
    335 -> 239 [penwidth=2]
    335 -> 71 [penwidth=2]
    335 -> 105 [penwidth=2]
    335 -> 101 [penwidth=2]
    335 -> 190 [penwidth=2]
    335 -> 117 [penwidth=2]
    335 -> 193 [penwidth=2]
    335 -> 219 [penwidth=2]
    335 -> 116 [penwidth=2]
    335 -> 74 [penwidth=2]
    339 -> 117 [penwidth=2]
    339 -> 214 [penwidth=2]
    339 -> 233 [penwidth=2]
    339 -> 106 [penwidth=2]
    339 -> 228 [penwidth=2]
    339 -> 108 [penwidth=2]
    339 -> 73 [penwidth=2]
    339 -> 225 [penwidth=2]
    339 -> 197 [penwidth=2]
    339 -> 68 [penwidth=2]
    339 -> 209 [penwidth=2]
    339 -> 212 [penwidth=2]
    339 -> 218 [penwidth=2]
    339 -> 110 [penwidth=2]
    339 -> 205 [penwidth=2]
    339 -> 235 [penwidth=2]
    339 -> 234 [penwidth=2]
    339 -> 191 [penwidth=2]
    339 -> 64 [penwidth=2]
    339 -> 193 [penwidth=2]
    339 -> 83 [penwidth=2]
    339 -> 244 [penwidth=2]
    339 -> 101 [penwidth=2]
    339 -> 239 [penwidth=2]
    339 -> 219 [penwidth=2]
    339 -> 122 [penwidth=2]
    339 -> 202 [penwidth=2]
    339 -> 77 [penwidth=2]
    339 -> 217 [penwidth=2]
    339 -> 208 [penwidth=2]
    339 -> 105 [penwidth=2]
    339 -> 121 [penwidth=2]
    339 -> 243 [penwidth=2]
    339 -> 60 [penwidth=2]
    339 -> 102 [penwidth=2]
    339 -> 74 [penwidth=2]
    339 -> 79 [penwidth=2]
    339 -> 115 [penwidth=2]
    339 -> 198 [penwidth=2]
    339 -> 237 [penwidth=2]
    339 -> 114 [penwidth=2]
    339 -> 213 [penwidth=2]
    339 -> 247 [penwidth=2]
    339 -> 82 [penwidth=2]
    339 -> 59 [penwidth=2]
    11 -> 64 [penwidth=2]
    11 -> 105 [penwidth=2]
    11 -> 124 [penwidth=2]
    11 -> 103 [penwidth=2]
    11 -> 69 [penwidth=2]
    11 -> 65 [penwidth=2]
    11 -> 224 [penwidth=2]
    11 -> 67 [penwidth=2]
    11 -> 230 [penwidth=2]
    11 -> 192 [penwidth=2]
    11 -> 61 [penwidth=2]
    11 -> 216 [penwidth=2]
    11 -> 235 [penwidth=2]
    11 -> 121 [penwidth=2]
    11 -> 208 [penwidth=2]
    11 -> 108 [penwidth=2]
    11 -> 77 [penwidth=2]
    11 -> 114 [penwidth=2]
    11 -> 238 [penwidth=2]
    11 -> 62 [penwidth=2]
    11 -> 79 [penwidth=2]
    11 -> 247 [penwidth=2]
    11 -> 70 [penwidth=2]
    11 -> 226 [penwidth=2]
    11 -> 219 [penwidth=2]
    11 -> 233 [penwidth=2]
    11 -> 117 [penwidth=2]
    11 -> 76 [penwidth=2]
    11 -> 82 [penwidth=2]
    11 -> 211 [penwidth=2]
    11 -> 63 [penwidth=2]
    11 -> 243 [penwidth=2]
    11 -> 113 [penwidth=2]
    11 -> 194 [penwidth=2]
    11 -> 104 [penwidth=2]
    11 -> 218 [penwidth=2]
    11 -> 71 [penwidth=2]
    11 -> 81 [penwidth=2]
    11 -> 232 [penwidth=2]
    11 -> 74 [penwidth=2]
    11 -> 234 [penwidth=2]
    11 -> 101 [penwidth=2]
    11 -> 212 [penwidth=2]
    11 -> 102 [penwidth=2]
    11 -> 237 [penwidth=2]
    11 -> 210 [penwidth=2]
    11 -> 115 [penwidth=2]
    11 -> 58 [penwidth=2]
    11 -> 215 [penwidth=2]
    11 -> 199 [penwidth=2]
    11 -> 244 [penwidth=2]
    11 -> 111 [penwidth=2]
    11 -> 223 [penwidth=2]
    11 -> 72 [penwidth=2]
    11 -> 73 [penwidth=2]
    11 -> 222 [penwidth=2]
    11 -> 107 [penwidth=2]
    11 -> 68 [penwidth=2]
    11 -> 236 [penwidth=2]
    11 -> 241 [penwidth=2]
    11 -> 203 [penwidth=2]
    11 -> 248 [penwidth=2]
    11 -> 225 [penwidth=2]
    11 -> 239 [penwidth=2]
    11 -> 249 [penwidth=2]
    11 -> 221 [penwidth=2]
    11 -> 227 [penwidth=2]
    11 -> 245 [penwidth=2]
    11 -> 99 [penwidth=2]
    11 -> 201 [penwidth=2]
    11 -> 209 [penwidth=2]
    11 -> 198 [penwidth=2]
    11 -> 228 [penwidth=2]
    11 -> 202 [penwidth=2]
    11 -> 112 [penwidth=2]
    11 -> 75 [penwidth=2]
    11 -> 120 [penwidth=2]
    11 -> 106 [penwidth=2]
    11 -> 196 [penwidth=2]
    11 -> 66 [penwidth=2]
    11 -> 242 [penwidth=2]
    11 -> 60 [penwidth=2]
    11 -> 57 [penwidth=2]
    11 -> 217 [penwidth=2]
    11 -> 190 [penwidth=2]
    11 -> 83 [penwidth=2]
    11 -> 250 [penwidth=2]
    11 -> 59 [penwidth=2]
    11 -> 116 [penwidth=2]
    11 -> 206 [penwidth=2]
    11 -> 109 [penwidth=2]
    11 -> 193 [penwidth=2]
    11 -> 195 [penwidth=2]
    11 -> 110 [penwidth=2]
    11 -> 204 [penwidth=2]
    11 -> 100 [penwidth=2]
    11 -> 119 [penwidth=2]
    11 -> 205 [penwidth=2]
    11 -> 214 [penwidth=2]
    11 -> 240 [penwidth=2]
    11 -> 246 [penwidth=2]
    11 -> 197 [penwidth=2]
    11 -> 118 [penwidth=2]
    11 -> 80 [penwidth=2]
    11 -> 78 [penwidth=2]
    11 -> 231 [penwidth=2]
    11 -> 220 [penwidth=2]
    11 -> 123 [penwidth=2]
    11 -> 229 [penwidth=2]
    305 -> 238 [penwidth=2]
    305 -> 78 [penwidth=2]
    305 -> 62 [penwidth=2]
    305 -> 64 [penwidth=2]
    305 -> 227 [penwidth=2]
    305 -> 120 [penwidth=2]
    305 -> 117 [penwidth=2]
    305 -> 72 [penwidth=2]
    305 -> 221 [penwidth=2]
    305 -> 105 [penwidth=2]
    305 -> 208 [penwidth=2]
    305 -> 217 [penwidth=2]
    16 -> 195 [penwidth=2]
    16 -> 68 [penwidth=2]
    16 -> 204 [penwidth=2]
    16 -> 236 [penwidth=2]
    16 -> 242 [penwidth=2]
    16 -> 217 [penwidth=2]
    16 -> 245 [penwidth=2]
    16 -> 108 [penwidth=2]
    16 -> 196 [penwidth=2]
    16 -> 215 [penwidth=2]
    16 -> 100 [penwidth=2]
    16 -> 227 [penwidth=2]
    16 -> 192 [penwidth=2]
    16 -> 231 [penwidth=2]
    16 -> 225 [penwidth=2]
    16 -> 222 [penwidth=2]
    16 -> 83 [penwidth=2]
    16 -> 193 [penwidth=2]
    16 -> 218 [penwidth=2]
    16 -> 71 [penwidth=2]
    16 -> 209 [penwidth=2]
    16 -> 226 [penwidth=2]
    16 -> 190 [penwidth=2]
    16 -> 82 [penwidth=2]
    16 -> 59 [penwidth=2]
    16 -> 58 [penwidth=2]
    16 -> 101 [penwidth=2]
    16 -> 202 [penwidth=2]
    16 -> 249 [penwidth=2]
    16 -> 62 [penwidth=2]
    16 -> 206 [penwidth=2]
    16 -> 121 [penwidth=2]
    16 -> 113 [penwidth=2]
    16 -> 238 [penwidth=2]
    16 -> 208 [penwidth=2]
    16 -> 104 [penwidth=2]
    16 -> 119 [penwidth=2]
    16 -> 247 [penwidth=2]
    16 -> 229 [penwidth=2]
    16 -> 123 [penwidth=2]
    16 -> 102 [penwidth=2]
    16 -> 65 [penwidth=2]
    16 -> 232 [penwidth=2]
    16 -> 80 [penwidth=2]
    16 -> 235 [penwidth=2]
    16 -> 203 [penwidth=2]
    16 -> 67 [penwidth=2]
    16 -> 246 [penwidth=2]
    16 -> 115 [penwidth=2]
    16 -> 248 [penwidth=2]
    16 -> 220 [penwidth=2]
    16 -> 228 [penwidth=2]
    16 -> 221 [penwidth=2]
    16 -> 61 [penwidth=2]
    16 -> 207 [penwidth=2]
    16 -> 116 [penwidth=2]
    16 -> 198 [penwidth=2]
    16 -> 105 [penwidth=2]
    16 -> 234 [penwidth=2]
    16 -> 197 [penwidth=2]
    16 -> 243 [penwidth=2]
    16 -> 200 [penwidth=2]
    16 -> 223 [penwidth=2]
    16 -> 237 [penwidth=2]
    16 -> 250 [penwidth=2]
    16 -> 107 [penwidth=2]
    16 -> 214 [penwidth=2]
    16 -> 112 [penwidth=2]
    16 -> 75 [penwidth=2]
    16 -> 74 [penwidth=2]
    16 -> 77 [penwidth=2]
    16 -> 212 [penwidth=2]
    16 -> 211 [penwidth=2]
    16 -> 78 [penwidth=2]
    16 -> 72 [penwidth=2]
    16 -> 219 [penwidth=2]
    16 -> 60 [penwidth=2]
    16 -> 111 [penwidth=2]
    16 -> 205 [penwidth=2]
    16 -> 124 [penwidth=2]
    16 -> 99 [penwidth=2]
    16 -> 109 [penwidth=2]
    16 -> 244 [penwidth=2]
    16 -> 239 [penwidth=2]
    16 -> 194 [penwidth=2]
    16 -> 210 [penwidth=2]
    16 -> 120 [penwidth=2]
    16 -> 106 [penwidth=2]
    16 -> 114 [penwidth=2]
    16 -> 240 [penwidth=2]
    16 -> 57 [penwidth=2]
    16 -> 79 [penwidth=2]
    16 -> 224 [penwidth=2]
    16 -> 241 [penwidth=2]
    16 -> 63 [penwidth=2]
    16 -> 70 [penwidth=2]
    16 -> 199 [penwidth=2]
    16 -> 233 [penwidth=2]
    16 -> 76 [penwidth=2]
    16 -> 191 [penwidth=2]
    16 -> 118 [penwidth=2]
    16 -> 122 [penwidth=2]
    16 -> 117 [penwidth=2]
    16 -> 64 [penwidth=2]
    16 -> 66 [penwidth=2]
    16 -> 103 [penwidth=2]
    16 -> 213 [penwidth=2]
    16 -> 73 [penwidth=2]
    16 -> 69 [penwidth=2]
    16 -> 81 [penwidth=2]
    16 -> 216 [penwidth=2]
    383 -> 108 [penwidth=2]
    383 -> 231 [penwidth=2]
    383 -> 233 [penwidth=2]
    383 -> 123 [penwidth=2]
    36 -> 194 [penwidth=2]
    36 -> 239 [penwidth=2]
    36 -> 232 [penwidth=2]
    36 -> 240 [penwidth=2]
    36 -> 222 [penwidth=2]
    36 -> 111 [penwidth=2]
    36 -> 236 [penwidth=2]
    36 -> 117 [penwidth=2]
    36 -> 200 [penwidth=2]
    36 -> 221 [penwidth=2]
    36 -> 116 [penwidth=2]
    36 -> 101 [penwidth=2]
    36 -> 65 [penwidth=2]
    36 -> 114 [penwidth=2]
    36 -> 235 [penwidth=2]
    36 -> 110 [penwidth=2]
    36 -> 61 [penwidth=2]
    36 -> 120 [penwidth=2]
    36 -> 224 [penwidth=2]
    36 -> 79 [penwidth=2]
    36 -> 229 [penwidth=2]
    36 -> 192 [penwidth=2]
    36 -> 245 [penwidth=2]
    36 -> 113 [penwidth=2]
    36 -> 103 [penwidth=2]
    36 -> 122 [penwidth=2]
    36 -> 218 [penwidth=2]
    36 -> 124 [penwidth=2]
    36 -> 106 [penwidth=2]
    36 -> 64 [penwidth=2]
    36 -> 78 [penwidth=2]
    36 -> 250 [penwidth=2]
    36 -> 198 [penwidth=2]
    36 -> 204 [penwidth=2]
    362 -> 110 [penwidth=2]
    362 -> 122 [penwidth=2]
    362 -> 105 [penwidth=2]
    362 -> 61 [penwidth=2]
    362 -> 225 [penwidth=2]
    362 -> 200 [penwidth=2]
    362 -> 63 [penwidth=2]
    362 -> 237 [penwidth=2]
    362 -> 221 [penwidth=2]
    362 -> 115 [penwidth=2]
    362 -> 210 [penwidth=2]
    362 -> 75 [penwidth=2]
    362 -> 248 [penwidth=2]
    362 -> 203 [penwidth=2]
    362 -> 226 [penwidth=2]
    362 -> 72 [penwidth=2]
    362 -> 245 [penwidth=2]
    54 -> 192 [penwidth=2]
    54 -> 227 [penwidth=2]
    54 -> 229 [penwidth=2]
    54 -> 111 [penwidth=2]
    54 -> 115 [penwidth=2]
    54 -> 240 [penwidth=2]
    54 -> 238 [penwidth=2]
    54 -> 246 [penwidth=2]
    54 -> 231 [penwidth=2]
    54 -> 193 [penwidth=2]
    54 -> 203 [penwidth=2]
    54 -> 245 [penwidth=2]
    54 -> 219 [penwidth=2]
    54 -> 117 [penwidth=2]
    54 -> 202 [penwidth=2]
    54 -> 81 [penwidth=2]
    54 -> 105 [penwidth=2]
    54 -> 83 [penwidth=2]
    54 -> 222 [penwidth=2]
    54 -> 67 [penwidth=2]
    54 -> 121 [penwidth=2]
}