digraph G {
    0 [penwidth=3,label="0"]
    1 [penwidth=3,label="1"]
    2 [penwidth=3,label="2"]
    3 [penwidth=3,label="3"]
    4 [penwidth=3,label="4"]
    5 [penwidth=3,label="5"]
    6 [penwidth=3,label="6"]
    7 [penwidth=3,label="7"]
    8 [penwidth=3,label="8"]
    9 [penwidth=3,label="9"]
    10 [penwidth=3,label="10"]
    11 [penwidth=3,label="11"]
    12 [penwidth=3,label="12"]
    13 [penwidth=3,label="13"]
    14 [penwidth=3,label="14"]
    15 [penwidth=3,label="15"]
    16 [penwidth=3,label="16"]
    17 [penwidth=3,label="17"]
    18 [penwidth=3,label="18"]
    19 [penwidth=3,label="19"]
    20 [penwidth=3,label="20"]
    21 [penwidth=3,label="21"]
    22 [penwidth=3,label="22"]
    23 [penwidth=3,label="23"]
    24 [penwidth=3,label="24"]
    25 [penwidth=3,label="25"]
    26 [penwidth=3,label="26"]
    27 [penwidth=3,label="27"]
    28 [penwidth=3,label="28"]
    29 [penwidth=3,label="29"]
    30 [penwidth=3,label="30"]
    31 [penwidth=3,label="31"]
    32 [penwidth=3,label="32"]
    33 [penwidth=3,label="33"]
    34 [penwidth=3,label="34"]
    35 [penwidth=3,label="35"]

    29 -> 0 [penwidth=2]
    17 -> 0 [penwidth=2]
    28 -> 0 [penwidth=2]
    32 -> 0 [penwidth=2]
    12 -> 0 [penwidth=2]
    23 -> 29 [penwidth=2]
    27 -> 29 [penwidth=2]
    22 -> 29 [penwidth=2]
    2 -> 29 [penwidth=2]
    26 -> 29 [penwidth=2]
    35 -> 29 [penwidth=2]
    18 -> 17 [penwidth=2]
    3 -> 17 [penwidth=2]
    34 -> 17 [penwidth=2]
    24 -> 17 [penwidth=2]
    14 -> 28 [penwidth=2]
    5 -> 28 [penwidth=2]
    30 -> 28 [penwidth=2]
    31 -> 28 [penwidth=2]
    15 -> 28 [penwidth=2]
    8 -> 32 [penwidth=2]
    1 -> 32 [penwidth=2]
    19 -> 12 [penwidth=2]
    4 -> 12 [penwidth=2]
    33 -> 12 [penwidth=2]
    9 -> 12 [penwidth=2]
    20 -> 12 [penwidth=2]
    25 -> 12 [penwidth=2]
    7 -> 12 [penwidth=2]
    11 -> 12 [penwidth=2]
    21 -> 23 [penwidth=2]
    16 -> 23 [penwidth=2]
    10 -> 23 [penwidth=2]
    6 -> 23 [penwidth=2]
    13 -> 23 [penwidth=2]
    30 -> 32 [penwidth=2]
    30 -> 29 [penwidth=2]
    30 -> 17 [penwidth=2]
    4 -> 17 [penwidth=2]
    4 -> 28 [penwidth=2]
    4 -> 29 [penwidth=2]
    21 -> 9 [penwidth=2]
    21 -> 2 [penwidth=2]
    21 -> 31 [penwidth=2]
    21 -> 33 [penwidth=2]
    21 -> 5 [penwidth=2]
    21 -> 30 [penwidth=2]
    21 -> 18 [penwidth=2]
    21 -> 1 [penwidth=2]
    21 -> 7 [penwidth=2]
    21 -> 22 [penwidth=2]
    21 -> 24 [penwidth=2]
    21 -> 14 [penwidth=2]
    21 -> 25 [penwidth=2]
    21 -> 26 [penwidth=2]
    21 -> 35 [penwidth=2]
    21 -> 3 [penwidth=2]
    21 -> 19 [penwidth=2]
    21 -> 15 [penwidth=2]
    21 -> 27 [penwidth=2]
    21 -> 4 [penwidth=2]
    21 -> 8 [penwidth=2]
    21 -> 20 [penwidth=2]
    21 -> 11 [penwidth=2]
    6 -> 31 [penwidth=2]
    6 -> 20 [penwidth=2]
    6 -> 22 [penwidth=2]
    6 -> 7 [penwidth=2]
    6 -> 1 [penwidth=2]
    6 -> 24 [penwidth=2]
    6 -> 18 [penwidth=2]
}