digraph G {
    0 [penwidth=3,label="0"]
    1 [penwidth=3,label="1"]
    2 [penwidth=3,label="2"]
    3 [penwidth=3,label="3"]
    4 [penwidth=3,label="4"]
    5 [penwidth=3,label="5"]
    6 [penwidth=3,label="6"]
    7 [penwidth=3,label="7"]
    8 [penwidth=3,label="8"]
    9 [penwidth=3,label="9"]
    10 [penwidth=3,label="10"]
    11 [penwidth=3,label="11"]
    12 [penwidth=3,label="12"]
    13 [penwidth=3,label="13"]
    14 [penwidth=3,label="14"]
    15 [penwidth=3,label="15"]
    16 [penwidth=3,label="16"]
    17 [penwidth=3,label="17"]
    18 [penwidth=3,label="18"]
    19 [penwidth=3,label="19"]
    20 [penwidth=3,label="20"]
    21 [penwidth=3,label="21"]
    22 [penwidth=3,label="22"]
    23 [penwidth=3,label="23"]
    24 [penwidth=3,label="24"]
    25 [penwidth=3,label="25"]
    26 [penwidth=3,label="26"]
    27 [penwidth=3,label="27"]
    28 [penwidth=3,label="28"]
    29 [penwidth=3,label="29"]
    30 [penwidth=3,label="30"]
    31 [penwidth=3,label="31"]
    32 [penwidth=3,label="32"]
    33 [penwidth=3,label="33"]
    34 [penwidth=3,label="34"]
    35 [penwidth=3,label="35"]

    33 -> 0 [penwidth=2]
    21 -> 0 [penwidth=2]
    31 -> 33 [penwidth=2]
    1 -> 33 [penwidth=2]
    27 -> 33 [penwidth=2]
    20 -> 33 [penwidth=2]
    5 -> 33 [penwidth=2]
    23 -> 33 [penwidth=2]
    8 -> 33 [penwidth=2]
    30 -> 21 [penwidth=2]
    11 -> 21 [penwidth=2]
    18 -> 21 [penwidth=2]
    34 -> 21 [penwidth=2]
    26 -> 21 [penwidth=2]
    22 -> 21 [penwidth=2]
    32 -> 21 [penwidth=2]
    13 -> 21 [penwidth=2]
    2 -> 21 [penwidth=2]
    29 -> 21 [penwidth=2]
    6 -> 21 [penwidth=2]
    24 -> 31 [penwidth=2]
    3 -> 31 [penwidth=2]
    4 -> 31 [penwidth=2]
    15 -> 31 [penwidth=2]
    10 -> 31 [penwidth=2]
    25 -> 31 [penwidth=2]
    14 -> 31 [penwidth=2]
    9 -> 31 [penwidth=2]
    7 -> 31 [penwidth=2]
    12 -> 31 [penwidth=2]
    19 -> 31 [penwidth=2]
    35 -> 1 [penwidth=2]
    28 -> 1 [penwidth=2]
    17 -> 1 [penwidth=2]
    16 -> 1 [penwidth=2]
    27 -> 21 [penwidth=2]
    25 -> 1 [penwidth=2]
    25 -> 26 [penwidth=2]
    25 -> 30 [penwidth=2]
    25 -> 29 [penwidth=2]
    25 -> 2 [penwidth=2]
    25 -> 23 [penwidth=2]
    25 -> 11 [penwidth=2]
    25 -> 6 [penwidth=2]
    25 -> 22 [penwidth=2]
    25 -> 13 [penwidth=2]
    25 -> 20 [penwidth=2]
    25 -> 27 [penwidth=2]
}