# Number of vertices:
45
# Edge list:
42,0
21,0
1,0
43,0
22,0
2,0
44,0
23,0
3,42
24,42
4,42
25,42
5,42
26,42
6,42
27,21
7,21
28,21
8,1
29,1
9,1
30,1
10,1
31,1
11,1
32,43
12,43
33,43
13,43
34,43
14,43
35,22
15,22
36,22
16,22
37,2
17,2
38,2
18,2
39,2
19,23
40,23
20,23
41,23
4,44
4,22
32,1
32,21
32,42
14,21
41,21
