# Number of vertices:
45
# Edge list:
23,0
2,0
24,0
3,0
25,0
4,0
26,0
5,0
27,0
6,0
28,23
7,23
29,23
8,23
30,2
9,2
31,2
10,2
32,24
11,24
33,3
12,3
34,3
13,4
35,4
14,26
36,26
15,26
37,26
16,26
38,26
17,5
39,5
18,5
44,5
40,5
19,5
41,6
20,6
42,6
21,28
1,28
43,28
22,28
34,23
22,17
