# Number of vertices:
45
# Edge list:
6,0
27,0
7,0
28,0
8,0
29,0
9,0
30,6
10,6
31,6
11,6
32,6
12,6
33,27
13,27
34,27
14,27
35,27
15,7
36,7
16,7
37,7
17,28
38,28
18,28
39,8
19,8
40,8
20,29
41,29
21,29
42,29
1,29
22,29
43,9
23,9
2,30
44,30
24,30
3,30
25,10
4,10
26,10
5,10
30,9
