# Number of vertices:
45
# Edge list:
19,0
40,0
20,0
41,0
21,0
42,0
1,0
22,0
43,19
23,19
2,19
44,19
24,19
3,40
25,40
4,40
26,40
5,40
27,40
6,40
28,20
7,20
29,41
8,41
30,41
9,41
31,41
10,21
32,21
11,21
33,21
12,42
34,42
13,42
35,42
14,42
36,1
15,1
37,1
16,22
38,22
17,22
39,22
18,22
23,41
37,20
