# Number of vertices:
45
# Edge list:
38,0
17,0
39,0
18,0
40,0
19,0
41,0
20,0
42,0
21,0
1,0
43,0
22,38
2,38
44,38
23,38
3,38
24,38
4,17
25,17
5,17
26,17
6,39
27,18
7,18
28,18
8,18
29,18
9,18
30,18
10,40
31,40
11,40
32,40
12,40
33,40
13,40
34,19
14,19
35,41
15,41
36,41
16,41
37,41
3,43
3,21
3,18
4,42
14,42
14,41
