# Number of vertices:
45
# Edge list:
25,0
15,0
30,0
20,0
16,0
28,0
6,0
1,0
33,0
13,25
42,25
7,25
39,25
21,25
23,25
41,15
27,15
14,15
5,15
12,15
31,15
11,30
29,30
18,30
26,20
8,20
32,20
19,20
22,20
10,20
3,16
43,16
24,16
35,16
44,16
40,16
2,16
9,28
38,28
4,28
37,28
36,28
17,6
34,6
4,1
