# Number of vertices:
45
# Edge list:
1,0
43,0
22,0
2,0
44,0
23,0
3,0
24,0
4,0
25,0
5,0
26,0
6,0
27,0
7,1
28,1
8,1
29,1
9,43
30,22
10,22
31,22
11,22
32,22
12,22
33,22
13,2
34,2
14,2
35,2
15,44
36,23
16,23
37,23
17,23
38,23
18,23
39,3
19,3
40,3
20,3
41,3
21,3
42,3
32,26
15,5
41,27
41,44
41,25
