# Number of vertices:
45
# Edge list:
34,0
40,0
32,0
31,0
38,0
27,34
7,34
30,34
26,34
1,40
39,40
29,32
15,32
36,32
33,32
12,38
44,38
37,27
17,27
10,27
16,27
42,27
3,27
21,27
14,7
23,7
13,7
41,7
22,30
6,30
35,30
11,30
24,30
8,26
28,26
43,26
20,26
18,26
25,1
9,1
2,1
5,1
4,1
19,1
6,33
6,44
6,29
35,27
