# Number of vertices:
45
# Edge list:
16,0
37,0
17,0
38,0
18,0
39,0
19,0
40,0
20,0
41,0
21,37
42,37
1,37
22,37
43,17
23,17
2,17
44,17
24,17
3,17
25,38
4,38
26,18
5,18
27,18
6,18
28,18
7,18
29,18
8,39
30,39
9,40
31,40
10,40
32,40
11,40
33,40
12,40
34,20
13,20
35,20
14,20
36,20
15,20
10,17
