# Number of vertices:
45
# Edge list:
9,0
30,0
10,9
31,9
11,9
32,9
12,9
33,9
13,31
34,31
14,11
35,11
15,11
36,32
16,12
37,12
17,12
38,12
18,12
39,12
19,33
40,33
20,33
41,33
21,13
42,13
1,13
22,13
43,34
23,14
2,35
44,36
24,36
3,36
25,36
4,36
26,16
5,37
27,37
6,37
28,37
7,37
29,17
8,17
10,30
35,32
35,33
35,10
19,31
20,32
44,41
6,35
6,18
6,17
7,34
7,13
