# Number of vertices:
45
# Edge list:
9,0
30,0
10,0
31,0
11,0
32,0
12,0
33,0
13,0
34,0
14,0
35,0
15,0
36,0
16,9
37,9
17,9
38,9
18,9
39,10
19,10
40,10
20,10
41,32
21,32
42,12
1,33
22,33
43,33
23,13
2,13
44,13
24,13
3,13
25,14
4,14
26,14
5,14
27,35
6,35
28,15
7,15
29,15
8,15
2,32
2,12
5,13
