# Number of vertices:
45
# Edge list:
16,0
37,0
17,0
38,0
18,0
39,16
19,16
40,16
20,37
41,37
21,37
42,37
1,37
22,37
43,37
23,17
2,17
44,17
24,17
3,17
25,38
4,38
26,38
5,38
27,18
6,18
28,18
7,18
29,39
8,39
30,39
9,39
31,39
10,39
32,39
11,19
33,19
12,19
34,19
13,19
35,19
14,19
36,20
15,20
40,37
40,18
40,38
21,18
21,16
21,38
7,17
7,37
34,42
14,6
