# Number of vertices:
45
# Edge list:
2,0
14,0
23,0
41,14
38,14
34,14
12,23
36,23
5,23
27,41
10,41
15,41
7,38
8,38
33,38
39,38
17,38
6,38
9,12
37,12
13,12
30,12
44,36
21,36
24,36
20,36
29,36
11,36
19,36
31,5
26,27
25,27
16,10
4,10
22,7
35,7
32,7
1,7
43,8
18,8
42,8
40,8
28,8
3,8
10,36
15,34
8,12
17,5
13,34
13,5
24,38
24,41
4,37
4,17
42,11
42,15
42,13
