# Number of vertices:
45
# Edge list:
7,0
21,0
3,0
31,0
25,0
41,0
22,0
35,0
10,0
19,7
26,7
2,7
18,7
29,7
1,7
17,21
39,21
4,21
28,21
44,21
5,21
9,3
20,3
38,3
33,31
36,31
13,31
24,25
15,25
8,25
14,25
37,25
6,22
23,22
43,22
16,22
27,35
12,35
30,35
40,10
34,19
11,19
32,19
42,19
28,31
