# Number of vertices:
45
# Edge list:
23,0
2,0
44,0
24,0
3,0
25,0
4,0
26,0
5,0
27,0
6,23
28,23
7,23
29,23
8,23
30,23
9,2
31,44
10,44
32,24
11,24
1,24
33,3
12,3
34,3
13,3
35,3
14,3
36,3
15,4
37,4
16,5
38,5
17,5
39,5
18,5
40,5
19,5
41,27
20,27
42,27
21,6
43,6
22,6
10,2
