# Number of vertices:
45
# Edge list:
26,0
27,0
16,0
5,0
2,0
15,26
28,26
29,26
30,26
31,26
10,26
32,27
9,27
33,27
34,27
8,27
35,27
7,16
25,16
4,16
36,16
37,16
21,16
11,16
38,5
24,5
39,5
14,5
6,5
20,5
40,5
23,2
41,2
13,2
3,15
42,15
22,15
19,15
43,15
12,15
44,28
18,28
1,28
17,28
29,2
31,2
31,16
25,26
38,2
1,29
1,14
1,13
