# Number of vertices:
45
# Edge list:
8,0
11,0
15,0
9,0
39,8
1,11
19,11
4,11
31,15
38,15
13,15
37,15
18,15
36,15
35,15
20,9
14,9
25,9
17,9
22,9
28,9
24,9
23,1
27,1
29,19
21,19
30,19
26,19
7,4
5,4
42,4
12,4
43,4
41,4
44,4
6,31
2,31
34,31
3,38
33,38
32,38
40,38
10,38
16,38
31,8
36,9
36,8
36,11
28,15
28,8
23,13
23,28
23,38
29,20
6,17
6,19
6,28
