# Number of vertices:
45
# Edge list:
19,0
40,0
20,0
41,0
21,0
42,0
1,0
22,19
43,19
23,19
2,19
44,19
24,19
3,19
25,40
4,40
26,40
5,40
27,40
6,20
28,20
7,20
29,20
8,20
30,20
9,41
31,41
10,41
32,41
11,41
33,21
12,21
34,21
13,21
35,21
14,21
36,21
15,42
37,42
16,42
38,42
17,42
39,42
18,42
24,1
3,1
33,41
34,40
34,19
34,42
