# Number of vertices:
45
# Edge list:
23,0
30,0
20,0
19,23
17,30
26,30
10,30
21,30
29,19
44,19
18,19
43,17
16,17
27,17
15,17
42,26
14,26
41,26
13,10
40,10
25,29
12,29
39,29
11,44
1,44
9,44
22,44
38,18
24,18
8,43
2,43
3,15
32,15
37,15
31,42
36,42
4,14
35,14
5,14
28,41
6,41
34,41
7,41
33,41
21,23
41,21
41,19
