# Number of vertices:
45
# Edge list:
24,0
3,0
25,0
4,0
26,0
5,0
27,0
6,0
44,0
28,0
7,0
29,0
8,0
30,0
9,0
31,0
10,24
32,24
11,24
33,3
12,3
34,3
13,25
35,25
14,25
36,4
15,4
37,4
16,4
38,4
17,4
39,26
18,26
40,26
19,26
41,26
20,26
42,5
21,5
1,5
43,5
22,5
2,44
23,44
32,29
19,25
19,24
19,44
41,44
41,5
41,24
23,8
