# Number of vertices:
45
# Edge list:
29,0
8,0
30,0
9,0
31,0
10,0
32,0
11,0
33,29
12,8
34,8
13,8
35,8
14,8
36,8
15,8
37,30
16,30
38,30
17,30
39,9
18,9
40,9
19,9
41,9
20,9
42,9
21,10
1,10
43,32
22,11
2,11
44,11
23,11
3,11
24,11
4,33
25,33
5,33
26,33
6,33
27,33
7,33
28,12
22,32
25,3
25,36
28,38
28,44
