# Number of vertices:
45
# Edge list:
10,0
24,0
18,0
20,0
28,0
21,0
42,0
6,0
31,0
3,0
22,0
33,0
12,0
34,0
14,0
27,10
2,10
13,10
30,10
1,10
35,10
44,24
19,24
36,18
8,18
25,18
40,18
26,18
7,18
41,18
11,20
17,20
37,28
32,28
16,28
15,28
38,28
43,21
4,21
23,21
9,42
39,42
5,42
29,6
13,42
13,22
41,31
15,31
15,21
15,33
23,14
29,3
29,42
29,20
