# Number of vertices:
45
# Edge list:
29,0
8,0
30,0
9,0
31,0
10,0
32,0
11,0
33,0
12,0
34,0
13,0
35,0
14,29
36,8
15,8
37,30
16,30
38,30
17,30
39,30
18,30
40,30
19,9
41,9
20,9
42,9
21,9
1,9
43,9
22,31
2,10
44,10
23,10
3,10
24,10
4,10
25,32
5,32
26,32
6,32
27,32
7,32
28,32
21,12
21,31
43,12
2,32
44,34
3,33
27,31
27,35
27,9
28,8
