# Number of vertices:
150
# Edge list:
68,0
110,0
69,0
111,68
70,68
112,68
71,68
113,110
72,110
114,110
73,110
115,110
74,110
116,69
75,69
117,69
76,69
118,69
77,69
119,69
78,69
120,69
79,111
121,111
80,111
122,111
81,70
123,70
82,70
124,70
83,70
125,70
84,70
126,70
85,70
127,71
86,71
128,71
87,71
129,71
88,71
130,71
89,71
131,113
90,72
132,72
91,114
133,114
92,114
134,114
93,114
135,114
94,73
136,73
95,73
137,73
96,73
138,73
97,73
139,73
98,73
140,73
99,115
141,115
100,115
142,115
101,115
143,115
102,115
144,74
103,74
145,74
104,74
146,74
105,74
147,74
106,74
148,74
107,74
149,116
108,116
109,116
44,116
65,116
34,116
62,116
66,116
58,116
35,116
43,75
28,75
39,75
46,75
53,75
64,75
41,75
54,117
38,117
45,117
1,117
42,117
2,117
29,76
3,76
27,76
4,76
5,76
67,76
6,76
55,76
7,118
40,118
8,118
50,118
9,118
56,118
10,118
26,77
11,119
63,119
51,119
12,119
37,78
13,78
49,78
14,78
33,120
15,120
52,79
16,79
57,79
31,79
17,121
60,121
18,121
32,121
19,121
48,121
20,121
47,121
21,80
30,80
22,80
36,80
23,80
59,80
24,80
25,80
61,81
75,68
75,110
76,68
118,110
79,115
139,116
139,118
108,120
108,117
108,113
108,114
108,118
108,74
108,78
108,111
7,119
7,113
7,77
7,76
7,120
7,117
40,77
40,72
40,71
40,119
9,78
11,117
11,116
11,70
11,120
51,77
51,74
51,113
51,75
51,116
51,117
51,120
33,111
33,71
33,74
33,117
