# Number of vertices:
150
# Edge list:
59,0
143,0
60,0
144,0
61,0
145,0
62,0
146,0
63,0
147,0
64,0
148,0
65,0
149,0
66,0
67,0
68,0
69,0
16,0
70,0
71,59
72,143
73,143
74,143
75,143
76,143
77,143
78,143
79,143
80,143
81,143
82,60
83,60
84,144
85,144
86,144
87,144
88,144
89,144
90,144
91,144
92,144
93,61
94,61
95,61
96,61
97,62
98,62
99,62
100,146
17,146
101,146
18,146
102,147
19,147
103,147
20,147
104,147
21,147
105,147
22,147
106,64
23,148
107,148
24,148
108,148
25,148
109,149
26,149
110,149
27,149
111,149
28,149
112,66
29,66
113,66
30,66
114,66
31,66
115,66
32,66
116,66
33,66
117,67
34,67
118,67
35,67
119,67
36,67
120,67
37,67
121,68
38,68
122,68
39,68
123,68
40,68
124,69
41,69
125,69
42,69
126,69
1,69
43,69
127,16
2,16
44,16
128,16
3,16
45,70
129,70
4,70
46,71
130,71
5,71
47,71
131,71
6,71
48,71
132,71
142,71
7,72
49,72
133,72
8,72
50,72
134,72
9,73
51,73
135,73
10,73
52,73
136,73
11,73
53,74
137,74
12,74
54,74
138,74
13,74
55,74
139,74
14,75
56,75
140,76
15,76
57,80
141,80
58,80
87,68
87,147
87,70
87,66
87,145
106,65
106,16
106,66
106,62
106,145
106,63
106,70
106,60
27,62
114,69
114,63
114,68
114,64
114,62
115,67
124,148
124,60
124,59
124,143
128,146
128,69
128,147
128,149
128,59
128,61
128,62
3,145
3,147
3,69
3,66
3,68
3,61
3,65
3,148
46,45
46,80
46,96
46,86
46,42
7,31
7,45
7,112
7,119
9,94
9,114
9,34
9,4
9,3
9,107
136,2
136,100
136,77
136,72
136,71
136,123
136,119
137,77
