# Number of vertices:
150
# Edge list:
79,0
80,0
35,0
81,0
82,0
83,0
84,0
85,0
86,0
87,0
88,0
89,0
90,0
91,79
92,79
93,79
94,79
95,79
96,79
78,79
97,80
98,80
99,80
100,35
101,35
102,81
103,81
104,81
105,81
106,81
107,81
108,81
109,82
110,82
111,82
112,83
113,83
114,83
115,83
116,84
117,84
118,84
119,84
120,84
37,84
121,85
38,85
122,85
39,85
123,85
40,86
124,86
41,87
125,87
42,87
126,88
1,88
43,88
127,88
2,88
44,88
128,88
3,88
45,88
129,88
4,89
46,89
130,89
5,89
47,89
131,89
6,89
48,89
132,91
7,91
49,91
133,92
8,92
50,92
134,92
9,92
51,92
135,92
10,92
52,93
136,93
11,93
53,93
137,93
12,93
54,94
138,94
13,94
55,94
139,94
56,95
14,95
140,95
57,95
15,95
141,95
16,96
58,96
142,96
17,96
59,96
143,96
18,96
60,96
144,78
19,78
61,78
145,78
20,78
62,78
146,78
21,78
63,78
147,78
22,97
64,97
148,97
23,97
65,97
149,97
24,97
66,98
25,98
67,98
26,98
68,98
27,98
69,98
28,98
70,98
29,99
71,99
30,99
72,99
31,99
73,99
32,99
74,99
33,99
75,99
34,100
76,101
77,101
36,101
110,83
110,86
110,87
110,80
110,79
110,84
111,79
120,82
120,89
120,87
120,81
120,79
120,90
120,35
124,80
124,35
124,83
1,90
1,81
1,86
1,85
130,79
130,82
130,35
130,84
47,88
136,118
136,130
136,94
136,5
136,129
136,1
136,106
136,100
144,118
144,102
144,107
144,37
144,43
144,120
62,95
62,41
62,123
62,42
62,46
65,98
65,119
65,116
65,45
65,100
65,108
65,110
65,112
30,113
30,109
30,107
30,94
30,125
30,130
30,40
34,92
34,40
34,1
76,122
76,45
76,117
