# Number of vertices:
150
# Edge list:
34,0
76,0
118,0
35,0
77,0
119,0
36,0
78,0
120,0
37,0
79,0
121,0
38,0
80,34
122,34
39,34
81,34
123,34
40,76
82,76
124,76
41,76
83,76
125,118
42,35
84,35
126,35
43,35
85,35
127,35
44,35
86,35
128,35
45,35
87,77
129,77
46,77
88,77
130,77
47,77
89,77
131,77
48,77
90,77
132,119
49,36
91,36
133,36
50,36
92,36
134,36
51,36
93,78
135,78
52,78
94,78
136,78
53,78
95,78
137,120
54,120
96,37
138,37
55,37
97,37
139,37
56,37
98,79
140,79
57,38
99,38
141,38
58,38
100,38
142,38
59,38
101,38
143,38
60,38
102,80
61,80
103,80
62,80
104,80
63,80
105,80
64,80
106,122
65,122
107,122
66,122
108,122
67,39
109,39
68,39
110,39
69,81
111,81
70,81
112,81
71,81
113,81
72,123
114,123
73,123
115,123
74,123
116,123
75,123
117,123
1,123
2,82
3,82
4,82
5,82
6,82
7,82
8,124
9,124
10,124
11,83
12,83
13,83
14,83
15,83
16,125
17,125
18,42
19,42
148,84
20,84
146,43
21,43
145,43
22,43
144,43
23,43
24,43
149,43
25,43
147,85
26,85
27,85
28,85
29,85
30,85
31,85
32,85
33,127
125,79
44,78
44,38
89,121
89,118
89,37
89,78
89,120
89,36
89,79
89,34
56,35
56,38
56,78
56,121
104,140
104,39
104,45
104,44
104,86
104,136
104,142
69,139
69,123
69,85
69,49
69,50
72,126
72,49
72,99
72,133
72,41
72,122
72,136
72,47
115,94
115,138
115,55
115,91
115,43
115,47
5,135
5,91
5,99
5,141
5,86
5,58
5,126
11,88
11,125
11,135
11,142
11,87
13,127
13,87
13,122
13,101
13,98
28,80
28,123
28,142
28,53
28,89
28,60
29,44
