# Number of vertices:
150
# Edge list:
1,0
127,0
2,0
128,0
3,0
129,1
4,1
130,1
5,1
131,1
6,1
132,1
7,1
133,127
8,127
134,127
9,127
135,127
10,127
136,127
11,127
137,2
12,2
138,2
13,2
139,2
14,2
140,2
15,2
141,2
16,2
142,3
17,3
143,3
18,3
144,129
19,4
145,4
20,4
146,4
21,130
147,130
22,130
148,5
23,5
149,5
24,5
25,5
26,131
27,131
28,131
29,6
30,6
31,6
32,6
33,6
34,6
35,6
36,6
37,6
38,6
39,132
40,132
41,132
42,132
106,132
43,132
126,7
90,7
44,7
45,7
125,7
85,133
46,8
47,134
124,9
104,9
48,9
49,9
123,9
105,9
50,9
93,135
51,135
122,135
52,135
53,135
121,10
88,10
54,10
87,10
55,10
120,136
56,136
57,136
119,136
89,136
58,136
103,136
59,136
118,11
60,11
61,137
117,137
102,137
62,137
63,137
116,137
101,137
64,137
65,12
115,12
66,12
96,138
67,138
114,138
95,138
68,138
94,138
69,138
113,138
86,138
70,139
71,139
112,139
72,139
100,14
73,14
111,140
74,15
97,15
75,15
110,15
76,15
99,15
77,15
109,15
78,15
79,15
108,141
91,141
80,141
98,141
81,141
107,141
82,141
83,141
92,141
84,141
131,127
131,2
131,3
131,128
136,2
144,15
146,143
146,136
146,138
85,136
85,6
85,8
85,4
85,14
122,136
122,13
122,131
122,6
52,13
87,135
87,6
87,8
87,14
87,7
87,5
87,138
87,17
119,131
119,7
96,13
96,6
96,4
96,14
67,14
86,16
72,138
97,11
97,134
97,4
97,131
97,9
109,7
109,133
109,18
109,10
109,5
108,10
107,139
