# Number of vertices:
150
# Edge list:
115,0
31,0
32,0
74,0
116,115
33,115
75,115
117,115
34,115
76,115
118,31
35,32
77,32
119,74
36,74
78,74
120,74
37,74
79,74
121,74
38,116
80,116
122,116
39,33
81,33
123,33
40,33
82,33
124,33
41,33
83,33
125,75
42,75
84,75
126,75
1,75
43,75
85,117
127,117
2,117
44,117
86,117
128,117
3,117
45,34
87,34
129,34
4,34
46,34
88,34
130,34
5,76
47,76
89,76
131,76
6,76
48,118
90,118
132,118
7,118
49,35
91,77
133,77
8,77
50,77
92,77
134,77
9,119
51,119
93,119
135,119
52,119
10,119
94,119
136,36
11,120
53,120
95,120
137,37
12,37
54,37
96,37
138,37
13,79
55,79
97,79
139,79
14,79
56,79
98,79
140,79
15,79
57,79
99,121
141,121
16,121
58,121
100,38
142,38
17,38
59,38
101,38
143,80
18,80
60,80
102,80
144,80
19,80
61,80
103,80
145,80
20,80
62,122
104,122
146,39
21,39
63,39
105,39
147,39
22,39
64,81
106,81
148,81
23,81
65,81
107,40
149,40
24,40
66,40
108,40
25,40
67,40
109,40
26,40
68,82
110,82
27,82
69,82
111,82
28,82
70,82
112,82
29,82
71,124
113,124
30,124
72,124
114,124
73,124
34,32
78,115
78,31
78,32
80,35
86,77
86,75
86,76
86,119
86,33
86,121
88,118
88,33
88,35
88,36
88,117
88,77
88,76
8,75
8,120
51,118
51,76
51,120
51,78
51,36
51,33
51,77
51,121
96,117
96,75
57,120
57,76
57,37
57,116
57,78
57,118
57,119
57,75
19,1
19,139
19,90
19,141
19,132
61,125
147,80
147,47
147,48
147,133
149,130
149,80
149,45
149,87
149,4
149,5
149,47
149,53
25,13
68,135
68,86
68,43
68,51
27,54
27,46
27,42
27,53
27,16
27,97
27,5
29,3
29,90
29,47
29,91
29,44
29,98
29,52
29,132
72,8
72,133
72,96
72,97
72,98
72,88
114,91
