# Number of vertices:
150
# Edge list:
80,0
98,0
140,0
82,0
99,0
141,0
22,0
47,80
100,80
142,80
14,98
51,140
101,140
143,140
77,140
57,140
102,140
144,140
27,140
24,82
103,82
145,82
44,82
59,82
104,82
146,82
19,99
45,99
84,99
7,99
105,99
147,99
52,99
106,141
148,141
8,141
29,22
107,22
58,22
149,22
30,22
108,22
6,22
46,22
109,47
110,47
60,47
65,47
111,47
9,47
33,47
112,47
55,47
86,100
113,14
50,14
43,14
114,14
53,14
41,14
64,14
115,14
76,51
25,51
32,51
116,51
75,51
16,51
35,51
117,51
13,101
118,101
71,143
21,143
61,143
119,143
72,143
34,143
120,143
81,143
42,77
121,77
28,77
69,77
20,77
83,57
122,57
17,57
123,57
54,102
26,102
85,102
124,102
36,102
48,102
12,144
62,144
125,144
63,144
5,144
31,144
126,144
38,144
127,144
87,27
15,27
128,24
39,24
79,24
129,24
10,24
3,24
130,24
131,24
73,24
132,24
133,103
56,103
134,103
1,103
23,103
49,103
135,103
70,103
67,145
136,145
4,145
78,145
66,145
137,145
68,145
138,145
37,145
18,145
74,44
2,44
139,59
40,104
11,146
88,146
89,146
90,146
91,146
92,146
93,146
94,19
95,19
96,19
97,19
24,99
24,98
24,22
24,141
24,140
24,80
59,141
59,80
59,140
59,22
59,99
59,98
108,98
108,140
108,141
108,99
108,82
108,80
112,148
112,19
72,102
72,149
72,29
125,104
125,143
125,103
125,105
125,14
125,30
125,44
5,29
31,146
31,106
31,59
31,57
31,145
31,44
31,29
31,147
128,46
128,19
128,148
128,145
133,30
133,59
133,145
133,100
133,29
133,44
133,106
133,7
135,58
135,44
135,149
135,6
135,51
135,144
135,101
135,52
68,6
68,144
68,148
68,147
11,29
11,84
11,24
93,149
