# Number of vertices:
150
# Edge list:
120,0
121,0
122,0
35,0
123,0
124,0
125,0
126,0
127,0
128,0
129,0
130,0
131,0
132,0
133,0
134,0
135,0
136,0
137,0
138,120
139,120
140,120
141,120
142,120
143,120
144,120
145,120
146,120
147,120
148,121
149,121
36,121
78,121
37,121
79,121
38,122
80,122
39,122
81,122
40,122
82,122
41,122
83,122
42,35
84,35
1,35
43,123
85,123
2,123
44,123
86,123
3,123
45,123
87,125
4,125
46,125
88,125
5,125
47,125
89,125
6,127
48,127
90,128
7,128
49,128
91,129
8,130
50,130
92,130
9,130
51,131
93,131
10,131
52,131
94,131
11,131
53,131
95,131
12,131
54,131
96,132
13,132
55,132
97,133
56,133
14,133
98,133
15,134
57,134
99,134
16,134
58,134
100,134
17,134
59,134
101,134
18,135
60,135
102,135
19,135
61,135
103,135
20,136
62,136
104,136
119,136
21,136
63,136
105,136
22,136
64,136
106,137
23,137
65,137
107,137
24,137
66,137
108,137
25,137
67,137
109,138
26,138
68,138
110,138
27,138
69,138
111,138
28,138
70,139
112,139
29,140
71,141
113,141
30,141
72,141
114,141
31,141
73,141
115,142
32,142
74,142
116,142
33,142
75,142
117,142
34,143
76,143
118,143
77,143
141,127
141,130
141,121
141,137
141,128
141,126
141,123
141,35
36,127
36,137
36,120
36,124
36,122
36,130
36,132
36,128
40,127
40,121
40,125
40,136
40,134
40,137
40,120
40,35
83,134
83,128
83,125
83,135
83,133
83,130
42,124
42,134
42,127
42,135
42,122
45,120
45,35
47,133
47,35
47,128
6,133
6,122
6,125
6,35
6,121
6,126
6,132
92,127
92,136
92,131
92,133
92,126
92,132
10,129
94,135
94,137
94,129
94,126
94,130
94,124
14,130
15,127
15,121
15,133
15,124
100,137
100,124
100,126
100,129
100,123
100,135
100,136
100,133
102,126
102,133
63,126
63,131
63,135
63,122
63,124
63,127
106,134
106,136
106,131
106,122
106,121
107,128
107,135
107,136
107,124
107,134
107,121
107,127
73,60
73,18
73,66
73,99
73,7
73,93
73,84
34,80
34,86
34,17
34,42
