# Number of vertices:
150
# Edge list:
24,0
37,0
79,24
11,24
121,24
23,24
38,24
80,24
122,37
39,37
81,37
123,37
27,37
40,37
82,79
124,11
10,11
41,11
83,121
125,121
42,121
84,121
126,23
43,23
85,38
127,38
28,38
44,38
86,38
128,38
9,80
45,80
87,80
129,80
46,80
88,122
130,122
20,122
47,122
89,122
131,122
21,122
48,122
90,122
132,122
49,81
91,81
133,81
26,81
50,123
92,123
15,123
134,27
51,27
93,27
135,27
52,40
94,40
136,40
22,40
53,40
95,82
137,82
25,82
54,10
96,10
14,10
138,10
19,10
55,10
97,10
139,41
56,41
18,83
98,83
29,83
140,83
57,83
99,83
141,83
58,83
100,125
142,125
59,125
101,125
143,125
13,42
17,42
60,42
102,84
144,126
61,126
103,126
145,126
62,126
104,126
146,126
16,126
63,43
105,43
147,43
12,43
64,43
106,43
148,43
65,43
107,43
149,85
8,85
66,85
108,85
67,85
109,85
68,85
110,85
69,127
111,127
70,127
112,127
71,127
113,127
30,28
72,28
114,28
31,28
73,28
115,28
32,28
74,28
116,28
33,28
75,44
117,44
34,44
76,44
118,44
35,44
77,44
119,86
36,86
78,86
120,86
6,86
4,86
1,86
7,86
5,86
3,128
2,128
38,37
82,39
82,38
82,11
21,11
21,79
21,80
21,23
21,27
21,121
21,81
90,39
132,23
49,27
49,121
52,122
52,80
52,11
52,123
95,128
55,22
55,43
55,48
55,131
55,134
102,124
102,89
102,127
62,21
146,88
63,85
63,45
63,83
63,127
63,126
64,91
64,125
64,89
64,41
64,26
64,130
64,128
149,92
149,133
149,126
68,131
68,136
68,21
68,48
68,41
68,9
68,51
32,9
3,90
3,46
3,130
3,125
3,53
3,133
3,89
