# Number of vertices:
150
# Edge list:
113,0
116,0
115,0
114,0
117,0
149,0
148,0
124,0
147,0
123,0
126,0
146,0
125,0
145,113
118,116
119,116
144,116
127,116
139,116
143,114
120,114
142,114
122,114
27,117
141,117
121,117
140,117
138,117
137,149
28,149
136,149
135,149
134,149
133,148
132,148
131,148
130,124
129,124
128,124
29,124
71,124
30,124
72,124
31,124
73,147
32,147
74,147
33,146
75,146
34,146
76,146
35,146
77,146
36,146
78,146
37,146
79,125
38,145
80,145
39,145
81,118
40,118
82,118
41,118
83,118
42,119
84,119
1,119
43,119
85,119
2,144
44,144
86,144
3,144
45,144
87,144
4,144
46,144
88,144
5,144
47,127
89,127
48,127
6,127
90,127
49,127
7,127
91,127
8,127
50,127
92,139
9,139
51,143
93,143
10,143
52,143
94,120
11,120
53,142
95,122
12,122
54,122
96,122
13,122
55,122
97,122
14,122
56,122
98,27
15,27
57,27
99,141
111,141
16,141
58,141
100,141
17,141
59,141
101,121
18,121
60,121
102,121
19,121
61,121
103,121
20,140
62,140
104,140
112,140
21,137
63,137
105,28
22,28
64,28
106,28
23,28
65,28
107,28
24,28
66,136
108,136
25,136
67,136
109,136
26,136
68,136
110,136
69,136
70,136
119,123
119,124
35,114
35,126
35,148
35,115
35,113
35,125
35,116
35,147
81,72
81,142
81,141
81,132
81,33
81,77
89,139
89,29
92,145
92,136
92,120
92,140
92,34
92,137
10,119
10,139
10,37
52,134
52,128
52,32
52,141
13,31
13,35
13,36
13,132
13,144
13,32
13,139
15,139
15,78
15,134
15,132
15,72
100,28
100,31
20,35
62,75
62,36
62,118
106,35
24,75
24,119
24,76
24,130
24,121
108,74
108,129
108,27
108,132
110,119
110,130
110,29
110,137
110,75
