# Number of vertices:
150
# Edge list:
60,0
149,0
148,0
147,0
3,0
2,0
62,0
61,0
1,0
142,0
124,0
59,0
46,0
63,60
31,60
104,60
103,60
122,60
7,60
128,149
125,149
21,149
105,148
117,148
66,148
34,148
22,147
36,147
116,147
4,147
102,147
113,2
65,2
115,61
27,61
101,1
146,1
32,1
69,1
139,1
8,142
73,142
100,142
23,124
114,124
17,124
79,124
138,124
99,124
136,46
5,46
45,46
120,63
40,63
112,63
98,63
39,63
97,63
14,63
78,63
144,104
130,104
11,104
26,104
96,104
64,103
29,103
111,103
16,103
68,103
95,103
121,103
94,103
74,122
28,122
126,122
43,122
143,122
93,7
15,7
72,7
135,7
19,7
92,7
129,7
12,7
140,128
91,128
123,128
37,128
90,128
10,128
77,128
119,128
133,128
35,125
118,125
89,125
137,125
38,125
18,125
145,125
88,125
134,21
109,21
25,105
87,105
42,105
86,105
58,105
76,105
49,117
85,117
80,117
13,117
71,117
127,117
50,66
110,66
33,66
57,66
70,66
56,34
84,34
131,34
55,34
67,34
132,34
24,22
54,22
83,22
9,36
82,36
141,36
30,36
108,36
6,116
48,116
107,116
44,4
53,4
75,4
47,4
81,4
41,4
106,113
52,113
51,113
20,113
122,46
122,124
4,60
4,1
4,148
4,2
4,3
4,59
113,1
113,62
29,65
140,79
140,136
140,102
140,113
77,116
119,36
119,22
119,23
119,27
119,63
119,113
25,125
25,73
25,113
25,114
25,138
25,117
25,104
25,102
86,65
86,116
86,45
86,136
86,101
86,102
81,101
81,114
81,7
81,146
81,32
