# Number of vertices:
150
# Edge list:
33,0
75,0
117,0
34,0
76,0
118,0
35,0
77,0
119,0
36,0
78,0
120,0
37,0
79,0
121,0
38,0
80,0
122,33
39,33
81,33
123,75
40,75
82,75
124,75
41,117
83,34
125,34
42,76
84,76
126,76
43,76
85,76
127,76
44,76
86,118
128,118
45,118
87,118
129,118
46,118
88,118
130,35
47,35
89,35
131,35
48,77
90,77
132,77
49,77
91,77
133,77
50,77
92,119
134,119
51,119
93,119
135,119
52,119
94,36
136,36
53,36
95,36
137,36
54,36
96,36
138,78
55,78
97,78
139,78
56,120
98,120
140,120
57,120
99,120
141,37
58,37
100,37
142,37
59,37
101,37
143,37
60,37
102,37
144,79
61,121
103,38
145,38
62,38
104,38
146,38
63,38
105,38
147,38
64,38
106,38
148,80
65,80
107,80
149,80
66,122
108,122
67,122
109,122
68,122
110,122
69,122
111,122
70,122
112,122
71,39
113,39
72,39
114,39
73,39
115,81
74,81
116,81
32,81
23,81
3,81
2,81
10,81
16,123
24,123
21,123
7,123
12,123
19,82
18,124
27,124
13,124
15,124
26,124
20,124
4,124
17,124
31,41
28,41
1,41
14,41
25,41
29,41
22,83
5,83
6,83
9,83
8,83
30,83
11,83
39,80
126,79
126,119
126,80
126,37
126,34
126,120
126,78
126,35
127,118
127,33
127,35
127,119
127,78
127,117
87,80
89,80
89,38
49,79
49,35
49,120
49,38
49,121
134,35
134,79
134,37
134,120
134,77
134,38
134,80
95,77
95,35
95,120
95,75
95,80
139,118
139,37
139,80
139,121
139,75
139,76
139,38
139,34
62,34
105,37
105,75
105,36
105,76
110,129
110,126
110,82
69,140
69,58
69,130
69,45
10,94
10,145
10,134
10,48
10,42
10,107
10,103
10,40
21,92
21,100
21,45
21,149
21,129
21,62
21,144
21,57
18,126
18,47
18,146
18,89
13,40
13,103
13,60
13,96
13,137
13,136
13,93
13,123
