# Number of vertices:
150
# Edge list:
13,0
22,0
103,0
53,0
114,13
23,13
66,13
113,13
52,13
102,13
21,13
24,22
51,22
101,103
12,103
25,103
46,103
100,103
143,103
26,103
44,53
99,53
141,53
20,53
27,114
147,114
50,114
28,114
146,114
49,114
98,23
29,23
92,23
145,23
48,23
16,23
30,66
94,66
47,66
144,52
31,102
11,102
45,102
97,21
32,21
112,21
142,21
65,21
96,21
130,21
17,24
33,24
64,24
95,24
128,51
34,51
10,51
63,51
129,51
35,101
57,101
106,101
148,101
15,101
36,101
111,101
56,101
86,101
37,101
110,12
9,12
61,12
85,12
38,12
62,12
89,25
139,25
39,25
4,25
58,25
88,100
40,100
138,100
2,100
60,100
87,26
41,26
107,26
140,26
55,26
79,26
126,26
42,26
1,26
77,26
59,44
121,44
43,44
5,44
54,44
83,44
127,44
82,44
125,44
3,99
81,99
124,99
8,99
80,99
123,99
78,99
122,141
19,141
149,141
76,141
108,141
7,141
75,141
18,141
109,141
74,141
105,20
137,20
90,20
135,20
91,20
136,20
93,20
118,27
104,27
119,27
84,27
120,27
73,27
133,27
72,27
117,147
131,147
68,50
116,50
71,50
134,50
6,50
70,50
132,50
69,50
115,50
14,28
67,28
94,143
94,141
94,101
94,21
94,26
94,25
34,23
63,143
63,52
35,46
35,44
35,143
35,24
35,23
35,20
37,100
37,99
37,12
37,52
37,24
37,46
37,51
62,143
62,100
62,99
62,113
62,23
62,20
40,101
40,66
40,52
40,12
76,51
74,101
74,66
74,51
74,99
74,25
74,102
74,21
74,52
73,28
68,3
68,2
68,149
68,29
68,91
14,16
14,64
14,83
