# Number of vertices:
150
# Edge list:
38,0
80,0
39,0
81,0
40,0
82,0
41,0
83,0
42,0
84,0
1,38
43,38
85,38
2,80
44,80
86,80
3,80
45,80
87,80
4,80
46,39
88,39
5,39
47,39
89,39
6,39
48,39
90,39
7,81
49,81
91,81
8,81
50,81
92,81
9,81
51,81
93,40
10,40
52,40
94,40
11,40
53,40
95,40
12,82
54,82
96,82
13,82
55,82
97,82
14,82
56,83
98,83
57,83
15,83
99,83
58,83
16,83
100,83
17,83
59,42
101,84
18,84
60,84
102,84
19,84
61,84
103,1
20,1
62,1
104,1
21,1
63,1
105,1
22,1
64,1
106,43
23,43
65,43
107,43
24,43
66,43
108,43
25,43
67,43
109,85
26,85
68,85
110,85
27,85
69,2
111,2
28,2
70,2
112,2
29,2
71,44
113,44
30,44
72,44
114,44
31,44
73,44
115,44
32,44
74,86
116,3
33,3
75,3
117,3
34,3
76,3
118,3
35,3
77,3
119,45
36,45
78,45
120,45
37,87
79,87
121,87
122,4
123,4
124,4
125,4
126,4
127,4
128,4
129,4
130,46
131,46
132,46
133,46
134,46
135,46
136,46
137,46
138,46
139,88
140,88
141,88
142,88
143,88
144,88
145,88
146,88
147,5
148,5
149,5
43,42
43,82
43,39
43,83
43,40
2,38
2,82
2,40
2,83
2,39
2,42
2,41
2,81
5,83
8,42
8,83
8,84
8,80
8,40
8,39
9,41
9,40
9,42
9,82
9,84
9,80
9,83
116,1
116,96
116,91
116,49
118,102
118,94
118,95
118,92
118,85
118,99
123,60
123,55
123,14
123,61
123,101
123,46
136,43
136,97
136,96
138,88
138,4
138,7
142,2
142,96
142,3
144,17
144,12
144,9
144,90
144,50
144,10
144,98
144,58
