# Number of vertices:
150
# Edge list:
13,0
55,0
97,0
14,0
56,0
98,0
15,0
57,13
99,13
16,13
58,13
100,13
17,13
59,13
101,13
18,13
60,13
102,55
19,55
61,55
103,55
20,14
62,14
104,14
21,14
63,14
105,14
22,14
64,14
106,56
23,56
65,56
107,56
24,56
66,98
108,98
25,15
67,15
109,15
26,15
68,15
110,15
27,15
69,15
111,15
28,15
70,57
112,57
29,57
71,57
113,99
30,99
72,99
114,99
31,99
73,16
115,58
32,58
74,58
116,58
75,58
33,100
117,100
34,100
76,100
118,100
35,100
77,59
119,59
36,101
78,101
120,101
37,101
79,18
121,18
38,18
80,18
122,18
39,18
81,18
123,18
40,60
82,60
124,60
41,102
83,102
125,102
42,102
84,102
126,102
1,102
43,61
85,61
127,103
2,103
44,103
86,103
128,103
3,103
45,103
87,20
129,20
4,20
46,20
88,20
130,20
5,62
47,62
89,62
131,62
6,62
48,62
90,62
132,62
7,62
49,104
91,104
133,104
8,104
50,104
92,104
134,104
9,21
51,21
93,21
135,21
10,21
52,63
94,63
136,63
11,63
53,63
95,63
137,105
54,105
12,22
96,22
138,22
139,22
140,22
141,22
142,22
143,22
144,64
145,64
146,64
147,64
148,64
149,64
101,56
20,56
62,15
62,97
62,13
62,56
25,13
25,97
25,14
25,56
25,98
25,55
26,55
26,56
26,14
26,98
26,97
71,18
71,100
71,101
71,27
71,16
72,60
72,64
72,58
72,62
72,103
72,27
32,19
32,104
32,68
32,110
32,107
32,103
117,21
117,105
117,24
117,64
117,108
35,64
35,23
35,26
35,18
35,103
35,27
37,107
37,22
37,19
37,62
37,66
37,99
37,100
79,58
79,59
79,27
79,107
82,63
86,99
46,68
46,105
46,60
46,62
46,64
46,25
46,101
46,57
91,67
91,101
91,26
91,25
91,105
91,57
91,69
