# Number of vertices:
150
# Edge list:
44,0
86,0
45,44
87,44
46,44
88,44
47,44
89,44
48,44
90,44
49,44
91,44
50,88
92,88
51,47
93,47
52,47
94,47
53,47
95,47
54,47
96,47
55,47
97,47
56,89
98,89
57,89
99,89
58,89
100,89
59,89
101,48
60,48
102,48
61,48
103,48
62,48
104,48
63,90
105,90
64,90
106,90
65,90
107,90
66,90
108,90
67,90
109,49
68,49
110,49
69,49
111,49
70,91
112,50
71,50
113,50
72,50
114,50
73,50
115,92
74,92
116,92
75,92
117,92
76,51
118,93
77,93
119,93
78,93
120,93
79,93
121,93
80,93
122,93
81,93
123,52
82,52
124,52
83,52
125,94
84,94
126,94
85,94
127,94
2,94
128,53
3,53
129,53
4,53
130,95
5,95
131,54
6,54
132,54
7,54
133,54
8,54
134,96
9,96
135,96
10,55
136,55
11,55
137,55
12,55
138,97
13,97
139,97
14,97
140,97
15,56
141,56
16,56
142,56
17,56
143,56
18,56
144,56
19,98
145,98
20,98
146,98
21,98
147,98
22,98
148,57
23,57
149,57
24,57
25,57
26,57
27,57
28,99
29,99
30,99
31,99
32,58
33,58
34,58
35,58
36,58
37,58
38,100
39,100
40,100
41,100
42,100
1,100
43,100
49,86
97,91
97,46
97,49
97,48
60,88
60,45
60,46
60,49
60,47
60,89
60,87
60,90
116,66
128,110
3,106
3,61
3,107
3,100
3,109
3,99
130,59
139,110
17,109
17,95
17,111
17,94
17,102
17,93
17,63
146,68
146,70
146,96
147,68
147,54
147,105
147,57
147,92
147,63
33,110
33,93
