# Number of vertices:
150
# Edge list:
10,0
136,0
11,10
137,136
12,136
138,11
13,11
139,137
14,137
140,137
15,137
141,137
16,12
142,12
17,12
143,12
18,12
144,12
19,12
145,12
20,12
146,12
21,138
147,138
22,138
148,138
23,138
149,138
24,13
25,13
26,13
27,13
28,13
29,13
30,13
31,13
32,13
33,13
34,139
35,139
36,139
37,139
38,14
39,14
40,14
41,14
42,14
1,14
43,14
2,140
44,140
3,140
45,140
4,140
46,140
5,140
47,140
6,15
48,15
7,15
49,15
50,141
8,141
51,141
9,141
52,141
94,141
53,16
95,16
54,16
96,16
55,16
97,16
56,16
98,16
134,142
57,142
99,142
58,142
100,142
59,142
101,142
60,142
102,143
61,143
103,143
135,18
62,18
104,18
63,18
105,144
64,144
106,144
65,19
107,19
66,19
108,19
67,19
109,19
68,145
110,145
69,146
111,146
70,146
112,146
71,146
113,146
72,146
114,146
73,146
115,21
74,21
116,21
75,21
117,21
76,147
118,147
77,147
119,147
78,147
120,147
79,147
121,22
80,22
122,22
81,22
123,22
82,148
124,148
83,148
125,148
84,148
126,148
85,148
127,148
86,148
128,148
87,23
129,23
88,149
130,149
89,149
131,149
90,24
132,25
91,25
133,25
92,25
93,25
149,17
149,141
149,15
149,14
149,139
149,140
149,16
6,18
6,17
6,141
6,143
6,139
6,138
50,144
50,146
50,17
50,14
50,15
50,13
50,139
50,19
8,20
8,14
8,139
8,142
8,13
8,145
8,144
8,138
54,13
54,138
54,19
54,20
60,13
60,139
60,141
60,143
60,20
60,140
60,144
62,15
62,13
62,17
62,141
62,14
62,146
104,141
107,13
109,17
109,13
109,143
109,15
109,140
113,142
114,20
114,145
114,13
114,16
114,15
115,7
74,94
74,147
74,45
74,24
74,96
74,46
74,36
74,104
