# Number of vertices:
150
# Edge list:
127,0
128,0
129,0
130,0
131,0
132,127
133,127
134,127
135,127
136,127
137,127
138,127
139,128
140,128
141,128
142,128
143,128
144,128
145,128
146,129
147,129
148,129
149,130
43,130
85,130
2,130
44,130
86,130
3,130
45,130
87,130
4,130
46,131
88,131
5,131
47,131
89,131
6,131
48,131
90,132
7,132
49,132
91,132
8,132
50,132
92,133
9,133
51,133
93,133
10,134
52,134
94,134
11,134
53,134
95,134
12,134
54,134
96,135
13,135
55,135
97,135
14,135
56,135
98,137
15,137
57,137
99,137
16,139
58,139
100,140
17,140
59,141
101,141
18,142
60,142
102,142
19,143
61,143
103,143
20,143
62,143
104,144
63,144
21,144
105,144
22,144
64,144
84,144
106,144
23,145
65,145
107,145
24,145
66,146
108,146
25,146
67,146
109,146
26,146
68,147
110,147
27,147
69,147
111,147
28,147
70,147
112,148
29,148
71,148
113,148
30,148
72,148
114,148
126,148
31,148
73,148
115,149
32,149
74,149
116,149
33,149
75,149
117,149
34,149
76,85
118,85
35,2
77,2
119,2
36,2
78,2
120,2
37,2
79,2
121,2
38,2
80,44
122,44
39,44
81,44
123,44
40,44
82,44
124,44
41,44
83,86
125,86
42,86
1,86
133,128
145,131
145,130
145,129
145,127
146,130
146,127
146,131
146,128
47,129
47,130
47,128
47,127
48,128
48,129
48,130
48,127
91,4
91,137
91,2
9,48
9,136
9,2
9,46
9,142
9,145
9,147
52,136
52,4
52,132
12,143
54,47
54,145
54,132
54,46
54,148
54,5
13,2
63,6
23,141
23,89
23,6
23,143
23,44
109,133
68,133
110,142
110,141
110,139
110,87
110,137
110,140
28,44
28,148
28,45
28,143
28,136
73,142
73,5
73,2
73,132
73,141
73,146
73,44
116,136
116,86
116,134
116,138
119,4
79,145
79,143
79,4
80,139
80,3
80,137
80,144
80,43
80,47
80,136
80,138
83,135
83,138
83,137
83,88
83,147
83,48
83,85
83,43
