# Number of vertices:
150
# Edge list:
62,0
137,0
61,0
139,0
135,62
60,62
59,62
144,62
41,62
141,62
43,62
142,137
58,137
145,137
57,137
138,137
55,137
140,137
56,61
143,61
136,61
46,139
134,139
54,139
53,135
45,135
133,135
52,135
104,135
148,135
51,135
110,135
132,135
50,60
42,60
109,60
131,59
44,59
112,59
48,59
111,43
130,43
47,43
40,43
118,142
129,142
49,142
106,142
128,142
127,142
117,142
146,142
126,58
116,58
147,145
125,145
108,145
105,145
149,145
124,57
115,138
123,138
122,140
114,140
121,140
107,140
120,140
113,140
119,56
92,56
76,56
75,56
1,143
74,143
72,136
2,136
39,136
90,136
3,136
87,136
4,46
88,46
5,46
83,46
6,46
73,46
95,46
7,46
94,134
8,134
77,134
9,134
91,134
10,54
86,54
11,54
12,54
100,54
13,54
99,54
14,54
102,53
15,53
81,53
16,53
101,45
17,45
103,45
18,45
85,45
19,45
79,45
20,45
82,52
21,52
84,52
22,52
93,52
23,52
78,52
24,52
98,104
25,104
97,104
26,104
70,104
27,148
96,148
28,148
80,148
29,148
68,148
30,148
71,148
31,51
32,51
63,51
33,51
69,51
34,51
67,51
35,51
66,110
36,110
65,110
37,110
64,110
38,132
89,132
143,62
53,144
53,58
53,41
53,136
53,140
53,57
127,57
127,56
127,134
127,46
125,144
121,56
120,134
120,46
120,142
120,54
120,41
120,143
119,43
5,142
5,134
5,140
5,144
5,57
5,143
77,59
77,46
77,144
77,41
77,136
91,143
91,57
91,46
91,60
91,55
91,138
91,135
78,92
78,1
