# Number of vertices:
150
# Edge list:
32,0
74,0
33,0
75,0
34,0
76,0
35,0
77,0
36,0
78,0
37,0
79,0
38,0
80,0
39,0
81,0
40,0
82,32
41,74
83,33
42,33
84,33
43,33
85,33
44,33
86,33
45,33
87,33
46,33
88,75
47,75
89,75
48,75
90,34
49,76
91,76
50,76
92,76
51,35
93,77
52,77
94,77
53,77
95,77
54,77
96,77
55,77
97,77
56,77
98,36
57,36
99,36
58,36
100,36
59,36
101,36
60,36
102,78
61,78
103,78
62,78
104,78
63,78
105,78
64,78
106,78
65,78
107,37
66,37
108,79
67,79
109,79
68,79
110,79
69,79
111,79
70,79
112,38
71,38
113,38
72,38
114,38
73,38
115,38
136,80
117,80
146,80
143,80
116,80
145,80
118,80
120,80
139,80
121,80
138,39
137,39
1,81
119,81
141,81
2,81
147,40
3,40
148,82
4,82
125,82
5,82
122,82
6,82
7,82
123,41
8,41
124,83
9,83
128,83
10,83
129,83
11,83
126,83
12,83
13,83
127,42
14,42
140,42
15,84
16,84
149,84
17,85
18,85
130,85
19,85
20,85
131,85
21,85
22,44
135,44
23,44
24,44
132,44
25,44
142,44
26,44
27,86
144,86
28,87
133,87
29,87
30,87
134,87
31,87
53,34
53,32
53,76
53,36
53,81
53,80
53,38
54,33
54,39
54,80
54,38
54,76
54,81
55,33
55,74
55,34
55,79
55,32
55,40
99,77
99,79
99,74
71,74
71,75
71,33
71,77
71,32
71,35
71,39
120,79
120,35
120,32
120,39
120,81
1,39
1,80
1,36
1,75
1,74
1,79
1,34
3,35
3,75
3,81
3,74
15,47
15,136
15,145
15,53
19,93
19,73
