digraph G {
    0 [penwidth=3,label="0"]
    1 [penwidth=3,label="1"]
    2 [penwidth=3,label="2"]
    3 [penwidth=3,label="3"]
    4 [penwidth=3,label="4"]
    5 [penwidth=3,label="5"]
    6 [penwidth=3,label="6"]
    7 [penwidth=3,label="7"]
    8 [penwidth=3,label="8"]
    9 [penwidth=3,label="9"]
    10 [penwidth=3,label="10"]
    11 [penwidth=3,label="11"]
    12 [penwidth=3,label="12"]
    13 [penwidth=3,label="13"]
    14 [penwidth=3,label="14"]
    15 [penwidth=3,label="15"]
    16 [penwidth=3,label="16"]
    17 [penwidth=3,label="17"]
    18 [penwidth=3,label="18"]
    19 [penwidth=3,label="19"]
    20 [penwidth=3,label="20"]
    21 [penwidth=3,label="21"]
    22 [penwidth=3,label="22"]
    23 [penwidth=3,label="23"]
    24 [penwidth=3,label="24"]
    25 [penwidth=3,label="25"]
    26 [penwidth=3,label="26"]
    27 [penwidth=3,label="27"]
    28 [penwidth=3,label="28"]
    29 [penwidth=3,label="29"]
    30 [penwidth=3,label="30"]
    31 [penwidth=3,label="31"]
    32 [penwidth=3,label="32"]
    33 [penwidth=3,label="33"]
    34 [penwidth=3,label="34"]
    35 [penwidth=3,label="35"]
    36 [penwidth=3,label="36"]
    37 [penwidth=3,label="37"]
    38 [penwidth=3,label="38"]
    39 [penwidth=3,label="39"]
    40 [penwidth=3,label="40"]
    41 [penwidth=3,label="41"]
    42 [penwidth=3,label="42"]
    43 [penwidth=3,label="43"]
    44 [penwidth=3,label="44"]
    45 [penwidth=3,label="45"]
    46 [penwidth=3,label="46"]
    47 [penwidth=3,label="47"]
    48 [penwidth=3,label="48"]
    49 [penwidth=3,label="49"]
    50 [penwidth=3,label="50"]
    51 [penwidth=3,label="51"]
    52 [penwidth=3,label="52"]
    53 [penwidth=3,label="53"]
    54 [penwidth=3,label="54"]
    55 [penwidth=3,label="55"]
    56 [penwidth=3,label="56"]
    57 [penwidth=3,label="57"]
    58 [penwidth=3,label="58"]
    59 [penwidth=3,label="59"]
    60 [penwidth=3,label="60"]
    61 [penwidth=3,label="61"]
    62 [penwidth=3,label="62"]
    63 [penwidth=3,label="63"]
    64 [penwidth=3,label="64"]
    65 [penwidth=3,label="65"]
    66 [penwidth=3,label="66"]
    67 [penwidth=3,label="67"]
    68 [penwidth=3,label="68"]
    69 [penwidth=3,label="69"]
    70 [penwidth=3,label="70"]
    71 [penwidth=3,label="71"]
    72 [penwidth=3,label="72"]
    73 [penwidth=3,label="73"]
    74 [penwidth=3,label="74"]
    75 [penwidth=3,label="75"]
    76 [penwidth=3,label="76"]
    77 [penwidth=3,label="77"]
    78 [penwidth=3,label="78"]
    79 [penwidth=3,label="79"]
    80 [penwidth=3,label="80"]
    81 [penwidth=3,label="81"]
    82 [penwidth=3,label="82"]
    83 [penwidth=3,label="83"]
    84 [penwidth=3,label="84"]
    85 [penwidth=3,label="85"]
    86 [penwidth=3,label="86"]
    87 [penwidth=3,label="87"]
    88 [penwidth=3,label="88"]
    89 [penwidth=3,label="89"]
    90 [penwidth=3,label="90"]
    91 [penwidth=3,label="91"]
    92 [penwidth=3,label="92"]
    93 [penwidth=3,label="93"]
    94 [penwidth=3,label="94"]
    95 [penwidth=3,label="95"]
    96 [penwidth=3,label="96"]
    97 [penwidth=3,label="97"]
    98 [penwidth=3,label="98"]
    99 [penwidth=3,label="99"]

    11 -> 0 [penwidth=2]
    12 -> 0 [penwidth=2]
    13 -> 0 [penwidth=2]
    95 -> 0 [penwidth=2]
    14 -> 0 [penwidth=2]
    15 -> 0 [penwidth=2]
    16 -> 0 [penwidth=2]
    17 -> 0 [penwidth=2]
    18 -> 0 [penwidth=2]
    19 -> 0 [penwidth=2]
    20 -> 0 [penwidth=2]
    21 -> 0 [penwidth=2]
    22 -> 0 [penwidth=2]
    23 -> 0 [penwidth=2]
    24 -> 0 [penwidth=2]
    25 -> 0 [penwidth=2]
    26 -> 0 [penwidth=2]
    27 -> 0 [penwidth=2]
    28 -> 0 [penwidth=2]
    29 -> 0 [penwidth=2]
    30 -> 11 [penwidth=2]
    31 -> 11 [penwidth=2]
    32 -> 11 [penwidth=2]
    33 -> 12 [penwidth=2]
    34 -> 12 [penwidth=2]
    35 -> 12 [penwidth=2]
    36 -> 95 [penwidth=2]
    37 -> 95 [penwidth=2]
    38 -> 95 [penwidth=2]
    39 -> 95 [penwidth=2]
    40 -> 14 [penwidth=2]
    41 -> 14 [penwidth=2]
    42 -> 14 [penwidth=2]
    43 -> 14 [penwidth=2]
    44 -> 16 [penwidth=2]
    45 -> 16 [penwidth=2]
    46 -> 18 [penwidth=2]
    47 -> 18 [penwidth=2]
    48 -> 19 [penwidth=2]
    49 -> 19 [penwidth=2]
    50 -> 19 [penwidth=2]
    51 -> 19 [penwidth=2]
    52 -> 20 [penwidth=2]
    94 -> 20 [penwidth=2]
    53 -> 20 [penwidth=2]
    54 -> 21 [penwidth=2]
    55 -> 21 [penwidth=2]
    56 -> 21 [penwidth=2]
    57 -> 23 [penwidth=2]
    58 -> 23 [penwidth=2]
    59 -> 24 [penwidth=2]
    60 -> 24 [penwidth=2]
    61 -> 26 [penwidth=2]
    62 -> 27 [penwidth=2]
    63 -> 28 [penwidth=2]
    64 -> 28 [penwidth=2]
    65 -> 29 [penwidth=2]
    66 -> 30 [penwidth=2]
    67 -> 30 [penwidth=2]
    68 -> 30 [penwidth=2]
    69 -> 30 [penwidth=2]
    70 -> 31 [penwidth=2]
    71 -> 31 [penwidth=2]
    72 -> 33 [penwidth=2]
    73 -> 33 [penwidth=2]
    74 -> 34 [penwidth=2]
    75 -> 34 [penwidth=2]
    76 -> 34 [penwidth=2]
    77 -> 35 [penwidth=2]
    78 -> 35 [penwidth=2]
    79 -> 35 [penwidth=2]
    80 -> 36 [penwidth=2]
    81 -> 37 [penwidth=2]
    82 -> 38 [penwidth=2]
    99 -> 38 [penwidth=2]
    83 -> 38 [penwidth=2]
    84 -> 38 [penwidth=2]
    1 -> 39 [penwidth=2]
    85 -> 40 [penwidth=2]
    2 -> 40 [penwidth=2]
    86 -> 40 [penwidth=2]
    98 -> 40 [penwidth=2]
    3 -> 41 [penwidth=2]
    87 -> 41 [penwidth=2]
    4 -> 42 [penwidth=2]
    88 -> 43 [penwidth=2]
    96 -> 44 [penwidth=2]
    5 -> 44 [penwidth=2]
    89 -> 44 [penwidth=2]
    6 -> 46 [penwidth=2]
    90 -> 46 [penwidth=2]
    97 -> 46 [penwidth=2]
    7 -> 46 [penwidth=2]
    91 -> 47 [penwidth=2]
    8 -> 48 [penwidth=2]
    92 -> 48 [penwidth=2]
    9 -> 48 [penwidth=2]
    93 -> 48 [penwidth=2]
    10 -> 50 [penwidth=2]
    37 -> 24 [penwidth=2]
    54 -> 20 [penwidth=2]
    54 -> 16 [penwidth=2]
    54 -> 23 [penwidth=2]
    61 -> 16 [penwidth=2]
    61 -> 12 [penwidth=2]
    61 -> 27 [penwidth=2]
    61 -> 28 [penwidth=2]
    61 -> 14 [penwidth=2]
    79 -> 63 [penwidth=2]
    79 -> 62 [penwidth=2]
    79 -> 47 [penwidth=2]
    79 -> 65 [penwidth=2]
    80 -> 32 [penwidth=2]
    80 -> 54 [penwidth=2]
    80 -> 43 [penwidth=2]
    80 -> 46 [penwidth=2]
    80 -> 47 [penwidth=2]
    99 -> 61 [penwidth=2]
    99 -> 60 [penwidth=2]
    99 -> 46 [penwidth=2]
    99 -> 55 [penwidth=2]
    99 -> 37 [penwidth=2]
}