digraph G {
    0 [penwidth=3,label="0"]
    1 [penwidth=3,label="1"]
    2 [penwidth=3,label="2"]
    3 [penwidth=3,label="3"]
    4 [penwidth=3,label="4"]
    5 [penwidth=3,label="5"]
    6 [penwidth=3,label="6"]
    7 [penwidth=3,label="7"]
    8 [penwidth=3,label="8"]
    9 [penwidth=3,label="9"]
    10 [penwidth=3,label="10"]
    11 [penwidth=3,label="11"]
    12 [penwidth=3,label="12"]
    13 [penwidth=3,label="13"]
    14 [penwidth=3,label="14"]
    15 [penwidth=3,label="15"]
    16 [penwidth=3,label="16"]
    17 [penwidth=3,label="17"]
    18 [penwidth=3,label="18"]
    19 [penwidth=3,label="19"]
    20 [penwidth=3,label="20"]
    21 [penwidth=3,label="21"]
    22 [penwidth=3,label="22"]
    23 [penwidth=3,label="23"]
    24 [penwidth=3,label="24"]
    25 [penwidth=3,label="25"]
    26 [penwidth=3,label="26"]
    27 [penwidth=3,label="27"]
    28 [penwidth=3,label="28"]
    29 [penwidth=3,label="29"]
    30 [penwidth=3,label="30"]
    31 [penwidth=3,label="31"]
    32 [penwidth=3,label="32"]
    33 [penwidth=3,label="33"]
    34 [penwidth=3,label="34"]
    35 [penwidth=3,label="35"]
    36 [penwidth=3,label="36"]
    37 [penwidth=3,label="37"]
    38 [penwidth=3,label="38"]
    39 [penwidth=3,label="39"]
    40 [penwidth=3,label="40"]
    41 [penwidth=3,label="41"]
    42 [penwidth=3,label="42"]
    43 [penwidth=3,label="43"]
    44 [penwidth=3,label="44"]
    45 [penwidth=3,label="45"]
    46 [penwidth=3,label="46"]
    47 [penwidth=3,label="47"]
    48 [penwidth=3,label="48"]
    49 [penwidth=3,label="49"]
    50 [penwidth=3,label="50"]
    51 [penwidth=3,label="51"]
    52 [penwidth=3,label="52"]
    53 [penwidth=3,label="53"]
    54 [penwidth=3,label="54"]
    55 [penwidth=3,label="55"]
    56 [penwidth=3,label="56"]
    57 [penwidth=3,label="57"]
    58 [penwidth=3,label="58"]
    59 [penwidth=3,label="59"]
    60 [penwidth=3,label="60"]
    61 [penwidth=3,label="61"]
    62 [penwidth=3,label="62"]
    63 [penwidth=3,label="63"]
    64 [penwidth=3,label="64"]
    65 [penwidth=3,label="65"]
    66 [penwidth=3,label="66"]
    67 [penwidth=3,label="67"]
    68 [penwidth=3,label="68"]
    69 [penwidth=3,label="69"]
    70 [penwidth=3,label="70"]
    71 [penwidth=3,label="71"]
    72 [penwidth=3,label="72"]
    73 [penwidth=3,label="73"]
    74 [penwidth=3,label="74"]
    75 [penwidth=3,label="75"]
    76 [penwidth=3,label="76"]
    77 [penwidth=3,label="77"]
    78 [penwidth=3,label="78"]
    79 [penwidth=3,label="79"]
    80 [penwidth=3,label="80"]
    81 [penwidth=3,label="81"]
    82 [penwidth=3,label="82"]
    83 [penwidth=3,label="83"]
    84 [penwidth=3,label="84"]
    85 [penwidth=3,label="85"]
    86 [penwidth=3,label="86"]
    87 [penwidth=3,label="87"]
    88 [penwidth=3,label="88"]
    89 [penwidth=3,label="89"]
    90 [penwidth=3,label="90"]
    91 [penwidth=3,label="91"]
    92 [penwidth=3,label="92"]
    93 [penwidth=3,label="93"]
    94 [penwidth=3,label="94"]
    95 [penwidth=3,label="95"]
    96 [penwidth=3,label="96"]
    97 [penwidth=3,label="97"]
    98 [penwidth=3,label="98"]
    99 [penwidth=3,label="99"]
    100 [penwidth=3,label="100"]
    101 [penwidth=3,label="101"]
    102 [penwidth=3,label="102"]
    103 [penwidth=3,label="103"]
    104 [penwidth=3,label="104"]
    105 [penwidth=3,label="105"]
    106 [penwidth=3,label="106"]
    107 [penwidth=3,label="107"]
    108 [penwidth=3,label="108"]
    109 [penwidth=3,label="109"]
    110 [penwidth=3,label="110"]
    111 [penwidth=3,label="111"]
    112 [penwidth=3,label="112"]
    113 [penwidth=3,label="113"]
    114 [penwidth=3,label="114"]
    115 [penwidth=3,label="115"]
    116 [penwidth=3,label="116"]
    117 [penwidth=3,label="117"]
    118 [penwidth=3,label="118"]
    119 [penwidth=3,label="119"]
    120 [penwidth=3,label="120"]
    121 [penwidth=3,label="121"]
    122 [penwidth=3,label="122"]
    123 [penwidth=3,label="123"]
    124 [penwidth=3,label="124"]
    125 [penwidth=3,label="125"]
    126 [penwidth=3,label="126"]
    127 [penwidth=3,label="127"]
    128 [penwidth=3,label="128"]
    129 [penwidth=3,label="129"]
    130 [penwidth=3,label="130"]
    131 [penwidth=3,label="131"]
    132 [penwidth=3,label="132"]
    133 [penwidth=3,label="133"]
    134 [penwidth=3,label="134"]
    135 [penwidth=3,label="135"]
    136 [penwidth=3,label="136"]
    137 [penwidth=3,label="137"]
    138 [penwidth=3,label="138"]
    139 [penwidth=3,label="139"]
    140 [penwidth=3,label="140"]
    141 [penwidth=3,label="141"]
    142 [penwidth=3,label="142"]
    143 [penwidth=3,label="143"]
    144 [penwidth=3,label="144"]
    145 [penwidth=3,label="145"]
    146 [penwidth=3,label="146"]
    147 [penwidth=3,label="147"]
    148 [penwidth=3,label="148"]
    149 [penwidth=3,label="149"]

    1 -> 0 [penwidth=2]
    127 -> 0 [penwidth=2]
    2 -> 0 [penwidth=2]
    128 -> 0 [penwidth=2]
    3 -> 0 [penwidth=2]
    129 -> 0 [penwidth=2]
    4 -> 0 [penwidth=2]
    130 -> 0 [penwidth=2]
    5 -> 0 [penwidth=2]
    131 -> 0 [penwidth=2]
    6 -> 0 [penwidth=2]
    132 -> 0 [penwidth=2]
    7 -> 0 [penwidth=2]
    133 -> 0 [penwidth=2]
    8 -> 0 [penwidth=2]
    134 -> 1 [penwidth=2]
    9 -> 1 [penwidth=2]
    135 -> 1 [penwidth=2]
    10 -> 1 [penwidth=2]
    136 -> 1 [penwidth=2]
    11 -> 1 [penwidth=2]
    137 -> 1 [penwidth=2]
    12 -> 1 [penwidth=2]
    138 -> 1 [penwidth=2]
    13 -> 2 [penwidth=2]
    139 -> 2 [penwidth=2]
    14 -> 2 [penwidth=2]
    140 -> 2 [penwidth=2]
    15 -> 2 [penwidth=2]
    141 -> 2 [penwidth=2]
    16 -> 2 [penwidth=2]
    142 -> 128 [penwidth=2]
    125 -> 128 [penwidth=2]
    17 -> 128 [penwidth=2]
    143 -> 128 [penwidth=2]
    18 -> 128 [penwidth=2]
    144 -> 128 [penwidth=2]
    19 -> 128 [penwidth=2]
    145 -> 128 [penwidth=2]
    20 -> 128 [penwidth=2]
    146 -> 3 [penwidth=2]
    21 -> 3 [penwidth=2]
    147 -> 3 [penwidth=2]
    126 -> 3 [penwidth=2]
    22 -> 3 [penwidth=2]
    148 -> 3 [penwidth=2]
    23 -> 3 [penwidth=2]
    149 -> 3 [penwidth=2]
    24 -> 3 [penwidth=2]
    25 -> 129 [penwidth=2]
    26 -> 129 [penwidth=2]
    27 -> 129 [penwidth=2]
    28 -> 129 [penwidth=2]
    29 -> 129 [penwidth=2]
    30 -> 4 [penwidth=2]
    31 -> 130 [penwidth=2]
    32 -> 130 [penwidth=2]
    33 -> 130 [penwidth=2]
    34 -> 130 [penwidth=2]
    35 -> 130 [penwidth=2]
    36 -> 130 [penwidth=2]
    37 -> 130 [penwidth=2]
    38 -> 130 [penwidth=2]
    39 -> 130 [penwidth=2]
    40 -> 5 [penwidth=2]
    41 -> 5 [penwidth=2]
    42 -> 5 [penwidth=2]
    43 -> 5 [penwidth=2]
    85 -> 5 [penwidth=2]
    44 -> 5 [penwidth=2]
    86 -> 131 [penwidth=2]
    45 -> 6 [penwidth=2]
    87 -> 6 [penwidth=2]
    46 -> 6 [penwidth=2]
    88 -> 6 [penwidth=2]
    47 -> 6 [penwidth=2]
    89 -> 132 [penwidth=2]
    48 -> 7 [penwidth=2]
    90 -> 7 [penwidth=2]
    49 -> 7 [penwidth=2]
    91 -> 7 [penwidth=2]
    50 -> 7 [penwidth=2]
    92 -> 7 [penwidth=2]
    51 -> 133 [penwidth=2]
    93 -> 133 [penwidth=2]
    52 -> 133 [penwidth=2]
    94 -> 133 [penwidth=2]
    53 -> 8 [penwidth=2]
    95 -> 8 [penwidth=2]
    54 -> 8 [penwidth=2]
    96 -> 8 [penwidth=2]
    55 -> 8 [penwidth=2]
    97 -> 8 [penwidth=2]
    56 -> 8 [penwidth=2]
    98 -> 8 [penwidth=2]
    57 -> 134 [penwidth=2]
    99 -> 134 [penwidth=2]
    58 -> 134 [penwidth=2]
    100 -> 134 [penwidth=2]
    59 -> 134 [penwidth=2]
    101 -> 134 [penwidth=2]
    60 -> 134 [penwidth=2]
    102 -> 134 [penwidth=2]
    61 -> 134 [penwidth=2]
    103 -> 9 [penwidth=2]
    62 -> 135 [penwidth=2]
    104 -> 135 [penwidth=2]
    63 -> 135 [penwidth=2]
    105 -> 135 [penwidth=2]
    64 -> 135 [penwidth=2]
    106 -> 135 [penwidth=2]
    65 -> 135 [penwidth=2]
    107 -> 135 [penwidth=2]
    66 -> 135 [penwidth=2]
    108 -> 10 [penwidth=2]
    67 -> 10 [penwidth=2]
    109 -> 136 [penwidth=2]
    68 -> 136 [penwidth=2]
    110 -> 136 [penwidth=2]
    69 -> 136 [penwidth=2]
    111 -> 136 [penwidth=2]
    70 -> 136 [penwidth=2]
    112 -> 11 [penwidth=2]
    71 -> 11 [penwidth=2]
    113 -> 11 [penwidth=2]
    72 -> 11 [penwidth=2]
    114 -> 11 [penwidth=2]
    73 -> 11 [penwidth=2]
    115 -> 11 [penwidth=2]
    74 -> 11 [penwidth=2]
    116 -> 11 [penwidth=2]
    75 -> 11 [penwidth=2]
    117 -> 137 [penwidth=2]
    76 -> 137 [penwidth=2]
    118 -> 137 [penwidth=2]
    77 -> 137 [penwidth=2]
    119 -> 137 [penwidth=2]
    78 -> 12 [penwidth=2]
    120 -> 12 [penwidth=2]
    79 -> 12 [penwidth=2]
    121 -> 12 [penwidth=2]
    80 -> 138 [penwidth=2]
    122 -> 138 [penwidth=2]
    81 -> 138 [penwidth=2]
    123 -> 138 [penwidth=2]
    82 -> 138 [penwidth=2]
    124 -> 13 [penwidth=2]
    83 -> 13 [penwidth=2]
    84 -> 13 [penwidth=2]
    17 -> 7 [penwidth=2]
    17 -> 3 [penwidth=2]
    17 -> 8 [penwidth=2]
    17 -> 5 [penwidth=2]
    17 -> 133 [penwidth=2]
    17 -> 132 [penwidth=2]
    17 -> 1 [penwidth=2]
    17 -> 129 [penwidth=2]
    21 -> 131 [penwidth=2]
    21 -> 6 [penwidth=2]
    126 -> 4 [penwidth=2]
    126 -> 2 [penwidth=2]
    126 -> 1 [penwidth=2]
    126 -> 127 [penwidth=2]
    126 -> 5 [penwidth=2]
    88 -> 3 [penwidth=2]
    88 -> 7 [penwidth=2]
    88 -> 130 [penwidth=2]
    88 -> 1 [penwidth=2]
    88 -> 133 [penwidth=2]
    54 -> 4 [penwidth=2]
    54 -> 2 [penwidth=2]
    54 -> 130 [penwidth=2]
    54 -> 1 [penwidth=2]
    54 -> 7 [penwidth=2]
    54 -> 131 [penwidth=2]
    54 -> 6 [penwidth=2]
    54 -> 128 [penwidth=2]
    62 -> 17 [penwidth=2]
    62 -> 126 [penwidth=2]
    62 -> 32 [penwidth=2]
    62 -> 30 [penwidth=2]
    62 -> 86 [penwidth=2]
    62 -> 20 [penwidth=2]
    62 -> 137 [penwidth=2]
    62 -> 40 [penwidth=2]
    63 -> 12 [penwidth=2]
    63 -> 139 [penwidth=2]
    105 -> 27 [penwidth=2]
    105 -> 139 [penwidth=2]
    105 -> 86 [penwidth=2]
    105 -> 56 [penwidth=2]
    105 -> 45 [penwidth=2]
    68 -> 25 [penwidth=2]
    68 -> 26 [penwidth=2]
    72 -> 44 [penwidth=2]
    72 -> 126 [penwidth=2]
    72 -> 12 [penwidth=2]
    72 -> 49 [penwidth=2]
    72 -> 137 [penwidth=2]
    72 -> 47 [penwidth=2]
    78 -> 33 [penwidth=2]
    123 -> 139 [penwidth=2]
    123 -> 48 [penwidth=2]
    123 -> 39 [penwidth=2]
}