digraph G {
    0 [penwidth=3,label="0"]
    1 [penwidth=3,label="1"]
    2 [penwidth=3,label="2"]
    3 [penwidth=3,label="3"]
    4 [penwidth=3,label="4"]
    5 [penwidth=3,label="5"]
    6 [penwidth=3,label="6"]
    7 [penwidth=3,label="7"]
    8 [penwidth=3,label="8"]
    9 [penwidth=3,label="9"]
    10 [penwidth=3,label="10"]
    11 [penwidth=3,label="11"]
    12 [penwidth=3,label="12"]
    13 [penwidth=3,label="13"]
    14 [penwidth=3,label="14"]

    11 -> 0 [penwidth=2]
    10 -> 0 [penwidth=2]
    1 -> 0 [penwidth=2]
    2 -> 0 [penwidth=2]
    7 -> 0 [penwidth=2]
    14 -> 0 [penwidth=2]
    6 -> 0 [penwidth=2]
    9 -> 11 [penwidth=2]
    8 -> 11 [penwidth=2]
    4 -> 1 [penwidth=2]
    12 -> 1 [penwidth=2]
    5 -> 1 [penwidth=2]
    3 -> 1 [penwidth=2]
    13 -> 1 [penwidth=2]
}