digraph G {
    0 [penwidth=3,label="0"]
    1 [penwidth=3,label="1"]
    2 [penwidth=3,label="2"]
    3 [penwidth=3,label="3"]
    4 [penwidth=3,label="4"]
    5 [penwidth=3,label="5"]
    6 [penwidth=3,label="6"]
    7 [penwidth=3,label="7"]
    8 [penwidth=3,label="8"]
    9 [penwidth=3,label="9"]
    10 [penwidth=3,label="10"]
    11 [penwidth=3,label="11"]
    12 [penwidth=3,label="12"]
    13 [penwidth=3,label="13"]
    14 [penwidth=3,label="14"]
    15 [penwidth=3,label="15"]
    16 [penwidth=3,label="16"]
    17 [penwidth=3,label="17"]
    18 [penwidth=3,label="18"]
    19 [penwidth=3,label="19"]
    20 [penwidth=3,label="20"]
    21 [penwidth=3,label="21"]
    22 [penwidth=3,label="22"]
    23 [penwidth=3,label="23"]
    24 [penwidth=3,label="24"]
    25 [penwidth=3,label="25"]
    26 [penwidth=3,label="26"]
    27 [penwidth=3,label="27"]
    28 [penwidth=3,label="28"]
    29 [penwidth=3,label="29"]
    30 [penwidth=3,label="30"]
    31 [penwidth=3,label="31"]
    32 [penwidth=3,label="32"]
    33 [penwidth=3,label="33"]
    34 [penwidth=3,label="34"]
    35 [penwidth=3,label="35"]
    36 [penwidth=3,label="36"]
    37 [penwidth=3,label="37"]
    38 [penwidth=3,label="38"]
    39 [penwidth=3,label="39"]
    40 [penwidth=3,label="40"]
    41 [penwidth=3,label="41"]
    42 [penwidth=3,label="42"]
    43 [penwidth=3,label="43"]
    44 [penwidth=3,label="44"]
    45 [penwidth=3,label="45"]
    46 [penwidth=3,label="46"]
    47 [penwidth=3,label="47"]
    48 [penwidth=3,label="48"]
    49 [penwidth=3,label="49"]
    50 [penwidth=3,label="50"]
    51 [penwidth=3,label="51"]
    52 [penwidth=3,label="52"]
    53 [penwidth=3,label="53"]
    54 [penwidth=3,label="54"]
    55 [penwidth=3,label="55"]
    56 [penwidth=3,label="56"]
    57 [penwidth=3,label="57"]
    58 [penwidth=3,label="58"]
    59 [penwidth=3,label="59"]
    60 [penwidth=3,label="60"]
    61 [penwidth=3,label="61"]
    62 [penwidth=3,label="62"]
    63 [penwidth=3,label="63"]
    64 [penwidth=3,label="64"]
    65 [penwidth=3,label="65"]
    66 [penwidth=3,label="66"]
    67 [penwidth=3,label="67"]
    68 [penwidth=3,label="68"]
    69 [penwidth=3,label="69"]
    70 [penwidth=3,label="70"]
    71 [penwidth=3,label="71"]
    72 [penwidth=3,label="72"]
    73 [penwidth=3,label="73"]
    74 [penwidth=3,label="74"]
    75 [penwidth=3,label="75"]
    76 [penwidth=3,label="76"]
    77 [penwidth=3,label="77"]
    78 [penwidth=3,label="78"]
    79 [penwidth=3,label="79"]
    80 [penwidth=3,label="80"]
    81 [penwidth=3,label="81"]
    82 [penwidth=3,label="82"]
    83 [penwidth=3,label="83"]
    84 [penwidth=3,label="84"]
    85 [penwidth=3,label="85"]
    86 [penwidth=3,label="86"]
    87 [penwidth=3,label="87"]
    88 [penwidth=3,label="88"]
    89 [penwidth=3,label="89"]
    90 [penwidth=3,label="90"]
    91 [penwidth=3,label="91"]
    92 [penwidth=3,label="92"]
    93 [penwidth=3,label="93"]
    94 [penwidth=3,label="94"]
    95 [penwidth=3,label="95"]
    96 [penwidth=3,label="96"]
    97 [penwidth=3,label="97"]
    98 [penwidth=3,label="98"]
    99 [penwidth=3,label="99"]
    100 [penwidth=3,label="100"]
    101 [penwidth=3,label="101"]
    102 [penwidth=3,label="102"]
    103 [penwidth=3,label="103"]
    104 [penwidth=3,label="104"]
    105 [penwidth=3,label="105"]
    106 [penwidth=3,label="106"]
    107 [penwidth=3,label="107"]
    108 [penwidth=3,label="108"]
    109 [penwidth=3,label="109"]
    110 [penwidth=3,label="110"]
    111 [penwidth=3,label="111"]
    112 [penwidth=3,label="112"]
    113 [penwidth=3,label="113"]
    114 [penwidth=3,label="114"]
    115 [penwidth=3,label="115"]
    116 [penwidth=3,label="116"]
    117 [penwidth=3,label="117"]
    118 [penwidth=3,label="118"]
    119 [penwidth=3,label="119"]
    120 [penwidth=3,label="120"]
    121 [penwidth=3,label="121"]
    122 [penwidth=3,label="122"]
    123 [penwidth=3,label="123"]
    124 [penwidth=3,label="124"]
    125 [penwidth=3,label="125"]
    126 [penwidth=3,label="126"]
    127 [penwidth=3,label="127"]
    128 [penwidth=3,label="128"]
    129 [penwidth=3,label="129"]
    130 [penwidth=3,label="130"]
    131 [penwidth=3,label="131"]
    132 [penwidth=3,label="132"]
    133 [penwidth=3,label="133"]
    134 [penwidth=3,label="134"]
    135 [penwidth=3,label="135"]
    136 [penwidth=3,label="136"]
    137 [penwidth=3,label="137"]
    138 [penwidth=3,label="138"]
    139 [penwidth=3,label="139"]
    140 [penwidth=3,label="140"]
    141 [penwidth=3,label="141"]
    142 [penwidth=3,label="142"]
    143 [penwidth=3,label="143"]
    144 [penwidth=3,label="144"]
    145 [penwidth=3,label="145"]
    146 [penwidth=3,label="146"]
    147 [penwidth=3,label="147"]
    148 [penwidth=3,label="148"]
    149 [penwidth=3,label="149"]
    150 [penwidth=3,label="150"]
    151 [penwidth=3,label="151"]
    152 [penwidth=3,label="152"]
    153 [penwidth=3,label="153"]
    154 [penwidth=3,label="154"]
    155 [penwidth=3,label="155"]
    156 [penwidth=3,label="156"]
    157 [penwidth=3,label="157"]
    158 [penwidth=3,label="158"]
    159 [penwidth=3,label="159"]
    160 [penwidth=3,label="160"]
    161 [penwidth=3,label="161"]
    162 [penwidth=3,label="162"]
    163 [penwidth=3,label="163"]
    164 [penwidth=3,label="164"]
    165 [penwidth=3,label="165"]
    166 [penwidth=3,label="166"]
    167 [penwidth=3,label="167"]
    168 [penwidth=3,label="168"]
    169 [penwidth=3,label="169"]
    170 [penwidth=3,label="170"]
    171 [penwidth=3,label="171"]
    172 [penwidth=3,label="172"]
    173 [penwidth=3,label="173"]
    174 [penwidth=3,label="174"]
    175 [penwidth=3,label="175"]
    176 [penwidth=3,label="176"]
    177 [penwidth=3,label="177"]
    178 [penwidth=3,label="178"]
    179 [penwidth=3,label="179"]
    180 [penwidth=3,label="180"]
    181 [penwidth=3,label="181"]
    182 [penwidth=3,label="182"]
    183 [penwidth=3,label="183"]
    184 [penwidth=3,label="184"]
    185 [penwidth=3,label="185"]
    186 [penwidth=3,label="186"]
    187 [penwidth=3,label="187"]
    188 [penwidth=3,label="188"]
    189 [penwidth=3,label="189"]
    190 [penwidth=3,label="190"]
    191 [penwidth=3,label="191"]
    192 [penwidth=3,label="192"]
    193 [penwidth=3,label="193"]
    194 [penwidth=3,label="194"]
    195 [penwidth=3,label="195"]
    196 [penwidth=3,label="196"]
    197 [penwidth=3,label="197"]
    198 [penwidth=3,label="198"]
    199 [penwidth=3,label="199"]

    38 -> 0 [penwidth=2]
    122 -> 0 [penwidth=2]
    164 -> 0 [penwidth=2]
    39 -> 0 [penwidth=2]
    123 -> 0 [penwidth=2]
    165 -> 0 [penwidth=2]
    40 -> 0 [penwidth=2]
    124 -> 0 [penwidth=2]
    166 -> 0 [penwidth=2]
    41 -> 0 [penwidth=2]
    125 -> 38 [penwidth=2]
    167 -> 38 [penwidth=2]
    42 -> 38 [penwidth=2]
    126 -> 122 [penwidth=2]
    168 -> 122 [penwidth=2]
    1 -> 122 [penwidth=2]
    43 -> 122 [penwidth=2]
    127 -> 122 [penwidth=2]
    169 -> 122 [penwidth=2]
    2 -> 122 [penwidth=2]
    44 -> 122 [penwidth=2]
    128 -> 164 [penwidth=2]
    170 -> 164 [penwidth=2]
    3 -> 39 [penwidth=2]
    45 -> 39 [penwidth=2]
    129 -> 39 [penwidth=2]
    171 -> 39 [penwidth=2]
    4 -> 39 [penwidth=2]
    46 -> 39 [penwidth=2]
    130 -> 39 [penwidth=2]
    172 -> 39 [penwidth=2]
    5 -> 39 [penwidth=2]
    47 -> 123 [penwidth=2]
    131 -> 123 [penwidth=2]
    173 -> 123 [penwidth=2]
    6 -> 123 [penwidth=2]
    48 -> 123 [penwidth=2]
    132 -> 123 [penwidth=2]
    174 -> 123 [penwidth=2]
    7 -> 123 [penwidth=2]
    49 -> 165 [penwidth=2]
    133 -> 165 [penwidth=2]
    175 -> 165 [penwidth=2]
    8 -> 40 [penwidth=2]
    50 -> 40 [penwidth=2]
    134 -> 40 [penwidth=2]
    176 -> 40 [penwidth=2]
    9 -> 40 [penwidth=2]
    51 -> 40 [penwidth=2]
    135 -> 40 [penwidth=2]
    177 -> 40 [penwidth=2]
    10 -> 40 [penwidth=2]
    52 -> 124 [penwidth=2]
    136 -> 124 [penwidth=2]
    178 -> 124 [penwidth=2]
    11 -> 124 [penwidth=2]
    53 -> 124 [penwidth=2]
    137 -> 124 [penwidth=2]
    179 -> 124 [penwidth=2]
    12 -> 124 [penwidth=2]
    54 -> 124 [penwidth=2]
    138 -> 166 [penwidth=2]
    180 -> 166 [penwidth=2]
    13 -> 166 [penwidth=2]
    55 -> 166 [penwidth=2]
    139 -> 166 [penwidth=2]
    181 -> 166 [penwidth=2]
    14 -> 166 [penwidth=2]
    56 -> 166 [penwidth=2]
    140 -> 166 [penwidth=2]
    182 -> 41 [penwidth=2]
    15 -> 41 [penwidth=2]
    57 -> 41 [penwidth=2]
    141 -> 41 [penwidth=2]
    183 -> 41 [penwidth=2]
    58 -> 41 [penwidth=2]
    16 -> 41 [penwidth=2]
    142 -> 41 [penwidth=2]
    184 -> 125 [penwidth=2]
    17 -> 125 [penwidth=2]
    59 -> 125 [penwidth=2]
    143 -> 125 [penwidth=2]
    185 -> 125 [penwidth=2]
    18 -> 125 [penwidth=2]
    60 -> 125 [penwidth=2]
    144 -> 167 [penwidth=2]
    186 -> 167 [penwidth=2]
    19 -> 167 [penwidth=2]
    61 -> 167 [penwidth=2]
    145 -> 167 [penwidth=2]
    187 -> 42 [penwidth=2]
    20 -> 42 [penwidth=2]
    62 -> 42 [penwidth=2]
    146 -> 42 [penwidth=2]
    188 -> 42 [penwidth=2]
    21 -> 42 [penwidth=2]
    63 -> 42 [penwidth=2]
    147 -> 126 [penwidth=2]
    189 -> 126 [penwidth=2]
    22 -> 126 [penwidth=2]
    64 -> 1 [penwidth=2]
    148 -> 1 [penwidth=2]
    190 -> 1 [penwidth=2]
    23 -> 43 [penwidth=2]
    65 -> 43 [penwidth=2]
    149 -> 43 [penwidth=2]
    191 -> 43 [penwidth=2]
    24 -> 43 [penwidth=2]
    66 -> 43 [penwidth=2]
    150 -> 43 [penwidth=2]
    192 -> 43 [penwidth=2]
    25 -> 169 [penwidth=2]
    67 -> 169 [penwidth=2]
    151 -> 169 [penwidth=2]
    193 -> 2 [penwidth=2]
    26 -> 2 [penwidth=2]
    68 -> 2 [penwidth=2]
    152 -> 44 [penwidth=2]
    194 -> 44 [penwidth=2]
    27 -> 44 [penwidth=2]
    69 -> 44 [penwidth=2]
    153 -> 44 [penwidth=2]
    195 -> 44 [penwidth=2]
    28 -> 44 [penwidth=2]
    70 -> 44 [penwidth=2]
    154 -> 128 [penwidth=2]
    196 -> 128 [penwidth=2]
    29 -> 128 [penwidth=2]
    71 -> 170 [penwidth=2]
    155 -> 170 [penwidth=2]
    197 -> 170 [penwidth=2]
    30 -> 170 [penwidth=2]
    72 -> 170 [penwidth=2]
    156 -> 170 [penwidth=2]
    198 -> 170 [penwidth=2]
    31 -> 170 [penwidth=2]
    73 -> 170 [penwidth=2]
    157 -> 3 [penwidth=2]
    199 -> 45 [penwidth=2]
    32 -> 129 [penwidth=2]
    74 -> 129 [penwidth=2]
    158 -> 129 [penwidth=2]
    33 -> 129 [penwidth=2]
    75 -> 129 [penwidth=2]
    159 -> 129 [penwidth=2]
    34 -> 129 [penwidth=2]
    76 -> 129 [penwidth=2]
    160 -> 129 [penwidth=2]
    35 -> 171 [penwidth=2]
    77 -> 171 [penwidth=2]
    161 -> 171 [penwidth=2]
    36 -> 171 [penwidth=2]
    78 -> 171 [penwidth=2]
    162 -> 4 [penwidth=2]
    37 -> 46 [penwidth=2]
    79 -> 46 [penwidth=2]
    163 -> 46 [penwidth=2]
    80 -> 46 [penwidth=2]
    81 -> 46 [penwidth=2]
    82 -> 46 [penwidth=2]
    83 -> 130 [penwidth=2]
    84 -> 172 [penwidth=2]
    85 -> 172 [penwidth=2]
    86 -> 172 [penwidth=2]
    87 -> 172 [penwidth=2]
    88 -> 5 [penwidth=2]
    89 -> 5 [penwidth=2]
    90 -> 5 [penwidth=2]
    91 -> 5 [penwidth=2]
    92 -> 5 [penwidth=2]
    93 -> 47 [penwidth=2]
    94 -> 47 [penwidth=2]
    95 -> 47 [penwidth=2]
    96 -> 47 [penwidth=2]
    97 -> 47 [penwidth=2]
    98 -> 47 [penwidth=2]
    99 -> 47 [penwidth=2]
    100 -> 47 [penwidth=2]
    101 -> 47 [penwidth=2]
    102 -> 131 [penwidth=2]
    103 -> 131 [penwidth=2]
    104 -> 131 [penwidth=2]
    105 -> 131 [penwidth=2]
    106 -> 131 [penwidth=2]
    107 -> 131 [penwidth=2]
    108 -> 173 [penwidth=2]
    109 -> 173 [penwidth=2]
    110 -> 173 [penwidth=2]
    111 -> 173 [penwidth=2]
    112 -> 6 [penwidth=2]
    113 -> 6 [penwidth=2]
    114 -> 48 [penwidth=2]
    115 -> 48 [penwidth=2]
    116 -> 48 [penwidth=2]
    117 -> 48 [penwidth=2]
    118 -> 48 [penwidth=2]
    119 -> 48 [penwidth=2]
    120 -> 48 [penwidth=2]
    121 -> 48 [penwidth=2]
    45 -> 41 [penwidth=2]
    45 -> 123 [penwidth=2]
    129 -> 166 [penwidth=2]
    46 -> 164 [penwidth=2]
    178 -> 122 [penwidth=2]
    143 -> 171 [penwidth=2]
    143 -> 45 [penwidth=2]
    20 -> 5 [penwidth=2]
    20 -> 179 [penwidth=2]
    20 -> 56 [penwidth=2]
    20 -> 128 [penwidth=2]
    147 -> 16 [penwidth=2]
    147 -> 10 [penwidth=2]
    189 -> 168 [penwidth=2]
    189 -> 171 [penwidth=2]
    189 -> 45 [penwidth=2]
    189 -> 176 [penwidth=2]
    189 -> 177 [penwidth=2]
    24 -> 2 [penwidth=2]
    70 -> 2 [penwidth=2]
    70 -> 175 [penwidth=2]
    70 -> 140 [penwidth=2]
    70 -> 137 [penwidth=2]
    157 -> 44 [penwidth=2]
    157 -> 142 [penwidth=2]
    32 -> 58 [penwidth=2]
    35 -> 13 [penwidth=2]
    35 -> 179 [penwidth=2]
    35 -> 45 [penwidth=2]
    35 -> 2 [penwidth=2]
    78 -> 10 [penwidth=2]
    78 -> 138 [penwidth=2]
    78 -> 173 [penwidth=2]
    95 -> 171 [penwidth=2]
    95 -> 126 [penwidth=2]
    95 -> 135 [penwidth=2]
    95 -> 176 [penwidth=2]
    95 -> 8 [penwidth=2]
    107 -> 171 [penwidth=2]
    109 -> 3 [penwidth=2]
    117 -> 54 [penwidth=2]
}