digraph G {
    0 [penwidth=3,label="0"]
    1 [penwidth=3,label="1"]
    2 [penwidth=3,label="2"]
    3 [penwidth=3,label="3"]
    4 [penwidth=3,label="4"]
    5 [penwidth=3,label="5"]
    6 [penwidth=3,label="6"]
    7 [penwidth=3,label="7"]
    8 [penwidth=3,label="8"]
    9 [penwidth=3,label="9"]
    10 [penwidth=3,label="10"]
    11 [penwidth=3,label="11"]
    12 [penwidth=3,label="12"]
    13 [penwidth=3,label="13"]
    14 [penwidth=3,label="14"]
    15 [penwidth=3,label="15"]
    16 [penwidth=3,label="16"]
    17 [penwidth=3,label="17"]
    18 [penwidth=3,label="18"]
    19 [penwidth=3,label="19"]

    5 -> 0 [penwidth=2]
    9 -> 0 [penwidth=2]
    18 -> 0 [penwidth=2]
    14 -> 0 [penwidth=2]
    16 -> 0 [penwidth=2]
    19 -> 0 [penwidth=2]
    10 -> 0 [penwidth=2]
    7 -> 0 [penwidth=2]
    3 -> 5 [penwidth=2]
    2 -> 5 [penwidth=2]
    15 -> 5 [penwidth=2]
    1 -> 9 [penwidth=2]
    17 -> 9 [penwidth=2]
    8 -> 9 [penwidth=2]
    4 -> 9 [penwidth=2]
    13 -> 9 [penwidth=2]
    6 -> 18 [penwidth=2]
    11 -> 18 [penwidth=2]
    12 -> 18 [penwidth=2]
}