digraph G {
    0 [penwidth=3,label="0"]
    1 [penwidth=3,label="1"]
    2 [penwidth=3,label="2"]
    3 [penwidth=3,label="3"]
    4 [penwidth=3,label="4"]
    5 [penwidth=3,label="5"]
    6 [penwidth=3,label="6"]
    7 [penwidth=3,label="7"]
    8 [penwidth=3,label="8"]
    9 [penwidth=3,label="9"]
    10 [penwidth=3,label="10"]
    11 [penwidth=3,label="11"]
    12 [penwidth=3,label="12"]
    13 [penwidth=3,label="13"]
    14 [penwidth=3,label="14"]
    15 [penwidth=3,label="15"]
    16 [penwidth=3,label="16"]
    17 [penwidth=3,label="17"]
    18 [penwidth=3,label="18"]
    19 [penwidth=3,label="19"]
    20 [penwidth=3,label="20"]
    21 [penwidth=3,label="21"]
    22 [penwidth=3,label="22"]
    23 [penwidth=3,label="23"]
    24 [penwidth=3,label="24"]
    25 [penwidth=3,label="25"]
    26 [penwidth=3,label="26"]
    27 [penwidth=3,label="27"]
    28 [penwidth=3,label="28"]
    29 [penwidth=3,label="29"]
    30 [penwidth=3,label="30"]
    31 [penwidth=3,label="31"]
    32 [penwidth=3,label="32"]
    33 [penwidth=3,label="33"]
    34 [penwidth=3,label="34"]
    35 [penwidth=3,label="35"]
    36 [penwidth=3,label="36"]
    37 [penwidth=3,label="37"]
    38 [penwidth=3,label="38"]
    39 [penwidth=3,label="39"]
    40 [penwidth=3,label="40"]
    41 [penwidth=3,label="41"]
    42 [penwidth=3,label="42"]
    43 [penwidth=3,label="43"]
    44 [penwidth=3,label="44"]
    45 [penwidth=3,label="45"]
    46 [penwidth=3,label="46"]
    47 [penwidth=3,label="47"]
    48 [penwidth=3,label="48"]
    49 [penwidth=3,label="49"]
    50 [penwidth=3,label="50"]
    51 [penwidth=3,label="51"]
    52 [penwidth=3,label="52"]
    53 [penwidth=3,label="53"]
    54 [penwidth=3,label="54"]
    55 [penwidth=3,label="55"]
    56 [penwidth=3,label="56"]
    57 [penwidth=3,label="57"]
    58 [penwidth=3,label="58"]
    59 [penwidth=3,label="59"]
    60 [penwidth=3,label="60"]
    61 [penwidth=3,label="61"]
    62 [penwidth=3,label="62"]
    63 [penwidth=3,label="63"]
    64 [penwidth=3,label="64"]
    65 [penwidth=3,label="65"]
    66 [penwidth=3,label="66"]
    67 [penwidth=3,label="67"]
    68 [penwidth=3,label="68"]
    69 [penwidth=3,label="69"]
    70 [penwidth=3,label="70"]
    71 [penwidth=3,label="71"]
    72 [penwidth=3,label="72"]
    73 [penwidth=3,label="73"]
    74 [penwidth=3,label="74"]
    75 [penwidth=3,label="75"]
    76 [penwidth=3,label="76"]
    77 [penwidth=3,label="77"]
    78 [penwidth=3,label="78"]
    79 [penwidth=3,label="79"]
    80 [penwidth=3,label="80"]
    81 [penwidth=3,label="81"]
    82 [penwidth=3,label="82"]
    83 [penwidth=3,label="83"]
    84 [penwidth=3,label="84"]
    85 [penwidth=3,label="85"]
    86 [penwidth=3,label="86"]
    87 [penwidth=3,label="87"]
    88 [penwidth=3,label="88"]
    89 [penwidth=3,label="89"]
    90 [penwidth=3,label="90"]
    91 [penwidth=3,label="91"]
    92 [penwidth=3,label="92"]
    93 [penwidth=3,label="93"]
    94 [penwidth=3,label="94"]
    95 [penwidth=3,label="95"]
    96 [penwidth=3,label="96"]
    97 [penwidth=3,label="97"]
    98 [penwidth=3,label="98"]
    99 [penwidth=3,label="99"]
    100 [penwidth=3,label="100"]
    101 [penwidth=3,label="101"]
    102 [penwidth=3,label="102"]
    103 [penwidth=3,label="103"]
    104 [penwidth=3,label="104"]
    105 [penwidth=3,label="105"]
    106 [penwidth=3,label="106"]
    107 [penwidth=3,label="107"]
    108 [penwidth=3,label="108"]
    109 [penwidth=3,label="109"]
    110 [penwidth=3,label="110"]
    111 [penwidth=3,label="111"]
    112 [penwidth=3,label="112"]
    113 [penwidth=3,label="113"]
    114 [penwidth=3,label="114"]
    115 [penwidth=3,label="115"]
    116 [penwidth=3,label="116"]
    117 [penwidth=3,label="117"]
    118 [penwidth=3,label="118"]
    119 [penwidth=3,label="119"]
    120 [penwidth=3,label="120"]
    121 [penwidth=3,label="121"]
    122 [penwidth=3,label="122"]
    123 [penwidth=3,label="123"]
    124 [penwidth=3,label="124"]
    125 [penwidth=3,label="125"]
    126 [penwidth=3,label="126"]
    127 [penwidth=3,label="127"]
    128 [penwidth=3,label="128"]
    129 [penwidth=3,label="129"]
    130 [penwidth=3,label="130"]
    131 [penwidth=3,label="131"]
    132 [penwidth=3,label="132"]
    133 [penwidth=3,label="133"]
    134 [penwidth=3,label="134"]
    135 [penwidth=3,label="135"]
    136 [penwidth=3,label="136"]
    137 [penwidth=3,label="137"]
    138 [penwidth=3,label="138"]
    139 [penwidth=3,label="139"]
    140 [penwidth=3,label="140"]
    141 [penwidth=3,label="141"]
    142 [penwidth=3,label="142"]
    143 [penwidth=3,label="143"]
    144 [penwidth=3,label="144"]
    145 [penwidth=3,label="145"]
    146 [penwidth=3,label="146"]
    147 [penwidth=3,label="147"]
    148 [penwidth=3,label="148"]
    149 [penwidth=3,label="149"]
    150 [penwidth=3,label="150"]
    151 [penwidth=3,label="151"]
    152 [penwidth=3,label="152"]
    153 [penwidth=3,label="153"]
    154 [penwidth=3,label="154"]
    155 [penwidth=3,label="155"]
    156 [penwidth=3,label="156"]
    157 [penwidth=3,label="157"]
    158 [penwidth=3,label="158"]
    159 [penwidth=3,label="159"]
    160 [penwidth=3,label="160"]
    161 [penwidth=3,label="161"]
    162 [penwidth=3,label="162"]
    163 [penwidth=3,label="163"]
    164 [penwidth=3,label="164"]
    165 [penwidth=3,label="165"]
    166 [penwidth=3,label="166"]
    167 [penwidth=3,label="167"]
    168 [penwidth=3,label="168"]
    169 [penwidth=3,label="169"]
    170 [penwidth=3,label="170"]
    171 [penwidth=3,label="171"]
    172 [penwidth=3,label="172"]
    173 [penwidth=3,label="173"]
    174 [penwidth=3,label="174"]
    175 [penwidth=3,label="175"]
    176 [penwidth=3,label="176"]
    177 [penwidth=3,label="177"]
    178 [penwidth=3,label="178"]
    179 [penwidth=3,label="179"]
    180 [penwidth=3,label="180"]
    181 [penwidth=3,label="181"]
    182 [penwidth=3,label="182"]
    183 [penwidth=3,label="183"]
    184 [penwidth=3,label="184"]
    185 [penwidth=3,label="185"]
    186 [penwidth=3,label="186"]
    187 [penwidth=3,label="187"]
    188 [penwidth=3,label="188"]
    189 [penwidth=3,label="189"]
    190 [penwidth=3,label="190"]
    191 [penwidth=3,label="191"]
    192 [penwidth=3,label="192"]
    193 [penwidth=3,label="193"]
    194 [penwidth=3,label="194"]
    195 [penwidth=3,label="195"]
    196 [penwidth=3,label="196"]
    197 [penwidth=3,label="197"]
    198 [penwidth=3,label="198"]
    199 [penwidth=3,label="199"]
    200 [penwidth=3,label="200"]
    201 [penwidth=3,label="201"]
    202 [penwidth=3,label="202"]
    203 [penwidth=3,label="203"]
    204 [penwidth=3,label="204"]
    205 [penwidth=3,label="205"]
    206 [penwidth=3,label="206"]
    207 [penwidth=3,label="207"]
    208 [penwidth=3,label="208"]
    209 [penwidth=3,label="209"]
    210 [penwidth=3,label="210"]
    211 [penwidth=3,label="211"]
    212 [penwidth=3,label="212"]
    213 [penwidth=3,label="213"]
    214 [penwidth=3,label="214"]
    215 [penwidth=3,label="215"]
    216 [penwidth=3,label="216"]
    217 [penwidth=3,label="217"]
    218 [penwidth=3,label="218"]
    219 [penwidth=3,label="219"]
    220 [penwidth=3,label="220"]
    221 [penwidth=3,label="221"]
    222 [penwidth=3,label="222"]
    223 [penwidth=3,label="223"]
    224 [penwidth=3,label="224"]
    225 [penwidth=3,label="225"]
    226 [penwidth=3,label="226"]
    227 [penwidth=3,label="227"]
    228 [penwidth=3,label="228"]
    229 [penwidth=3,label="229"]
    230 [penwidth=3,label="230"]
    231 [penwidth=3,label="231"]
    232 [penwidth=3,label="232"]
    233 [penwidth=3,label="233"]
    234 [penwidth=3,label="234"]
    235 [penwidth=3,label="235"]
    236 [penwidth=3,label="236"]
    237 [penwidth=3,label="237"]
    238 [penwidth=3,label="238"]
    239 [penwidth=3,label="239"]
    240 [penwidth=3,label="240"]
    241 [penwidth=3,label="241"]
    242 [penwidth=3,label="242"]
    243 [penwidth=3,label="243"]
    244 [penwidth=3,label="244"]
    245 [penwidth=3,label="245"]
    246 [penwidth=3,label="246"]
    247 [penwidth=3,label="247"]
    248 [penwidth=3,label="248"]
    249 [penwidth=3,label="249"]

    249 -> 0 [penwidth=2]
    184 -> 0 [penwidth=2]
    248 -> 0 [penwidth=2]
    198 -> 0 [penwidth=2]
    247 -> 0 [penwidth=2]
    132 -> 0 [penwidth=2]
    175 -> 0 [penwidth=2]
    172 -> 0 [penwidth=2]
    169 -> 0 [penwidth=2]
    171 -> 0 [penwidth=2]
    131 -> 0 [penwidth=2]
    176 -> 0 [penwidth=2]
    168 -> 0 [penwidth=2]
    174 -> 0 [penwidth=2]
    142 -> 0 [penwidth=2]
    173 -> 0 [penwidth=2]
    218 -> 0 [penwidth=2]
    167 -> 0 [penwidth=2]
    140 -> 0 [penwidth=2]
    189 -> 0 [penwidth=2]
    243 -> 249 [penwidth=2]
    185 -> 249 [penwidth=2]
    166 -> 249 [penwidth=2]
    219 -> 249 [penwidth=2]
    141 -> 249 [penwidth=2]
    170 -> 249 [penwidth=2]
    197 -> 249 [penwidth=2]
    244 -> 184 [penwidth=2]
    190 -> 184 [penwidth=2]
    165 -> 184 [penwidth=2]
    226 -> 184 [penwidth=2]
    186 -> 184 [penwidth=2]
    245 -> 184 [penwidth=2]
    164 -> 184 [penwidth=2]
    196 -> 184 [penwidth=2]
    163 -> 184 [penwidth=2]
    227 -> 184 [penwidth=2]
    162 -> 248 [penwidth=2]
    191 -> 248 [penwidth=2]
    228 -> 248 [penwidth=2]
    161 -> 198 [penwidth=2]
    187 -> 198 [penwidth=2]
    225 -> 198 [penwidth=2]
    160 -> 198 [penwidth=2]
    195 -> 198 [penwidth=2]
    139 -> 198 [penwidth=2]
    192 -> 198 [penwidth=2]
    188 -> 198 [penwidth=2]
    246 -> 198 [penwidth=2]
    159 -> 198 [penwidth=2]
    229 -> 198 [penwidth=2]
    138 -> 198 [penwidth=2]
    194 -> 247 [penwidth=2]
    216 -> 247 [penwidth=2]
    193 -> 247 [penwidth=2]
    158 -> 247 [penwidth=2]
    210 -> 247 [penwidth=2]
    236 -> 247 [penwidth=2]
    179 -> 247 [penwidth=2]
    217 -> 247 [penwidth=2]
    157 -> 247 [penwidth=2]
    180 -> 247 [penwidth=2]
    230 -> 247 [penwidth=2]
    137 -> 247 [penwidth=2]
    156 -> 175 [penwidth=2]
    181 -> 175 [penwidth=2]
    224 -> 175 [penwidth=2]
    155 -> 175 [penwidth=2]
    207 -> 175 [penwidth=2]
    154 -> 175 [penwidth=2]
    183 -> 172 [penwidth=2]
    10 -> 172 [penwidth=2]
    153 -> 172 [penwidth=2]
    211 -> 172 [penwidth=2]
    223 -> 172 [penwidth=2]
    231 -> 172 [penwidth=2]
    242 -> 172 [penwidth=2]
    208 -> 172 [penwidth=2]
    152 -> 172 [penwidth=2]
    1 -> 172 [penwidth=2]
    136 -> 172 [penwidth=2]
    209 -> 172 [penwidth=2]
    178 -> 169 [penwidth=2]
    214 -> 169 [penwidth=2]
    215 -> 169 [penwidth=2]
    135 -> 169 [penwidth=2]
    203 -> 169 [penwidth=2]
    2 -> 169 [penwidth=2]
    151 -> 169 [penwidth=2]
    150 -> 169 [penwidth=2]
    206 -> 169 [penwidth=2]
    239 -> 169 [penwidth=2]
    3 -> 169 [penwidth=2]
    232 -> 169 [penwidth=2]
    149 -> 169 [penwidth=2]
    205 -> 171 [penwidth=2]
    4 -> 171 [penwidth=2]
    233 -> 171 [penwidth=2]
    148 -> 171 [penwidth=2]
    204 -> 171 [penwidth=2]
    237 -> 171 [penwidth=2]
    5 -> 171 [penwidth=2]
    222 -> 171 [penwidth=2]
    147 -> 171 [penwidth=2]
    199 -> 131 [penwidth=2]
    6 -> 131 [penwidth=2]
    146 -> 131 [penwidth=2]
    7 -> 131 [penwidth=2]
    177 -> 131 [penwidth=2]
    221 -> 131 [penwidth=2]
    145 -> 131 [penwidth=2]
    238 -> 131 [penwidth=2]
    8 -> 131 [penwidth=2]
    234 -> 131 [penwidth=2]
    144 -> 176 [penwidth=2]
    202 -> 176 [penwidth=2]
    240 -> 176 [penwidth=2]
    9 -> 176 [penwidth=2]
    133 -> 176 [penwidth=2]
    201 -> 176 [penwidth=2]
    220 -> 176 [penwidth=2]
    200 -> 176 [penwidth=2]
    143 -> 176 [penwidth=2]
    212 -> 168 [penwidth=2]
    134 -> 168 [penwidth=2]
    241 -> 168 [penwidth=2]
    182 -> 168 [penwidth=2]
    235 -> 168 [penwidth=2]
    213 -> 168 [penwidth=2]
    74 -> 168 [penwidth=2]
    110 -> 168 [penwidth=2]
    13 -> 168 [penwidth=2]
    73 -> 174 [penwidth=2]
    119 -> 174 [penwidth=2]
    12 -> 174 [penwidth=2]
    62 -> 174 [penwidth=2]
    118 -> 174 [penwidth=2]
    11 -> 173 [penwidth=2]
    60 -> 173 [penwidth=2]
    114 -> 173 [penwidth=2]
    34 -> 173 [penwidth=2]
    58 -> 173 [penwidth=2]
    116 -> 173 [penwidth=2]
    26 -> 173 [penwidth=2]
    56 -> 173 [penwidth=2]
    117 -> 173 [penwidth=2]
    45 -> 173 [penwidth=2]
    64 -> 173 [penwidth=2]
    113 -> 173 [penwidth=2]
    43 -> 173 [penwidth=2]
    63 -> 218 [penwidth=2]
    112 -> 218 [penwidth=2]
    42 -> 218 [penwidth=2]
    61 -> 218 [penwidth=2]
    121 -> 218 [penwidth=2]
    29 -> 218 [penwidth=2]
    59 -> 218 [penwidth=2]
    120 -> 218 [penwidth=2]
    22 -> 218 [penwidth=2]
    57 -> 218 [penwidth=2]
    115 -> 167 [penwidth=2]
    23 -> 167 [penwidth=2]
    124 -> 167 [penwidth=2]
    44 -> 167 [penwidth=2]
    86 -> 140 [penwidth=2]
    123 -> 140 [penwidth=2]
    18 -> 140 [penwidth=2]
    82 -> 140 [penwidth=2]
    122 -> 140 [penwidth=2]
    41 -> 140 [penwidth=2]
    72 -> 140 [penwidth=2]
    128 -> 140 [penwidth=2]
    40 -> 189 [penwidth=2]
    85 -> 189 [penwidth=2]
    127 -> 189 [penwidth=2]
    39 -> 189 [penwidth=2]
    96 -> 189 [penwidth=2]
    67 -> 189 [penwidth=2]
    130 -> 189 [penwidth=2]
    20 -> 189 [penwidth=2]
    79 -> 189 [penwidth=2]
    129 -> 189 [penwidth=2]
    38 -> 185 [penwidth=2]
    78 -> 185 [penwidth=2]
    111 -> 185 [penwidth=2]
    31 -> 185 [penwidth=2]
    77 -> 185 [penwidth=2]
    125 -> 185 [penwidth=2]
    76 -> 185 [penwidth=2]
    21 -> 185 [penwidth=2]
    126 -> 185 [penwidth=2]
    27 -> 185 [penwidth=2]
    93 -> 185 [penwidth=2]
    68 -> 166 [penwidth=2]
    88 -> 166 [penwidth=2]
    19 -> 166 [penwidth=2]
    66 -> 166 [penwidth=2]
    25 -> 219 [penwidth=2]
    109 -> 219 [penwidth=2]
    65 -> 219 [penwidth=2]
    17 -> 219 [penwidth=2]
    33 -> 219 [penwidth=2]
    87 -> 219 [penwidth=2]
    108 -> 141 [penwidth=2]
    98 -> 141 [penwidth=2]
    35 -> 141 [penwidth=2]
    80 -> 141 [penwidth=2]
    71 -> 170 [penwidth=2]
    99 -> 170 [penwidth=2]
    24 -> 170 [penwidth=2]
    107 -> 170 [penwidth=2]
    37 -> 170 [penwidth=2]
    81 -> 170 [penwidth=2]
    92 -> 170 [penwidth=2]
    30 -> 170 [penwidth=2]
    53 -> 170 [penwidth=2]
    106 -> 170 [penwidth=2]
    91 -> 170 [penwidth=2]
    36 -> 197 [penwidth=2]
    54 -> 197 [penwidth=2]
    16 -> 244 [penwidth=2]
    55 -> 244 [penwidth=2]
    105 -> 244 [penwidth=2]
    32 -> 244 [penwidth=2]
    50 -> 244 [penwidth=2]
    97 -> 244 [penwidth=2]
    28 -> 244 [penwidth=2]
    52 -> 244 [penwidth=2]
    104 -> 244 [penwidth=2]
    95 -> 190 [penwidth=2]
    14 -> 190 [penwidth=2]
    51 -> 190 [penwidth=2]
    94 -> 190 [penwidth=2]
    46 -> 190 [penwidth=2]
    49 -> 190 [penwidth=2]
    103 -> 190 [penwidth=2]
    15 -> 190 [penwidth=2]
    48 -> 190 [penwidth=2]
    47 -> 165 [penwidth=2]
    102 -> 165 [penwidth=2]
    83 -> 165 [penwidth=2]
    90 -> 165 [penwidth=2]
    75 -> 165 [penwidth=2]
    101 -> 165 [penwidth=2]
    89 -> 165 [penwidth=2]
    84 -> 165 [penwidth=2]
    69 -> 165 [penwidth=2]
    100 -> 165 [penwidth=2]
    70 -> 165 [penwidth=2]
    139 -> 247 [penwidth=2]
    139 -> 169 [penwidth=2]
    139 -> 140 [penwidth=2]
    139 -> 248 [penwidth=2]
    139 -> 172 [penwidth=2]
    139 -> 132 [penwidth=2]
    139 -> 189 [penwidth=2]
    139 -> 168 [penwidth=2]
    139 -> 218 [penwidth=2]
    139 -> 131 [penwidth=2]
    204 -> 172 [penwidth=2]
    222 -> 176 [penwidth=2]
    222 -> 167 [penwidth=2]
    222 -> 142 [penwidth=2]
    177 -> 142 [penwidth=2]
    177 -> 189 [penwidth=2]
    177 -> 198 [penwidth=2]
    177 -> 173 [penwidth=2]
    177 -> 140 [penwidth=2]
    177 -> 168 [penwidth=2]
    177 -> 248 [penwidth=2]
    177 -> 176 [penwidth=2]
    8 -> 172 [penwidth=2]
    8 -> 140 [penwidth=2]
    8 -> 174 [penwidth=2]
    8 -> 142 [penwidth=2]
    110 -> 176 [penwidth=2]
    110 -> 189 [penwidth=2]
    110 -> 249 [penwidth=2]
    110 -> 167 [penwidth=2]
    110 -> 131 [penwidth=2]
    110 -> 169 [penwidth=2]
    110 -> 172 [penwidth=2]
    12 -> 218 [penwidth=2]
    12 -> 248 [penwidth=2]
    12 -> 168 [penwidth=2]
    12 -> 247 [penwidth=2]
    123 -> 184 [penwidth=2]
    123 -> 169 [penwidth=2]
    123 -> 167 [penwidth=2]
    123 -> 176 [penwidth=2]
    123 -> 174 [penwidth=2]
    127 -> 198 [penwidth=2]
    127 -> 174 [penwidth=2]
    127 -> 218 [penwidth=2]
    127 -> 168 [penwidth=2]
    127 -> 173 [penwidth=2]
    20 -> 174 [penwidth=2]
    20 -> 140 [penwidth=2]
    20 -> 247 [penwidth=2]
    20 -> 198 [penwidth=2]
    20 -> 132 [penwidth=2]
    20 -> 248 [penwidth=2]
    20 -> 176 [penwidth=2]
    20 -> 142 [penwidth=2]
    20 -> 167 [penwidth=2]
    38 -> 162 [penwidth=2]
    38 -> 244 [penwidth=2]
    38 -> 122 [penwidth=2]
    38 -> 3 [penwidth=2]
    38 -> 226 [penwidth=2]
    24 -> 213 [penwidth=2]
    24 -> 1 [penwidth=2]
    24 -> 5 [penwidth=2]
    30 -> 196 [penwidth=2]
    30 -> 213 [penwidth=2]
    30 -> 190 [penwidth=2]
    30 -> 183 [penwidth=2]
    30 -> 240 [penwidth=2]
    30 -> 216 [penwidth=2]
    30 -> 58 [penwidth=2]
    30 -> 151 [penwidth=2]
    36 -> 12 [penwidth=2]
    36 -> 236 [penwidth=2]
    36 -> 216 [penwidth=2]
    36 -> 121 [penwidth=2]
    36 -> 79 [penwidth=2]
    36 -> 138 [penwidth=2]
    36 -> 243 [penwidth=2]
    48 -> 112 [penwidth=2]
    48 -> 177 [penwidth=2]
    48 -> 204 [penwidth=2]
    48 -> 18 [penwidth=2]
    48 -> 162 [penwidth=2]
    48 -> 221 [penwidth=2]
    48 -> 117 [penwidth=2]
    48 -> 205 [penwidth=2]
    48 -> 134 [penwidth=2]
    102 -> 115 [penwidth=2]
    102 -> 221 [penwidth=2]
    102 -> 241 [penwidth=2]
    90 -> 96 [penwidth=2]
    90 -> 245 [penwidth=2]
    90 -> 190 [penwidth=2]
    90 -> 74 [penwidth=2]
    90 -> 152 [penwidth=2]
    90 -> 211 [penwidth=2]
    90 -> 215 [penwidth=2]
    90 -> 188 [penwidth=2]
    90 -> 44 [penwidth=2]
    90 -> 56 [penwidth=2]
}