digraph G {
    0 [penwidth=3,label="0"]
    1 [penwidth=3,label="1"]
    2 [penwidth=3,label="2"]
    3 [penwidth=3,label="3"]
    4 [penwidth=3,label="4"]
    5 [penwidth=3,label="5"]
    6 [penwidth=3,label="6"]
    7 [penwidth=3,label="7"]
    8 [penwidth=3,label="8"]
    9 [penwidth=3,label="9"]
    10 [penwidth=3,label="10"]
    11 [penwidth=3,label="11"]
    12 [penwidth=3,label="12"]
    13 [penwidth=3,label="13"]
    14 [penwidth=3,label="14"]
    15 [penwidth=3,label="15"]
    16 [penwidth=3,label="16"]
    17 [penwidth=3,label="17"]
    18 [penwidth=3,label="18"]
    19 [penwidth=3,label="19"]
    20 [penwidth=3,label="20"]
    21 [penwidth=3,label="21"]
    22 [penwidth=3,label="22"]
    23 [penwidth=3,label="23"]
    24 [penwidth=3,label="24"]
    25 [penwidth=3,label="25"]
    26 [penwidth=3,label="26"]
    27 [penwidth=3,label="27"]
    28 [penwidth=3,label="28"]
    29 [penwidth=3,label="29"]
    30 [penwidth=3,label="30"]
    31 [penwidth=3,label="31"]
    32 [penwidth=3,label="32"]
    33 [penwidth=3,label="33"]
    34 [penwidth=3,label="34"]
    35 [penwidth=3,label="35"]
    36 [penwidth=3,label="36"]
    37 [penwidth=3,label="37"]
    38 [penwidth=3,label="38"]
    39 [penwidth=3,label="39"]
    40 [penwidth=3,label="40"]
    41 [penwidth=3,label="41"]
    42 [penwidth=3,label="42"]
    43 [penwidth=3,label="43"]
    44 [penwidth=3,label="44"]
    45 [penwidth=3,label="45"]
    46 [penwidth=3,label="46"]
    47 [penwidth=3,label="47"]
    48 [penwidth=3,label="48"]
    49 [penwidth=3,label="49"]
    50 [penwidth=3,label="50"]
    51 [penwidth=3,label="51"]
    52 [penwidth=3,label="52"]
    53 [penwidth=3,label="53"]
    54 [penwidth=3,label="54"]
    55 [penwidth=3,label="55"]
    56 [penwidth=3,label="56"]
    57 [penwidth=3,label="57"]
    58 [penwidth=3,label="58"]
    59 [penwidth=3,label="59"]
    60 [penwidth=3,label="60"]
    61 [penwidth=3,label="61"]
    62 [penwidth=3,label="62"]
    63 [penwidth=3,label="63"]
    64 [penwidth=3,label="64"]
    65 [penwidth=3,label="65"]
    66 [penwidth=3,label="66"]
    67 [penwidth=3,label="67"]
    68 [penwidth=3,label="68"]
    69 [penwidth=3,label="69"]
    70 [penwidth=3,label="70"]
    71 [penwidth=3,label="71"]
    72 [penwidth=3,label="72"]
    73 [penwidth=3,label="73"]
    74 [penwidth=3,label="74"]
    75 [penwidth=3,label="75"]
    76 [penwidth=3,label="76"]
    77 [penwidth=3,label="77"]
    78 [penwidth=3,label="78"]
    79 [penwidth=3,label="79"]
    80 [penwidth=3,label="80"]
    81 [penwidth=3,label="81"]
    82 [penwidth=3,label="82"]
    83 [penwidth=3,label="83"]
    84 [penwidth=3,label="84"]
    85 [penwidth=3,label="85"]
    86 [penwidth=3,label="86"]
    87 [penwidth=3,label="87"]
    88 [penwidth=3,label="88"]
    89 [penwidth=3,label="89"]
    90 [penwidth=3,label="90"]
    91 [penwidth=3,label="91"]
    92 [penwidth=3,label="92"]
    93 [penwidth=3,label="93"]
    94 [penwidth=3,label="94"]
    95 [penwidth=3,label="95"]
    96 [penwidth=3,label="96"]
    97 [penwidth=3,label="97"]
    98 [penwidth=3,label="98"]
    99 [penwidth=3,label="99"]
    100 [penwidth=3,label="100"]
    101 [penwidth=3,label="101"]
    102 [penwidth=3,label="102"]
    103 [penwidth=3,label="103"]
    104 [penwidth=3,label="104"]
    105 [penwidth=3,label="105"]
    106 [penwidth=3,label="106"]
    107 [penwidth=3,label="107"]
    108 [penwidth=3,label="108"]
    109 [penwidth=3,label="109"]
    110 [penwidth=3,label="110"]
    111 [penwidth=3,label="111"]
    112 [penwidth=3,label="112"]
    113 [penwidth=3,label="113"]
    114 [penwidth=3,label="114"]
    115 [penwidth=3,label="115"]
    116 [penwidth=3,label="116"]
    117 [penwidth=3,label="117"]
    118 [penwidth=3,label="118"]
    119 [penwidth=3,label="119"]
    120 [penwidth=3,label="120"]
    121 [penwidth=3,label="121"]
    122 [penwidth=3,label="122"]
    123 [penwidth=3,label="123"]
    124 [penwidth=3,label="124"]
    125 [penwidth=3,label="125"]
    126 [penwidth=3,label="126"]
    127 [penwidth=3,label="127"]
    128 [penwidth=3,label="128"]
    129 [penwidth=3,label="129"]
    130 [penwidth=3,label="130"]
    131 [penwidth=3,label="131"]
    132 [penwidth=3,label="132"]
    133 [penwidth=3,label="133"]
    134 [penwidth=3,label="134"]
    135 [penwidth=3,label="135"]
    136 [penwidth=3,label="136"]
    137 [penwidth=3,label="137"]
    138 [penwidth=3,label="138"]
    139 [penwidth=3,label="139"]
    140 [penwidth=3,label="140"]
    141 [penwidth=3,label="141"]
    142 [penwidth=3,label="142"]
    143 [penwidth=3,label="143"]
    144 [penwidth=3,label="144"]
    145 [penwidth=3,label="145"]
    146 [penwidth=3,label="146"]
    147 [penwidth=3,label="147"]
    148 [penwidth=3,label="148"]
    149 [penwidth=3,label="149"]
    150 [penwidth=3,label="150"]
    151 [penwidth=3,label="151"]
    152 [penwidth=3,label="152"]
    153 [penwidth=3,label="153"]
    154 [penwidth=3,label="154"]
    155 [penwidth=3,label="155"]
    156 [penwidth=3,label="156"]
    157 [penwidth=3,label="157"]
    158 [penwidth=3,label="158"]
    159 [penwidth=3,label="159"]
    160 [penwidth=3,label="160"]
    161 [penwidth=3,label="161"]
    162 [penwidth=3,label="162"]
    163 [penwidth=3,label="163"]
    164 [penwidth=3,label="164"]
    165 [penwidth=3,label="165"]
    166 [penwidth=3,label="166"]
    167 [penwidth=3,label="167"]
    168 [penwidth=3,label="168"]
    169 [penwidth=3,label="169"]
    170 [penwidth=3,label="170"]
    171 [penwidth=3,label="171"]
    172 [penwidth=3,label="172"]
    173 [penwidth=3,label="173"]
    174 [penwidth=3,label="174"]
    175 [penwidth=3,label="175"]
    176 [penwidth=3,label="176"]
    177 [penwidth=3,label="177"]
    178 [penwidth=3,label="178"]
    179 [penwidth=3,label="179"]
    180 [penwidth=3,label="180"]
    181 [penwidth=3,label="181"]
    182 [penwidth=3,label="182"]
    183 [penwidth=3,label="183"]
    184 [penwidth=3,label="184"]
    185 [penwidth=3,label="185"]
    186 [penwidth=3,label="186"]
    187 [penwidth=3,label="187"]
    188 [penwidth=3,label="188"]
    189 [penwidth=3,label="189"]
    190 [penwidth=3,label="190"]
    191 [penwidth=3,label="191"]
    192 [penwidth=3,label="192"]
    193 [penwidth=3,label="193"]
    194 [penwidth=3,label="194"]
    195 [penwidth=3,label="195"]
    196 [penwidth=3,label="196"]
    197 [penwidth=3,label="197"]
    198 [penwidth=3,label="198"]
    199 [penwidth=3,label="199"]
    200 [penwidth=3,label="200"]
    201 [penwidth=3,label="201"]
    202 [penwidth=3,label="202"]
    203 [penwidth=3,label="203"]
    204 [penwidth=3,label="204"]
    205 [penwidth=3,label="205"]
    206 [penwidth=3,label="206"]
    207 [penwidth=3,label="207"]
    208 [penwidth=3,label="208"]
    209 [penwidth=3,label="209"]
    210 [penwidth=3,label="210"]
    211 [penwidth=3,label="211"]
    212 [penwidth=3,label="212"]
    213 [penwidth=3,label="213"]
    214 [penwidth=3,label="214"]
    215 [penwidth=3,label="215"]
    216 [penwidth=3,label="216"]
    217 [penwidth=3,label="217"]
    218 [penwidth=3,label="218"]
    219 [penwidth=3,label="219"]
    220 [penwidth=3,label="220"]
    221 [penwidth=3,label="221"]
    222 [penwidth=3,label="222"]
    223 [penwidth=3,label="223"]
    224 [penwidth=3,label="224"]
    225 [penwidth=3,label="225"]
    226 [penwidth=3,label="226"]
    227 [penwidth=3,label="227"]
    228 [penwidth=3,label="228"]
    229 [penwidth=3,label="229"]
    230 [penwidth=3,label="230"]
    231 [penwidth=3,label="231"]
    232 [penwidth=3,label="232"]
    233 [penwidth=3,label="233"]
    234 [penwidth=3,label="234"]
    235 [penwidth=3,label="235"]
    236 [penwidth=3,label="236"]
    237 [penwidth=3,label="237"]
    238 [penwidth=3,label="238"]
    239 [penwidth=3,label="239"]
    240 [penwidth=3,label="240"]
    241 [penwidth=3,label="241"]
    242 [penwidth=3,label="242"]
    243 [penwidth=3,label="243"]
    244 [penwidth=3,label="244"]
    245 [penwidth=3,label="245"]
    246 [penwidth=3,label="246"]
    247 [penwidth=3,label="247"]
    248 [penwidth=3,label="248"]
    249 [penwidth=3,label="249"]

    136 -> 0 [penwidth=2]
    178 -> 0 [penwidth=2]
    220 -> 0 [penwidth=2]
    137 -> 0 [penwidth=2]
    179 -> 0 [penwidth=2]
    221 -> 0 [penwidth=2]
    138 -> 0 [penwidth=2]
    180 -> 0 [penwidth=2]
    222 -> 0 [penwidth=2]
    139 -> 0 [penwidth=2]
    181 -> 0 [penwidth=2]
    223 -> 0 [penwidth=2]
    140 -> 0 [penwidth=2]
    182 -> 0 [penwidth=2]
    224 -> 0 [penwidth=2]
    141 -> 0 [penwidth=2]
    183 -> 0 [penwidth=2]
    225 -> 0 [penwidth=2]
    142 -> 0 [penwidth=2]
    184 -> 0 [penwidth=2]
    226 -> 0 [penwidth=2]
    143 -> 0 [penwidth=2]
    185 -> 0 [penwidth=2]
    227 -> 0 [penwidth=2]
    144 -> 0 [penwidth=2]
    186 -> 0 [penwidth=2]
    228 -> 0 [penwidth=2]
    145 -> 0 [penwidth=2]
    187 -> 0 [penwidth=2]
    229 -> 136 [penwidth=2]
    146 -> 136 [penwidth=2]
    188 -> 136 [penwidth=2]
    230 -> 136 [penwidth=2]
    147 -> 136 [penwidth=2]
    189 -> 136 [penwidth=2]
    231 -> 136 [penwidth=2]
    148 -> 136 [penwidth=2]
    190 -> 136 [penwidth=2]
    232 -> 136 [penwidth=2]
    149 -> 136 [penwidth=2]
    191 -> 136 [penwidth=2]
    233 -> 136 [penwidth=2]
    150 -> 178 [penwidth=2]
    192 -> 178 [penwidth=2]
    234 -> 178 [penwidth=2]
    151 -> 178 [penwidth=2]
    193 -> 178 [penwidth=2]
    235 -> 178 [penwidth=2]
    152 -> 220 [penwidth=2]
    194 -> 220 [penwidth=2]
    236 -> 220 [penwidth=2]
    153 -> 220 [penwidth=2]
    195 -> 220 [penwidth=2]
    237 -> 137 [penwidth=2]
    134 -> 137 [penwidth=2]
    154 -> 137 [penwidth=2]
    196 -> 137 [penwidth=2]
    238 -> 137 [penwidth=2]
    155 -> 137 [penwidth=2]
    197 -> 137 [penwidth=2]
    239 -> 179 [penwidth=2]
    156 -> 221 [penwidth=2]
    198 -> 221 [penwidth=2]
    240 -> 221 [penwidth=2]
    157 -> 221 [penwidth=2]
    199 -> 221 [penwidth=2]
    241 -> 221 [penwidth=2]
    158 -> 221 [penwidth=2]
    200 -> 221 [penwidth=2]
    242 -> 138 [penwidth=2]
    135 -> 138 [penwidth=2]
    159 -> 138 [penwidth=2]
    201 -> 138 [penwidth=2]
    243 -> 138 [penwidth=2]
    160 -> 138 [penwidth=2]
    202 -> 138 [penwidth=2]
    244 -> 138 [penwidth=2]
    161 -> 138 [penwidth=2]
    203 -> 138 [penwidth=2]
    245 -> 138 [penwidth=2]
    162 -> 138 [penwidth=2]
    204 -> 138 [penwidth=2]
    246 -> 138 [penwidth=2]
    163 -> 180 [penwidth=2]
    205 -> 180 [penwidth=2]
    247 -> 180 [penwidth=2]
    164 -> 180 [penwidth=2]
    206 -> 180 [penwidth=2]
    248 -> 180 [penwidth=2]
    165 -> 180 [penwidth=2]
    207 -> 180 [penwidth=2]
    249 -> 180 [penwidth=2]
    166 -> 180 [penwidth=2]
    208 -> 180 [penwidth=2]
    167 -> 180 [penwidth=2]
    209 -> 180 [penwidth=2]
    168 -> 222 [penwidth=2]
    210 -> 222 [penwidth=2]
    1 -> 222 [penwidth=2]
    169 -> 222 [penwidth=2]
    211 -> 222 [penwidth=2]
    2 -> 222 [penwidth=2]
    170 -> 222 [penwidth=2]
    212 -> 222 [penwidth=2]
    3 -> 222 [penwidth=2]
    171 -> 222 [penwidth=2]
    213 -> 222 [penwidth=2]
    4 -> 139 [penwidth=2]
    172 -> 139 [penwidth=2]
    214 -> 139 [penwidth=2]
    5 -> 139 [penwidth=2]
    173 -> 139 [penwidth=2]
    215 -> 139 [penwidth=2]
    6 -> 139 [penwidth=2]
    174 -> 139 [penwidth=2]
    216 -> 139 [penwidth=2]
    7 -> 139 [penwidth=2]
    175 -> 139 [penwidth=2]
    217 -> 181 [penwidth=2]
    8 -> 181 [penwidth=2]
    176 -> 181 [penwidth=2]
    218 -> 181 [penwidth=2]
    9 -> 181 [penwidth=2]
    177 -> 181 [penwidth=2]
    219 -> 181 [penwidth=2]
    10 -> 181 [penwidth=2]
    89 -> 181 [penwidth=2]
    94 -> 181 [penwidth=2]
    11 -> 181 [penwidth=2]
    95 -> 223 [penwidth=2]
    64 -> 223 [penwidth=2]
    12 -> 223 [penwidth=2]
    96 -> 223 [penwidth=2]
    13 -> 223 [penwidth=2]
    61 -> 223 [penwidth=2]
    97 -> 223 [penwidth=2]
    14 -> 223 [penwidth=2]
    59 -> 223 [penwidth=2]
    98 -> 223 [penwidth=2]
    69 -> 140 [penwidth=2]
    15 -> 140 [penwidth=2]
    99 -> 140 [penwidth=2]
    67 -> 140 [penwidth=2]
    16 -> 140 [penwidth=2]
    100 -> 140 [penwidth=2]
    65 -> 140 [penwidth=2]
    17 -> 182 [penwidth=2]
    101 -> 182 [penwidth=2]
    18 -> 182 [penwidth=2]
    62 -> 182 [penwidth=2]
    102 -> 182 [penwidth=2]
    19 -> 182 [penwidth=2]
    60 -> 182 [penwidth=2]
    103 -> 224 [penwidth=2]
    70 -> 224 [penwidth=2]
    20 -> 141 [penwidth=2]
    104 -> 141 [penwidth=2]
    68 -> 141 [penwidth=2]
    21 -> 141 [penwidth=2]
    105 -> 141 [penwidth=2]
    66 -> 141 [penwidth=2]
    22 -> 141 [penwidth=2]
    106 -> 141 [penwidth=2]
    63 -> 141 [penwidth=2]
    23 -> 141 [penwidth=2]
    107 -> 141 [penwidth=2]
    24 -> 141 [penwidth=2]
    93 -> 141 [penwidth=2]
    108 -> 183 [penwidth=2]
    25 -> 183 [penwidth=2]
    91 -> 225 [penwidth=2]
    109 -> 225 [penwidth=2]
    26 -> 225 [penwidth=2]
    82 -> 225 [penwidth=2]
    110 -> 225 [penwidth=2]
    27 -> 142 [penwidth=2]
    92 -> 142 [penwidth=2]
    111 -> 142 [penwidth=2]
    28 -> 142 [penwidth=2]
    90 -> 142 [penwidth=2]
    112 -> 142 [penwidth=2]
    29 -> 142 [penwidth=2]
    81 -> 226 [penwidth=2]
    113 -> 226 [penwidth=2]
    30 -> 226 [penwidth=2]
    83 -> 226 [penwidth=2]
    114 -> 226 [penwidth=2]
    31 -> 226 [penwidth=2]
    87 -> 226 [penwidth=2]
    115 -> 226 [penwidth=2]
    32 -> 226 [penwidth=2]
    80 -> 226 [penwidth=2]
    116 -> 226 [penwidth=2]
    33 -> 226 [penwidth=2]
    76 -> 226 [penwidth=2]
    85 -> 226 [penwidth=2]
    117 -> 143 [penwidth=2]
    34 -> 143 [penwidth=2]
    84 -> 143 [penwidth=2]
    118 -> 143 [penwidth=2]
    35 -> 143 [penwidth=2]
    79 -> 143 [penwidth=2]
    119 -> 143 [penwidth=2]
    36 -> 143 [penwidth=2]
    88 -> 143 [penwidth=2]
    120 -> 143 [penwidth=2]
    37 -> 185 [penwidth=2]
    86 -> 185 [penwidth=2]
    121 -> 185 [penwidth=2]
    38 -> 185 [penwidth=2]
    78 -> 185 [penwidth=2]
    122 -> 185 [penwidth=2]
    39 -> 185 [penwidth=2]
    77 -> 185 [penwidth=2]
    123 -> 227 [penwidth=2]
    40 -> 144 [penwidth=2]
    75 -> 144 [penwidth=2]
    124 -> 144 [penwidth=2]
    72 -> 144 [penwidth=2]
    41 -> 144 [penwidth=2]
    125 -> 144 [penwidth=2]
    42 -> 144 [penwidth=2]
    57 -> 144 [penwidth=2]
    126 -> 144 [penwidth=2]
    43 -> 144 [penwidth=2]
    55 -> 144 [penwidth=2]
    127 -> 144 [penwidth=2]
    44 -> 186 [penwidth=2]
    54 -> 228 [penwidth=2]
    128 -> 228 [penwidth=2]
    45 -> 228 [penwidth=2]
    53 -> 228 [penwidth=2]
    129 -> 228 [penwidth=2]
    46 -> 145 [penwidth=2]
    52 -> 145 [penwidth=2]
    130 -> 145 [penwidth=2]
    47 -> 145 [penwidth=2]
    58 -> 145 [penwidth=2]
    131 -> 145 [penwidth=2]
    48 -> 145 [penwidth=2]
    56 -> 145 [penwidth=2]
    132 -> 145 [penwidth=2]
    73 -> 145 [penwidth=2]
    49 -> 187 [penwidth=2]
    74 -> 187 [penwidth=2]
    133 -> 187 [penwidth=2]
    71 -> 187 [penwidth=2]
    50 -> 187 [penwidth=2]
    51 -> 187 [penwidth=2]
    191 -> 137 [penwidth=2]
    191 -> 221 [penwidth=2]
    191 -> 183 [penwidth=2]
    191 -> 186 [penwidth=2]
    191 -> 184 [penwidth=2]
    191 -> 228 [penwidth=2]
    191 -> 227 [penwidth=2]
    237 -> 136 [penwidth=2]
    237 -> 220 [penwidth=2]
    237 -> 138 [penwidth=2]
    237 -> 178 [penwidth=2]
    237 -> 184 [penwidth=2]
    237 -> 187 [penwidth=2]
    237 -> 224 [penwidth=2]
    154 -> 139 [penwidth=2]
    154 -> 138 [penwidth=2]
    154 -> 220 [penwidth=2]
    154 -> 227 [penwidth=2]
    154 -> 221 [penwidth=2]
    154 -> 184 [penwidth=2]
    154 -> 143 [penwidth=2]
    154 -> 144 [penwidth=2]
    154 -> 222 [penwidth=2]
    154 -> 185 [penwidth=2]
    155 -> 186 [penwidth=2]
    155 -> 185 [penwidth=2]
    155 -> 224 [penwidth=2]
    155 -> 138 [penwidth=2]
    241 -> 222 [penwidth=2]
    200 -> 224 [penwidth=2]
    200 -> 220 [penwidth=2]
    200 -> 226 [penwidth=2]
    200 -> 228 [penwidth=2]
    200 -> 178 [penwidth=2]
    200 -> 141 [penwidth=2]
    200 -> 225 [penwidth=2]
    200 -> 145 [penwidth=2]
    200 -> 222 [penwidth=2]
    200 -> 136 [penwidth=2]
    243 -> 225 [penwidth=2]
    243 -> 226 [penwidth=2]
    243 -> 186 [penwidth=2]
    243 -> 183 [penwidth=2]
    243 -> 187 [penwidth=2]
    243 -> 180 [penwidth=2]
    243 -> 142 [penwidth=2]
    243 -> 144 [penwidth=2]
    203 -> 228 [penwidth=2]
    203 -> 182 [penwidth=2]
    203 -> 142 [penwidth=2]
    203 -> 222 [penwidth=2]
    203 -> 137 [penwidth=2]
    203 -> 141 [penwidth=2]
    203 -> 144 [penwidth=2]
    203 -> 220 [penwidth=2]
    203 -> 223 [penwidth=2]
    206 -> 145 [penwidth=2]
    206 -> 223 [penwidth=2]
    206 -> 226 [penwidth=2]
    166 -> 226 [penwidth=2]
    166 -> 220 [penwidth=2]
    166 -> 144 [penwidth=2]
    166 -> 142 [penwidth=2]
    166 -> 145 [penwidth=2]
    166 -> 137 [penwidth=2]
    166 -> 141 [penwidth=2]
    166 -> 224 [penwidth=2]
    166 -> 136 [penwidth=2]
    216 -> 180 [penwidth=2]
    216 -> 222 [penwidth=2]
    216 -> 227 [penwidth=2]
    217 -> 144 [penwidth=2]
    94 -> 178 [penwidth=2]
    94 -> 140 [penwidth=2]
    94 -> 225 [penwidth=2]
    94 -> 137 [penwidth=2]
    16 -> 143 [penwidth=2]
    16 -> 228 [penwidth=2]
    16 -> 145 [penwidth=2]
    22 -> 183 [penwidth=2]
    22 -> 182 [penwidth=2]
    22 -> 136 [penwidth=2]
    22 -> 185 [penwidth=2]
    107 -> 178 [penwidth=2]
    107 -> 143 [penwidth=2]
    107 -> 139 [penwidth=2]
    107 -> 180 [penwidth=2]
    107 -> 222 [penwidth=2]
    107 -> 221 [penwidth=2]
    107 -> 226 [penwidth=2]
    107 -> 187 [penwidth=2]
    31 -> 182 [penwidth=2]
    31 -> 142 [penwidth=2]
    31 -> 180 [penwidth=2]
    31 -> 137 [penwidth=2]
    31 -> 143 [penwidth=2]
    31 -> 220 [penwidth=2]
    31 -> 221 [penwidth=2]
    31 -> 178 [penwidth=2]
    31 -> 136 [penwidth=2]
    31 -> 227 [penwidth=2]
    35 -> 221 [penwidth=2]
    35 -> 220 [penwidth=2]
    35 -> 179 [penwidth=2]
    86 -> 184 [penwidth=2]
    39 -> 138 [penwidth=2]
    48 -> 224 [penwidth=2]
    132 -> 137 [penwidth=2]
    132 -> 141 [penwidth=2]
    132 -> 180 [penwidth=2]
}