digraph G {
    0 [penwidth=3,label="0"]
    1 [penwidth=3,label="1"]
    2 [penwidth=3,label="2"]
    3 [penwidth=3,label="3"]
    4 [penwidth=3,label="4"]
    5 [penwidth=3,label="5"]
    6 [penwidth=3,label="6"]
    7 [penwidth=3,label="7"]
    8 [penwidth=3,label="8"]
    9 [penwidth=3,label="9"]
    10 [penwidth=3,label="10"]
    11 [penwidth=3,label="11"]
    12 [penwidth=3,label="12"]
    13 [penwidth=3,label="13"]
    14 [penwidth=3,label="14"]
    15 [penwidth=3,label="15"]
    16 [penwidth=3,label="16"]
    17 [penwidth=3,label="17"]
    18 [penwidth=3,label="18"]
    19 [penwidth=3,label="19"]
    20 [penwidth=3,label="20"]
    21 [penwidth=3,label="21"]
    22 [penwidth=3,label="22"]
    23 [penwidth=3,label="23"]
    24 [penwidth=3,label="24"]
    25 [penwidth=3,label="25"]
    26 [penwidth=3,label="26"]
    27 [penwidth=3,label="27"]
    28 [penwidth=3,label="28"]
    29 [penwidth=3,label="29"]
    30 [penwidth=3,label="30"]
    31 [penwidth=3,label="31"]
    32 [penwidth=3,label="32"]
    33 [penwidth=3,label="33"]
    34 [penwidth=3,label="34"]
    35 [penwidth=3,label="35"]
    36 [penwidth=3,label="36"]
    37 [penwidth=3,label="37"]
    38 [penwidth=3,label="38"]
    39 [penwidth=3,label="39"]
    40 [penwidth=3,label="40"]
    41 [penwidth=3,label="41"]
    42 [penwidth=3,label="42"]
    43 [penwidth=3,label="43"]
    44 [penwidth=3,label="44"]
    45 [penwidth=3,label="45"]
    46 [penwidth=3,label="46"]
    47 [penwidth=3,label="47"]
    48 [penwidth=3,label="48"]
    49 [penwidth=3,label="49"]
    50 [penwidth=3,label="50"]
    51 [penwidth=3,label="51"]
    52 [penwidth=3,label="52"]
    53 [penwidth=3,label="53"]
    54 [penwidth=3,label="54"]
    55 [penwidth=3,label="55"]
    56 [penwidth=3,label="56"]
    57 [penwidth=3,label="57"]
    58 [penwidth=3,label="58"]
    59 [penwidth=3,label="59"]
    60 [penwidth=3,label="60"]
    61 [penwidth=3,label="61"]
    62 [penwidth=3,label="62"]
    63 [penwidth=3,label="63"]
    64 [penwidth=3,label="64"]
    65 [penwidth=3,label="65"]
    66 [penwidth=3,label="66"]
    67 [penwidth=3,label="67"]
    68 [penwidth=3,label="68"]
    69 [penwidth=3,label="69"]
    70 [penwidth=3,label="70"]
    71 [penwidth=3,label="71"]
    72 [penwidth=3,label="72"]
    73 [penwidth=3,label="73"]
    74 [penwidth=3,label="74"]
    75 [penwidth=3,label="75"]
    76 [penwidth=3,label="76"]
    77 [penwidth=3,label="77"]
    78 [penwidth=3,label="78"]
    79 [penwidth=3,label="79"]
    80 [penwidth=3,label="80"]
    81 [penwidth=3,label="81"]
    82 [penwidth=3,label="82"]
    83 [penwidth=3,label="83"]
    84 [penwidth=3,label="84"]
    85 [penwidth=3,label="85"]
    86 [penwidth=3,label="86"]
    87 [penwidth=3,label="87"]
    88 [penwidth=3,label="88"]
    89 [penwidth=3,label="89"]
    90 [penwidth=3,label="90"]
    91 [penwidth=3,label="91"]
    92 [penwidth=3,label="92"]
    93 [penwidth=3,label="93"]
    94 [penwidth=3,label="94"]
    95 [penwidth=3,label="95"]
    96 [penwidth=3,label="96"]
    97 [penwidth=3,label="97"]
    98 [penwidth=3,label="98"]
    99 [penwidth=3,label="99"]
    100 [penwidth=3,label="100"]
    101 [penwidth=3,label="101"]
    102 [penwidth=3,label="102"]
    103 [penwidth=3,label="103"]
    104 [penwidth=3,label="104"]
    105 [penwidth=3,label="105"]
    106 [penwidth=3,label="106"]
    107 [penwidth=3,label="107"]
    108 [penwidth=3,label="108"]
    109 [penwidth=3,label="109"]
    110 [penwidth=3,label="110"]
    111 [penwidth=3,label="111"]
    112 [penwidth=3,label="112"]
    113 [penwidth=3,label="113"]
    114 [penwidth=3,label="114"]
    115 [penwidth=3,label="115"]
    116 [penwidth=3,label="116"]
    117 [penwidth=3,label="117"]
    118 [penwidth=3,label="118"]
    119 [penwidth=3,label="119"]
    120 [penwidth=3,label="120"]
    121 [penwidth=3,label="121"]
    122 [penwidth=3,label="122"]
    123 [penwidth=3,label="123"]
    124 [penwidth=3,label="124"]
    125 [penwidth=3,label="125"]
    126 [penwidth=3,label="126"]
    127 [penwidth=3,label="127"]
    128 [penwidth=3,label="128"]
    129 [penwidth=3,label="129"]
    130 [penwidth=3,label="130"]
    131 [penwidth=3,label="131"]
    132 [penwidth=3,label="132"]
    133 [penwidth=3,label="133"]
    134 [penwidth=3,label="134"]
    135 [penwidth=3,label="135"]
    136 [penwidth=3,label="136"]
    137 [penwidth=3,label="137"]
    138 [penwidth=3,label="138"]
    139 [penwidth=3,label="139"]
    140 [penwidth=3,label="140"]
    141 [penwidth=3,label="141"]
    142 [penwidth=3,label="142"]
    143 [penwidth=3,label="143"]
    144 [penwidth=3,label="144"]
    145 [penwidth=3,label="145"]
    146 [penwidth=3,label="146"]
    147 [penwidth=3,label="147"]
    148 [penwidth=3,label="148"]
    149 [penwidth=3,label="149"]
    150 [penwidth=3,label="150"]
    151 [penwidth=3,label="151"]
    152 [penwidth=3,label="152"]
    153 [penwidth=3,label="153"]
    154 [penwidth=3,label="154"]
    155 [penwidth=3,label="155"]
    156 [penwidth=3,label="156"]
    157 [penwidth=3,label="157"]
    158 [penwidth=3,label="158"]
    159 [penwidth=3,label="159"]
    160 [penwidth=3,label="160"]
    161 [penwidth=3,label="161"]
    162 [penwidth=3,label="162"]
    163 [penwidth=3,label="163"]
    164 [penwidth=3,label="164"]
    165 [penwidth=3,label="165"]
    166 [penwidth=3,label="166"]
    167 [penwidth=3,label="167"]
    168 [penwidth=3,label="168"]
    169 [penwidth=3,label="169"]
    170 [penwidth=3,label="170"]
    171 [penwidth=3,label="171"]
    172 [penwidth=3,label="172"]
    173 [penwidth=3,label="173"]
    174 [penwidth=3,label="174"]
    175 [penwidth=3,label="175"]
    176 [penwidth=3,label="176"]
    177 [penwidth=3,label="177"]
    178 [penwidth=3,label="178"]
    179 [penwidth=3,label="179"]
    180 [penwidth=3,label="180"]
    181 [penwidth=3,label="181"]
    182 [penwidth=3,label="182"]
    183 [penwidth=3,label="183"]
    184 [penwidth=3,label="184"]
    185 [penwidth=3,label="185"]
    186 [penwidth=3,label="186"]
    187 [penwidth=3,label="187"]
    188 [penwidth=3,label="188"]
    189 [penwidth=3,label="189"]
    190 [penwidth=3,label="190"]
    191 [penwidth=3,label="191"]
    192 [penwidth=3,label="192"]
    193 [penwidth=3,label="193"]
    194 [penwidth=3,label="194"]
    195 [penwidth=3,label="195"]
    196 [penwidth=3,label="196"]
    197 [penwidth=3,label="197"]
    198 [penwidth=3,label="198"]
    199 [penwidth=3,label="199"]
    200 [penwidth=3,label="200"]
    201 [penwidth=3,label="201"]
    202 [penwidth=3,label="202"]
    203 [penwidth=3,label="203"]
    204 [penwidth=3,label="204"]
    205 [penwidth=3,label="205"]
    206 [penwidth=3,label="206"]
    207 [penwidth=3,label="207"]
    208 [penwidth=3,label="208"]
    209 [penwidth=3,label="209"]
    210 [penwidth=3,label="210"]
    211 [penwidth=3,label="211"]
    212 [penwidth=3,label="212"]
    213 [penwidth=3,label="213"]
    214 [penwidth=3,label="214"]
    215 [penwidth=3,label="215"]
    216 [penwidth=3,label="216"]
    217 [penwidth=3,label="217"]
    218 [penwidth=3,label="218"]
    219 [penwidth=3,label="219"]
    220 [penwidth=3,label="220"]
    221 [penwidth=3,label="221"]
    222 [penwidth=3,label="222"]
    223 [penwidth=3,label="223"]
    224 [penwidth=3,label="224"]
    225 [penwidth=3,label="225"]
    226 [penwidth=3,label="226"]
    227 [penwidth=3,label="227"]
    228 [penwidth=3,label="228"]
    229 [penwidth=3,label="229"]
    230 [penwidth=3,label="230"]
    231 [penwidth=3,label="231"]
    232 [penwidth=3,label="232"]
    233 [penwidth=3,label="233"]
    234 [penwidth=3,label="234"]
    235 [penwidth=3,label="235"]
    236 [penwidth=3,label="236"]
    237 [penwidth=3,label="237"]
    238 [penwidth=3,label="238"]
    239 [penwidth=3,label="239"]
    240 [penwidth=3,label="240"]
    241 [penwidth=3,label="241"]
    242 [penwidth=3,label="242"]
    243 [penwidth=3,label="243"]
    244 [penwidth=3,label="244"]
    245 [penwidth=3,label="245"]
    246 [penwidth=3,label="246"]
    247 [penwidth=3,label="247"]
    248 [penwidth=3,label="248"]
    249 [penwidth=3,label="249"]
    250 [penwidth=3,label="250"]
    251 [penwidth=3,label="251"]
    252 [penwidth=3,label="252"]
    253 [penwidth=3,label="253"]
    254 [penwidth=3,label="254"]
    255 [penwidth=3,label="255"]
    256 [penwidth=3,label="256"]
    257 [penwidth=3,label="257"]
    258 [penwidth=3,label="258"]
    259 [penwidth=3,label="259"]
    260 [penwidth=3,label="260"]
    261 [penwidth=3,label="261"]
    262 [penwidth=3,label="262"]
    263 [penwidth=3,label="263"]
    264 [penwidth=3,label="264"]
    265 [penwidth=3,label="265"]
    266 [penwidth=3,label="266"]
    267 [penwidth=3,label="267"]
    268 [penwidth=3,label="268"]
    269 [penwidth=3,label="269"]
    270 [penwidth=3,label="270"]
    271 [penwidth=3,label="271"]
    272 [penwidth=3,label="272"]
    273 [penwidth=3,label="273"]
    274 [penwidth=3,label="274"]
    275 [penwidth=3,label="275"]
    276 [penwidth=3,label="276"]
    277 [penwidth=3,label="277"]
    278 [penwidth=3,label="278"]
    279 [penwidth=3,label="279"]
    280 [penwidth=3,label="280"]
    281 [penwidth=3,label="281"]
    282 [penwidth=3,label="282"]
    283 [penwidth=3,label="283"]
    284 [penwidth=3,label="284"]
    285 [penwidth=3,label="285"]
    286 [penwidth=3,label="286"]
    287 [penwidth=3,label="287"]
    288 [penwidth=3,label="288"]
    289 [penwidth=3,label="289"]
    290 [penwidth=3,label="290"]
    291 [penwidth=3,label="291"]
    292 [penwidth=3,label="292"]
    293 [penwidth=3,label="293"]
    294 [penwidth=3,label="294"]
    295 [penwidth=3,label="295"]
    296 [penwidth=3,label="296"]
    297 [penwidth=3,label="297"]
    298 [penwidth=3,label="298"]
    299 [penwidth=3,label="299"]

    22 -> 0 [penwidth=2]
    124 -> 0 [penwidth=2]
    21 -> 0 [penwidth=2]
    125 -> 0 [penwidth=2]
    39 -> 0 [penwidth=2]
    126 -> 0 [penwidth=2]
    2 -> 0 [penwidth=2]
    127 -> 0 [penwidth=2]
    18 -> 0 [penwidth=2]
    128 -> 0 [penwidth=2]
    38 -> 0 [penwidth=2]
    129 -> 0 [penwidth=2]
    37 -> 0 [penwidth=2]
    130 -> 0 [penwidth=2]
    9 -> 0 [penwidth=2]
    131 -> 0 [penwidth=2]
    36 -> 0 [penwidth=2]
    132 -> 0 [penwidth=2]
    24 -> 0 [penwidth=2]
    133 -> 0 [penwidth=2]
    134 -> 0 [penwidth=2]
    28 -> 0 [penwidth=2]
    135 -> 0 [penwidth=2]
    3 -> 0 [penwidth=2]
    136 -> 0 [penwidth=2]
    25 -> 0 [penwidth=2]
    137 -> 0 [penwidth=2]
    20 -> 0 [penwidth=2]
    138 -> 0 [penwidth=2]
    23 -> 0 [penwidth=2]
    139 -> 0 [penwidth=2]
    1 -> 0 [penwidth=2]
    140 -> 0 [penwidth=2]
    27 -> 0 [penwidth=2]
    141 -> 0 [penwidth=2]
    26 -> 0 [penwidth=2]
    142 -> 0 [penwidth=2]
    8 -> 0 [penwidth=2]
    143 -> 0 [penwidth=2]
    144 -> 0 [penwidth=2]
    35 -> 0 [penwidth=2]
    145 -> 0 [penwidth=2]
    4 -> 0 [penwidth=2]
    146 -> 0 [penwidth=2]
    19 -> 0 [penwidth=2]
    147 -> 0 [penwidth=2]
    34 -> 0 [penwidth=2]
    148 -> 0 [penwidth=2]
    12 -> 0 [penwidth=2]
    149 -> 0 [penwidth=2]
    16 -> 0 [penwidth=2]
    150 -> 0 [penwidth=2]
    15 -> 0 [penwidth=2]
    151 -> 22 [penwidth=2]
    14 -> 22 [penwidth=2]
    152 -> 22 [penwidth=2]
    122 -> 22 [penwidth=2]
    248 -> 22 [penwidth=2]
    7 -> 22 [penwidth=2]
    153 -> 22 [penwidth=2]
    13 -> 22 [penwidth=2]
    154 -> 22 [penwidth=2]
    11 -> 22 [penwidth=2]
    155 -> 22 [penwidth=2]
    29 -> 22 [penwidth=2]
    156 -> 22 [penwidth=2]
    6 -> 22 [penwidth=2]
    157 -> 22 [penwidth=2]
    33 -> 22 [penwidth=2]
    123 -> 22 [penwidth=2]
    249 -> 124 [penwidth=2]
    158 -> 124 [penwidth=2]
    290 -> 124 [penwidth=2]
    159 -> 124 [penwidth=2]
    32 -> 124 [penwidth=2]
    160 -> 124 [penwidth=2]
    10 -> 124 [penwidth=2]
    161 -> 124 [penwidth=2]
    31 -> 21 [penwidth=2]
    162 -> 21 [penwidth=2]
    30 -> 21 [penwidth=2]
    163 -> 21 [penwidth=2]
    291 -> 21 [penwidth=2]
    17 -> 21 [penwidth=2]
    164 -> 21 [penwidth=2]
    5 -> 21 [penwidth=2]
    165 -> 21 [penwidth=2]
    206 -> 21 [penwidth=2]
    40 -> 21 [penwidth=2]
    82 -> 21 [penwidth=2]
    166 -> 21 [penwidth=2]
    208 -> 125 [penwidth=2]
    250 -> 125 [penwidth=2]
    41 -> 125 [penwidth=2]
    83 -> 125 [penwidth=2]
    167 -> 125 [penwidth=2]
    209 -> 125 [penwidth=2]
    251 -> 125 [penwidth=2]
    42 -> 125 [penwidth=2]
    84 -> 125 [penwidth=2]
    168 -> 125 [penwidth=2]
    210 -> 125 [penwidth=2]
    252 -> 125 [penwidth=2]
    43 -> 125 [penwidth=2]
    85 -> 39 [penwidth=2]
    169 -> 39 [penwidth=2]
    211 -> 39 [penwidth=2]
    253 -> 39 [penwidth=2]
    44 -> 39 [penwidth=2]
    86 -> 39 [penwidth=2]
    170 -> 39 [penwidth=2]
    207 -> 39 [penwidth=2]
    212 -> 39 [penwidth=2]
    254 -> 39 [penwidth=2]
    45 -> 39 [penwidth=2]
    87 -> 39 [penwidth=2]
    171 -> 39 [penwidth=2]
    213 -> 39 [penwidth=2]
    255 -> 39 [penwidth=2]
    46 -> 39 [penwidth=2]
    88 -> 39 [penwidth=2]
    172 -> 126 [penwidth=2]
    214 -> 126 [penwidth=2]
    256 -> 126 [penwidth=2]
    47 -> 126 [penwidth=2]
    89 -> 126 [penwidth=2]
    173 -> 2 [penwidth=2]
    215 -> 2 [penwidth=2]
    257 -> 2 [penwidth=2]
    48 -> 2 [penwidth=2]
    90 -> 2 [penwidth=2]
    174 -> 2 [penwidth=2]
    216 -> 2 [penwidth=2]
    258 -> 18 [penwidth=2]
    293 -> 18 [penwidth=2]
    49 -> 18 [penwidth=2]
    91 -> 18 [penwidth=2]
    175 -> 18 [penwidth=2]
    217 -> 18 [penwidth=2]
    259 -> 18 [penwidth=2]
    299 -> 128 [penwidth=2]
    50 -> 128 [penwidth=2]
    92 -> 128 [penwidth=2]
    176 -> 128 [penwidth=2]
    218 -> 128 [penwidth=2]
    260 -> 38 [penwidth=2]
    51 -> 38 [penwidth=2]
    93 -> 38 [penwidth=2]
    177 -> 38 [penwidth=2]
    219 -> 38 [penwidth=2]
    261 -> 38 [penwidth=2]
    52 -> 38 [penwidth=2]
    94 -> 38 [penwidth=2]
    178 -> 38 [penwidth=2]
    220 -> 129 [penwidth=2]
    262 -> 129 [penwidth=2]
    53 -> 129 [penwidth=2]
    95 -> 129 [penwidth=2]
    179 -> 129 [penwidth=2]
    221 -> 129 [penwidth=2]
    263 -> 129 [penwidth=2]
    54 -> 129 [penwidth=2]
    96 -> 37 [penwidth=2]
    180 -> 37 [penwidth=2]
    222 -> 37 [penwidth=2]
    264 -> 37 [penwidth=2]
    298 -> 37 [penwidth=2]
    55 -> 37 [penwidth=2]
    97 -> 37 [penwidth=2]
    181 -> 37 [penwidth=2]
    223 -> 37 [penwidth=2]
    265 -> 37 [penwidth=2]
    56 -> 37 [penwidth=2]
    98 -> 37 [penwidth=2]
    182 -> 130 [penwidth=2]
    224 -> 130 [penwidth=2]
    266 -> 130 [penwidth=2]
    57 -> 130 [penwidth=2]
    99 -> 130 [penwidth=2]
    183 -> 130 [penwidth=2]
    225 -> 130 [penwidth=2]
    267 -> 130 [penwidth=2]
    297 -> 9 [penwidth=2]
    58 -> 9 [penwidth=2]
    100 -> 9 [penwidth=2]
    184 -> 9 [penwidth=2]
    226 -> 9 [penwidth=2]
    268 -> 9 [penwidth=2]
    296 -> 9 [penwidth=2]
    59 -> 9 [penwidth=2]
    101 -> 9 [penwidth=2]
    185 -> 9 [penwidth=2]
    227 -> 9 [penwidth=2]
    269 -> 9 [penwidth=2]
    60 -> 9 [penwidth=2]
    102 -> 131 [penwidth=2]
    186 -> 131 [penwidth=2]
    228 -> 131 [penwidth=2]
    270 -> 131 [penwidth=2]
    292 -> 131 [penwidth=2]
    61 -> 131 [penwidth=2]
    103 -> 131 [penwidth=2]
    187 -> 131 [penwidth=2]
    229 -> 36 [penwidth=2]
    271 -> 36 [penwidth=2]
    62 -> 36 [penwidth=2]
    104 -> 36 [penwidth=2]
    188 -> 36 [penwidth=2]
    230 -> 132 [penwidth=2]
    272 -> 132 [penwidth=2]
    63 -> 24 [penwidth=2]
    105 -> 24 [penwidth=2]
    189 -> 24 [penwidth=2]
    231 -> 24 [penwidth=2]
    273 -> 24 [penwidth=2]
    64 -> 24 [penwidth=2]
    106 -> 24 [penwidth=2]
    190 -> 24 [penwidth=2]
    232 -> 24 [penwidth=2]
    274 -> 24 [penwidth=2]
    65 -> 133 [penwidth=2]
    107 -> 133 [penwidth=2]
    191 -> 133 [penwidth=2]
    233 -> 133 [penwidth=2]
    275 -> 133 [penwidth=2]
    66 -> 133 [penwidth=2]
    108 -> 133 [penwidth=2]
    192 -> 133 [penwidth=2]
    234 -> 134 [penwidth=2]
    276 -> 134 [penwidth=2]
    67 -> 134 [penwidth=2]
    109 -> 134 [penwidth=2]
    193 -> 134 [penwidth=2]
    235 -> 134 [penwidth=2]
    277 -> 134 [penwidth=2]
    68 -> 134 [penwidth=2]
    110 -> 134 [penwidth=2]
    194 -> 134 [penwidth=2]
    236 -> 134 [penwidth=2]
    278 -> 134 [penwidth=2]
    69 -> 28 [penwidth=2]
    111 -> 28 [penwidth=2]
    195 -> 28 [penwidth=2]
    237 -> 28 [penwidth=2]
    279 -> 28 [penwidth=2]
    70 -> 28 [penwidth=2]
    112 -> 28 [penwidth=2]
    196 -> 28 [penwidth=2]
    238 -> 28 [penwidth=2]
    280 -> 28 [penwidth=2]
    295 -> 28 [penwidth=2]
    71 -> 28 [penwidth=2]
    113 -> 28 [penwidth=2]
    197 -> 28 [penwidth=2]
    239 -> 28 [penwidth=2]
    281 -> 135 [penwidth=2]
    72 -> 136 [penwidth=2]
    114 -> 25 [penwidth=2]
    198 -> 25 [penwidth=2]
    240 -> 25 [penwidth=2]
    282 -> 25 [penwidth=2]
    73 -> 137 [penwidth=2]
    115 -> 137 [penwidth=2]
    199 -> 137 [penwidth=2]
    241 -> 137 [penwidth=2]
    283 -> 137 [penwidth=2]
    294 -> 137 [penwidth=2]
    74 -> 137 [penwidth=2]
    116 -> 137 [penwidth=2]
    200 -> 137 [penwidth=2]
    242 -> 20 [penwidth=2]
    284 -> 20 [penwidth=2]
    75 -> 20 [penwidth=2]
    117 -> 20 [penwidth=2]
    201 -> 20 [penwidth=2]
    243 -> 20 [penwidth=2]
    285 -> 20 [penwidth=2]
    76 -> 20 [penwidth=2]
    118 -> 20 [penwidth=2]
    202 -> 20 [penwidth=2]
    244 -> 20 [penwidth=2]
    286 -> 20 [penwidth=2]
    77 -> 20 [penwidth=2]
    119 -> 20 [penwidth=2]
    203 -> 20 [penwidth=2]
    245 -> 20 [penwidth=2]
    287 -> 138 [penwidth=2]
    78 -> 23 [penwidth=2]
    120 -> 139 [penwidth=2]
    204 -> 139 [penwidth=2]
    246 -> 139 [penwidth=2]
    288 -> 139 [penwidth=2]
    79 -> 139 [penwidth=2]
    121 -> 139 [penwidth=2]
    205 -> 139 [penwidth=2]
    247 -> 139 [penwidth=2]
    289 -> 139 [penwidth=2]
    80 -> 139 [penwidth=2]
    81 -> 139 [penwidth=2]
    151 -> 147 [penwidth=2]
    155 -> 132 [penwidth=2]
    162 -> 3 [penwidth=2]
    162 -> 145 [penwidth=2]
    82 -> 9 [penwidth=2]
    82 -> 16 [penwidth=2]
    82 -> 136 [penwidth=2]
    82 -> 144 [penwidth=2]
    82 -> 145 [penwidth=2]
    166 -> 18 [penwidth=2]
    166 -> 133 [penwidth=2]
    166 -> 127 [penwidth=2]
    166 -> 147 [penwidth=2]
    166 -> 141 [penwidth=2]
    166 -> 144 [penwidth=2]
    166 -> 140 [penwidth=2]
    166 -> 38 [penwidth=2]
    166 -> 139 [penwidth=2]
    166 -> 145 [penwidth=2]
    208 -> 36 [penwidth=2]
    208 -> 4 [penwidth=2]
    208 -> 18 [penwidth=2]
    208 -> 134 [penwidth=2]
    208 -> 133 [penwidth=2]
    208 -> 3 [penwidth=2]
    208 -> 8 [penwidth=2]
    208 -> 16 [penwidth=2]
    208 -> 15 [penwidth=2]
    208 -> 1 [penwidth=2]
    208 -> 22 [penwidth=2]
    209 -> 129 [penwidth=2]
    209 -> 135 [penwidth=2]
    209 -> 21 [penwidth=2]
    209 -> 130 [penwidth=2]
    209 -> 16 [penwidth=2]
    209 -> 139 [penwidth=2]
    209 -> 2 [penwidth=2]
    255 -> 22 [penwidth=2]
    255 -> 148 [penwidth=2]
    255 -> 19 [penwidth=2]
    255 -> 2 [penwidth=2]
    255 -> 21 [penwidth=2]
    172 -> 4 [penwidth=2]
    172 -> 137 [penwidth=2]
    172 -> 127 [penwidth=2]
    172 -> 2 [penwidth=2]
    172 -> 38 [penwidth=2]
    172 -> 131 [penwidth=2]
    172 -> 144 [penwidth=2]
    172 -> 23 [penwidth=2]
    214 -> 142 [penwidth=2]
    214 -> 2 [penwidth=2]
    214 -> 37 [penwidth=2]
    214 -> 146 [penwidth=2]
    214 -> 133 [penwidth=2]
    214 -> 21 [penwidth=2]
    214 -> 12 [penwidth=2]
    214 -> 129 [penwidth=2]
    259 -> 27 [penwidth=2]
    259 -> 2 [penwidth=2]
    259 -> 20 [penwidth=2]
    259 -> 3 [penwidth=2]
    259 -> 38 [penwidth=2]
    259 -> 36 [penwidth=2]
    259 -> 19 [penwidth=2]
    259 -> 21 [penwidth=2]
    259 -> 146 [penwidth=2]
    259 -> 127 [penwidth=2]
    259 -> 9 [penwidth=2]
    259 -> 35 [penwidth=2]
    176 -> 138 [penwidth=2]
    103 -> 3 [penwidth=2]
    103 -> 135 [penwidth=2]
    103 -> 149 [penwidth=2]
    103 -> 132 [penwidth=2]
    103 -> 145 [penwidth=2]
    103 -> 20 [penwidth=2]
    103 -> 22 [penwidth=2]
    103 -> 133 [penwidth=2]
    103 -> 124 [penwidth=2]
    103 -> 24 [penwidth=2]
    103 -> 127 [penwidth=2]
    104 -> 34 [penwidth=2]
    104 -> 4 [penwidth=2]
    104 -> 37 [penwidth=2]
    64 -> 133 [penwidth=2]
    64 -> 149 [penwidth=2]
    64 -> 145 [penwidth=2]
    64 -> 134 [penwidth=2]
    64 -> 34 [penwidth=2]
    64 -> 141 [penwidth=2]
    64 -> 2 [penwidth=2]
    64 -> 12 [penwidth=2]
    64 -> 4 [penwidth=2]
    64 -> 126 [penwidth=2]
    64 -> 1 [penwidth=2]
    64 -> 25 [penwidth=2]
    107 -> 128 [penwidth=2]
    107 -> 145 [penwidth=2]
    107 -> 8 [penwidth=2]
    107 -> 144 [penwidth=2]
    107 -> 127 [penwidth=2]
    67 -> 37 [penwidth=2]
    237 -> 16 [penwidth=2]
    237 -> 19 [penwidth=2]
    237 -> 23 [penwidth=2]
    237 -> 37 [penwidth=2]
    237 -> 141 [penwidth=2]
    237 -> 25 [penwidth=2]
    281 -> 126 [penwidth=2]
    281 -> 23 [penwidth=2]
    281 -> 148 [penwidth=2]
    281 -> 127 [penwidth=2]
    281 -> 16 [penwidth=2]
    281 -> 35 [penwidth=2]
    281 -> 20 [penwidth=2]
    281 -> 12 [penwidth=2]
    281 -> 133 [penwidth=2]
    240 -> 8 [penwidth=2]
    240 -> 21 [penwidth=2]
    240 -> 132 [penwidth=2]
    240 -> 149 [penwidth=2]
    240 -> 127 [penwidth=2]
    240 -> 15 [penwidth=2]
    240 -> 20 [penwidth=2]
    240 -> 9 [penwidth=2]
    240 -> 124 [penwidth=2]
    201 -> 147 [penwidth=2]
    201 -> 34 [penwidth=2]
    201 -> 38 [penwidth=2]
}