digraph G {
    0 [penwidth=3,label="0"]
    1 [penwidth=3,label="1"]
    2 [penwidth=3,label="2"]
    3 [penwidth=3,label="3"]
    4 [penwidth=3,label="4"]
    5 [penwidth=3,label="5"]
    6 [penwidth=3,label="6"]
    7 [penwidth=3,label="7"]
    8 [penwidth=3,label="8"]
    9 [penwidth=3,label="9"]
    10 [penwidth=3,label="10"]
    11 [penwidth=3,label="11"]
    12 [penwidth=3,label="12"]
    13 [penwidth=3,label="13"]
    14 [penwidth=3,label="14"]
    15 [penwidth=3,label="15"]
    16 [penwidth=3,label="16"]
    17 [penwidth=3,label="17"]
    18 [penwidth=3,label="18"]
    19 [penwidth=3,label="19"]
    20 [penwidth=3,label="20"]
    21 [penwidth=3,label="21"]
    22 [penwidth=3,label="22"]
    23 [penwidth=3,label="23"]
    24 [penwidth=3,label="24"]
    25 [penwidth=3,label="25"]
    26 [penwidth=3,label="26"]
    27 [penwidth=3,label="27"]
    28 [penwidth=3,label="28"]
    29 [penwidth=3,label="29"]
    30 [penwidth=3,label="30"]
    31 [penwidth=3,label="31"]
    32 [penwidth=3,label="32"]
    33 [penwidth=3,label="33"]
    34 [penwidth=3,label="34"]
    35 [penwidth=3,label="35"]
    36 [penwidth=3,label="36"]
    37 [penwidth=3,label="37"]
    38 [penwidth=3,label="38"]
    39 [penwidth=3,label="39"]
    40 [penwidth=3,label="40"]
    41 [penwidth=3,label="41"]
    42 [penwidth=3,label="42"]
    43 [penwidth=3,label="43"]
    44 [penwidth=3,label="44"]

    31 -> 0 [penwidth=2]
    10 -> 0 [penwidth=2]
    32 -> 0 [penwidth=2]
    11 -> 0 [penwidth=2]
    33 -> 0 [penwidth=2]
    12 -> 0 [penwidth=2]
    34 -> 0 [penwidth=2]
    13 -> 0 [penwidth=2]
    35 -> 0 [penwidth=2]
    14 -> 0 [penwidth=2]
    36 -> 0 [penwidth=2]
    15 -> 0 [penwidth=2]
    37 -> 0 [penwidth=2]
    16 -> 0 [penwidth=2]
    38 -> 0 [penwidth=2]
    17 -> 0 [penwidth=2]
    39 -> 31 [penwidth=2]
    18 -> 10 [penwidth=2]
    40 -> 10 [penwidth=2]
    19 -> 10 [penwidth=2]
    41 -> 32 [penwidth=2]
    20 -> 11 [penwidth=2]
    42 -> 11 [penwidth=2]
    21 -> 11 [penwidth=2]
    1 -> 33 [penwidth=2]
    43 -> 33 [penwidth=2]
    22 -> 33 [penwidth=2]
    2 -> 33 [penwidth=2]
    44 -> 33 [penwidth=2]
    23 -> 12 [penwidth=2]
    3 -> 34 [penwidth=2]
    24 -> 34 [penwidth=2]
    4 -> 34 [penwidth=2]
    25 -> 34 [penwidth=2]
    5 -> 34 [penwidth=2]
    26 -> 34 [penwidth=2]
    6 -> 13 [penwidth=2]
    27 -> 13 [penwidth=2]
    7 -> 13 [penwidth=2]
    28 -> 13 [penwidth=2]
    8 -> 13 [penwidth=2]
    29 -> 13 [penwidth=2]
    9 -> 35 [penwidth=2]
    30 -> 35 [penwidth=2]
    39 -> 11 [penwidth=2]
    39 -> 35 [penwidth=2]
    39 -> 14 [penwidth=2]
    19 -> 17 [penwidth=2]
    19 -> 34 [penwidth=2]
    22 -> 10 [penwidth=2]
    23 -> 14 [penwidth=2]
    23 -> 17 [penwidth=2]
}