# Number of vertices:
100
# Edge list:
67,0
81,0
68,0
82,0
69,0
70,0
71,0
72,67
73,67
74,81
75,82
76,82
77,82
78,82
79,69
80,69
1,69
98,69
2,70
97,71
3,71
96,71
4,72
94,73
5,73
93,74
6,74
95,74
7,74
92,75
8,75
91,75
9,75
90,76
10,76
89,76
11,76
12,77
84,77
13,77
85,78
14,78
15,80
86,80
16,1
87,1
17,1
83,2
18,97
19,97
99,97
20,3
21,96
22,96
23,96
88,96
24,4
25,94
26,94
27,94
28,94
29,93
30,93
31,6
32,6
33,6
34,95
35,95
36,95
37,7
38,92
39,92
40,8
41,8
42,8
43,8
44,90
45,90
46,90
47,10
48,10
49,10
50,10
51,89
52,89
53,89
54,11
55,11
56,12
57,12
58,12
59,84
60,84
61,84
62,84
63,13
64,85
65,14
66,15
78,81
78,69
98,81
29,94
29,87
29,21
51,17
51,84
60,11
60,20
61,19
61,20
61,86
