# Number of vertices:
100
# Edge list:
47,0
89,0
48,0
90,0
49,89
91,89
50,89
92,89
51,48
93,50
52,50
94,50
53,50
95,92
54,92
96,92
55,51
97,51
56,51
98,93
57,52
99,52
58,52
59,52
60,94
61,94
62,95
63,95
64,54
65,54
66,54
67,96
68,96
69,55
70,55
71,55
72,97
73,98
74,98
75,98
76,98
77,57
78,99
79,58
80,59
81,59
82,60
83,60
84,60
1,61
85,64
2,64
86,65
3,65
87,67
4,68
88,68
5,68
6,69
7,70
8,71
9,71
10,71
11,71
12,72
13,72
14,72
15,72
16,73
17,73
18,73
19,73
20,74
21,74
22,74
23,75
24,75
25,75
26,75
27,76
28,77
29,77
30,78
31,78
32,78
33,78
34,79
35,79
36,79
37,81
38,81
39,81
40,84
41,84
42,84
43,1
44,1
45,1
46,85
49,47
49,48
49,90
58,56
58,96
58,53
58,94
58,55
71,96
71,97
71,95
71,54
71,52
73,57
73,70
73,68
73,69
3,98
87,60
4,67
7,61
7,67
7,99
18,3
18,78
18,10
20,6
20,84
25,14
25,6
25,81
37,82
37,83
37,9
37,86
45,2
45,3
