# Number of vertices:
100
# Edge list:
76,0
77,0
78,0
79,76
80,77
81,79
82,80
83,82
84,82
85,83
86,83
87,83
88,84
89,85
90,85
91,85
92,85
93,86
94,86
95,86
96,87
97,89
98,89
99,89
34,90
35,90
36,90
37,90
38,91
32,91
39,92
40,92
41,92
42,92
1,93
43,94
33,94
2,94
44,96
3,97
45,97
4,97
46,98
5,99
47,99
6,99
48,99
7,34
49,34
8,34
50,35
9,36
51,36
10,38
52,38
53,32
11,32
54,32
12,32
13,39
55,39
14,39
56,39
15,40
57,40
16,41
58,42
17,42
59,42
18,42
60,1
19,43
61,43
20,2
62,44
21,3
63,3
22,3
64,45
23,45
65,45
24,4
66,46
25,46
67,46
26,46
68,5
27,47
69,47
28,47
70,47
29,6
71,6
30,6
72,6
31,7
73,7
74,7
75,49
89,88
89,86
93,87
93,88
93,85
37,96
37,95
37,91
55,97
55,33
19,33
19,1
19,35
19,39
21,5
21,49
26,15
26,8
26,3
68,16
29,17
29,47
73,10
73,60
73,57
73,45
73,5
75,46
75,15
75,51
75,57
