# Number of vertices:
100
# Edge list:
5,0
47,0
6,0
48,0
7,0
49,0
8,0
50,0
9,0
51,0
10,0
52,0
11,0
53,0
12,0
54,0
13,0
55,0
14,5
56,47
15,47
57,47
16,6
58,6
17,6
59,6
18,48
60,48
19,48
61,8
20,8
62,8
21,8
63,50
22,9
64,10
23,10
65,52
24,11
66,11
67,53
25,53
26,12
68,12
27,12
69,12
28,54
70,13
29,13
71,13
30,55
72,14
31,14
73,14
32,56
74,15
33,15
75,15
34,15
76,57
35,57
77,58
36,58
78,17
37,17
79,17
38,59
80,18
39,18
81,19
40,19
82,19
41,19
83,61
42,61
84,21
1,63
43,22
85,22
2,22
44,24
86,24
3,24
45,24
87,25
46,26
4,26
88,26
89,26
90,68
91,68
92,68
93,27
94,27
95,27
96,28
97,28
98,28
99,28
28,10
28,7
28,55
71,48
71,55
71,8
71,9
71,47
73,22
73,58
73,21
77,18
77,64
77,62
37,21
37,61
37,26
37,67
37,71
80,65
81,61
81,67
81,21
82,60
82,15
2,30
