# Number of vertices:
100
# Edge list:
12,0
96,0
13,0
97,12
14,12
98,12
15,96
99,96
16,96
17,13
18,97
19,97
20,97
21,14
22,14
23,14
24,14
25,15
26,15
27,15
28,15
29,16
30,16
31,16
32,17
33,17
34,17
35,17
36,18
37,18
38,18
39,19
40,19
41,20
42,20
1,20
43,22
2,22
44,23
3,24
45,24
4,24
46,24
5,25
47,25
6,25
48,25
7,26
49,27
8,27
50,27
9,28
51,29
10,29
52,29
53,29
11,30
54,30
55,31
56,31
57,34
58,34
59,34
60,34
61,35
62,35
63,35
64,35
65,36
66,39
67,40
68,40
69,41
70,41
71,41
72,42
73,42
74,1
75,1
76,1
77,1
78,43
79,43
80,43
81,44
82,3
83,45
84,45
85,4
86,4
87,4
88,46
89,5
90,5
91,5
92,5
93,47
94,47
95,48
2,29
8,22
66,46
86,57
86,40
86,48
86,38
92,3
92,47
92,52
92,4
