# Number of vertices:
100
# Edge list:
78,0
30,0
12,0
79,0
10,0
28,0
11,78
27,12
9,12
99,12
29,79
8,28
98,28
7,11
6,11
1,11
26,9
96,9
36,9
24,9
23,99
35,29
33,98
34,7
32,7
21,6
31,6
19,1
20,1
95,1
18,1
83,26
4,26
84,26
86,96
17,96
94,36
16,24
15,24
85,24
97,23
81,23
22,35
82,35
5,33
93,33
3,33
92,34
2,32
90,21
13,21
80,31
88,31
25,31
91,19
14,19
89,20
87,20
53,18
76,18
77,18
74,18
62,83
61,83
75,4
73,4
72,4
60,84
71,84
57,84
59,84
56,86
58,86
47,86
52,86
49,17
64,16
50,16
48,16
51,15
65,15
66,85
67,85
46,81
45,81
70,81
55,22
63,22
54,22
68,82
69,82
44,82
39,82
43,5
38,5
40,5
42,93
37,93
41,93
96,27
96,99
96,29
96,98
96,8
20,96
20,7
4,7
88,93
88,85
76,21
76,86
76,93
76,97
76,81
62,95
62,85
62,22
62,20
62,86
75,97
75,19
75,21
73,15
73,21
73,34
73,17
44,93
44,21
