# Number of vertices:
100
# Edge list:
5,0
47,0
6,0
48,0
7,0
49,47
8,47
50,47
9,47
51,6
10,48
52,48
11,48
53,48
12,7
54,7
13,49
55,49
14,49
56,49
15,8
57,50
16,50
58,50
17,9
59,9
18,9
60,9
19,51
61,11
20,53
62,53
21,12
63,12
22,12
64,12
23,54
65,54
66,54
24,13
67,13
25,13
26,55
68,55
27,14
69,14
28,56
70,15
29,15
71,15
30,15
72,57
31,57
73,57
32,16
74,58
33,58
75,58
34,59
76,59
35,18
77,18
36,60
78,60
37,60
79,19
38,61
80,62
39,63
81,63
40,63
82,63
41,22
83,22
42,23
84,65
43,66
85,24
44,24
86,67
45,67
87,67
46,25
88,25
89,68
90,68
91,27
92,27
93,69
94,69
95,70
96,70
97,29
98,71
99,71
1,30
2,30
3,30
4,30
10,47
15,53
15,9
57,52
57,11
57,53
30,58
30,62
30,22
30,13
30,19
31,15
31,65
31,59
31,63
31,64
35,57
35,23
35,19
35,60
35,58
81,20
81,23
81,57
81,60
86,33
86,81
91,43
91,83
91,72
