# Number of vertices:
100
# Edge list:
72,0
68,0
50,0
58,0
44,0
41,0
53,0
43,0
49,0
42,72
73,72
54,72
40,72
36,68
48,68
38,50
71,50
25,58
37,58
39,44
57,44
26,44
52,44
65,41
14,41
62,41
35,41
59,53
60,53
32,53
29,43
30,43
63,49
24,49
33,42
55,73
23,54
46,54
22,54
31,40
51,40
21,40
66,36
28,36
20,48
45,48
56,48
19,38
61,38
27,38
64,38
18,71
69,25
67,25
17,37
34,37
16,37
70,37
47,39
15,39
88,26
92,26
10,26
83,26
1,52
9,52
77,65
7,65
12,14
98,14
96,14
6,14
78,62
86,62
4,62
93,62
76,35
2,59
75,60
5,32
91,29
99,29
3,29
84,30
90,30
13,30
8,63
11,63
94,63
85,24
79,24
89,24
80,24
87,33
97,33
95,55
81,55
82,23
74,23
37,50
37,53
37,72
37,49
57,72
57,53
62,43
62,72
62,50
62,53
30,58
30,41
30,44
30,68
30,49
63,44
63,72
63,58
63,53
63,41
69,32
69,38
9,42
12,42
12,60
12,73
