# Number of vertices:
100
# Edge list:
28,0
29,0
30,0
31,0
32,0
33,0
34,0
35,0
36,0
37,0
38,0
39,0
40,0
41,0
42,0
1,0
43,0
2,0
44,0
3,28
45,29
4,29
46,29
5,29
47,32
48,32
6,32
7,33
49,33
8,33
50,34
9,34
51,34
10,34
52,35
11,36
53,36
12,36
54,36
13,37
55,37
14,38
56,38
15,39
57,40
16,40
58,41
17,41
59,41
18,42
60,42
19,42
61,42
20,1
62,1
21,43
63,43
22,2
64,2
23,44
65,44
24,44
66,44
25,3
67,3
26,3
68,3
69,45
27,46
70,46
71,46
72,47
73,47
74,47
75,7
76,7
77,8
78,8
79,8
80,50
81,9
82,9
83,9
84,10
85,10
86,10
87,10
88,52
89,52
90,52
91,52
92,11
93,11
94,53
95,53
96,53
97,12
98,12
99,12
45,30
8,2
8,31
8,41
8,29
8,44
53,38
53,28
53,29
26,9
82,6
82,64
82,50
82,5
83,47
83,24
83,65
83,59
83,13
91,7
97,14
97,55
97,10
97,61
