# Number of vertices:
100
# Edge list:
87,0
43,0
80,0
20,0
53,0
5,0
23,0
66,0
61,0
99,0
49,0
62,0
63,0
2,0
56,87
71,43
11,43
57,43
21,80
50,80
30,80
48,20
28,20
98,20
32,20
64,53
39,53
65,5
18,23
3,23
41,66
68,66
26,66
67,99
31,99
86,99
19,99
33,49
97,49
59,62
69,62
78,63
6,2
70,2
91,71
34,71
46,11
90,11
35,11
60,57
96,57
10,57
72,21
9,21
17,30
14,30
55,30
52,30
22,48
74,48
47,48
92,28
15,98
75,64
38,64
45,39
58,3
37,3
51,3
76,41
40,68
93,68
29,68
12,68
54,26
4,26
73,67
44,67
16,67
27,31
42,31
79,31
24,31
77,86
36,33
7,97
85,97
1,97
88,59
82,59
25,69
84,78
89,78
95,78
94,6
8,6
83,6
81,6
13,70
56,66
56,61
67,87
67,49
67,2
67,53
67,43
55,56
12,21
4,69
4,70
82,67
82,50
82,97
95,41
95,48
