# Number of vertices:
100
# Edge list:
64,0
65,0
12,0
66,0
5,0
67,0
68,0
2,0
21,0
69,0
70,0
71,0
72,0
18,0
73,0
13,0
20,0
74,0
75,0
19,0
76,64
77,64
3,65
78,65
79,12
80,66
81,66
82,5
83,5
84,67
7,68
85,68
4,2
86,21
6,21
87,21
17,21
88,69
89,70
11,70
90,70
1,70
91,71
92,72
15,72
93,72
10,18
14,18
94,18
9,18
95,73
96,20
97,20
98,20
99,20
8,75
16,19
22,19
23,76
24,77
25,77
26,77
27,77
28,78
29,79
30,79
31,79
32,80
33,81
34,82
35,84
36,7
37,7
38,7
39,85
40,85
41,4
42,4
43,4
44,6
45,87
46,87
47,87
48,88
49,88
50,88
51,88
52,89
53,89
54,90
55,90
56,90
57,90
58,1
59,91
60,91
61,91
62,92
63,92
79,19
79,72
79,65
79,75
79,74
96,72
96,12
96,68
25,15
25,88
25,85
25,89
38,1
45,22
45,99
45,9
45,16
45,11
55,80
59,9
59,10
