# Number of vertices:
100
# Edge list:
12,0
54,0
13,0
55,0
14,0
56,0
15,0
57,0
16,0
58,0
17,0
59,12
18,12
60,12
19,12
61,54
20,54
62,54
21,13
63,13
22,13
64,13
23,55
65,14
24,14
66,14
25,15
67,15
26,15
68,57
27,57
69,57
28,57
70,16
29,16
71,58
30,17
72,59
73,59
31,59
74,60
32,60
33,60
75,60
34,19
76,19
35,19
77,19
36,61
78,61
37,61
79,61
38,20
80,20
39,62
81,62
40,62
82,62
41,21
83,21
42,21
84,21
1,63
43,63
85,22
2,22
44,22
86,22
3,64
45,24
87,66
4,66
46,66
88,25
5,26
47,68
89,68
6,27
48,27
90,69
7,69
49,70
91,70
8,29
50,29
92,29
9,29
51,71
93,73
52,31
10,31
94,31
53,74
11,74
95,74
96,74
97,32
98,32
99,32
59,58
59,57
34,64
34,22
34,25
44,28
4,62
4,19
4,20
4,28
4,68
6,64
6,28
6,65
6,21
6,71
