# Number of vertices:
100
# Edge list:
32,0
33,0
34,0
35,32
36,32
37,32
38,33
39,33
40,33
41,33
42,36
43,37
44,38
45,39
46,39
47,39
48,40
49,41
50,41
51,41
52,42
53,42
54,42
55,42
56,44
57,45
58,45
59,46
60,46
61,46
62,47
63,47
64,47
65,47
66,48
67,48
68,50
69,51
70,51
71,51
72,52
73,52
74,54
75,54
76,54
77,55
78,55
79,55
80,56
81,56
82,56
83,57
84,57
1,58
85,59
2,59
86,60
3,60
87,61
4,61
88,61
5,61
89,62
6,62
90,62
7,62
91,63
8,63
92,63
9,64
93,65
10,65
94,65
11,65
95,66
12,66
96,67
13,67
97,67
14,68
98,68
15,68
99,70
16,72
17,72
18,72
19,72
20,73
21,73
22,77
23,77
24,77
25,78
26,79
27,80
28,80
29,81
30,81
31,81
50,37
54,49
59,47
59,48
60,50
60,47
60,44
60,42
69,42
2,61
2,67
17,98
17,77
18,91
18,97
27,87
27,96
