# Number of vertices:
100
# Edge list:
6,0
48,0
7,0
49,0
8,0
50,0
9,0
51,0
10,48
52,48
11,8
53,8
12,50
54,10
13,10
55,10
14,10
56,52
15,53
57,53
16,53
58,53
17,12
59,54
18,54
60,13
19,13
61,55
20,55
62,55
21,56
63,56
22,15
64,15
23,15
65,15
24,57
66,16
25,16
67,58
68,58
26,17
27,17
69,59
28,59
70,59
29,59
71,18
30,19
72,61
31,61
73,61
32,20
74,20
33,62
75,62
34,62
76,62
35,21
77,21
36,63
78,63
37,63
79,63
38,22
80,64
39,64
81,64
40,23
82,23
41,23
83,65
42,65
84,65
43,25
85,25
44,25
86,67
45,67
87,67
46,67
88,68
47,68
89,68
90,68
91,27
92,27
93,27
94,69
95,28
96,70
97,29
98,29
99,29
1,29
2,71
3,71
4,71
5,30
16,11
16,52
16,12
61,16
61,13
61,58
34,21
34,23
34,18
34,25
42,60
42,23
