# Number of vertices:
100
# Edge list:
10,0
52,0
94,0
11,0
53,0
95,0
12,0
54,0
96,0
13,0
55,0
97,0
14,0
56,0
98,52
15,52
57,52
99,52
16,94
58,94
17,11
59,53
18,53
60,53
19,95
61,95
20,12
62,54
21,54
63,54
22,54
64,96
23,96
65,96
24,96
66,13
25,55
67,55
26,55
68,97
27,97
69,97
28,14
70,56
29,56
71,98
72,98
30,98
31,98
73,15
32,57
74,57
33,99
75,99
34,99
76,99
35,16
77,16
36,58
78,58
37,58
79,58
38,17
80,17
39,59
81,59
40,18
82,18
41,18
83,18
42,60
84,60
43,60
85,20
44,20
86,20
45,62
87,62
46,21
88,21
47,21
89,21
48,22
90,22
49,22
91,64
50,23
92,66
51,66
93,25
1,67
2,67
3,67
4,67
5,26
6,68
7,68
8,68
9,68
60,13
60,97
60,10
60,54
60,12
19,14
62,14
27,56
27,10
27,55
27,14
31,99
32,21
32,63
75,24
75,63
38,59
81,24
81,61
81,68
81,65
81,18
90,62
90,63
90,24
90,29
3,64
3,29
6,70
6,25
6,63
6,67
6,23
9,21
9,70
9,62
9,24
