# Number of vertices:
100
# Edge list:
23,0
20,0
25,0
24,0
15,0
14,0
21,0
30,0
26,0
36,0
18,0
13,0
29,0
19,0
31,0
12,0
11,0
33,0
10,23
9,25
17,25
32,25
41,24
42,24
28,24
43,15
45,15
16,15
38,14
44,14
27,14
40,14
39,21
22,21
46,21
86,26
84,26
92,36
75,36
83,36
90,36
51,18
55,18
70,18
37,18
35,29
68,29
57,29
53,19
61,19
64,19
63,31
65,31
96,12
4,11
47,11
91,11
89,11
60,33
5,33
80,10
50,10
82,10
6,9
81,9
93,17
1,17
79,17
99,17
49,32
7,32
66,32
52,28
87,28
72,45
88,16
95,38
2,38
48,38
3,38
78,44
94,44
56,44
97,27
8,27
69,40
85,39
67,39
77,39
73,22
54,22
76,22
59,22
58,46
98,46
34,86
62,86
74,86
71,86
45,30
45,18
45,21
45,11
45,36
46,30
46,19
46,31
46,29
79,4
79,65
7,37
72,61
72,39
72,4
3,61
3,60
3,83
3,39
73,37
73,40
73,96
73,68
