# Number of vertices:
100
# Edge list:
28,0
70,0
29,28
71,28
30,70
72,70
31,29
73,71
32,71
74,30
33,30
75,30
34,72
76,72
35,72
77,72
36,31
78,31
37,31
79,31
38,32
80,32
39,74
81,74
40,76
82,77
41,77
83,77
42,36
84,78
1,78
43,37
85,37
2,37
44,79
86,79
3,79
45,79
87,38
4,38
46,38
88,38
5,80
47,80
89,39
48,39
6,39
90,39
7,40
49,40
91,40
8,40
50,82
92,82
9,82
51,41
93,41
10,83
52,42
94,42
11,84
53,84
95,84
12,43
54,85
96,85
13,2
55,2
97,2
14,44
56,44
98,3
15,3
57,4
99,4
16,4
58,4
17,88
59,47
18,47
60,89
19,89
61,89
20,89
62,48
21,48
63,48
22,6
64,90
23,90
65,90
27,90
24,7
66,49
25,91
67,91
26,8
68,50
69,50
72,28
4,81
46,36
47,78
