# Number of vertices:
100
# Edge list:
22,0
23,0
24,0
25,0
26,0
27,0
28,0
29,0
30,0
31,0
32,0
33,22
34,24
35,25
36,25
37,26
38,26
39,27
40,27
41,27
42,27
43,28
44,28
45,28
46,30
47,30
48,30
49,32
50,37
51,37
52,37
53,37
54,38
55,39
56,39
57,39
58,39
59,40
60,40
61,40
62,40
63,41
64,41
65,42
66,42
67,42
68,42
69,43
70,43
71,43
72,43
73,44
74,44
75,44
76,44
77,45
78,45
79,45
80,46
81,46
82,46
83,46
84,47
1,47
85,47
2,48
86,48
3,48
87,48
4,49
88,49
5,49
89,50
6,50
90,50
7,50
91,51
8,51
92,51
9,51
93,53
10,54
94,54
11,55
95,55
12,55
96,56
13,56
97,56
14,56
98,57
15,58
99,59
16,59
17,59
18,60
19,62
20,62
21,62
52,36
52,46
52,42
52,39
58,41
58,37
58,34
58,46
70,47
80,47
80,43
80,41
80,44
87,45
87,42
87,39
87,33
91,2
91,78
91,77
91,79
91,50
92,57
92,68
92,67
92,62
97,61
97,78
15,52
15,77
15,70
15,1
