# Number of vertices:
100
# Edge list:
27,0
89,0
7,0
90,0
91,0
8,0
25,0
92,0
6,0
20,27
35,89
93,89
2,89
94,89
45,7
95,7
9,7
42,90
96,90
33,90
36,91
97,91
98,91
1,8
44,8
46,8
99,92
10,92
37,92
28,92
30,6
11,6
23,20
12,20
5,20
13,35
14,93
39,93
26,2
40,2
29,94
15,94
22,94
4,45
24,45
43,45
16,45
41,9
21,9
32,9
17,9
3,42
34,96
18,36
31,36
38,36
19,97
47,97
48,97
49,97
50,1
51,1
52,44
53,44
54,44
55,44
56,99
57,99
58,99
59,10
60,37
61,37
62,30
63,30
64,30
65,23
66,23
67,23
68,12
69,12
70,12
71,5
72,5
73,5
74,13
75,13
76,13
77,39
78,39
79,39
80,39
81,40
82,40
83,40
84,29
85,29
86,29
87,29
88,22
96,92
14,46
14,33
14,44
31,96
31,99
31,2
31,35
49,11
49,28
50,99
50,97
50,2
81,34
81,54
81,12
81,17
81,62
82,50
82,32
82,62
82,56
82,17
