# Number of vertices:
100
# Edge list:
89,0
10,0
93,0
90,0
9,0
92,0
88,0
91,0
53,0
98,0
2,0
61,0
87,0
3,0
60,0
1,0
86,0
99,0
66,89
85,89
58,89
84,90
8,90
59,90
83,90
57,9
82,92
81,92
80,88
79,88
65,53
78,53
7,53
77,98
76,2
75,2
64,2
74,2
55,61
6,61
56,61
73,87
63,87
5,60
4,1
72,86
54,86
71,86
70,86
62,99
69,99
68,99
67,85
36,58
52,58
51,84
42,84
50,84
49,84
46,8
45,8
43,8
38,8
35,59
37,59
41,83
48,83
44,83
39,83
47,57
40,57
18,82
34,82
19,82
33,82
22,81
32,80
16,78
95,78
31,78
17,7
97,7
30,76
21,76
29,64
15,64
28,74
14,74
27,74
96,6
12,56
26,56
20,56
25,56
94,73
13,63
24,5
11,4
23,4
58,99
79,9
78,87
56,92
56,1
63,92
40,5
40,72
15,77
15,76
15,79
15,83
