# Number of vertices:
100
# Edge list:
57,0
58,0
86,0
87,0
62,0
88,0
59,0
89,0
90,0
91,0
63,0
92,0
61,0
93,0
94,0
52,0
95,0
96,0
97,0
6,57
60,57
98,57
13,58
55,58
99,58
7,58
16,86
51,87
24,87
20,87
56,62
1,62
53,62
2,62
3,89
4,89
22,89
50,90
5,90
54,91
11,91
14,91
10,91
9,63
23,63
29,92
25,92
15,61
26,93
12,94
18,94
27,94
21,52
17,95
8,95
28,95
19,6
33,60
83,60
82,60
81,60
80,98
79,98
78,13
77,55
76,55
75,55
74,99
73,7
72,7
43,16
71,16
45,16
70,16
35,24
42,24
69,24
49,24
68,20
67,20
32,20
44,56
48,56
66,56
65,56
46,53
34,53
37,2
64,2
38,3
30,3
39,3
31,3
36,4
40,22
41,22
47,22
84,22
85,50
50,59
50,89
15,87
15,63
27,87
27,89
27,95
27,57
27,61
79,55
79,53
79,20
78,60
71,55
67,25
46,5
