# Number of vertices:
100
# Edge list:
15,0
58,0
59,0
60,0
61,0
62,0
63,0
64,15
65,15
66,15
67,59
68,59
69,59
70,60
71,60
72,61
73,61
74,61
75,61
76,62
77,62
78,62
79,62
80,63
81,64
82,65
83,65
84,66
85,66
86,66
87,67
88,67
89,68
90,69
91,70
92,70
93,70
94,70
95,71
96,73
97,74
98,75
99,75
16,76
17,76
18,76
19,77
20,78
21,78
22,78
23,78
24,79
25,80
26,80
27,80
28,81
29,82
30,83
31,83
32,83
33,83
34,85
35,85
36,86
37,86
38,86
39,87
40,87
41,87
42,89
1,89
43,89
2,90
44,91
3,91
45,91
4,91
46,92
5,93
47,94
6,95
48,95
7,97
49,97
8,98
50,98
9,98
51,99
10,16
52,16
14,16
11,16
53,17
12,17
54,17
13,17
55,18
56,19
57,19
70,63
70,62
70,58
70,61
70,15
75,15
91,80
91,71
19,65
19,75
19,79
19,68
2,24
2,86
48,16
48,84
48,88
50,19
50,97
50,88
50,99
50,24
