# Number of vertices:
100
# Edge list:
42,0
84,0
1,0
43,0
85,0
2,0
44,0
86,0
3,0
45,0
87,0
4,0
46,0
88,0
5,0
47,42
89,42
6,84
48,1
90,1
7,43
49,43
91,85
8,85
50,85
92,2
9,2
51,44
93,44
10,44
52,86
94,86
11,3
53,3
95,45
12,45
54,45
96,45
13,87
55,87
97,87
14,4
56,4
98,4
15,88
57,88
99,5
16,5
58,5
17,47
59,89
18,89
60,6
19,6
61,6
62,6
20,48
21,48
63,48
83,90
22,90
64,90
23,90
65,7
24,7
66,7
25,49
67,49
26,49
68,8
27,8
69,8
28,8
70,50
29,9
71,9
30,9
72,51
31,51
73,51
32,51
74,93
33,93
75,52
34,52
76,52
35,52
77,94
36,94
78,94
37,11
79,11
38,11
80,95
39,95
81,95
40,95
82,12
41,54
48,4
48,44
54,3
57,43
57,46
57,5
99,84
99,46
99,44
58,46
58,88
58,86
58,85
19,57
19,11
19,16
19,51
61,99
61,8
61,58
66,58
66,96
66,13
68,57
32,16
32,55
32,10
32,49
75,10
75,96
75,13
75,97
75,99
