# Number of vertices:
100
# Edge list:
93,0
1,0
58,0
14,0
55,0
77,0
39,0
53,93
9,93
76,93
38,93
74,1
8,58
52,58
33,58
71,14
6,14
84,14
37,14
73,55
7,55
51,39
42,39
50,39
36,9
70,9
2,76
41,76
68,76
80,74
4,74
66,74
32,52
5,52
79,33
64,33
31,33
75,33
30,71
65,71
40,71
60,6
67,6
35,6
3,6
81,84
83,84
29,84
54,84
28,73
61,7
34,7
59,7
24,51
63,51
92,51
27,50
62,50
26,36
72,70
91,70
10,70
25,70
56,2
99,2
19,2
57,41
90,41
20,41
98,41
23,68
69,68
89,68
22,68
82,80
97,80
21,80
78,80
17,4
88,66
96,66
16,66
49,32
46,32
15,32
95,5
18,5
48,5
87,79
44,79
12,64
45,64
85,64
94,64
13,31
47,31
86,31
11,31
43,75
38,58
52,93
52,1
52,39
52,14
52,55
71,55
50,58
75,52
10,83
10,40
10,2
10,31
90,61
90,62
69,83
69,65
69,66
69,64
44,66
44,28
44,54
44,63
94,79
