# Number of vertices:
100
# Edge list:
17,0
18,0
23,0
20,0
33,0
31,0
32,0
24,0
15,0
19,0
26,0
21,0
16,0
36,18
35,18
29,23
34,20
22,20
55,20
47,20
28,33
25,33
37,33
30,31
57,31
45,32
27,32
5,32
50,32
56,15
7,15
8,15
49,15
9,19
59,19
10,19
51,19
44,26
1,21
43,21
3,21
48,21
14,16
58,36
2,36
38,35
52,35
13,35
53,29
4,29
12,29
46,29
54,34
6,34
11,34
70,22
62,55
64,47
88,47
75,47
81,47
92,28
82,28
65,25
73,37
61,37
77,37
97,30
60,30
86,30
83,57
94,57
41,57
74,57
98,45
76,45
84,5
72,56
89,56
87,8
42,8
63,9
40,9
96,59
99,59
39,51
71,51
78,51
91,1
79,43
69,43
80,43
93,3
95,3
66,3
90,48
68,48
67,48
85,48
22,31
49,23
49,20
53,49
53,8
53,3
53,43
53,55
81,59
81,36
81,8
81,5
65,9
42,55
42,34
42,25
