# Number of vertices:
100
# Edge list:
80,0
82,0
77,0
83,0
76,0
73,0
71,0
72,0
68,0
69,0
47,0
78,80
79,80
70,80
46,80
75,82
81,82
74,83
49,83
94,76
98,76
1,76
87,73
27,73
22,73
15,71
19,71
97,71
10,72
21,72
48,69
53,69
25,47
96,47
13,78
12,78
31,78
26,78
5,79
24,79
95,70
86,70
88,46
3,46
16,46
89,75
2,75
93,75
14,81
6,81
67,81
18,81
4,74
52,49
99,49
7,94
56,94
85,94
59,98
32,98
66,1
84,87
51,87
38,87
63,87
58,22
11,22
35,19
91,19
9,19
42,97
61,97
65,97
90,97
41,10
43,10
62,10
92,21
30,48
37,48
29,25
50,25
17,96
40,96
57,13
39,12
64,31
8,26
36,26
23,26
45,26
60,5
44,5
33,5
20,5
28,24
54,95
55,95
34,86
78,82
78,83
15,73
15,72
15,47
97,68
97,73
5,78
88,70
88,78
93,94
14,53
35,79
35,97
50,70
