# Number of vertices:
100
# Edge list:
46,0
1,0
48,0
49,0
50,0
51,0
52,0
53,0
44,0
54,0
55,0
56,0
57,0
58,0
59,0
43,0
60,0
61,0
62,0
63,0
64,46
65,46
66,46
67,46
47,1
68,48
69,48
70,49
71,50
72,50
73,50
45,50
74,51
3,52
31,52
75,52
76,52
77,54
10,54
78,54
32,54
79,55
7,56
80,56
37,56
19,57
81,57
42,58
82,58
12,58
83,59
84,59
85,59
25,59
13,43
86,43
87,43
17,43
88,60
22,60
89,60
18,61
90,61
91,61
5,61
92,62
33,62
14,62
93,62
21,64
15,64
94,64
8,64
95,67
34,47
11,47
96,47
41,68
97,68
36,69
6,69
98,70
99,70
26,71
16,71
2,73
35,73
9,45
4,45
27,45
40,74
28,3
38,3
30,3
29,3
23,75
20,76
24,76
39,77
64,57
64,58
64,63
64,50
70,43
70,59
84,49
84,52
84,60
84,43
96,5
96,75
2,42
40,88
38,81
24,25
