# Number of vertices:
35
# Edge list:
19,0
20,0
21,0
1,0
22,0
23,0
2,0
24,0
3,0
25,19
4,19
26,19
5,19
27,19
6,19
28,20
7,20
29,21
8,21
30,21
9,21
31,21
10,21
32,22
11,22
33,22
12,22
34,23
13,23
14,23
15,24
16,24
17,3
18,3
5,23
5,3
6,1
32,24
12,19
16,3
