# Number of vertices:
35
# Edge list:
21,0
34,0
24,0
16,0
30,0
25,0
29,0
8,0
31,0
2,0
12,0
20,0
6,0
26,21
17,21
9,34
1,34
18,34
15,24
19,16
33,30
4,30
22,25
3,8
7,8
28,8
23,8
27,31
5,31
32,31
14,31
13,2
11,2
10,2
