# Number of vertices:
35
# Edge list:
8,0
12,0
24,0
11,0
23,0
14,0
6,0
10,0
15,0
16,0
9,0
4,0
3,0
25,8
17,24
1,24
2,24
34,24
30,11
22,11
19,23
27,23
29,14
21,14
33,14
20,14
28,14
26,6
13,10
7,10
31,10
32,10
18,10
5,15
34,9
33,15
