# Number of vertices:
35
# Edge list:
9,0
30,0
10,0
31,0
11,0
32,0
12,0
33,0
13,0
34,0
14,0
15,30
16,30
17,30
18,30
19,10
20,10
21,31
1,31
22,31
23,31
2,31
24,31
3,11
25,11
4,11
26,11
5,11
27,11
6,32
28,32
7,32
29,32
8,12
15,33
15,11
22,34
28,33
28,13
