# Number of vertices:
35
# Edge list:
14,0
16,0
18,0
11,0
26,0
30,14
10,14
12,14
9,14
25,14
24,16
23,16
22,16
8,16
21,16
20,18
29,11
28,26
2,26
27,26
7,26
17,30
13,30
6,30
1,30
34,9
5,9
33,9
32,9
4,9
31,25
3,25
15,25
19,25
12,11
9,26
9,11
7,18
7,11
32,20
4,25
