# Number of vertices:
35
# Edge list:
1,0
24,0
2,0
22,0
3,0
4,0
18,0
5,0
28,0
20,0
27,0
6,1
25,1
7,1
23,1
33,1
8,1
21,24
9,24
19,24
10,24
26,24
11,22
29,22
12,22
32,22
13,22
14,22
30,3
15,3
31,3
16,3
17,4
34,4
