# Number of vertices:
35
# Edge list:
6,0
27,0
7,0
28,0
8,0
29,0
9,0
30,0
10,6
31,6
11,6
32,27
12,27
33,7
13,7
34,7
14,7
15,7
16,7
17,28
18,28
19,8
20,8
21,8
1,29
22,29
23,29
2,29
24,29
3,29
25,9
4,9
26,9
5,9
34,9
18,9
5,6
5,29
