# Number of vertices:
35
# Edge list:
13,0
14,0
6,0
2,0
7,0
10,0
30,0
8,0
20,0
33,0
3,0
1,0
16,0
12,13
31,13
26,13
28,13
19,13
34,13
29,14
32,14
9,14
23,14
11,14
22,6
21,6
17,6
4,6
5,6
27,6
18,2
25,2
15,2
24,2
32,8
