# Number of vertices:
35
# Edge list:
4,0
25,0
5,0
26,0
6,0
27,0
7,4
28,4
8,25
29,25
9,25
30,25
10,25
31,5
11,5
32,26
12,26
33,26
13,26
34,26
14,6
15,6
16,6
17,27
18,27
19,27
20,27
21,28
1,28
22,8
23,29
2,29
24,9
3,9
11,25
11,27
32,5
32,27
17,6
22,14
22,16
