# Number of vertices:
35
# Edge list:
31,0
8,0
12,0
32,0
22,0
2,0
27,0
33,0
34,0
24,0
10,0
21,31
18,31
6,31
14,31
30,31
15,31
16,8
29,8
23,8
5,8
28,8
17,12
9,12
13,32
7,32
25,32
19,22
26,22
11,27
3,27
20,27
4,27
1,27
18,27
18,10
17,22
17,27
9,34
25,33
3,22
