# Number of vertices:
35
# Edge list:
10,0
15,0
23,10
1,10
13,23
34,23
14,23
33,23
32,13
17,34
22,34
12,34
9,34
31,34
21,34
30,33
7,33
29,17
11,17
28,17
5,12
16,12
27,12
8,12
26,9
6,9
4,9
25,9
3,9
20,9
19,30
24,7
2,7
18,7
1,15
14,1
32,14
30,34
30,13
28,21
20,7
18,12
18,32
