# Number of vertices:
35
# Edge list:
5,0
12,0
24,0
28,0
31,0
8,0
23,0
27,0
22,0
26,0
33,5
13,5
32,5
15,5
21,5
6,12
14,12
20,12
2,12
4,24
19,24
3,24
7,28
25,28
1,31
11,31
18,31
10,23
17,23
29,23
9,23
16,27
34,27
30,27
33,22
