# Number of vertices:
35
# Edge list:
24,0
13,0
25,0
3,0
17,0
10,0
26,0
23,0
6,0
27,0
28,0
16,0
29,0
30,0
15,24
22,24
18,24
31,24
21,24
32,24
33,13
14,25
34,25
19,25
4,25
12,17
5,17
20,17
9,17
1,17
2,17
8,10
11,10
7,10
22,13
12,6
1,28
