# Number of vertices:
35
# Edge list:
9,0
28,0
23,0
5,0
20,0
8,0
18,0
24,0
15,0
4,0
30,9
10,9
3,9
11,9
16,9
2,9
22,28
21,28
17,28
19,28
31,28
12,5
1,5
33,5
7,20
27,20
6,20
34,8
29,18
26,18
14,18
25,18
32,18
13,18
2,15
33,18
33,23
6,9
14,20
