# Number of vertices:
35
# Edge list:
4,0
25,0
5,0
26,0
6,0
27,0
7,0
28,0
8,0
29,0
9,0
30,0
10,4
31,4
11,25
32,25
12,25
33,25
13,5
34,5
14,5
15,26
16,26
17,26
18,6
19,6
20,27
21,27
1,27
22,27
23,27
2,7
24,7
3,7
