# Number of vertices:
35
# Edge list:
1,0
2,0
3,0
23,0
4,0
22,0
5,0
29,0
24,0
6,0
7,0
26,0
8,0
25,0
9,1
10,1
33,1
11,1
30,1
12,1
28,2
13,3
14,3
34,3
15,3
31,3
27,3
16,23
32,23
17,23
18,23
19,23
20,22
21,22
12,8
13,8
15,23
32,26
32,5
18,8
18,22
