# Number of vertices:
35
# Edge list:
19,0
20,0
21,0
1,0
22,0
2,0
23,0
3,0
24,0
4,0
25,0
5,0
26,0
6,19
27,20
7,20
28,20
8,20
29,20
9,20
30,21
10,21
31,21
11,21
32,1
12,1
33,1
13,1
34,1
14,1
15,2
16,2
17,2
18,2
10,26
15,4
