# Number of vertices:
35
# Edge list:
7,0
28,0
8,0
29,0
9,0
30,0
10,7
31,7
11,7
32,7
12,7
33,28
13,28
34,28
14,8
15,8
16,8
17,8
18,8
19,29
20,29
21,29
1,29
22,29
23,29
2,30
24,30
3,30
25,10
4,10
26,10
5,10
27,11
6,11
33,9
