# Number of vertices:
35
# Edge list:
20,0
21,0
1,0
22,0
2,20
23,20
3,1
24,1
4,1
25,1
5,1
26,2
6,2
27,2
7,2
28,2
8,2
29,23
9,23
30,23
10,3
31,3
11,3
32,24
12,24
33,4
13,4
34,4
14,25
15,25
16,25
17,25
18,25
19,5
4,20
4,22
27,4
8,4
8,25
10,25
12,5
