# Number of vertices:
35
# Edge list:
31,0
9,0
28,0
7,0
18,0
1,0
4,0
33,0
10,0
22,0
3,31
12,9
20,7
17,7
16,7
15,7
14,7
19,7
32,18
24,18
26,18
21,18
2,1
30,1
29,1
25,1
34,1
13,4
11,4
8,4
6,4
27,4
5,33
23,33
20,10
20,33
14,1
34,22
34,4
13,10
