digraph G {
    0 [penwidth=3,label="0"]
    1 [penwidth=3,label="1"]
    2 [penwidth=3,label="2"]
    3 [penwidth=3,label="3"]
    4 [penwidth=3,label="4"]
    5 [penwidth=3,label="5"]
    6 [penwidth=3,label="6"]
    7 [penwidth=3,label="7"]
    8 [penwidth=3,label="8"]
    9 [penwidth=3,label="9"]

    3 -> 0 [penwidth=2]
    5 -> 0 [penwidth=2]
    8 -> 0 [penwidth=2]
    2 -> 3 [penwidth=2]
    9 -> 3 [penwidth=2]
    7 -> 5 [penwidth=2]
    1 -> 5 [penwidth=2]
    6 -> 5 [penwidth=2]
    4 -> 8 [penwidth=2]
}