digraph G {
    0 [penwidth=3,label="0"]
    1 [penwidth=3,label="1"]
    2 [penwidth=3,label="2"]
    3 [penwidth=3,label="3"]
    4 [penwidth=3,label="4"]
    5 [penwidth=3,label="5"]
    6 [penwidth=3,label="6"]
    7 [penwidth=3,label="7"]
    8 [penwidth=3,label="8"]
    9 [penwidth=3,label="9"]
    10 [penwidth=3,label="10"]

    6 -> 0 [penwidth=2]
    10 -> 0 [penwidth=2]
    9 -> 6 [penwidth=2]
    4 -> 6 [penwidth=2]
    5 -> 6 [penwidth=2]
    8 -> 10 [penwidth=2]
    2 -> 10 [penwidth=2]
    1 -> 10 [penwidth=2]
    7 -> 9 [penwidth=2]
    3 -> 9 [penwidth=2]
    9 -> 10 [penwidth=2]
    4 -> 10 [penwidth=2]
    1 -> 6 [penwidth=2]
}