digraph G {
    0 [penwidth=3,label="0"]
    1 [penwidth=3,label="1"]
    2 [penwidth=3,label="2"]
    3 [penwidth=3,label="3"]
    4 [penwidth=3,label="4"]
    5 [penwidth=3,label="5"]
    6 [penwidth=3,label="6"]
    7 [penwidth=3,label="7"]
    8 [penwidth=3,label="8"]
    9 [penwidth=3,label="9"]
    10 [penwidth=3,label="10"]
    11 [penwidth=3,label="11"]
    12 [penwidth=3,label="12"]

    7 -> 0 [penwidth=2]
    9 -> 0 [penwidth=2]
    10 -> 0 [penwidth=2]
    11 -> 0 [penwidth=2]
    8 -> 9 [penwidth=2]
    4 -> 10 [penwidth=2]
    2 -> 10 [penwidth=2]
    1 -> 10 [penwidth=2]
    3 -> 11 [penwidth=2]
    5 -> 11 [penwidth=2]
    12 -> 11 [penwidth=2]
    6 -> 8 [penwidth=2]
}